[TYPE] NUCLEOTIDE 1 

[SETTINGS]
    [fastaextension] fasta  

[MODEL] csSim_unlinked_1
    [submodel] GTR 0.114134 0.015218 0.022635 0.023464 0.056653 
    [statefreq] 0.178049 0.187758 0.130468 0.503724 
[rates] 0 10.053406 0 

[MODEL] csSim_unlinked_2
    [submodel] GTR 0.153403 0.004777 0.021436 0.026303 0.032066 
    [statefreq] 0.190298 0.270988 0.011434 0.527280 
[rates] 0 9.472080 0 

[MODEL] csSim_unlinked_3
    [submodel] GTR 0.134396 0.003868 0.031084 0.032125 0.030363 
    [statefreq] 0.086197 0.171992 0.242899 0.498913 
[rates] 0 15.327438 0 

[MODEL] csSim_unlinked_4
    [submodel] GTR 0.110479 0.034294 0.022799 0.024086 0.015399 
    [statefreq] 0.031227 0.098911 0.218314 0.651547 
[rates] 0 63.435331 0 

[MODEL] csSim_unlinked_5
    [submodel] GTR 0.085431 0.006538 0.021737 0.031734 0.037913 
    [statefreq] 0.005182 0.067386 0.381800 0.545633 
[rates] 0 43.443226 0 

[MODEL] csSim_unlinked_6
    [submodel] GTR 0.114431 0.012821 0.018808 0.020916 0.042364 
    [statefreq] 0.390196 0.166879 0.280898 0.162027 
[rates] 0 0.301591 0 

[MODEL] csSim_unlinked_7
    [submodel] GTR 0.144248 0.018049 0.015282 0.019445 0.033048 
    [statefreq] 0.008451 0.316745 0.193462 0.481341 
[rates] 0 0.879951 0 

[MODEL] csSim_unlinked_8
    [submodel] GTR 0.095841 0.006295 0.009362 0.036117 0.046079 
    [statefreq] 0.188403 0.004876 0.217981 0.588740 
[rates] 0 16.550590 0 

[MODEL] csSim_unlinked_9
    [submodel] GTR 0.120981 0.006385 0.012329 0.023701 0.034394 
    [statefreq] 0.108962 0.374892 0.407181 0.108965 
[rates] 0 0.857757 0 

[MODEL] csSim_unlinked_10
    [submodel] GTR 0.089753 0.013062 0.017465 0.034022 0.055804 
    [statefreq] 0.502053 0.101494 0.334397 0.062057 
[rates] 0 9.432277 0 


[TREE] T01 (0_0_0:0.00613385,(((((11_0_3:0.00013287,11_0_0:0.00021490):0.00590777,(11_0_1:0.00068121,(11_0_2:0.00020529,(11_0_5:0.00008224,11_0_4:0.00001571):0.00006216):0.00017073):0.00093346):0.00121593,(((((8_0_3:0.00000483,(8_0_1:0.00000838,8_0_0:0.00000608):0.00002924):0.00008410,8_0_5:0.00001399):0.00001879,8_0_2:0.00006324):0.00039852,8_0_4:0.00018408):0.00105026,(((13_0_0:0.00016401,13_0_5:0.00009104):0.00000341,13_0_4:0.00009716):0.00003292,(13_0_2:0.00001530,(13_0_3:0.00008192,13_0_1:0.00002831):0.00000023):0.00092141):0.00180592):0.00326584):0.00061746,((((9_0_4:0.00003957,9_0_1:0.00008779):0.00166755,((9_0_0:0.00000275,9_0_3:0.00000684):0.00000626,(9_0_2:0.00004502,9_0_5:0.00003122):0.00008064):0.00054309):0.00020186,(((12_0_1:0.00002512,(12_0_4:0.00013060,12_0_0:0.00010091):0.00032160):0.00000871,12_0_2:0.00129617):0.00009647,(12_0_3:0.00001447,12_0_5:0.00014121):0.00031490):0.00060802):0.00064908,((((7_0_4:0.00028510,(10_0_2:0.00012040,10_0_5:0.00008886):0.00005277):0.00009144,(7_0_1:0.00006975,(7_0_2:0.00003082,7_0_5:0.00004349):0.00004030):0.00002158):0.00002823,(10_0_1:0.00006835,10_0_3:0.00002769):0.00011979):0.00050454,((7_0_3:0.00001269,7_0_0:0.00000619):0.00038344,(10_0_4:0.00031281,10_0_0:0.00004461):0.00023192):0.00008206):0.00420962):0.00272249):0.02111435,((((((5_0_1:0.00007910,(5_0_5:0.00005278,5_0_0:0.00006615):0.00009901):0.00005039,((5_0_4:0.00005434,5_0_3:0.00029230):0.00000630,5_0_2:0.00009860):0.00001487):0.00004499,((3_0_3:0.00003571,3_0_2:0.00001671):0.00049042,((3_0_0:0.00002429,(3_0_5:0.00003555,3_0_1:0.00000010):0.00000340):0.00001419,3_0_4:0.00013314):0.00029321):0.00014820):0.00025906,6_0_0:0.00025241):0.00003279,((6_0_3:0.00002968,(1_0_3:0.00000200,1_0_0:0.00000717):0.00057565):0.00063496,((((1_0_4:0.00002750,1_0_1:0.00003983):0.00002577,1_0_2:0.00003087):0.00027984,1_0_5:0.00052253):0.00001126,((6_0_2:0.00009138,(6_0_5:0.00002235,6_0_1:0.00000236):0.00000311):0.00004611,6_0_4:0.00003324):0.00042214):0.00019233):0.00043092):0.00422680,(((2_0_1:0.00021917,(2_0_2:0.00019439,2_0_3:0.00005591):0.00006420):0.00132038,(2_0_0:0.00000056,(2_0_4:0.00001239,2_0_5:0.00002016):0.00026676):0.00053749):0.00030870,((4_0_3:0.00008396,4_0_1:0.00005580):0.00000887,((4_0_4:0.00004782,4_0_0:0.00000922):0.00004054,(4_0_5:0.00000279,4_0_2:0.00000153):0.00026653):0.00001811):0.00105364):0.00538931):0.03303769):0.02918313);
[TREE] T02 (0_0_0:0.04263354,((((((9_0_0:0.00008600,(9_0_5:0.00017902,(9_0_4:0.00000111,9_0_3:0.00002687):0.00007685):0.00002355):0.00195727,(9_0_2:0.00004255,9_0_1:0.00022561):0.00066326):0.00002000,((12_0_2:0.00066581,((12_0_1:0.00007028,12_0_0:0.00001357):0.00018633,12_0_5:0.00031626):0.00006503):0.00166541,(12_0_3:0.00008751,12_0_4:0.00057297):0.00005960):0.00063016):0.00275669,(((((7_0_3:0.00001126,7_0_2:0.00001176):0.00000476,(7_0_5:0.00022007,7_0_1:0.00005778):0.00001185):0.00000853,(7_0_4:0.00004276,7_0_0:0.00000949):0.00034655):0.00006498,(10_0_5:0.00020523,(10_0_0:0.00010403,((10_0_1:0.00003116,10_0_3:0.00012863):0.00000587,10_0_4:0.00005985):0.00001388):0.00034803):0.00000323):0.00044671,10_0_2:0.00205419):0.00266522):0.00158874,((((13_0_5:0.00002975,(13_0_0:0.00076285,((13_0_4:0.00003785,13_0_1:0.00004249):0.00027470,13_0_2:0.00011859):0.00000091):0.00003663):0.00000562,13_0_3:0.00030663):0.00014145,(((8_0_3:0.00000558,8_0_5:0.00000268):0.00008232,8_0_1:0.00001356):0.00034467,(8_0_0:0.00007471,(8_0_4:0.00010615,8_0_2:0.00004555):0.00003150):0.00127725):0.00022296):0.00203750,(11_0_2:0.00033203,((11_0_0:0.00002238,11_0_1:0.00013143):0.00009662,(11_0_4:0.00051613,(11_0_3:0.00000857,11_0_5:0.00006901):0.00024407):0.00010270):0.00001068):0.00064296):0.00238700):0.00582278,((((((5_0_5:0.00011401,((5_0_2:0.00000730,5_0_3:0.00000547):0.00013029,5_0_1:0.00003480):0.00001208):0.00000389,5_0_4:0.00002525):0.00073405,((3_0_2:0.00000903,3_0_4:0.00003069):0.00040363,(3_0_0:0.00015327,3_0_3:0.00010383):0.00011668):0.00011510):0.00086403,(5_0_0:0.00132363,(3_0_5:0.00003823,3_0_1:0.00015087):0.00027336):0.00044289):0.00017553,((((1_0_5:0.00002183,1_0_2:0.00001211):0.00011138,((6_0_0:0.00006236,(6_0_5:0.00001411,6_0_2:0.00002449):0.00004480):0.00000006,(6_0_3:0.00013024,6_0_4:0.00004086):0.00002343):0.00005138):0.00002985,1_0_1:0.00009178):0.00004363,(6_0_1:0.00020947,(1_0_4:0.00019319,(1_0_3:0.00004438,1_0_0:0.00002832):0.00020960):0.00021636):0.00020495):0.00016242):0.00029788,(4_0_0:0.00134606,(((2_0_4:0.00007323,(2_0_1:0.00001859,2_0_2:0.00000218):0.00000556):0.00011439,(2_0_5:0.00010653,(2_0_3:0.00003680,2_0_0:0.00002114):0.00006244):0.00004855):0.00052703,(4_0_5:0.00086605,((4_0_1:0.00006129,(4_0_3:0.00001817,4_0_4:0.00001106):0.00001005):0.00005264,4_0_2:0.00003225):0.00091258):0.00008742):0.00014522):0.00127110):0.02058602):0.01352964);
[TREE] T03 (0_0_0:0.17163440,((((((4_0_4:0.00000140,4_0_5:0.00004026):0.00010387,4_0_3:0.00069007):0.00065750,((2_0_2:0.00000428,2_0_0:0.00001857):0.00012787,(2_0_4:0.00030125,(2_0_1:0.00004682,2_0_5:0.00029026):0.00000388):0.00006120):0.00050104):0.00013737,(((4_0_2:0.00001647,4_0_0:0.00000282):0.00012029,4_0_1:0.00016384):0.00330475,2_0_3:0.00172829):0.00000831):0.00188850,(((3_0_3:0.00013435,3_0_0:0.00020262):0.00031060,((((6_0_0:0.00004784,6_0_2:0.00002592):0.00020056,1_0_3:0.00162649):0.00056055,((6_0_5:0.00025340,(6_0_1:0.00002519,6_0_3:0.00006452):0.00002430):0.00003943,((1_0_0:0.00001886,((1_0_4:0.00001099,1_0_5:0.00001227):0.00063803,(1_0_2:0.00022270,1_0_1:0.00003677):0.00006769):0.00000049):0.00000282,6_0_4:0.00043239):0.00010584):0.00103330):0.00135927,(5_0_0:0.00020751,((5_0_4:0.00001441,5_0_1:0.00003175):0.00005580,5_0_5:0.00000332):0.00003026):0.00123502):0.00001320):0.00009045,(((3_0_1:0.00001098,3_0_2:0.00000944):0.00001706,(3_0_4:0.00000767,3_0_5:0.00000649):0.00002016):0.00077607,(5_0_2:0.00001768,5_0_3:0.00007840):0.00037637):0.00038106):0.00200051):0.01669785,((((((12_0_0:0.00005881,12_0_1:0.00007810):0.00003785,(12_0_3:0.00000686,12_0_2:0.00002039):0.00001630):0.00001614,(12_0_4:0.00003369,12_0_5:0.00019226):0.00016523):0.00175375,(((9_0_4:0.00012205,9_0_5:0.00007102):0.00018953,9_0_3:0.00005309):0.00002655,(9_0_1:0.00005392,(9_0_2:0.00000122,9_0_0:0.00004355):0.00016562):0.00009101):0.00125919):0.00103530,((7_0_1:0.00022752,(7_0_5:0.00008118,((10_0_0:0.00001686,(10_0_2:0.00011636,10_0_1:0.00004051):0.00002820):0.00006116,7_0_2:0.00005268):0.00000499):0.00000441):0.00067222,((10_0_5:0.00075296,7_0_0:0.00054319):0.00046278,((10_0_3:0.00006617,10_0_4:0.00001420):0.00005478,(7_0_4:0.00001816,7_0_3:0.00004074):0.00010858):0.00076656):0.00009967):0.00134730):0.00732813,(((11_0_2:0.00000379,11_0_1:0.00000085):0.00105061,(11_0_0:0.00041371,((11_0_5:0.00003248,11_0_3:0.00012450):0.00002895,11_0_4:0.00021936):0.00120104):0.00175371):0.00269746,((8_0_4:0.00001840,(8_0_5:0.00028025,(((8_0_0:0.00000161,8_0_2:0.00000521):0.00008489,8_0_1:0.00003096):0.00001639,8_0_3:0.00015384):0.00002479):0.00026581):0.00044682,((13_0_4:0.00021532,13_0_1:0.00015311):0.00095904,((13_0_3:0.00003824,13_0_5:0.00004701):0.00002569,(13_0_2:0.00012052,13_0_0:0.00014178):0.00023486):0.00013702):0.00029523):0.00028629):0.00245428):0.09196877):0.00666939);
[TREE] T04 (((((((9_0_5:0.00037748,9_0_3:0.00010463):0.00004928,(9_0_2:0.00027306,(9_0_4:0.00004373,(9_0_1:0.00001995,9_0_0:0.00004687):0.00013937):0.00073544):0.00005273):0.00169473,((12_0_1:0.00038884,(12_0_5:0.00035723,12_0_0:0.00000941):0.00058960):0.00072065,((12_0_3:0.00000051,12_0_2:0.00000226):0.00002795,12_0_4:0.00001414):0.00221655):0.00247233):0.00050104,(((10_0_1:0.00002529,10_0_0:0.00008190):0.00015177,(10_0_5:0.00021938,(7_0_5:0.00080330,10_0_4:0.00027060):0.00005298):0.00001762):0.00038262,(7_0_1:0.00001215,(((7_0_2:0.00000488,(7_0_4:0.00001054,7_0_0:0.00000334):0.00000051):0.00000337,7_0_3:0.00001382):0.00041339,(10_0_2:0.00004752,10_0_3:0.00003698):0.00013190):0.00010137):0.00068732):0.00057061):0.00457227,((((8_0_2:0.00013669,8_0_0:0.00005113):0.00081022,((13_0_4:0.00000664,13_0_3:0.00000098):0.00022054,((13_0_2:0.00096059,13_0_0:0.00043488):0.00000454,(13_0_1:0.00002159,13_0_5:0.00001023):0.00008438):0.00008906):0.00029711):0.00037749,(((8_0_3:0.00000082,8_0_1:0.00001181):0.00000975,8_0_5:0.00000623):0.00016376,8_0_4:0.00044475):0.00105368):0.00488742,(11_0_3:0.00062407,(11_0_2:0.00063580,(11_0_5:0.00005350,((11_0_1:0.00000583,11_0_0:0.00000226):0.00004922,11_0_4:0.00000956):0.00001430):0.00026272):0.00001723):0.00490384):0.00075944):0.01123582,(((((2_0_0:0.00000074,2_0_5:0.00000030):0.00001178,2_0_1:0.00003221):0.00025213,(2_0_3:0.00003390,2_0_4:0.00000207):0.00003918):0.00013540,((((4_0_0:0.00004130,4_0_5:0.00005486):0.00001870,((4_0_1:0.00001437,4_0_2:0.00000062):0.00002947,4_0_3:0.00006499):0.00001456):0.00096679,4_0_4:0.00063870):0.00081356,2_0_2:0.00221447):0.00127930):0.00226866,(((((((6_0_3:0.00001944,6_0_4:0.00003211):0.00000757,6_0_0:0.00011002):0.00027521,6_0_1:0.00001662):0.00017510,(1_0_1:0.00006545,(1_0_0:0.00000937,(1_0_5:0.00000854,1_0_3:0.00000872):0.00001397):0.00025572):0.00003853):0.00016605,(6_0_2:0.00132652,1_0_4:0.00043297):0.00001357):0.00001670,(1_0_2:0.00078954,6_0_5:0.00031366):0.00001230):0.00619780,((((5_0_1:0.00004857,(5_0_4:0.00001383,5_0_5:0.00000835):0.00005744):0.00035493,(3_0_1:0.00003345,((3_0_4:0.00000791,3_0_2:0.00000279):0.00009681,3_0_0:0.00016245):0.00006928):0.00024273):0.00017652,(5_0_2:0.00005887,(5_0_3:0.00000951,5_0_0:0.00000402):0.00014101):0.00028433):0.00038506,(3_0_3:0.00000432,3_0_5:0.00011634):0.00021878):0.00038272):0.00036152):0.00448582):0.00746104,0_0_0:0.07248140);
[TREE] T05 (0_0_0:0.02527085,((((((13_0_3:0.00004114,13_0_5:0.00000308):0.00030450,(((13_0_4:0.00003258,13_0_0:0.00000228):0.00001839,13_0_2:0.00003291):0.00006218,13_0_1:0.00011321):0.00028873):0.00059781,(((8_0_1:0.00003405,8_0_3:0.00000565):0.00002858,8_0_0:0.00015139):0.00001978,(8_0_4:0.00000966,(8_0_5:0.00002465,8_0_2:0.00001126):0.00000104):0.00017376):0.00109216):0.00304248,((11_0_2:0.00002490,11_0_3:0.00004627):0.00007440,(((11_0_5:0.00007556,11_0_1:0.00001506):0.00001961,11_0_4:0.00009032):0.00002035,11_0_0:0.00051346):0.00038918):0.00046236):0.00018821,(((((10_0_2:0.00003767,(10_0_1:0.00002190,10_0_5:0.00000493):0.00007738):0.00004288,10_0_3:0.00105341):0.00000574,(10_0_4:0.00058439,((7_0_4:0.00019589,7_0_5:0.00002665):0.00000409,((7_0_1:0.00004032,(7_0_3:0.00000994,7_0_2:0.00000806):0.00000247):0.00016862,7_0_0:0.00006063):0.00010897):0.00003781):0.00001784):0.00008746,10_0_0:0.00045171):0.00330530,((((12_0_0:0.00013231,12_0_2:0.00000412):0.00000755,((12_0_3:0.00001193,12_0_5:0.00000077):0.00000269,12_0_1:0.00001053):0.00001051):0.00006153,12_0_4:0.00006673):0.00165915,((((9_0_4:0.00004132,9_0_5:0.00011082):0.00036968,(9_0_0:0.00014065,9_0_3:0.00002573):0.00001983):0.00001189,9_0_1:0.00007021):0.00005500,9_0_2:0.00017727):0.00079606):0.00179767):0.00132038):0.03681418,(((((5_0_1:0.00017843,5_0_4:0.00002879):0.00004171,((5_0_5:0.00001192,5_0_3:0.00000443):0.00000959,5_0_2:0.00055460):0.00000479):0.00020200,5_0_0:0.00041809):0.00101894,((((((6_0_0:0.00009142,6_0_4:0.00004419):0.00034966,(1_0_0:0.00007794,(1_0_1:0.00005725,(1_0_3:0.00003363,1_0_5:0.00001274):0.00001174):0.00003777):0.00027367):0.00006492,(1_0_4:0.00020445,1_0_2:0.00021428):0.00014419):0.00023080,6_0_3:0.00057190):0.00017473,((6_0_2:0.00000705,6_0_1:0.00000833):0.00008866,6_0_5:0.00001355):0.00005990):0.00057373,((((3_0_3:0.00008009,(3_0_2:0.00029188,3_0_4:0.00007048):0.00020348):0.00023341,3_0_0:0.00006680):0.00000177,3_0_5:0.00009839):0.00009466,3_0_1:0.00044003):0.00046025):0.00146176):0.00186439,(((4_0_2:0.00002796,4_0_0:0.00023012):0.00008839,(((4_0_3:0.00001051,4_0_5:0.00001515):0.00001734,4_0_1:0.00000037):0.00000690,4_0_4:0.00002489):0.00009707):0.00055225,(((2_0_0:0.00003061,2_0_1:0.00000885):0.00007100,2_0_3:0.00022654):0.00018775,((2_0_4:0.00000516,2_0_2:0.00000761):0.00000732,2_0_5:0.00018810):0.00063667):0.00020381):0.00341746):0.03533318):0.01084782);
[TREE] T06 (0_0_0:0.20273918,((((((6_0_2:0.00000102,6_0_0:0.00001480):0.00044218,((6_0_5:0.00001515,6_0_1:0.00006194):0.00004154,6_0_4:0.00014294):0.00022523):0.00037382,((6_0_3:0.00040088,(1_0_2:0.00020232,(1_0_0:0.00005898,1_0_3:0.00012902):0.00000461):0.00031099):0.00034306,1_0_5:0.00210339):0.00011277):0.00004007,(((((3_0_0:0.00002626,3_0_2:0.00003739):0.00003537,3_0_1:0.00016579):0.00029675,(5_0_0:0.00022841,(5_0_5:0.00003368,(5_0_1:0.00003182,(5_0_4:0.00000507,5_0_3:0.00001640):0.00001087):0.00002166):0.00002256):0.00032262):0.00002813,(((3_0_5:0.00013299,3_0_3:0.00002405):0.00005366,3_0_4:0.00018211):0.00012158,5_0_2:0.00051077):0.00013534):0.00016438,(1_0_4:0.00014861,1_0_1:0.00016976):0.00094864):0.00029408):0.00792574,((((2_0_2:0.00028572,(2_0_4:0.00001137,(2_0_0:0.00007930,2_0_3:0.00004555):0.00000546):0.00001799):0.00000205,2_0_5:0.00002849):0.00039195,2_0_1:0.00029037):0.00086489,(((4_0_3:0.00001057,(4_0_0:0.00000623,4_0_1:0.00000993):0.00000526):0.00000021,4_0_2:0.00002198):0.00001801,(4_0_5:0.00025860,4_0_4:0.00008465):0.00013456):0.00013805):0.00294744):0.01425223,((((7_0_0:0.00003038,7_0_5:0.00000264):0.00022542,(10_0_2:0.00138762,(((((7_0_2:0.00020339,7_0_4:0.00037254):0.00001432,10_0_0:0.00034078):0.00001617,(((10_0_5:0.00000883,10_0_3:0.00005435):0.00005951,10_0_4:0.00008395):0.00002394,10_0_1:0.00005959):0.00018912):0.00014383,7_0_1:0.00004739):0.00002607,7_0_3:0.00037184):0.00005880):0.00009104):0.00203489,(((12_0_4:0.00018515,12_0_0:0.00020291):0.00001869,(((12_0_2:0.00000154,12_0_1:0.00003202):0.00010819,12_0_3:0.00126591):0.00001104,12_0_5:0.00013385):0.00005654):0.00139860,((9_0_3:0.00030320,((9_0_5:0.00002168,9_0_4:0.00006756):0.00000729,9_0_2:0.00016676):0.00000486):0.00025799,(9_0_0:0.00004353,9_0_1:0.00000461):0.00053592):0.00164414):0.00596245):0.00693783,(((((13_0_4:0.00001563,13_0_3:0.00006575):0.00057735,(13_0_1:0.00005931,13_0_2:0.00001452):0.00042998):0.00000284,(13_0_0:0.00026301,13_0_5:0.00000929):0.00167907):0.00219762,(((8_0_4:0.00047123,(8_0_5:0.00000392,8_0_0:0.00001827):0.00006745):0.00008805,(8_0_1:0.00014032,8_0_2:0.00013492):0.00054202):0.00006725,8_0_3:0.00005139):0.00036280):0.00128911,((11_0_2:0.00016698,(11_0_3:0.00004594,11_0_1:0.00000317):0.00044531):0.00003230,(11_0_4:0.00059228,(11_0_0:0.00009918,11_0_5:0.00024647):0.00015728):0.00022395):0.00547907):0.00143943):0.01153110):0.03253041);
[TREE] T07 (0_0_0:0.21649934,(((((4_0_1:0.00000368,((4_0_5:0.00000043,4_0_0:0.00000061):0.00000034,4_0_4:0.00000494):0.00000145):0.00047613,4_0_3:0.00000627):0.00505854,((2_0_0:0.00054586,(((2_0_1:0.00003622,(2_0_4:0.00000289,2_0_2:0.00001127):0.00003598):0.00006785,2_0_5:0.00001468):0.00025859,2_0_3:0.00030635):0.00027480):0.00053905,4_0_2:0.00279852):0.00132632):0.00213248,(((6_0_2:0.00015113,((1_0_3:0.00000924,1_0_2:0.00000333):0.00007645,1_0_0:0.00003742):0.00150309):0.00012767,((((1_0_4:0.00000833,1_0_5:0.00000636):0.00002525,1_0_1:0.00011657):0.00050879,(6_0_4:0.00009944,((6_0_1:0.00003081,6_0_5:0.00001036):0.00002844,6_0_0:0.00003400):0.00031927):0.00005917):0.00000481,6_0_3:0.00084739):0.00032746):0.00019421,((3_0_1:0.00001246,3_0_3:0.00002294):0.00111504,((3_0_5:0.00007616,(3_0_0:0.00071406,(3_0_2:0.00003312,3_0_4:0.00006765):0.00029332):0.00012685):0.00024488,((((5_0_5:0.00001418,5_0_2:0.00001122):0.00004074,5_0_3:0.00002273):0.00010979,(5_0_1:0.00009497,5_0_4:0.00037564):0.00000115):0.00005206,5_0_0:0.00011420):0.00001382):0.00000271):0.00067983):0.00524322):0.01148680,(((((11_0_3:0.00036005,((11_0_5:0.00000370,11_0_0:0.00003029):0.00000419,11_0_1:0.00000847):0.00034896):0.00019515,11_0_2:0.00007424):0.00037684,11_0_4:0.00260011):0.00916824,(((8_0_3:0.00021167,8_0_5:0.00019406):0.00002368,(8_0_2:0.00011470,((8_0_1:0.00020855,8_0_0:0.00006194):0.00001109,8_0_4:0.00007741):0.00004234):0.00000827):0.00205154,((13_0_1:0.00010128,13_0_2:0.00001367):0.00002056,(((13_0_5:0.00004448,13_0_0:0.00010155):0.00000033,13_0_4:0.00018381):0.00001681,13_0_3:0.00009105):0.00008800):0.00123002):0.01986839):0.00143869,((((7_0_1:0.00006926,10_0_4:0.00052921):0.00022229,(10_0_3:0.00002196,(10_0_0:0.00011772,10_0_2:0.00007264):0.00036721):0.00001829):0.00007481,((10_0_1:0.00018365,((7_0_5:0.00001242,(7_0_4:0.00007878,7_0_0:0.00001780):0.00000909):0.00021541,(7_0_3:0.00004416,7_0_2:0.00010338):0.00023725):0.00002393):0.00000356,10_0_5:0.00022132):0.00062247):0.00087469,((9_0_2:0.00022181,(((9_0_3:0.00002957,9_0_5:0.00001147):0.00009435,9_0_1:0.00021475):0.00006724,(9_0_4:0.00003034,9_0_0:0.00000824):0.00012462):0.00015166):0.00148515,(((12_0_0:0.00009881,12_0_3:0.00007169):0.00000603,12_0_4:0.00013269):0.00027104,(12_0_5:0.00121688,(12_0_1:0.00000051,12_0_2:0.00000059):0.00017252):0.00050827):0.00005144):0.00081717):0.00059630):0.12360960):0.21734377);
[TREE] T08 (0_0_0:0.06901583,((((((2_0_0:0.00000250,2_0_4:0.00004746):0.00011954,2_0_3:0.00021809):0.00028228,(2_0_5:0.00017001,(2_0_1:0.00001660,2_0_2:0.00004886):0.00009773):0.00025632):0.00077111,(((4_0_1:0.00000116,(4_0_3:0.00001196,4_0_0:0.00000450):0.00000090):0.00000444,4_0_2:0.00003180):0.00042720,(4_0_4:0.00000404,4_0_5:0.00000028):0.00008082):0.00005649):0.00041945,((3_0_0:0.00003930,3_0_2:0.00026338):0.00093772,(((((1_0_3:0.00015337,(1_0_0:0.00014188,((1_0_1:0.00000686,1_0_2:0.00001842):0.00004964,1_0_4:0.00010380):0.00001230):0.00000041):0.00001947,1_0_5:0.00019411):0.00017573,6_0_2:0.00049575):0.00040943,(6_0_1:0.00088922,((6_0_4:0.00000321,6_0_5:0.00000199):0.00001614,(6_0_3:0.00000052,6_0_0:0.00000217):0.00000921):0.00015642):0.00007202):0.00068171,((((3_0_3:0.00004189,3_0_4:0.00003517):0.00004376,3_0_5:0.00008633):0.00051149,5_0_5:0.00014887):0.00051460,((((5_0_4:0.00000991,5_0_0:0.00006606):0.00005977,5_0_3:0.00013856):0.00033654,(5_0_2:0.00021583,5_0_1:0.00016450):0.00015316):0.00008827,3_0_1:0.00006950):0.00028902):0.00043575):0.00075991):0.00256168):0.02395778,((((7_0_5:0.00047420,(10_0_0:0.00018674,(10_0_2:0.00002784,10_0_4:0.00001319):0.00000581):0.00012631):0.00454507,(((10_0_1:0.00002025,10_0_5:0.00002386):0.00010413,((((7_0_1:0.00002759,7_0_0:0.00000788):0.00002038,7_0_3:0.00001488):0.00000824,7_0_4:0.00001313):0.00000150,7_0_2:0.00002352):0.00004012):0.00011978,10_0_3:0.00043124):0.00033686):0.00312632,(((12_0_3:0.00001641,(12_0_1:0.00000015,12_0_2:0.00000012):0.00000501):0.00005639,((12_0_5:0.00028782,12_0_0:0.00024879):0.00010205,12_0_4:0.00033300):0.00019308):0.00090572,(((9_0_1:0.00000048,(9_0_5:0.00000375,9_0_0:0.00000019):0.00000616):0.00001262,9_0_2:0.00013233):0.00050691,(9_0_3:0.00001490,9_0_4:0.00005008):0.00044261):0.00081867):0.00354958):0.00728651,((((13_0_0:0.00004075,13_0_2:0.00001025):0.00012231,((13_0_1:0.00001275,13_0_5:0.00006574):0.00014311,(13_0_4:0.00003638,13_0_3:0.00004368):0.00001354):0.00005890):0.00046238,((((8_0_3:0.00002006,8_0_5:0.00000544):0.00011903,8_0_2:0.00003027):0.00014132,(8_0_1:0.00002285,8_0_0:0.00005113):0.00028011):0.00023033,8_0_4:0.00003854):0.00066280):0.00006296,(11_0_1:0.00045006,(((11_0_0:0.00000187,11_0_4:0.00001910):0.00007577,11_0_2:0.00002036):0.00028479,(11_0_3:0.00006901,11_0_5:0.00018184):0.00000061):0.00025492):0.00194897):0.00020889):0.03684533):0.01957498);
[TREE] T09 (((((((1_0_4:0.00021364,((1_0_3:0.00003501,1_0_1:0.00002167):0.00015025,((6_0_4:0.00006557,(6_0_1:0.00013973,6_0_5:0.00001047):0.00003579):0.00005632,6_0_0:0.00029221):0.00000391):0.00000092):0.00009419,(1_0_0:0.00000870,1_0_2:0.00000270):0.00120395):0.00006513,((6_0_3:0.00000808,6_0_2:0.00000313):0.00026768,1_0_5:0.00002512):0.00069902):0.00015141,((((3_0_1:0.00000235,3_0_3:0.00005288):0.00002813,3_0_2:0.00019869):0.00056777,3_0_4:0.00033882):0.00021405,((3_0_0:0.00010458,3_0_5:0.00011055):0.00000397,(((((5_0_4:0.00001889,5_0_2:0.00000196):0.00018567,5_0_3:0.00017951):0.00002529,5_0_5:0.00002911):0.00003978,5_0_1:0.00019373):0.00002477,5_0_0:0.00002332):0.00003499):0.00006275):0.00041870):0.00038908,(((4_0_1:0.00044776,4_0_4:0.00018145):0.00054977,(4_0_3:0.00006199,((4_0_0:0.00000360,4_0_5:0.00001157):0.00006368,4_0_2:0.00003230):0.00004249):0.00006118):0.00025864,((2_0_5:0.00039549,2_0_4:0.00172191):0.00024433,(2_0_2:0.00012348,((2_0_1:0.00022200,2_0_3:0.00050815):0.00000057,2_0_0:0.00016315):0.00010730):0.00009053):0.00023828):0.00667183):0.07326034,(((((9_0_2:0.00007387,(9_0_0:0.00005012,(9_0_5:0.00001523,9_0_1:0.00000018):0.00005938):0.00003113):0.00016975,(9_0_4:0.00021416,9_0_3:0.00030262):0.00029131):0.00259259,((12_0_5:0.00006937,12_0_0:0.00028538):0.00092142,((12_0_4:0.00025966,12_0_3:0.00002822):0.00006235,(12_0_1:0.00016855,12_0_2:0.00016004):0.00005154):0.00024423):0.00162952):0.00201303,((((7_0_5:0.00014585,7_0_0:0.00021283):0.00035889,(7_0_3:0.00001858,((7_0_4:0.00001049,7_0_1:0.00006460):0.00000572,7_0_2:0.00007516):0.00002325):0.00011838):0.00046503,10_0_4:0.00091314):0.00015434,((10_0_0:0.00004588,((10_0_3:0.00007414,10_0_5:0.00002188):0.00000987,10_0_2:0.00002956):0.00008484):0.00001242,10_0_1:0.00016639):0.00046727):0.00331846):0.00650019,(((11_0_1:0.00011338,(11_0_5:0.00010442,(11_0_3:0.00001858,11_0_0:0.00000098):0.00003108):0.00001988):0.00391792,(11_0_4:0.00011629,11_0_2:0.00006055):0.00253303):0.01105427,((((8_0_1:0.00006638,8_0_4:0.00000506):0.00014121,(8_0_0:0.00003889,(8_0_5:0.00000021,8_0_3:0.00000092):0.00003644):0.00046491):0.00066837,8_0_2:0.00096320):0.00027554,(((13_0_3:0.00000612,13_0_2:0.00005458):0.00000140,(13_0_5:0.00004265,13_0_4:0.00007123):0.00005832):0.00060344,(13_0_1:0.00001062,13_0_0:0.00028817):0.00022656):0.00006126):0.00585109):0.00004031):0.03245994):0.06329153,0_0_0:0.04802091);
[TREE] T10 (0_0_0:0.11142540,(((((3_0_0:0.00025825,(3_0_1:0.00006559,3_0_4:0.00012555):0.00014827):0.00032192,((5_0_3:0.00015862,(5_0_1:0.00004334,5_0_0:0.00001680):0.00007955):0.00005902,(3_0_5:0.00024207,(3_0_3:0.00008164,3_0_2:0.00000102):0.00000917):0.00012740):0.00014878):0.00035636,(((1_0_5:0.00056634,(6_0_3:0.00051536,(6_0_4:0.00010304,6_0_5:0.00007956):0.00017625):0.00002039):0.00005513,((1_0_2:0.00021083,((1_0_0:0.00000993,1_0_1:0.00001203):0.00001395,(1_0_4:0.00000160,1_0_3:0.00002608):0.00005395):0.00004370):0.00021558,(6_0_0:0.00035307,(6_0_2:0.00030490,6_0_1:0.00005177):0.00000785):0.00042332):0.00005431):0.00023845,((5_0_4:0.00014659,5_0_2:0.00003890):0.00024596,5_0_5:0.00002557):0.00210106):0.00013069):0.00126826,(((((4_0_5:0.00000007,4_0_4:0.00000027):0.00004703,4_0_3:0.00010375):0.00006608,4_0_1:0.00016678):0.00016046,(4_0_2:0.00000653,4_0_0:0.00001659):0.00073132):0.00061180,(2_0_5:0.00023499,(2_0_3:0.00059201,(2_0_1:0.00044281,(2_0_4:0.00009361,(2_0_0:0.00010219,2_0_2:0.00001996):0.00010724):0.00000132):0.00005977):0.00029953):0.00013037):0.01911877):0.01605981,((((((8_0_1:0.00003667,8_0_2:0.00000902):0.00006608,(8_0_3:0.00000379,8_0_4:0.00046413):0.00004873):0.00062205,(8_0_0:0.00005647,8_0_5:0.00019050):0.00018463):0.00112059,(13_0_1:0.00007790,((13_0_5:0.00000524,(13_0_4:0.00000795,13_0_2:0.00000581):0.00001235):0.00005260,(13_0_3:0.00008253,13_0_0:0.00007418):0.00002975):0.00035662):0.00078317):0.00769568,(11_0_3:0.00051642,(11_0_2:0.00033829,((11_0_5:0.00008817,(11_0_1:0.00017024,11_0_0:0.00004037):0.00002093):0.00000293,11_0_4:0.00012459):0.00006061):0.00009292):0.00088314):0.00039600,((7_0_0:0.00287270,((((7_0_1:0.00002894,(7_0_3:0.00016841,7_0_5:0.00004698):0.00004954):0.00007913,(7_0_2:0.00048840,10_0_2:0.00004927):0.00006499):0.00000219,7_0_4:0.00037010):0.00007104,(10_0_1:0.00014061,((10_0_4:0.00020890,10_0_3:0.00019207):0.00000041,(10_0_5:0.00002771,10_0_0:0.00000443):0.00013547):0.00000559):0.00012044):0.00039751):0.00090169,((((12_0_1:0.00000041,12_0_4:0.00000112):0.00025317,(12_0_3:0.00016462,12_0_5:0.00015764):0.00002579):0.00003612,(12_0_0:0.00008020,12_0_2:0.00018528):0.00002162):0.00195608,(((9_0_4:0.00025216,9_0_0:0.00003580):0.00014575,(9_0_2:0.00012779,9_0_1:0.00002808):0.00004267):0.00002425,(9_0_3:0.00002213,9_0_5:0.00005442):0.00023043):0.00166441):0.00022854):0.00122936):0.04322193):0.04272294);

[PARTITIONS] csSimUnlinked_01 [T01 csSim_unlinked_1 500]
[PARTITIONS] csSimUnlinked_02 [T02 csSim_unlinked_2 500]
[PARTITIONS] csSimUnlinked_03 [T03 csSim_unlinked_3 500]
[PARTITIONS] csSimUnlinked_04 [T04 csSim_unlinked_4 500]
[PARTITIONS] csSimUnlinked_05 [T05 csSim_unlinked_5 500]
[PARTITIONS] csSimUnlinked_06 [T06 csSim_unlinked_6 500]
[PARTITIONS] csSimUnlinked_07 [T07 csSim_unlinked_7 500]
[PARTITIONS] csSimUnlinked_08 [T08 csSim_unlinked_8 500]
[PARTITIONS] csSimUnlinked_09 [T09 csSim_unlinked_9 500]
[PARTITIONS] csSimUnlinked_10 [T10 csSim_unlinked_10 500]

[EVOLVE] csSimUnlinked_01 1 data_01
csSimUnlinked_02 1 data_02
csSimUnlinked_03 1 data_03
csSimUnlinked_04 1 data_04
csSimUnlinked_05 1 data_05
csSimUnlinked_06 1 data_06
csSimUnlinked_07 1 data_07
csSimUnlinked_08 1 data_08
csSimUnlinked_09 1 data_09
csSimUnlinked_10 1 data_10
