********************************************************************************
INDELible V1.03 by Will Fletcher : Simulation began at: Fri Dec  2 14:15:58 2016
********************************************************************************

  * Block 1 was completed in 0.07 seconds.

********************************************************************************


  * Block 2 was completed in 0.06 seconds.

********************************************************************************


  * Block 3 was completed in 0.06 seconds.

********************************************************************************


  * Block 4 was completed in 0.06 seconds.

********************************************************************************


  * Block 5 was completed in 0.07 seconds.

********************************************************************************


  * Block 6 was completed in 0.06 seconds.

********************************************************************************


  * Block 7 was completed in 0.06 seconds.

********************************************************************************


  * Block 8 was completed in 0.06 seconds.

********************************************************************************


  * Block 9 was completed in 0.06 seconds.

********************************************************************************


  * Block 10 was completed in 0.07 seconds.

********************************************************************************

  * Simulation completed. Whole batch took: 0.63 seconds.

INDELible V1.03 Simulations completed at: Fri Dec  2 14:15:59 2016

********************************************************************************


 Original Control File 

-----------------------


[TYPE] NUCLEOTIDE 1 

[SETTINGS]
    [fastaextension] fasta  

[MODEL] csSim_unlinked_1
    [submodel] GTR 0.099165 0.010879 0.016673 0.038613 0.056461 
    [statefreq] 0.118928 0.270118 0.415749 0.195206 
[rates] 0 0.318349 0 

[MODEL] csSim_unlinked_2
    [submodel] GTR 0.110623 0.003633 0.017584 0.030413 0.068778 
    [statefreq] 0.391272 0.211670 0.303451 0.093607 
[rates] 0 30.271853 0 

[MODEL] csSim_unlinked_3
    [submodel] GTR 0.086099 0.008558 0.033799 0.017641 0.033918 
    [statefreq] 0.032905 0.110395 0.724908 0.131792 
[rates] 0 79.463359 0 

[MODEL] csSim_unlinked_4
    [submodel] GTR 0.100536 0.006275 0.013701 0.015117 0.070882 
    [statefreq] 0.412705 0.012165 0.498397 0.076733 
[rates] 0 38.433352 0 

[MODEL] csSim_unlinked_5
    [submodel] GTR 0.096033 0.001264 0.008274 0.024086 0.052587 
    [statefreq] 0.397180 0.332022 0.210588 0.060210 
[rates] 0 0.225399 0 

[MODEL] csSim_unlinked_6
    [submodel] GTR 0.090124 0.005051 0.024714 0.022126 0.076287 
    [statefreq] 0.176143 0.334211 0.186153 0.303493 
[rates] 0 2.998621 0 

[MODEL] csSim_unlinked_7
    [submodel] GTR 0.075251 0.004830 0.009876 0.023208 0.021936 
    [statefreq] 0.568042 0.207401 0.155240 0.069317 
[rates] 0 31.356234 0 

[MODEL] csSim_unlinked_8
    [submodel] GTR 0.094687 0.007319 0.010863 0.018409 0.052299 
    [statefreq] 0.165998 0.150318 0.432255 0.251429 
[rates] 0 8.704799 0 

[MODEL] csSim_unlinked_9
    [submodel] GTR 0.093411 0.004457 0.008425 0.014909 0.036767 
    [statefreq] 0.038208 0.372799 0.433368 0.155625 
[rates] 0 1.718140 0 

[MODEL] csSim_unlinked_10
    [submodel] GTR 0.101075 0.006856 0.012826 0.037859 0.057445 
    [statefreq] 0.096523 0.331493 0.060516 0.511468 
[rates] 0 86.404765 0 


[TREE] T01 (0_0_0:0.10103525,(((((4_0_1:0.00001380,4_0_0:0.00001155):0.00828607,((1_0_1:0.00001346,1_0_0:0.00001271):0.00038620,(2_0_0:0.00000974,2_0_1:0.00001545):0.00034146):0.00743710):0.00033840,((6_0_0:0.00001017,6_0_1:0.00001591):0.00415093,(5_0_1:0.00000125,5_0_0:0.00000117):0.00485076):0.00568369):0.03087035,((7_0_1:0.00000461,7_0_0:0.00000722):0.01700773,(3_0_0:0.00000143,3_0_1:0.00000252):0.01723207):0.01324567):0.02367608,((8_0_0:0.00000491,8_0_1:0.00000469):0.02363028,(((10_0_1:0.00000471,10_0_0:0.00000472):0.01239813,(11_0_1:0.00001988,11_0_0:0.00001716):0.01406075):0.01341542,((12_0_1:0.00000272,12_0_0:0.00000375):0.00137356,(9_0_0:0.00000541,9_0_1:0.00000617):0.00215620):0.02738647):0.00352616):0.02535252):0.06154224);
[TREE] T02 (0_0_0:0.09357339,((((7_0_0:0.00000267,7_0_1:0.00000547):0.01746155,(3_0_1:0.00001105,3_0_0:0.00000774):0.02680974):0.01034826,(((6_0_1:0.00001043,6_0_0:0.00001221):0.00563611,(5_0_0:0.00000039,5_0_1:0.00000054):0.00528226):0.00281736,((4_0_1:0.00000467,4_0_0:0.00000326):0.00893870,((1_0_0:0.00000162,1_0_1:0.00000111):0.00031417,(2_0_1:0.00001454,2_0_0:0.00001293):0.00042891):0.01020326):0.00038311):0.02500757):0.02736939,((8_0_0:0.00000405,8_0_1:0.00000355):0.03359749,(((10_0_1:0.00000003,10_0_0:0.00000003):0.01100386,(11_0_0:0.00000004,11_0_1:0.00000011):0.01224114):0.00942766,((12_0_1:0.00000504,12_0_0:0.00000521):0.00154364,(9_0_0:0.00000120,9_0_1:0.00000137):0.00235941):0.02186643):0.00421339):0.04147871):0.07022709);
[TREE] T03 ((((8_0_0:0.00000324,8_0_1:0.00000317):0.03385049,(((10_0_0:0.00000201,10_0_1:0.00000173):0.01121157,(11_0_1:0.00000209,11_0_0:0.00000099):0.01317243):0.01208171,((9_0_1:0.00000170,9_0_0:0.00000192):0.00242993,(12_0_1:0.00000670,12_0_0:0.00000867):0.00194975):0.01362189):0.00373243):0.03267230,(((7_0_0:0.00000144,7_0_1:0.00000100):0.01770893,(3_0_0:0.00001681,3_0_1:0.00002361):0.02509532):0.01360876,(((4_0_0:0.00000240,4_0_1:0.00000340):0.00754303,((2_0_0:0.00000183,2_0_1:0.00000219):0.00058632,(1_0_1:0.00001623,1_0_0:0.00002129):0.00029709):0.00801405):0.00047739,((5_0_1:0.00003225,5_0_0:0.00002989):0.00385610,(6_0_0:0.00000477,6_0_1:0.00000505):0.00420000):0.00367070):0.01866058):0.02650077):0.07013798,0_0_0:0.11310561);
[TREE] T04 (0_0_0:0.14954143,(((((6_0_1:0.00000419,6_0_0:0.00000879):0.00492797,(5_0_0:0.00000148,5_0_1:0.00000163):0.00665527):0.00464554,((4_0_0:0.00000279,4_0_1:0.00000198):0.01016389,((2_0_1:0.00000116,2_0_0:0.00000139):0.00034381,(1_0_0:0.00000367,1_0_1:0.00000361):0.00043113):0.00946394):0.00029274):0.01618641,((3_0_0:0.00002965,3_0_1:0.00002432):0.02187464,(7_0_0:0.00001837,7_0_1:0.00002342):0.01641492):0.01318031):0.02202856,((8_0_0:0.00000025,8_0_1:0.00000019):0.03462523,(((11_0_1:0.00000853,11_0_0:0.00001150):0.01351281,(10_0_0:0.00000562,10_0_1:0.00000733):0.01328980):0.01521778,((9_0_1:0.00000283,9_0_0:0.00000245):0.00276280,(12_0_0:0.00001750,12_0_1:0.00001547):0.00195630):0.01304373):0.00310044):0.03665207):0.05335050);
[TREE] T05 (((((7_0_1:0.00000059,7_0_0:0.00000066):0.01988833,(3_0_1:0.00000640,3_0_0:0.00000598):0.01377400):0.01151342,((((2_0_1:0.00000184,2_0_0:0.00000241):0.00023321,(1_0_1:0.00002126,1_0_0:0.00002138):0.00034152):0.00821700,(4_0_0:0.00000291,4_0_1:0.00000243):0.00664661):0.00029549,((6_0_0:0.00000757,6_0_1:0.00000806):0.00374716,(5_0_1:0.00000992,5_0_0:0.00000921):0.00311635):0.00309263):0.02789857):0.02775366,((((9_0_1:0.00000165,9_0_0:0.00000201):0.00128064,(12_0_0:0.00000380,12_0_1:0.00000301):0.00198400):0.02321647,((10_0_1:0.00000515,10_0_0:0.00000478):0.01386172,(11_0_0:0.00000931,11_0_1:0.00000667):0.01702591):0.01029423):0.00325933,(8_0_0:0.00001857,8_0_1:0.00001347):0.02017059):0.02761273):0.06675323,0_0_0:0.13963658);
[TREE] T06 ((((8_0_1:0.00000176,8_0_0:0.00000088):0.02106646,(((11_0_1:0.00000732,11_0_0:0.00000789):0.00820708,(10_0_1:0.00000102,10_0_0:0.00000116):0.01229971):0.00998597,((9_0_0:0.00000302,9_0_1:0.00000263):0.00273968,(12_0_0:0.00000194,12_0_1:0.00000248):0.00260339):0.02737981):0.00321351):0.03795640,(((7_0_1:0.00000420,7_0_0:0.00000292):0.01031523,(3_0_1:0.00000293,3_0_0:0.00000264):0.02084400):0.01691275,((((2_0_0:0.00000664,2_0_1:0.00000796):0.00031342,(1_0_0:0.00000367,1_0_1:0.00000244):0.00029846):0.00913604,(4_0_0:0.00000262,4_0_1:0.00000305):0.01031786):0.00037519,((6_0_1:0.00001143,6_0_0:0.00000787):0.00482181,(5_0_1:0.00000540,5_0_0:0.00000523):0.00368808):0.00502740):0.02850124):0.02588043):0.04435971,0_0_0:0.11428212);
[TREE] T07 (((((7_0_1:0.00001243,7_0_0:0.00000879):0.01310735,(3_0_0:0.00000330,3_0_1:0.00000228):0.01552662):0.01387517,((((1_0_1:0.00000257,1_0_0:0.00000233):0.00037377,(2_0_0:0.00000586,2_0_1:0.00000756):0.00039080):0.01079702,(4_0_1:0.00000641,4_0_0:0.00000616):0.01102643):0.00025922,((6_0_1:0.00000408,6_0_0:0.00000515):0.00609703,(5_0_0:0.00000888,5_0_1:0.00001228):0.00406192):0.00350240):0.02606722):0.01815523,((((10_0_1:0.00000728,10_0_0:0.00000765):0.01379326,(11_0_1:0.00000290,11_0_0:0.00000297):0.01060956):0.01310664,((9_0_0:0.00000016,9_0_1:0.00000018):0.00208403,(12_0_1:0.00003776,12_0_0:0.00004051):0.00261608):0.02240392):0.00306498,(8_0_1:0.00000229,8_0_0:0.00000084):0.01892397):0.02736182):0.04871216,0_0_0:0.13746321);
[TREE] T08 (0_0_0:0.10182652,(((8_0_1:0.00000478,8_0_0:0.00000264):0.02784261,(((10_0_1:0.00000066,10_0_0:0.00000065):0.01350592,(11_0_0:0.00002480,11_0_1:0.00002057):0.01513218):0.01013671,((9_0_0:0.00000365,9_0_1:0.00000510):0.00211728,(12_0_0:0.00000956,12_0_1:0.00000965):0.00245545):0.02326562):0.00491663):0.01793402,(((3_0_1:0.00003122,3_0_0:0.00002072):0.01623609,(7_0_0:0.00000022,7_0_1:0.00000021):0.02359709):0.01547879,((((2_0_0:0.00000468,2_0_1:0.00000367):0.00056019,(1_0_0:0.00000186,1_0_1:0.00000251):0.00029009):0.00918784,(4_0_1:0.00000451,4_0_0:0.00000547):0.00879266):0.00033240,((6_0_0:0.00000117,6_0_1:0.00000098):0.00457607,(5_0_0:0.00001008,5_0_1:0.00000967):0.00525959):0.00395003):0.03156456):0.01513423):0.04836898);
[TREE] T09 (0_0_0:0.11566183,((((7_0_0:0.00000728,7_0_1:0.00000767):0.01683472,(3_0_1:0.00000220,3_0_0:0.00000351):0.01872928):0.01020549,((((1_0_0:0.00000129,1_0_1:0.00000121):0.00037718,(2_0_0:0.00001057,2_0_1:0.00001169):0.00038291):0.00936688,(4_0_0:0.00000083,4_0_1:0.00000110):0.00644125):0.00034811,((5_0_0:0.00001390,5_0_1:0.00001420):0.00491316,(6_0_1:0.00000116,6_0_0:0.00000165):0.00495335):0.00483118):0.02646546):0.02138753,((((11_0_0:0.00000398,11_0_1:0.00000446):0.00705370,(10_0_1:0.00001047,10_0_0:0.00001482):0.01073197):0.00913756,((12_0_0:0.00000097,12_0_1:0.00000064):0.00189769,(9_0_1:0.00000720,9_0_0:0.00000474):0.00181571):0.02334499):0.00323611,(8_0_1:0.00000387,8_0_0:0.00000227):0.02485196):0.03697787):0.05145826);
[TREE] T10 (0_0_0:0.10614489,(((((12_0_0:0.00000170,12_0_1:0.00000156):0.00228601,(9_0_1:0.00000237,9_0_0:0.00000202):0.00205875):0.02266313,((10_0_0:0.00000204,10_0_1:0.00000188):0.01670941,(11_0_0:0.00000556,11_0_1:0.00000518):0.01205062):0.00925372):0.00272339,(8_0_0:0.00000968,8_0_1:0.00001118):0.02399719):0.02070381,(((7_0_1:0.00000442,7_0_0:0.00000488):0.02355919,(3_0_1:0.00000161,3_0_0:0.00000217):0.01856602):0.01521838,(((5_0_0:0.00001435,5_0_1:0.00001797):0.00531502,(6_0_0:0.00000822,6_0_1:0.00001193):0.00336103):0.00501461,((4_0_1:0.00000414,4_0_0:0.00000303):0.00887206,((2_0_0:0.00000863,2_0_1:0.00001053):0.00035856,(1_0_0:0.00000272,1_0_1:0.00000324):0.00036278):0.01152132):0.00022712):0.02169573):0.02686785):0.03860232);

[PARTITIONS] csSimUnlinked_01 [T01 csSim_unlinked_1 500]
[PARTITIONS] csSimUnlinked_02 [T02 csSim_unlinked_2 500]
[PARTITIONS] csSimUnlinked_03 [T03 csSim_unlinked_3 500]
[PARTITIONS] csSimUnlinked_04 [T04 csSim_unlinked_4 500]
[PARTITIONS] csSimUnlinked_05 [T05 csSim_unlinked_5 500]
[PARTITIONS] csSimUnlinked_06 [T06 csSim_unlinked_6 500]
[PARTITIONS] csSimUnlinked_07 [T07 csSim_unlinked_7 500]
[PARTITIONS] csSimUnlinked_08 [T08 csSim_unlinked_8 500]
[PARTITIONS] csSimUnlinked_09 [T09 csSim_unlinked_9 500]
[PARTITIONS] csSimUnlinked_10 [T10 csSim_unlinked_10 500]

[EVOLVE] csSimUnlinked_01 1 data_01
csSimUnlinked_02 1 data_02
csSimUnlinked_03 1 data_03
csSimUnlinked_04 1 data_04
csSimUnlinked_05 1 data_05
csSimUnlinked_06 1 data_06
csSimUnlinked_07 1 data_07
csSimUnlinked_08 1 data_08
csSimUnlinked_09 1 data_09
csSimUnlinked_10 1 data_10
