Tree file : INDELible V1.03 (best viewed cut and paste in e.g. excel)

N.B. Simulation blocks with no random trees will have their trees printed for the first replicate only.

FILE	TREE	NTAXA	REP	PART	LENGTH	DEPTH	MAX PAIRWISE DISTANCE	TREE STRING

data_01	T01	225	1	1	0.00618521	0.00292129	0.00402291	(0_0_0:0.00110162,((((((5_0_7:0.00000188,(5_0_10:0.00000097,(5_0_6:0.00000370,5_0_0:0.00000346):0.00000059):0.00000246):0.00000956,5_0_9:0.00001116):0.00001067,((5_0_4:0.00000036,5_0_8:0.00000010):0.00002138,((5_0_5:0.00000008,((5_0_3:0.00000006,5_0_12:0.00000001):0.00000025,5_0_1:0.00000085):0.00000012):0.00000325,((5_0_11:0.00000005,5_0_2:0.00000020):0.00000108,5_0_13:0.00000029):0.00000036):0.00000922):0.00001554):0.00004141,((((3_0_7:0.00000017,3_0_9:0.00000086):0.00002268,((3_0_2:0.00000101,3_0_4:0.00000093):0.00000386,(((3_0_3:0.00000019,3_0_12:0.00000001):0.00000055,3_0_0:0.00000064):0.00000032,((3_0_13:0.00000045,3_0_10:0.00000015):0.00000157,3_0_6:0.00000239):0.00000009):0.00000012):0.00001392):0.00002494,((3_0_8:0.00000536,(3_0_1:0.00000210,3_0_11:0.00000118):0.00000244):0.00000256,3_0_5:0.00000758):0.00001935):0.00000894,(((7_0_4:0.00000413,(7_0_7:0.00000007,7_0_3:0.00000016):0.00000191):0.00001660,((7_0_5:0.00000030,7_0_6:0.00000022):0.00001214,(((((7_0_1:0.00000070,7_0_12:0.00000016):0.00000126,7_0_10:0.00000131):0.00000145,(7_0_11:0.00000008,7_0_8:0.00000083):0.00000188):0.00000006,7_0_2:0.00000216):0.00000850,(7_0_0:0.00000053,(7_0_9:0.00000012,7_0_13:0.00000015):0.00000022):0.00001013):0.00000507):0.00000069):0.00001576,(((9_0_9:0.00000049,9_0_11:0.00000064):0.00000564,((((9_0_1:0.00000010,9_0_2:0.00000018):0.00000113,9_0_13:0.00000208):0.00000001,(9_0_7:0.00000128,9_0_12:0.00000087):0.00000052):0.00000266,(9_0_5:0.00000013,9_0_6:0.00000017):0.00000718):0.00000317):0.00001043,((9_0_0:0.00000806,9_0_10:0.00000509):0.00000003,(9_0_4:0.00000355,(9_0_8:0.00000028,9_0_3:0.00000039):0.00000186):0.00000105):0.00001370):0.00007519):0.00000888):0.00001988):0.00000832,((((((2_0_11:0.00000029,(2_0_9:0.00000013,(2_0_2:0.00000009,2_0_13:0.00000003):0.00000026):0.00000050):0.00000787,(((2_0_7:0.00000094,2_0_8:0.00000075):0.00000070,(2_0_4:0.00000359,2_0_10:0.00000146):0.00000070):0.00000016,(2_0_6:0.00000309,((2_0_0:0.00000027,2_0_5:0.00000011):0.00000025,2_0_3:0.00000004):0.00000105):0.00000083):0.00000371):0.00001425,(2_0_12:0.00000290,2_0_1:0.00000498):0.00002425):0.00000006,(((8_0_10:0.00000081,8_0_11:0.00000064):0.00000072,(8_0_0:0.00000239,8_0_1:0.00000091):0.00000077):0.00000196,8_0_8:0.00000315):0.00000656):0.00000366,((8_0_4:0.00000046,8_0_7:0.00000138):0.00000852,(((8_0_12:0.00000075,8_0_5:0.00000187):0.00000243,8_0_3:0.00000858):0.00000411,((8_0_6:0.00000008,8_0_2:0.00000025):0.00000247,(8_0_13:0.00000068,8_0_9:0.00000166):0.00000776):0.00000157):0.00000135):0.00000518):0.00002285,(((((((1_0_10:0.00000085,(1_0_6:0.00000069,1_0_7:0.00000012):0.00000004):0.00000079,1_0_0:0.00000495):0.00000241,(6_0_10:0.00000527,(6_0_0:0.00000005,(6_0_3:0.00000004,6_0_6:0.00000001):0.00000001):0.00000340):0.00000149):0.00000405,(((1_0_2:0.00000102,1_0_11:0.00000247):0.00000035,1_0_13:0.00000102):0.00000144,((1_0_4:0.00000076,1_0_3:0.00000140):0.00000202,(1_0_5:0.00000177,1_0_8:0.00000296):0.00000044):0.00000151):0.00000179):0.00000748,(((6_0_12:0.00000004,6_0_13:0.00000005):0.00000137,6_0_9:0.00000033):0.00000724,(6_0_5:0.00000306,((6_0_8:0.00000034,6_0_1:0.00000034):0.00000200,6_0_2:0.00000165):0.00000010):0.00000077):0.00000505):0.00000321,((6_0_4:0.00000279,(6_0_11:0.00000189,6_0_7:0.00000303):0.00000058):0.00000152,((1_0_9:0.00000065,1_0_12:0.00000041):0.00000060,1_0_1:0.00000285):0.00000172):0.00002579):0.00001500,((4_0_0:0.00000312,((4_0_3:0.00000686,(4_0_8:0.00000007,4_0_12:0.00000007):0.00000189):0.00000385,((4_0_2:0.00000025,4_0_6:0.00000056):0.00000147,(4_0_1:0.00000107,4_0_13:0.00000156):0.00000063):0.00001242):0.00000387):0.00001777,((4_0_7:0.00000648,(4_0_11:0.00000139,((4_0_10:0.00000009,4_0_9:0.00000014):0.00000065,4_0_5:0.00000118):0.00000021):0.00000426):0.00000219,4_0_4:0.00000586):0.00000914):0.00002494):0.00000050):0.00003132):0.00085327,(((((15_0_8:0.00000710,14_0_11:0.00000762):0.00000209,((15_0_11:0.00000640,14_0_5:0.00000126):0.00000036,(14_0_13:0.00000003,14_0_3:0.00000042):0.00000454):0.00000245):0.00000618,((14_0_0:0.00000848,((15_0_9:0.00000210,15_0_12:0.00000083):0.00000225,((15_0_1:0.00000095,15_0_4:0.00000207):0.00000926,((((15_0_2:0.00000061,15_0_10:0.00000025):0.00000261,15_0_0:0.00000342):0.00000032,((((14_0_7:0.00000036,14_0_1:0.00000010):0.00000134,(14_0_9:0.00000033,14_0_12:0.00000159):0.00000036):0.00000037,(14_0_4:0.00000047,14_0_8:0.00000042):0.00000095):0.00000035,14_0_2:0.00000601):0.00000090):0.00000002,(14_0_6:0.00000048,14_0_10:0.00000142):0.00000552):0.00000298):0.00000092):0.00000025):0.00000069,((15_0_3:0.00000038,(15_0_13:0.00000080,15_0_5:0.00000036):0.00000530):0.00000175,(15_0_7:0.00000117,15_0_6:0.00000245):0.00000387):0.00000220):0.00000046):0.00001586,(((11_0_11:0.00000230,((11_0_5:0.00000053,11_0_7:0.00000198):0.00000016,11_0_3:0.00000113):0.00000041):0.00001330,(((12_0_2:0.00000067,12_0_12:0.00000079):0.00000052,12_0_3:0.00000060):0.00000821,((((10_0_2:0.00000054,10_0_0:0.00000018):0.00000359,(10_0_12:0.00000055,(16_0_12:0.00000024,16_0_13:0.00000030):0.00000055):0.00000493):0.00000033,((10_0_13:0.00000070,(16_0_7:0.00000057,16_0_1:0.00000048):0.00000020):0.00000084,(10_0_5:0.00000033,10_0_3:0.00000037):0.00000205):0.00002096):0.00000534,((((16_0_2:0.00000224,(16_0_5:0.00000019,10_0_6:0.00000026):0.00000055):0.00000036,16_0_3:0.00000124):0.00000078,(((16_0_10:0.00000055,16_0_0:0.00000059):0.00000032,(16_0_8:0.00000146,((16_0_11:0.00000004,16_0_6:0.00000014):0.00000068,10_0_4:0.00000048):0.00000025):0.00000006):0.00000091,10_0_11:0.00000125):0.00000250):0.00000067,16_0_4:0.00000023):0.00000572):0.00000162):0.00000033):0.00000117,((11_0_9:0.00001286,(11_0_6:0.00000485,(11_0_4:0.00000445,((11_0_8:0.00000009,11_0_0:0.00000110):0.00000125,11_0_12:0.00000184):0.00000352):0.00000661):0.00000059):0.00000054,((11_0_1:0.00000111,11_0_10:0.00000088):0.00000196,(11_0_13:0.00000012,11_0_2:0.00000031):0.00000234):0.00000220):0.00001485):0.00000293):0.00002091,((16_0_9:0.00000146,(10_0_7:0.00000228,((10_0_9:0.00000016,10_0_10:0.00000052):0.00000004,(10_0_1:0.00000003,10_0_8:0.00000004):0.00000044):0.00000061):0.00000035):0.00000784,(((((13_0_7:0.00000027,13_0_4:0.00000054):0.00000128,(13_0_13:0.00000415,(13_0_12:0.00000145,(13_0_8:0.00000005,(13_0_5:0.00000045,13_0_11:0.00000070):0.00000018):0.00000048):0.00000184):0.00000074):0.00000163,13_0_10:0.00000141):0.00000063,(((13_0_9:0.00000118,(13_0_0:0.00000031,13_0_1:0.00000032):0.00000046):0.00000057,(13_0_2:0.00000305,13_0_3:0.00000033):0.00000113):0.00000069,13_0_6:0.00000324):0.00000031):0.00000927,(((12_0_6:0.00000186,(12_0_1:0.00000001,12_0_10:0.00000002):0.00000230):0.00000126,12_0_8:0.00000435):0.00000534,(((12_0_0:0.00000049,12_0_11:0.00000011):0.00000313,((12_0_4:0.00000385,(12_0_7:0.00000018,12_0_9:0.00000037):0.00000241):0.00000095,12_0_13:0.00000118):0.00000005):0.00000071,12_0_5:0.00000275):0.00000629):0.00000591):0.00001202):0.00001149):0.00088678):0.00193396);

data_02	T02	225	1	1	0.00547558	0.00267421	0.00301736	(((((15_0_0:0.00000203,((((14_0_4:0.00000041,14_0_13:0.00000236):0.00000196,(14_0_0:0.00000030,(14_0_6:0.00000010,14_0_2:0.00000014):0.00000115):0.00000079):0.00000389,15_0_11:0.00000550):0.00000031,(15_0_8:0.00000058,15_0_2:0.00000230):0.00000483):0.00000206):0.00000405,((15_0_10:0.00000312,(15_0_5:0.00000045,15_0_1:0.00000109):0.00000040):0.00000161,(((15_0_9:0.00000026,15_0_12:0.00000130):0.00000095,(15_0_4:0.00000036,15_0_7:0.00000005):0.00000190):0.00000242,15_0_3:0.00000270):0.00000012):0.00000564):0.00002346,((((10_0_8:0.00000822,(((10_0_11:0.00000110,((16_0_3:0.00000257,16_0_13:0.00000064):0.00000048,(16_0_10:0.00000053,10_0_0:0.00000181):0.00000019):0.00000000):0.00000341,(10_0_2:0.00000322,(16_0_6:0.00000217,10_0_3:0.00000177):0.00000066):0.00000236):0.00000205,(10_0_5:0.00000374,16_0_1:0.00000151):0.00000193):0.00000504):0.00001066,(((12_0_1:0.00001070,((12_0_5:0.00000003,12_0_6:0.00000001):0.00000176,12_0_4:0.00000427):0.00000177):0.00000303,(12_0_7:0.00000020,12_0_11:0.00000017):0.00001270):0.00000740,12_0_9:0.00000893):0.00000308):0.00000909,((12_0_2:0.00002427,(((12_0_12:0.00000239,(12_0_3:0.00000070,(12_0_13:0.00000015,12_0_0:0.00000004):0.00000081):0.00000228):0.00000195,12_0_8:0.00000247):0.00000009,12_0_10:0.00000360):0.00001246):0.00002432,((((10_0_1:0.00000068,(10_0_7:0.00000156,16_0_4:0.00000017):0.00000036):0.00000316,((((10_0_12:0.00000083,10_0_10:0.00000005):0.00000005,(16_0_7:0.00000124,(16_0_12:0.00000045,16_0_11:0.00000037):0.00000035):0.00000081):0.00000029,10_0_13:0.00000220):0.00000007,16_0_5:0.00000176):0.00000064):0.00000180,(((10_0_4:0.00000027,10_0_6:0.00000013):0.00000010,10_0_9:0.00000030):0.00000014,16_0_0:0.00000047):0.00000320):0.00001395,((11_0_2:0.00000140,(11_0_6:0.00000084,(11_0_7:0.00000032,11_0_0:0.00000067):0.00000018):0.00000038):0.00000482,11_0_4:0.00000369):0.00005145):0.00000527):0.00000033):0.00000347,((((13_0_3:0.00000097,((13_0_13:0.00000041,13_0_7:0.00000208):0.00000765,(13_0_1:0.00000258,(13_0_11:0.00000147,((13_0_2:0.00000072,(13_0_10:0.00000000,13_0_8:0.00000001):0.00000006):0.00000058,(13_0_12:0.00000169,13_0_9:0.00000144):0.00000045):0.00000056):0.00000045):0.00000208):0.00000092):0.00001141,((13_0_4:0.00000002,13_0_6:0.00000001):0.00000871,(13_0_5:0.00000549,13_0_0:0.00000488):0.00001023):0.00000061):0.00000530,(((11_0_9:0.00000168,(((11_0_1:0.00000004,11_0_12:0.00000006):0.00000183,11_0_13:0.00000075):0.00000458,11_0_10:0.00000132):0.00000186):0.00000654,((11_0_3:0.00000088,11_0_5:0.00000423):0.00000004,(11_0_8:0.00000044,11_0_11:0.00000174):0.00000056):0.00001287):0.00001264,((16_0_9:0.00000065,16_0_8:0.00000073):0.00000005,16_0_2:0.00000063):0.00001574):0.00000162):0.00000041,((((14_0_3:0.00000021,14_0_10:0.00000022):0.00000270,((14_0_11:0.00000053,14_0_1:0.00000303):0.00000045,14_0_12:0.00000232):0.00000095):0.00000155,(14_0_9:0.00000896,(15_0_6:0.00000007,15_0_13:0.00000008):0.00000259):0.00000062):0.00000859,(14_0_8:0.00000080,(14_0_5:0.00000004,14_0_7:0.00000002):0.00000119):0.00001080):0.00002939):0.00001427):0.00000387):0.00115660,(((5_0_7:0.00000783,(((5_0_8:0.00000036,5_0_0:0.00000041):0.00000366,((5_0_1:0.00000016,5_0_5:0.00000017):0.00000004,5_0_9:0.00000014):0.00000202):0.00000029,(5_0_2:0.00000307,5_0_11:0.00000209):0.00000034):0.00000109):0.00000997,(((5_0_4:0.00000050,5_0_3:0.00000032):0.00000142,5_0_6:0.00000489):0.00000138,((5_0_10:0.00000152,5_0_13:0.00000134):0.00000098,5_0_12:0.00000282):0.00000159):0.00001306):0.00004124,(((7_0_0:0.00004155,(((9_0_11:0.00000252,9_0_9:0.00000270):0.00000019,((9_0_1:0.00000023,9_0_5:0.00000006):0.00000041,9_0_6:0.00000125):0.00000115):0.00000679,((((9_0_8:0.00000006,9_0_12:0.00000036):0.00000102,(9_0_0:0.00000061,9_0_4:0.00000028):0.00000050):0.00000123,9_0_2:0.00000107):0.00000368,(9_0_7:0.00000029,(9_0_10:0.00000001,(9_0_3:0.00000001,9_0_13:0.00000001):0.00000001):0.00000016):0.00000473):0.00000019):0.00000196):0.00000033,(((3_0_0:0.00000304,(3_0_1:0.00000010,3_0_2:0.00000053):0.00000102):0.00002813,((((3_0_6:0.00000057,3_0_11:0.00000077):0.00000193,(3_0_7:0.00000077,3_0_10:0.00000123):0.00000058):0.00000168,(((3_0_13:0.00000070,3_0_12:0.00000017):0.00000039,3_0_3:0.00000142):0.00000009,3_0_9:0.00000053):0.00000236):0.00000388,(3_0_8:0.00000312,(3_0_4:0.00000291,3_0_5:0.00000160):0.00000027):0.00001609):0.00001434):0.00000863,((((7_0_9:0.00000060,7_0_12:0.00000054):0.00000308,7_0_10:0.00000399):0.00001023,(((7_0_1:0.00000077,((7_0_6:0.00000006,(7_0_8:0.00000001,7_0_7:0.00000000):0.00000005):0.00000011,7_0_2:0.00000042):0.00000295):0.00000001,7_0_11:0.00000167):0.00000474,7_0_13:0.00000600):0.00001261):0.00004578,((7_0_3:0.00000002,7_0_4:0.00000008):0.00000181,7_0_5:0.00000038):0.00002091):0.00001782):0.00000314):0.00002231,(((((6_0_1:0.00000060,6_0_2:0.00000017):0.00000011,6_0_7:0.00000178):0.00001245,(((((1_0_9:0.00000063,1_0_0:0.00000044):0.00000029,1_0_2:0.00000061):0.00000103,1_0_5:0.00000161):0.00000214,1_0_13:0.00000113):0.00000762,(1_0_4:0.00000094,(1_0_6:0.00000186,1_0_3:0.00000331):0.00000101):0.00000316):0.00000079):0.00002462,((((1_0_10:0.00000156,1_0_8:0.00000037):0.00000243,(1_0_11:0.00000293,((6_0_8:0.00000073,6_0_10:0.00000022):0.00000095,(((6_0_13:0.00000031,6_0_9:0.00000030):0.00000055,6_0_6:0.00000045):0.00000020,6_0_12:0.00000016):0.00000004):0.00000094):0.00000020):0.00001133,(1_0_1:0.00000189,(1_0_12:0.00000091,6_0_11:0.00000391):0.00000078):0.00000057):0.00000272,(1_0_7:0.00000275,(6_0_0:0.00000186,((6_0_3:0.00000018,6_0_4:0.00000019):0.00000007,6_0_5:0.00000011):0.00000197):0.00000511):0.00000402):0.00000557):0.00002503,((4_0_10:0.00000244,(4_0_13:0.00000209,4_0_6:0.00000186):0.00000141):0.00001861,((((((2_0_6:0.00002001,((2_0_3:0.00000280,(2_0_12:0.00000180,2_0_4:0.00000279):0.00000063):0.00000073,(((2_0_0:0.00000048,2_0_10:0.00000028):0.00000125,(2_0_5:0.00000002,2_0_9:0.00000005):0.00000186):0.00000235,(2_0_13:0.00000321,(2_0_8:0.00000036,2_0_7:0.00000020):0.00000308):0.00000051):0.00000099):0.00000417):0.00000379,((((8_0_5:0.00000070,(8_0_3:0.00000060,(8_0_4:0.00000017,8_0_13:0.00000033):0.00000002):0.00000068):0.00000132,8_0_1:0.00000455):0.00000268,(8_0_2:0.00000055,8_0_10:0.00000070):0.00000631):0.00000863,(8_0_6:0.00000057,8_0_9:0.00000060):0.00001535):0.00000865):0.00000023,(2_0_11:0.00000052,2_0_1:0.00000107):0.00001340):0.00000643,(((8_0_7:0.00000033,8_0_11:0.00000114):0.00000012,8_0_12:0.00000023):0.00000203,(8_0_8:0.00000120,8_0_0:0.00000037):0.00000227):0.00002121):0.00000681,2_0_2:0.00001683):0.00000950,((((4_0_1:0.00000195,4_0_7:0.00000149):0.00000051,(4_0_9:0.00000035,4_0_0:0.00000005):0.00000364):0.00001093,4_0_2:0.00001090):0.00000373,(4_0_11:0.00000172,((4_0_3:0.00000052,(4_0_8:0.00000024,4_0_12:0.00000013):0.00000239):0.00000022,(4_0_4:0.00000019,4_0_5:0.00000025):0.00000136):0.00000034):0.00001278):0.00000571):0.00000084):0.00000026):0.00003914):0.00000114):0.00101811):0.00144700,0_0_0:0.00034315);

data_03	T03	225	1	1	0.00736969	0.00282489	0.00420676	(0_0_0:0.00138187,((((((((1_0_12:0.00000535,(6_0_5:0.00000383,(((6_0_4:0.00000009,6_0_7:0.00000031):0.00000001,6_0_6:0.00000005):0.00000034,(6_0_1:0.00000020,6_0_0:0.00000076):0.00000007):0.00000272):0.00000115):0.00000203,6_0_8:0.00000564):0.00000622,((6_0_13:0.00000466,((1_0_6:0.00000127,(1_0_4:0.00000011,1_0_9:0.00000044):0.00000033):0.00000024,(1_0_2:0.00000210,(1_0_5:0.00000092,1_0_1:0.00000199):0.00000074):0.00000019):0.00000162):0.00000197,1_0_11:0.00000377):0.00000314):0.00000931,(((6_0_10:0.00000063,6_0_11:0.00000076):0.00000101,6_0_3:0.00000037):0.00000533,(1_0_13:0.00000045,1_0_8:0.00000088):0.00000220):0.00001176):0.00000896,(1_0_7:0.00000869,((6_0_2:0.00000299,(6_0_9:0.00000023,6_0_12:0.00000056):0.00000359):0.00000073,(1_0_0:0.00000056,(1_0_3:0.00000122,1_0_10:0.00000031):0.00000306):0.00000017):0.00000475):0.00001997):0.00000636,((((((8_0_11:0.00000005,8_0_4:0.00000011):0.00000090,8_0_2:0.00000034):0.00000334,8_0_9:0.00000216):0.00004002,((2_0_2:0.00000562,((2_0_3:0.00000234,2_0_12:0.00000128):0.00000264,((2_0_8:0.00000037,2_0_11:0.00000035):0.00000540,((2_0_0:0.00000000,2_0_9:0.00000000):0.00000033,2_0_7:0.00000166):0.00000165):0.00000315):0.00000879):0.00003526,(((8_0_6:0.00000411,8_0_1:0.00000281):0.00000430,(8_0_13:0.00000182,(((8_0_3:0.00000001,8_0_10:0.00000002):0.00000035,8_0_12:0.00000068):0.00000210,(8_0_5:0.00000036,8_0_0:0.00000036):0.00000270):0.00000130):0.00000195):0.00000339,(8_0_7:0.00000097,8_0_8:0.00000027):0.00001451):0.00001218):0.00000270):0.00000710,(((2_0_5:0.00000041,2_0_13:0.00000025):0.00000004,(2_0_1:0.00000011,2_0_4:0.00000008):0.00000077):0.00001769,(2_0_10:0.00000008,2_0_6:0.00000016):0.00004249):0.00001293):0.00003606,(((((4_0_9:0.00000151,4_0_1:0.00000109):0.00000047,(4_0_10:0.00000013,4_0_0:0.00000040):0.00000044):0.00000134,(4_0_3:0.00000339,4_0_12:0.00000097):0.00000098):0.00000100,4_0_7:0.00000716):0.00002941,((4_0_13:0.00000401,(((4_0_8:0.00000109,(4_0_2:0.00000045,4_0_5:0.00000073):0.00000159):0.00000008,4_0_11:0.00000101):0.00000010,4_0_4:0.00000164):0.00000049):0.00002289,4_0_6:0.00000925):0.00002233):0.00003756):0.00001146):0.00002266,((((7_0_4:0.00003240,((7_0_0:0.00000045,7_0_13:0.00000059):0.00000036,7_0_1:0.00000123):0.00003071):0.00000284,((7_0_2:0.00000292,(7_0_11:0.00000138,7_0_10:0.00000206):0.00000092):0.00000163,7_0_12:0.00000183):0.00002688):0.00001103,(((7_0_6:0.00000196,(7_0_5:0.00000141,7_0_7:0.00000119):0.00000047):0.00000369,7_0_3:0.00000689):0.00000008,(7_0_9:0.00000135,7_0_8:0.00000197):0.00000051):0.00001976):0.00005727,((((5_0_10:0.00000036,5_0_12:0.00000032):0.00000097,(5_0_9:0.00000014,5_0_13:0.00000006):0.00000447):0.00004548,((5_0_11:0.00000631,5_0_4:0.00000353):0.00000246,((((5_0_5:0.00000371,5_0_6:0.00000315):0.00000090,(5_0_0:0.00000011,5_0_1:0.00000011):0.00000065):0.00000310,5_0_3:0.00000464):0.00000146,(5_0_8:0.00000733,(5_0_7:0.00000028,5_0_2:0.00000078):0.00000292):0.00000508):0.00000102):0.00002074):0.00005389,(((((9_0_1:0.00000106,9_0_13:0.00000201):0.00000400,9_0_6:0.00001090):0.00001036,(((9_0_5:0.00000041,((9_0_4:0.00000043,9_0_9:0.00000043):0.00000152,9_0_8:0.00000331):0.00000037):0.00000025,((9_0_7:0.00000014,9_0_11:0.00000011):0.00000090,9_0_10:0.00000367):0.00000118):0.00001937,9_0_12:0.00001508):0.00000071):0.00000142,((9_0_2:0.00000096,9_0_0:0.00000091):0.00000376,9_0_3:0.00000374):0.00001447):0.00004468,(((3_0_6:0.00000172,3_0_13:0.00000325):0.00000549,(3_0_5:0.00000381,3_0_7:0.00000531):0.00001196):0.00005280,(((3_0_8:0.00000627,(3_0_10:0.00000307,3_0_12:0.00000229):0.00000291):0.00000090,((3_0_1:0.00000050,3_0_3:0.00000041):0.00000022,(3_0_11:0.00000034,3_0_9:0.00000028):0.00000085):0.00000416):0.00000161,(3_0_2:0.00000392,(3_0_0:0.00000532,3_0_4:0.00000159):0.00000023):0.00000619):0.00006084):0.00001334):0.00004494):0.00001900):0.00000329):0.00109971,(((((13_0_5:0.00000055,13_0_7:0.00000040):0.00001485,(11_0_7:0.00002516,(((11_0_13:0.00000003,(11_0_1:0.00000003,11_0_3:0.00000013):0.00000020):0.00000081,11_0_5:0.00000093):0.00000341,(11_0_8:0.00000079,11_0_11:0.00000051):0.00000536):0.00000203):0.00000338):0.00001335,(((((12_0_6:0.00000057,12_0_12:0.00000065):0.00000025,12_0_4:0.00000027):0.00000010,12_0_7:0.00000187):0.00000465,12_0_11:0.00000355):0.00000106,(12_0_1:0.00000213,12_0_2:0.00000104):0.00000416):0.00001103):0.00000962,(((((15_0_11:0.00000038,15_0_8:0.00000088):0.00000376,(15_0_3:0.00000008,15_0_1:0.00000005):0.00000388):0.00003807,(14_0_5:0.00000624,(15_0_4:0.00000618,(((((15_0_6:0.00000241,((15_0_10:0.00000049,15_0_0:0.00000020):0.00000012,15_0_2:0.00000097):0.00000356):0.00000003,((14_0_4:0.00000005,14_0_9:0.00000017):0.00000075,14_0_12:0.00000063):0.00000543):0.00000026,((14_0_7:0.00000010,14_0_8:0.00000023):0.00000243,(15_0_5:0.00000010,15_0_12:0.00000025):0.00000641):0.00000139):0.00000017,(14_0_11:0.00000647,(14_0_1:0.00000463,(14_0_6:0.00000159,14_0_0:0.00000222):0.00000090):0.00000117):0.00000030):0.00000051,((14_0_3:0.00000264,(14_0_10:0.00000183,14_0_13:0.00000087):0.00000270):0.00000009,14_0_2:0.00000101):0.00000169):0.00000305):0.00000126):0.00000423):0.00002977,(((11_0_0:0.00000058,11_0_2:0.00000026):0.00000544,(11_0_9:0.00000479,11_0_10:0.00000808):0.00000321):0.00000237,(11_0_4:0.00000538,(11_0_12:0.00000046,11_0_6:0.00000020):0.00000126):0.00002128):0.00002545):0.00000040,(((12_0_5:0.00000170,12_0_10:0.00000086):0.00003155,(12_0_3:0.00002706,(12_0_9:0.00001316,((12_0_8:0.00000016,12_0_0:0.00000019):0.00000105,12_0_13:0.00000092):0.00000249):0.00001091):0.00000725):0.00000383,((((16_0_2:0.00000072,(10_0_4:0.00000098,(16_0_13:0.00000072,16_0_10:0.00000095):0.00000032):0.00000114):0.00000110,(((10_0_3:0.00000029,10_0_8:0.00000027):0.00000004,10_0_12:0.00000014):0.00000235,(16_0_11:0.00000151,16_0_6:0.00000126):0.00000037):0.00000157):0.00000431,(16_0_9:0.00000172,(10_0_13:0.00000060,10_0_6:0.00000026):0.00000255):0.00001684):0.00000254,(((16_0_5:0.00000067,((16_0_4:0.00000023,16_0_3:0.00000047):0.00000013,16_0_8:0.00000041):0.00000048):0.00000440,16_0_7:0.00000345):0.00000398,((((10_0_2:0.00000115,10_0_9:0.00000187):0.00000088,((16_0_12:0.00000022,16_0_0:0.00000009):0.00000058,16_0_1:0.00000251):0.00000090):0.00000264,((10_0_0:0.00000128,10_0_7:0.00000250):0.00000055,(10_0_5:0.00000096,(10_0_1:0.00000009,10_0_11:0.00000009):0.00000011):0.00000303):0.00000387):0.00000055,10_0_10:0.00000250):0.00000613):0.00000352):0.00000572):0.00000877):0.00000875):0.00000440,((((13_0_8:0.00000050,13_0_11:0.00000092):0.00000258,13_0_3:0.00001242):0.00000283,(13_0_9:0.00000260,(((((13_0_2:0.00000128,13_0_6:0.00000265):0.00000006,13_0_4:0.00000181):0.00000140,13_0_12:0.00000153):0.00000011,(13_0_0:0.00000075,13_0_10:0.00000255):0.00000092):0.00000286,(13_0_1:0.00000048,13_0_13:0.00000103):0.00000336):0.00000038):0.00000159):0.00003813,(15_0_9:0.00000551,(15_0_7:0.00000230,15_0_13:0.00000192):0.00000587):0.00004562):0.00001483):0.00187835):0.00086051);

data_04	T04	225	1	1	0.00388103	0.00139191	0.00244155	(0_0_0:0.00104964,(((((((14_0_6:0.00000035,(14_0_0:0.00000004,14_0_13:0.00000011):0.00000015):0.00000067,(14_0_11:0.00000020,14_0_9:0.00000020):0.00000588):0.00003032,((14_0_8:0.00000326,(14_0_3:0.00000010,14_0_2:0.00000018):0.00000510):0.00000111,((14_0_4:0.00000026,14_0_7:0.00000006):0.00000207,((14_0_10:0.00000179,14_0_5:0.00000100):0.00000681,(((15_0_7:0.00000185,15_0_9:0.00000145):0.00000153,(15_0_10:0.00000024,15_0_3:0.00000014):0.00000291):0.00000039,14_0_1:0.00000598):0.00000058):0.00000013):0.00000189):0.00001332):0.00000260,(((10_0_6:0.00000370,(10_0_2:0.00000098,10_0_0:0.00000027):0.00000143):0.00000701,13_0_2:0.00001589):0.00000302,((((13_0_6:0.00000236,13_0_10:0.00000093):0.00000103,(13_0_0:0.00000004,13_0_1:0.00000002):0.00000304):0.00000027,((13_0_3:0.00000098,13_0_13:0.00000137):0.00000127,13_0_12:0.00000291):0.00000097):0.00000626,13_0_8:0.00000502):0.00000357):0.00000097):0.00000337,(((12_0_0:0.00000073,12_0_2:0.00000113):0.00001313,((((10_0_1:0.00000115,16_0_4:0.00000144):0.00000003,16_0_2:0.00000015):0.00000070,((16_0_6:0.00000178,16_0_1:0.00000143):0.00000032,(16_0_12:0.00000034,(16_0_5:0.00000015,((16_0_13:0.00000044,16_0_0:0.00000032):0.00000022,(16_0_3:0.00000002,16_0_8:0.00000009):0.00000074):0.00000006):0.00000016):0.00000052):0.00000068):0.00000169,(10_0_7:0.00000069,10_0_3:0.00000014):0.00000381):0.00001141):0.00000270,((((((16_0_7:0.00000022,16_0_11:0.00000136):0.00000012,10_0_4:0.00000025):0.00000224,((10_0_13:0.00000008,10_0_5:0.00000024):0.00000011,16_0_9:0.00000031):0.00000044):0.00000015,(10_0_8:0.00000067,(10_0_10:0.00000041,10_0_9:0.00000063):0.00000031):0.00000085):0.00000177,10_0_12:0.00000135):0.00002141,((((12_0_3:0.00000087,((12_0_4:0.00000001,12_0_10:0.00000002):0.00000071,((12_0_1:0.00000002,12_0_8:0.00000006):0.00000017,12_0_13:0.00000055):0.00000005):0.00000012):0.00000083,(12_0_11:0.00000572,(12_0_12:0.00000158,(12_0_9:0.00000011,12_0_6:0.00000010):0.00000118):0.00000024):0.00000066):0.00000401,(12_0_7:0.00000146,12_0_5:0.00000099):0.00000344):0.00000089,(10_0_11:0.00000110,16_0_10:0.00000068):0.00001094):0.00000081):0.00000040):0.00000255):0.00000953,(((15_0_2:0.00001091,(((15_0_13:0.00000067,((15_0_4:0.00000003,15_0_8:0.00000005):0.00000000,15_0_11:0.00000006):0.00000029):0.00000306,15_0_1:0.00000638):0.00000052,(15_0_0:0.00000140,15_0_6:0.00000063):0.00000102):0.00000013):0.00000001,(14_0_12:0.00000521,(15_0_12:0.00000294,15_0_5:0.00000207):0.00000120):0.00000057):0.00003391,(((11_0_9:0.00000006,11_0_6:0.00000003):0.00000705,(((11_0_3:0.00000041,(11_0_0:0.00000011,11_0_8:0.00000001):0.00000075):0.00000079,11_0_10:0.00000019):0.00000335,11_0_1:0.00000065):0.00000509):0.00000492,((((13_0_4:0.00000101,13_0_5:0.00000112):0.00000264,(13_0_11:0.00000336,13_0_7:0.00000185):0.00000162):0.00000286,13_0_9:0.00001138):0.00000889,((((11_0_13:0.00000080,11_0_5:0.00000010):0.00000143,(11_0_4:0.00000020,11_0_7:0.00000019):0.00000686):0.00000251,(11_0_2:0.00000071,11_0_11:0.00000067):0.00001643):0.00000037,11_0_12:0.00000384):0.00000380):0.00000065):0.00000849):0.00000198):0.00049302,(((((5_0_3:0.00000016,(5_0_2:0.00000004,5_0_6:0.00000006):0.00000033):0.00001115,(((5_0_10:0.00000016,5_0_12:0.00000017):0.00000130,(5_0_7:0.00000135,5_0_11:0.00000335):0.00000025):0.00000889,(5_0_9:0.00000331,(5_0_8:0.00000139,(5_0_1:0.00000001,5_0_4:0.00000000):0.00000150):0.00000144):0.00000805):0.00000119):0.00001500,((5_0_0:0.00000020,5_0_13:0.00000016):0.00000124,5_0_5:0.00000066):0.00001860):0.00004252,(((((7_0_5:0.00000014,7_0_4:0.00000005):0.00000060,((7_0_7:0.00000159,(7_0_9:0.00000039,7_0_6:0.00000020):0.00000022):0.00000232,((7_0_10:0.00000002,7_0_2:0.00000009):0.00000062,7_0_8:0.00000089):0.00000255):0.00000145):0.00000076,((7_0_11:0.00000181,(7_0_0:0.00000053,7_0_13:0.00000017):0.00000140):0.00000113,(7_0_1:0.00000118,7_0_12:0.00000318):0.00000263):0.00000021):0.00000031,7_0_3:0.00000475):0.00002183,(((((9_0_1:0.00000043,9_0_4:0.00000024):0.00000039,(9_0_2:0.00000078,9_0_5:0.00000082):0.00000030):0.00000088,((9_0_12:0.00000121,9_0_9:0.00000105):0.00000240,9_0_3:0.00000676):0.00000018):0.00001115,(((9_0_11:0.00000127,(9_0_6:0.00000097,(9_0_10:0.00000038,9_0_8:0.00000007):0.00000028):0.00000026):0.00000035,9_0_0:0.00000145):0.00000377,(9_0_13:0.00000827,9_0_7:0.00000178):0.00000023):0.00000287):0.00001926,(((3_0_8:0.00000241,(3_0_4:0.00000058,3_0_2:0.00000013):0.00000095):0.00000401,(3_0_6:0.00000023,3_0_1:0.00000027):0.00000386):0.00000106,(((3_0_9:0.00000049,3_0_7:0.00000021):0.00000052,((3_0_3:0.00000148,(3_0_13:0.00000011,(3_0_11:0.00000006,3_0_10:0.00000001):0.00000016):0.00000038):0.00000093,3_0_5:0.00000156):0.00000124):0.00000060,(3_0_12:0.00000025,3_0_0:0.00000027):0.00000526):0.00000441):0.00002071):0.00000535):0.00002489):0.00000332,((((6_0_11:0.00000048,6_0_4:0.00000055):0.00000532,((((((1_0_2:0.00000114,(1_0_7:0.00000017,1_0_9:0.00000010):0.00000020):0.00000038,(1_0_3:0.00000030,(1_0_6:0.00000015,1_0_1:0.00000024):0.00000053):0.00000049):0.00000779,(6_0_5:0.00000088,(6_0_2:0.00000001,6_0_12:0.00000000):0.00000046):0.00000648):0.00000073,(((1_0_0:0.00000105,(1_0_4:0.00000002,1_0_5:0.00000009):0.00000036):0.00000113,1_0_13:0.00000751):0.00000022,(1_0_10:0.00000313,1_0_12:0.00000038):0.00000161):0.00000604):0.00000120,(6_0_10:0.00000086,6_0_3:0.00000070):0.00000463):0.00000189,(6_0_1:0.00002204,((6_0_8:0.00000025,6_0_7:0.00000025):0.00000306,((1_0_8:0.00000092,1_0_11:0.00000160):0.00000663,(((6_0_9:0.00000008,6_0_6:0.00000036):0.00000032,6_0_13:0.00000031):0.00000051,6_0_0:0.00000055):0.00000036):0.00000584):0.00000458):0.00000244):0.00000042):0.00001775,((((4_0_0:0.00000386,4_0_10:0.00000442):0.00000153,((4_0_11:0.00000045,4_0_6:0.00000120):0.00000771,(4_0_3:0.00000073,4_0_13:0.00000147):0.00000294):0.00000209):0.00000331,((4_0_7:0.00000069,(4_0_9:0.00000020,4_0_12:0.00000044):0.00000057):0.00000026,4_0_4:0.00000105):0.00002524):0.00001172,(4_0_1:0.00000189,(4_0_5:0.00000168,(4_0_8:0.00000040,4_0_2:0.00000018):0.00000011):0.00000269):0.00002528):0.00002028):0.00002332,(((2_0_11:0.00000224,2_0_7:0.00000201):0.00000555,((((2_0_3:0.00000077,2_0_12:0.00000067):0.00000037,2_0_5:0.00000206):0.00000052,2_0_2:0.00000097):0.00000963,(((2_0_1:0.00000054,2_0_9:0.00000048):0.00000191,(2_0_6:0.00000037,(2_0_0:0.00000019,2_0_8:0.00000062):0.00000014):0.00000141):0.00000449,(2_0_13:0.00000077,(2_0_4:0.00000065,2_0_10:0.00000029):0.00000122):0.00001079):0.00000431):0.00000038):0.00001541,(((8_0_0:0.00000926,((((8_0_1:0.00000020,8_0_8:0.00000026):0.00000022,8_0_5:0.00000079):0.00000403,8_0_11:0.00000225):0.00000645,(8_0_13:0.00000066,((8_0_4:0.00000175,8_0_7:0.00000318):0.00000071,(8_0_6:0.00000288,8_0_9:0.00000056):0.00000155):0.00000200):0.00000418):0.00000196):0.00000007,8_0_12:0.00000995):0.00000362,((8_0_3:0.00000027,8_0_2:0.00000021):0.00000162,8_0_10:0.00000288):0.00001250):0.00001737):0.00001083):0.00000364):0.00025209):0.00084699);

data_05	T05	225	1	1	0.00999864	0.00488073	0.00805736	(0_0_0:0.00317663,((((((((7_0_1:0.00000019,7_0_10:0.00000019):0.00000707,(7_0_11:0.00000330,((7_0_0:0.00000062,7_0_4:0.00000075):0.00000046,7_0_7:0.00000126):0.00000027):0.00000992):0.00000075,7_0_6:0.00000651):0.00002333,(((7_0_12:0.00000620,((7_0_8:0.00000064,7_0_5:0.00000053):0.00000009,(7_0_9:0.00000010,7_0_3:0.00000024):0.00000009):0.00000576):0.00000075,7_0_2:0.00000453):0.00000183,7_0_13:0.00001812):0.00004896):0.00002262,(((3_0_4:0.00000534,(3_0_5:0.00000065,(3_0_2:0.00000020,3_0_8:0.00000049):0.00000160):0.00000526):0.00000105,(3_0_13:0.00000806,3_0_0:0.00000262):0.00000347):0.00006651,(((3_0_3:0.00000381,3_0_10:0.00000115):0.00000078,((3_0_6:0.00000056,3_0_12:0.00000124):0.00000348,((3_0_11:0.00000091,3_0_1:0.00000067):0.00000076,3_0_7:0.00000053):0.00000056):0.00000062):0.00000424,3_0_9:0.00000408):0.00002656):0.00000557):0.00000258,((9_0_0:0.00000865,((9_0_12:0.00000206,9_0_5:0.00000094):0.00000411,((9_0_8:0.00000599,(9_0_3:0.00000040,(9_0_13:0.00000046,9_0_4:0.00000031):0.00000080):0.00000170):0.00000463,9_0_11:0.00000505):0.00000125):0.00000412):0.00000188,(((9_0_10:0.00000046,9_0_1:0.00000002):0.00000153,(9_0_2:0.00000035,9_0_6:0.00000096):0.00000033):0.00000013,(9_0_9:0.00000110,9_0_7:0.00000240):0.00000016):0.00000421):0.00006770):0.00004517,(((((((6_0_5:0.00000055,6_0_2:0.00000019):0.00000082,(6_0_0:0.00000084,6_0_3:0.00000032):0.00000087):0.00000142,(6_0_13:0.00000071,6_0_1:0.00000110):0.00000187):0.00001176,(((1_0_5:0.00000192,1_0_8:0.00000095):0.00000499,(((((1_0_1:0.00000007,1_0_4:0.00000005):0.00000227,1_0_13:0.00000197):0.00000198,1_0_9:0.00000630):0.00000100,(1_0_2:0.00000054,(1_0_11:0.00000105,1_0_10:0.00000093):0.00000003):0.00000159):0.00000083,6_0_4:0.00001118):0.00000015):0.00000938,(((6_0_9:0.00000004,6_0_6:0.00000057):0.00000017,6_0_10:0.00000112):0.00000076,(6_0_12:0.00000033,6_0_11:0.00000019):0.00000166):0.00001290):0.00000450):0.00003275,(((6_0_8:0.00000184,6_0_7:0.00000636):0.00000197,((1_0_6:0.00000129,1_0_3:0.00000083):0.00000028,(1_0_12:0.00000036,1_0_7:0.00000059):0.00000067):0.00000392):0.00005195,1_0_0:0.00004086):0.00000200):0.00005739,((((((2_0_4:0.00000036,((2_0_1:0.00000010,2_0_7:0.00000014):0.00000007,2_0_3:0.00000067):0.00000040):0.00000148,2_0_0:0.00000118):0.00000143,2_0_13:0.00000258):0.00000731,((2_0_6:0.00000041,2_0_9:0.00000069):0.00000124,(2_0_5:0.00000032,(2_0_11:0.00000010,2_0_8:0.00000012):0.00000005):0.00000175):0.00001658):0.00002158,(((8_0_7:0.00000747,((8_0_10:0.00000461,(8_0_13:0.00000019,8_0_5:0.00000002):0.00000195):0.00000010,((((8_0_8:0.00000055,8_0_4:0.00000034):0.00000060,8_0_0:0.00000072):0.00000039,(8_0_12:0.00000110,8_0_11:0.00000044):0.00000003):0.00000063,8_0_9:0.00000129):0.00000085):0.00000592):0.00000087,((8_0_3:0.00000458,8_0_6:0.00000688):0.00000828,(8_0_1:0.00000168,8_0_2:0.00000005):0.00000158):0.00001745):0.00001332,(2_0_12:0.00000881,(2_0_10:0.00000499,2_0_2:0.00000192):0.00000917):0.00002575):0.00000704):0.00000236,(((4_0_1:0.00000128,(4_0_13:0.00000065,((4_0_0:0.00000039,4_0_2:0.00000005):0.00000033,4_0_6:0.00000088):0.00000130):0.00000217):0.00001302,(4_0_9:0.00000023,(4_0_3:0.00000003,4_0_5:0.00000003):0.00000039):0.00000250):0.00000612,(((4_0_11:0.00000352,4_0_4:0.00000105):0.00000031,4_0_10:0.00000832):0.00000125,((4_0_7:0.00000087,4_0_8:0.00000722):0.00000050,4_0_12:0.00000142):0.00001943):0.00000106):0.00002488):0.00000598):0.00001200,(5_0_11:0.00002623,((5_0_4:0.00001440,(5_0_6:0.00000419,((5_0_13:0.00000035,(((5_0_8:0.00000033,5_0_12:0.00000028):0.00000017,(5_0_3:0.00000066,(5_0_7:0.00000019,5_0_9:0.00000007):0.00000010):0.00000019):0.00000011,5_0_5:0.00000017):0.00000016):0.00000034,5_0_0:0.00000133):0.00000065):0.00000666):0.00000357,((5_0_2:0.00000324,5_0_1:0.00000162):0.00000627,5_0_10:0.00001554):0.00003385):0.00000016):0.00001832):0.00001166):0.00100454,(((((12_0_11:0.00000203,(12_0_3:0.00000310,12_0_6:0.00000197):0.00000308):0.00000035,(12_0_4:0.00000019,12_0_1:0.00000050):0.00000504):0.00000276,(12_0_2:0.00000319,12_0_10:0.00000090):0.00000366):0.00000892,((16_0_4:0.00000225,10_0_4:0.00000074):0.00002137,((((16_0_6:0.00000009,16_0_10:0.00000031):0.00000056,(16_0_0:0.00000030,16_0_8:0.00000026):0.00000030):0.00000587,((((10_0_11:0.00000542,((10_0_7:0.00000192,16_0_13:0.00000091):0.00000111,10_0_0:0.00000122):0.00000086):0.00000016,(16_0_5:0.00000024,16_0_11:0.00000028):0.00000126):0.00000083,((10_0_10:0.00000041,10_0_5:0.00000018):0.00000128,16_0_2:0.00000168):0.00000350):0.00000277,(((((10_0_2:0.00000019,(10_0_6:0.00000047,10_0_3:0.00000012):0.00000019):0.00000002,10_0_12:0.00000095):0.00000129,(16_0_9:0.00000029,(16_0_7:0.00000012,16_0_1:0.00000022):0.00000123):0.00000004):0.00000007,(10_0_9:0.00000150,(16_0_3:0.00000169,(10_0_13:0.00000131,10_0_1:0.00000109):0.00000015):0.00000029):0.00000012):0.00000123,(16_0_12:0.00000146,10_0_8:0.00000106):0.00000212):0.00000190):0.00000786):0.00000850,((12_0_7:0.00000518,(12_0_0:0.00000343,(12_0_9:0.00000382,12_0_8:0.00000377):0.00000150):0.00000051):0.00002068,((12_0_12:0.00000123,12_0_13:0.00000912):0.00000018,12_0_5:0.00000239):0.00000156):0.00000448):0.00001343):0.00000140):0.00000861,(((((13_0_2:0.00000003,13_0_5:0.00000005):0.00001737,13_0_0:0.00002616):0.00000051,(13_0_6:0.00000095,13_0_4:0.00000038):0.00001828):0.00000255,(((11_0_5:0.00000960,(((11_0_3:0.00000085,11_0_2:0.00000120):0.00000177,(11_0_10:0.00000057,11_0_1:0.00000060):0.00000227):0.00000242,11_0_11:0.00000188):0.00000649):0.00000295,(((11_0_12:0.00000061,(11_0_0:0.00000055,11_0_9:0.00000091):0.00000046):0.00000049,((11_0_7:0.00000020,11_0_13:0.00000010):0.00000125,(11_0_8:0.00000137,11_0_4:0.00000020):0.00000002):0.00000099):0.00000542,11_0_6:0.00000541):0.00000320):0.00000401,((((13_0_13:0.00000009,13_0_3:0.00000057):0.00000258,13_0_7:0.00000231):0.00000226,(13_0_12:0.00000405,(13_0_8:0.00000060,13_0_10:0.00000039):0.00000079):0.00000482):0.00000204,((13_0_9:0.00000010,13_0_11:0.00000069):0.00000156,13_0_1:0.00000390):0.00001577):0.00000385):0.00000058):0.00000543,(((15_0_0:0.00000288,15_0_13:0.00000280):0.00000287,(14_0_12:0.00000407,(((15_0_3:0.00000132,(15_0_4:0.00000093,((15_0_11:0.00000022,15_0_2:0.00000023):0.00000005,15_0_9:0.00000078):0.00000014):0.00000048):0.00000100,(14_0_0:0.00000385,(14_0_9:0.00000161,14_0_4:0.00000010):0.00000099):0.00000351):0.00000158,14_0_3:0.00000563):0.00000023):0.00000018):0.00001043,((15_0_5:0.00000812,15_0_6:0.00000347):0.00000209,(((15_0_7:0.00000055,(15_0_12:0.00000021,15_0_8:0.00000049):0.00000022):0.00000242,((14_0_7:0.00000004,14_0_6:0.00000004):0.00000179,(14_0_8:0.00000026,14_0_1:0.00000112):0.00000126):0.00000051):0.00000095,(15_0_10:0.00000307,(15_0_1:0.00000476,((14_0_11:0.00000030,14_0_5:0.00000178):0.00000053,(14_0_10:0.00000245,(14_0_13:0.00000002,14_0_2:0.00000002):0.00000540):0.00000056):0.00000007):0.00000047):0.00000103):0.00000171):0.00000639):0.00001871):0.00000049):0.00033773):0.00373286);

data_06	T06	225	1	1	0.00917233	0.0044656	0.00595962	(((((((3_0_12:0.00000912,(3_0_5:0.00000540,3_0_6:0.00000309):0.00000172):0.00001253,((((3_0_9:0.00000045,3_0_13:0.00000134):0.00000231,((3_0_3:0.00000020,3_0_8:0.00000020):0.00000010,3_0_0:0.00000130):0.00000283):0.00001292,3_0_7:0.00002195):0.00000417,(3_0_4:0.00000453,((3_0_1:0.00000181,3_0_10:0.00000087):0.00000090,3_0_11:0.00000217):0.00001972):0.00000140):0.00000083):0.00001787,3_0_2:0.00003416):0.00003384,(7_0_8:0.00009146,(((((7_0_5:0.00000193,(7_0_12:0.00000003,7_0_6:0.00000034):0.00000148):0.00000175,((7_0_10:0.00000023,7_0_4:0.00000011):0.00000197,7_0_2:0.00000012):0.00000236):0.00001970,(7_0_1:0.00001278,(7_0_11:0.00000074,7_0_9:0.00000100):0.00000057):0.00000806):0.00000010,((7_0_7:0.00000512,7_0_3:0.00000301):0.00000075,(7_0_0:0.00000160,7_0_13:0.00000088):0.00000308):0.00000052):0.00001841,((((((9_0_12:0.00000080,(9_0_13:0.00000125,9_0_1:0.00000111):0.00000108):0.00000673,(9_0_8:0.00000311,9_0_11:0.00000648):0.00000189):0.00000950,(9_0_9:0.00000192,9_0_2:0.00000355):0.00000911):0.00000110,(9_0_4:0.00000018,9_0_0:0.00000016):0.00000642):0.00000811,9_0_6:0.00000784):0.00000156,((9_0_3:0.00000022,9_0_5:0.00000080):0.00000136,(9_0_7:0.00000134,9_0_10:0.00000029):0.00000139):0.00003520):0.00002635):0.00000396):0.00000152):0.00008957,(((((5_0_5:0.00000439,(5_0_11:0.00000190,5_0_9:0.00000344):0.00000048):0.00000223,5_0_13:0.00000889):0.00000341,(((5_0_8:0.00000021,5_0_0:0.00000066):0.00000422,5_0_10:0.00000274):0.00000724,((5_0_1:0.00000062,(5_0_7:0.00000021,5_0_4:0.00000007):0.00000268):0.00000273,5_0_6:0.00000219):0.00000494):0.00000003):0.00003130,(5_0_12:0.00000085,(5_0_2:0.00000189,5_0_3:0.00000035):0.00000037):0.00003216):0.00011702,((((((8_0_2:0.00000432,8_0_0:0.00000422):0.00000254,((8_0_1:0.00000007,8_0_7:0.00000016):0.00000370,(8_0_9:0.00000251,8_0_13:0.00000113):0.00000031):0.00000174):0.00000608,(8_0_3:0.00000277,(8_0_11:0.00000037,8_0_5:0.00000086):0.00001137):0.00000082):0.00000550,(8_0_8:0.00000239,(8_0_4:0.00000085,((8_0_12:0.00000003,8_0_6:0.00000001):0.00000266,8_0_10:0.00000029):0.00000118):0.00000252):0.00001239):0.00002187,(((2_0_7:0.00000179,2_0_2:0.00001865):0.00000399,2_0_1:0.00000515):0.00000916,((2_0_8:0.00000057,2_0_6:0.00000071):0.00000502,(((2_0_0:0.00000189,2_0_13:0.00000118):0.00000104,(2_0_9:0.00000164,(2_0_5:0.00000059,(2_0_3:0.00000002,2_0_10:0.00000002):0.00000055):0.00000055):0.00000049):0.00000385,(2_0_4:0.00000314,(2_0_11:0.00000271,2_0_12:0.00000101):0.00000058):0.00000475):0.00000018):0.00009320):0.00005408):0.00004078,((((4_0_2:0.00000022,4_0_0:0.00000018):0.00003862,((4_0_1:0.00000134,4_0_3:0.00000082):0.00000060,4_0_10:0.00000441):0.00003114):0.00001275,((4_0_11:0.00000081,(((4_0_8:0.00000008,4_0_4:0.00000009):0.00000046,4_0_6:0.00000005):0.00000040,4_0_5:0.00000180):0.00000049):0.00000077,((4_0_9:0.00000549,4_0_13:0.00000151):0.00000140,(4_0_12:0.00000280,4_0_7:0.00000274):0.00000113):0.00000178):0.00005990):0.00001881,(((6_0_6:0.00001273,((1_0_7:0.00000021,(1_0_12:0.00000007,1_0_13:0.00000011):0.00000052):0.00000248,(1_0_4:0.00000021,1_0_10:0.00000004):0.00000085):0.00000365):0.00000679,((1_0_2:0.00000071,1_0_6:0.00000044):0.00000388,6_0_12:0.00000418):0.00001844):0.00001145,((((6_0_13:0.00000177,((6_0_5:0.00000040,6_0_7:0.00000028):0.00000006,6_0_4:0.00000048):0.00000035):0.00000113,(((6_0_8:0.00000013,6_0_1:0.00000026):0.00000007,6_0_9:0.00000062):0.00000034,((6_0_10:0.00000008,6_0_11:0.00000016):0.00000041,6_0_3:0.00000102):0.00000158):0.00000003):0.00000384,(6_0_0:0.00000044,6_0_2:0.00000034):0.00000774):0.00000781,((1_0_9:0.00000250,(1_0_3:0.00000252,(1_0_8:0.00000085,1_0_5:0.00000175):0.00000033):0.00000097):0.00000170,((1_0_1:0.00000162,1_0_11:0.00000099):0.00000008,1_0_0:0.00000035):0.00000449):0.00001137):0.00005297):0.00001597):0.00001846):0.00004186):0.00001131):0.00087820,((((11_0_0:0.00000166,11_0_7:0.00000181):0.00001464,11_0_9:0.00000295):0.00001740,((((11_0_1:0.00000006,11_0_5:0.00000060):0.00000701,(((((11_0_2:0.00000120,11_0_6:0.00000182):0.00000018,11_0_4:0.00000152):0.00000486,(11_0_10:0.00000288,((11_0_8:0.00000023,11_0_13:0.00000067):0.00000125,11_0_12:0.00000137):0.00000123):0.00000022):0.00000598,11_0_11:0.00001655):0.00000103,11_0_3:0.00001860):0.00000101):0.00003041,(((((16_0_1:0.00000089,10_0_12:0.00000074):0.00000545,(16_0_7:0.00000322,16_0_10:0.00000109):0.00000243):0.00001071,((((10_0_13:0.00000041,10_0_7:0.00000070):0.00000223,(((10_0_11:0.00000019,10_0_4:0.00000013):0.00000078,(10_0_5:0.00000024,10_0_10:0.00000138):0.00000156):0.00000012,(10_0_8:0.00000135,10_0_9:0.00000066):0.00000046):0.00000075):0.00000042,((16_0_2:0.00000191,16_0_9:0.00000075):0.00000021,(16_0_13:0.00000030,16_0_6:0.00000033):0.00000031):0.00000048):0.00000894,(10_0_1:0.00000144,10_0_3:0.00000474):0.00000139):0.00000181):0.00000333,(((10_0_2:0.00000015,10_0_6:0.00000023):0.00000018,10_0_0:0.00000097):0.00000631,(16_0_11:0.00000152,(((16_0_4:0.00000014,16_0_12:0.00000038):0.00000060,16_0_0:0.00000045):0.00000023,(16_0_5:0.00000134,(16_0_3:0.00000058,16_0_8:0.00000011):0.00000052):0.00000011):0.00000370):0.00000518):0.00000492):0.00001304,((12_0_3:0.00000372,((12_0_9:0.00000014,12_0_2:0.00000012):0.00000098,12_0_7:0.00000031):0.00000287):0.00000573,(((12_0_13:0.00000074,12_0_8:0.00000100):0.00000550,(12_0_10:0.00000024,((12_0_12:0.00000026,12_0_11:0.00000039):0.00000012,(12_0_0:0.00000209,12_0_4:0.00000107):0.00000004):0.00000118):0.00001113):0.00000477,(12_0_5:0.00001166,(12_0_6:0.00000099,12_0_1:0.00000183):0.00000646):0.00000025):0.00000516):0.00000334):0.00000092):0.00002521,(((((13_0_9:0.00000396,13_0_1:0.00000482):0.00000014,(13_0_6:0.00000038,(13_0_8:0.00000031,13_0_12:0.00000031):0.00000124):0.00000294):0.00001140,13_0_0:0.00002180):0.00003034,(((13_0_4:0.00000177,13_0_10:0.00000227):0.00000455,((13_0_13:0.00000011,13_0_3:0.00000013):0.00000238,13_0_5:0.00000215):0.00000195):0.00000663,((13_0_7:0.00000375,13_0_11:0.00000566):0.00000562,13_0_2:0.00002049):0.00000012):0.00003917):0.00000069,(((15_0_5:0.00000395,(15_0_10:0.00000004,15_0_2:0.00000005):0.00000449):0.00000238,(15_0_0:0.00000301,((14_0_6:0.00000232,15_0_3:0.00000271):0.00000100,(14_0_0:0.00000006,14_0_4:0.00000024):0.00000458):0.00000096):0.00000585):0.00000026,(((15_0_9:0.00000016,15_0_1:0.00000118):0.00000932,14_0_2:0.00001361):0.00000008,(14_0_13:0.00000195,((14_0_1:0.00000087,14_0_9:0.00000035):0.00000057,(14_0_7:0.00000030,(14_0_12:0.00000002,14_0_11:0.00000004):0.00000065):0.00000128):0.00000066):0.00000101):0.00000978):0.00003117):0.00000167):0.00000352):0.00001325,(((((15_0_8:0.00000008,15_0_4:0.00000011):0.00000001,15_0_13:0.00000012):0.00000197,(15_0_6:0.00000278,15_0_12:0.00000223):0.00000380):0.00000399,(15_0_11:0.00000006,15_0_7:0.00000075):0.00001891):0.00002816,((14_0_3:0.00000377,14_0_10:0.00000074):0.00000018,(14_0_8:0.00000023,14_0_5:0.00000023):0.00000199):0.00002640):0.00004003):0.00123517):0.00016685,0_0_0:0.00446560);

data_07	T07	225	1	1	0.00464656	0.00164358	0.00302299	(0_0_0:0.00164358,((((((((11_0_11:0.00000082,11_0_13:0.00000028):0.00000148,11_0_8:0.00000083):0.00000026,11_0_10:0.00000068):0.00000120,(11_0_3:0.00000405,(11_0_4:0.00000039,11_0_6:0.00000016):0.00000149):0.00000134):0.00000398,11_0_12:0.00000218):0.00000197,((11_0_9:0.00000059,11_0_7:0.00000043):0.00000058,11_0_5:0.00000089):0.00000795):0.00003481,(((((12_0_9:0.00000457,(12_0_5:0.00000084,12_0_10:0.00000094):0.00000159):0.00001493,((12_0_12:0.00000660,((12_0_2:0.00000172,((12_0_1:0.00000024,12_0_4:0.00000026):0.00000161,12_0_3:0.00000076):0.00000001):0.00000059,(12_0_11:0.00000044,12_0_6:0.00000073):0.00000126):0.00000127):0.00000172,(12_0_8:0.00000605,((12_0_7:0.00000019,12_0_0:0.00000031):0.00000010,12_0_13:0.00000039):0.00000267):0.00000269):0.00000405):0.00000123,(((16_0_5:0.00000075,16_0_4:0.00000078):0.00000012,(16_0_11:0.00000146,16_0_2:0.00000077):0.00000065):0.00000056,(10_0_6:0.00000240,((16_0_10:0.00000067,16_0_13:0.00000043):0.00000001,(10_0_12:0.00000024,10_0_10:0.00000089):0.00000015):0.00000265):0.00000479):0.00000270):0.00000087,(((11_0_0:0.00000031,11_0_1:0.00000045):0.00000856,11_0_2:0.00000684):0.00001107,(((((10_0_3:0.00000166,(10_0_0:0.00000061,10_0_13:0.00000035):0.00000012):0.00000182,(((16_0_3:0.00000021,16_0_6:0.00000006):0.00000026,16_0_9:0.00000055):0.00000202,((10_0_2:0.00000009,10_0_11:0.00000007):0.00000025,10_0_5:0.00000061):0.00000055):0.00000016):0.00000049,(((16_0_7:0.00000100,10_0_8:0.00000136):0.00000007,10_0_9:0.00000076):0.00000156,10_0_7:0.00000323):0.00000035):0.00000095,((16_0_0:0.00000001,16_0_1:0.00000007):0.00000098,(16_0_12:0.00000077,(10_0_4:0.00000017,10_0_1:0.00000029):0.00000008):0.00000129):0.00000071):0.00000217,16_0_8:0.00000372):0.00000316):0.00000037):0.00000785,(((14_0_0:0.00000231,((14_0_10:0.00000063,(14_0_12:0.00000018,((14_0_4:0.00000028,14_0_1:0.00000017):0.00000005,14_0_11:0.00000003):0.00000003):0.00000043):0.00000657,15_0_4:0.00000199):0.00000154):0.00001702,((((((13_0_12:0.00000001,13_0_11:0.00000000):0.00000076,(13_0_13:0.00000043,(13_0_5:0.00000028,13_0_9:0.00000109):0.00000002):0.00000034):0.00000003,13_0_8:0.00000132):0.00000025,13_0_0:0.00000060):0.00000054,13_0_6:0.00000364):0.00001666,(13_0_3:0.00000882,(13_0_10:0.00000454,((13_0_1:0.00000220,13_0_2:0.00000145):0.00000078,(13_0_4:0.00000117,13_0_7:0.00000040):0.00000167):0.00000124):0.00000291):0.00000057):0.00000521):0.00000463,((14_0_8:0.00000185,14_0_3:0.00000127):0.00000709,((((15_0_9:0.00000340,(15_0_2:0.00000162,15_0_0:0.00000158):0.00000105):0.00000128,(15_0_8:0.00000556,((15_0_11:0.00000010,15_0_12:0.00000007):0.00000152,15_0_7:0.00000246):0.00000048):0.00000110):0.00000150,((14_0_9:0.00000090,14_0_2:0.00000014):0.00000141,14_0_7:0.00000358):0.00000398):0.00000181,(14_0_13:0.00000691,(((14_0_5:0.00000145,14_0_6:0.00000099):0.00000059,(15_0_5:0.00000472,15_0_3:0.00000115):0.00000064):0.00000063,(((15_0_1:0.00000113,15_0_10:0.00000074):0.00000031,15_0_6:0.00000195):0.00000483,15_0_13:0.00000406):0.00000045):0.00000192):0.00000088):0.00001248):0.00000240):0.00000057):0.00001680):0.00062900,((((((7_0_1:0.00000064,(7_0_9:0.00000013,(7_0_11:0.00000010,7_0_3:0.00000015):0.00000070):0.00000043):0.00000035,((7_0_7:0.00000024,7_0_0:0.00000039):0.00000018,7_0_6:0.00000044):0.00000171):0.00000192,(7_0_13:0.00000253,(7_0_8:0.00000375,(7_0_12:0.00000485,(7_0_4:0.00000175,7_0_10:0.00000163):0.00000089):0.00000058):0.00000011):0.00000877):0.00000121,(7_0_2:0.00000081,7_0_5:0.00000044):0.00004821):0.00001578,(((((((9_0_1:0.00000011,9_0_11:0.00000084):0.00000201,9_0_0:0.00000075):0.00000189,((9_0_9:0.00000067,(9_0_4:0.00000030,(9_0_13:0.00000002,9_0_6:0.00000003):0.00000013):0.00000058):0.00000098,9_0_8:0.00000150):0.00000064):0.00000228,9_0_7:0.00000047):0.00000598,(9_0_10:0.00000071,(9_0_3:0.00000055,9_0_5:0.00000087):0.00000020):0.00001224):0.00000078,(9_0_2:0.00000292,9_0_12:0.00000103):0.00001036):0.00002278,(((((3_0_4:0.00000051,(3_0_0:0.00000173,3_0_1:0.00000097):0.00000046):0.00000004,3_0_5:0.00000057):0.00000208,3_0_3:0.00000054):0.00001449,3_0_2:0.00002327):0.00000030,((3_0_7:0.00000354,(3_0_6:0.00000133,((3_0_13:0.00000018,(3_0_9:0.00000038,3_0_10:0.00000126):0.00000001):0.00000039,(3_0_11:0.00000038,3_0_8:0.00000018):0.00000050):0.00000030):0.00000087):0.00000126,3_0_12:0.00000420):0.00000449):0.00000993):0.00001956):0.00001152,((((((5_0_2:0.00000172,5_0_9:0.00000119):0.00000179,((5_0_6:0.00000041,(5_0_3:0.00000073,5_0_10:0.00000033):0.00000036):0.00000016,(((5_0_7:0.00000053,5_0_12:0.00000030):0.00000012,5_0_11:0.00000029):0.00000088,(5_0_1:0.00000119,5_0_13:0.00000006):0.00000097):0.00000004):0.00000298):0.00000083,5_0_5:0.00000482):0.00000660,((5_0_8:0.00000084,5_0_4:0.00000050):0.00000063,5_0_0:0.00000105):0.00001468):0.00003833,((((((((1_0_10:0.00000062,1_0_3:0.00000103):0.00000237,1_0_12:0.00000130):0.00000120,(6_0_5:0.00000115,((6_0_9:0.00000140,6_0_3:0.00000052):0.00000088,6_0_7:0.00000165):0.00000129):0.00000058):0.00000025,(6_0_0:0.00000038,(6_0_10:0.00000003,6_0_13:0.00000012):0.00000034):0.00000360):0.00000242,((((1_0_13:0.00000036,1_0_1:0.00000012):0.00000011,1_0_9:0.00000133):0.00000052,1_0_5:0.00000142):0.00000404,((6_0_4:0.00000008,6_0_8:0.00000020):0.00000254,((6_0_6:0.00000000,6_0_11:0.00000001):0.00000100,6_0_1:0.00000095):0.00000048):0.00000173):0.00000205):0.00000789,(1_0_8:0.00000593,((1_0_0:0.00000143,(1_0_4:0.00000145,(1_0_7:0.00000176,(1_0_6:0.00000031,1_0_11:0.00000037):0.00000221):0.00000007):0.00000021):0.00000021,1_0_2:0.00000242):0.00000155):0.00000452):0.00000097,(6_0_12:0.00000011,6_0_2:0.00000013):0.00000265):0.00004038,(((2_0_0:0.00000308,((2_0_1:0.00000242,(2_0_12:0.00000069,((2_0_11:0.00000006,2_0_8:0.00000018):0.00000104,(2_0_4:0.00000008,2_0_10:0.00000005):0.00000166):0.00000015):0.00000001):0.00000194,(2_0_3:0.00000319,(2_0_6:0.00000194,2_0_5:0.00000141):0.00000001):0.00000047):0.00000212):0.00000848,(2_0_13:0.00002396,(((8_0_11:0.00000264,8_0_8:0.00000089):0.00000235,(8_0_2:0.00000517,(8_0_12:0.00000035,((8_0_9:0.00000133,((8_0_3:0.00000005,8_0_10:0.00000031):0.00000136,8_0_1:0.00000076):0.00000001):0.00000003,(8_0_13:0.00000117,8_0_6:0.00000035):0.00000023):0.00000049):0.00000147):0.00000006):0.00000029,(((8_0_4:0.00000026,8_0_5:0.00000006):0.00000055,8_0_7:0.00000084):0.00000173,8_0_0:0.00000209):0.00000240):0.00000175):0.00000379):0.00000501,((2_0_7:0.00000060,2_0_9:0.00000021):0.00000003,2_0_2:0.00000065):0.00004176):0.00003277):0.00000714):0.00000091,(((((4_0_5:0.00000299,(4_0_7:0.00000018,4_0_12:0.00000170):0.00000156):0.00000018,4_0_0:0.00001391):0.00000775,(4_0_4:0.00000043,((((4_0_11:0.00000001,4_0_9:0.00000000):0.00000054,(4_0_10:0.00000011,4_0_2:0.00000044):0.00000052):0.00000053,4_0_1:0.00000049):0.00000039,4_0_8:0.00000176):0.00000036):0.00000736):0.00000195,4_0_6:0.00000993):0.00000177,(4_0_13:0.00000098,4_0_3:0.00000050):0.00000592):0.00003971):0.00002394):0.00048508):0.00070249);

data_08	T08	225	1	1	0.00528179	0.00174126	0.00326122	(0_0_0:0.00151996,((((((4_0_8:0.00000458,(4_0_5:0.00000045,4_0_4:0.00000088):0.00000069):0.00000627,((4_0_7:0.00000558,(4_0_2:0.00000092,(((4_0_13:0.00000058,4_0_11:0.00000083):0.00000013,(4_0_12:0.00000000,4_0_6:0.00000001):0.00000022):0.00000023,(4_0_1:0.00000043,4_0_3:0.00000057):0.00000043):0.00000014):0.00000364):0.00000212,((4_0_10:0.00000071,4_0_0:0.00000039):0.00000275,4_0_9:0.00000095):0.00000225):0.00000234):0.00007519,((((((6_0_6:0.00000046,(6_0_8:0.00000018,6_0_0:0.00000093):0.00000207):0.00000074,6_0_13:0.00000210):0.00000060,1_0_4:0.00000567):0.00000926,(((1_0_9:0.00000172,(1_0_6:0.00000022,(1_0_3:0.00000020,1_0_2:0.00000010):0.00000068):0.00000004):0.00000495,(1_0_10:0.00000083,1_0_13:0.00000051):0.00000046):0.00000060,6_0_4:0.00000359):0.00001274):0.00000585,(((((6_0_1:0.00000996,(1_0_7:0.00000252,(1_0_5:0.00000122,(1_0_12:0.00000005,1_0_1:0.00000002):0.00000045):0.00000110):0.00000015):0.00000205,1_0_8:0.00000330):0.00000097,1_0_0:0.00000506):0.00000202,((((6_0_12:0.00000041,6_0_5:0.00000006):0.00000229,6_0_7:0.00000096):0.00000170,6_0_11:0.00000214):0.00000180,(((6_0_3:0.00000005,6_0_2:0.00000008):0.00000203,6_0_9:0.00000143):0.00000118,6_0_10:0.00000461):0.00000204):0.00000712):0.00001643,1_0_11:0.00002392):0.00000751):0.00003796,(((2_0_7:0.00000117,(2_0_1:0.00000120,((2_0_6:0.00000002,2_0_5:0.00000002):0.00000036,2_0_12:0.00000058):0.00000097):0.00000219):0.00000456,2_0_2:0.00000410):0.00003143,((8_0_9:0.00001188,(((8_0_12:0.00000199,(8_0_8:0.00000010,8_0_7:0.00000037):0.00000334):0.00000189,((8_0_4:0.00000040,(8_0_6:0.00000020,8_0_13:0.00000008):0.00000006):0.00000093,8_0_10:0.00000122):0.00000164):0.00000323,((8_0_3:0.00000105,8_0_1:0.00000074):0.00000086,8_0_11:0.00000259):0.00000294):0.00001233):0.00000513,((8_0_5:0.00000993,(8_0_2:0.00000008,8_0_0:0.00000066):0.00001224):0.00000522,(((2_0_13:0.00000043,2_0_8:0.00000014):0.00000019,2_0_0:0.00000037):0.00000729,(2_0_11:0.00000286,((2_0_4:0.00000051,2_0_10:0.00000078):0.00000004,(2_0_9:0.00000097,2_0_3:0.00000153):0.00000034):0.00000294):0.00000411):0.00001350):0.00000224):0.00001014):0.00001212):0.00000234):0.00001801,((((5_0_7:0.00000018,5_0_10:0.00000003):0.00000044,5_0_12:0.00000022):0.00002438,((5_0_5:0.00000156,5_0_1:0.00000057):0.00001056,((5_0_4:0.00000175,((5_0_6:0.00000068,(5_0_11:0.00000082,5_0_8:0.00000073):0.00000071):0.00000024,(5_0_13:0.00000089,5_0_3:0.00000089):0.00000083):0.00000061):0.00000568,5_0_2:0.00000725):0.00000149):0.00000097):0.00000644,(5_0_0:0.00000064,5_0_9:0.00000054):0.00003429):0.00011159):0.00009536,(((((3_0_12:0.00001126,3_0_0:0.00000296):0.00000329,(((3_0_5:0.00000130,3_0_1:0.00000162):0.00000010,(3_0_13:0.00000042,3_0_9:0.00000056):0.00000061):0.00000391,(((3_0_8:0.00000009,3_0_11:0.00000005):0.00000013,3_0_10:0.00000013):0.00000002,3_0_3:0.00000033):0.00000851):0.00000037):0.00000010,3_0_6:0.00000275):0.00001740,((3_0_7:0.00000295,(3_0_4:0.00000045,3_0_2:0.00000049):0.00000127):0.00006332,((7_0_8:0.00004695,((((7_0_6:0.00000078,(7_0_13:0.00000031,7_0_0:0.00000001):0.00000019):0.00000024,7_0_3:0.00000221):0.00000274,7_0_10:0.00000360):0.00000833,((7_0_7:0.00000114,7_0_4:0.00000068):0.00000031,7_0_5:0.00000122):0.00000321):0.00001951):0.00000453,((7_0_2:0.00000159,((7_0_12:0.00000012,7_0_1:0.00000093):0.00000008,7_0_11:0.00000058):0.00000206):0.00000002,7_0_9:0.00000114):0.00003185):0.00000509):0.00000627):0.00000652,((((9_0_2:0.00000924,9_0_1:0.00000183):0.00000279,(9_0_5:0.00000060,9_0_0:0.00000095):0.00001274):0.00000156,(9_0_11:0.00000273,9_0_3:0.00000247):0.00000080):0.00000459,((9_0_12:0.00000305,((9_0_10:0.00000034,9_0_4:0.00000029):0.00000023,9_0_9:0.00000105):0.00000157):0.00000145,((9_0_8:0.00000095,9_0_6:0.00000050):0.00000303,(9_0_7:0.00000089,9_0_13:0.00000102):0.00000176):0.00000339):0.00000487):0.00000598):0.00003678):0.00074746,(((((11_0_8:0.00000989,((11_0_1:0.00000199,11_0_4:0.00000130):0.00001311,(11_0_3:0.00000831,(((11_0_7:0.00000035,(11_0_11:0.00000033,(11_0_6:0.00000004,11_0_2:0.00000004):0.00000035):0.00000017):0.00000137,(11_0_10:0.00000126,(11_0_5:0.00000055,11_0_13:0.00000052):0.00000070):0.00000033):0.00000005,(11_0_12:0.00000158,(11_0_0:0.00000003,11_0_9:0.00000004):0.00000057):0.00000079):0.00000450):0.00000733):0.00000116):0.00000216,(((16_0_6:0.00000142,(16_0_7:0.00000068,10_0_0:0.00000091):0.00000035):0.00000466,(10_0_1:0.00000183,10_0_5:0.00000252):0.00000095):0.00000256,(((16_0_9:0.00000019,16_0_1:0.00000015):0.00000084,16_0_3:0.00000157):0.00000033,(16_0_11:0.00000066,16_0_5:0.00000047):0.00000070):0.00000511):0.00003079):0.00000530,(((15_0_10:0.00000111,15_0_2:0.00000043):0.00000245,14_0_5:0.00000318):0.00000487,(14_0_11:0.00001327,15_0_3:0.00000465):0.00000166):0.00002276):0.00001998,(((13_0_5:0.00000057,13_0_10:0.00000023):0.00000108,13_0_8:0.00000079):0.00000615,((((((13_0_11:0.00000171,13_0_6:0.00000019):0.00000050,13_0_9:0.00000056):0.00000064,((13_0_4:0.00000286,13_0_0:0.00000260):0.00000037,((13_0_2:0.00000082,13_0_12:0.00000121):0.00000111,13_0_13:0.00000309):0.00000089):0.00000143):0.00000017,13_0_1:0.00000169):0.00000159,13_0_7:0.00000464):0.00000027,13_0_3:0.00001524):0.00000273):0.00000718):0.00000883,((((((16_0_4:0.00000024,(16_0_12:0.00000080,(16_0_10:0.00000005,16_0_13:0.00000119):0.00000149):0.00000004):0.00000102,((16_0_2:0.00000087,10_0_10:0.00000169):0.00000055,(10_0_3:0.00000090,16_0_0:0.00000049):0.00000055):0.00000043):0.00000019,(10_0_4:0.00000146,10_0_6:0.00000030):0.00000404):0.00000042,(16_0_8:0.00000275,10_0_9:0.00000119):0.00000278):0.00000256,(((((10_0_7:0.00000000,10_0_11:0.00000001):0.00000088,10_0_13:0.00000131):0.00000025,10_0_12:0.00000033):0.00000010,10_0_8:0.00000038):0.00000100,10_0_2:0.00000337):0.00000082):0.00002390,(((15_0_1:0.00002460,(((14_0_13:0.00000250,14_0_4:0.00000051):0.00000048,((15_0_13:0.00000129,15_0_8:0.00000205):0.00000245,(14_0_10:0.00000056,14_0_1:0.00000023):0.00000308):0.00000044):0.00000328,(((((14_0_8:0.00000081,14_0_7:0.00000101):0.00000047,(14_0_0:0.00000091,14_0_6:0.00000086):0.00000010):0.00000011,14_0_2:0.00000280):0.00000105,(((15_0_6:0.00000010,15_0_7:0.00000005):0.00000077,((15_0_9:0.00000023,15_0_4:0.00000035):0.00000004,15_0_12:0.00000031):0.00000111):0.00000132,15_0_5:0.00000419):0.00000155):0.00000162,15_0_11:0.00002070):0.00000101):0.00000159):0.00000285,(15_0_0:0.00000147,((14_0_12:0.00000248,14_0_9:0.00000173):0.00000089,14_0_3:0.00000183):0.00000158):0.00000769):0.00000247,(((12_0_1:0.00000015,12_0_9:0.00000032):0.00000232,((12_0_4:0.00000111,12_0_12:0.00000218):0.00000031,12_0_8:0.00000182):0.00000112):0.00001381,((12_0_13:0.00000204,(12_0_2:0.00000200,12_0_10:0.00000324):0.00000028):0.00000437,(12_0_3:0.00000460,((12_0_0:0.00000008,12_0_6:0.00000006):0.00000347,((12_0_5:0.00000066,12_0_7:0.00000117):0.00000001,12_0_11:0.00000031):0.00000057):0.00000158):0.00000149):0.00000319):0.00001588):0.00000441):0.00000445):0.00054196):0.00075192);

data_09	T09	225	1	1	0.00648203	0.00276158	0.00474329	(0_0_0:0.00198171,((((((((13_0_12:0.00000037,13_0_3:0.00000117):0.00000049,(13_0_13:0.00000127,13_0_9:0.00000044):0.00000377):0.00000525,13_0_7:0.00000361):0.00000056,(13_0_0:0.00000253,13_0_5:0.00000056):0.00000660):0.00000429,(15_0_12:0.00000834,(15_0_8:0.00000107,((15_0_11:0.00000010,15_0_3:0.00000123):0.00000073,15_0_13:0.00000098):0.00000009):0.00000580):0.00000686):0.00000981,((((10_0_1:0.00001344,((16_0_7:0.00000343,((16_0_2:0.00000015,16_0_10:0.00000029):0.00000205,10_0_0:0.00000163):0.00000072):0.00000097,(((10_0_11:0.00000048,(16_0_4:0.00000193,(((10_0_9:0.00000196,10_0_6:0.00000072):0.00000004,16_0_13:0.00000065):0.00000030,((16_0_11:0.00000019,16_0_3:0.00000080):0.00000063,16_0_6:0.00000122):0.00000006):0.00000014):0.00000003):0.00000012,(10_0_4:0.00000188,(10_0_7:0.00000092,(10_0_13:0.00000016,10_0_10:0.00000023):0.00000091):0.00000010):0.00000021):0.00000032,(16_0_12:0.00000014,16_0_1:0.00000007):0.00000555):0.00000148):0.00000516):0.00000290,(10_0_12:0.00000035,10_0_5:0.00000035):0.00000709):0.00000516,(((12_0_11:0.00000084,12_0_0:0.00000101):0.00002243,(12_0_7:0.00000053,12_0_10:0.00000033):0.00000721):0.00000005,12_0_4:0.00000609):0.00000224):0.00000177,(13_0_2:0.00001276,((13_0_8:0.00000091,(13_0_11:0.00000039,13_0_6:0.00000062):0.00000087):0.00000291,13_0_10:0.00000718):0.00000760):0.00000290):0.00001972):0.00000975,(((((((13_0_4:0.00000248,13_0_1:0.00000519):0.00000791,(11_0_8:0.00001967,((11_0_4:0.00000194,(11_0_3:0.00000364,11_0_9:0.00000293):0.00000054):0.00001281,(11_0_10:0.00000013,11_0_11:0.00000037):0.00001144):0.00000115):0.00000465):0.00000281,((10_0_3:0.00000113,10_0_2:0.00000159):0.00000323,(10_0_8:0.00000119,(((16_0_5:0.00000002,16_0_9:0.00000011):0.00000264,16_0_8:0.00000055):0.00000038,16_0_0:0.00000143):0.00000010):0.00000251):0.00001510):0.00000135,((11_0_2:0.00000087,(11_0_6:0.00000075,(11_0_1:0.00000070,(11_0_5:0.00000022,11_0_0:0.00000010):0.00000060):0.00000017):0.00000003):0.00000444,((11_0_13:0.00000239,11_0_7:0.00000218):0.00000113,11_0_12:0.00000052):0.00000206):0.00001827):0.00000249,(((12_0_6:0.00000332,12_0_1:0.00000137):0.00000123,(12_0_5:0.00000171,12_0_12:0.00000267):0.00000084):0.00000866,((12_0_3:0.00000158,12_0_13:0.00000133):0.00000447,(12_0_9:0.00000438,(12_0_2:0.00000067,12_0_8:0.00000062):0.00000857):0.00000044):0.00000106):0.00002582):0.00000476,(15_0_6:0.00000191,15_0_1:0.00000132):0.00001744):0.00000922,(14_0_2:0.00000868,((((((15_0_0:0.00000023,15_0_10:0.00000002):0.00000504,((15_0_7:0.00000005,15_0_9:0.00000006):0.00000043,(15_0_4:0.00000055,15_0_2:0.00000026):0.00000101):0.00000325):0.00000061,14_0_6:0.00000188):0.00000008,((14_0_0:0.00000057,(14_0_13:0.00000083,14_0_3:0.00000012):0.00000232):0.00000014,(14_0_12:0.00000020,14_0_7:0.00000053):0.00000126):0.00000102):0.00000035,((14_0_4:0.00000062,14_0_5:0.00000037):0.00000171,(14_0_9:0.00000063,(14_0_8:0.00000034,14_0_11:0.00000082):0.00000489):0.00000175):0.00000082):0.00000334,((14_0_1:0.00000027,14_0_10:0.00000589):0.00000481,15_0_5:0.00000492):0.00000006):0.00000025):0.00004914):0.00000269):0.00220067,((((((9_0_6:0.00000234,(9_0_10:0.00000128,9_0_8:0.00000057):0.00000214):0.00006979,(((9_0_11:0.00000161,(9_0_3:0.00000156,9_0_4:0.00000044):0.00000070):0.00000419,9_0_12:0.00000569):0.00000974,((((9_0_7:0.00000207,9_0_0:0.00000468):0.00000036,(9_0_9:0.00000005,9_0_2:0.00000021):0.00000252):0.00000084,9_0_13:0.00000119):0.00000005,(9_0_1:0.00000171,9_0_5:0.00000045):0.00000385):0.00001080):0.00001439):0.00001968,((3_0_3:0.00003417,((3_0_4:0.00000192,((3_0_2:0.00000049,(3_0_5:0.00000001,3_0_12:0.00000003):0.00000041):0.00000087,3_0_1:0.00000161):0.00000120):0.00000401,((3_0_11:0.00000056,3_0_6:0.00000016):0.00000321,(3_0_10:0.00000076,3_0_0:0.00000050):0.00000442):0.00001015):0.00000310):0.00000324,(3_0_8:0.00000656,(3_0_7:0.00000259,(3_0_13:0.00000075,3_0_9:0.00000149):0.00000065):0.00000298):0.00001129):0.00003765):0.00000014,((7_0_13:0.00000018,7_0_1:0.00000025):0.00001892,(((7_0_11:0.00000102,(7_0_12:0.00000001,7_0_5:0.00000001):0.00000065):0.00000079,(7_0_2:0.00000087,(7_0_10:0.00000032,(7_0_7:0.00000026,7_0_4:0.00000003):0.00000008):0.00000108):0.00000102):0.00005450,((((7_0_0:0.00000062,7_0_6:0.00000068):0.00000010,7_0_9:0.00000106):0.00000037,7_0_8:0.00000240):0.00000825,7_0_3:0.00000361):0.00001853):0.00000162):0.00001009):0.00002578,(((((((4_0_8:0.00000029,4_0_13:0.00000033):0.00000111,4_0_9:0.00000160):0.00000011,4_0_1:0.00000269):0.00000013,(4_0_10:0.00000067,4_0_11:0.00000026):0.00000058):0.00000383,(4_0_6:0.00000010,4_0_3:0.00000030):0.00000310):0.00000602,(4_0_0:0.00001071,((4_0_4:0.00000098,4_0_5:0.00000048):0.00000455,(4_0_12:0.00000298,(4_0_7:0.00000000,4_0_2:0.00000000):0.00000213):0.00000311):0.00000009):0.00001438):0.00004460,(((((2_0_13:0.00001401,(2_0_12:0.00000695,((2_0_5:0.00000025,(2_0_9:0.00000016,2_0_10:0.00000103):0.00000068):0.00000004,2_0_8:0.00000195):0.00000240):0.00000133):0.00000720,(((2_0_11:0.00000029,2_0_4:0.00000024):0.00000511,((2_0_2:0.00000206,(2_0_3:0.00000001,2_0_1:0.00000001):0.00000028):0.00000019,2_0_7:0.00000085):0.00000051):0.00000111,(2_0_6:0.00000017,2_0_0:0.00000038):0.00000155):0.00000935):0.00000206,(8_0_3:0.00000391,8_0_5:0.00000274):0.00000524):0.00000153,((((8_0_11:0.00000078,8_0_2:0.00000016):0.00000009,8_0_13:0.00000051):0.00000181,((8_0_10:0.00000168,8_0_7:0.00000097):0.00000080,(8_0_12:0.00000163,8_0_4:0.00000040):0.00000121):0.00000050):0.00000232,(8_0_9:0.00000173,(8_0_8:0.00000245,(8_0_1:0.00000090,(8_0_6:0.00000078,8_0_0:0.00000130):0.00000006):0.00000008):0.00000381):0.00000371):0.00002126):0.00003379,((6_0_7:0.00001011,(1_0_1:0.00000897,((((6_0_2:0.00000019,6_0_11:0.00000003):0.00000579,((((6_0_4:0.00000100,6_0_9:0.00000024):0.00000165,((6_0_10:0.00000011,6_0_3:0.00000041):0.00000106,6_0_1:0.00000409):0.00000027):0.00000158,((6_0_6:0.00000238,6_0_5:0.00000150):0.00000137,((1_0_11:0.00000009,1_0_9:0.00000010):0.00000005,1_0_8:0.00000010):0.00000340):0.00000002):0.00000033,((1_0_5:0.00000013,1_0_13:0.00000017):0.00000060,1_0_6:0.00000419):0.00000489):0.00000074):0.00000018,(6_0_8:0.00000242,(6_0_13:0.00000122,(6_0_0:0.00000006,6_0_12:0.00000032):0.00000011):0.00000039):0.00000466):0.00000079,(1_0_3:0.00000422,1_0_12:0.00001026):0.00000146):0.00000110):0.00000751):0.00001195,((1_0_2:0.00000151,1_0_7:0.00000040):0.00000031,(1_0_4:0.00000032,(1_0_0:0.00000008,1_0_10:0.00000010):0.00000004):0.00000034):0.00003664):0.00001670):0.00000016):0.00004620):0.00001322,(5_0_6:0.00000570,((((5_0_4:0.00000023,5_0_3:0.00000080):0.00000556,((5_0_2:0.00000025,5_0_10:0.00000010):0.00000167,(5_0_0:0.00000059,5_0_9:0.00000298):0.00000022):0.00000117):0.00000001,(5_0_1:0.00000023,5_0_5:0.00000018):0.00000417):0.00003279,((5_0_8:0.00000086,(5_0_13:0.00000015,5_0_12:0.00000010):0.00000046):0.00000678,(5_0_11:0.00000336,5_0_7:0.00000420):0.00000082):0.00000455):0.00000605):0.00004942):0.00013737):0.00049721);

data_10	T10	225	1	1	0.0035304	0.00138671	0.00185507	(0_0_0:0.00046836,((((((((8_0_12:0.00000501,((8_0_5:0.00000436,8_0_13:0.00000378):0.00000009,(((8_0_6:0.00000030,(8_0_3:0.00000014,8_0_9:0.00000058):0.00000011):0.00000037,8_0_1:0.00000026):0.00000013,8_0_10:0.00000043):0.00000041):0.00000088):0.00000014,(8_0_0:0.00000034,(8_0_2:0.00000000,8_0_7:0.00000001):0.00000041):0.00000675):0.00001194,(8_0_8:0.00000442,(8_0_4:0.00000021,8_0_11:0.00000134):0.00001312):0.00000024):0.00001542,((((2_0_3:0.00000058,((2_0_10:0.00000024,2_0_0:0.00000146):0.00000100,2_0_12:0.00000135):0.00000022):0.00000237,2_0_7:0.00000394):0.00000372,2_0_1:0.00000537):0.00001462,((((2_0_2:0.00000026,2_0_8:0.00000012):0.00000134,((2_0_6:0.00000011,(2_0_9:0.00000020,2_0_13:0.00000010):0.00000001):0.00000013,2_0_5:0.00000008):0.00000033):0.00000108,2_0_11:0.00000317):0.00000936,2_0_4:0.00000435):0.00000597):0.00000731):0.00000576,(((6_0_2:0.00000338,6_0_3:0.00000075):0.00000338,6_0_1:0.00000270):0.00002506,((6_0_9:0.00000463,6_0_0:0.00000219):0.00000145,((6_0_7:0.00000084,6_0_6:0.00000056):0.00000360,1_0_3:0.00000224):0.00000041):0.00004195):0.00000199):0.00000996,((((((6_0_12:0.00000002,6_0_4:0.00000003):0.00000057,((6_0_5:0.00000049,(6_0_10:0.00000020,6_0_13:0.00000013):0.00000128):0.00000077,(6_0_8:0.00000027,6_0_11:0.00000002):0.00000033):0.00000142):0.00000202,(1_0_11:0.00000035,1_0_12:0.00000111):0.00000146):0.00000157,(((1_0_1:0.00000218,1_0_10:0.00000043):0.00000078,(1_0_0:0.00000290,1_0_6:0.00000109):0.00000079):0.00000365,(1_0_2:0.00000001,1_0_5:0.00000005):0.00000358):0.00000078):0.00000104,(1_0_8:0.00000405,(1_0_13:0.00000277,(1_0_7:0.00000109,(1_0_4:0.00000011,1_0_9:0.00000021):0.00000069):0.00000095):0.00000595):0.00000121):0.00002002,((((4_0_5:0.00000109,(4_0_11:0.00000094,4_0_12:0.00000015):0.00000074):0.00000228,(4_0_10:0.00000180,(4_0_7:0.00000006,4_0_6:0.00000035):0.00000126):0.00000162):0.00000083,4_0_2:0.00000636):0.00000804,(4_0_4:0.00000525,(((4_0_3:0.00000104,4_0_9:0.00000103):0.00000005,(4_0_13:0.00000008,4_0_8:0.00000047):0.00000098):0.00000026,(4_0_1:0.00000039,4_0_0:0.00000065):0.00000035):0.00001243):0.00000068):0.00001069):0.00001989):0.00005455,((((5_0_5:0.00000031,5_0_2:0.00000036):0.00001208,((5_0_1:0.00000080,5_0_8:0.00000238):0.00000120,(5_0_7:0.00000029,5_0_12:0.00000044):0.00000293):0.00003132):0.00000848,(5_0_9:0.00002022,(((5_0_6:0.00000119,(5_0_3:0.00000024,5_0_13:0.00000035):0.00000149):0.00000001,(5_0_0:0.00000052,(5_0_4:0.00000013,5_0_10:0.00000010):0.00000025):0.00000098):0.00000255,5_0_11:0.00000539):0.00000106):0.00000710):0.00002303,((((7_0_13:0.00000634,(((7_0_10:0.00000033,7_0_8:0.00000062):0.00000021,7_0_1:0.00000061):0.00000138,(7_0_0:0.00000008,7_0_6:0.00000021):0.00000398):0.00000722):0.00000037,7_0_12:0.00000546):0.00000004,((7_0_4:0.00000085,(7_0_2:0.00000002,7_0_5:0.00000005):0.00000125):0.00000075,((7_0_3:0.00000059,7_0_9:0.00000065):0.00000003,(7_0_11:0.00000001,7_0_7:0.00000001):0.00000099):0.00000221):0.00000660):0.00004778,((((9_0_10:0.00000009,9_0_9:0.00000022):0.00000279,9_0_3:0.00000075):0.00000171,9_0_6:0.00000175):0.00001185,((((3_0_13:0.00000120,3_0_3:0.00000094):0.00000516,(((((3_0_4:0.00000005,3_0_10:0.00000008):0.00000015,3_0_11:0.00000043):0.00000003,3_0_6:0.00000084):0.00000123,3_0_1:0.00000124):0.00000045,(3_0_12:0.00000239,3_0_0:0.00000158):0.00000018):0.00000196):0.00001053,((((3_0_8:0.00000017,3_0_5:0.00000006):0.00000073,3_0_9:0.00000192):0.00000066,3_0_7:0.00000085):0.00000010,3_0_2:0.00000264):0.00000185):0.00002924,((9_0_11:0.00000533,((9_0_7:0.00000011,9_0_12:0.00000016):0.00000017,9_0_1:0.00000038):0.00000314):0.00001856,((9_0_13:0.00000074,(9_0_2:0.00000007,9_0_8:0.00000005):0.00000021):0.00000127,(9_0_0:0.00000159,(9_0_5:0.00000029,9_0_4:0.00000122):0.00000207):0.00000728):0.00000343):0.00002365):0.00000141):0.00000095):0.00001709):0.00002445):0.00072856,(((((((12_0_3:0.00000035,(12_0_11:0.00000119,12_0_4:0.00000126):0.00000047):0.00000160,((12_0_12:0.00000155,(12_0_9:0.00000097,12_0_2:0.00000060):0.00000047):0.00000014,(12_0_13:0.00000002,12_0_7:0.00000019):0.00000066):0.00000030):0.00000094,12_0_8:0.00000355):0.00000000,12_0_6:0.00000080):0.00000555,(12_0_5:0.00000177,12_0_0:0.00000209):0.00000214):0.00001175,((15_0_9:0.00000660,(((15_0_1:0.00000070,15_0_2:0.00000151):0.00000032,15_0_7:0.00000247):0.00000451,(14_0_13:0.00000029,14_0_4:0.00000052):0.00000183):0.00000102):0.00000025,(15_0_6:0.00000045,15_0_5:0.00000043):0.00000396):0.00003437):0.00003906,(((((14_0_7:0.00000058,14_0_11:0.00000086):0.00000089,(((14_0_5:0.00000073,14_0_6:0.00000179):0.00000024,14_0_0:0.00000092):0.00000143,(14_0_8:0.00000210,14_0_9:0.00000316):0.00000064):0.00000009):0.00000497,(((14_0_10:0.00000154,14_0_3:0.00000059):0.00000243,(15_0_4:0.00000236,(15_0_3:0.00000192,15_0_11:0.00000045):0.00000126):0.00000014):0.00000488,(((14_0_2:0.00000023,14_0_12:0.00000136):0.00000136,14_0_1:0.00000165):0.00000010,(15_0_13:0.00000113,((15_0_8:0.00000002,15_0_12:0.00000010):0.00000283,(15_0_0:0.00000012,15_0_10:0.00000016):0.00000081):0.00000055):0.00000140):0.00000787):0.00000171):0.00000281,(((12_0_10:0.00000075,12_0_1:0.00000202):0.00002072,(((13_0_6:0.00000078,13_0_7:0.00000022):0.00001014,((13_0_9:0.00000144,13_0_5:0.00000077):0.00000174,((13_0_3:0.00000143,13_0_4:0.00000083):0.00000018,(13_0_11:0.00000021,13_0_0:0.00000010):0.00000028):0.00000245):0.00000506):0.00000393,((11_0_7:0.00000028,((11_0_5:0.00000004,11_0_13:0.00000006):0.00000017,11_0_2:0.00000103):0.00000016):0.00000308,11_0_10:0.00000189):0.00002601):0.00000115):0.00000001,(16_0_7:0.00000005,16_0_12:0.00000002):0.00004334):0.00000107):0.00002104,(((13_0_8:0.00000424,(((13_0_10:0.00000027,13_0_1:0.00000060):0.00000377,13_0_13:0.00000530):0.00000031,(13_0_2:0.00000129,13_0_12:0.00000298):0.00000041):0.00000277):0.00002474,(((11_0_11:0.00000188,(11_0_4:0.00000007,11_0_1:0.00000009):0.00000224):0.00001305,(((11_0_0:0.00000068,11_0_12:0.00000059):0.00000098,11_0_3:0.00000516):0.00000525,(11_0_9:0.00000373,11_0_8:0.00000061):0.00000095):0.00001369):0.00000278,11_0_6:0.00000777):0.00000293):0.00000651,(((10_0_3:0.00000078,(10_0_5:0.00000065,(16_0_8:0.00000030,16_0_5:0.00000070):0.00000004):0.00000050):0.00001158,((10_0_13:0.00000321,(((16_0_9:0.00000055,16_0_6:0.00000069):0.00000004,10_0_2:0.00000074):0.00000136,(16_0_4:0.00000110,10_0_12:0.00000044):0.00000090):0.00000031):0.00000457,((10_0_9:0.00000046,10_0_4:0.00000032):0.00000140,((16_0_3:0.00000024,16_0_13:0.00000007):0.00000006,16_0_0:0.00000025):0.00000039):0.00000919):0.00000153):0.00001537,(((16_0_1:0.00000077,(10_0_8:0.00000090,(16_0_11:0.00000018,16_0_10:0.00000024):0.00000186):0.00000114):0.00000023,(10_0_1:0.00000190,16_0_2:0.00000056):0.00000402):0.00000394,((10_0_11:0.00000086,10_0_7:0.00000071):0.00000250,((10_0_0:0.00000025,10_0_6:0.00000015):0.00000324,10_0_10:0.00000057):0.00000112):0.00000202):0.00001667):0.00000080):0.00000943):0.00001893):0.00033142):0.00054362);
