[TYPE] NUCLEOTIDE 1 

[SETTINGS]
    [fastaextension] fasta  

[MODEL] csSim_unlinked_1
    [submodel] GTR 0.133983 0.005245 0.024842 0.020011 0.022126 
    [statefreq] 0.314386 0.027916 0.102253 0.555445 
[rates] 0 0.473896 0 

[MODEL] csSim_unlinked_2
    [submodel] GTR 0.101356 0.013635 0.023266 0.030150 0.060654 
    [statefreq] 0.119313 0.415094 0.305592 0.160002 
[rates] 0 30.736785 0 

[MODEL] csSim_unlinked_3
    [submodel] GTR 0.110647 0.017629 0.034535 0.019637 0.034257 
    [statefreq] 0.073502 0.286218 0.425487 0.214793 
[rates] 0 29.126697 0 

[MODEL] csSim_unlinked_4
    [submodel] GTR 0.106237 0.010603 0.030170 0.032623 0.030157 
    [statefreq] 0.345617 0.545169 0.064176 0.045038 
[rates] 0 21.440946 0 

[MODEL] csSim_unlinked_5
    [submodel] GTR 0.089621 0.023370 0.038980 0.012678 0.034787 
    [statefreq] 0.110426 0.147495 0.212049 0.530030 
[rates] 0 9.851958 0 

[MODEL] csSim_unlinked_6
    [submodel] GTR 0.095840 0.010244 0.016235 0.016049 0.048174 
    [statefreq] 0.164871 0.005415 0.558251 0.271464 
[rates] 0 35.736559 0 

[MODEL] csSim_unlinked_7
    [submodel] GTR 0.108126 0.016227 0.027467 0.028510 0.042171 
    [statefreq] 0.167694 0.084697 0.299992 0.447618 
[rates] 0 1.205519 0 

[MODEL] csSim_unlinked_8
    [submodel] GTR 0.120873 0.012229 0.010277 0.033503 0.037857 
    [statefreq] 0.030792 0.320902 0.496556 0.151750 
[rates] 0 13.597672 0 

[MODEL] csSim_unlinked_9
    [submodel] GTR 0.098148 0.010139 0.025202 0.020795 0.049497 
    [statefreq] 0.277597 0.132716 0.320869 0.268819 
[rates] 0 17.029097 0 

[MODEL] csSim_unlinked_10
    [submodel] GTR 0.120494 0.009053 0.010552 0.033471 0.050589 
    [statefreq] 0.275377 0.018854 0.571374 0.134395 
[rates] 0 15.681121 0 


[TREE] T01 ((((((1_0_1:0.00000728,((1_0_0:0.00000682,1_0_2:0.00001360):0.00001207,1_0_3:0.00003371):0.00001022):0.00046917,(3_0_1:0.00021771,(3_0_3:0.00001813,(3_0_2:0.00002933,3_0_0:0.00001702):0.00001663):0.00003422):0.00188978):0.00003882,(4_0_1:0.00023352,(4_0_3:0.00002211,(4_0_2:0.00000437,4_0_0:0.00000354):0.00000965):0.00039716):0.00222395):0.00009000,(((2_0_3:0.00001264,2_0_2:0.00001324):0.00003933,2_0_0:0.00004494):0.00003637,2_0_1:0.00008441):0.00130038):0.00808103,((((8_0_2:0.00003615,(8_0_3:0.00000844,(8_0_1:0.00001989,8_0_0:0.00001643):0.00000171):0.00053810):0.00004475,((10_0_1:0.00000682,10_0_0:0.00000809):0.00002197,(10_0_3:0.00004280,10_0_2:0.00003786):0.00000357):0.00015191):0.00042821,(((9_0_2:0.00006087,(9_0_3:0.00000630,(9_0_0:0.00000472,9_0_1:0.00001150):0.00000384):0.00002832):0.00019589,((5_0_3:0.00000855,5_0_2:0.00000737):0.00022384,(5_0_0:0.00000109,5_0_1:0.00000157):0.00016069):0.00001080):0.00019525,((6_0_1:0.00000004,6_0_3:0.00000001):0.00005933,(6_0_0:0.00000621,6_0_2:0.00001428):0.00026256):0.00061908):0.00019873):0.00040625,((7_0_2:0.00000145,7_0_3:0.00000803):0.00006602,(7_0_0:0.00003198,7_0_1:0.00000686):0.00010601):0.00196730):0.00230639):0.00524133,0_0_0:0.01289093);
[TREE] T02 (0_0_0:0.00954826,((((2_0_2:0.00000639,2_0_0:0.00000545):0.00009554,(2_0_3:0.00008350,2_0_1:0.00005039):0.00001453):0.00154464,((1_0_3:0.00001372,((1_0_1:0.00000151,1_0_0:0.00000247):0.00000020,1_0_2:0.00000182):0.00006035):0.00008390,((4_0_2:0.00013084,((4_0_1:0.00000020,4_0_3:0.00000007):0.00004306,4_0_0:0.00003230):0.00004031):0.00095296,(3_0_1:0.00039715,((3_0_0:0.00000500,3_0_3:0.00000189):0.00002210,3_0_2:0.00005300):0.00037001):0.00061412):0.00005127):0.00022022):0.00793814,((7_0_0:0.00008456,(7_0_3:0.00000325,(7_0_1:0.00001657,7_0_2:0.00001603):0.00000174):0.00001159):0.00093620,(((6_0_3:0.00025108,((6_0_1:0.00000675,6_0_0:0.00001200):0.00000514,6_0_2:0.00005509):0.00006662):0.00060653,(((9_0_1:0.00000421,(9_0_2:0.00000021,9_0_0:0.00000108):0.00001372):0.00003231,9_0_3:0.00007824):0.00005074,((5_0_2:0.00005542,5_0_3:0.00002251):0.00036902,(5_0_0:0.00000448,5_0_1:0.00000088):0.00024543):0.00000418):0.00011203):0.00028177,(((10_0_1:0.00001775,10_0_2:0.00000811):0.00002256,(10_0_0:0.00000951,10_0_3:0.00000434):0.00000619):0.00005047,((8_0_0:0.00000258,(8_0_3:0.00000069,8_0_2:0.00000071):0.00002978):0.00009807,8_0_1:0.00008647):0.00005028):0.00059318):0.00083314):0.00259962):0.02104866);
[TREE] T03 (0_0_0:0.00540841,(((2_0_0:0.00001547,((2_0_3:0.00000251,2_0_2:0.00000416):0.00000966,2_0_1:0.00001973):0.00000739):0.00022453,(((1_0_1:0.00000394,(1_0_0:0.00000077,(1_0_3:0.00000018,1_0_2:0.00000006):0.00000343):0.00000255):0.00016449,(((3_0_2:0.00000072,3_0_0:0.00000557):0.00000420,3_0_3:0.00000534):0.00000308,3_0_1:0.00001294):0.00005010):0.00000161,((4_0_1:0.00000049,4_0_3:0.00000009):0.00000228,(4_0_0:0.00000162,4_0_2:0.00000262):0.00000140):0.00023813):0.00005920):0.00345162,(((((10_0_3:0.00001247,10_0_1:0.00000973):0.00000196,(10_0_2:0.00000160,10_0_0:0.00000545):0.00002587):0.00001245,((8_0_3:0.00000119,(8_0_0:0.00000062,8_0_2:0.00000065):0.00000090):0.00000305,8_0_1:0.00000357):0.00006277):0.00008560,((6_0_2:0.00001342,((6_0_3:0.00000054,6_0_0:0.00000084):0.00000249,6_0_1:0.00000563):0.00001540):0.00004358,((5_0_1:0.00004480,((5_0_3:0.00000017,5_0_2:0.00000088):0.00000914,5_0_0:0.00000180):0.00000649):0.00000313,((9_0_3:0.00000290,9_0_2:0.00000400):0.00001378,(9_0_1:0.00000420,9_0_0:0.00000073):0.00000560):0.00002620):0.00004733):0.00002362):0.00007389,((7_0_1:0.00000184,(7_0_2:0.00000077,7_0_3:0.00000103):0.00000173):0.00000358,7_0_0:0.00002349):0.00035740):0.00001460):0.00107433);
[TREE] T04 (0_0_0:0.00908355,((((7_0_3:0.00000695,7_0_0:0.00000640):0.00028364,(7_0_1:0.00000610,7_0_2:0.00002557):0.00002095):0.00049373,(((((9_0_2:0.00000182,9_0_3:0.00000071):0.00000040,(9_0_1:0.00000415,9_0_0:0.00000100):0.00000112):0.00009827,(((5_0_0:0.00000125,5_0_3:0.00000105):0.00000282,5_0_2:0.00000172):0.00001775,5_0_1:0.00001535):0.00010677):0.00019813,((6_0_0:0.00003685,6_0_1:0.00004450):0.00001787,(6_0_3:0.00001834,6_0_2:0.00003169):0.00005578):0.00013088):0.00006283,((10_0_1:0.00003591,((10_0_3:0.00001136,10_0_2:0.00001599):0.00000004,10_0_0:0.00001495):0.00004406):0.00008207,(8_0_0:0.00000668,(8_0_2:0.00003364,(8_0_1:0.00000013,8_0_3:0.00000164):0.00001216):0.00000543):0.00012151):0.00008146):0.00022229):0.00374465,(((((3_0_1:0.00000170,(3_0_3:0.00000616,3_0_0:0.00000871):0.00000014):0.00000245,3_0_2:0.00001000):0.00065725,((1_0_3:0.00000984,1_0_0:0.00000960):0.00001116,(1_0_2:0.00000212,1_0_1:0.00000259):0.00004272):0.00012702):0.00002527,(4_0_2:0.00003009,(4_0_3:0.00000862,(4_0_1:0.00000056,4_0_0:0.00000266):0.00000769):0.00002036):0.00007653):0.00010885,(2_0_3:0.00000227,(2_0_0:0.00002433,(2_0_2:0.00000141,2_0_1:0.00000043):0.00001736):0.00001041):0.00068303):0.00281140):0.00453104);
[TREE] T05 (((((((((9_0_3:0.00000002,9_0_1:0.00000002):0.00000077,9_0_2:0.00000124):0.00008743,9_0_0:0.00003855):0.00044103,((5_0_1:0.00000278,5_0_3:0.00000056):0.00003189,(5_0_2:0.00000392,5_0_0:0.00000149):0.00001108):0.00023262):0.00003515,((6_0_2:0.00003770,6_0_0:0.00006280):0.00002075,(6_0_1:0.00000281,6_0_3:0.00002093):0.00009247):0.00075699):0.00017451,(((8_0_2:0.00005420,8_0_3:0.00004853):0.00000142,(8_0_0:0.00000040,8_0_1:0.00000297):0.00013396):0.00033265,(10_0_2:0.00017636,((10_0_1:0.00000054,10_0_0:0.00000932):0.00000885,10_0_3:0.00002378):0.00002228):0.00012042):0.00020854):0.00093417,(7_0_1:0.00000469,((7_0_2:0.00000045,7_0_3:0.00000069):0.00000744,7_0_0:0.00002547):0.00000991):0.00041974):0.00108398,(((2_0_1:0.00002621,(2_0_2:0.00001755,2_0_0:0.00004381):0.00002114):0.00001002,2_0_3:0.00000699):0.00084645,(((3_0_3:0.00003247,((3_0_2:0.00000324,3_0_1:0.00001224):0.00000141,3_0_0:0.00000258):0.00005444):0.00115926,(4_0_0:0.00003662,(4_0_3:0.00005763,(4_0_2:0.00002713,4_0_1:0.00001061):0.00000709):0.00000515):0.00006748):0.00015582,((1_0_1:0.00000435,1_0_2:0.00000567):0.00001470,(1_0_0:0.00000065,1_0_3:0.00000012):0.00004749):0.00044179):0.00002119):0.01025001):0.00932958,0_0_0:0.01376751);
[TREE] T06 (((((7_0_0:0.00000376,7_0_1:0.00000887):0.00010979,(7_0_3:0.00000611,7_0_2:0.00000373):0.00002617):0.00092268,(((((6_0_0:0.00000098,6_0_1:0.00000066):0.00001963,6_0_2:0.00000491):0.00009355,6_0_3:0.00000544):0.00075822,((5_0_1:0.00004636,((5_0_2:0.00001303,5_0_0:0.00000350):0.00000169,5_0_3:0.00001942):0.00000660):0.00067354,(9_0_2:0.00011955,(9_0_1:0.00000130,(9_0_3:0.00000163,9_0_0:0.00000623):0.00000054):0.00005390):0.00005431):0.00018223):0.00013749,(((10_0_2:0.00000941,(10_0_3:0.00000721,10_0_0:0.00000260):0.00000184):0.00003302,10_0_1:0.00003274):0.00074278,(((8_0_3:0.00000237,8_0_0:0.00000187):0.00000406,8_0_2:0.00001481):0.00006261,8_0_1:0.00018948):0.00033701):0.00032059):0.00036671):0.00138765,((((4_0_1:0.00000001,4_0_3:0.00000006):0.00002700,(4_0_0:0.00001538,4_0_2:0.00000625):0.00002962):0.00054852,((1_0_0:0.00003238,(1_0_3:0.00002548,(1_0_1:0.00002451,1_0_2:0.00003118):0.00000423):0.00001278):0.00106814,(3_0_3:0.00015324,(3_0_1:0.00000568,(3_0_2:0.00000302,3_0_0:0.00001964):0.00000153):0.00008721):0.00039266):0.00016271):0.00052685,(((2_0_3:0.00002074,2_0_1:0.00001923):0.00000348,2_0_2:0.00006525):0.00000685,2_0_0:0.00025013):0.00141702):0.00572259):0.01172666,0_0_0:0.01276343);
[TREE] T07 (0_0_0:0.03227148,(((((7_0_2:0.00000841,7_0_1:0.00000230):0.00002642,7_0_0:0.00000707):0.00005048,7_0_3:0.00006408):0.00171542,((((10_0_1:0.00004665,(10_0_3:0.00001220,10_0_2:0.00001102):0.00000704):0.00002809,10_0_0:0.00010855):0.00017648,((8_0_0:0.00000713,8_0_2:0.00006008):0.00015217,(8_0_3:0.00000941,8_0_1:0.00000905):0.00004069):0.00006534):0.00107241,(((5_0_1:0.00005854,((5_0_3:0.00000288,5_0_2:0.00000740):0.00001142,5_0_0:0.00000179):0.00000484):0.00035904,(9_0_1:0.00015590,(9_0_0:0.00004032,(9_0_2:0.00002228,9_0_3:0.00004143):0.00000991):0.00003160):0.00030868):0.00060680,(6_0_1:0.00008792,(6_0_3:0.00008390,(6_0_0:0.00000835,6_0_2:0.00000812):0.00001861):0.00011165):0.00022317):0.00003479):0.00027103):0.00520852,((2_0_3:0.00005403,(2_0_1:0.00004039,(2_0_0:0.00000151,2_0_2:0.00000151):0.00004630):0.00004199):0.00160913,(((4_0_3:0.00006868,4_0_2:0.00001351):0.00003632,(4_0_1:0.00000679,4_0_0:0.00001152):0.00006290):0.00032035,(((3_0_0:0.00000237,3_0_3:0.00000295):0.00002385,(3_0_2:0.00000098,3_0_1:0.00000140):0.00004300):0.00329491,((1_0_0:0.00007448,(1_0_3:0.00003516,1_0_2:0.00003672):0.00002981):0.00003202,1_0_1:0.00008854):0.00157931):0.00008711):0.00005910):0.00269409):0.00023199);
[TREE] T08 ((((7_0_1:0.00006487,(7_0_2:0.00001147,(7_0_0:0.00000125,7_0_3:0.00000110):0.00007486):0.00001060):0.00062732,((((10_0_2:0.00000604,10_0_1:0.00000504):0.00004953,(10_0_3:0.00004114,10_0_0:0.00002920):0.00000322):0.00040071,(8_0_2:0.00002827,((8_0_0:0.00002329,8_0_1:0.00001516):0.00007470,8_0_3:0.00005332):0.00001179):0.00050275):0.00173567,(((6_0_0:0.00000171,6_0_1:0.00003652):0.00001469,(6_0_3:0.00000978,6_0_2:0.00000324):0.00002582):0.00028614,((((9_0_1:0.00000497,9_0_3:0.00000774):0.00001172,9_0_2:0.00002957):0.00000364,9_0_0:0.00000724):0.00025033,(5_0_2:0.00004036,(5_0_3:0.00000750,(5_0_0:0.00000147,5_0_1:0.00000371):0.00000020):0.00006186):0.00129236):0.00016000):0.00003565):0.00036947):0.03573286,(((2_0_0:0.00008838,(2_0_3:0.00002839,2_0_1:0.00003767):0.00000370):0.00000508,2_0_2:0.00007718):0.00386040,(((1_0_0:0.00009409,(1_0_1:0.00000891,(1_0_2:0.00000096,1_0_3:0.00000154):0.00000830):0.00002936):0.00123351,(3_0_3:0.00006105,(3_0_2:0.00003526,(3_0_0:0.00001472,3_0_1:0.00001020):0.00001935):0.00004082):0.00072745):0.00001313,((4_0_3:0.00000517,4_0_0:0.00000354):0.00002324,(4_0_2:0.00000134,4_0_1:0.00000625):0.00002652):0.00045516):0.00003810):0.00462380):0.00747101,0_0_0:0.00774343);
[TREE] T09 ((((((((3_0_2:0.00003348,3_0_1:0.00001400):0.00000749,3_0_0:0.00007979):0.00000404,3_0_3:0.00002243):0.00023605,(((1_0_3:0.00000853,1_0_1:0.00000171):0.00004161,1_0_0:0.00000535):0.00015515,1_0_2:0.00005756):0.00162563):0.00012351,(4_0_2:0.00000231,(4_0_3:0.00005095,(4_0_1:0.00001299,4_0_0:0.00000851):0.00001290):0.00001993):0.00146606):0.00022889,(2_0_3:0.00012173,(2_0_1:0.00003809,(2_0_2:0.00001012,2_0_0:0.00004422):0.00000244):0.00000539):0.00205223):0.00155764,(((((6_0_1:0.00002354,(6_0_0:0.00000058,6_0_2:0.00000110):0.00001261):0.00001874,6_0_3:0.00005565):0.00066328,((5_0_0:0.00003323,(5_0_1:0.00002161,(5_0_3:0.00000985,5_0_2:0.00000769):0.00000587):0.00001667):0.00016188,(9_0_0:0.00005516,(9_0_2:0.00009636,(9_0_3:0.00007676,9_0_1:0.00000361):0.00001108):0.00004422):0.00026205):0.00018121):0.00032697,((10_0_2:0.00004839,(10_0_0:0.00002609,(10_0_3:0.00000292,10_0_1:0.00000780):0.00000388):0.00005078):0.00004810,((8_0_3:0.00000703,8_0_0:0.00002523):0.00005664,(8_0_1:0.00003058,8_0_2:0.00000949):0.00002716):0.00025872):0.00092944):0.00012837,((7_0_1:0.00000479,7_0_0:0.00001207):0.00001509,(7_0_2:0.00000488,7_0_3:0.00002094):0.00005320):0.00126260):0.00854593):0.00689913,0_0_0:0.04014239);
[TREE] T10 (0_0_0:0.02326279,((((((8_0_0:0.00001894,8_0_1:0.00004244):0.00007133,(8_0_2:0.00000142,8_0_3:0.00009657):0.00010625):0.00010467,(10_0_2:0.00075544,(10_0_0:0.00012197,(10_0_3:0.00006683,10_0_1:0.00000410):0.00003195):0.00004956):0.00001794):0.00092016,((((6_0_3:0.00000170,6_0_2:0.00000007):0.00000234,6_0_0:0.00000625):0.00001080,6_0_1:0.00002045):0.00009274,((9_0_0:0.00002493,((9_0_3:0.00000636,9_0_2:0.00002760):0.00000178,9_0_1:0.00001548):0.00011702):0.00002810,((5_0_2:0.00005619,(5_0_0:0.00001413,5_0_1:0.00000307):0.00005229):0.00001258,5_0_3:0.00001578):0.00221016):0.00012652):0.00020330):0.00088652,((7_0_3:0.00006165,(7_0_0:0.00001184,7_0_2:0.00001283):0.00003309):0.00030481,7_0_1:0.00001449):0.00115954):0.01244249,(((2_0_2:0.00000306,2_0_1:0.00000033):0.00091724,(2_0_3:0.00000223,2_0_0:0.00001913):0.00003071):0.00050996,(((4_0_1:0.00000120,4_0_0:0.00000251):0.00007833,(4_0_2:0.00013735,4_0_3:0.00009892):0.00013464):0.00344063,((1_0_0:0.00014834,((1_0_3:0.00001163,1_0_1:0.00001838):0.00006315,1_0_2:0.00006087):0.00015128):0.00069487,(((3_0_2:0.00000017,3_0_0:0.00000077):0.00000613,3_0_3:0.00000243):0.00002453,3_0_1:0.00005911):0.00238310):0.00006253):0.00071534):0.00922677):0.00300716);

[PARTITIONS] csSimUnlinked_01 [T01 csSim_unlinked_1 500]
[PARTITIONS] csSimUnlinked_02 [T02 csSim_unlinked_2 500]
[PARTITIONS] csSimUnlinked_03 [T03 csSim_unlinked_3 500]
[PARTITIONS] csSimUnlinked_04 [T04 csSim_unlinked_4 500]
[PARTITIONS] csSimUnlinked_05 [T05 csSim_unlinked_5 500]
[PARTITIONS] csSimUnlinked_06 [T06 csSim_unlinked_6 500]
[PARTITIONS] csSimUnlinked_07 [T07 csSim_unlinked_7 500]
[PARTITIONS] csSimUnlinked_08 [T08 csSim_unlinked_8 500]
[PARTITIONS] csSimUnlinked_09 [T09 csSim_unlinked_9 500]
[PARTITIONS] csSimUnlinked_10 [T10 csSim_unlinked_10 500]

[EVOLVE] csSimUnlinked_01 1 data_01
csSimUnlinked_02 1 data_02
csSimUnlinked_03 1 data_03
csSimUnlinked_04 1 data_04
csSimUnlinked_05 1 data_05
csSimUnlinked_06 1 data_06
csSimUnlinked_07 1 data_07
csSimUnlinked_08 1 data_08
csSimUnlinked_09 1 data_09
csSimUnlinked_10 1 data_10
