********************************************************************************
INDELible V1.03 by Will Fletcher : Simulation began at: Sat Dec  3 19:26:32 2016
********************************************************************************

  * Block 1 was completed in 0.34 seconds.

********************************************************************************


  * Block 2 was completed in 0.34 seconds.

********************************************************************************


  * Block 3 was completed in 0.34 seconds.

********************************************************************************


  * Block 4 was completed in 0.36 seconds.

********************************************************************************


  * Block 5 was completed in 0.34 seconds.

********************************************************************************


  * Block 6 was completed in 0.36 seconds.

********************************************************************************


  * Block 7 was completed in 0.34 seconds.

********************************************************************************


  * Block 8 was completed in 0.34 seconds.

********************************************************************************


  * Block 9 was completed in 0.37 seconds.

********************************************************************************


  * Block 10 was completed in 0.34 seconds.

********************************************************************************

  * Simulation completed. Whole batch took: 3.49 seconds.

INDELible V1.03 Simulations completed at: Sat Dec  3 19:26:36 2016

********************************************************************************


 Original Control File 

-----------------------


[TYPE] NUCLEOTIDE 1 

[SETTINGS]
    [fastaextension] fasta  

[MODEL] csSim_unlinked_1
    [submodel] GTR 0.068800 0.005576 0.022595 0.027984 0.075289 
    [statefreq] 0.001833 0.504965 0.427508 0.065694 
[rates] 0 2.225603 0 

[MODEL] csSim_unlinked_2
    [submodel] GTR 0.107561 0.012500 0.029727 0.029828 0.050969 
    [statefreq] 0.326847 0.092312 0.183690 0.397151 
[rates] 0 32.150580 0 

[MODEL] csSim_unlinked_3
    [submodel] GTR 0.101844 0.014260 0.010739 0.026500 0.045225 
    [statefreq] 0.044105 0.208196 0.472381 0.275318 
[rates] 0 6.443982 0 

[MODEL] csSim_unlinked_4
    [submodel] GTR 0.092716 0.009161 0.009082 0.020227 0.048407 
    [statefreq] 0.127115 0.071826 0.102551 0.698507 
[rates] 0 59.137985 0 

[MODEL] csSim_unlinked_5
    [submodel] GTR 0.088587 0.012761 0.015728 0.046446 0.058652 
    [statefreq] 0.364684 0.230436 0.109686 0.295194 
[rates] 0 21.881741 0 

[MODEL] csSim_unlinked_6
    [submodel] GTR 0.111061 0.005125 0.013732 0.032157 0.041489 
    [statefreq] 0.025301 0.146599 0.765978 0.062123 
[rates] 0 61.882328 0 

[MODEL] csSim_unlinked_7
    [submodel] GTR 0.059654 0.015206 0.007438 0.022272 0.042610 
    [statefreq] 0.278563 0.159999 0.388885 0.172553 
[rates] 0 5.996585 0 

[MODEL] csSim_unlinked_8
    [submodel] GTR 0.166685 0.008195 0.014061 0.032730 0.022875 
    [statefreq] 0.022349 0.418989 0.204954 0.353708 
[rates] 0 48.297011 0 

[MODEL] csSim_unlinked_9
    [submodel] GTR 0.102099 0.013415 0.019529 0.039231 0.062964 
    [statefreq] 0.087309 0.312540 0.121514 0.478637 
[rates] 0 67.367617 0 

[MODEL] csSim_unlinked_10
    [submodel] GTR 0.114741 0.015150 0.011870 0.045650 0.042021 
    [statefreq] 0.275595 0.025337 0.202658 0.496411 
[rates] 0 101.138686 0 


[TREE] T01 (0_0_0:0.00169629,(((((((12_0_1:0.00000128,(12_0_3:0.00000093,(12_0_5:0.00000018,(((12_0_4:0.00000002,12_0_7:0.00000005):0.00000002,(12_0_2:0.00000001,12_0_0:0.00000002):0.00000006):0.00000047,12_0_6:0.00000050):0.00000007):0.00000020):0.00000022):0.00012110,(((17_0_6:0.00000002,17_0_0:0.00000001):0.00000008,17_0_5:0.00000006):0.00000031,((17_0_1:0.00000018,(17_0_3:0.00000022,17_0_7:0.00000006):0.00000003):0.00000004,(17_0_2:0.00000002,17_0_4:0.00000001):0.00000011):0.00000002):0.00024624):0.00003727,(((3_0_3:0.00000021,(3_0_4:0.00000015,3_0_6:0.00000024):0.00000012):0.00000055,(3_0_0:0.00000032,((3_0_7:0.00000002,3_0_1:0.00000001):0.00000006,(3_0_5:0.00000002,3_0_2:0.00000004):0.00000001):0.00000006):0.00000027):0.00014111,(((10_0_4:0.00000007,(10_0_3:0.00000005,10_0_7:0.00000003):0.00000006):0.00000007,10_0_0:0.00000039):0.00000047,(10_0_5:0.00000037,(10_0_6:0.00000008,(10_0_1:0.00000003,10_0_2:0.00000003):0.00000008):0.00000013):0.00000096):0.00008326):0.00001477):0.00019197,((9_0_4:0.00000023,(9_0_5:0.00000041,(9_0_6:0.00000010,9_0_3:0.00000005):0.00000005):0.00000020):0.00000044,(((9_0_1:0.00000001,9_0_0:0.00000001):0.00000005,9_0_2:0.00000002):0.00000021,9_0_7:0.00000027):0.00000054):0.00028668):0.00006663,((((5_0_4:0.00000040,(5_0_6:0.00000008,5_0_0:0.00000038):0.00000013):0.00000003,((5_0_3:0.00000006,5_0_1:0.00000008):0.00000011,5_0_2:0.00000010):0.00000013):0.00000041,(5_0_5:0.00000002,5_0_7:0.00000002):0.00000038):0.00024289,((((13_0_2:0.00000003,13_0_7:0.00000006):0.00000014,((13_0_5:0.00000001,(13_0_1:0.00000001,13_0_0:0.00000001):0.00000002):0.00000003,13_0_3:0.00000010):0.00000007):0.00000003,(13_0_4:0.00000003,13_0_6:0.00000004):0.00000023):0.00014787,(((11_0_6:0.00000008,(11_0_1:0.00000006,11_0_7:0.00000007):0.00000045):0.00000080,(((11_0_4:0.00000001,11_0_0:0.00000001):0.00000000,11_0_2:0.00000003):0.00000006,11_0_3:0.00000017):0.00000102):0.00000009,11_0_5:0.00000180):0.00013032):0.00017776):0.00008481):0.00082365,(((((16_0_7:0.00000004,16_0_2:0.00000002):0.00000150,(((16_0_1:0.00000008,((16_0_6:0.00000000,16_0_0:0.00000000):0.00000002,16_0_5:0.00000001):0.00000014):0.00000016,16_0_3:0.00000043):0.00000070,16_0_4:0.00000050):0.00000032):0.00007118,((((15_0_0:0.00000006,(15_0_2:0.00000000,15_0_6:0.00000001):0.00000006):0.00000042,15_0_7:0.00000029):0.00000030,(15_0_3:0.00000027,(15_0_4:0.00000001,15_0_1:0.00000001):0.00000017):0.00000050):0.00000023,15_0_5:0.00000086):0.00002360):0.00022569,((((4_0_7:0.00000007,4_0_1:0.00000004):0.00000038,(4_0_4:0.00000017,(4_0_6:0.00000024,(4_0_5:0.00000000,4_0_0:0.00000000):0.00000016):0.00000008):0.00000054):0.00000067,(4_0_3:0.00000024,4_0_2:0.00000015):0.00000053):0.00009426,(((6_0_7:0.00000009,6_0_2:0.00000012):0.00000008,(6_0_5:0.00000007,6_0_1:0.00000007):0.00000004):0.00000135,((6_0_4:0.00000028,(6_0_0:0.00000009,6_0_6:0.00000009):0.00000002):0.00000020,6_0_3:0.00000021):0.00000091):0.00009086):0.00004658):0.00038953,(((8_0_6:0.00000078,((8_0_7:0.00000008,8_0_5:0.00000004):0.00000001,8_0_1:0.00000006):0.00000040):0.00000139,(8_0_4:0.00000012,(8_0_0:0.00000000,(8_0_3:0.00000000,8_0_2:0.00000000):0.00000000):0.00000036):0.00000200):0.00028976,((((7_0_7:0.00000014,((7_0_6:0.00000007,7_0_3:0.00000007):0.00000019,(7_0_1:0.00000003,(7_0_4:0.00000004,7_0_2:0.00000003):0.00000000):0.00000020):0.00000001):0.00000013,(7_0_5:0.00000002,7_0_0:0.00000003):0.00000101):0.00015614,(((14_0_5:0.00000001,(14_0_1:0.00000001,14_0_4:0.00000001):0.00000000):0.00000021,(14_0_6:0.00000032,14_0_7:0.00000027):0.00000004):0.00000004,((14_0_0:0.00000002,14_0_2:0.00000001):0.00000012,14_0_3:0.00000017):0.00000037):0.00032076):0.00036450,((((2_0_5:0.00000001,2_0_1:0.00000001):0.00000002,2_0_6:0.00000004):0.00000021,((2_0_4:0.00000001,2_0_3:0.00000001):0.00000001,2_0_7:0.00000003):0.00000017):0.00000028,(2_0_0:0.00000013,2_0_2:0.00000020):0.00000022):0.00038751):0.00022186):0.00015965):0.00050955):0.00014623,((1_0_6:0.00000169,(((1_0_7:0.00000006,1_0_5:0.00000006):0.00000002,(1_0_3:0.00000002,1_0_2:0.00000003):0.00000001):0.00000081,1_0_4:0.00000048):0.00000029):0.00000022,(1_0_0:0.00000021,1_0_1:0.00000007):0.00000176):0.00097848):0.00040690);
[TREE] T02 (0_0_0:0.00220782,((((((8_0_2:0.00000007,((8_0_1:0.00000003,((8_0_6:0.00000001,8_0_0:0.00000002):0.00000000,8_0_3:0.00000002):0.00000001):0.00000004,8_0_5:0.00000006):0.00000026):0.00000098,(8_0_4:0.00000010,8_0_7:0.00000004):0.00000109):0.00051594,(((((14_0_4:0.00000070,(14_0_5:0.00000034,14_0_1:0.00000019):0.00000011):0.00000021,(14_0_6:0.00000029,(14_0_7:0.00000010,14_0_2:0.00000002):0.00000010):0.00000045):0.00000016,(14_0_3:0.00000004,14_0_0:0.00000006):0.00000069):0.00003854,(7_0_2:0.00000123,((7_0_3:0.00000003,7_0_7:0.00000002):0.00000083,(7_0_6:0.00000030,((7_0_0:0.00000004,7_0_4:0.00000010):0.00000001,(7_0_1:0.00000002,7_0_5:0.00000005):0.00000004):0.00000013):0.00000069):0.00000022):0.00016562):0.00014177,((2_0_5:0.00000000,2_0_4:0.00000000):0.00000166,(((2_0_3:0.00000004,(2_0_1:0.00000002,2_0_6:0.00000007):0.00000002):0.00000047,(2_0_7:0.00000000,2_0_0:0.00000000):0.00000053):0.00000001,2_0_2:0.00000050):0.00000095):0.00018830):0.00012074):0.00024720,(((16_0_1:0.00000022,((16_0_4:0.00000016,(16_0_6:0.00000021,16_0_2:0.00000044):0.00000003):0.00000006,((16_0_5:0.00000003,16_0_0:0.00000007):0.00000004,(16_0_7:0.00000000,16_0_3:0.00000000):0.00000008):0.00000056):0.00000014):0.00006846,((15_0_6:0.00000000,15_0_2:0.00000000):0.00000074,((15_0_1:0.00000024,15_0_3:0.00000053):0.00000021,(((15_0_0:0.00000000,15_0_7:0.00000000):0.00000027,15_0_4:0.00000017):0.00000024,15_0_5:0.00000025):0.00000008):0.00000010):0.00001783):0.00006901,(((4_0_3:0.00000015,4_0_6:0.00000029):0.00000121,(((4_0_0:0.00000002,4_0_4:0.00000002):0.00000002,((4_0_5:0.00000001,4_0_2:0.00000003):0.00000001,4_0_1:0.00000014):0.00000005):0.00000001,4_0_7:0.00000009):0.00000054):0.00013807,(6_0_2:0.00000046,(((6_0_4:0.00000000,6_0_1:0.00000000):0.00000017,(6_0_6:0.00000001,6_0_0:0.00000000):0.00000006):0.00000045,(6_0_7:0.00000006,(6_0_3:0.00000008,6_0_5:0.00000008):0.00000007):0.00000020):0.00000001):0.00011396):0.00013215):0.00076246):0.00067986,((((((12_0_2:0.00000011,12_0_7:0.00000008):0.00000090,(((12_0_4:0.00000008,12_0_6:0.00000003):0.00000002,(12_0_3:0.00000001,12_0_5:0.00000001):0.00000009):0.00000044,(12_0_0:0.00000007,12_0_1:0.00000004):0.00000050):0.00000058):0.00016611,((17_0_2:0.00000138,(17_0_3:0.00000016,((17_0_5:0.00000000,17_0_1:0.00000000):0.00000014,17_0_4:0.00000015):0.00000018):0.00000027):0.00000068,((17_0_7:0.00000003,17_0_6:0.00000002):0.00000004,17_0_0:0.00000003):0.00000294):0.00024886):0.00001794,((((10_0_4:0.00000006,10_0_7:0.00000021):0.00000004,10_0_2:0.00000012):0.00000046,(((10_0_1:0.00000000,10_0_3:0.00000000):0.00000007,10_0_0:0.00000006):0.00000035,(10_0_6:0.00000016,10_0_5:0.00000031):0.00000007):0.00000071):0.00015380,((3_0_7:0.00000002,3_0_2:0.00000004):0.00000199,(((3_0_3:0.00000000,3_0_4:0.00000000):0.00000063,(3_0_0:0.00000021,3_0_1:0.00000005):0.00000031):0.00000054,(3_0_5:0.00000010,3_0_6:0.00000023):0.00000058):0.00000093):0.00004206):0.00002669):0.00006779,(((((9_0_5:0.00000010,9_0_4:0.00000007):0.00000004,9_0_7:0.00000005):0.00000008,(9_0_2:0.00000020,9_0_6:0.00000015):0.00000003):0.00000002,9_0_1:0.00000038):0.00000002,(9_0_0:0.00000005,9_0_3:0.00000008):0.00000019):0.00019250):0.00012291,(((5_0_6:0.00000007,5_0_5:0.00000004):0.00000132,(5_0_4:0.00000065,(((5_0_3:0.00000005,5_0_7:0.00000013):0.00000005,5_0_0:0.00000037):0.00000018,(5_0_2:0.00000039,5_0_1:0.00000017):0.00000001):0.00000000):0.00000038):0.00020917,(((11_0_5:0.00000053,(((11_0_7:0.00000001,11_0_4:0.00000002):0.00000029,11_0_1:0.00000030):0.00000000,(11_0_2:0.00000010,11_0_6:0.00000015):0.00000007):0.00000034):0.00000004,(11_0_0:0.00000031,11_0_3:0.00000041):0.00000001):0.00009679,((13_0_1:0.00000002,13_0_4:0.00000001):0.00000061,(((13_0_7:0.00000006,13_0_3:0.00000005):0.00000016,(13_0_2:0.00000004,13_0_6:0.00000004):0.00000033):0.00000027,(13_0_5:0.00000000,13_0_0:0.00000000):0.00000017):0.00000012):0.00006688):0.00015523):0.00019031):0.00096699):0.00005569,((1_0_5:0.00000029,((1_0_4:0.00000000,1_0_3:0.00000001):0.00000014,(1_0_6:0.00000019,1_0_0:0.00000013):0.00000004):0.00000019):0.00000014,(1_0_7:0.00000049,(1_0_2:0.00000014,1_0_1:0.00000011):0.00000007):0.00000035):0.00048609):0.00083124);
[TREE] T03 ((((1_0_5:0.00000128,1_0_7:0.00000130):0.00000003,(((1_0_1:0.00000014,1_0_3:0.00000010):0.00000000,((1_0_0:0.00000006,1_0_4:0.00000008):0.00000001,1_0_6:0.00000004):0.00000001):0.00000031,1_0_2:0.00000099):0.00000030):0.00285452,((((((13_0_7:0.00000007,13_0_2:0.00000005):0.00000040,((13_0_6:0.00000004,13_0_3:0.00000002):0.00000004,(((13_0_4:0.00000002,13_0_1:0.00000001):0.00000004,13_0_5:0.00000005):0.00000002,13_0_0:0.00000007):0.00000002):0.00000044):0.00014019,((11_0_1:0.00000006,11_0_2:0.00000007):0.00000037,(11_0_3:0.00000011,((11_0_6:0.00000004,((11_0_0:0.00000000,11_0_7:0.00000000):0.00000004,11_0_4:0.00000007):0.00000007):0.00000001,11_0_5:0.00000028):0.00000015):0.00000006):0.00015380):0.00014268,(5_0_5:0.00000191,((5_0_7:0.00000001,5_0_4:0.00000003):0.00000019,(((5_0_2:0.00000003,5_0_3:0.00000002):0.00000002,5_0_0:0.00000006):0.00000003,(5_0_6:0.00000002,5_0_1:0.00000004):0.00000007):0.00000053):0.00000048):0.00013696):0.00003936,(((9_0_5:0.00000010,9_0_6:0.00000012):0.00000010,(((9_0_4:0.00000002,9_0_7:0.00000000):0.00000015,(9_0_3:0.00000027,9_0_1:0.00000016):0.00000000):0.00000027,(9_0_0:0.00000006,9_0_2:0.00000004):0.00000023):0.00000005):0.00024371,((((10_0_4:0.00000005,10_0_0:0.00000017):0.00000056,(((10_0_7:0.00000003,10_0_3:0.00000010):0.00000001,10_0_5:0.00000004):0.00000012,((10_0_6:0.00000002,10_0_1:0.00000002):0.00000008,10_0_2:0.00000010):0.00000019):0.00000023):0.00021850,(((3_0_5:0.00000018,3_0_1:0.00000016):0.00000021,(3_0_7:0.00000003,3_0_4:0.00000004):0.00000024):0.00000042,((3_0_3:0.00000003,3_0_2:0.00000002):0.00000096,(3_0_0:0.00000047,3_0_6:0.00000065):0.00000004):0.00000009):0.00004996):0.00003301,(((12_0_4:0.00000043,(12_0_2:0.00000005,12_0_0:0.00000006):0.00000081):0.00000025,(12_0_6:0.00000049,(((12_0_1:0.00000004,12_0_3:0.00000006):0.00000001,12_0_7:0.00000004):0.00000001,12_0_5:0.00000004):0.00000017):0.00000038):0.00014797,(((((17_0_5:0.00000001,17_0_4:0.00000004):0.00000008,17_0_3:0.00000007):0.00000018,(17_0_7:0.00000004,17_0_1:0.00000004):0.00000023):0.00000001,17_0_6:0.00000040):0.00000282,(17_0_2:0.00000022,17_0_0:0.00000018):0.00000152):0.00008532):0.00008396):0.00012791):0.00016880):0.00037380,(((((16_0_3:0.00000004,(16_0_0:0.00000011,16_0_6:0.00000028):0.00000005):0.00000170,(((16_0_1:0.00000050,16_0_5:0.00000013):0.00000007,16_0_2:0.00000012):0.00000000,(16_0_7:0.00000014,16_0_4:0.00000015):0.00000018):0.00000233):0.00005229,(15_0_4:0.00000046,(((15_0_1:0.00000005,15_0_3:0.00000002):0.00000001,((15_0_6:0.00000001,15_0_2:0.00000001):0.00000006,15_0_0:0.00000009):0.00000002):0.00000077,(15_0_5:0.00000000,15_0_7:0.00000000):0.00000118):0.00000010):0.00004032):0.00007966,(((((4_0_3:0.00000003,4_0_5:0.00000007):0.00000001,((4_0_6:0.00000002,4_0_4:0.00000006):0.00000007,4_0_1:0.00000003):0.00000002):0.00000053,4_0_7:0.00000060):0.00000035,(4_0_0:0.00000014,4_0_2:0.00000010):0.00000126):0.00005672,((((6_0_2:0.00000006,6_0_5:0.00000005):0.00000005,(6_0_0:0.00000000,6_0_6:0.00000000):0.00000022):0.00000002,(6_0_1:0.00000018,(6_0_7:0.00000009,6_0_4:0.00000009):0.00000001):0.00000013):0.00000001,6_0_3:0.00000037):0.00011853):0.00004293):0.00027834,(((((2_0_2:0.00000004,2_0_1:0.00000005):0.00000005,2_0_3:0.00000015):0.00000297,((2_0_0:0.00000023,2_0_6:0.00000025):0.00000018,((2_0_7:0.00000003,2_0_4:0.00000005):0.00000058,2_0_5:0.00000052):0.00000008):0.00000209):0.00024147,((((7_0_3:0.00000006,(7_0_6:0.00000003,7_0_4:0.00000006):0.00000000):0.00000014,(7_0_2:0.00000009,7_0_0:0.00000014):0.00000005):0.00000075,((7_0_7:0.00000004,7_0_5:0.00000001):0.00000006,7_0_1:0.00000011):0.00000086):0.00018368,((14_0_0:0.00000067,(14_0_3:0.00000033,((((14_0_6:0.00000002,14_0_5:0.00000006):0.00000011,14_0_1:0.00000016):0.00000009,14_0_2:0.00000028):0.00000003,14_0_4:0.00000053):0.00000000):0.00000010):0.00000003,14_0_7:0.00000070):0.00007021):0.00025934):0.00013919,(((8_0_7:0.00000006,(8_0_4:0.00000005,8_0_3:0.00000003):0.00000011):0.00000029,8_0_0:0.00000082):0.00000173,(8_0_5:0.00000033,(8_0_1:0.00000017,(8_0_6:0.00000001,8_0_2:0.00000001):0.00000022):0.00000001):0.00000090):0.00048367):0.00020012):0.00055487):0.00003989):0.00163198,0_0_0:0.00350618);
[TREE] T04 (0_0_0:0.00270203,(((1_0_7:0.00000000,1_0_1:0.00000000):0.00000075,((1_0_6:0.00000007,(1_0_3:0.00000003,1_0_0:0.00000001):0.00000002):0.00000066,((1_0_4:0.00000001,1_0_2:0.00000001):0.00000003,1_0_5:0.00000009):0.00000066):0.00000012):0.00128201,((((((16_0_5:0.00000051,((16_0_0:0.00000000,16_0_1:0.00000000):0.00000030,(16_0_4:0.00000010,16_0_7:0.00000006):0.00000052):0.00000021):0.00000046,(16_0_6:0.00000025,(16_0_3:0.00000000,16_0_2:0.00000001):0.00000032):0.00000062):0.00003296,(((15_0_7:0.00000009,15_0_1:0.00000009):0.00000021,15_0_5:0.00000010):0.00000001,((15_0_4:0.00000015,(15_0_2:0.00000001,15_0_3:0.00000001):0.00000006):0.00000015,(15_0_0:0.00000013,15_0_6:0.00000034):0.00000000):0.00000018):0.00002703):0.00014945,((((4_0_7:0.00000009,(4_0_5:0.00000009,4_0_1:0.00000020):0.00000083):0.00000077,(4_0_4:0.00000062,4_0_3:0.00000102):0.00000168):0.00000015,(4_0_6:0.00000005,(4_0_2:0.00000000,4_0_0:0.00000001):0.00000003):0.00000174):0.00011136,((((6_0_2:0.00000003,6_0_5:0.00000002):0.00000001,6_0_7:0.00000001):0.00000003,6_0_4:0.00000003):0.00000025,((6_0_6:0.00000048,(6_0_3:0.00000009,6_0_1:0.00000007):0.00000006):0.00000001,6_0_0:0.00000051):0.00000001):0.00004400):0.00005852):0.00036946,(((((8_0_0:0.00000002,8_0_6:0.00000007):0.00000008,8_0_5:0.00000014):0.00000029,8_0_7:0.00000043):0.00000079,(8_0_2:0.00000021,(8_0_3:0.00000009,(8_0_4:0.00000005,8_0_1:0.00000004):0.00000003):0.00000015):0.00000027):0.00057670,(((((14_0_0:0.00000004,14_0_7:0.00000015):0.00000031,((14_0_6:0.00000018,14_0_3:0.00000011):0.00000012,14_0_2:0.00000031):0.00000018):0.00000201,(14_0_1:0.00000019,(14_0_4:0.00000002,14_0_5:0.00000003):0.00000002):0.00000114):0.00008862,((7_0_2:0.00000053,(7_0_5:0.00000038,((7_0_3:0.00000012,7_0_7:0.00000018):0.00000002,(7_0_6:0.00000012,7_0_1:0.00000004):0.00000005):0.00000050):0.00000043):0.00000030,(7_0_0:0.00000000,7_0_4:0.00000000):0.00000025):0.00011839):0.00006485,(((2_0_3:0.00000021,(2_0_4:0.00000032,(2_0_5:0.00000012,(2_0_7:0.00000001,2_0_1:0.00000001):0.00000015):0.00000021):0.00000004):0.00000002,2_0_6:0.00000018):0.00000055,(2_0_0:0.00000035,2_0_2:0.00000020):0.00000023):0.00023147):0.00016516):0.00030634):0.00031675,(((((10_0_1:0.00000218,((((10_0_5:0.00000002,10_0_7:0.00000002):0.00000005,(10_0_3:0.00000011,10_0_0:0.00000006):0.00000004):0.00000001,(10_0_4:0.00000003,10_0_2:0.00000005):0.00000011):0.00000008,10_0_6:0.00000010):0.00000292):0.00017736,(((3_0_6:0.00000015,3_0_2:0.00000043):0.00000084,((3_0_0:0.00000003,3_0_1:0.00000001):0.00000043,(3_0_3:0.00000006,3_0_4:0.00000013):0.00000024):0.00000042):0.00000128,(3_0_5:0.00000039,3_0_7:0.00000021):0.00000136):0.00024203):0.00000831,((17_0_0:0.00000060,((17_0_5:0.00000014,(((17_0_4:0.00000000,17_0_1:0.00000001):0.00000000,17_0_7:0.00000004):0.00000003,(17_0_2:0.00000004,17_0_3:0.00000006):0.00000007):0.00000003):0.00000005,17_0_6:0.00000021):0.00000020):0.00006126,((12_0_3:0.00000031,12_0_0:0.00000020):0.00000148,((12_0_2:0.00000001,(12_0_1:0.00000002,12_0_6:0.00000001):0.00000000):0.00000014,(12_0_5:0.00000012,(12_0_7:0.00000003,12_0_4:0.00000003):0.00000003):0.00000011):0.00000391):0.00009047):0.00003303):0.00021241,((9_0_2:0.00000037,9_0_5:0.00000011):0.00000062,((9_0_0:0.00000020,(9_0_6:0.00000009,9_0_3:0.00000009):0.00000011):0.00000031,(9_0_4:0.00000004,(9_0_7:0.00000006,9_0_1:0.00000006):0.00000004):0.00000033):0.00000008):0.00040541):0.00006528,(((((13_0_5:0.00000014,((13_0_7:0.00000001,13_0_3:0.00000002):0.00000010,13_0_1:0.00000003):0.00000001):0.00000001,(13_0_4:0.00000002,13_0_0:0.00000005):0.00000005):0.00000038,(13_0_2:0.00000033,13_0_6:0.00000014):0.00000037):0.00008713,(11_0_2:0.00000022,((11_0_3:0.00000017,(11_0_6:0.00000007,11_0_1:0.00000012):0.00000016):0.00000046,(11_0_7:0.00000019,(11_0_5:0.00000025,(11_0_0:0.00000002,11_0_4:0.00000001):0.00000037):0.00000007):0.00000033):0.00000022):0.00007017):0.00023981,((((5_0_1:0.00000002,5_0_0:0.00000002):0.00000028,5_0_6:0.00000029):0.00000064,(5_0_4:0.00000141,(5_0_7:0.00000000,5_0_2:0.00000000):0.00000032):0.00000008):0.00000019,(5_0_5:0.00000001,5_0_3:0.00000003):0.00000059):0.00034937):0.00006493):0.00041378):0.00009681):0.00076883);
[TREE] T05 (0_0_0:0.00188398,(((1_0_4:0.00000028,1_0_1:0.00000019):0.00000014,((1_0_3:0.00000004,(1_0_0:0.00000005,1_0_7:0.00000007):0.00000002):0.00000020,(1_0_6:0.00000016,(1_0_2:0.00000004,1_0_5:0.00000009):0.00000008):0.00000010):0.00000030):0.00058307,((((((9_0_5:0.00000003,9_0_1:0.00000004):0.00000036,9_0_2:0.00000079):0.00000231,(9_0_4:0.00000029,((9_0_3:0.00000022,9_0_0:0.00000023):0.00000006,(9_0_7:0.00000001,9_0_6:0.00000001):0.00000014):0.00000032):0.00000126):0.00051938,(((((10_0_5:0.00000002,10_0_4:0.00000008):0.00000007,10_0_1:0.00000008):0.00000025,((((10_0_7:0.00000006,10_0_3:0.00000019):0.00000001,10_0_2:0.00000019):0.00000004,10_0_6:0.00000016):0.00000028,10_0_0:0.00000086):0.00000002):0.00004008,(((3_0_3:0.00000033,(3_0_6:0.00000002,3_0_2:0.00000003):0.00000023):0.00000007,(3_0_1:0.00000010,(3_0_0:0.00000009,3_0_4:0.00000005):0.00000006):0.00000027):0.00000009,(3_0_5:0.00000014,3_0_7:0.00000015):0.00000022):0.00019436):0.00000211,((17_0_7:0.00000032,(17_0_0:0.00000049,(17_0_3:0.00000034,(((17_0_5:0.00000004,17_0_2:0.00000002):0.00000003,17_0_4:0.00000010):0.00000007,(17_0_1:0.00000004,17_0_6:0.00000005):0.00000010):0.00000017):0.00000012):0.00000050):0.00007246,(((12_0_5:0.00000001,(12_0_7:0.00000002,12_0_1:0.00000001):0.00000002):0.00000025,(12_0_0:0.00000012,(12_0_2:0.00000003,(12_0_3:0.00000019,12_0_4:0.00000005):0.00000003):0.00000000):0.00000002):0.00000035,12_0_6:0.00000010):0.00005074):0.00013810):0.00006038):0.00024354,((((5_0_2:0.00000012,(5_0_6:0.00000006,5_0_7:0.00000013):0.00000013):0.00000006,(5_0_0:0.00000017,(5_0_5:0.00000005,(5_0_1:0.00000001,5_0_3:0.00000002):0.00000002):0.00000014):0.00000023):0.00000027,5_0_4:0.00000044):0.00097050,((11_0_3:0.00000029,((11_0_1:0.00000018,((11_0_2:0.00000003,11_0_7:0.00000003):0.00000012,11_0_4:0.00000015):0.00000013):0.00000004,(11_0_0:0.00000009,(11_0_6:0.00000000,11_0_5:0.00000000):0.00000004):0.00000030):0.00000020):0.00007991,((13_0_1:0.00000002,(13_0_4:0.00000001,13_0_2:0.00000000):0.00000002):0.00000045,((13_0_0:0.00000016,(13_0_6:0.00000004,13_0_3:0.00000001):0.00000006):0.00000004,(13_0_7:0.00000000,13_0_5:0.00000000):0.00000009):0.00000064):0.00008297):0.00016800):0.00005750):0.00077461,(((((2_0_5:0.00000062,2_0_1:0.00000026):0.00000006,((2_0_6:0.00000001,2_0_7:0.00000003):0.00000021,(2_0_3:0.00000017,((2_0_0:0.00000004,2_0_2:0.00000002):0.00000002,2_0_4:0.00000004):0.00000000):0.00000012):0.00000005):0.00034092,((((14_0_4:0.00000001,14_0_2:0.00000001):0.00000001,14_0_1:0.00000004):0.00000147,((14_0_3:0.00000000,14_0_7:0.00000000):0.00000026,((14_0_6:0.00000003,14_0_0:0.00000004):0.00000001,14_0_5:0.00000009):0.00000083):0.00000024):0.00013423,(((7_0_1:0.00000019,7_0_0:0.00000008):0.00000019,(7_0_5:0.00000002,7_0_7:0.00000002):0.00000020):0.00000087,(7_0_2:0.00000120,((7_0_3:0.00000001,7_0_6:0.00000000):0.00000001,7_0_4:0.00000004):0.00000018):0.00000001):0.00008987):0.00018961):0.00014386,((((8_0_7:0.00000003,8_0_1:0.00000004):0.00000005,8_0_3:0.00000046):0.00000001,(8_0_5:0.00000000,8_0_4:0.00000000):0.00000007):0.00000076,(8_0_0:0.00000005,(8_0_6:0.00000000,8_0_2:0.00000001):0.00000001):0.00000016):0.00045607):0.00022808,((((6_0_7:0.00000036,(6_0_0:0.00000017,6_0_1:0.00000008):0.00000006):0.00000053,((6_0_5:0.00000002,(6_0_4:0.00000003,6_0_6:0.00000001):0.00000003):0.00000014,(6_0_3:0.00000015,6_0_2:0.00000006):0.00000013):0.00000044):0.00004865,(((4_0_3:0.00000047,((4_0_2:0.00000003,4_0_1:0.00000006):0.00000000,4_0_7:0.00000003):0.00000012):0.00000008,(4_0_6:0.00000026,4_0_0:0.00000004):0.00000010):0.00000050,(4_0_5:0.00000011,4_0_4:0.00000005):0.00000113):0.00013933):0.00007678,((15_0_0:0.00000102,((15_0_5:0.00000046,(15_0_6:0.00000012,(15_0_3:0.00000011,15_0_7:0.00000002):0.00000014):0.00000032):0.00000005,(15_0_1:0.00000001,(15_0_4:0.00000001,15_0_2:0.00000002):0.00000000):0.00000048):0.00000016):0.00002795,((16_0_3:0.00000009,16_0_6:0.00000017):0.00000017,((16_0_0:0.00000034,16_0_4:0.00000016):0.00000009,((16_0_7:0.00000008,16_0_5:0.00000006):0.00000002,(16_0_1:0.00000003,16_0_2:0.00000006):0.00000002):0.00000028):0.00000005):0.00002471):0.00016578):0.00018531):0.00030735):0.00009065):0.00119241);
[TREE] T06 (((((((16_0_5:0.00000099,(((16_0_6:0.00000001,16_0_2:0.00000002):0.00000015,16_0_7:0.00000012):0.00000024,(16_0_0:0.00000026,((16_0_4:0.00000002,16_0_3:0.00000002):0.00000002,16_0_1:0.00000006):0.00000006):0.00000021):0.00000015):0.00001441,(15_0_1:0.00000334,((15_0_2:0.00000013,(15_0_7:0.00000001,15_0_4:0.00000001):0.00000055):0.00000002,((15_0_6:0.00000001,15_0_0:0.00000003):0.00000011,(15_0_3:0.00000002,15_0_5:0.00000006):0.00000018):0.00000005):0.00000065):0.00008395):0.00017793,(((6_0_7:0.00000003,(6_0_2:0.00000010,((6_0_5:0.00000001,6_0_0:0.00000000):0.00000020,(6_0_4:0.00000000,6_0_3:0.00000000):0.00000027):0.00000004):0.00000007):0.00000034,(6_0_1:0.00000092,6_0_6:0.00000054):0.00000009):0.00003636,((4_0_2:0.00000006,(((4_0_7:0.00000001,4_0_1:0.00000002):0.00000009,4_0_5:0.00000010):0.00000004,(4_0_3:0.00000003,4_0_4:0.00000002):0.00000011):0.00000006):0.00000031,(4_0_6:0.00000029,4_0_0:0.00000043):0.00000028):0.00007389):0.00003799):0.00059970,(((8_0_2:0.00000043,(8_0_6:0.00000029,(((8_0_1:0.00000000,8_0_0:0.00000000):0.00000001,(8_0_4:0.00000000,8_0_3:0.00000000):0.00000001):0.00000020,8_0_7:0.00000028):0.00000005):0.00000026):0.00000045,8_0_5:0.00000255):0.00073461,((2_0_5:0.00000053,(((2_0_1:0.00000012,2_0_2:0.00000012):0.00000015,2_0_6:0.00000010):0.00000063,((2_0_0:0.00000002,(2_0_7:0.00000001,2_0_4:0.00000000):0.00000003):0.00000016,2_0_3:0.00000032):0.00000005):0.00000399):0.00026298,(((14_0_3:0.00000022,14_0_0:0.00000022):0.00000347,((14_0_6:0.00000064,(14_0_4:0.00000038,(14_0_7:0.00000002,14_0_2:0.00000001):0.00000033):0.00000026):0.00000001,(14_0_5:0.00000006,14_0_1:0.00000019):0.00000042):0.00000209):0.00021799,(((((7_0_2:0.00000007,7_0_7:0.00000003):0.00000006,(7_0_6:0.00000000,7_0_1:0.00000000):0.00000006):0.00000018,(7_0_4:0.00000008,7_0_3:0.00000006):0.00000024):0.00000030,7_0_5:0.00000056):0.00000059,7_0_0:0.00000163):0.00008117):0.00036425):0.00033993):0.00025620):0.00107170,((((((3_0_3:0.00000004,3_0_0:0.00000003):0.00000032,(3_0_2:0.00000033,((3_0_1:0.00000007,3_0_6:0.00000001):0.00000018,(3_0_4:0.00000020,(3_0_5:0.00000001,3_0_7:0.00000002):0.00000040):0.00000003):0.00000010):0.00000004):0.00007041,((10_0_5:0.00000014,10_0_2:0.00000021):0.00000105,((10_0_7:0.00000042,((10_0_6:0.00000000,10_0_1:0.00000000):0.00000004,10_0_0:0.00000006):0.00000005):0.00000024,(10_0_4:0.00000075,10_0_3:0.00000065):0.00000041):0.00000031):0.00014690):0.00001821,(((12_0_5:0.00000053,(12_0_6:0.00000010,12_0_7:0.00000014):0.00000035):0.00000040,((12_0_2:0.00000037,(12_0_1:0.00000001,12_0_0:0.00000001):0.00000046):0.00000026,(12_0_3:0.00000010,12_0_4:0.00000003):0.00000090):0.00000180):0.00014787,(17_0_3:0.00000103,(((17_0_4:0.00000000,17_0_1:0.00000001):0.00000003,17_0_5:0.00000005):0.00000002,(17_0_2:0.00000015,(17_0_6:0.00000011,(17_0_0:0.00000000,17_0_7:0.00000001):0.00000004):0.00000005):0.00000030):0.00000080):0.00015401):0.00002134):0.00006430,((((9_0_7:0.00000001,9_0_6:0.00000001):0.00000031,(9_0_3:0.00000000,9_0_0:0.00000000):0.00000016):0.00000004,(9_0_1:0.00000001,9_0_4:0.00000001):0.00000029):0.00000075,(9_0_2:0.00000007,9_0_5:0.00000010):0.00000180):0.00034839):0.00012353,(((5_0_6:0.00000004,(5_0_7:0.00000000,5_0_3:0.00000000):0.00000002):0.00000468,(((5_0_4:0.00000019,5_0_1:0.00000006):0.00000007,(5_0_5:0.00000007,5_0_2:0.00000006):0.00000003):0.00000137,5_0_0:0.00000144):0.00000026):0.00070923,(((((11_0_1:0.00000001,11_0_0:0.00000000):0.00000001,11_0_3:0.00000001):0.00000022,(11_0_7:0.00000001,11_0_6:0.00000005):0.00000010):0.00000020,(11_0_5:0.00000132,(11_0_2:0.00000002,11_0_4:0.00000002):0.00000073):0.00000024):0.00014809,(((13_0_2:0.00000012,13_0_5:0.00000005):0.00000001,13_0_1:0.00000010):0.00000103,((13_0_4:0.00000062,((13_0_0:0.00000006,13_0_7:0.00000005):0.00000009,13_0_3:0.00000021):0.00000022):0.00000033,13_0_6:0.00000032):0.00000018):0.00012328):0.00027636):0.00012550):0.00142969):0.00003580,((((1_0_0:0.00000001,1_0_2:0.00000002):0.00000017,((1_0_5:0.00000000,1_0_1:0.00000000):0.00000004,1_0_4:0.00000003):0.00000014):0.00000007,(1_0_7:0.00000012,1_0_6:0.00000009):0.00000006):0.00000187,1_0_3:0.00000030):0.00067907):0.00128153,0_0_0:0.00071923);
[TREE] T07 ((((1_0_7:0.00000002,(1_0_6:0.00000001,1_0_2:0.00000000):0.00000001):0.00000165,((1_0_1:0.00000016,1_0_5:0.00000016):0.00000022,((1_0_0:0.00000002,1_0_4:0.00000003):0.00000064,1_0_3:0.00000056):0.00000012):0.00000349):0.00086015,(((((((8_0_3:0.00000001,8_0_1:0.00000004):0.00000009,(((8_0_6:0.00000001,8_0_7:0.00000001):0.00000011,8_0_5:0.00000004):0.00000018,8_0_0:0.00000016):0.00000002):0.00000023,8_0_4:0.00000038):0.00000015,8_0_2:0.00000039):0.00024295,((2_0_6:0.00000085,(((2_0_0:0.00000014,(2_0_7:0.00000003,2_0_2:0.00000006):0.00000007):0.00000004,2_0_1:0.00000012):0.00000006,((2_0_3:0.00000002,2_0_5:0.00000002):0.00000014,2_0_4:0.00000006):0.00000027):0.00000019):0.00066603,((((7_0_0:0.00000030,7_0_6:0.00000008):0.00000012,((7_0_2:0.00000001,7_0_3:0.00000001):0.00000018,7_0_5:0.00000014):0.00000002):0.00000130,((7_0_4:0.00000015,7_0_1:0.00000014):0.00000014,7_0_7:0.00000016):0.00000061):0.00016043,(((((14_0_5:0.00000008,14_0_4:0.00000005):0.00000008,14_0_2:0.00000007):0.00000014,14_0_7:0.00000027):0.00000017,(14_0_3:0.00000001,14_0_0:0.00000001):0.00000033):0.00000006,(14_0_6:0.00000008,14_0_1:0.00000041):0.00000040):0.00008552):0.00012836):0.00008312):0.00024771,((((((4_0_3:0.00000024,(4_0_5:0.00000003,4_0_2:0.00000001):0.00000033):0.00000009,(4_0_0:0.00000000,4_0_4:0.00000001):0.00000011):0.00000003,(4_0_7:0.00000009,4_0_6:0.00000015):0.00000006):0.00000098,4_0_1:0.00000336):0.00003165,(((6_0_4:0.00000023,6_0_6:0.00000026):0.00000016,6_0_2:0.00000079):0.00000024,((6_0_1:0.00000002,(6_0_5:0.00000002,6_0_7:0.00000003):0.00000008):0.00000001,(6_0_0:0.00000001,6_0_3:0.00000005):0.00000007):0.00000178):0.00004267):0.00023897,(((((15_0_2:0.00000007,((15_0_5:0.00000003,15_0_7:0.00000001):0.00000009,15_0_4:0.00000002):0.00000008):0.00000003,15_0_0:0.00000058):0.00000015,15_0_3:0.00000076):0.00000067,(15_0_1:0.00000054,15_0_6:0.00000008):0.00000094):0.00002360,(((((16_0_5:0.00000000,16_0_0:0.00000000):0.00000010,16_0_3:0.00000007):0.00000001,16_0_4:0.00000020):0.00000015,(16_0_7:0.00000002,16_0_2:0.00000001):0.00000015):0.00000101,(16_0_6:0.00000045,16_0_1:0.00000064):0.00000027):0.00007305):0.00013252):0.00073339):0.00066687,((((((5_0_3:0.00000017,5_0_7:0.00000012):0.00000004,5_0_4:0.00000019):0.00000024,5_0_0:0.00000052):0.00000005,((5_0_1:0.00000004,5_0_5:0.00000014):0.00000010,(5_0_6:0.00000003,5_0_2:0.00000001):0.00000014):0.00000031):0.00036199,((((((11_0_6:0.00000002,11_0_4:0.00000004):0.00000005,((11_0_5:0.00000001,11_0_2:0.00000001):0.00000004,11_0_1:0.00000009):0.00000024):0.00000013,11_0_3:0.00000028):0.00000059,11_0_0:0.00000106):0.00000004,11_0_7:0.00000059):0.00013875,(((13_0_5:0.00000009,(13_0_6:0.00000003,(13_0_3:0.00000007,13_0_7:0.00000005):0.00000000):0.00000108):0.00000011,(13_0_4:0.00000071,(13_0_2:0.00000008,13_0_0:0.00000007):0.00000017):0.00000023):0.00000018,13_0_1:0.00000171):0.00008836):0.00027192):0.00011079,(((((12_0_2:0.00000010,(12_0_0:0.00000014,12_0_3:0.00000027):0.00000027):0.00000009,((12_0_7:0.00000008,12_0_5:0.00000002):0.00000023,((12_0_1:0.00000001,12_0_6:0.00000002):0.00000004,12_0_4:0.00000004):0.00000013):0.00000010):0.00005630,((17_0_1:0.00000011,17_0_0:0.00000002):0.00000088,((17_0_7:0.00000006,(17_0_5:0.00000000,17_0_6:0.00000000):0.00000006):0.00000004,((17_0_2:0.00000005,17_0_3:0.00000004):0.00000001,17_0_4:0.00000004):0.00000009):0.00000063):0.00004421):0.00004873,((((10_0_0:0.00000011,10_0_3:0.00000005):0.00000077,(((10_0_1:0.00000003,10_0_4:0.00000001):0.00000001,10_0_5:0.00000004):0.00000004,10_0_7:0.00000005):0.00000087):0.00000034,(10_0_2:0.00000002,10_0_6:0.00000006):0.00000066):0.00016002,((3_0_5:0.00000002,(3_0_1:0.00000002,3_0_0:0.00000007):0.00000002):0.00000102,(3_0_6:0.00000088,((3_0_7:0.00000024,(3_0_4:0.00000008,3_0_3:0.00000014):0.00000007):0.00000007,3_0_2:0.00000052):0.00000021):0.00000008):0.00013836):0.00002290):0.00011086,(((9_0_2:0.00000010,9_0_5:0.00000020):0.00000073,9_0_0:0.00000144):0.00000059,((9_0_4:0.00000010,(9_0_3:0.00000012,9_0_6:0.00000011):0.00000011):0.00000001,(9_0_7:0.00000004,9_0_1:0.00000002):0.00000013):0.00000083):0.00048084):0.00002504):0.00087560):0.00013240):0.00201928,0_0_0:0.00191478);
[TREE] T08 (((((1_0_3:0.00000002,1_0_2:0.00000004):0.00000034,(1_0_5:0.00000003,1_0_6:0.00000005):0.00000018):0.00000108,((1_0_4:0.00000012,1_0_1:0.00000003):0.00000010,(1_0_0:0.00000019,1_0_7:0.00000031):0.00000018):0.00000055):0.00108640,(((((((14_0_5:0.00000204,(14_0_1:0.00000013,(14_0_4:0.00000004,(14_0_7:0.00000001,14_0_6:0.00000001):0.00000013):0.00000007):0.00000064):0.00000013,((14_0_0:0.00000002,14_0_2:0.00000003):0.00000009,14_0_3:0.00000015):0.00000079):0.00016822,(((7_0_5:0.00000008,(7_0_6:0.00000006,7_0_2:0.00000007):0.00000003):0.00000012,7_0_4:0.00000028):0.00000035,(7_0_3:0.00000084,(7_0_1:0.00000005,(7_0_0:0.00000001,7_0_7:0.00000003):0.00000003):0.00000018):0.00000043):0.00014180):0.00021232,(2_0_6:0.00000090,(((2_0_1:0.00000002,(2_0_5:0.00000000,2_0_2:0.00000000):0.00000005):0.00000026,(2_0_0:0.00000001,(2_0_4:0.00000000,2_0_7:0.00000000):0.00000000):0.00000024):0.00000003,2_0_3:0.00000007):0.00000072):0.00046932):0.00036393,(((8_0_1:0.00000005,8_0_4:0.00000006):0.00000011,8_0_3:0.00000042):0.00000020,((8_0_2:0.00000000,8_0_7:0.00000000):0.00000025,(8_0_0:0.00000039,(8_0_6:0.00000001,8_0_5:0.00000001):0.00000004):0.00000000):0.00000045):0.00071187):0.00032407,(((15_0_7:0.00000113,(15_0_5:0.00000018,((15_0_2:0.00000002,(15_0_1:0.00000001,15_0_6:0.00000001):0.00000000):0.00000034,(15_0_0:0.00000015,(15_0_3:0.00000003,15_0_4:0.00000003):0.00000005):0.00000007):0.00000026):0.00000054):0.00003982,((((16_0_0:0.00000002,16_0_1:0.00000004):0.00000018,16_0_4:0.00000030):0.00000052,(16_0_3:0.00000029,16_0_6:0.00000020):0.00000052):0.00000004,((16_0_5:0.00000001,16_0_7:0.00000002):0.00000003,16_0_2:0.00000004):0.00000124):0.00007523):0.00017890,((((6_0_2:0.00000013,6_0_1:0.00000004):0.00000002,(6_0_5:0.00000008,6_0_7:0.00000006):0.00000002):0.00000012,((6_0_0:0.00000010,(6_0_4:0.00000000,6_0_6:0.00000000):0.00000011):0.00000007,6_0_3:0.00000018):0.00000015):0.00008215,((4_0_3:0.00000009,4_0_1:0.00000016):0.00000047,((4_0_4:0.00000001,4_0_7:0.00000001):0.00000012,((4_0_6:0.00000005,4_0_2:0.00000004):0.00000001,(4_0_5:0.00000001,4_0_0:0.00000002):0.00000004):0.00000003):0.00000016):0.00011396):0.00009960):0.00096845):0.00027082,((((((((3_0_4:0.00000008,3_0_2:0.00000010):0.00000029,3_0_7:0.00000035):0.00000020,(3_0_3:0.00000025,3_0_5:0.00000025):0.00000002):0.00000108,((3_0_6:0.00000010,3_0_0:0.00000029):0.00000015,3_0_1:0.00000044):0.00000088):0.00039551,(((10_0_1:0.00000000,10_0_3:0.00000001):0.00000004,((10_0_7:0.00000002,10_0_6:0.00000001):0.00000006,10_0_2:0.00000002):0.00000010):0.00000050,(10_0_5:0.00000034,(10_0_0:0.00000011,10_0_4:0.00000005):0.00000006):0.00000132):0.00027219):0.00001071,((((12_0_7:0.00000015,(12_0_5:0.00000016,12_0_2:0.00000037):0.00000004):0.00000014,((12_0_1:0.00000003,12_0_6:0.00000006):0.00000007,12_0_3:0.00000002):0.00000029):0.00000001,(12_0_4:0.00000002,12_0_0:0.00000004):0.00000042):0.00015295,((17_0_3:0.00000029,(((17_0_6:0.00000002,17_0_0:0.00000001):0.00000013,17_0_5:0.00000006):0.00000013,(17_0_1:0.00000001,17_0_4:0.00000004):0.00000012):0.00000019):0.00000020,(17_0_2:0.00000002,17_0_7:0.00000002):0.00000066):0.00006825):0.00003925):0.00008048,(((9_0_3:0.00000011,((9_0_7:0.00000001,(9_0_4:0.00000001,9_0_1:0.00000001):0.00000000):0.00000004,9_0_5:0.00000003):0.00000010):0.00000026,(9_0_6:0.00000002,9_0_0:0.00000001):0.00000043):0.00000030,9_0_2:0.00000067):0.00022671):0.00012813,((((((13_0_7:0.00000030,13_0_4:0.00000024):0.00000024,(13_0_3:0.00000008,13_0_2:0.00000002):0.00000066):0.00000022,13_0_0:0.00000063):0.00000005,(13_0_1:0.00000042,(13_0_5:0.00000004,13_0_6:0.00000007):0.00000005):0.00000090):0.00002916,((11_0_7:0.00000127,(((11_0_3:0.00000003,11_0_4:0.00000004):0.00000020,11_0_2:0.00000016):0.00000006,(11_0_6:0.00000008,11_0_0:0.00000002):0.00000029):0.00000017):0.00000110,(11_0_5:0.00000035,11_0_1:0.00000053):0.00000059):0.00005450):0.00015314,(((5_0_5:0.00000003,5_0_3:0.00000006):0.00000125,(5_0_7:0.00000006,(5_0_0:0.00000001,5_0_1:0.00000001):0.00000007):0.00000100):0.00000027,(5_0_2:0.00000018,(5_0_6:0.00000007,5_0_4:0.00000008):0.00000013):0.00000048):0.00037171):0.00018298):0.00210038):0.00004380):0.00108240,0_0_0:0.00387203);
[TREE] T09 (0_0_0:0.00073913,(((((((((11_0_7:0.00000005,11_0_0:0.00000003):0.00000006,(11_0_6:0.00000002,11_0_3:0.00000001):0.00000007):0.00000019,11_0_1:0.00000013):0.00000007,(11_0_5:0.00000041,(11_0_2:0.00000030,11_0_4:0.00000046):0.00000002):0.00000011):0.00005125,(((13_0_4:0.00000007,13_0_6:0.00000007):0.00000029,(13_0_5:0.00000026,(13_0_3:0.00000010,13_0_7:0.00000005):0.00000035):0.00000014):0.00000227,(13_0_1:0.00000065,(13_0_2:0.00000006,13_0_0:0.00000003):0.00000003):0.00000049):0.00010562):0.00025910,(((5_0_7:0.00000004,((5_0_1:0.00000001,5_0_4:0.00000001):0.00000005,(5_0_2:0.00000004,5_0_5:0.00000006):0.00000007):0.00000024):0.00000146,5_0_6:0.00000109):0.00000074,(5_0_3:0.00000005,5_0_0:0.00000030):0.00000096):0.00021529):0.00015356,(((9_0_4:0.00000053,((((9_0_6:0.00000005,9_0_1:0.00000002):0.00000001,9_0_3:0.00000009):0.00000002,9_0_7:0.00000008):0.00000008,(9_0_0:0.00000000,9_0_2:0.00000000):0.00000012):0.00000051):0.00000029,9_0_5:0.00000038):0.00046845,(((((((3_0_1:0.00000010,(3_0_5:0.00000012,(3_0_3:0.00000013,3_0_6:0.00000012):0.00000000):0.00000005):0.00000007,3_0_7:0.00000012):0.00000010,3_0_2:0.00000009):0.00000005,3_0_4:0.00000011):0.00000019,3_0_0:0.00000085):0.00027812,((10_0_6:0.00000045,(10_0_4:0.00000025,(10_0_7:0.00000048,((10_0_5:0.00000014,10_0_2:0.00000016):0.00000003,(10_0_1:0.00000005,10_0_3:0.00000004):0.00000027):0.00000003):0.00000001):0.00000011):0.00000027,10_0_0:0.00000120):0.00019976):0.00001160,((((17_0_0:0.00000019,(17_0_5:0.00000025,(17_0_4:0.00000007,17_0_1:0.00000011):0.00000006):0.00000020):0.00000032,(17_0_7:0.00000008,17_0_6:0.00000005):0.00000062):0.00000004,(17_0_3:0.00000015,17_0_2:0.00000028):0.00000065):0.00012261,(((12_0_1:0.00000009,12_0_7:0.00000018):0.00000004,12_0_4:0.00000024):0.00000057,((12_0_2:0.00000016,12_0_3:0.00000017):0.00000015,(12_0_5:0.00000012,(12_0_0:0.00000009,12_0_6:0.00000012):0.00000011):0.00000002):0.00000022):0.00016442):0.00009353):0.00025803):0.00004761):0.00043089,((((((((6_0_0:0.00000004,6_0_4:0.00000002):0.00000031,6_0_3:0.00000036):0.00000008,(6_0_6:0.00000018,6_0_1:0.00000005):0.00000032):0.00000014,(6_0_2:0.00000002,6_0_7:0.00000000):0.00000035):0.00000002,6_0_5:0.00000038):0.00005344,(4_0_6:0.00000046,((4_0_3:0.00000005,4_0_4:0.00000012):0.00000000,((4_0_0:0.00000005,(4_0_2:0.00000000,4_0_7:0.00000000):0.00000005):0.00000001,(4_0_1:0.00000003,4_0_5:0.00000002):0.00000003):0.00000004):0.00000027):0.00015713):0.00013772,((((16_0_5:0.00000002,16_0_2:0.00000001):0.00000007,(16_0_4:0.00000002,16_0_0:0.00000000):0.00000017):0.00000038,((16_0_7:0.00000003,(16_0_1:0.00000004,16_0_3:0.00000009):0.00000001):0.00000007,16_0_6:0.00000023):0.00000071):0.00003706,(((15_0_0:0.00000005,15_0_4:0.00000003):0.00000036,(15_0_6:0.00000010,((15_0_5:0.00000003,15_0_1:0.00000004):0.00000005,15_0_7:0.00000011):0.00000006):0.00000017):0.00000069,(15_0_3:0.00000027,15_0_2:0.00000032):0.00000030):0.00008715):0.00012742):0.00016460,((((((14_0_3:0.00000001,14_0_7:0.00000002):0.00000005,14_0_2:0.00000007):0.00000050,((14_0_6:0.00000019,14_0_4:0.00000013):0.00000030,((14_0_5:0.00000014,14_0_0:0.00000007):0.00000005,14_0_1:0.00000024):0.00000020):0.00000048):0.00007851,((7_0_2:0.00000032,(((7_0_1:0.00000008,7_0_3:0.00000006):0.00000013,((7_0_0:0.00000006,7_0_7:0.00000005):0.00000003,7_0_4:0.00000017):0.00000020):0.00000007,7_0_6:0.00000147):0.00000001):0.00000003,7_0_5:0.00000097):0.00021854):0.00059464,(((2_0_5:0.00000027,2_0_4:0.00000013):0.00000004,(2_0_6:0.00000001,2_0_1:0.00000002):0.00000030):0.00000074,((2_0_0:0.00000012,2_0_7:0.00000035):0.00000026,(2_0_3:0.00000000,2_0_2:0.00000000):0.00000023):0.00000021):0.00033114):0.00011520,(8_0_5:0.00000074,((8_0_6:0.00000016,((8_0_2:0.00000010,(8_0_0:0.00000005,8_0_1:0.00000010):0.00000002):0.00000001,8_0_4:0.00000016):0.00000004):0.00000002,(8_0_7:0.00000001,8_0_3:0.00000003):0.00000022):0.00000016):0.00043436):0.00012582):0.00045155):0.00010428,((1_0_2:0.00000045,((1_0_6:0.00000007,(1_0_4:0.00000001,1_0_3:0.00000002):0.00000002):0.00000010,(1_0_5:0.00000010,1_0_0:0.00000016):0.00000002):0.00000035):0.00000065,(1_0_7:0.00000012,1_0_1:0.00000008):0.00000149):0.00121574):0.00077384);
[TREE] T10 (((((1_0_6:0.00000011,((1_0_7:0.00000005,(1_0_2:0.00000004,(1_0_0:0.00000001,1_0_1:0.00000001):0.00000000):0.00000000):0.00000000,1_0_4:0.00000002):0.00000012):0.00000015,1_0_5:0.00000058):0.00000042,1_0_3:0.00000130):0.00132289,((((((((4_0_5:0.00000010,(4_0_1:0.00000003,(4_0_4:0.00000002,4_0_7:0.00000000):0.00000004):0.00000010):0.00000003,4_0_6:0.00000036):0.00000022,(4_0_3:0.00000029,4_0_2:0.00000022):0.00000006):0.00000007,4_0_0:0.00000075):0.00004190,((((6_0_4:0.00000000,6_0_7:0.00000001):0.00000002,(6_0_6:0.00000005,6_0_5:0.00000011):0.00000000):0.00000012,6_0_3:0.00000010):0.00000084,((6_0_2:0.00000015,6_0_1:0.00000030):0.00000002,6_0_0:0.00000020):0.00000066):0.00018845):0.00005460,((16_0_6:0.00000121,((16_0_0:0.00000000,(16_0_1:0.00000002,16_0_3:0.00000002):0.00000000):0.00000014,(16_0_2:0.00000011,(16_0_4:0.00000006,(16_0_5:0.00000010,16_0_7:0.00000013):0.00000000):0.00000004):0.00000010):0.00000062):0.00001447,((((15_0_3:0.00000007,(15_0_4:0.00000002,15_0_0:0.00000002):0.00000003):0.00000037,15_0_1:0.00000025):0.00000006,15_0_6:0.00000029):0.00000022,(15_0_7:0.00000006,(15_0_5:0.00000001,15_0_2:0.00000000):0.00000003):0.00000043):0.00002794):0.00011202):0.00076430,(((((2_0_6:0.00000090,(2_0_5:0.00000002,2_0_7:0.00000002):0.00000017):0.00000008,(2_0_0:0.00000021,(2_0_2:0.00000016,2_0_3:0.00000019):0.00000023):0.00000060):0.00000014,(2_0_1:0.00000001,2_0_4:0.00000002):0.00000088):0.00036799,((((7_0_1:0.00000007,7_0_5:0.00000008):0.00000007,(7_0_6:0.00000003,7_0_4:0.00000011):0.00000001):0.00000041,(((7_0_7:0.00000003,7_0_3:0.00000003):0.00000011,7_0_2:0.00000007):0.00000001,7_0_0:0.00000013):0.00000088):0.00008903,((14_0_6:0.00000018,(14_0_4:0.00000008,14_0_3:0.00000004):0.00000003):0.00000081,((14_0_7:0.00000004,(14_0_0:0.00000003,14_0_2:0.00000002):0.00000001):0.00000080,(14_0_5:0.00000000,14_0_1:0.00000000):0.00000060):0.00000068):0.00016578):0.00008192):0.00015445,((8_0_1:0.00000039,(((8_0_4:0.00000004,8_0_0:0.00000005):0.00000025,(8_0_6:0.00000011,(8_0_5:0.00000003,8_0_2:0.00000009):0.00000001):0.00000008):0.00000027,8_0_7:0.00000060):0.00000005):0.00000022,8_0_3:0.00000165):0.00036294):0.00021529):0.00046400,((((((5_0_4:0.00000001,5_0_3:0.00000001):0.00000041,5_0_1:0.00000020):0.00000026,5_0_2:0.00000053):0.00000011,(5_0_7:0.00000009,((5_0_6:0.00000003,5_0_5:0.00000004):0.00000002,5_0_0:0.00000008):0.00000001):0.00000030):0.00009509,(((11_0_0:0.00000039,(11_0_7:0.00000008,11_0_6:0.00000013):0.00000040):0.00000008,((11_0_2:0.00000008,(11_0_1:0.00000000,11_0_5:0.00000000):0.00000006):0.00000042,(11_0_4:0.00000007,11_0_3:0.00000003):0.00000019):0.00000011):0.00004383,((13_0_6:0.00000002,13_0_7:0.00000004):0.00000018,((((13_0_1:0.00000006,13_0_4:0.00000002):0.00000002,13_0_0:0.00000006):0.00000003,13_0_5:0.00000006):0.00000020,(13_0_2:0.00000017,13_0_3:0.00000015):0.00000002):0.00000010):0.00012716):0.00012177):0.00044072,(((((17_0_4:0.00000025,(17_0_2:0.00000008,17_0_5:0.00000005):0.00000013):0.00000019,(((17_0_0:0.00000005,(17_0_3:0.00000001,17_0_1:0.00000001):0.00000009):0.00000026,17_0_7:0.00000027):0.00000001,17_0_6:0.00000014):0.00000007):0.00012691,(12_0_5:0.00000038,(((12_0_1:0.00000008,12_0_2:0.00000009):0.00000012,12_0_7:0.00000045):0.00000011,(((12_0_0:0.00000006,12_0_3:0.00000003):0.00000010,12_0_4:0.00000026):0.00000003,12_0_6:0.00000021):0.00000027):0.00000019):0.00004895):0.00003301,(((10_0_4:0.00000003,10_0_3:0.00000006):0.00000048,((10_0_2:0.00000008,(10_0_7:0.00000014,(10_0_6:0.00000001,10_0_5:0.00000000):0.00000008):0.00000007):0.00000036,(10_0_1:0.00000008,10_0_0:0.00000011):0.00000093):0.00000014):0.00010256,(3_0_4:0.00000366,(((3_0_0:0.00000020,(3_0_7:0.00000012,(3_0_3:0.00000001,3_0_5:0.00000000):0.00000012):0.00000003):0.00000013,(3_0_2:0.00000000,3_0_6:0.00000000):0.00000054):0.00000033,3_0_1:0.00000044):0.00000067):0.00019417):0.00004852):0.00008988,(9_0_7:0.00000041,(9_0_0:0.00000023,((((9_0_4:0.00000001,9_0_3:0.00000001):0.00000002,9_0_5:0.00000001):0.00000001,9_0_2:0.00000006):0.00000007,(9_0_6:0.00000001,9_0_1:0.00000002):0.00000017):0.00000005):0.00000001):0.00026067):0.00011486):0.00088600):0.00004244):0.00089877,0_0_0:0.00405512);

[PARTITIONS] csSimUnlinked_01 [T01 csSim_unlinked_1 500]
[PARTITIONS] csSimUnlinked_02 [T02 csSim_unlinked_2 500]
[PARTITIONS] csSimUnlinked_03 [T03 csSim_unlinked_3 500]
[PARTITIONS] csSimUnlinked_04 [T04 csSim_unlinked_4 500]
[PARTITIONS] csSimUnlinked_05 [T05 csSim_unlinked_5 500]
[PARTITIONS] csSimUnlinked_06 [T06 csSim_unlinked_6 500]
[PARTITIONS] csSimUnlinked_07 [T07 csSim_unlinked_7 500]
[PARTITIONS] csSimUnlinked_08 [T08 csSim_unlinked_8 500]
[PARTITIONS] csSimUnlinked_09 [T09 csSim_unlinked_9 500]
[PARTITIONS] csSimUnlinked_10 [T10 csSim_unlinked_10 500]

[EVOLVE] csSimUnlinked_01 1 data_01
csSimUnlinked_02 1 data_02
csSimUnlinked_03 1 data_03
csSimUnlinked_04 1 data_04
csSimUnlinked_05 1 data_05
csSimUnlinked_06 1 data_06
csSimUnlinked_07 1 data_07
csSimUnlinked_08 1 data_08
csSimUnlinked_09 1 data_09
csSimUnlinked_10 1 data_10
