Tree file : INDELible V1.03 (best viewed cut and paste in e.g. excel)

N.B. Simulation blocks with no random trees will have their trees printed for the first replicate only.

FILE	TREE	NTAXA	REP	PART	LENGTH	DEPTH	MAX PAIRWISE DISTANCE	TREE STRING

data_01	T01	221	1	1	0.652299	0.395546	0.472789	(((((((((((2_0_8:0.00000011,2_0_3:0.00000019):0.00001180,2_0_9:0.00000411):0.00000021,(2_0_0:0.00000399,(2_0_6:0.00000266,2_0_10:0.00000699):0.00000148):0.00000214):0.00000466,((2_0_2:0.00000058,2_0_5:0.00000039):0.00001157,((2_0_1:0.00000239,2_0_4:0.00000074):0.00000012,2_0_7:0.00000149):0.00000618):0.00000556):0.00042526,((14_0_6:0.00006531,(((14_0_5:0.00000015,(14_0_2:0.00000021,14_0_1:0.00000009):0.00000058):0.00000351,((14_0_3:0.00000120,14_0_4:0.00000015):0.00000800,(14_0_0:0.00000002,14_0_7:0.00000069):0.00000671):0.00000024):0.00002032,14_0_9:0.00003901):0.00000277):0.00002993,(14_0_10:0.00000021,14_0_8:0.00000016):0.00001130):0.00015192):0.00112071,((8_0_8:0.00000608,8_0_1:0.00000148):0.00001941,(((8_0_4:0.00000054,((8_0_6:0.00000151,(8_0_5:0.00000061,8_0_10:0.00000042):0.00000009):0.00000010,8_0_3:0.00000171):0.00000646):0.00000222,(8_0_7:0.00000060,8_0_9:0.00000464):0.00000842):0.00000114,(8_0_0:0.00000055,8_0_2:0.00000037):0.00000704):0.00004800):0.00461049):0.00289675,((((((16_0_2:0.00002261,(((16_0_9:0.00000247,16_0_8:0.00000038):0.00000095,(16_0_7:0.00000324,16_0_3:0.00000103):0.00000007):0.00000796,((16_0_5:0.00000061,16_0_0:0.00000072):0.00000104,(16_0_4:0.00000069,16_0_6:0.00000026):0.00000347):0.00000138):0.00000852):0.00000112,(16_0_10:0.00000286,16_0_1:0.00000147):0.00000628):0.00054974,((((1_0_9:0.00000193,1_0_10:0.00000364):0.00000424,(1_0_7:0.00000126,(1_0_1:0.00000122,1_0_6:0.00000084):0.00000043):0.00000257):0.00006012,(1_0_0:0.00001437,((((1_0_2:0.00000010,1_0_5:0.00000044):0.00000002,1_0_8:0.00000128):0.00000105,1_0_3:0.00000159):0.00000029,1_0_4:0.00000066):0.00001002):0.00000976):0.00204460,(((10_0_0:0.00001059,(10_0_5:0.00000067,10_0_9:0.00000209):0.00001326):0.00000569,(10_0_4:0.00000107,(10_0_1:0.00000257,10_0_7:0.00000314):0.00000461):0.00001892):0.00014180,(((10_0_3:0.00000193,10_0_10:0.00000118):0.00000437,10_0_2:0.00000991):0.00000286,(10_0_8:0.00000070,10_0_6:0.00000018):0.00000293):0.00002485):0.00124294):0.00176018):0.00243285,((((((((6_0_7:0.00000046,6_0_1:0.00000020):0.00000036,(6_0_2:0.00000054,6_0_5:0.00000033):0.00000086):0.00000898,6_0_8:0.00000774):0.00000625,(6_0_3:0.00000283,(6_0_6:0.00000006,((6_0_9:0.00000000,6_0_0:0.00000000):0.00000165,6_0_4:0.00000011):0.00000012):0.00000616):0.00002565):0.00001364,6_0_10:0.00002293):0.00190217,((((((11_0_10:0.00000174,11_0_2:0.00000159):0.00000064,11_0_8:0.00000208):0.00000047,(11_0_9:0.00000052,11_0_3:0.00000077):0.00000337):0.00003089,(((11_0_7:0.00000063,11_0_6:0.00000046):0.00000095,11_0_1:0.00000244):0.00001068,11_0_5:0.00000461):0.00001172):0.00000101,(11_0_4:0.00000073,11_0_0:0.00000269):0.00001998):0.00005287,((13_0_6:0.00000153,((13_0_7:0.00000046,13_0_3:0.00000083):0.00000415,(13_0_10:0.00000523,13_0_8:0.00000099):0.00000160):0.00000590):0.00008259,((13_0_5:0.00000318,(13_0_9:0.00000047,(13_0_0:0.00000125,13_0_4:0.00000027):0.00000008):0.00000255):0.00001458,(13_0_2:0.00000020,13_0_1:0.00000032):0.00001662):0.00002501):0.00004419):0.00003531):0.00055699,((((9_0_3:0.00000024,9_0_0:0.00000078):0.00000306,(9_0_8:0.00000208,9_0_4:0.00000150):0.00000017):0.00000502,(9_0_2:0.00000145,9_0_6:0.00000340):0.00000776):0.00000741,((9_0_5:0.00000471,9_0_7:0.00000139):0.00001005,(9_0_10:0.00000112,(9_0_1:0.00000088,9_0_9:0.00000055):0.00000055):0.00000493):0.00003867):0.00007507):0.00918098,((((18_0_4:0.00000375,((18_0_5:0.00000112,18_0_6:0.00000007):0.00000315,18_0_1:0.00000352):0.00000499):0.00000008,((18_0_3:0.00000033,18_0_8:0.00000017):0.00000400,(18_0_0:0.00000307,18_0_9:0.00000163):0.00000220):0.00000152):0.00005716,((18_0_10:0.00000762,18_0_2:0.00001450):0.00000357,18_0_7:0.00000211):0.00000994):0.00002551,((15_0_7:0.00000120,15_0_0:0.00000020):0.00002170,((15_0_1:0.00000106,((15_0_4:0.00000224,15_0_3:0.00000126):0.00000027,15_0_10:0.00000614):0.00000031):0.00000228,((15_0_6:0.00000059,15_0_2:0.00000047):0.00000811,(15_0_5:0.00000726,(15_0_9:0.00000014,15_0_8:0.00000014):0.00001136):0.00000041):0.00000457):0.00002673):0.00002465):0.00586496):0.00164945):0.00033151,((17_0_0:0.00000347,17_0_2:0.00000086):0.00006192,(17_0_5:0.00002702,((((17_0_4:0.00000083,17_0_9:0.00000236):0.00000038,17_0_6:0.00000118):0.00000675,(17_0_7:0.00000131,(17_0_8:0.00000010,17_0_1:0.00000094):0.00000898):0.00000841):0.00000200,(17_0_10:0.00003049,17_0_3:0.00000730):0.00000132):0.00001605):0.00007559):0.00443331):0.00007913,(((19_0_8:0.00000523,(((19_0_5:0.00000009,19_0_6:0.00000001):0.00000006,19_0_7:0.00000095):0.00000283,((19_0_9:0.00000023,19_0_3:0.00000012):0.00000327,(19_0_1:0.00000371,19_0_2:0.00000642):0.00000024):0.00000011):0.00000283):0.00001032,((19_0_0:0.00000012,19_0_4:0.00000652):0.00000025,19_0_10:0.00000195):0.00000400):0.00179004,(7_0_3:0.00018191,(((7_0_4:0.00000076,7_0_2:0.00000273):0.00001392,(7_0_0:0.00000579,7_0_6:0.00000167):0.00000843):0.00000390,((7_0_7:0.00000154,(7_0_9:0.00000037,7_0_1:0.00000001):0.00000507):0.00000467,((7_0_10:0.00000015,7_0_8:0.00000012):0.00000034,7_0_5:0.00000234):0.00000413):0.00004343):0.00000459):0.00207284):0.00386657):0.00016773):0.00101186,((4_0_10:0.00000215,(4_0_2:0.00000001,4_0_0:0.00000002):0.00000122):0.00001393,(((((4_0_9:0.00000026,4_0_4:0.00000029):0.00000082,4_0_1:0.00000109):0.00000069,4_0_5:0.00000814):0.00000008,4_0_3:0.00001696):0.00000397,(4_0_6:0.00000329,(4_0_8:0.00000072,4_0_7:0.00000105):0.00000269):0.00001658):0.00000113):0.01524056):0.00031707,(((((((12_0_0:0.00000026,12_0_1:0.00000006):0.00000201,12_0_10:0.00001109):0.00000023,12_0_6:0.00000406):0.00000412,12_0_7:0.00000857):0.00000008,(12_0_3:0.00000767,12_0_8:0.00000119):0.00000262):0.00001203,(12_0_9:0.00002785,(12_0_2:0.00003238,(12_0_5:0.00000832,12_0_4:0.00002128):0.00000196):0.00000944):0.00000470):0.00212863,((5_0_6:0.00003850,(5_0_1:0.00001365,((5_0_10:0.00000197,5_0_7:0.00000946):0.00000180,((5_0_5:0.00000446,(5_0_2:0.00000030,5_0_0:0.00000062):0.00000132):0.00000282,((5_0_3:0.00000154,5_0_8:0.00000155):0.00000074,(5_0_4:0.00000008,5_0_9:0.00000113):0.00000174):0.00000388):0.00000027):0.00000895):0.00001927):0.00082095,(((((3_0_6:0.00000055,3_0_1:0.00000696):0.00000210,3_0_3:0.00001127):0.00000303,(3_0_8:0.00000105,3_0_4:0.00000368):0.00000488):0.00000254,((3_0_9:0.00000026,3_0_0:0.00000032):0.00000512,(3_0_5:0.00000126,3_0_7:0.00000063):0.00000169):0.00000482):0.00000542,(3_0_10:0.00001778,3_0_2:0.00000722):0.00000615):0.00096133):0.00671143):0.00236410):0.09797192,(((20_0_4:0.00000135,20_0_9:0.00000056):0.00001201,(20_0_3:0.00000066,(20_0_6:0.00000067,(20_0_8:0.00000004,20_0_0:0.00000004):0.00000084):0.00000009):0.00000457):0.00001902,((20_0_5:0.00000080,20_0_10:0.00001061):0.00001402,((20_0_1:0.00000437,20_0_7:0.00000590):0.00000886,20_0_2:0.00001218):0.00000581):0.00002020):0.24586930):0.14963144,0_0_0:0.07724371);

data_02	T02	221	1	1	0.39811	0.181393	0.278896	((((20_0_4:0.00000451,20_0_8:0.00000672):0.00002712,(20_0_3:0.00000555,(20_0_0:0.00000008,(((20_0_7:0.00000031,20_0_9:0.00000052):0.00000657,(20_0_6:0.00000193,20_0_10:0.00000014):0.00000736):0.00000076,(20_0_5:0.00000410,(20_0_2:0.00000195,20_0_1:0.00000152):0.00001045):0.00000193):0.00000057):0.00000421):0.00000732):0.15816836,(((((12_0_0:0.00000883,12_0_10:0.00001486):0.00000088,(12_0_5:0.00000904,((((12_0_7:0.00000102,12_0_3:0.00000065):0.00000346,12_0_2:0.00000589):0.00000139,12_0_9:0.00000550):0.00000056,12_0_1:0.00000371):0.00000096):0.00000077):0.00001714,(12_0_4:0.00000885,(12_0_6:0.00002505,12_0_8:0.00001086):0.00000840):0.00000953):0.00409105,((((5_0_6:0.00000863,5_0_3:0.00000321):0.00000002,((5_0_7:0.00000137,(5_0_4:0.00000032,5_0_2:0.00000062):0.00000198):0.00001487,5_0_9:0.00001172):0.00000037):0.00001081,((5_0_5:0.00000372,(5_0_8:0.00000594,(5_0_10:0.00000228,5_0_0:0.00000160):0.00000149):0.00000062):0.00000311,5_0_1:0.00000551):0.00005323):0.00089029,(((((3_0_10:0.00000113,3_0_5:0.00000151):0.00000252,(((3_0_7:0.00000053,3_0_3:0.00000009):0.00000097,3_0_4:0.00000107):0.00000009,3_0_2:0.00000088):0.00000078):0.00000182,((3_0_9:0.00000015,3_0_8:0.00000035):0.00001494,3_0_0:0.00000045):0.00000298):0.00002673,3_0_6:0.00002144):0.00007675,3_0_1:0.00008927):0.00180920):0.00812286):0.00144800,(((((4_0_8:0.00000072,4_0_9:0.00000068):0.00000127,4_0_1:0.00000279):0.00000298,(((4_0_2:0.00000073,(4_0_7:0.00000001,4_0_10:0.00000003):0.00000081):0.00000008,(4_0_6:0.00000007,4_0_5:0.00000005):0.00000064):0.00000297,4_0_4:0.00000314):0.00000509):0.00001368,(4_0_3:0.00000475,4_0_0:0.00000534):0.00000229):0.00246442,((((((19_0_7:0.00000241,19_0_2:0.00000124):0.00000119,(19_0_9:0.00000076,(19_0_0:0.00000050,19_0_3:0.00000017):0.00000090):0.00000371):0.00004475,(19_0_4:0.00002666,(19_0_10:0.00003815,((19_0_1:0.00000953,19_0_6:0.00000120):0.00000270,(19_0_8:0.00000078,19_0_5:0.00000090):0.00000118):0.00000140):0.00000166):0.00002964):0.00130447,(7_0_2:0.00000705,(((7_0_0:0.00000362,(7_0_6:0.00000025,7_0_5:0.00000067):0.00000239):0.00000272,((7_0_7:0.00000365,(7_0_10:0.00000064,7_0_4:0.00000022):0.00000088):0.00000093,7_0_8:0.00000433):0.00000026):0.00000162,((7_0_9:0.00000050,7_0_1:0.00000037):0.00000320,7_0_3:0.00000661):0.00001590):0.00000394):0.00528151):0.00476320,((((((10_0_10:0.00001333,(((10_0_1:0.00000017,10_0_6:0.00000026):0.00000067,10_0_5:0.00000111):0.00000062,(10_0_0:0.00000085,(10_0_4:0.00000370,10_0_7:0.00000033):0.00000090):0.00000574):0.00000579):0.00000175,(((10_0_8:0.00000047,10_0_2:0.00000040):0.00000034,10_0_9:0.00000092):0.00000496,10_0_3:0.00001123):0.00000558):0.00070152,((1_0_2:0.00000243,1_0_1:0.00005221):0.00000428,(((1_0_3:0.00000022,1_0_10:0.00000674):0.00000020,(1_0_0:0.00000691,1_0_8:0.00000056):0.00000004):0.00002790,(1_0_9:0.00000979,(1_0_4:0.00000256,(1_0_6:0.00000016,(1_0_5:0.00000017,1_0_7:0.00000010):0.00000017):0.00000189):0.00001211):0.00000240):0.00003967):0.00182926):0.00214375,((((16_0_8:0.00002229,(16_0_3:0.00001877,(16_0_2:0.00000178,(16_0_7:0.00000131,16_0_6:0.00000047):0.00000032):0.00000200):0.00000126):0.00000007,16_0_5:0.00000869):0.00000627,16_0_0:0.00000378):0.00011387,((16_0_1:0.00001279,16_0_9:0.00000603):0.00000068,(16_0_4:0.00000534,16_0_10:0.00000158):0.00000398):0.00019018):0.00725597):0.00040951,(((((((6_0_0:0.00000020,6_0_3:0.00000120):0.00000001,6_0_7:0.00000070):0.00000174,(6_0_10:0.00000363,6_0_2:0.00000084):0.00000096):0.00000865,((6_0_4:0.00000112,(6_0_8:0.00000050,6_0_9:0.00000051):0.00000071):0.00000463,(6_0_1:0.00000402,(6_0_6:0.00000888,6_0_5:0.00000185):0.00000083):0.00000292):0.00000332):0.00209553,(((((11_0_2:0.00000035,11_0_5:0.00000019):0.00000002,11_0_9:0.00000016):0.00000386,(11_0_10:0.00000095,11_0_1:0.00000215):0.00001004):0.00003938,((11_0_8:0.00000545,(11_0_7:0.00000308,11_0_3:0.00000128):0.00000083):0.00000720,(11_0_6:0.00000959,(11_0_4:0.00000637,11_0_0:0.00000039):0.00000510):0.00000129):0.00008305):0.00005894,((13_0_3:0.00000841,13_0_7:0.00001437):0.00007138,((((13_0_8:0.00000005,13_0_2:0.00000018):0.00000327,(13_0_10:0.00000238,13_0_4:0.00000108):0.00000001):0.00001241,(13_0_9:0.00000352,13_0_0:0.00000135):0.00002191):0.00003340,(13_0_5:0.00000199,(13_0_6:0.00000407,13_0_1:0.00000151):0.00000280):0.00000987):0.00001767):0.00003169):0.00076124):0.00043418,(((9_0_7:0.00001487,9_0_5:0.00001231):0.00001877,((9_0_10:0.00000002,9_0_6:0.00000001):0.00000232,(9_0_8:0.00000058,9_0_9:0.00000063):0.00001228):0.00000796):0.00001668,((9_0_0:0.00000018,9_0_1:0.00000031):0.00000993,((9_0_3:0.00000719,9_0_4:0.00000248):0.00000268,9_0_2:0.00000009):0.00000478):0.00001844):0.00107151):0.00204248,(((((18_0_4:0.00000099,(18_0_0:0.00000024,18_0_1:0.00000007):0.00000009):0.00001715,((18_0_9:0.00000286,(18_0_3:0.00000053,18_0_7:0.00000002):0.00000382):0.00000001,18_0_5:0.00000029):0.00000604):0.00000758,((18_0_10:0.00000168,18_0_2:0.00000025):0.00000000,18_0_6:0.00000075):0.00002956):0.00004624,18_0_8:0.00007432):0.00008236,((((15_0_1:0.00000140,15_0_4:0.00000142):0.00000160,((15_0_3:0.00000018,15_0_6:0.00000148):0.00000290,15_0_5:0.00000188):0.00000091):0.00000015,15_0_10:0.00000288):0.00002539,(15_0_9:0.00001589,((15_0_2:0.00000060,(15_0_0:0.00000026,15_0_8:0.00000090):0.00000041):0.00000091,15_0_7:0.00000933):0.00001271):0.00000334):0.00001279):0.00445098):0.00108495):0.00024552,((17_0_6:0.00000453,(17_0_9:0.00000033,17_0_5:0.00000041):0.00000084):0.00000913,((((17_0_8:0.00000057,17_0_4:0.00000275):0.00000004,17_0_2:0.00000566):0.00000012,(17_0_7:0.00000270,17_0_10:0.00000286):0.00000135):0.00000263,(17_0_1:0.00000112,(17_0_0:0.00000091,17_0_3:0.00000046):0.00000305):0.00001467):0.00000576):0.00941399):0.00002863):0.00018768,(((8_0_6:0.00000031,8_0_5:0.00000015):0.00003014,((((((8_0_0:0.00000016,8_0_1:0.00000029):0.00000042,(8_0_7:0.00000035,8_0_4:0.00000102):0.00000026):0.00000055,(8_0_10:0.00000207,8_0_2:0.00000278):0.00000025):0.00001529,8_0_9:0.00002818):0.00000305,8_0_8:0.00000034):0.00001331,8_0_3:0.00002493):0.00002333):0.00143574,(((((14_0_10:0.00000182,14_0_6:0.00000097):0.00000013,(14_0_4:0.00000005,14_0_9:0.00000010):0.00000241):0.00000097,14_0_8:0.00001688):0.00000300,((14_0_1:0.00001715,((14_0_0:0.00000231,14_0_2:0.00000159):0.00000000,14_0_7:0.00000160):0.00000118):0.00000167,(14_0_3:0.00000513,14_0_5:0.00001119):0.00000031):0.00003889):0.00036275,(((2_0_3:0.00000044,2_0_4:0.00000116):0.00001392,2_0_10:0.00001158):0.00009540,((2_0_2:0.00000340,(2_0_7:0.00000261,((2_0_6:0.00000021,2_0_9:0.00000014):0.00000012,2_0_1:0.00000104):0.00000543):0.00000025):0.00001368,(2_0_5:0.00000585,(2_0_8:0.00000124,2_0_0:0.00000148):0.00000197):0.00003414):0.00008680):0.00044855):0.00137136):0.00102715):0.00001883):0.00013404):0.04697244):0.02319062,0_0_0:0.09750344);

data_03	T03	221	1	1	0.350169	0.211824	0.252533	(((((4_0_0:0.00002747,((4_0_5:0.00000093,4_0_9:0.00000487):0.00000282,((4_0_10:0.00000101,4_0_8:0.00000136):0.00000530,(((4_0_4:0.00000085,4_0_2:0.00000007):0.00000079,4_0_3:0.00000078):0.00000084,((4_0_6:0.00000484,4_0_7:0.00000143):0.00000033,4_0_1:0.00000166):0.00000179):0.00000111):0.00000089):0.00000189):0.01538991,(((((((((9_0_2:0.00000119,9_0_9:0.00000094):0.00002267,(9_0_10:0.00000373,(9_0_0:0.00000250,9_0_1:0.00000247):0.00000023):0.00000767):0.00000265,(((9_0_7:0.00000014,(9_0_8:0.00000138,(9_0_4:0.00000028,9_0_6:0.00000010):0.00000016):0.00000888):0.00000202,9_0_3:0.00000493):0.00000340,9_0_5:0.00001101):0.00000193):0.00169658,(((6_0_3:0.00001018,(((6_0_2:0.00000056,6_0_0:0.00000021):0.00000011,6_0_8:0.00000113):0.00000701,(6_0_1:0.00000427,(6_0_7:0.00000106,(6_0_10:0.00000062,6_0_6:0.00000020):0.00000012):0.00000117):0.00000145):0.00000037):0.00000326,((6_0_9:0.00000137,6_0_4:0.00000045):0.00000347,6_0_5:0.00000271):0.00000565):0.00022581,((((13_0_5:0.00000757,(((13_0_7:0.00000010,13_0_10:0.00000035):0.00000038,13_0_1:0.00000065):0.00000059,13_0_9:0.00000034):0.00000824):0.00000144,(13_0_3:0.00000919,(13_0_0:0.00000019,13_0_8:0.00000007):0.00001136):0.00000142):0.00001073,(13_0_6:0.00000236,(13_0_2:0.00000238,13_0_4:0.00000144):0.00000030):0.00002264):0.00008623,((((11_0_3:0.00000450,11_0_10:0.00000172):0.00000030,11_0_0:0.00000234):0.00000361,11_0_5:0.00000862):0.00001371,(11_0_1:0.00000890,((11_0_2:0.00002452,11_0_7:0.00000170):0.00000044,(11_0_8:0.00000650,(11_0_9:0.00000028,(11_0_4:0.00000005,11_0_6:0.00000005):0.00000230):0.00000159):0.00000873):0.00000337):0.00000510):0.00012653):0.00018252):0.00054782):0.00224553,(((15_0_5:0.00001252,(15_0_3:0.00000422,(15_0_9:0.00001632,(15_0_8:0.00000050,(15_0_10:0.00000029,15_0_4:0.00000034):0.00000029):0.00000902):0.00000547):0.00000237):0.00000628,((15_0_0:0.00000346,(15_0_7:0.00000010,15_0_2:0.00000075):0.00000127):0.00000141,(15_0_6:0.00000001,15_0_1:0.00000063):0.00000793):0.00001498):0.00010416,((18_0_6:0.00001286,((18_0_9:0.00000019,18_0_3:0.00000137):0.00000048,18_0_4:0.00000161):0.00000237):0.00001677,((18_0_1:0.00000056,(18_0_5:0.00000108,18_0_7:0.00000511):0.00000001):0.00004409,(18_0_2:0.00002189,(18_0_0:0.00000136,(18_0_8:0.00000160,18_0_10:0.00000134):0.00000254):0.00002936):0.00000416):0.00000912):0.00008990):0.00172563):0.00146834,((((10_0_10:0.00001528,(10_0_5:0.00000491,((10_0_9:0.00000050,10_0_4:0.00000113):0.00000142,10_0_8:0.00000243):0.00000392):0.00000268):0.00000686,((10_0_6:0.00000626,(10_0_1:0.00000141,(10_0_3:0.00000199,10_0_7:0.00000128):0.00000099):0.00000336):0.00000023,(10_0_0:0.00000267,10_0_2:0.00000292):0.00000157):0.00000379):0.00331403,(((((1_0_0:0.00000686,1_0_10:0.00000079):0.00001365,(((1_0_8:0.00000094,1_0_1:0.00000293):0.00000176,(1_0_5:0.00000091,1_0_2:0.00000012):0.00000067):0.00000233,(1_0_4:0.00000334,1_0_3:0.00000922):0.00000042):0.00001801):0.00000160,1_0_6:0.00001148):0.00000643,1_0_7:0.00001131):0.00000480,1_0_9:0.00000512):0.00098639):0.00077262,((16_0_0:0.00000461,16_0_6:0.00000056):0.00013203,(((16_0_2:0.00000206,16_0_10:0.00000112):0.00000046,16_0_5:0.00000702):0.00001001,((16_0_4:0.00000097,(16_0_3:0.00000002,16_0_1:0.00000002):0.00000143):0.00001546,(16_0_7:0.00001132,(16_0_8:0.00000388,16_0_9:0.00000866):0.00001482):0.00000184):0.00001269):0.00005368):0.00141006):0.00109576):0.00017529,(((17_0_4:0.00000401,17_0_2:0.00000815):0.00000746,((((17_0_7:0.00000053,17_0_5:0.00000084):0.00000047,17_0_0:0.00000151):0.00000351,17_0_3:0.00000440):0.00000654,(17_0_1:0.00000356,17_0_10:0.00000151):0.00000250):0.00000658):0.00001576,((17_0_8:0.00000312,17_0_9:0.00001120):0.00001879,17_0_6:0.00004157):0.00004319):0.00910743):0.00014863,(((7_0_4:0.00000406,7_0_0:0.00000204):0.00007902,((((7_0_5:0.00000022,7_0_7:0.00000019):0.00000918,(7_0_10:0.00000035,7_0_6:0.00000042):0.00000279):0.00000330,(7_0_8:0.00000274,(7_0_9:0.00000120,(7_0_2:0.00000006,7_0_3:0.00000001):0.00000024):0.00000187):0.00000207):0.00000547,7_0_1:0.00001913):0.00003585):0.00069944,((19_0_8:0.00010328,((19_0_7:0.00000187,19_0_4:0.00000617):0.00000159,((19_0_2:0.00000010,19_0_1:0.00000008):0.00000886,19_0_5:0.00000469):0.00000308):0.00003577):0.00000275,(19_0_6:0.00001135,(19_0_0:0.00000709,(19_0_9:0.00000306,(19_0_3:0.00000063,19_0_10:0.00000148):0.00000001):0.00000596):0.00001549):0.00012348):0.00084669):0.00085986):0.00022337,((((2_0_2:0.00000435,((2_0_1:0.00000109,2_0_9:0.00000074):0.00000061,(2_0_8:0.00000121,(2_0_10:0.00000026,2_0_7:0.00000060):0.00000019):0.00000048):0.00000266):0.00000786,((2_0_0:0.00000317,(2_0_4:0.00000103,(2_0_5:0.00000017,2_0_3:0.00000031):0.00000264):0.00000100):0.00000712,2_0_6:0.00001365):0.00000546):0.00054598,((((14_0_7:0.00000204,14_0_10:0.00000093):0.00000114,14_0_4:0.00000099):0.00000461,((14_0_6:0.00000108,((14_0_8:0.00000309,14_0_5:0.00000250):0.00000004,(14_0_3:0.00000069,(14_0_1:0.00000139,14_0_2:0.00000049):0.00000150):0.00000078):0.00000146):0.00000143,14_0_9:0.00000756):0.00000356):0.00001662,14_0_0:0.00000725):0.00062880):0.00787048,((((8_0_5:0.00000257,((8_0_9:0.00000037,8_0_8:0.00000011):0.00000016,8_0_4:0.00000086):0.00000379):0.00000075,8_0_6:0.00001025):0.00000039,((8_0_3:0.00000810,8_0_10:0.00000147):0.00000065,8_0_0:0.00001297):0.00000188):0.00002794,(8_0_7:0.00001324,(8_0_1:0.00001088,8_0_2:0.00000472):0.00000642):0.00004219):0.00462499):0.00042118):0.00023300):0.00023308,(((((5_0_4:0.00000283,5_0_6:0.00000262):0.00003208,((((5_0_1:0.00000052,5_0_9:0.00000276):0.00000572,5_0_7:0.00000243):0.00000100,5_0_0:0.00000060):0.00000788,((5_0_5:0.00000016,5_0_3:0.00000052):0.00000782,(5_0_10:0.00000064,5_0_2:0.00000125):0.00000326):0.00000443):0.00001177):0.00002757,5_0_8:0.00004437):0.00085008,(((3_0_8:0.00000254,(3_0_1:0.00000357,(3_0_5:0.00000292,(3_0_0:0.00000484,3_0_6:0.00000089):0.00000024):0.00000557):0.00000205):0.00000295,(3_0_7:0.00000724,(3_0_4:0.00000128,3_0_10:0.00000226):0.00000892):0.00002709):0.00002903,(3_0_9:0.00002936,(3_0_3:0.00000431,3_0_2:0.00001871):0.00001618):0.00000582):0.00107476):0.00690551,(12_0_3:0.00001391,(((12_0_2:0.00000505,12_0_9:0.00000737):0.00000026,(12_0_7:0.00001563,(12_0_4:0.00000035,((12_0_0:0.00000000,12_0_5:0.00000000):0.00000004,12_0_8:0.00000004):0.00000197):0.00000345):0.00000469):0.00000808,(12_0_1:0.00000343,(12_0_10:0.00000233,12_0_6:0.00000649):0.00000051):0.00000354):0.00000180):0.00490697):0.00137257):0.02195471,((20_0_1:0.00000137,(20_0_10:0.00000675,(20_0_8:0.00000076,20_0_0:0.00000528):0.00000808):0.00001667):0.00000600,((20_0_3:0.00000110,20_0_6:0.00000206):0.00000161,(((20_0_9:0.00000025,20_0_5:0.00000038):0.00000197,20_0_7:0.00000423):0.00000050,(20_0_2:0.00000108,20_0_4:0.00000139):0.00000816):0.00000227):0.00001899):0.18350216):0.02828627,0_0_0:0.04070867);

data_04	T04	221	1	1	0.395046	0.156498	0.309426	(0_0_0:0.15649773,((((((12_0_4:0.00000023,12_0_5:0.00000013):0.00000977,(12_0_6:0.00000053,12_0_1:0.00000097):0.00000329):0.00001297,(((12_0_7:0.00000234,(12_0_10:0.00000412,(12_0_8:0.00000016,12_0_2:0.00000055):0.00000003):0.00001676):0.00001193,12_0_9:0.00001336):0.00000084,(12_0_3:0.00000078,12_0_0:0.00000042):0.00000455):0.00000758):0.00489597,(((((3_0_0:0.00000048,((3_0_2:0.00000003,3_0_3:0.00000014):0.00000006,3_0_4:0.00000015):0.00000213):0.00000481,3_0_9:0.00000615):0.00000211,((3_0_7:0.00000137,3_0_1:0.00000081):0.00001145,3_0_6:0.00001876):0.00001401):0.00001855,(3_0_5:0.00000493,(3_0_10:0.00000065,3_0_8:0.00000011):0.00000484):0.00002805):0.00040207,(((5_0_7:0.00000874,(5_0_4:0.00000245,5_0_3:0.00000268):0.00000409):0.00000470,((5_0_9:0.00000738,((5_0_8:0.00000102,(5_0_2:0.00000009,5_0_0:0.00000010):0.00000160):0.00000022,5_0_10:0.00000025):0.00000566):0.00000032,(5_0_5:0.00000235,5_0_6:0.00000054):0.00000681):0.00000407):0.00001955,5_0_1:0.00002409):0.00082436):0.00195182):0.00150162,(((((((2_0_9:0.00000251,(2_0_7:0.00000005,2_0_4:0.00000166):0.00000192):0.00000969,(((2_0_1:0.00000271,2_0_5:0.00000709):0.00000357,(2_0_0:0.00000066,2_0_10:0.00000091):0.00000911):0.00000346,(2_0_8:0.00000665,2_0_3:0.00000622):0.00000458):0.00000144):0.00002352,(2_0_2:0.00000076,2_0_6:0.00000019):0.00000833):0.00049866,(((14_0_6:0.00000329,14_0_8:0.00000723):0.00001329,((14_0_2:0.00000323,14_0_10:0.00000079):0.00000008,14_0_7:0.00000059):0.00000781):0.00000927,(((14_0_4:0.00000207,14_0_9:0.00000025):0.00000304,14_0_3:0.00000437):0.00000244,(14_0_0:0.00000100,(14_0_5:0.00000036,14_0_1:0.00000007):0.00000362):0.00000078):0.00002005):0.00046425):0.00082107,(((((8_0_6:0.00000032,8_0_4:0.00000136):0.00000042,8_0_0:0.00000329):0.00000856,8_0_1:0.00000094):0.00000025,8_0_7:0.00001057):0.00000338,(8_0_2:0.00000525,((8_0_3:0.00000025,8_0_5:0.00000033):0.00000022,(8_0_10:0.00000012,(8_0_8:0.00000032,8_0_9:0.00000007):0.00000027):0.00000016):0.00000346):0.00001238):0.00150162):0.00306095,(((((((7_0_6:0.00000118,7_0_7:0.00000017):0.00000795,7_0_2:0.00000174):0.00000588,7_0_10:0.00003109):0.00000542,(7_0_8:0.00000690,7_0_3:0.00001024):0.00000430):0.00003393,((7_0_9:0.00000069,(7_0_5:0.00000025,7_0_1:0.00000008):0.00000005):0.00001525,(7_0_0:0.00000502,7_0_4:0.00000901):0.00003001):0.00002914):0.00122433,((((19_0_7:0.00000021,19_0_6:0.00000101):0.00000497,(19_0_5:0.00000375,(19_0_9:0.00000061,19_0_8:0.00000047):0.00000223):0.00000149):0.00001285,((19_0_1:0.00000198,(19_0_2:0.00000563,(19_0_4:0.00000202,19_0_3:0.00000028):0.00000166):0.00000020):0.00000370,19_0_10:0.00001036):0.00000882):0.00000827,19_0_0:0.00000747):0.00068785):0.00157629,(((((((17_0_0:0.00000031,17_0_4:0.00000206):0.00000418,(17_0_1:0.00000612,17_0_3:0.00000324):0.00000143):0.00000326,17_0_8:0.00000829):0.00000002,((17_0_9:0.00000065,17_0_6:0.00000138):0.00000240,(17_0_7:0.00000078,17_0_5:0.00000214):0.00000081):0.00000418):0.00000302,17_0_2:0.00000572):0.00001240,17_0_10:0.00000158):0.01207839,((((15_0_6:0.00001515,(((15_0_10:0.00000196,15_0_4:0.00000050):0.00000043,15_0_0:0.00000230):0.00004092,((15_0_1:0.00000462,15_0_8:0.00000372):0.00003484,((15_0_3:0.00000242,15_0_7:0.00000050):0.00000375,((15_0_9:0.00000120,15_0_2:0.00000462):0.00000123,15_0_5:0.00000482):0.00000095):0.00002423):0.00000082):0.00001022):0.00005573,(((((18_0_9:0.00000090,18_0_7:0.00000081):0.00000382,(18_0_1:0.00000253,18_0_10:0.00000117):0.00000033):0.00000008,18_0_8:0.00000265):0.00000028,18_0_4:0.00000073):0.00005543,((18_0_3:0.00000419,18_0_5:0.00000610):0.00000180,(18_0_2:0.00000372,(18_0_0:0.00000031,18_0_6:0.00000009):0.00000105):0.00001079):0.00001473):0.00002900):0.00126782,(((((11_0_1:0.00000163,(11_0_8:0.00000081,(11_0_7:0.00000020,(11_0_3:0.00000163,11_0_6:0.00000094):0.00000063):0.00000046):0.00000242):0.00005354,((11_0_9:0.00000225,(11_0_0:0.00000356,11_0_4:0.00000025):0.00000090):0.00001374,(11_0_10:0.00000443,(11_0_2:0.00000315,11_0_5:0.00000128):0.00000097):0.00000048):0.00002823):0.00005128,(((13_0_5:0.00000281,13_0_10:0.00000158):0.00001128,((13_0_6:0.00000579,13_0_0:0.00000263):0.00000639,13_0_1:0.00000482):0.00001264):0.00000164,(13_0_8:0.00002687,(((13_0_2:0.00000157,13_0_3:0.00000971):0.00000000,13_0_7:0.00001869):0.00000061,(13_0_9:0.00000935,13_0_4:0.00000041):0.00001170):0.00001120):0.00000626):0.00026272):0.00011887,(6_0_6:0.00000490,(((6_0_7:0.00000697,6_0_8:0.00000194):0.00000386,((6_0_5:0.00000184,6_0_3:0.00000072):0.00001448,(6_0_2:0.00000005,6_0_9:0.00000012):0.00000713):0.00000046):0.00000003,(6_0_0:0.00000193,(6_0_4:0.00000011,(6_0_1:0.00000028,6_0_10:0.00000017):0.00000124):0.00000407):0.00000580):0.00000814):0.00042931):0.00032775,((9_0_5:0.00001044,(9_0_1:0.00001515,((9_0_9:0.00000003,9_0_7:0.00000002):0.00000245,(9_0_3:0.00000320,(9_0_2:0.00001000,((9_0_8:0.00000007,9_0_10:0.00000008):0.00000022,9_0_4:0.00000067):0.00000016):0.00000022):0.00000395):0.00000376):0.00000289):0.00002373,(9_0_6:0.00000925,9_0_0:0.00001647):0.00001807):0.00109665):0.00083276):0.00006444,((((10_0_2:0.00000158,10_0_10:0.00000050):0.00013492,(10_0_4:0.00000398,((((10_0_1:0.00000227,10_0_7:0.00000212):0.00000005,(10_0_3:0.00000371,10_0_6:0.00000043):0.00000057):0.00000399,(10_0_8:0.00000135,10_0_5:0.00000154):0.00002036):0.00000025,(10_0_0:0.00000060,10_0_9:0.00000104):0.00000860):0.00000256):0.00002156):0.00007178,(((1_0_2:0.00000087,1_0_0:0.00000977):0.00000083,((1_0_4:0.00000290,1_0_1:0.00000148):0.00000388,(1_0_5:0.00000800,(1_0_9:0.00000000,1_0_8:0.00000000):0.00000555):0.00000165):0.00000645):0.00003885,(1_0_10:0.00002580,(1_0_6:0.00000500,(1_0_3:0.00000172,1_0_7:0.00000160):0.00000496):0.00000093):0.00000480):0.00425841):0.00384355,(((16_0_10:0.00000138,(16_0_6:0.00000237,16_0_0:0.00000080):0.00000236):0.00000289,(((16_0_8:0.00000226,16_0_1:0.00000602):0.00000175,16_0_7:0.00000131):0.00000042,16_0_3:0.00000067):0.00000341):0.00003881,(16_0_4:0.00001469,(16_0_2:0.00000361,(16_0_9:0.00000023,16_0_5:0.00000014):0.00000152):0.00000292):0.00000993):0.00165350):0.00064457):0.00007177):0.00021487):0.00004655):0.00166356,((4_0_9:0.00002381,(4_0_5:0.00001243,((4_0_4:0.00000447,(4_0_6:0.00000033,4_0_8:0.00000063):0.00000697):0.00000093,4_0_7:0.00000605):0.00000221):0.00000420):0.00000259,((4_0_1:0.00000008,(4_0_0:0.00000012,4_0_2:0.00000044):0.00000019):0.00000107,(4_0_3:0.00000437,4_0_10:0.00000086):0.00000048):0.00001716):0.00782537):0.00011231):0.07887928,(((20_0_5:0.00000112,(20_0_2:0.00000001,20_0_6:0.00000000):0.00000165):0.00000702,(20_0_1:0.00000715,(20_0_7:0.00000185,(20_0_4:0.00000534,20_0_9:0.00000388):0.00000028):0.00000621):0.00000020):0.00008215,((20_0_8:0.00000480,(20_0_10:0.00000051,20_0_3:0.00000353):0.00000064):0.00000571,20_0_0:0.00000385):0.00007107):0.04099732):0.05990737);

data_05	T05	221	1	1	0.517797	0.278175	0.415396	(0_0_0:0.13722045,(((((12_0_7:0.00000221,((12_0_6:0.00000839,12_0_5:0.00000659):0.00001089,(12_0_3:0.00000473,(12_0_2:0.00000293,12_0_4:0.00001304):0.00000131):0.00000242):0.00000103):0.00001900,(((12_0_1:0.00000073,(12_0_9:0.00000001,12_0_8:0.00000013):0.00000031):0.00000053,12_0_0:0.00000085):0.00000443,12_0_10:0.00002114):0.00000395):0.01553706,((((5_0_9:0.00000084,(5_0_8:0.00000449,(5_0_7:0.00000125,((5_0_6:0.00000101,5_0_0:0.00000062):0.00000004,5_0_2:0.00000143):0.00000018):0.00000009):0.00000061):0.00013157,(((5_0_10:0.00000124,5_0_4:0.00000260):0.00000103,5_0_3:0.00000335):0.00000630,5_0_1:0.00001332):0.00000969):0.00001036,5_0_5:0.00001293):0.00070656,(3_0_3:0.00001321,(((3_0_7:0.00000093,3_0_9:0.00000115):0.00000035,(3_0_4:0.00000095,3_0_10:0.00000033):0.00000432):0.00001554,(3_0_0:0.00000282,((3_0_2:0.00000272,3_0_5:0.00000143):0.00000245,((3_0_8:0.00000085,3_0_1:0.00000059):0.00000257,3_0_6:0.00000149):0.00000511):0.00000020):0.00000016):0.00000584):0.00056221):0.00446569):0.00464239,((((4_0_5:0.00000100,4_0_6:0.00000180):0.00002045,(((4_0_2:0.00000765,(4_0_0:0.00000178,(4_0_1:0.00000001,4_0_4:0.00000035):0.00000081):0.00000039):0.00000105,((4_0_3:0.00000056,4_0_7:0.00000107):0.00000367,4_0_10:0.00000244):0.00000040):0.00000041,4_0_9:0.00003358):0.00000273):0.00004383,4_0_8:0.00007685):0.00868979,((((((19_0_7:0.00000553,(19_0_4:0.00000942,19_0_9:0.00000424):0.00000280):0.00000395,(((19_0_8:0.00000010,19_0_6:0.00000032):0.00000339,(19_0_10:0.00000121,19_0_1:0.00000207):0.00000147):0.00000380,(19_0_2:0.00000437,(19_0_0:0.00000018,19_0_5:0.00000008):0.00000079):0.00002414):0.00001292):0.00000343,19_0_3:0.00000272):0.00117822,(((7_0_1:0.00000020,7_0_9:0.00000021):0.00000453,(7_0_7:0.00000237,7_0_5:0.00000035):0.00000102):0.00004929,(((((7_0_0:0.00000096,7_0_8:0.00000331):0.00000246,7_0_6:0.00000533):0.00000412,7_0_4:0.00001286):0.00001436,(7_0_3:0.00000388,7_0_2:0.00000631):0.00000607):0.00000292,7_0_10:0.00001143):0.00002809):0.00089828):0.00096076,(((17_0_8:0.00002220,(17_0_1:0.00001807,((17_0_10:0.00000158,17_0_3:0.00000079):0.00000216,((17_0_2:0.00000029,17_0_7:0.00000012):0.00000204,(17_0_0:0.00000146,17_0_4:0.00000177):0.00000137):0.00000072):0.00000267):0.00000115):0.00001196,((17_0_9:0.00000147,17_0_5:0.00000330):0.00000481,17_0_6:0.00000841):0.00000795):0.00471638,((((16_0_4:0.00000550,(16_0_0:0.00000104,16_0_8:0.00000128):0.00000648):0.00002218,(((16_0_10:0.00000199,(16_0_6:0.00000112,16_0_3:0.00000055):0.00000042):0.00000583,16_0_2:0.00000808):0.00000154,((16_0_1:0.00000069,16_0_7:0.00000179):0.00000061,(16_0_9:0.00000842,16_0_5:0.00000760):0.00000066):0.00000927):0.00003709):0.00259272,(((((1_0_4:0.00000057,1_0_0:0.00000227):0.00000089,1_0_3:0.00000153):0.00000078,1_0_10:0.00000448):0.00007786,((1_0_8:0.00000024,(1_0_7:0.00000168,1_0_5:0.00000075):0.00000499):0.00000823,((1_0_1:0.00000062,1_0_2:0.00000186):0.00000218,(1_0_9:0.00000617,1_0_6:0.00000068):0.00000906):0.00001310):0.00005296):0.00252605,(((10_0_7:0.00000009,10_0_9:0.00000220):0.00000878,(10_0_6:0.00000181,10_0_0:0.00000008):0.00000196):0.00002962,(((10_0_5:0.00000024,10_0_1:0.00000083):0.00000435,10_0_3:0.00000029):0.00002474,(((10_0_2:0.00000004,10_0_8:0.00000004):0.00000196,10_0_4:0.00000109):0.00000057,10_0_10:0.00000220):0.00001027):0.00000727):0.00041971):0.00314624):0.00227213,(((((((13_0_4:0.00000016,13_0_6:0.00000170):0.00005519,((13_0_5:0.00000130,13_0_8:0.00000269):0.00004194,(13_0_7:0.00002075,13_0_3:0.00000637):0.00000083):0.00000101):0.00000474,(((13_0_2:0.00000231,13_0_0:0.00000072):0.00000466,(13_0_1:0.00000006,13_0_10:0.00000347):0.00001448):0.00001504,13_0_9:0.00003862):0.00000522):0.00019755,((11_0_5:0.00000560,((11_0_1:0.00000008,11_0_2:0.00000003):0.00000126,11_0_8:0.00000022):0.00000173):0.00002553,((11_0_0:0.00000229,(11_0_10:0.00000248,((11_0_3:0.00000254,(11_0_9:0.00000109,11_0_7:0.00000078):0.00000197):0.00000139,11_0_4:0.00000254):0.00000030):0.00000604):0.00000498,11_0_6:0.00000486):0.00005929):0.00008938):0.00034914,(6_0_7:0.00003521,((6_0_5:0.00000469,(6_0_0:0.00000094,6_0_6:0.00000531):0.00000061):0.00001463,((6_0_3:0.00000021,6_0_1:0.00000069):0.00000180,(((6_0_8:0.00000091,6_0_10:0.00000033):0.00000048,6_0_4:0.00000182):0.00000123,(6_0_9:0.00000527,6_0_2:0.00000165):0.00000069):0.00000004):0.00001009):0.00000402):0.00169819):0.00023292,(((9_0_0:0.00002040,(9_0_2:0.00000369,9_0_10:0.00001321):0.00002406):0.00000035,((9_0_9:0.00000034,9_0_3:0.00000053):0.00000925,(9_0_5:0.00000044,9_0_1:0.00000262):0.00000167):0.00000729):0.00017736,((9_0_6:0.00000063,9_0_4:0.00000011):0.00000091,(9_0_8:0.00000049,9_0_7:0.00000082):0.00000011):0.00014864):0.00022749):0.00278735,(((((18_0_5:0.00001390,(18_0_9:0.00000259,(18_0_8:0.00000401,((18_0_0:0.00000154,18_0_4:0.00000199):0.00000069,18_0_7:0.00000122):0.00000059):0.00000149):0.00000202):0.00000054,18_0_1:0.00000765):0.00000316,((18_0_2:0.00000225,18_0_10:0.00000251):0.00000972,(18_0_6:0.00000067,18_0_3:0.00000024):0.00001508):0.00000168):0.00003475,(15_0_2:0.00008153,(15_0_6:0.00000004,15_0_0:0.00000000):0.00003059):0.00004287):0.00000116,(((15_0_1:0.00000286,15_0_5:0.00000172):0.00000553,(((15_0_7:0.00000130,15_0_4:0.00000029):0.00000127,(15_0_8:0.00000055,15_0_9:0.00000067):0.00000260):0.00000168,15_0_10:0.00000584):0.00001017):0.00000405,15_0_3:0.00003553):0.00003126):0.00151514):0.00093603):0.00014619):0.00009847):0.00030122,((8_0_1:0.00008669,((((8_0_8:0.00000119,8_0_9:0.00000162):0.00000220,(((8_0_4:0.00000254,8_0_5:0.00000234):0.00000112,(8_0_7:0.00000008,8_0_3:0.00000016):0.00000396):0.00000081,8_0_2:0.00000739):0.00000118):0.00003501,(8_0_6:0.00000453,8_0_0:0.00000018):0.00002360):0.00000970,8_0_10:0.00000301):0.00001766):0.00295306,((2_0_2:0.00008583,(((2_0_8:0.00000254,2_0_0:0.00000556):0.00000003,2_0_9:0.00000547):0.00000137,((2_0_6:0.00000281,(2_0_1:0.00000141,2_0_3:0.00000046):0.00000013):0.00000643,((2_0_4:0.00000015,2_0_10:0.00000007):0.00000089,(2_0_7:0.00000002,2_0_5:0.00000004):0.00000019):0.00001720):0.00000048):0.00010474):0.00024307,((14_0_8:0.00000110,(14_0_1:0.00000022,14_0_4:0.00000245):0.00000131):0.00019510,(14_0_6:0.00000201,(14_0_9:0.00000648,(((14_0_10:0.00000040,14_0_5:0.00000029):0.00000119,14_0_7:0.00000600):0.00000521,(14_0_3:0.00000727,(14_0_0:0.00000218,14_0_2:0.00000080):0.00000248):0.00000624):0.00000194):0.00000983):0.00003546):0.00104064):0.00202329):0.00228119):0.00053038):0.00064117):0.19822265,(((((20_0_5:0.00000086,20_0_7:0.00000033):0.00000101,(20_0_3:0.00000051,(20_0_4:0.00000013,20_0_0:0.00000011):0.00000045):0.00000179):0.00000316,20_0_9:0.00001232):0.00000128,(20_0_1:0.00000800,20_0_8:0.00000959):0.00000487):0.00000179,(20_0_10:0.00000095,(20_0_2:0.00000024,20_0_6:0.00000018):0.00000027):0.00002131):0.04767263):0.05973365);

data_06	T06	221	1	1	0.378916	0.231899	0.266122	(0_0_0:0.03422256,((((((5_0_7:0.00000061,(5_0_3:0.00000124,(5_0_4:0.00000043,5_0_9:0.00000050):0.00000022):0.00000187):0.00002090,((5_0_2:0.00000589,(5_0_1:0.00000265,5_0_5:0.00000252):0.00000253):0.00000715,(5_0_8:0.00001144,((5_0_10:0.00001140,5_0_6:0.00000471):0.00000023,5_0_0:0.00001126):0.00000859):0.00000721):0.00001288):0.00019053,((3_0_4:0.00001031,((((3_0_6:0.00000100,3_0_8:0.00000894):0.00000034,3_0_7:0.00000062):0.00000032,3_0_5:0.00000536):0.00000109,((3_0_9:0.00000018,3_0_1:0.00000020):0.00000019,(3_0_3:0.00000005,3_0_2:0.00000008):0.00000012):0.00000175):0.00002190):0.00001332,(3_0_10:0.00000190,3_0_0:0.00000307):0.00003020):0.00065617):0.01103064,(((12_0_7:0.00000200,12_0_9:0.00000093):0.00000081,(12_0_6:0.00000037,(12_0_3:0.00000003,12_0_2:0.00000009):0.00000034):0.00000199):0.00000253,((12_0_4:0.00000346,((12_0_0:0.00000069,12_0_1:0.00000030):0.00000001,(12_0_5:0.00000034,12_0_8:0.00000058):0.00000072):0.00000032):0.00000046,12_0_10:0.00000201):0.00000147):0.00531720):0.00034235,((((((8_0_3:0.00002251,((8_0_5:0.00000082,(8_0_6:0.00000283,8_0_10:0.00000106):0.00000008):0.00000710,(8_0_4:0.00000492,((8_0_2:0.00000006,8_0_1:0.00000006):0.00000207,8_0_8:0.00000264):0.00000043):0.00000033):0.00000842):0.00000271,8_0_0:0.00001794):0.00000684,(8_0_7:0.00000007,8_0_9:0.00000005):0.00001949):0.00185435,((((2_0_1:0.00000003,(2_0_8:0.00000039,2_0_4:0.00000042):0.00000417):0.00001117,((2_0_6:0.00000014,(2_0_9:0.00000003,2_0_5:0.00000088):0.00000020):0.00000061,2_0_0:0.00000279):0.00000914):0.00001470,((2_0_3:0.00000226,(2_0_10:0.00000026,2_0_2:0.00000028):0.00000148):0.00001132,2_0_7:0.00001044):0.00003609):0.00057032,(((14_0_3:0.00000647,14_0_4:0.00000149):0.00000211,(((14_0_0:0.00000059,14_0_7:0.00000015):0.00000450,14_0_8:0.00000090):0.00000327,14_0_1:0.00001255):0.00000188):0.00007418,((14_0_10:0.00000417,(14_0_5:0.00000056,14_0_2:0.00000031):0.00000398):0.00000121,(14_0_6:0.00000225,14_0_9:0.00000888):0.00000142):0.00000394):0.00051830):0.00182630):0.00216218,((((17_0_9:0.00002032,(((17_0_10:0.00000047,17_0_1:0.00000061):0.00000149,17_0_3:0.00000136):0.00000709,((17_0_7:0.00000233,17_0_5:0.00000063):0.00000015,17_0_0:0.00000045):0.00000317):0.00000329):0.00003856,((17_0_8:0.00001175,(17_0_2:0.00000043,17_0_6:0.00000013):0.00000488):0.00005942,17_0_4:0.00005233):0.00001818):0.00686984,((((((16_0_0:0.00000013,16_0_10:0.00000123):0.00000068,16_0_1:0.00000287):0.00002112,(((((16_0_4:0.00000169,16_0_6:0.00000127):0.00000044,16_0_2:0.00000054):0.00000220,16_0_3:0.00000619):0.00000010,16_0_7:0.00000632):0.00000339,(16_0_8:0.00000089,16_0_5:0.00000438):0.00000984):0.00001731):0.00001345,16_0_9:0.00009640):0.01818712,((((10_0_5:0.00000065,10_0_8:0.00000004):0.00000294,10_0_10:0.00000156):0.00001455,(((((10_0_4:0.00000038,10_0_3:0.00000010):0.00000018,10_0_6:0.00000040):0.00000591,(10_0_9:0.00000095,10_0_1:0.00000011):0.00000119):0.00000046,10_0_2:0.00000362):0.00000529,(10_0_7:0.00000134,10_0_0:0.00000228):0.00001927):0.00000588):0.00308071,((1_0_5:0.00003806,((1_0_3:0.00000230,1_0_6:0.00000038):0.00000760,1_0_9:0.00000555):0.00005649):0.00000241,(((1_0_8:0.00000593,(1_0_2:0.00000616,((1_0_7:0.00000010,1_0_4:0.00000022):0.00000019,1_0_0:0.00000002):0.00000059):0.00000261):0.00000101,1_0_1:0.00000403):0.00000011,1_0_10:0.00000727):0.00000527):0.00134345):0.00663591):0.00104525,(((((18_0_6:0.00000136,18_0_0:0.00000028):0.00003343,((18_0_5:0.00003298,18_0_2:0.00001166):0.00001050,((18_0_1:0.00000107,18_0_10:0.00000092):0.00000325,18_0_4:0.00001669):0.00000615):0.00001549):0.00000380,(18_0_9:0.00000293,((18_0_3:0.00000237,18_0_7:0.00000054):0.00000314,18_0_8:0.00000884):0.00000106):0.00004026):0.00008588,(((15_0_2:0.00000892,15_0_5:0.00000766):0.00000255,(((15_0_10:0.00000024,15_0_4:0.00000016):0.00000266,(15_0_0:0.00000183,15_0_8:0.00000158):0.00000257):0.00000609,((15_0_3:0.00000032,15_0_1:0.00000160):0.00000188,15_0_6:0.00000474):0.00000294):0.00000490):0.00001530,(15_0_7:0.00000002,15_0_9:0.00000021):0.00000913):0.00007092):0.00159381,((((((((11_0_0:0.00000072,11_0_5:0.00000385):0.00000149,11_0_6:0.00000348):0.00001458,(11_0_4:0.00000310,(11_0_9:0.00000152,(11_0_7:0.00000052,11_0_8:0.00000057):0.00000012):0.00000153):0.00000374):0.00000414,11_0_2:0.00000395):0.00008010,((11_0_1:0.00000047,11_0_3:0.00000039):0.00000462,11_0_10:0.00000155):0.00003521):0.00033306,((((13_0_10:0.00000256,13_0_5:0.00000352):0.00000204,(13_0_7:0.00000221,13_0_9:0.00000018):0.00002547):0.00000327,(((13_0_8:0.00000063,13_0_1:0.00000068):0.00000030,13_0_2:0.00000059):0.00001662,(13_0_4:0.00000157,13_0_6:0.00000179):0.00000597):0.00000163):0.00005114,(13_0_0:0.00000216,13_0_3:0.00000301):0.00014730):0.00008295):0.00087823,((6_0_0:0.00000855,(((6_0_10:0.00000224,6_0_1:0.00000343):0.00000556,(6_0_3:0.00000213,6_0_8:0.00000449):0.00000378):0.00000073,(6_0_9:0.00000808,(6_0_2:0.00000091,((6_0_4:0.00000047,6_0_6:0.00000021):0.00000013,6_0_7:0.00000154):0.00000086):0.00000229):0.00000391):0.00000260):0.00008317,6_0_5:0.00003604):0.00036784):0.00040140,(((9_0_6:0.00000033,9_0_8:0.00000037):0.00000055,9_0_1:0.00000549):0.00001707,((((9_0_2:0.00000056,9_0_4:0.00000036):0.00000072,(9_0_10:0.00000064,9_0_7:0.00000006):0.00000201):0.00000545,9_0_5:0.00000825):0.00001350,(9_0_0:0.00000729,(9_0_9:0.00000014,9_0_3:0.00000209):0.00000267):0.00000388):0.00006240):0.00148093):0.00102147):0.00112558):0.00022778):0.00046237,((((19_0_8:0.00000243,19_0_5:0.00000663):0.00000511,((19_0_7:0.00000329,19_0_10:0.00000139):0.00001436,(19_0_4:0.00000047,(19_0_6:0.00000010,19_0_2:0.00000057):0.00000060):0.00000162):0.00000022):0.00012853,((19_0_0:0.00000076,19_0_3:0.00000646):0.00000031,(19_0_9:0.00000507,19_0_1:0.00000260):0.00000440):0.00011504):0.00215116,(((7_0_3:0.00000363,(7_0_7:0.00000040,7_0_5:0.00000042):0.00000317):0.00000177,(7_0_9:0.00000337,(7_0_10:0.00000022,7_0_6:0.00000043):0.00000222):0.00000018):0.00001163,((7_0_8:0.00000455,7_0_1:0.00000863):0.00000067,(7_0_4:0.00000153,(7_0_0:0.00000321,7_0_2:0.00000319):0.00000044):0.00001546):0.00003243):0.00031149):0.00544244):0.00032932):0.00217005,(((4_0_0:0.00000111,4_0_7:0.00000066):0.00000328,4_0_10:0.00000378):0.00001257,(((4_0_6:0.00000084,4_0_3:0.00000176):0.00000003,4_0_1:0.00000192):0.00002201,((4_0_5:0.00000565,4_0_8:0.00001076):0.00000527,((4_0_9:0.00000006,4_0_4:0.00000022):0.00000189,4_0_2:0.00000350):0.00001090):0.00000173):0.00003811):0.00166584):0.00023873):0.13151808,((((20_0_4:0.00000253,(20_0_8:0.00000727,20_0_7:0.00000163):0.00000133):0.00000886,(20_0_0:0.00001497,20_0_9:0.00001353):0.00000117):0.00000308,((20_0_10:0.00000107,20_0_2:0.00000296):0.00000236,20_0_1:0.00000480):0.00000647):0.00001634,(20_0_3:0.00000220,(20_0_5:0.00000109,20_0_6:0.00000114):0.00000162):0.00000515):0.05063340):0.07762426);

data_07	T07	221	1	1	0.628866	0.391585	0.505615	(((((20_0_0:0.00000002,20_0_4:0.00000028):0.00000205,(20_0_1:0.00000916,(20_0_3:0.00000009,20_0_10:0.00000004):0.00000547):0.00001699):0.00002364,((20_0_2:0.00001040,20_0_7:0.00000388):0.00000156,((20_0_6:0.00000181,20_0_8:0.00000625):0.00001480,(20_0_5:0.00000048,20_0_9:0.00000069):0.00000390):0.00000113):0.00000734):0.08982061,(((((((17_0_7:0.00002785,(17_0_10:0.00000171,17_0_3:0.00000039):0.00001116):0.00003035,(17_0_0:0.00001558,(((17_0_8:0.00000134,17_0_9:0.00000094):0.00000639,17_0_4:0.00000640):0.00000229,((17_0_1:0.00000239,(17_0_6:0.00000070,17_0_5:0.00000323):0.00000103):0.00000074,17_0_2:0.00000651):0.00000083):0.00006537):0.00001885):0.00013061,(((((((15_0_0:0.00000016,(15_0_3:0.00000035,15_0_5:0.00000009):0.00000000):0.00000020,15_0_9:0.00000013):0.00001153,(((15_0_1:0.00000147,(15_0_8:0.00000058,15_0_7:0.00000020):0.00000130):0.00000499,(15_0_2:0.00000564,(15_0_4:0.00000104,15_0_6:0.00000009):0.00000762):0.00000063):0.00001674,15_0_10:0.00000420):0.00001229):0.00006229,18_0_7:0.00022434):0.00007496,(18_0_2:0.00002580,(18_0_10:0.00000462,((18_0_8:0.00000011,18_0_9:0.00000019):0.00001834,((((18_0_4:0.00000206,18_0_3:0.00000236):0.00000016,18_0_1:0.00000515):0.00000091,18_0_6:0.00000169):0.00000301,(18_0_5:0.00000019,18_0_0:0.00000146):0.00000843):0.00000390):0.00000441):0.00000095):0.00005818):0.00256176,((((9_0_2:0.00000287,(9_0_10:0.00000010,9_0_0:0.00000023):0.00000666):0.00000893,(9_0_7:0.00000207,(9_0_3:0.00000056,9_0_4:0.00000070):0.00000049):0.00000795):0.00002094,(9_0_6:0.00000945,((9_0_5:0.00002825,(9_0_8:0.00000335,9_0_9:0.00000359):0.00000121):0.00001127,9_0_1:0.00000261):0.00000194):0.00001512):0.00099887,((((13_0_0:0.00000001,13_0_6:0.00000006):0.00004999,(13_0_9:0.00002417,((13_0_3:0.00000507,((13_0_10:0.00000086,13_0_5:0.00000001):0.00000016,13_0_1:0.00000119):0.00000092):0.00001653,(13_0_7:0.00001286,((13_0_2:0.00000026,13_0_4:0.00000005):0.00000161,13_0_8:0.00000076):0.00000363):0.00000629):0.00000043):0.00003388):0.00016832,(((11_0_8:0.00000182,11_0_6:0.00000439):0.00000018,11_0_2:0.00000906):0.00001244,(((11_0_9:0.00000339,11_0_4:0.00000187):0.00000771,(((11_0_5:0.00000013,11_0_7:0.00000007):0.00000114,11_0_3:0.00000133):0.00000177,11_0_1:0.00000439):0.00000114):0.00000551,(11_0_10:0.00000140,11_0_0:0.00000182):0.00002149):0.00001246):0.00056715):0.00022180,(((6_0_8:0.00000187,6_0_0:0.00000065):0.00001667,(6_0_9:0.00002685,((6_0_5:0.00000093,6_0_2:0.00000017):0.00000405,(6_0_1:0.00000049,6_0_7:0.00000005):0.00000861):0.00000228):0.00000632):0.00000792,((6_0_4:0.00000470,6_0_10:0.00000349):0.00000760,(6_0_3:0.00000048,6_0_6:0.00000054):0.00000090):0.00001794):0.00033994):0.00052432):0.00580633):0.00218771,((((((1_0_5:0.00000463,(1_0_1:0.00000216,1_0_8:0.00000027):0.00000050):0.00002402,(1_0_0:0.00000152,1_0_3:0.00000070):0.00001811):0.00000009,1_0_4:0.00003572):0.00000723,((1_0_7:0.00000974,((1_0_10:0.00000263,1_0_9:0.00000566):0.00000134,1_0_6:0.00000363):0.00000017):0.00000731,1_0_2:0.00000166):0.00000300):0.00048456,((((((10_0_0:0.00000099,10_0_5:0.00000291):0.00000136,(10_0_9:0.00000011,10_0_10:0.00000005):0.00000078):0.00000012,10_0_1:0.00000262):0.00000252,(10_0_8:0.00000030,10_0_7:0.00000031):0.00000201):0.00002308,((10_0_6:0.00000031,10_0_3:0.00000047):0.00000465,10_0_4:0.00000403):0.00000398):0.00001620,10_0_2:0.00008394):0.00113304):0.00566801,((((16_0_1:0.00000090,16_0_6:0.00000076):0.00000560,16_0_7:0.00000409):0.00000280,16_0_2:0.00001226):0.00003448,((16_0_5:0.00000012,16_0_3:0.00000009):0.00000757,(((16_0_0:0.00000272,(16_0_8:0.00000208,16_0_4:0.00000007):0.00000085):0.00000596,16_0_10:0.00000040):0.00000077,16_0_9:0.00000551):0.00000373):0.00018870):0.00902307):0.00397281):0.00013040):0.00023553,(((19_0_8:0.00000574,19_0_6:0.00000673):0.00000814,((((19_0_2:0.00000015,19_0_0:0.00000032):0.00000124,(19_0_9:0.00000070,19_0_5:0.00000136):0.00001618):0.00000261,19_0_7:0.00000580):0.00001985,(19_0_4:0.00000852,((19_0_10:0.00000257,19_0_1:0.00000742):0.00000136,19_0_3:0.00000134):0.00000182):0.00002151):0.00000047):0.00199461,(7_0_2:0.00006234,((((7_0_4:0.00000116,7_0_5:0.00000100):0.00000258,(7_0_3:0.00000279,(7_0_6:0.00000145,7_0_9:0.00000184):0.00000044):0.00000254):0.00001150,(7_0_0:0.00000140,((7_0_10:0.00000016,7_0_7:0.00000004):0.00000031,7_0_8:0.00000008):0.00000358):0.00000952):0.00000460,7_0_1:0.00001734):0.00000548):0.00119631):0.00509384):0.00028096,((((8_0_10:0.00000002,8_0_5:0.00000004):0.00000198,((8_0_2:0.00000077,8_0_1:0.00000140):0.00000289,8_0_7:0.00000267):0.00000090):0.00002617,((8_0_4:0.00000049,(8_0_6:0.00000011,8_0_8:0.00000033):0.00000607):0.00001764,(8_0_9:0.00000099,(8_0_0:0.00000124,8_0_3:0.00000097):0.00000011):0.00001235):0.00002207):0.00165947,((((((2_0_0:0.00000046,2_0_1:0.00000123):0.00000023,2_0_6:0.00000070):0.00000190,(2_0_2:0.00000773,2_0_4:0.00000301):0.00000222):0.00000205,(2_0_9:0.00000295,2_0_3:0.00000367):0.00000373):0.00000793,((2_0_8:0.00000138,2_0_7:0.00000071):0.00000314,(2_0_10:0.00000320,2_0_5:0.00000084):0.00000174):0.00010328):0.00073940,(14_0_3:0.00000922,((14_0_1:0.00000164,14_0_9:0.00000430):0.00001061,((14_0_4:0.00002063,(14_0_2:0.00000200,(14_0_0:0.00000234,14_0_7:0.00000153):0.00000372):0.00000189):0.00000910,(((14_0_6:0.00000201,14_0_10:0.00000106):0.00000011,14_0_5:0.00000026):0.00000538,14_0_8:0.00000941):0.00000306):0.00001916):0.00000632):0.00018202):0.00245858):0.00780975):0.00186495,(((4_0_3:0.00000401,4_0_7:0.00001672):0.00000795,((4_0_9:0.00000046,4_0_8:0.00000078):0.00000124,(((4_0_6:0.00000066,(4_0_4:0.00000093,4_0_0:0.00000071):0.00000107):0.00000621,(4_0_5:0.00000374,4_0_2:0.00000212):0.00000104):0.00000335,4_0_10:0.00000253):0.00000009):0.00001157):0.00011048,4_0_1:0.00010532):0.00949115):0.00046303,((((((3_0_5:0.00000587,(((3_0_10:0.00000155,((3_0_2:0.00000014,3_0_1:0.00000004):0.00000017,3_0_7:0.00000294):0.00000076):0.00000431,3_0_8:0.00000262):0.00000049,3_0_6:0.00000048):0.00000070):0.00001106,3_0_3:0.00003604):0.00000563,3_0_4:0.00000623):0.00000175,(3_0_9:0.00000225,3_0_0:0.00000359):0.00002385):0.00039843,(((5_0_2:0.00000763,5_0_8:0.00000124):0.00000802,(5_0_1:0.00000289,5_0_5:0.00001070):0.00001134):0.00002194,(((5_0_10:0.00000114,5_0_6:0.00000106):0.00000352,5_0_9:0.00000411):0.00001047,(5_0_4:0.00001584,(5_0_7:0.00000311,(5_0_0:0.00000138,5_0_3:0.00000248):0.00000000):0.00001096):0.00001130):0.00001416):0.00144225):0.00171251,((12_0_1:0.00002733,(12_0_3:0.00001280,12_0_8:0.00002347):0.00000462):0.00010039,(12_0_5:0.00001333,((12_0_10:0.00000576,((12_0_9:0.00000026,12_0_7:0.00000382):0.00000005,(12_0_2:0.00000090,(12_0_6:0.00000056,12_0_0:0.00000015):0.00000028):0.00000130):0.00000020):0.00000043,12_0_4:0.00000967):0.00000363):0.00004779):0.00722629):0.00043402):0.04135785):0.02416034,0_0_0:0.39158466);

data_08	T08	221	1	1	0.32966	0.135954	0.23038	((((((((((12_0_5:0.00000086,12_0_1:0.00000142):0.00000015,12_0_0:0.00000051):0.00000411,(12_0_8:0.00000233,12_0_6:0.00000652):0.00000028):0.00000009,12_0_2:0.00000669):0.00000346,(12_0_9:0.00000177,12_0_4:0.00000046):0.00000740):0.00004051,((12_0_10:0.00000567,12_0_3:0.00000384):0.00000238,12_0_7:0.00000558):0.00001475):0.00316204,((((5_0_5:0.00001339,5_0_3:0.00001052):0.00001053,5_0_10:0.00001963):0.00000209,(((5_0_0:0.00000105,5_0_6:0.00000234):0.00000412,5_0_8:0.00000386):0.00000995,(5_0_4:0.00000989,(5_0_2:0.00000194,((5_0_7:0.00000394,5_0_1:0.00000152):0.00000037,5_0_9:0.00000119):0.00000030):0.00000789):0.00003247):0.00000305):0.00041635,(((3_0_4:0.00000468,(3_0_1:0.00000464,3_0_8:0.00000041):0.00000138):0.00002303,(3_0_10:0.00001174,(3_0_3:0.00000023,(3_0_2:0.00000139,3_0_6:0.00000218):0.00000027):0.00000413):0.00000103):0.00000433,((3_0_7:0.00000177,3_0_0:0.00000164):0.00001030,(3_0_5:0.00000531,3_0_9:0.00000047):0.00000910):0.00000212):0.00056452):0.00432881):0.00019235,(((((4_0_5:0.00000128,(4_0_8:0.00000046,4_0_1:0.00000025):0.00000168):0.00000230,((4_0_6:0.00000151,4_0_7:0.00000104):0.00000321,4_0_0:0.00001370):0.00000085):0.00000708,(4_0_9:0.00000383,((4_0_10:0.00000004,4_0_4:0.00000072):0.00000687,4_0_2:0.00000895):0.00001319):0.00000185):0.00001827,4_0_3:0.00001599):0.00035340,((((((((17_0_4:0.00000055,17_0_5:0.00000026):0.00000068,(17_0_6:0.00000054,(17_0_9:0.00000552,17_0_8:0.00000200):0.00000006):0.00000006):0.00000479,17_0_0:0.00000751):0.00001227,(17_0_2:0.00000681,(17_0_3:0.00000103,17_0_7:0.00000275):0.00000828):0.00001234):0.00011860,(17_0_1:0.00000114,17_0_10:0.00000041):0.00002921):0.00171025,((((16_0_10:0.00000379,16_0_8:0.00000179):0.00000849,(((16_0_0:0.00000870,16_0_6:0.00001572):0.00000310,((16_0_4:0.00000102,16_0_9:0.00000016):0.00000026,(16_0_3:0.00000097,16_0_1:0.00000149):0.00000260):0.00000401):0.00000941,((16_0_7:0.00000032,16_0_5:0.00000066):0.00000034,16_0_2:0.00000083):0.00001154):0.00001352):0.00084643,((((1_0_4:0.00000105,((1_0_8:0.00000028,1_0_7:0.00000047):0.00000162,1_0_6:0.00000076):0.00000011):0.00000392,((1_0_0:0.00000117,1_0_9:0.00000209):0.00001046,(1_0_10:0.00000366,((1_0_2:0.00000009,1_0_1:0.00000005):0.00000194,1_0_5:0.00000871):0.00000073):0.00000096):0.00000777):0.00000161,1_0_3:0.00002879):0.00197040,(((10_0_1:0.00000176,((10_0_0:0.00000053,10_0_9:0.00000046):0.00000025,10_0_4:0.00000048):0.00000277):0.00002904,(10_0_7:0.00001755,(10_0_8:0.00000508,10_0_5:0.00000734):0.00004586):0.00002417):0.00002858,(((10_0_2:0.00000280,10_0_10:0.00000163):0.00000008,10_0_6:0.00000249):0.00000731,10_0_3:0.00001340):0.00004505):0.00067563):0.00052756):0.00725590,((((((11_0_1:0.00000687,11_0_0:0.00000394):0.00002926,(((11_0_3:0.00000309,11_0_9:0.00000246):0.00000331,(11_0_8:0.00000093,11_0_6:0.00000010):0.00000617):0.00000176,(11_0_10:0.00000082,(11_0_4:0.00000177,(11_0_7:0.00000270,(11_0_5:0.00000007,11_0_2:0.00000015):0.00000054):0.00000056):0.00000009):0.00000204):0.00002082):0.00003504,((13_0_10:0.00001973,(((13_0_7:0.00000061,13_0_4:0.00000049):0.00000190,(13_0_2:0.00000227,(13_0_8:0.00000024,13_0_6:0.00000121):0.00000298):0.00000010):0.00000887,(13_0_1:0.00000040,13_0_9:0.00000010):0.00000347):0.00001518):0.00003280,((13_0_0:0.00000163,13_0_5:0.00000213):0.00000212,13_0_3:0.00002171):0.00006167):0.00005438):0.00010207,((6_0_4:0.00000131,6_0_9:0.00000116):0.00001050,(((6_0_3:0.00000849,(6_0_1:0.00000813,(6_0_2:0.00000172,6_0_7:0.00000253):0.00000128):0.00000238):0.00000049,((6_0_5:0.00000137,6_0_10:0.00000233):0.00000287,(6_0_6:0.00000296,6_0_0:0.00000139):0.00000763):0.00000026):0.00000240,6_0_8:0.00000991):0.00000158):0.00020872):0.00067258,(((((9_0_1:0.00000336,9_0_4:0.00000115):0.00000739,((9_0_6:0.00000752,9_0_5:0.00000132):0.00000043,((9_0_9:0.00000135,9_0_3:0.00000225):0.00000001,9_0_8:0.00000102):0.00001078):0.00000036):0.00000146,9_0_0:0.00000348):0.00000447,(9_0_2:0.00000155,9_0_10:0.00000307):0.00000919):0.00003066,9_0_7:0.00002806):0.00007963):0.00603747,(((15_0_2:0.00000000,15_0_5:0.00000000):0.00001414,((15_0_7:0.00000555,((15_0_4:0.00000324,15_0_10:0.00000265):0.00000000,15_0_1:0.00001080):0.00000034):0.00000050,(15_0_0:0.00000014,15_0_9:0.00000008):0.00000499):0.00000108):0.00007230,((15_0_3:0.00000464,(15_0_6:0.00000078,15_0_8:0.00000162):0.00000044):0.00009468,((18_0_5:0.00001059,((18_0_4:0.00000077,18_0_6:0.00000107):0.00000266,18_0_1:0.00000190):0.00000135):0.00000134,((18_0_0:0.00000144,(((18_0_9:0.00000025,18_0_8:0.00000055):0.00000026,18_0_3:0.00000051):0.00000003,18_0_7:0.00000105):0.00000071):0.00000557,(18_0_2:0.00000005,18_0_10:0.00000022):0.00000214):0.00000072):0.00006305):0.00000752):0.00728819):0.00108206):0.00027391):0.00027372,((((19_0_5:0.00000642,19_0_2:0.00000532):0.00001340,((((19_0_7:0.00000185,19_0_10:0.00000078):0.00000150,19_0_4:0.00000893):0.00000047,(19_0_1:0.00000191,(19_0_8:0.00000102,19_0_3:0.00000042):0.00000009):0.00000476):0.00000489,19_0_9:0.00001268):0.00000347):0.00005795,(19_0_0:0.00002829,19_0_6:0.00001036):0.00002871):0.00548207,((7_0_0:0.00001158,(7_0_9:0.00000133,(7_0_7:0.00000005,7_0_2:0.00000011):0.00000060):0.00000337):0.00004340,(((7_0_1:0.00000070,7_0_10:0.00000058):0.00000012,(7_0_3:0.00000088,7_0_4:0.00000042):0.00000084):0.00003510,((7_0_8:0.00000597,7_0_5:0.00000094):0.00000726,7_0_6:0.00001210):0.00000570):0.00001102):0.00359083):0.00230429):0.00026903,(((14_0_1:0.00001653,(((14_0_8:0.00000338,(14_0_4:0.00000010,14_0_3:0.00000067):0.00000207):0.00000264,(14_0_10:0.00000040,14_0_7:0.00000060):0.00000588):0.00001966,(((14_0_2:0.00000042,14_0_0:0.00000025):0.00000653,(14_0_9:0.00000003,14_0_5:0.00000005):0.00000046):0.00000027,14_0_6:0.00000303):0.00000569):0.00000305):0.00071226,((((2_0_4:0.00000062,2_0_0:0.00000038):0.00001225,(2_0_7:0.00000399,2_0_3:0.00000446):0.00001060):0.00000059,((2_0_2:0.00000027,2_0_8:0.00000007):0.00000389,2_0_10:0.00000225):0.00001179):0.00004985,(2_0_6:0.00001208,(2_0_1:0.00001294,(2_0_9:0.00000715,2_0_5:0.00000099):0.00000773):0.00000001):0.00010136):0.00094111):0.00113421,(((8_0_7:0.00000116,8_0_10:0.00000048):0.00001134,((8_0_8:0.00000042,8_0_0:0.00000010):0.00000789,(8_0_9:0.00000184,8_0_2:0.00000391):0.00000957):0.00000256):0.00000508,(((8_0_3:0.00000219,8_0_6:0.00000082):0.00000349,(8_0_4:0.00000140,8_0_5:0.00000004):0.00000215):0.00000089,8_0_1:0.00001500):0.00001478):0.00166780):0.00260897):0.00217124):0.00053290):0.04228884,((20_0_5:0.00000085,20_0_9:0.00000044):0.00002119,((20_0_8:0.00000125,20_0_0:0.00000131):0.00000479,((20_0_2:0.00000076,20_0_4:0.00000088):0.00003257,((((20_0_10:0.00000017,20_0_6:0.00000003):0.00000287,20_0_7:0.00000269):0.00000174,20_0_3:0.00000406):0.00000275,20_0_1:0.00000689):0.00001302):0.00000107):0.00000126):0.05038419):0.08036194,0_0_0:0.09442591);

data_09	T09	221	1	1	0.410376	0.186212	0.246679	(0_0_0:0.06046735,(((20_0_5:0.00000137,(20_0_0:0.00000111,20_0_8:0.00000055):0.00000247):0.00002746,(((20_0_3:0.00000154,20_0_1:0.00000117):0.00000450,(20_0_9:0.00000374,(20_0_7:0.00000001,20_0_2:0.00000034):0.00000299):0.00000007):0.00001805,((20_0_6:0.00000316,20_0_4:0.00000241):0.00000819,20_0_10:0.00001252):0.00000159):0.00000287):0.11782717,(((((5_0_2:0.00000590,5_0_6:0.00000164):0.00005400,((5_0_1:0.00000340,(5_0_8:0.00000167,(5_0_0:0.00000060,(5_0_3:0.00000035,(5_0_5:0.00000027,5_0_4:0.00000014):0.00000013):0.00000021):0.00000235):0.00000013):0.00000859,(5_0_10:0.00001211,(5_0_9:0.00000314,5_0_7:0.00000024):0.00000073):0.00000556):0.00001956):0.00025383,(3_0_0:0.00010250,(3_0_1:0.00003306,(((3_0_2:0.00000080,3_0_9:0.00000119):0.00000394,3_0_6:0.00000288):0.00001330,((((3_0_7:0.00000069,3_0_10:0.00000051):0.00000035,3_0_8:0.00000306):0.00000081,(3_0_3:0.00000030,3_0_4:0.00000154):0.00000141):0.00000413,3_0_5:0.00000822):0.00000151):0.00002099):0.00024005):0.00051502):0.00157910,(((12_0_10:0.00000975,12_0_1:0.00000641):0.00000584,(12_0_9:0.00000049,12_0_4:0.00000050):0.00000823):0.00001520,((12_0_0:0.00000836,(12_0_6:0.00000012,12_0_5:0.00000012):0.00000114):0.00000320,((12_0_2:0.00000344,(12_0_3:0.00000086,12_0_7:0.00000411):0.00000538):0.00000022,12_0_8:0.00001125):0.00000874):0.00002202):0.00103985):0.00204774,((((4_0_1:0.00000397,(4_0_0:0.00000000,4_0_2:0.00000003):0.00000067):0.00004010,(((4_0_9:0.00000143,4_0_4:0.00000700):0.00000016,4_0_5:0.00000098):0.00000393,(4_0_8:0.00000379,(4_0_7:0.00000028,(4_0_3:0.00000200,4_0_10:0.00000041):0.00000015):0.00000102):0.00000706):0.00002445):0.00001232,4_0_6:0.00011224):0.01288739,((((((((16_0_5:0.00000285,(16_0_1:0.00000118,16_0_2:0.00000183):0.00000209):0.00002651,(16_0_4:0.00000347,16_0_7:0.00000567):0.00004950):0.00004797,((16_0_9:0.00000103,16_0_6:0.00000063):0.00000177,((16_0_8:0.00000004,16_0_10:0.00000005):0.00000326,(16_0_0:0.00000022,16_0_3:0.00000218):0.00000242):0.00000435):0.00003748):0.00059437,(((10_0_2:0.00000369,(((10_0_10:0.00000019,10_0_6:0.00000005):0.00000166,10_0_0:0.00000056):0.00000142,(10_0_1:0.00000057,10_0_9:0.00000015):0.00000216):0.00000026):0.00011737,((10_0_5:0.00000132,10_0_8:0.00000229):0.00002977,(10_0_7:0.00002118,(10_0_3:0.00000097,10_0_4:0.00000050):0.00000991):0.00000656):0.00001630):0.00017151,(((1_0_2:0.00001380,((1_0_8:0.00000341,1_0_1:0.00000425):0.00000221,((1_0_4:0.00000049,1_0_10:0.00000018):0.00000021,1_0_6:0.00000046):0.00000379):0.00000517):0.00001207,(1_0_0:0.00000217,1_0_7:0.00000106):0.00004666):0.00016585,((1_0_9:0.00000009,1_0_3:0.00000019):0.00000414,1_0_5:0.00000033):0.00001412):0.00060801):0.00110508):0.00039827,((((((15_0_9:0.00000048,15_0_2:0.00000029):0.00000007,15_0_7:0.00000169):0.00001466,(15_0_1:0.00000457,15_0_0:0.00000115):0.00000189):0.00003009,(15_0_10:0.00000735,(15_0_8:0.00000983,15_0_3:0.00002516):0.00000555):0.00000498):0.00004874,((((18_0_10:0.00000338,18_0_1:0.00000782):0.00000065,18_0_6:0.00000270):0.00006314,((((18_0_4:0.00000112,18_0_9:0.00000188):0.00000058,(((18_0_3:0.00000215,18_0_0:0.00000079):0.00000117,18_0_5:0.00000090):0.00000335,18_0_2:0.00000229):0.00000010):0.00000236,18_0_7:0.00000518):0.00000383,18_0_8:0.00000474):0.00004288):0.00005480,(15_0_5:0.00000761,(15_0_4:0.00000049,15_0_6:0.00000033):0.00000142):0.00004699):0.00001104):0.00399951,((((((13_0_7:0.00003953,13_0_8:0.00004518):0.00001006,((13_0_2:0.00000153,(13_0_10:0.00000017,13_0_0:0.00000006):0.00000063):0.00000280,(13_0_3:0.00000011,13_0_4:0.00000028):0.00000090):0.00002100):0.00001029,((13_0_6:0.00000331,13_0_9:0.00000109):0.00000161,(13_0_1:0.00000010,13_0_5:0.00000065):0.00000811):0.00004525):0.00077848,((11_0_4:0.00000847,(11_0_0:0.00000030,11_0_3:0.00000036):0.00001142):0.00000909,((((11_0_1:0.00000006,11_0_6:0.00000010):0.00000163,11_0_8:0.00000043):0.00000138,((11_0_7:0.00000000,11_0_10:0.00000001):0.00000171,11_0_5:0.00000285):0.00000144):0.00000293,(11_0_9:0.00000120,11_0_2:0.00000681):0.00001951):0.00000498):0.00060707):0.00076779,(((6_0_2:0.00000026,6_0_10:0.00000017):0.00002208,((6_0_0:0.00000871,(6_0_8:0.00000488,6_0_7:0.00000113):0.00000004):0.00000439,(6_0_3:0.00000189,6_0_5:0.00000042):0.00001184):0.00001054):0.00004354,(6_0_1:0.00001083,((6_0_9:0.00000209,6_0_4:0.00000379):0.00001425,6_0_6:0.00000475):0.00000231):0.00002805):0.00026238):0.00025145,((((((9_0_1:0.00000005,9_0_3:0.00000006):0.00000026,(9_0_4:0.00000155,9_0_10:0.00000202):0.00000216):0.00000063,(9_0_8:0.00000141,9_0_2:0.00000011):0.00000121):0.00000369,9_0_6:0.00000317):0.00000078,9_0_9:0.00003249):0.00007556,(9_0_5:0.00001598,(9_0_7:0.00000084,9_0_0:0.00000102):0.00000256):0.00010852):0.00096344):0.00263393):0.00049906):0.00010319,((17_0_7:0.00000021,(17_0_3:0.00000009,17_0_8:0.00000002):0.00000135):0.00001756,(((17_0_0:0.00000067,17_0_6:0.00000049):0.00000418,(17_0_1:0.00000032,17_0_5:0.00000065):0.00000136):0.00001253,(17_0_10:0.00001113,(17_0_4:0.00000326,(17_0_2:0.00001396,17_0_9:0.00000887):0.00000015):0.00001163):0.00003050):0.00029164):0.00201282):0.00029250,((((7_0_2:0.00000676,7_0_1:0.00000263):0.00008136,(7_0_9:0.00000527,((7_0_7:0.00000018,7_0_4:0.00000009):0.00000476,7_0_10:0.00000714):0.00000839):0.00002466):0.00000448,((((7_0_3:0.00000002,7_0_6:0.00000002):0.00000016,7_0_8:0.00000018):0.00000461,7_0_5:0.00000118):0.00000005,7_0_0:0.00000356):0.00000276):0.00509423,((19_0_7:0.00000297,((19_0_6:0.00000260,19_0_2:0.00000142):0.00000212,19_0_1:0.00000680):0.00000071):0.00001232,(((19_0_0:0.00000085,((19_0_4:0.00000000,19_0_9:0.00000001):0.00000462,(19_0_3:0.00000064,19_0_5:0.00000244):0.00000135):0.00000004):0.00000024,19_0_8:0.00000451):0.00001194,19_0_10:0.00000932):0.00001587):0.00167611):0.00373900):0.00012102,((((((14_0_9:0.00000936,(14_0_6:0.00000133,(14_0_10:0.00000046,14_0_8:0.00000092):0.00000019):0.00000062):0.00000025,14_0_5:0.00000635):0.00015058,(14_0_3:0.00000034,14_0_1:0.00000025):0.00001818):0.00000000,((14_0_7:0.00000069,(14_0_0:0.00000042,14_0_4:0.00000034):0.00000014):0.00000488,14_0_2:0.00001036):0.00003692):0.00072201,(((((2_0_0:0.00000124,((2_0_10:0.00000077,2_0_6:0.00000085):0.00000008,2_0_8:0.00000049):0.00000050):0.00000236,2_0_5:0.00000419):0.00000141,(2_0_4:0.00000123,2_0_1:0.00000034):0.00000196):0.00000671,2_0_7:0.00002817):0.00004799,(2_0_9:0.00000299,(2_0_3:0.00000226,2_0_2:0.00000176):0.00001545):0.00006619):0.00083658):0.00133302,(((8_0_3:0.00000463,(8_0_0:0.00000769,8_0_8:0.00000750):0.00001130):0.00004509,(8_0_5:0.00000053,8_0_9:0.00000081):0.00006519):0.00000352,(((8_0_4:0.00000092,8_0_1:0.00000031):0.00000420,(8_0_6:0.00000082,8_0_2:0.00000018):0.00000212):0.00000609,(8_0_7:0.00000044,8_0_10:0.00000074):0.00001706):0.00000875):0.00503601):0.00120638):0.00065164):0.00069262):0.10907453):0.06344480);

data_10	T10	221	1	1	0.408403	0.1751	0.317826	(((((20_0_7:0.00001717,(20_0_10:0.00001047,20_0_1:0.00001719):0.00000601):0.00000978,20_0_3:0.00005161):0.00000666,((20_0_8:0.00000298,20_0_5:0.00000438):0.00000001,((20_0_4:0.00000018,20_0_9:0.00000064):0.00000084,(20_0_2:0.00000064,(20_0_6:0.00000023,20_0_0:0.00000008):0.00000051):0.00000105):0.00000112):0.00004347):0.04170404,(((((((5_0_3:0.00000040,5_0_10:0.00000045):0.00000006,5_0_5:0.00000150):0.00000516,5_0_6:0.00001049):0.00007735,(((5_0_1:0.00000014,5_0_8:0.00000179):0.00001121,5_0_0:0.00003516):0.00001135,((5_0_7:0.00000191,5_0_4:0.00000199):0.00000270,(5_0_9:0.00000020,5_0_2:0.00000006):0.00000852):0.00001232):0.00002099):0.00012857,(((3_0_5:0.00000688,(((3_0_2:0.00000103,3_0_3:0.00000054):0.00000741,3_0_9:0.00000227):0.00000042,((3_0_10:0.00000040,3_0_0:0.00000117):0.00000004,(3_0_6:0.00000032,3_0_7:0.00000109):0.00000018):0.00000612):0.00000286):0.00000202,(3_0_4:0.00000201,3_0_8:0.00000091):0.00000009):0.00001820,3_0_1:0.00002703):0.00055348):0.00561256,(((12_0_10:0.00003302,((12_0_9:0.00000194,((((12_0_3:0.00000002,12_0_4:0.00000008):0.00000078,12_0_8:0.00000046):0.00000019,12_0_5:0.00000270):0.00000049,(12_0_6:0.00000038,12_0_1:0.00000031):0.00000235):0.00000175):0.00000166,12_0_0:0.00001448):0.00000344):0.00000114,12_0_7:0.00004820):0.00007266,12_0_2:0.00008963):0.00429605):0.00506723,((((((((19_0_5:0.00000031,19_0_7:0.00000004):0.00000004,19_0_3:0.00000249):0.00000056,(19_0_2:0.00000026,((19_0_6:0.00000014,19_0_8:0.00000009):0.00000024,19_0_9:0.00000049):0.00000104):0.00000194):0.00000237,((19_0_1:0.00002898,19_0_10:0.00000961):0.00001055,(19_0_4:0.00000280,19_0_0:0.00000182):0.00000729):0.00000047):0.00288438,((7_0_0:0.00004586,(((7_0_1:0.00000221,7_0_8:0.00000617):0.00000082,(((7_0_3:0.00000003,7_0_9:0.00000003):0.00000324,((7_0_4:0.00000004,7_0_7:0.00000020):0.00000005,7_0_2:0.00000049):0.00000110):0.00000068,7_0_5:0.00000061):0.00000064):0.00000143,7_0_10:0.00000362):0.00001302):0.00000837,7_0_6:0.00000869):0.00164589):0.00527663,((((((((18_0_6:0.00000237,((18_0_5:0.00000395,18_0_4:0.00000673):0.00000003,18_0_0:0.00000493):0.00000027):0.00000891,(18_0_3:0.00000012,18_0_10:0.00000041):0.00000948):0.00000070,(18_0_8:0.00000537,((18_0_2:0.00000683,18_0_9:0.00000017):0.00000005,18_0_1:0.00001322):0.00000082):0.00000454):0.00004013,18_0_7:0.00002887):0.00003465,((((15_0_9:0.00000052,15_0_10:0.00000012):0.00000247,(15_0_6:0.00000064,15_0_8:0.00000197):0.00000063):0.00002013,(15_0_5:0.00000083,15_0_2:0.00000039):0.00001168):0.00006644,(15_0_7:0.00000164,(((15_0_0:0.00000001,15_0_4:0.00000001):0.00000034,15_0_3:0.00000035):0.00000154,15_0_1:0.00000107):0.00000074):0.00004471):0.00002552):0.00037113,((((((9_0_7:0.00000067,9_0_5:0.00000071):0.00000218,(9_0_9:0.00000550,9_0_6:0.00000102):0.00000039):0.00000064,9_0_2:0.00000180):0.00001440,((9_0_3:0.00000156,9_0_10:0.00000043):0.00000335,9_0_0:0.00000492):0.00000796):0.00006392,((9_0_4:0.00000076,9_0_1:0.00000039):0.00000394,9_0_8:0.00000895):0.00007308):0.00073444,((((6_0_10:0.00002269,(6_0_8:0.00000163,6_0_5:0.00000088):0.00000473):0.00002040,(((6_0_9:0.00000010,6_0_2:0.00000017):0.00000035,6_0_0:0.00000046):0.00000171,6_0_3:0.00000004):0.00000862):0.00000349,((6_0_4:0.00000131,6_0_6:0.00000013):0.00000517,(6_0_1:0.00000000,6_0_7:0.00000001):0.00000597):0.00000320):0.00173548,((((11_0_5:0.00000108,11_0_1:0.00000200):0.00000405,(11_0_2:0.00000832,11_0_7:0.00000484):0.00000078):0.00002006,((((11_0_9:0.00000015,11_0_6:0.00000038):0.00000145,11_0_10:0.00000063):0.00000089,11_0_0:0.00000255):0.00000338,(11_0_4:0.00000497,(11_0_8:0.00000265,11_0_3:0.00000264):0.00000112):0.00001868):0.00000720):0.00067373,(((13_0_10:0.00000714,13_0_7:0.00000731):0.00000267,(13_0_3:0.00000003,13_0_8:0.00000002):0.00001517):0.00001800,(13_0_9:0.00000994,((13_0_5:0.00000068,(13_0_1:0.00000070,(13_0_4:0.00000006,13_0_0:0.00000011):0.00000171):0.00000001):0.00000228,(13_0_6:0.00000289,13_0_2:0.00000210):0.00000059):0.00000021):0.00000484):0.00025102):0.00010487):0.00027474):0.00136211):0.00153876,((((((10_0_6:0.00000116,10_0_9:0.00000168):0.00000161,10_0_4:0.00000424):0.00002241,(10_0_10:0.00000006,10_0_1:0.00000080):0.00001524):0.00002912,(((10_0_7:0.00000019,10_0_8:0.00000150):0.00000774,(10_0_0:0.00000188,10_0_3:0.00000333):0.00000139):0.00000404,(10_0_2:0.00000005,10_0_5:0.00000109):0.00001512):0.00002206):0.00060971,(1_0_1:0.00001792,(((1_0_2:0.00000290,1_0_9:0.00000386):0.00000311,(((1_0_4:0.00000379,(1_0_3:0.00000300,(1_0_6:0.00000018,1_0_10:0.00000018):0.00000075):0.00000120):0.00000037,1_0_0:0.00000287):0.00000259,(1_0_8:0.00000128,1_0_7:0.00000232):0.00000134):0.00000161):0.00000077,1_0_5:0.00000078):0.00000088):0.00010182):0.00158788,(((16_0_8:0.00001047,((16_0_4:0.00001086,16_0_0:0.00001196):0.00000002,(16_0_2:0.00000181,16_0_3:0.00000057):0.00000254):0.00000196):0.00000253,((16_0_1:0.00000009,16_0_6:0.00000028):0.00000083,16_0_10:0.00000032):0.00000957):0.00001407,(16_0_5:0.00000545,(16_0_7:0.00000089,16_0_9:0.00000107):0.00002300):0.00004255):0.02354443):0.00255271):0.00038561,(((17_0_9:0.00001151,((17_0_10:0.00000065,(17_0_0:0.00000016,17_0_3:0.00000022):0.00000571):0.00000011,17_0_1:0.00000058):0.00002357):0.00000325,((17_0_7:0.00000069,17_0_5:0.00000070):0.00000145,17_0_4:0.00002298):0.00000681):0.00000573,(17_0_6:0.00000775,(17_0_8:0.00000169,17_0_2:0.00000489):0.00001098):0.00001318):0.00345164):0.00031723):0.00009655,(((((2_0_7:0.00000260,2_0_5:0.00000503):0.00010585,((((2_0_3:0.00000011,2_0_4:0.00000056):0.00000312,(2_0_9:0.00000074,2_0_10:0.00000116):0.00000018):0.00001496,(2_0_2:0.00000017,2_0_0:0.00000046):0.00001366):0.00000228,2_0_8:0.00000388):0.00004866):0.00000352,(2_0_6:0.00000277,2_0_1:0.00000190):0.00001612):0.00058901,((((14_0_0:0.00000312,14_0_1:0.00000222):0.00000032,14_0_2:0.00000061):0.00002525,(14_0_4:0.00000787,((14_0_7:0.00000682,(14_0_6:0.00000208,14_0_8:0.00000152):0.00000148):0.00000132,(14_0_3:0.00000013,14_0_9:0.00000533):0.00000356):0.00000615):0.00000025):0.00000974,(14_0_10:0.00000033,14_0_5:0.00000026):0.00002577):0.00069357):0.00049115,(((8_0_8:0.00000063,((8_0_5:0.00000055,8_0_10:0.00000021):0.00000043,8_0_6:0.00000099):0.00000044):0.00001724,((8_0_2:0.00000065,8_0_0:0.00000255):0.00000123,8_0_4:0.00000050):0.00000211):0.00000155,((8_0_1:0.00000134,8_0_3:0.00000329):0.00000024,(8_0_7:0.00000009,8_0_9:0.00000013):0.00000144):0.00000561):0.00275854):0.00045040):0.00230465,(((4_0_3:0.00001950,(4_0_1:0.00000462,(4_0_0:0.00000118,(4_0_7:0.00000100,4_0_10:0.00000195):0.00000039):0.00000201):0.00000007):0.00002860,((4_0_8:0.00000001,4_0_6:0.00000000):0.00000049,4_0_9:0.00000151):0.00000774):0.00000444,(4_0_4:0.00000305,(4_0_2:0.00000147,4_0_5:0.00000558):0.00000118):0.00002890):0.00305841):0.00033084):0.09293509):0.05256579,0_0_0:0.14272599);
