Tree file : INDELible V1.03 (best viewed cut and paste in e.g. excel)

N.B. Simulation blocks with no random trees will have their trees printed for the first replicate only.

FILE	TREE	NTAXA	REP	PART	LENGTH	DEPTH	MAX PAIRWISE DISTANCE	TREE STRING

data_01	T01	66	1	1	0.152182	0.115387	0.117483	(0_0_0:0.00209606,((((((((((3_0_2:0.00000059,3_0_12:0.00000109):0.00000166,3_0_6:0.00000082):0.00001439,(3_0_3:0.00000854,3_0_4:0.00000149):0.00000149):0.00002116,3_0_0:0.00002323):0.00007454,(5_0_12:0.00008813,(5_0_7:0.00001018,5_0_4:0.00001925):0.00007101):0.00002390):0.00003450,(((3_0_11:0.00001079,(5_0_1:0.00004600,3_0_7:0.00005790):0.00000184):0.00001356,(3_0_8:0.00001976,(3_0_10:0.00000763,3_0_1:0.00000341):0.00000939):0.00001681):0.00001048,5_0_0:0.00002716):0.00000154):0.00000190,(5_0_3:0.00001893,(5_0_8:0.00013404,((5_0_9:0.00002135,5_0_5:0.00001744):0.00003795,((3_0_5:0.00005019,3_0_9:0.00000094):0.00000708,5_0_2:0.00008863):0.00000248):0.00000499):0.00000152):0.00011138):0.00000230,((4_0_8:0.00000203,4_0_4:0.00000381):0.00007631,((4_0_3:0.00000716,4_0_7:0.00000006):0.00004726,(4_0_6:0.00000527,((4_0_0:0.00000258,4_0_12:0.00000035):0.00000214,4_0_9:0.00000296):0.00000095):0.00008223):0.00000072):0.00003984):0.00095203,(((4_0_2:0.00015788,((4_0_5:0.00000058,4_0_11:0.00000381):0.00000140,4_0_10:0.00001152):0.00001163):0.00002696,4_0_1:0.00011148):0.00024316,((5_0_10:0.00000500,5_0_11:0.00001609):0.00007353,5_0_6:0.00008341):0.00017010):0.00004970):0.02990706,((((((((1_0_7:0.00000429,1_0_2:0.00000430):0.00003670,((1_0_6:0.00000057,1_0_0:0.00000031):0.00000635,1_0_3:0.00000775):0.00001973):0.00001049,1_0_12:0.00000951):0.00001714,(1_0_5:0.00001780,1_0_9:0.00001287):0.00004245):0.00000062,(1_0_4:0.00001325,1_0_1:0.00001439):0.00003521):0.00001049,1_0_10:0.00001675):0.00005621,((1_0_11:0.00007272,1_0_8:0.00003632):0.00010902,((2_0_2:0.00000482,2_0_6:0.00000772):0.00000840,2_0_12:0.00016748):0.00011036):0.00000163):0.00010444,((((2_0_0:0.00000769,2_0_1:0.00002739):0.00006030,((2_0_5:0.00000638,2_0_3:0.00000621):0.00000193,2_0_11:0.00000732):0.00014200):0.00000406,((2_0_4:0.00001723,(2_0_9:0.00000163,2_0_7:0.00000036):0.00001507):0.00000848,2_0_10:0.00009181):0.00011197):0.00000645,2_0_8:0.00021588):0.00042302):0.03493679):0.07981144);

data_02	T02	66	1	1	0.387242	0.286704	0.341259	(((((1_0_3:0.00010612,((1_0_9:0.00000123,1_0_8:0.00000217):0.00000378,1_0_0:0.00000180):0.00025497):0.00004315,((1_0_12:0.00000694,(1_0_5:0.00003289,1_0_2:0.00001405):0.00003162):0.00006175,(((2_0_10:0.00001379,2_0_0:0.00001857):0.00004738,(2_0_11:0.00000828,2_0_6:0.00000584):0.00000789):0.00000500,((2_0_1:0.00005411,2_0_12:0.00000839):0.00001766,(2_0_9:0.00000936,2_0_2:0.00000411):0.00005093):0.00000530):0.00013396):0.00002155):0.00111513,(((1_0_6:0.00010911,(1_0_1:0.00002896,(1_0_7:0.00003253,(1_0_4:0.00000417,1_0_11:0.00000194):0.00003198):0.00003227):0.00001709):0.00000461,1_0_10:0.00003966):0.00002042,(((2_0_8:0.00011138,2_0_7:0.00002672):0.00001602,(2_0_4:0.00000253,2_0_3:0.00002649):0.00012099):0.00008194,2_0_5:0.00005510):0.00002058):0.00017131):0.18535053,((((4_0_6:0.00000151,4_0_0:0.00000478):0.00009215,((4_0_9:0.00000275,(4_0_8:0.00000072,4_0_4:0.00000139):0.00003316):0.00000333,4_0_7:0.00005211):0.00001442):0.00017377,((3_0_12:0.00001689,3_0_7:0.00000309):0.00002320,(((4_0_11:0.00000893,4_0_1:0.00000650):0.00000053,4_0_2:0.00001592):0.00003550,3_0_10:0.00010827):0.00011558):0.00005484):0.00000327,(((4_0_5:0.00000623,(4_0_10:0.00000627,(4_0_12:0.00000292,4_0_3:0.00000204):0.00000250):0.00000389):0.00011009,(((((5_0_12:0.00000069,5_0_2:0.00000441):0.00000012,5_0_10:0.00000347):0.00002130,((5_0_6:0.00000476,(5_0_0:0.00001067,5_0_7:0.00000219):0.00000893):0.00000049,5_0_5:0.00001181):0.00001002):0.00000385,((3_0_11:0.00000526,3_0_8:0.00002131):0.00000007,(3_0_9:0.00000515,(3_0_5:0.00000735,3_0_1:0.00002186):0.00000498):0.00002506):0.00001321):0.00000611,(3_0_2:0.00006124,((3_0_0:0.00000085,3_0_3:0.00000205):0.00001785,(((5_0_8:0.00000459,5_0_1:0.00000403):0.00000323,5_0_3:0.00004789):0.00000347,(3_0_4:0.00000391,3_0_6:0.00000076):0.00001140):0.00000438):0.00001417):0.00001880):0.00010063):0.00002579,((5_0_11:0.00002243,5_0_4:0.00000713):0.00001681,5_0_9:0.00001170):0.00003971):0.00002615):0.04280978):0.09993385,0_0_0:0.05455541);

data_03	T03	66	1	1	0.226287	0.138612	0.20744	((((((((((1_0_4:0.00001087,(1_0_8:0.00000766,(1_0_5:0.00000071,1_0_1:0.00000742):0.00000106):0.00000274):0.00000198,1_0_7:0.00000355):0.00007208,1_0_2:0.00003634):0.00015878,(2_0_2:0.00000913,(2_0_3:0.00000049,2_0_1:0.00000083):0.00003090):0.00011705):0.00007420,(((2_0_11:0.00000000,2_0_8:0.00000002):0.00010011,2_0_0:0.00002841):0.00010627,(((2_0_4:0.00000733,2_0_5:0.00000141):0.00000042,2_0_7:0.00000376):0.00001529,(2_0_12:0.00001044,(2_0_9:0.00000047,2_0_6:0.00000016):0.00000488):0.00000545):0.00000688):0.00011662):0.00000243,(1_0_12:0.00002736,1_0_3:0.00021294):0.00014716):0.00005574,(((1_0_10:0.00000588,1_0_11:0.00000107):0.00000345,1_0_9:0.00000833):0.00006032,(1_0_6:0.00000206,1_0_0:0.00000133):0.00000437):0.00091062):0.00064023,2_0_10:0.00022977):0.01407343,((((((3_0_8:0.00000638,(3_0_7:0.00000003,3_0_9:0.00000003):0.00001119):0.00003902,3_0_5:0.00000555):0.00002669,4_0_0:0.00004651):0.00000209,(((4_0_1:0.00000222,4_0_9:0.00000036):0.00002519,((4_0_8:0.00001035,4_0_10:0.00001459):0.00000515,4_0_2:0.00000560):0.00002393):0.00000179,4_0_4:0.00005391):0.00002969):0.00016037,4_0_7:0.00004433):0.00080749,(((4_0_12:0.00000761,4_0_3:0.00000485):0.00004349,4_0_11:0.00003720):0.00001855,((4_0_6:0.00000312,4_0_5:0.00000789):0.00003096,((((3_0_4:0.00006700,(((5_0_12:0.00000398,5_0_11:0.00000319):0.00001861,((3_0_12:0.00000956,3_0_11:0.00000275):0.00000105,(3_0_10:0.00000086,(3_0_0:0.00000255,(3_0_3:0.00000135,(3_0_6:0.00000030,3_0_1:0.00000420):0.00000001):0.00001215):0.00000188):0.00000903):0.00002734):0.00000072,(5_0_4:0.00001179,5_0_0:0.00002948):0.00001333):0.00001450):0.00000256,(((5_0_5:0.00000321,5_0_8:0.00000393):0.00001418,((5_0_6:0.00000194,5_0_1:0.00000198):0.00001444,5_0_10:0.00002409):0.00000346):0.00012597,(5_0_2:0.00000555,5_0_7:0.00000696):0.00001585):0.00001906):0.00000317,(5_0_3:0.00000309,5_0_9:0.00000687):0.00003493):0.00000014,3_0_2:0.00014488):0.00002954):0.00015944):0.00023107):0.02326560):0.04451074,0_0_0:0.13861211);

data_04	T04	66	1	1	0.405502	0.231144	0.35847	(0_0_0:0.12732547,((((((((1_0_6:0.00003008,(1_0_1:0.00000001,1_0_0:0.00000046):0.00003720):0.00005749,((1_0_11:0.00000045,1_0_2:0.00000148):0.00000737,1_0_7:0.00001073):0.00003262):0.00000999,((1_0_9:0.00000095,1_0_10:0.00000016):0.00002645,1_0_4:0.00002420):0.00001614):0.00000732,1_0_8:0.00009351):0.00001606,1_0_5:0.00004769):0.00004609,2_0_7:0.00007974):0.00016006,((1_0_12:0.00007482,1_0_3:0.00000332):0.00007948,(2_0_6:0.00013840,(((2_0_1:0.00000454,2_0_12:0.00002686):0.00002354,2_0_2:0.00003144):0.00006126,(((2_0_5:0.00002468,(2_0_4:0.00002399,2_0_3:0.00002227):0.00000009):0.00003955,((2_0_8:0.00000229,2_0_0:0.00001146):0.00007485,2_0_10:0.00003865):0.00003383):0.00000366,(2_0_9:0.00000573,2_0_11:0.00000526):0.00006322):0.00002366):0.00000378):0.00003532):0.00020820):0.18816079,((((4_0_5:0.00005394,4_0_10:0.00000121):0.00001029,((((4_0_12:0.00001667,4_0_7:0.00000447):0.00002466,(4_0_3:0.00000078,4_0_9:0.00000262):0.00003222):0.00000781,4_0_8:0.00015261):0.00000038,4_0_1:0.00003409):0.00003640):0.00003387,(((((3_0_3:0.00005391,5_0_3:0.00004001):0.00002113,(5_0_1:0.00000381,5_0_0:0.00000347):0.00007863):0.00002045,((4_0_2:0.00002059,4_0_6:0.00000649):0.00005808,4_0_11:0.00001561):0.00022124):0.00000202,4_0_0:0.00005348):0.00001136,(((5_0_10:0.00000171,5_0_2:0.00000117):0.00003324,(((5_0_6:0.00000133,5_0_5:0.00000121):0.00002257,(3_0_0:0.00000118,3_0_11:0.00000624):0.00002545):0.00001732,((5_0_11:0.00004417,(5_0_9:0.00002249,(5_0_4:0.00001801,5_0_12:0.00001243):0.00000620):0.00000756):0.00004517,(3_0_6:0.00002335,(3_0_10:0.00002221,5_0_7:0.00002580):0.00000238):0.00000229):0.00000394):0.00000045):0.00006040,(3_0_4:0.00000842,(3_0_12:0.00001338,((3_0_9:0.00000431,3_0_2:0.00000658):0.00000083,(3_0_1:0.00000348,3_0_8:0.00000248):0.00000114):0.00000027):0.00002667):0.00011050):0.00001736):0.00000604):0.00001181,(4_0_4:0.00014715,((3_0_5:0.00000097,3_0_7:0.00000318):0.00001740,5_0_8:0.00003204):0.00009572):0.00003131):0.04368489):0.04258892);

data_05	T05	66	1	1	0.63044	0.413658	0.526466	(((4_0_0:0.00059592,((((5_0_12:0.00001311,5_0_8:0.00003730):0.00000673,((5_0_0:0.00000193,5_0_2:0.00000969):0.00000416,5_0_1:0.00001170):0.00000622):0.00002615,((3_0_9:0.00001775,((5_0_3:0.00000220,(5_0_4:0.00002077,5_0_5:0.00000905):0.00004518):0.00001194,((5_0_10:0.00000129,5_0_6:0.00000229):0.00001629,3_0_11:0.00001635):0.00001645):0.00001688):0.00002393,((((4_0_2:0.00000548,4_0_1:0.00000574):0.00000852,4_0_5:0.00002650):0.00000622,(4_0_4:0.00001911,((4_0_7:0.00000093,4_0_8:0.00000274):0.00000057,4_0_6:0.00000497):0.00000452):0.00000930):0.00003556,4_0_3:0.00005381):0.00005304):0.00000153):0.00003492,((4_0_9:0.00008970,((4_0_12:0.00003075,(4_0_11:0.00000285,4_0_10:0.00000211):0.00001816):0.00020083,((5_0_7:0.00002748,(5_0_11:0.00000433,5_0_9:0.00000146):0.00000601):0.00014931,((3_0_10:0.00009674,(((3_0_6:0.00000361,3_0_2:0.00000260):0.00002379,3_0_4:0.00002347):0.00003078,3_0_12:0.00001322):0.00001849):0.00000298,((3_0_8:0.00000476,3_0_7:0.00004243):0.00000065,(3_0_5:0.00002178,3_0_3:0.00000367):0.00000657):0.00006392):0.00003360):0.00000879):0.00000748):0.00003474,(3_0_0:0.00000616,3_0_1:0.00000709):0.00002684):0.00001524):0.00020351):0.36076945,((((1_0_12:0.00000877,1_0_8:0.00000602):0.00006016,(1_0_6:0.00004445,1_0_5:0.00000664):0.00001198):0.00013530,(1_0_0:0.00001143,2_0_0:0.00005069):0.00022746):0.00005086,((((1_0_9:0.00001154,1_0_1:0.00000838):0.00000551,((1_0_4:0.00003514,((1_0_3:0.00000021,1_0_7:0.00000015):0.00000228,1_0_11:0.00000052):0.00002037):0.00000223,1_0_10:0.00007260):0.00001420):0.00001462,1_0_2:0.00010305):0.00008014,((2_0_4:0.00000873,2_0_5:0.00001902):0.00018819,((2_0_10:0.00001159,((2_0_7:0.00000867,2_0_9:0.00000039):0.00000530,2_0_12:0.00001673):0.00000528):0.00000756,(((2_0_11:0.00000007,2_0_3:0.00000179):0.00002826,(2_0_8:0.00002033,2_0_2:0.00000703):0.00000020):0.00000055,(2_0_1:0.00005971,2_0_6:0.00000746):0.00000924):0.00000955):0.00000397):0.00011311):0.00013861):0.10049141):0.05229269,0_0_0:0.11280813);

data_06	T06	66	1	1	0.269368	0.124287	0.227304	(0_0_0:0.10301628,((((((1_0_5:0.00000124,1_0_7:0.00000042):0.00001739,(1_0_3:0.00000398,(1_0_2:0.00000145,1_0_8:0.00000055):0.00000523):0.00001631):0.00012439,1_0_4:0.00019531):0.00000054,((2_0_4:0.00017645,((2_0_11:0.00000105,(2_0_10:0.00002000,2_0_1:0.00001257):0.00000387):0.00001465,2_0_2:0.00000827):0.00000665):0.00009132,(1_0_9:0.00000561,(1_0_1:0.00001736,((1_0_11:0.00001845,1_0_6:0.00001043):0.00002553,1_0_10:0.00002253):0.00001528):0.00000927):0.00004398):0.00000194):0.00023268,((((2_0_12:0.00002721,(2_0_8:0.00001058,2_0_6:0.00002118):0.00001753):0.00001708,(2_0_0:0.00000252,(2_0_9:0.00000153,2_0_5:0.00000083):0.00001590):0.00011315):0.00002073,(2_0_3:0.00002217,2_0_7:0.00004583):0.00001567):0.00006096,(1_0_12:0.00001411,1_0_0:0.00005561):0.00015262):0.00008386):0.03855816,(((((4_0_5:0.00000107,4_0_10:0.00000113):0.00005707,4_0_1:0.00000390):0.00004279,((3_0_10:0.00002576,(3_0_8:0.00001109,3_0_9:0.00000274):0.00002563):0.00007041,(((5_0_3:0.00003182,((5_0_0:0.00001220,(5_0_12:0.00002110,5_0_7:0.00001626):0.00000887):0.00000379,(5_0_10:0.00000219,5_0_9:0.00000232):0.00002330):0.00001160):0.00000296,((3_0_2:0.00001701,3_0_6:0.00000413):0.00002633,(5_0_8:0.00003051,((3_0_12:0.00000003,3_0_3:0.00000003):0.00005378,3_0_4:0.00002725):0.00001661):0.00000852):0.00000420):0.00001190,5_0_1:0.00008107):0.00002738):0.00000911):0.00000685,((((5_0_2:0.00001057,5_0_4:0.00001579):0.00001295,(3_0_1:0.00000469,3_0_11:0.00000379):0.00002009):0.00000015,(3_0_5:0.00004461,3_0_0:0.00004138):0.00000380):0.00002393,((5_0_5:0.00002034,5_0_6:0.00001618):0.00002275,3_0_7:0.00000379):0.00004797):0.00000050):0.00033034,((4_0_11:0.00008178,(4_0_9:0.00001011,(((4_0_2:0.00000177,4_0_8:0.00000114):0.00000261,4_0_3:0.00000094):0.00000348,((4_0_6:0.00000784,(4_0_12:0.00000246,4_0_4:0.00000010):0.00000083):0.00000278,(4_0_0:0.00001000,4_0_7:0.00000309):0.00000108):0.00000431):0.00006612):0.00000383):0.00018517,5_0_11:0.00025691):0.00036699):0.08276297):0.04088682);

data_07	T07	66	1	1	0.22538	0.164463	0.202014	(0_0_0:0.03755114,(((((((5_0_10:0.00002086,(5_0_0:0.00000215,5_0_6:0.00000060):0.00003930):0.00000064,(5_0_4:0.00001815,(((5_0_11:0.00001348,5_0_3:0.00000124):0.00000085,5_0_2:0.00000332):0.00000458,5_0_12:0.00001629):0.00000022):0.00002030):0.00014642,(((4_0_4:0.00000506,4_0_7:0.00000469):0.00000304,(4_0_6:0.00000085,(4_0_12:0.00000089,4_0_11:0.00001153):0.00000372):0.00000224):0.00003587,((((5_0_9:0.00000072,5_0_1:0.00000394):0.00001242,((5_0_5:0.00000181,5_0_8:0.00000313):0.00000321,5_0_7:0.00000797):0.00001444):0.00001001,((3_0_9:0.00001773,3_0_0:0.00001598):0.00000329,3_0_1:0.00001322):0.00001910):0.00002353,((4_0_3:0.00000245,4_0_9:0.00000041):0.00002087,4_0_0:0.00000917):0.00008634):0.00000680):0.00001983):0.00000621,3_0_8:0.00025999):0.00004986,((3_0_4:0.00000456,3_0_5:0.00000438):0.00005515,(3_0_10:0.00004770,((3_0_3:0.00004299,(3_0_11:0.00000036,3_0_2:0.00000007):0.00000830):0.00000126,((3_0_7:0.00000193,3_0_12:0.00000138):0.00000010,3_0_6:0.00000143):0.00003106):0.00000534):0.00000961):0.00002916):0.00000478,((4_0_5:0.00001738,4_0_1:0.00000330):0.00001038,(4_0_2:0.00003352,(4_0_8:0.00000360,4_0_10:0.00000040):0.00001810):0.00000759):0.00018358):0.02078061,((((1_0_7:0.00006637,1_0_12:0.00003842):0.00004034,(1_0_6:0.00006257,1_0_2:0.00003203):0.00005871):0.00007848,(((2_0_4:0.00001967,(2_0_12:0.00000882,2_0_3:0.00000503):0.00000079):0.00009697,2_0_9:0.00009352):0.00007800,(((2_0_11:0.00000417,2_0_1:0.00001812):0.00002709,2_0_6:0.00000761):0.00015870,(2_0_10:0.00004590,((2_0_2:0.00001044,(2_0_5:0.00000006,2_0_0:0.00000021):0.00000712):0.00000749,(2_0_7:0.00000117,2_0_8:0.00000020):0.00003822):0.00000496):0.00006445):0.00005802):0.00000635):0.00001098,((((1_0_3:0.00000487,1_0_10:0.00000726):0.00001009,1_0_9:0.00000969):0.00000349,1_0_1:0.00001929):0.00000529,((1_0_5:0.00001059,1_0_4:0.00000186):0.00000358,(1_0_11:0.00000296,(1_0_8:0.00000151,1_0_0:0.00000086):0.00000104):0.00000226):0.00002645):0.00010648):0.05951719):0.10466665);

data_08	T08	66	1	1	0.216129	0.131643	0.193124	(0_0_0:0.06148107,(((((((5_0_2:0.00000642,(5_0_7:0.00004750,5_0_1:0.00002259):0.00000482):0.00000631,3_0_12:0.00008793):0.00001260,(5_0_3:0.00001831,5_0_6:0.00002578):0.00001594):0.00001188,((3_0_4:0.00000052,3_0_9:0.00000034):0.00002831,((5_0_9:0.00001535,(5_0_5:0.00000561,5_0_12:0.00004265):0.00000453):0.00001444,5_0_8:0.00003108):0.00001315):0.00016952):0.00000473,((((3_0_10:0.00000132,3_0_3:0.00000470):0.00000735,(3_0_7:0.00000073,3_0_11:0.00000065):0.00000428):0.00001757,((3_0_2:0.00000211,(3_0_0:0.00003488,3_0_6:0.00000603):0.00000147):0.00000302,3_0_8:0.00002406):0.00003556):0.00006873,(4_0_12:0.00005200,((4_0_3:0.00001377,(4_0_10:0.00000828,4_0_0:0.00001991):0.00000385):0.00002019,(4_0_8:0.00000088,4_0_11:0.00000058):0.00004217):0.00003980):0.00005574):0.00006005):0.00002209,((((4_0_5:0.00000759,4_0_6:0.00004352):0.00003215,((4_0_9:0.00000930,4_0_2:0.00004070):0.00002297,((4_0_1:0.00000027,4_0_7:0.00000109):0.00000117,4_0_4:0.00000132):0.00008662):0.00001525):0.00001523,3_0_5:0.00009150):0.00004398,(5_0_10:0.00003182,((5_0_4:0.00008395,5_0_11:0.00002214):0.00000064,(3_0_1:0.00004995,5_0_0:0.00009679):0.00000732):0.00001947):0.00028150):0.00005545):0.01929051,(((((((1_0_11:0.00000079,1_0_12:0.00000102):0.00000924,1_0_6:0.00002860):0.00001003,(1_0_5:0.00010531,(((1_0_4:0.00000420,1_0_2:0.00000096):0.00002024,1_0_8:0.00001875):0.00013417,1_0_10:0.00005732):0.00000006):0.00000202):0.00009135,1_0_3:0.00017832):0.00003274,((2_0_10:0.00004273,(2_0_11:0.00006900,2_0_2:0.00003646):0.00002160):0.00000468,(2_0_7:0.00005413,((2_0_12:0.00002644,(2_0_8:0.00000436,2_0_6:0.00000313):0.00000661):0.00001576,(2_0_9:0.00000137,2_0_3:0.00000183):0.00002203):0.00004526):0.00010586):0.00005560):0.00003212,(((2_0_5:0.00000156,(2_0_4:0.00000180,2_0_0:0.00000091):0.00000890):0.00000736,2_0_1:0.00003259):0.00010075,1_0_9:0.00001101):0.00005540):0.00002727,(1_0_7:0.00006919,(1_0_1:0.00000069,1_0_0:0.00000344):0.00020797):0.00008165):0.05619243):0.07510670);

data_09	T09	66	1	1	0.304636	0.198993	0.289176	(0_0_0:0.09018238,(((((2_0_9:0.00000757,((2_0_10:0.00000323,2_0_8:0.00000148):0.00000161,2_0_6:0.00000119):0.00000100):0.00027836,2_0_12:0.00013443):0.00007313,((1_0_2:0.00001327,(1_0_1:0.00001016,1_0_11:0.00000288):0.00006162):0.00004382,((((1_0_7:0.00000098,1_0_4:0.00000088):0.00000023,1_0_3:0.00001481):0.00000868,1_0_0:0.00002075):0.00008485,(1_0_6:0.00007147,((1_0_8:0.00000187,1_0_9:0.00000233):0.00007955,(1_0_12:0.00001086,1_0_10:0.00000478):0.00006881):0.00000823):0.00005451):0.00004154):0.00001917):0.00006162,((((2_0_3:0.00002253,(2_0_4:0.00001133,2_0_1:0.00000935):0.00001979):0.00000063,2_0_5:0.00000544):0.00001236,(((2_0_2:0.00000227,2_0_0:0.00000178):0.00001317,2_0_11:0.00000458):0.00001783,2_0_7:0.00000816):0.00000228):0.00019921,1_0_5:0.00052228):0.00005283):0.01157099,((((((4_0_4:0.00001798,(4_0_9:0.00000180,4_0_3:0.00000452):0.00000145):0.00011922,4_0_12:0.00002943):0.00015326,((5_0_7:0.00005997,(3_0_11:0.00001928,((5_0_10:0.00000677,5_0_6:0.00000295):0.00002773,5_0_0:0.00005990):0.00002425):0.00000416):0.00001092,(3_0_8:0.00000147,(3_0_4:0.00000022,3_0_0:0.00000088):0.00000308):0.00004740):0.00004340):0.00001642,(((((3_0_12:0.00000501,3_0_9:0.00000223):0.00001325,(3_0_3:0.00000142,3_0_1:0.00000136):0.00000874):0.00001826,((((5_0_8:0.00002474,3_0_10:0.00003133):0.00000043,5_0_11:0.00002112):0.00000110,5_0_3:0.00001669):0.00000483,5_0_5:0.00002659):0.00000139):0.00009393,((3_0_5:0.00000156,3_0_2:0.00000014):0.00003654,3_0_6:0.00002775):0.00010912):0.00000056,((((4_0_5:0.00001543,4_0_6:0.00004899):0.00000245,4_0_11:0.00000399):0.00003105,(((5_0_12:0.00000573,5_0_9:0.00000470):0.00000189,(5_0_1:0.00000036,5_0_4:0.00000021):0.00001715):0.00002248,3_0_7:0.00005532):0.00002619):0.00000032,(4_0_0:0.00002029,(4_0_1:0.00000899,(4_0_7:0.00003892,4_0_8:0.00003045):0.00000465):0.00002267):0.00003014):0.00000572):0.00006431):0.00007787,5_0_2:0.00027616):0.00009708,(4_0_2:0.00002201,4_0_10:0.00002224):0.00021388):0.12834302):0.07016830);

data_10	T10	66	1	1	0.251934	0.111297	0.178081	(((((((3_0_7:0.00006843,(5_0_0:0.00000519,(5_0_7:0.00000608,5_0_3:0.00000388):0.00003561):0.00001077):0.00000120,3_0_10:0.00002356):0.00007251,(((5_0_11:0.00001124,5_0_4:0.00000495):0.00000805,(3_0_9:0.00000283,3_0_3:0.00000261):0.00003182):0.00000016,3_0_1:0.00000759):0.00001806):0.00027011,((((3_0_2:0.00004851,(3_0_0:0.00001107,((3_0_12:0.00000158,3_0_11:0.00000040):0.00000310,3_0_8:0.00000112):0.00000336):0.00000055):0.00000542,(5_0_9:0.00000333,5_0_10:0.00002003):0.00000502):0.00005501,5_0_8:0.00005687):0.00008009,4_0_0:0.00017306):0.00001630):0.00037055,((4_0_3:0.00008944,((4_0_6:0.00008741,4_0_1:0.00006212):0.00001153,4_0_9:0.00004292):0.00001463):0.00002709,((((3_0_6:0.00004822,((5_0_6:0.00001067,5_0_2:0.00000049):0.00000354,5_0_1:0.00000795):0.00001492):0.00002378,(5_0_5:0.00000239,5_0_12:0.00000132):0.00005061):0.00001227,(3_0_4:0.00002127,3_0_5:0.00001642):0.00002196):0.00001675,((4_0_8:0.00003211,((4_0_10:0.00000570,((4_0_2:0.00003088,(4_0_4:0.00000001,4_0_7:0.00000001):0.00000666):0.00000016,4_0_12:0.00000311):0.00000470):0.00001274,4_0_11:0.00004567):0.00000163):0.00002169,4_0_5:0.00003297):0.00003790):0.00006295):0.00000724):0.09736492,((((1_0_9:0.00000439,1_0_4:0.00004051):0.00000814,(((1_0_7:0.00000006,1_0_11:0.00000481):0.00000655,1_0_10:0.00000597):0.00003597,((1_0_3:0.00000133,1_0_2:0.00000035):0.00000304,1_0_12:0.00001481):0.00003883):0.00000468):0.00006454,(((2_0_1:0.00000812,2_0_12:0.00001106):0.00000727,2_0_10:0.00000371):0.00000695,2_0_2:0.00000253):0.00004144):0.00007755,(((2_0_4:0.00035955,((((2_0_9:0.00000587,2_0_7:0.00001149):0.00002188,2_0_8:0.00000133):0.00001509,(2_0_6:0.00000361,(2_0_5:0.00000259,2_0_3:0.00000067):0.00000203):0.00000857):0.00001315,(2_0_0:0.00000822,2_0_11:0.00000663):0.00000625):0.00018178):0.00022983,(1_0_6:0.00007002,(1_0_8:0.00005879,1_0_0:0.00001663):0.00001752):0.00023410):0.00000578,(1_0_5:0.00001222,1_0_1:0.00000738):0.00068878):0.00009014):0.07914243):0.01314880,0_0_0:0.05747163);
