Tree file : INDELible V1.03 (best viewed cut and paste in e.g. excel)

N.B. Simulation blocks with no random trees will have their trees printed for the first replicate only.

FILE	TREE	NTAXA	REP	PART	LENGTH	DEPTH	MAX PAIRWISE DISTANCE	TREE STRING

data_01	T01	76	1	1	0.413664	0.129441	0.198236	((((((((4_0_2:0.00000151,4_0_4:0.00000129):0.00000886,(4_0_1:0.00000076,(4_0_3:0.00000026,4_0_0:0.00000019):0.00000113):0.00001342):0.01110883,(((6_0_3:0.00000039,6_0_1:0.00000052):0.00000160,(6_0_4:0.00000202,6_0_0:0.00000290):0.00000010):0.00000588,6_0_2:0.00001273):0.01417089):0.00318355,((((7_0_3:0.00000090,(7_0_2:0.00000051,7_0_0:0.00000126):0.00000017):0.00000192,7_0_1:0.00000136):0.00000748,7_0_4:0.00000525):0.01042391,((1_0_4:0.00000182,1_0_0:0.00000058):0.00000188,(1_0_3:0.00000106,(1_0_2:0.00000007,1_0_1:0.00000007):0.00000103):0.00000117):0.00615725):0.00707355):0.00430236,((2_0_1:0.00000736,(2_0_3:0.00000191,2_0_2:0.00000146):0.00000654):0.00000763,(2_0_4:0.00000035,2_0_0:0.00000047):0.00000706):0.01558824):0.00578966,(((5_0_3:0.00000978,((5_0_2:0.00000071,(5_0_1:0.00000195,5_0_0:0.00000081):0.00000040):0.00000959,5_0_4:0.00001374):0.00000002):0.01363823,(((8_0_1:0.00001302,((8_0_3:0.00000142,8_0_4:0.00000139):0.00000108,8_0_0:0.00000259):0.00000945):0.00000073,8_0_2:0.00000918):0.00504841,((((3_0_4:0.00000041,3_0_3:0.00000032):0.00000226,3_0_0:0.00000126):0.00000061,3_0_1:0.00000203):0.00001223,3_0_2:0.00000861):0.00328756):0.00338120):0.00533219,(((9_0_1:0.00000140,9_0_0:0.00000188):0.00000827,((9_0_4:0.00000473,9_0_2:0.00000861):0.00000588,9_0_3:0.00001153):0.00000106):0.00681865,(((10_0_4:0.00000009,10_0_3:0.00000003):0.00000460,(10_0_1:0.00000003,10_0_2:0.00000003):0.00000397):0.00000439,10_0_0:0.00001240):0.01283555):0.00642723):0.02443661):0.01049679,((((12_0_2:0.00001243,(((12_0_3:0.00000176,12_0_1:0.00000136):0.00000547,12_0_0:0.00000469):0.00000129,12_0_4:0.00000747):0.00000928):0.00392896,(((15_0_2:0.00000246,15_0_1:0.00000246):0.00000034,15_0_3:0.00000400):0.00001760,(15_0_4:0.00000552,15_0_0:0.00000410):0.00000721):0.00859751):0.01529834,((14_0_2:0.00000098,((14_0_1:0.00000053,14_0_3:0.00000114):0.00000031,(14_0_4:0.00000088,14_0_0:0.00000081):0.00000020):0.00000084):0.00531083,(((11_0_3:0.00000217,11_0_0:0.00000285):0.00000040,11_0_4:0.00000139):0.00001618,(11_0_1:0.00000007,11_0_2:0.00000009):0.00001318):0.00350091):0.01050885):0.00179007,((13_0_3:0.00000230,((13_0_2:0.00000090,13_0_4:0.00000107):0.00000303,13_0_1:0.00000334):0.00000005):0.00000758,13_0_0:0.00001212):0.02463822):0.02611743):0.07523246,0_0_0:0.06879466);

data_02	T02	76	1	1	0.373403	0.0961794	0.160285	(0_0_0:0.06410544,((((((10_0_1:0.00001099,(10_0_0:0.00000009,10_0_4:0.00000020):0.00000677):0.00000188,(10_0_2:0.00000321,10_0_3:0.00000369):0.00000829):0.00864548,(9_0_0:0.00000484,((9_0_3:0.00000009,(9_0_2:0.00000006,9_0_1:0.00000005):0.00000011):0.00000408,9_0_4:0.00000187):0.00000103):0.00942987):0.00540172,((((8_0_4:0.00000079,8_0_3:0.00000116):0.00002575,((8_0_2:0.00000787,8_0_1:0.00000182):0.00000280,8_0_0:0.00000570):0.00005302):0.00372882,(3_0_4:0.00001362,(3_0_3:0.00000037,((3_0_1:0.00000013,3_0_2:0.00000016):0.00000100,3_0_0:0.00000081):0.00000004):0.00000913):0.00554923):0.00258677,((5_0_2:0.00000104,5_0_1:0.00000118):0.00000933,((5_0_3:0.00000354,5_0_0:0.00000142):0.00000142,5_0_4:0.00000476):0.00000286):0.01500168):0.00830485):0.00924788,((2_0_2:0.00001238,(((2_0_1:0.00000018,2_0_4:0.00000031):0.00000279,2_0_0:0.00000254):0.00000068,2_0_3:0.00000249):0.00000982):0.02482360,(((1_0_4:0.00000944,(((1_0_0:0.00000020,1_0_3:0.00000020):0.00000007,1_0_2:0.00000024):0.00000953,1_0_1:0.00000861):0.00000615):0.00842648,(((7_0_1:0.00000245,7_0_4:0.00000762):0.00001620,(7_0_3:0.00000475,7_0_2:0.00000335):0.00001232):0.00000967,7_0_0:0.00002198):0.00995274):0.01034374,(((6_0_2:0.00000905,6_0_3:0.00000650):0.00000596,(6_0_1:0.00001735,(6_0_4:0.00000343,6_0_0:0.00000395):0.00001391):0.00000203):0.00876660,((4_0_1:0.00000061,4_0_2:0.00000078):0.00000188,((4_0_3:0.00000022,4_0_4:0.00000057):0.00000428,4_0_0:0.00000299):0.00000337):0.01889175):0.00268002):0.00261217):0.01313324):0.01347461,(((((12_0_4:0.00000016,12_0_0:0.00000026):0.00001224,(12_0_3:0.00000913,(12_0_1:0.00000023,12_0_2:0.00000014):0.00000632):0.00000522):0.00687271,((15_0_3:0.00000084,15_0_2:0.00000082):0.00000445,((15_0_1:0.00000097,15_0_4:0.00000086):0.00000177,15_0_0:0.00000092):0.00000351):0.00620318):0.01689732,(((11_0_2:0.00000052,(11_0_0:0.00000032,11_0_1:0.00000040):0.00000001):0.00001057,(11_0_3:0.00000269,11_0_4:0.00000382):0.00000900):0.00313023,(14_0_3:0.00001024,(14_0_4:0.00000545,((14_0_2:0.00000164,14_0_1:0.00000276):0.00000051,14_0_0:0.00000293):0.00000249):0.00000459):0.00565325):0.00590350):0.00188866,((13_0_0:0.00000084,13_0_2:0.00000060):0.00000581,((13_0_4:0.00000034,13_0_3:0.00000025):0.00000711,13_0_1:0.00000552):0.00000101):0.01455542):0.02191269):0.04473436);

data_03	T03	76	1	1	0.402448	0.101288	0.153217	(0_0_0:0.05192927,(((((((14_0_4:0.00000123,14_0_0:0.00000084):0.00000883,(14_0_3:0.00000105,14_0_2:0.00000083):0.00000441):0.00000027,14_0_1:0.00001160):0.00329727,((11_0_3:0.00000514,(11_0_2:0.00000134,11_0_1:0.00000155):0.00000540):0.00001666,(11_0_0:0.00000024,11_0_4:0.00000014):0.00002785):0.00423484):0.02011313,(((15_0_1:0.00000421,15_0_4:0.00000340):0.00000562,((15_0_2:0.00000191,15_0_3:0.00000198):0.00000107,15_0_0:0.00000280):0.00000965):0.00495436,((12_0_2:0.00000186,12_0_3:0.00000301):0.00000146,((12_0_0:0.00000080,12_0_1:0.00000148):0.00000119,12_0_4:0.00000277):0.00000106):0.00452685):0.01364260):0.00295654,(13_0_1:0.00003102,((13_0_0:0.00000250,13_0_3:0.00000243):0.00000014,(13_0_2:0.00000085,13_0_4:0.00000150):0.00000073):0.00001361):0.01775598):0.03563042,(((((5_0_4:0.00000147,5_0_1:0.00000189):0.00002087,((5_0_2:0.00000121,5_0_0:0.00000050):0.00000308,5_0_3:0.00001264):0.00001046):0.00828341,((((8_0_3:0.00000268,8_0_4:0.00000128):0.00000419,8_0_0:0.00000542):0.00000477,(8_0_2:0.00000195,8_0_1:0.00000272):0.00001086):0.00349090,((3_0_2:0.00000440,3_0_1:0.00000365):0.00004352,((3_0_3:0.00000215,3_0_4:0.00000164):0.00000176,3_0_0:0.00000517):0.00007047):0.00363091):0.00606596):0.01542921,(((10_0_4:0.00000491,(10_0_1:0.00000212,(10_0_2:0.00000109,10_0_3:0.00000045):0.00000106):0.00000144):0.00001237,10_0_0:0.00001397):0.00725440,(9_0_0:0.00001717,(9_0_1:0.00001240,(9_0_4:0.00000359,(9_0_2:0.00000578,9_0_3:0.00000337):0.00000107):0.00000215):0.00000310):0.00731452):0.00661035):0.01156826,((((1_0_2:0.00000534,(1_0_0:0.00000311,((1_0_1:0.00000004,1_0_3:0.00000008):0.00000155,1_0_4:0.00000193):0.00000076):0.00000650):0.01026296,((7_0_0:0.00000125,7_0_3:0.00000150):0.00000601,((7_0_1:0.00000265,7_0_4:0.00000229):0.00000512,7_0_2:0.00000751):0.00000485):0.01368781):0.01119556,(((4_0_3:0.00000177,(4_0_1:0.00000124,(4_0_4:0.00000112,4_0_0:0.00000070):0.00000009):0.00000012):0.00000173,4_0_2:0.00000516):0.01738298,((6_0_1:0.00000204,(6_0_3:0.00000099,6_0_4:0.00000087):0.00000148):0.00000887,(6_0_0:0.00000052,6_0_2:0.00000051):0.00001726):0.02079089):0.00251952):0.00345746,((2_0_3:0.00000123,(2_0_1:0.00000028,(2_0_4:0.00000000,2_0_2:0.00000000):0.00000021):0.00000066):0.00001408,2_0_0:0.00001910):0.02153939):0.00852397):0.02545327):0.03832497);

data_04	T04	76	1	1	0.465803	0.135477	0.234677	((((((13_0_2:0.00000158,13_0_3:0.00000194):0.00000060,13_0_1:0.00000345):0.00000200,(13_0_0:0.00000051,13_0_4:0.00000089):0.00000335):0.01618235,(((((12_0_4:0.00000030,12_0_0:0.00000025):0.00000620,(12_0_3:0.00000037,12_0_1:0.00000055):0.00000471):0.00004234,12_0_2:0.00004105):0.00695470,(((15_0_0:0.00000015,15_0_1:0.00000019):0.00000290,(15_0_3:0.00000228,15_0_4:0.00000167):0.00000041):0.00000004,15_0_2:0.00000435):0.00368118):0.01076772,((((14_0_1:0.00000495,14_0_2:0.00000229):0.00000094,(14_0_3:0.00000385,14_0_4:0.00000218):0.00000076):0.00000143,14_0_0:0.00000369):0.00378664,((11_0_0:0.00000162,(11_0_3:0.00000007,11_0_2:0.00000006):0.00000421):0.00002114,(11_0_1:0.00000947,11_0_4:0.00001506):0.00000451):0.00482256):0.02083198):0.00336868):0.03200555,(((2_0_4:0.00001472,(2_0_0:0.00001220,(2_0_1:0.00000278,(2_0_2:0.00000153,2_0_3:0.00000199):0.00000020):0.00001175):0.00000142):0.03064636,((((6_0_4:0.00000273,(6_0_3:0.00000117,6_0_2:0.00000141):0.00000057):0.00000899,(6_0_1:0.00000852,6_0_0:0.00000680):0.00000772):0.00966429,(4_0_4:0.00000430,((4_0_3:0.00000036,4_0_0:0.00000026):0.00000307,(4_0_2:0.00000016,4_0_1:0.00000006):0.00000276):0.00000203):0.01575928):0.00238766,(((((1_0_1:0.00000125,1_0_3:0.00000149):0.00000021,1_0_2:0.00000169):0.00000096,1_0_0:0.00000199):0.00001712,1_0_4:0.00002689):0.01452919,(7_0_2:0.00002200,(((7_0_4:0.00000084,7_0_3:0.00000097):0.00000018,7_0_1:0.00000080):0.00000357,7_0_0:0.00000483):0.00001157):0.01130469):0.00702646):0.00383099):0.00692036,((((10_0_4:0.00000196,10_0_2:0.00000183):0.00001931,(10_0_0:0.00000170,(10_0_1:0.00000057,10_0_3:0.00000045):0.00000114):0.00002678):0.01039195,((9_0_1:0.00000239,(9_0_0:0.00000210,9_0_3:0.00000275):0.00000546):0.00000557,(9_0_2:0.00000214,9_0_4:0.00000256):0.00000740):0.00909826):0.00726616,((((8_0_3:0.00000377,8_0_4:0.00000705):0.00001086,((8_0_2:0.00000029,8_0_1:0.00000028):0.00000067,8_0_0:0.00000077):0.00000761):0.00644211,((3_0_4:0.00000134,3_0_0:0.00000105):0.00001063,(3_0_2:0.00000322,(3_0_3:0.00000156,3_0_1:0.00000140):0.00000233):0.00000729):0.00419961):0.00492157,(((5_0_1:0.00000075,5_0_0:0.00000095):0.00000021,5_0_2:0.00000152):0.00000198,(5_0_3:0.00000088,5_0_4:0.00000081):0.00000253):0.00556221):0.00778506):0.01944343):0.01205295):0.07442309,0_0_0:0.09919972);

data_05	T05	76	1	1	0.445122	0.126644	0.210264	(((((13_0_0:0.00000088,13_0_3:0.00000081):0.00001171,((13_0_2:0.00000097,13_0_1:0.00000095):0.00000202,13_0_4:0.00000266):0.00002118):0.01754596,((((((15_0_3:0.00000039,15_0_2:0.00000056):0.00000018,15_0_1:0.00000050):0.00000991,15_0_4:0.00000698):0.00001056,15_0_0:0.00002606):0.00375668,(((12_0_1:0.00000378,(12_0_0:0.00000027,12_0_4:0.00000029):0.00000243):0.00000223,12_0_3:0.00000729):0.00000377,12_0_2:0.00000645):0.00605468):0.01675176,((((11_0_1:0.00000003,11_0_4:0.00000002):0.00000297,11_0_0:0.00000276):0.00000302,(11_0_3:0.00000095,11_0_2:0.00000129):0.00000586):0.00415603,(((14_0_4:0.00000270,(14_0_2:0.00000084,14_0_1:0.00000042):0.00000206):0.00000358,14_0_0:0.00000713):0.00000453,14_0_3:0.00001717):0.00250615):0.00915097):0.00351040):0.06770103,((((((10_0_3:0.00000052,(10_0_2:0.00000002,10_0_4:0.00000002):0.00000050):0.00000813,10_0_1:0.00000894):0.00000780,10_0_0:0.00001509):0.01104740,(((9_0_4:0.00000332,(9_0_0:0.00000017,9_0_3:0.00000023):0.00000523):0.00000493,9_0_1:0.00000968):0.00000236,9_0_2:0.00000807):0.00696615):0.00718129,((((8_0_4:0.00000232,(8_0_0:0.00000223,8_0_3:0.00000132):0.00000091):0.00001309,(8_0_1:0.00000181,8_0_2:0.00000258):0.00000493):0.00314559,((3_0_3:0.00000068,3_0_2:0.00000157):0.00000279,((3_0_4:0.00000209,3_0_1:0.00000061):0.00000621,3_0_0:0.00001231):0.00001268):0.00267686):0.00375448,((5_0_3:0.00000749,5_0_1:0.00000319):0.00002940,((5_0_4:0.00000222,5_0_2:0.00000150):0.00000175,5_0_0:0.00000264):0.00002451):0.00785842):0.00605665):0.01678210,((((((1_0_1:0.00000018,1_0_2:0.00000014):0.00000385,(1_0_0:0.00000664,1_0_3:0.00000259):0.00000081):0.00001688,1_0_4:0.00001676):0.01093308,(((7_0_3:0.00000031,7_0_0:0.00000022):0.00000043,7_0_1:0.00000062):0.00000548,(7_0_2:0.00000006,7_0_4:0.00000006):0.00000359):0.01553090):0.00920536,(((4_0_2:0.00000082,4_0_1:0.00000078):0.00000448,(4_0_4:0.00000865,(4_0_0:0.00000399,4_0_3:0.00000480):0.00000139):0.00000143):0.02291924,((6_0_1:0.00000158,6_0_4:0.00000115):0.00001190,(6_0_3:0.00000521,(6_0_0:0.00000049,6_0_2:0.00000026):0.00000657):0.00000141):0.01074135):0.00226585):0.00305811,(2_0_0:0.00000368,(((2_0_2:0.00000072,2_0_1:0.00000054):0.00000188,2_0_3:0.00000213):0.00000042,2_0_4:0.00000443):0.00000016):0.02661422):0.01642034):0.01407417):0.03261475,0_0_0:0.08362082);

data_06	T06	76	1	1	0.37089	0.0990531	0.16169	(((((((12_0_2:0.00000219,((12_0_1:0.00000096,12_0_3:0.00000125):0.00000125,12_0_4:0.00000318):0.00000079):0.00000969,12_0_0:0.00000956):0.00560011,(15_0_2:0.00003770,((15_0_1:0.00000064,15_0_3:0.00000022):0.00000086,(15_0_4:0.00000068,15_0_0:0.00000107):0.00000027):0.00003470):0.00470340):0.01307499,(((14_0_0:0.00000145,14_0_3:0.00000081):0.00000227,((14_0_4:0.00000120,14_0_1:0.00000227):0.00000021,14_0_2:0.00000159):0.00000067):0.00366797,(11_0_1:0.00000387,((11_0_4:0.00000080,11_0_3:0.00000055):0.00000451,(11_0_2:0.00000030,11_0_0:0.00000043):0.00000292):0.00000144):0.00173943):0.01473732):0.00289875,((13_0_3:0.00000266,(13_0_1:0.00000115,13_0_4:0.00000102):0.00000085):0.00000237,(13_0_2:0.00000229,13_0_0:0.00000147):0.00000452):0.02744790):0.02031134,((((((2_0_0:0.00000143,2_0_3:0.00000290):0.00000121,2_0_4:0.00000154):0.00000238,2_0_1:0.00000395):0.00000611,2_0_2:0.00002035):0.01615281,((((4_0_2:0.00000128,4_0_1:0.00000297):0.00001128,(4_0_4:0.00001175,(4_0_0:0.00001124,4_0_3:0.00000580):0.00000591):0.00000259):0.01588090,((6_0_1:0.00000178,((6_0_2:0.00000022,6_0_3:0.00000027):0.00000063,6_0_4:0.00000093):0.00000112):0.00000018,6_0_0:0.00000344):0.01128391):0.00342333,((((1_0_4:0.00000152,1_0_0:0.00000189):0.00000183,(1_0_3:0.00000382,1_0_2:0.00000331):0.00000049):0.00002157,1_0_1:0.00001616):0.00964272,(((7_0_1:0.00000009,7_0_0:0.00000012):0.00000509,7_0_4:0.00000402):0.00001368,(7_0_3:0.00000083,7_0_2:0.00000086):0.00001779):0.00605272):0.00905268):0.00248684):0.01018104,(((((8_0_2:0.00000311,(8_0_4:0.00000006,8_0_0:0.00000004):0.00000301):0.00000240,(8_0_3:0.00000011,8_0_1:0.00000027):0.00000620):0.00401149,(((3_0_4:0.00000035,3_0_0:0.00000025):0.00000248,(3_0_3:0.00000220,3_0_2:0.00000160):0.00000157):0.00000901,3_0_1:0.00001254):0.00355000):0.00242979,((5_0_1:0.00000406,5_0_4:0.00000385):0.00000566,(5_0_0:0.00000344,(5_0_2:0.00000057,5_0_3:0.00000064):0.00000188):0.00000630):0.00808688):0.00677050,((9_0_2:0.00000371,(((9_0_1:0.00000001,9_0_4:0.00000001):0.00000000,9_0_0:0.00000001):0.00000003,9_0_3:0.00000003):0.00000195):0.01492250,(10_0_1:0.00001143,(10_0_0:0.00000190,((10_0_2:0.00000086,10_0_4:0.00000073):0.00000007,10_0_3:0.00000079):0.00000187):0.00001872):0.00783711):0.00590695):0.01203650):0.01262175):0.05128702,0_0_0:0.06263702);

data_07	T07	76	1	1	0.417512	0.114171	0.206289	(((((((10_0_3:0.00000323,10_0_1:0.00000467):0.00000261,(10_0_4:0.00000054,(10_0_2:0.00000031,10_0_0:0.00000052):0.00000084):0.00000595):0.00845726,((9_0_2:0.00000145,(9_0_3:0.00000025,9_0_1:0.00000030):0.00000187):0.00001567,(9_0_4:0.00000826,9_0_0:0.00000855):0.00002136):0.00858065):0.00657366,((((8_0_0:0.00000508,8_0_2:0.00000812):0.00000704,(8_0_4:0.00000168,(8_0_3:0.00000033,8_0_1:0.00000057):0.00000188):0.00000770):0.00252718,(3_0_3:0.00000336,(3_0_1:0.00000132,(3_0_2:0.00000077,(3_0_0:0.00000005,3_0_4:0.00000009):0.00000072):0.00000136):0.00000144):0.00390874):0.00726620,((5_0_2:0.00000025,5_0_1:0.00000059):0.00001507,(5_0_3:0.00000239,(5_0_4:0.00000036,5_0_0:0.00000037):0.00000150):0.00000848):0.01100854):0.00833313):0.01322258,(((2_0_0:0.00000298,2_0_1:0.00000237):0.00001818,((2_0_3:0.00000327,2_0_4:0.00000170):0.00000139,2_0_2:0.00000213):0.00001077):0.01711332,((((7_0_3:0.00000302,(7_0_4:0.00000515,7_0_2:0.00000516):0.00000022):0.00000119,(7_0_0:0.00000093,7_0_1:0.00000070):0.00000458):0.01045603,((1_0_2:0.00000300,1_0_1:0.00000777):0.00001194,(1_0_4:0.00000201,(1_0_0:0.00000046,1_0_3:0.00000057):0.00000261):0.00001346):0.00677190):0.00741386,((((4_0_1:0.00000143,4_0_4:0.00000126):0.00000316,4_0_3:0.00000535):0.00000855,(4_0_0:0.00000258,4_0_2:0.00000382):0.00001567):0.01215308,(6_0_3:0.00004031,((6_0_4:0.00000001,6_0_1:0.00000002):0.00000355,(6_0_2:0.00000815,6_0_0:0.00000397):0.00000072):0.00001806):0.00779112):0.00266164):0.00455436):0.00852559):0.02239787,(((13_0_3:0.00001071,13_0_2:0.00000767):0.00000365,(13_0_1:0.00000202,(13_0_4:0.00000078,13_0_0:0.00000102):0.00000066):0.00001516):0.01431440,((((15_0_2:0.00000229,15_0_3:0.00000262):0.00000889,(15_0_4:0.00000414,(15_0_1:0.00000067,15_0_0:0.00000055):0.00000400):0.00000548):0.00397283,(((12_0_0:0.00000013,12_0_2:0.00000006):0.00000593,(12_0_1:0.00000077,12_0_3:0.00000089):0.00000678):0.00000372,12_0_4:0.00001951):0.00632178):0.01170005,(((14_0_2:0.00000071,14_0_3:0.00000080):0.00001985,((14_0_0:0.00000076,14_0_1:0.00000048):0.00000672,14_0_4:0.00000703):0.00002971):0.00611983,((((11_0_4:0.00000035,11_0_0:0.00000052):0.00000217,11_0_2:0.00000215):0.00000051,11_0_3:0.00000269):0.00000913,11_0_1:0.00000793):0.00466569):0.01970494):0.00215067):0.03284120):0.05331675,0_0_0:0.09211809);

data_08	T08	76	1	1	0.477835	0.156336	0.254529	(0_0_0:0.15633557,(((13_0_4:0.00001156,((13_0_0:0.00000183,13_0_1:0.00000175):0.00000632,(13_0_2:0.00000305,13_0_3:0.00000494):0.00000271):0.00000543):0.01737701,(((15_0_4:0.00002714,((15_0_1:0.00000038,15_0_2:0.00000035):0.00000401,(15_0_3:0.00000010,15_0_0:0.00000014):0.00000468):0.00001998):0.00592830,(((12_0_4:0.00000098,12_0_0:0.00000070):0.00000054,12_0_2:0.00000147):0.00000427,(12_0_1:0.00000564,12_0_3:0.00000481):0.00000147):0.00513583):0.00975185,((14_0_4:0.00000896,(((14_0_0:0.00000065,14_0_2:0.00000056):0.00000441,14_0_1:0.00000287):0.00000900,14_0_3:0.00001114):0.00000032):0.00404550,(11_0_3:0.00005021,((11_0_0:0.00000175,11_0_2:0.00000310):0.00000012,(11_0_4:0.00000222,11_0_1:0.00000250):0.00000055):0.00003991):0.00453322):0.01550718):0.00309815):0.03524564,(((((((5_0_3:0.00000013,5_0_2:0.00000029):0.00000101,5_0_1:0.00000080):0.00000278,5_0_0:0.00001464):0.00000723,5_0_4:0.00003171):0.00795970,((8_0_2:0.00000448,((8_0_1:0.00000112,8_0_0:0.00000121):0.00000262,(8_0_3:0.00000223,8_0_4:0.00000192):0.00000284):0.00000019):0.00199449,(((3_0_4:0.00000002,3_0_2:0.00000005):0.00000318,3_0_0:0.00000247):0.00000722,(3_0_1:0.00000269,3_0_3:0.00000201):0.00001156):0.00394358):0.00749482):0.00570484,((((9_0_3:0.00000029,9_0_2:0.00000022):0.00000058,9_0_0:0.00000040):0.00001128,(9_0_1:0.00000183,9_0_4:0.00000262):0.00001247):0.00734577,((10_0_1:0.00000583,10_0_3:0.00000895):0.00001094,((10_0_0:0.00000166,10_0_4:0.00000112):0.00000746,10_0_2:0.00000273):0.00000492):0.01041263):0.00627527):0.01133402,(((((4_0_1:0.00000134,4_0_0:0.00000117):0.00000215,(4_0_4:0.00000728,(4_0_3:0.00000433,4_0_2:0.00000153):0.00000342):0.00000134):0.01425230,(6_0_1:0.00000301,(6_0_0:0.00000458,((6_0_3:0.00000030,6_0_2:0.00000045):0.00000124,6_0_4:0.00000082):0.00000144):0.00000127):0.01547522):0.00422426,((1_0_3:0.00001307,(((1_0_0:0.00000036,1_0_4:0.00000080):0.00000312,1_0_2:0.00000211):0.00000043,1_0_1:0.00000334):0.00000564):0.01058674,(((7_0_1:0.00000168,(7_0_0:0.00000109,7_0_3:0.00000078):0.00000050):0.00000036,7_0_2:0.00000253):0.00002012,7_0_4:0.00002015):0.00922944):0.01071501):0.00159019,(2_0_0:0.00005447,(((2_0_1:0.00000020,2_0_2:0.00000028):0.00000212,2_0_4:0.00000178):0.00000206,2_0_3:0.00000376):0.00003891):0.01873534):0.01357371):0.01962492):0.03975907);

data_09	T09	76	1	1	0.396573	0.0982692	0.186754	((((((((9_0_1:0.00000126,9_0_4:0.00000083):0.00000035,9_0_3:0.00000111):0.00000143,(9_0_0:0.00000056,9_0_2:0.00000095):0.00000166):0.00828804,((10_0_3:0.00000629,((10_0_4:0.00000109,10_0_0:0.00000182):0.00000125,10_0_2:0.00000467):0.00000331):0.00004394,10_0_1:0.00004476):0.01287186):0.00955401,((((3_0_4:0.00000262,3_0_3:0.00000293):0.00000409,((3_0_0:0.00000150,3_0_2:0.00000144):0.00000142,3_0_1:0.00000547):0.00000202):0.00428273,(8_0_4:0.00002055,((8_0_2:0.00000133,8_0_1:0.00000114):0.00000044,(8_0_3:0.00000080,8_0_0:0.00000078):0.00000093):0.00001320):0.00311095):0.00140018,((5_0_1:0.00000251,(5_0_4:0.00000090,(5_0_2:0.00000050,5_0_3:0.00000068):0.00000025):0.00000244):0.00000956,5_0_0:0.00000713):0.00776699):0.00970064):0.01078399,((((((4_0_0:0.00000411,4_0_3:0.00000380):0.00000041,(4_0_1:0.00000012,4_0_2:0.00000005):0.00000247):0.00001505,4_0_4:0.00001771):0.01052981,(((6_0_3:0.00000030,6_0_2:0.00000040):0.00000332,(6_0_0:0.00000050,6_0_4:0.00000049):0.00000513):0.00000724,6_0_1:0.00000679):0.00999568):0.00414505,(((7_0_2:0.00000214,7_0_4:0.00000257):0.00000818,((7_0_3:0.00000035,7_0_0:0.00000052):0.00000338,7_0_1:0.00000338):0.00001506):0.00625037,(((1_0_1:0.00000011,1_0_3:0.00000009):0.00000076,1_0_2:0.00000088):0.00001074,(1_0_0:0.00000192,1_0_4:0.00000183):0.00000473):0.00823019):0.01665794):0.00202273,((2_0_0:0.00000712,(2_0_1:0.00000240,2_0_2:0.00000076):0.00000409):0.00000767,(2_0_4:0.00000088,2_0_3:0.00000079):0.00002899):0.02291535):0.01597674):0.00918496,(((13_0_4:0.00000035,13_0_3:0.00000027):0.00000726,(13_0_0:0.00000029,(13_0_2:0.00000025,13_0_1:0.00000018):0.00000023):0.00000674):0.02004159,(((11_0_3:0.00000555,((11_0_4:0.00000005,11_0_0:0.00000004):0.00000181,(11_0_2:0.00000163,11_0_1:0.00000164):0.00000040):0.00000248):0.00275879,((14_0_0:0.00000147,(14_0_3:0.00000028,(14_0_1:0.00000018,14_0_4:0.00000031):0.00000011):0.00000156):0.00000642,14_0_2:0.00001178):0.00330592):0.01201995,((((15_0_4:0.00000102,15_0_0:0.00000060):0.00000242,15_0_3:0.00000291):0.00000510,(15_0_2:0.00000016,15_0_1:0.00000031):0.00000801):0.00801360,(12_0_1:0.00001724,(12_0_2:0.00000146,((12_0_0:0.00000004,12_0_4:0.00000012):0.00000028,12_0_3:0.00000025):0.00000106):0.00000935):0.00511044):0.01465231):0.00319771):0.01865598):0.03640077,0_0_0:0.09826923);

data_10	T10	76	1	1	0.395205	0.0970965	0.154582	((((13_0_1:0.00002128,(13_0_0:0.00000465,((13_0_4:0.00000032,13_0_2:0.00000084):0.00000178,13_0_3:0.00000185):0.00000439):0.00000938):0.02413555,(((15_0_3:0.00000488,((15_0_4:0.00000005,15_0_2:0.00000004):0.00000038,(15_0_1:0.00000013,15_0_0:0.00000011):0.00000029):0.00000384):0.00452843,(((12_0_2:0.00000029,12_0_0:0.00000017):0.00000022,12_0_1:0.00000050):0.00004930,(12_0_4:0.00000231,12_0_3:0.00000419):0.00004559):0.00752955):0.01856661,((((14_0_4:0.00000050,14_0_1:0.00000047):0.00000513,(14_0_0:0.00000702,14_0_3:0.00000876):0.00000144):0.00000300,14_0_2:0.00000544):0.00726128,((11_0_4:0.00000094,(11_0_2:0.00000052,11_0_3:0.00000032):0.00000060):0.00000515,(11_0_1:0.00000249,11_0_0:0.00000270):0.00000531):0.00179728):0.01467675):0.00261979):0.02969686,((((((1_0_4:0.00000221,(1_0_0:0.00000088,1_0_3:0.00000073):0.00000186):0.00000001,(1_0_1:0.00000124,1_0_2:0.00000074):0.00000137):0.01010616,(7_0_3:0.00001123,((7_0_1:0.00000164,7_0_4:0.00000161):0.00001043,(7_0_0:0.00000011,7_0_2:0.00000006):0.00001251):0.00000218):0.01191094):0.00939430,(((4_0_1:0.00000386,4_0_0:0.00000176):0.00001589,((4_0_2:0.00000043,4_0_4:0.00000067):0.00000194,4_0_3:0.00000250):0.00001003):0.01688567,(((6_0_4:0.00000069,6_0_3:0.00000087):0.00000117,6_0_0:0.00000203):0.00003103,(6_0_2:0.00000047,6_0_1:0.00000042):0.00002376):0.00916949):0.00253766):0.00361090,((2_0_4:0.00000518,((2_0_2:0.00000318,2_0_3:0.00000151):0.00000089,2_0_1:0.00000239):0.00000063):0.00000851,2_0_0:0.00000931):0.01141880):0.01102151,(((((9_0_2:0.00000253,9_0_0:0.00000143):0.00000032,9_0_3:0.00000210):0.00000514,(9_0_1:0.00000422,9_0_4:0.00000682):0.00000147):0.01181577,((10_0_2:0.00000206,(10_0_1:0.00000246,10_0_4:0.00000133):0.00000055):0.00000595,(10_0_0:0.00000120,10_0_3:0.00000052):0.00000888):0.01055208):0.00917791,((((8_0_2:0.00000210,8_0_3:0.00000125):0.00001712,(8_0_4:0.00000192,(8_0_0:0.00000148,8_0_1:0.00000098):0.00000025):0.00001086):0.00454546,((3_0_1:0.00000213,(3_0_3:0.00000236,(3_0_4:0.00000081,3_0_2:0.00000086):0.00000089):0.00000009):0.00000086,3_0_0:0.00000303):0.00300176):0.00712796,(((5_0_0:0.00000003,5_0_1:0.00000005):0.00000415,(5_0_4:0.00000150,5_0_3:0.00000127):0.00000330):0.00000110,5_0_2:0.00000530):0.01042860):0.00761329):0.02457186):0.01749917):0.03402345,0_0_0:0.05748520);
