********************************************************************************
INDELible V1.03 by Will Fletcher : Simulation began at: Fri Dec  2 11:09:35 2016
********************************************************************************

  * Block 1 was completed in 0.63 seconds.

********************************************************************************


  * Block 2 was completed in 0.62 seconds.

********************************************************************************


  * Block 3 was completed in 0.63 seconds.

********************************************************************************


  * Block 4 was completed in 0.61 seconds.

********************************************************************************


  * Block 5 was completed in 0.63 seconds.

********************************************************************************


  * Block 6 was completed in 0.61 seconds.

********************************************************************************


  * Block 7 was completed in 0.65 seconds.

********************************************************************************


  * Block 8 was completed in 0.62 seconds.

********************************************************************************


  * Block 9 was completed in 0.62 seconds.

********************************************************************************


  * Block 10 was completed in 0.62 seconds.

********************************************************************************

  * Simulation completed. Whole batch took: 6.29 seconds.

INDELible V1.03 Simulations completed at: Fri Dec  2 11:09:42 2016

********************************************************************************


 Original Control File 

-----------------------


[TYPE] NUCLEOTIDE 1 

[SETTINGS]
    [fastaextension] fasta  

[MODEL] csSim_unlinked_1
    [submodel] GTR 0.048993 0.020229 0.027216 0.011039 0.038645 
    [statefreq] 0.197240 0.268512 0.098204 0.436043 
[rates] 0 5.445736 0 

[MODEL] csSim_unlinked_2
    [submodel] GTR 0.078675 0.015006 0.019124 0.049575 0.050425 
    [statefreq] 0.172104 0.487681 0.276078 0.064137 
[rates] 0 6.281376 0 

[MODEL] csSim_unlinked_3
    [submodel] GTR 0.117628 0.017810 0.017074 0.020852 0.040362 
    [statefreq] 0.243940 0.146947 0.513651 0.095462 
[rates] 0 23.124328 0 

[MODEL] csSim_unlinked_4
    [submodel] GTR 0.109636 0.004634 0.022115 0.020558 0.050719 
    [statefreq] 0.352003 0.032710 0.492740 0.122546 
[rates] 0 5.748755 0 

[MODEL] csSim_unlinked_5
    [submodel] GTR 0.100963 0.014127 0.035645 0.033907 0.028509 
    [statefreq] 0.330245 0.137926 0.271312 0.260517 
[rates] 0 0.080324 0 

[MODEL] csSim_unlinked_6
    [submodel] GTR 0.104232 0.035236 0.029885 0.042847 0.027363 
    [statefreq] 0.110081 0.802038 0.014253 0.073628 
[rates] 0 5.835320 0 

[MODEL] csSim_unlinked_7
    [submodel] GTR 0.112796 0.004493 0.014349 0.021241 0.061123 
    [statefreq] 0.848148 0.029222 0.062004 0.060626 
[rates] 0 36.756147 0 

[MODEL] csSim_unlinked_8
    [submodel] GTR 0.106263 0.008794 0.013885 0.028368 0.045875 
    [statefreq] 0.238426 0.417714 0.129438 0.214422 
[rates] 0 53.121769 0 

[MODEL] csSim_unlinked_9
    [submodel] GTR 0.128131 0.008319 0.026040 0.028097 0.016254 
    [statefreq] 0.138402 0.139273 0.290971 0.431353 
[rates] 0 1.312701 0 

[MODEL] csSim_unlinked_10
    [submodel] GTR 0.081902 0.004335 0.015064 0.017369 0.028466 
    [statefreq] 0.184082 0.412528 0.051500 0.351890 
[rates] 0 10.740040 0 


[TREE] T01 (0_0_0:0.06639681,(((((((14_0_3:0.00000023,14_0_8:0.00000025):0.00003291,(((14_0_2:0.00000570,((14_0_4:0.00000303,14_0_5:0.00000343):0.00000004,14_0_6:0.00000269):0.00000372):0.00000979,(14_0_10:0.00000966,((14_0_0:0.00000108,14_0_12:0.00000072):0.00000857,14_0_7:0.00000821):0.00000019):0.00000377):0.00000161,14_0_11:0.00001750):0.00001584):0.00000798,14_0_1:0.00003664):0.00001449,14_0_9:0.00007654):0.00895322,(((((3_0_3:0.00000086,3_0_6:0.00000067):0.00016401,((((3_0_1:0.00000103,3_0_7:0.00000116):0.00000045,(3_0_10:0.00000086,3_0_4:0.00000223):0.00000054):0.00001207,(3_0_2:0.00000399,(3_0_0:0.00000201,3_0_5:0.00000346):0.00000173):0.00001109):0.00004514,(3_0_8:0.00002640,((3_0_9:0.00000398,3_0_12:0.00000297):0.00000386,3_0_11:0.00000593):0.00002831):0.00003350):0.00008920):0.00613189,(((4_0_6:0.00006343,((4_0_2:0.00000073,4_0_7:0.00000121):0.00000639,(4_0_11:0.00000416,4_0_12:0.00000491):0.00000702):0.00007931):0.00004433,(((4_0_0:0.00000233,4_0_3:0.00000325):0.00000186,4_0_4:0.00000339):0.00010142,((4_0_10:0.00002155,4_0_9:0.00001722):0.00001242,((4_0_1:0.00000015,4_0_8:0.00000009):0.00000168,4_0_5:0.00000208):0.00002673):0.00006331):0.00003893):0.00075593,(((18_0_10:0.00000118,(18_0_0:0.00000069,18_0_12:0.00000090):0.00000032):0.00012533,(((18_0_2:0.00000144,18_0_4:0.00000081):0.00000274,18_0_3:0.00000502):0.00002194,18_0_7:0.00005319):0.00005354):0.00002198,((18_0_8:0.00001487,((18_0_5:0.00000375,18_0_9:0.00000604):0.00000258,18_0_1:0.00000961):0.00000577):0.00000354,(18_0_11:0.00000274,18_0_6:0.00000334):0.00001998):0.00011486):0.00063292):0.00411541):0.00028735,((((((9_0_8:0.00000394,9_0_7:0.00000586):0.00000947,9_0_2:0.00001311):0.00001152,9_0_3:0.00003037):0.00059568,(((((((10_0_12:0.00000396,10_0_9:0.00000277):0.00000260,10_0_8:0.00000374):0.00000298,10_0_6:0.00000539):0.00000132,10_0_3:0.00000719):0.00000278,(10_0_10:0.00000117,10_0_5:0.00000182):0.00000805):0.00002608,(10_0_2:0.00000893,((10_0_7:0.00000188,10_0_11:0.00000174):0.00001165,10_0_1:0.00001205):0.00000620):0.00001409):0.00007720,(10_0_0:0.00007001,10_0_4:0.00008784):0.00006094):0.00026885):0.00006985,((9_0_5:0.00002547,(9_0_1:0.00000594,9_0_9:0.00000782):0.00000726):0.00001944,((9_0_11:0.00000156,9_0_12:0.00000225):0.00000347,(9_0_6:0.00000396,((9_0_0:0.00000136,9_0_4:0.00000143):0.00000041,9_0_10:0.00000173):0.00000085):0.00000395):0.00003301):0.00055574):0.00275871,(((7_0_1:0.00001350,(7_0_7:0.00002326,(7_0_10:0.00000152,7_0_5:0.00000152):0.00001566):0.00000142):0.00000339,(7_0_8:0.00001120,(7_0_3:0.00000301,7_0_9:0.00000447):0.00000641):0.00001225):0.00018709,((7_0_12:0.00003544,(7_0_4:0.00000331,7_0_11:0.00000477):0.00004618):0.00000020,(7_0_6:0.00000307,(7_0_0:0.00000108,7_0_2:0.00000079):0.00000380):0.00003957):0.00011666):0.00299398):0.00203129):0.00469499,((((5_0_8:0.00001545,5_0_3:0.00001060):0.00004348,((5_0_4:0.00000132,5_0_9:0.00000126):0.00000982,5_0_0:0.00001351):0.00002404):0.00001737,((5_0_6:0.00000296,(5_0_12:0.00000302,(5_0_1:0.00000004,5_0_7:0.00000007):0.00000173):0.00000189):0.00004583,(((5_0_11:0.00000667,5_0_5:0.00000549):0.00000977,5_0_10:0.00001673):0.00001704,5_0_2:0.00004127):0.00001185):0.00002111):0.00322846,(((11_0_0:0.00001065,(11_0_8:0.00000376,11_0_10:0.00000433):0.00000357):0.00001612,11_0_1:0.00003188):0.00013415,(((11_0_4:0.00002298,((11_0_12:0.00000627,(11_0_3:0.00000377,11_0_5:0.00000504):0.00000117):0.00000711,11_0_2:0.00001235):0.00001762):0.00004571,(11_0_11:0.00000666,11_0_7:0.00000938):0.00007453):0.00000613,(11_0_9:0.00006584,11_0_6:0.00003406):0.00004560):0.00008070):0.00303132):0.00814834):0.00062361):0.00553272,((((12_0_3:0.00000493,((12_0_11:0.00000059,12_0_6:0.00000053):0.00000016,12_0_5:0.00000079):0.00000239):0.00007739,(12_0_1:0.00004176,((12_0_10:0.00004050,12_0_7:0.00006926):0.00000089,(((((12_0_0:0.00000035,12_0_9:0.00000033):0.00000063,12_0_2:0.00000168):0.00000538,12_0_12:0.00000401):0.00001688,12_0_8:0.00001601):0.00001627,12_0_4:0.00004718):0.00000444):0.00002599):0.00013111):0.00434662,((((16_0_1:0.00011894,(((16_0_3:0.00000170,16_0_0:0.00000211):0.00003531,((((16_0_9:0.00000205,16_0_10:0.00000305):0.00000178,16_0_11:0.00000475):0.00000139,16_0_6:0.00000570):0.00000443,16_0_2:0.00001413):0.00002527):0.00000511,(16_0_5:0.00001251,(16_0_12:0.00000570,16_0_4:0.00000688):0.00001004):0.00001559):0.00007676):0.00014959,(16_0_7:0.00000092,16_0_8:0.00000142):0.00022161):0.00070472,(((17_0_0:0.00001816,(17_0_12:0.00002788,(((17_0_8:0.00000563,17_0_3:0.00000609):0.00000093,17_0_4:0.00000551):0.00000609,(17_0_11:0.00000548,17_0_10:0.00000670):0.00000633):0.00001283):0.00000025):0.00008880,((17_0_7:0.00000073,17_0_6:0.00000040):0.00002778,17_0_5:0.00002065):0.00007063):0.00005078,(17_0_9:0.00000747,(17_0_2:0.00000167,17_0_1:0.00000102):0.00000788):0.00012717):0.00086430):0.00195352,((((15_0_11:0.00000413,(15_0_3:0.00000359,(15_0_5:0.00000268,15_0_9:0.00000335):0.00000210):0.00000074):0.00009765,((15_0_12:0.00000316,15_0_8:0.00000526):0.00003775,(((15_0_7:0.00000241,15_0_1:0.00000120):0.00000449,(15_0_2:0.00000279,15_0_4:0.00000295):0.00000644):0.00000141,15_0_0:0.00001369):0.00002194):0.00004614):0.00018249,(15_0_6:0.00003214,15_0_10:0.00003711):0.00024026):0.00048511,(13_0_9:0.00012144,((13_0_5:0.00001970,(13_0_10:0.00000666,(13_0_8:0.00000025,13_0_12:0.00000026):0.00000562):0.00003311):0.00000650,((13_0_1:0.00004281,((13_0_0:0.00000543,(13_0_4:0.00000512,13_0_11:0.00000622):0.00000013):0.00000138,13_0_2:0.00000690):0.00002362):0.00000186,(13_0_3:0.00001904,(13_0_6:0.00000690,13_0_7:0.00000822):0.00001960):0.00001636):0.00000114):0.00007968):0.00064313):0.00302481):0.00118169):0.01155529,((((((6_0_12:0.00000211,6_0_2:0.00000128):0.00000016,6_0_3:0.00000261):0.00005954,6_0_5:0.00006110):0.00016092,(((6_0_4:0.00000908,6_0_7:0.00001139):0.00001263,((6_0_6:0.00000286,(6_0_9:0.00000439,6_0_0:0.00000597):0.00000018):0.00000441,(6_0_1:0.00000051,6_0_10:0.00000034):0.00000836):0.00001249):0.00008100,(6_0_8:0.00001080,6_0_11:0.00001251):0.00011498):0.00011036):0.00127396,(19_0_1:0.00013145,((19_0_5:0.00002252,((19_0_2:0.00001900,((19_0_0:0.00000113,(19_0_4:0.00000000,19_0_6:0.00000000):0.00000070):0.00000175,(19_0_11:0.00000217,19_0_7:0.00000201):0.00000356):0.00001057):0.00000028,((19_0_10:0.00000125,(19_0_3:0.00000103,19_0_9:0.00000115):0.00000038):0.00000777,19_0_8:0.00000446):0.00000427):0.00001199):0.00002184,19_0_12:0.00003964):0.00018785):0.00081726):0.00378247,(8_0_8:0.00018972,(((8_0_10:0.00001183,(8_0_4:0.00001163,8_0_12:0.00001090):0.00000165):0.00000985,8_0_3:0.00002084):0.00000435,(((8_0_5:0.00000148,8_0_0:0.00000133):0.00000246,8_0_9:0.00000318):0.00001268,((8_0_7:0.00000364,(8_0_11:0.00000055,8_0_6:0.00000055):0.00000311):0.00000327,(8_0_1:0.00000366,8_0_2:0.00000185):0.00000524):0.00001492):0.00000070):0.00020313):0.00600008):0.00408977):0.00692142):0.02181820,((((2_0_9:0.00001228,(2_0_6:0.00001908,2_0_4:0.00001434):0.00000359):0.00003760,(2_0_0:0.00003164,((2_0_1:0.00000771,2_0_7:0.00000969):0.00001712,2_0_2:0.00003574):0.00000272):0.00001803):0.00001729,(((2_0_8:0.00000296,2_0_3:0.00000242):0.00000340,2_0_12:0.00000535):0.00000517,(2_0_11:0.00000631,(2_0_5:0.00000259,2_0_10:0.00000430):0.00000257):0.00000593):0.00005585):0.00274604,((1_0_11:0.00003023,((1_0_8:0.00001450,1_0_5:0.00001751):0.00000417,((1_0_1:0.00000104,1_0_6:0.00000073):0.00001249,(1_0_3:0.00000742,1_0_0:0.00000647):0.00000214):0.00000639):0.00000881):0.00010584,((((1_0_7:0.00000484,1_0_4:0.00000241):0.00000340,1_0_10:0.00000476):0.00001298,(1_0_12:0.00000757,1_0_9:0.00000735):0.00000892):0.00007639,1_0_2:0.00008443):0.00000031):0.00277281):0.03587877):0.02918613);
[TREE] T02 ((((((8_0_5:0.00024249,((((8_0_11:0.00000202,8_0_4:0.00000112):0.00000210,8_0_3:0.00000431):0.00003808,((8_0_0:0.00000612,(8_0_7:0.00000036,8_0_8:0.00000042):0.00000451):0.00000162,8_0_10:0.00000547):0.00001369):0.00002931,(8_0_9:0.00002846,(8_0_6:0.00000398,(8_0_2:0.00000430,(8_0_1:0.00000106,8_0_12:0.00000067):0.00000171):0.00000083):0.00003067):0.00002866):0.00026534):0.00599814,((((6_0_12:0.00000015,6_0_11:0.00000015):0.00003834,6_0_9:0.00002701):0.00004737,(((6_0_6:0.00002912,6_0_3:0.00001823):0.00003388,(6_0_8:0.00002620,6_0_0:0.00002140):0.00003693):0.00002628,(6_0_4:0.00000822,((6_0_5:0.00000039,6_0_10:0.00000053):0.00000772,((6_0_2:0.00000132,6_0_7:0.00000117):0.00000323,6_0_1:0.00000636):0.00000175):0.00000215):0.00007077):0.00005663):0.00197626,((19_0_6:0.00017081,((19_0_12:0.00000917,19_0_1:0.00001183):0.00000391,19_0_10:0.00001380):0.00009182):0.00005227,((19_0_4:0.00002763,(((19_0_3:0.00000217,19_0_0:0.00000183):0.00000786,(19_0_5:0.00000049,19_0_2:0.00000059):0.00000584):0.00002671,(19_0_8:0.00000075,19_0_9:0.00000080):0.00003832):0.00000832):0.00001438,(19_0_11:0.00000314,19_0_7:0.00000280):0.00004015):0.00012557):0.00137005):0.00430937):0.00389600,(((((12_0_7:0.00000232,12_0_6:0.00000107):0.00000947,12_0_5:0.00000997):0.00002045,12_0_10:0.00002422):0.00006935,((((((12_0_3:0.00000148,12_0_2:0.00000137):0.00000279,(12_0_1:0.00000151,12_0_9:0.00000074):0.00000377):0.00000185,12_0_11:0.00000765):0.00000516,12_0_8:0.00001041):0.00000438,(12_0_12:0.00000292,12_0_4:0.00000385):0.00000724):0.00005973,12_0_0:0.00008815):0.00002404):0.00775128,(((((13_0_2:0.00001690,(13_0_9:0.00000048,13_0_4:0.00000023):0.00001485):0.00006964,(13_0_1:0.00003860,(13_0_8:0.00001199,((13_0_11:0.00000252,13_0_3:0.00000336):0.00000653,(13_0_6:0.00000356,(13_0_0:0.00000181,13_0_10:0.00000231):0.00000258):0.00000613):0.00000746):0.00003230):0.00005367):0.00005525,((13_0_5:0.00001361,13_0_12:0.00000848):0.00003049,13_0_7:0.00005352):0.00018972):0.00074588,((((15_0_5:0.00005215,15_0_0:0.00002308):0.00000322,((15_0_1:0.00002544,15_0_11:0.00002257):0.00000695,((15_0_7:0.00001105,15_0_9:0.00001031):0.00000099,15_0_10:0.00000841):0.00001590):0.00001371):0.00001353,(((15_0_6:0.00000107,15_0_2:0.00000126):0.00000006,15_0_3:0.00000116):0.00001968,15_0_8:0.00001306):0.00004758):0.00002161,(15_0_4:0.00001430,15_0_12:0.00000935):0.00006294):0.00196175):0.00194918,(((16_0_2:0.00008147,((16_0_8:0.00001975,16_0_1:0.00001576):0.00006177,(16_0_11:0.00000528,16_0_0:0.00000634):0.00004764):0.00001549):0.00016432,((16_0_5:0.00000897,16_0_3:0.00001340):0.00004443,((16_0_12:0.00000759,16_0_9:0.00000507):0.00002080,(16_0_6:0.00000967,((16_0_4:0.00000060,16_0_7:0.00000047):0.00000259,16_0_10:0.00000157):0.00000454):0.00001656):0.00003294):0.00020462):0.00120991,(((17_0_5:0.00002993,17_0_10:0.00003559):0.00011344,(17_0_1:0.00010974,(17_0_4:0.00000925,17_0_9:0.00001000):0.00007518):0.00006964):0.00021169,(((17_0_0:0.00001681,17_0_3:0.00001817):0.00001029,((17_0_6:0.00000345,(17_0_8:0.00000006,17_0_2:0.00000004):0.00000427):0.00000386,17_0_12:0.00000691):0.00002651):0.00002259,(17_0_7:0.00000230,17_0_11:0.00000245):0.00006922):0.00042308):0.00080093):0.00267622):0.00067628):0.00744334):0.00278665,(((((((((10_0_0:0.00000425,10_0_2:0.00000260):0.00003081,10_0_8:0.00002924):0.00000230,(10_0_11:0.00000054,10_0_7:0.00000057):0.00004186):0.00001283,(((10_0_12:0.00000430,(10_0_5:0.00000435,(10_0_10:0.00000440,10_0_9:0.00000398):0.00000024):0.00000030):0.00000621,10_0_4:0.00001120):0.00001252,((10_0_6:0.00000656,10_0_3:0.00000899):0.00000693,10_0_1:0.00001991):0.00000212):0.00004083):0.00056986,((9_0_9:0.00007871,((9_0_8:0.00001317,(9_0_12:0.00000124,9_0_7:0.00000114):0.00001639):0.00008671,(9_0_3:0.00001368,(9_0_10:0.00000776,9_0_5:0.00000694):0.00000435):0.00008330):0.00000458):0.00000918,((9_0_4:0.00002776,9_0_11:0.00002144):0.00001514,((9_0_0:0.00001673,9_0_6:0.00001615):0.00002209,(9_0_2:0.00000068,9_0_1:0.00000112):0.00004086):0.00000418):0.00008494):0.00036482):0.00438966,(((7_0_8:0.00004269,(7_0_6:0.00001596,(7_0_1:0.00000041,7_0_4:0.00000030):0.00001532):0.00001564):0.00003572,((7_0_3:0.00000011,7_0_9:0.00000009):0.00000279,(7_0_12:0.00000023,7_0_0:0.00000023):0.00000392):0.00006293):0.00017638,((7_0_11:0.00000530,7_0_7:0.00000622):0.00023783,(7_0_10:0.00002555,(7_0_2:0.00001130,7_0_5:0.00001243):0.00000762):0.00024342):0.00002204):0.00321917):0.00144058,(((((3_0_10:0.00000436,3_0_6:0.00000327):0.00000389,(3_0_2:0.00000096,3_0_3:0.00000078):0.00000909):0.00030817,((3_0_5:0.00000248,3_0_4:0.00000202):0.00003907,(((3_0_7:0.00000165,3_0_1:0.00000209):0.00000980,(3_0_9:0.00001593,3_0_0:0.00000773):0.00000219):0.00000805,(3_0_8:0.00000302,3_0_12:0.00000352):0.00002383):0.00002532):0.00012445):0.00003188,3_0_11:0.00009162):0.00255292,((4_0_7:0.00011922,((4_0_3:0.00000415,(4_0_9:0.00000173,4_0_2:0.00000125):0.00000221):0.00017256,(((4_0_0:0.00002223,4_0_11:0.00002754):0.00000039,(((4_0_10:0.00000107,4_0_1:0.00000077):0.00000665,(4_0_12:0.00000011,4_0_8:0.00000012):0.00000937):0.00000626,4_0_6:0.00001326):0.00000352):0.00001067,(4_0_4:0.00000389,4_0_5:0.00000572):0.00001503):0.00011406):0.00000371):0.00046945,(((((18_0_3:0.00000561,18_0_5:0.00000582):0.00000029,18_0_10:0.00000272):0.00001259,(18_0_1:0.00002396,18_0_11:0.00000807):0.00000583):0.00000328,18_0_7:0.00001902):0.00016059,(18_0_12:0.00002663,(18_0_4:0.00000661,((18_0_9:0.00000268,18_0_2:0.00000270):0.00000062,((18_0_0:0.00000015,18_0_6:0.00000018):0.00000378,18_0_8:0.00000387):0.00000094):0.00000057):0.00001821):0.00023242):0.00027507):0.00359705):0.00088822):0.00288381,(((11_0_2:0.00009694,(((11_0_10:0.00001535,11_0_7:0.00001320):0.00000017,11_0_11:0.00001650):0.00002302,((((11_0_3:0.00000024,11_0_1:0.00000022):0.00001002,11_0_5:0.00000876):0.00000416,(11_0_9:0.00001000,(11_0_8:0.00000638,11_0_6:0.00000549):0.00000182):0.00000238):0.00000613,11_0_0:0.00001407):0.00001494):0.00003766):0.00004448,(11_0_12:0.00000052,11_0_4:0.00000036):0.00014712):0.00341807,(((5_0_12:0.00000002,5_0_4:0.00000001):0.00003134,(((5_0_11:0.00000175,5_0_9:0.00000324):0.00000850,(5_0_5:0.00000430,5_0_7:0.00000232):0.00000338):0.00001423,(5_0_1:0.00000330,(5_0_2:0.00000160,5_0_8:0.00000128):0.00000163):0.00002361):0.00000263):0.00000447,(5_0_10:0.00001943,(5_0_3:0.00001663,(5_0_0:0.00000081,5_0_6:0.00000091):0.00001235):0.00001507):0.00000439):0.00389850):0.00298791):0.00114802,(((14_0_3:0.00000074,14_0_8:0.00000103):0.00000115,14_0_4:0.00000215):0.00007925,((14_0_7:0.00000329,14_0_1:0.00000485):0.00001966,(((14_0_12:0.00000203,14_0_9:0.00000242):0.00000627,((14_0_11:0.00000454,14_0_6:0.00000512):0.00000195,(14_0_10:0.00000066,14_0_5:0.00000068):0.00000892):0.00000258):0.00000043,(14_0_0:0.00000006,14_0_2:0.00000008):0.00000993):0.00001789):0.00003732):0.00871168):0.00583870):0.01305260,((((1_0_7:0.00001098,((1_0_12:0.00000132,1_0_6:0.00000155):0.00000112,1_0_5:0.00000251):0.00001512):0.00001143,(1_0_8:0.00000453,1_0_4:0.00000580):0.00002153):0.00006451,(((1_0_3:0.00003568,(1_0_10:0.00001064,((1_0_2:0.00000613,1_0_0:0.00001202):0.00000165,1_0_1:0.00001272):0.00000068):0.00001800):0.00000787,1_0_9:0.00002499):0.00000462,1_0_11:0.00004392):0.00007961):0.00244582,(((2_0_2:0.00001516,(2_0_12:0.00002900,2_0_3:0.00002800):0.00000046):0.00003044,(2_0_5:0.00002166,(2_0_8:0.00002017,((2_0_10:0.00000150,2_0_0:0.00000075):0.00000949,(2_0_1:0.00000409,(2_0_9:0.00000080,2_0_7:0.00000070):0.00000270):0.00000421):0.00000873):0.00000395):0.00002830):0.00009690,(2_0_11:0.00006819,(2_0_6:0.00000844,2_0_4:0.00001202):0.00005332):0.00004632):0.00226469):0.04353175):0.03021544,0_0_0:0.06168091);
[TREE] T03 (0_0_0:0.08091999,((((((((((5_0_9:0.00000912,(5_0_12:0.00000897,((5_0_7:0.00000420,5_0_11:0.00000346):0.00000165,5_0_5:0.00000636):0.00000365):0.00000181):0.00001357,5_0_1:0.00003088):0.00001857,(((5_0_0:0.00000633,5_0_4:0.00000962):0.00000388,5_0_2:0.00001287):0.00001780,(5_0_3:0.00002110,5_0_10:0.00002571):0.00001205):0.00001297):0.00000330,5_0_6:0.00003945):0.00002204,5_0_8:0.00006220):0.00348702,((11_0_12:0.00004587,11_0_6:0.00005441):0.00016075,((11_0_10:0.00003033,(((11_0_9:0.00000057,11_0_11:0.00000055):0.00000184,(11_0_2:0.00000207,11_0_5:0.00000163):0.00000075):0.00000555,11_0_0:0.00000567):0.00004163):0.00001305,((11_0_4:0.00000952,((11_0_7:0.00000269,11_0_8:0.00000206):0.00000177,11_0_3:0.00000430):0.00000379):0.00000297,11_0_1:0.00001379):0.00004132):0.00008827):0.00215137):0.00362739,((((((7_0_6:0.00000239,(7_0_7:0.00000178,7_0_10:0.00000113):0.00000046):0.00002938,((7_0_4:0.00000024,7_0_5:0.00000032):0.00001453,((7_0_12:0.00000949,(7_0_8:0.00000090,7_0_1:0.00000052):0.00001000):0.00000579,7_0_3:0.00001791):0.00000122):0.00000378):0.00007396,((7_0_2:0.00000126,7_0_9:0.00000237):0.00000527,7_0_0:0.00000644):0.00003197):0.00001074,7_0_11:0.00005695):0.00292154,(((((10_0_5:0.00000190,(10_0_3:0.00000123,10_0_11:0.00000199):0.00000051):0.00002235,((10_0_7:0.00000765,((10_0_9:0.00000055,10_0_0:0.00000044):0.00000093,10_0_6:0.00000205):0.00000391):0.00000238,10_0_12:0.00001826):0.00001009):0.00000543,10_0_8:0.00003059):0.00002722,((10_0_10:0.00000760,10_0_4:0.00002106):0.00002183,(10_0_1:0.00000094,10_0_2:0.00000052):0.00004765):0.00000191):0.00059701,(((9_0_7:0.00000091,9_0_3:0.00000078):0.00000168,9_0_12:0.00000247):0.00009489,(((9_0_2:0.00000604,(9_0_6:0.00000287,(9_0_8:0.00000024,9_0_1:0.00000018):0.00000133):0.00000332):0.00002190,9_0_11:0.00002564):0.00001605,(((9_0_0:0.00000400,9_0_5:0.00000574):0.00000537,9_0_9:0.00000835):0.00001516,(9_0_10:0.00000607,9_0_4:0.00000685):0.00001697):0.00003074):0.00003670):0.00079663):0.00226838):0.00181838,((3_0_1:0.00006124,(((3_0_5:0.00001588,(3_0_0:0.00000073,3_0_2:0.00000093):0.00001813):0.00000503,(3_0_3:0.00002964,(3_0_12:0.00000167,3_0_8:0.00000161):0.00003050):0.00000455):0.00000280,((3_0_7:0.00002368,(3_0_10:0.00001106,3_0_4:0.00001349):0.00000702):0.00000159,((3_0_9:0.00000393,3_0_6:0.00000257):0.00000267,3_0_11:0.00000596):0.00002325):0.00000411):0.00006538):0.00519469,(((18_0_3:0.00001745,(18_0_9:0.00000116,18_0_2:0.00000131):0.00000870):0.00008167,(18_0_1:0.00005660,(((18_0_10:0.00000441,(18_0_4:0.00000225,18_0_7:0.00000294):0.00000281):0.00002313,18_0_11:0.00003840):0.00002434,(18_0_5:0.00000990,(((18_0_8:0.00000558,18_0_12:0.00000406):0.00000185,18_0_6:0.00000875):0.00000172,18_0_0:0.00000855):0.00000052):0.00006215):0.00000546):0.00003472):0.00060719,(((((4_0_5:0.00000309,4_0_0:0.00000190):0.00000257,4_0_10:0.00000484):0.00001653,4_0_8:0.00001893):0.00001468,(4_0_4:0.00002332,4_0_3:0.00004194):0.00003181):0.00005206,(((4_0_2:0.00000687,4_0_6:0.00001053):0.00000592,4_0_7:0.00001404):0.00001226,(4_0_11:0.00000710,((4_0_1:0.00000021,4_0_9:0.00000013):0.00000032,4_0_12:0.00000103):0.00000357):0.00002427):0.00008642):0.00063001):0.00393670):0.00060328):0.00286228):0.00050265,((14_0_5:0.00002179,(14_0_8:0.00000878,(14_0_2:0.00000788,((14_0_10:0.00000494,14_0_12:0.00000339):0.00000038,14_0_4:0.00000432):0.00000048):0.00000252):0.00000603):0.00005119,((14_0_3:0.00005517,(14_0_9:0.00003427,14_0_7:0.00001970):0.00003778):0.00000633,((14_0_6:0.00000413,(14_0_0:0.00000231,14_0_11:0.00000264):0.00000315):0.00002910,14_0_1:0.00002340):0.00003869):0.00001688):0.00667576):0.00330641,(((((((19_0_7:0.00000259,19_0_5:0.00000172):0.00001176,19_0_10:0.00001083):0.00001915,(19_0_12:0.00000994,(19_0_1:0.00000231,19_0_4:0.00000312):0.00000644):0.00001447):0.00027924,((19_0_11:0.00004443,((19_0_2:0.00000431,19_0_8:0.00000452):0.00000706,(19_0_6:0.00000018,19_0_3:0.00000044):0.00001664):0.00003901):0.00002661,(19_0_0:0.00000280,19_0_9:0.00000514):0.00006572):0.00019142):0.00178523,(((((6_0_1:0.00000891,(6_0_7:0.00000518,6_0_3:0.00000550):0.00000351):0.00000311,(6_0_4:0.00000784,6_0_10:0.00001023):0.00000687):0.00005611,((6_0_5:0.00000143,6_0_11:0.00000178):0.00000161,6_0_2:0.00000571):0.00005963):0.00000720,((6_0_0:0.00000669,(6_0_6:0.00000024,6_0_9:0.00000020):0.00000538):0.00002114,6_0_8:0.00001961):0.00005093):0.00018304,6_0_12:0.00027830):0.00101342):0.00485263,((((8_0_2:0.00001797,(8_0_4:0.00002315,((8_0_0:0.00000098,8_0_10:0.00000075):0.00000893,8_0_1:0.00000886):0.00001033):0.00000332):0.00014978,(((8_0_9:0.00000286,8_0_7:0.00000291):0.00002089,(8_0_3:0.00001983,8_0_6:0.00000971):0.00001483):0.00001001,(8_0_11:0.00001651,8_0_12:0.00001579):0.00002186):0.00007810):0.00004183,8_0_8:0.00015760):0.00050277,8_0_5:0.00069544):0.00501962):0.00521178,((((((13_0_3:0.00000007,13_0_2:0.00000007):0.00004717,(13_0_1:0.00003372,(13_0_9:0.00002719,(13_0_8:0.00002225,(13_0_4:0.00000508,(13_0_7:0.00000302,13_0_6:0.00000715):0.00000079):0.00001232):0.00000861):0.00000354):0.00003013):0.00001134,((13_0_0:0.00000655,(13_0_12:0.00000698,13_0_5:0.00000312):0.00000186):0.00004730,(13_0_10:0.00000796,13_0_11:0.00000800):0.00008049):0.00002365):0.00084274,(15_0_2:0.00011914,((((15_0_1:0.00000439,(15_0_10:0.00000241,(15_0_5:0.00000008,15_0_7:0.00000008):0.00000505):0.00000023):0.00001576,(15_0_3:0.00001111,(15_0_0:0.00000947,(15_0_11:0.00000170,15_0_12:0.00000192):0.00001047):0.00000438):0.00000178):0.00001668,(15_0_6:0.00001225,(15_0_8:0.00000112,15_0_4:0.00000250):0.00000998):0.00001973):0.00003300,15_0_9:0.00007774):0.00002163):0.00099480):0.00360488,((((17_0_1:0.00000281,17_0_5:0.00000146):0.00000261,17_0_11:0.00000611):0.00004458,((17_0_7:0.00001694,(17_0_4:0.00000344,17_0_0:0.00000338):0.00001548):0.00006367,((17_0_12:0.00000304,(17_0_2:0.00000396,17_0_8:0.00000361):0.00000087):0.00002509,(17_0_6:0.00003275,((17_0_9:0.00000275,17_0_10:0.00000498):0.00001274,17_0_3:0.00001539):0.00001376):0.00000034):0.00003447):0.00000741):0.00084234,(((16_0_7:0.00004347,((((16_0_3:0.00000164,(16_0_11:0.00000143,16_0_9:0.00000184):0.00000002):0.00000406,16_0_8:0.00000579):0.00000612,16_0_12:0.00000708):0.00003381,((16_0_4:0.00000457,16_0_0:0.00000541):0.00000017,16_0_6:0.00000429):0.00003569):0.00000382):0.00003406,16_0_1:0.00008675):0.00011629,((16_0_2:0.00000005,16_0_5:0.00000006):0.00002819,16_0_10:0.00002712):0.00021185):0.00091416):0.00255049):0.00160406,((((12_0_2:0.00000847,12_0_9:0.00000814):0.00000351,(12_0_7:0.00000856,12_0_5:0.00000579):0.00000824):0.00004370,((12_0_8:0.00003525,(12_0_1:0.00000495,12_0_3:0.00000497):0.00002646):0.00003518,(12_0_6:0.00000933,(12_0_12:0.00000271,(12_0_10:0.00000031,12_0_0:0.00000068):0.00000472):0.00001055):0.00003465):0.00000014):0.00031284,(12_0_4:0.00000238,12_0_11:0.00000232):0.00023844):0.00607286):0.00711914):0.00385110):0.01530617,((((2_0_8:0.00000044,2_0_3:0.00000024):0.00002511,(((2_0_0:0.00001505,2_0_12:0.00001124):0.00001625,(2_0_11:0.00002957,((2_0_10:0.00000254,(2_0_4:0.00000127,2_0_6:0.00000165):0.00000347):0.00000270,2_0_7:0.00000537):0.00001388):0.00000672):0.00001560,2_0_1:0.00004644):0.00000027):0.00013559,((2_0_5:0.00000160,2_0_2:0.00000111):0.00002003,2_0_9:0.00002566):0.00013660):0.00282871,(((((1_0_6:0.00000933,1_0_9:0.00001446):0.00000205,1_0_11:0.00001327):0.00000440,1_0_8:0.00001555):0.00002567,(1_0_4:0.00000312,(1_0_0:0.00000303,1_0_2:0.00000445):0.00000033):0.00001834):0.00008882,((1_0_7:0.00002352,(1_0_3:0.00001118,(1_0_10:0.00000188,1_0_1:0.00000207):0.00000846):0.00000595):0.00007157,(1_0_12:0.00000264,1_0_5:0.00000434):0.00008448):0.00000017):0.00358800):0.02608150):0.03427039);
[TREE] T04 (0_0_0:0.08943537,(((((((6_0_7:0.00004415,(6_0_6:0.00001663,(6_0_8:0.00000914,6_0_10:0.00001529):0.00000587):0.00000847):0.00002137,((6_0_5:0.00000166,6_0_2:0.00000155):0.00003808,((6_0_0:0.00002754,(((6_0_3:0.00000347,6_0_4:0.00000378):0.00000140,6_0_1:0.00000292):0.00000198,6_0_12:0.00000450):0.00001240):0.00001778,(6_0_11:0.00000284,6_0_9:0.00000350):0.00005704):0.00000094):0.00000655):0.00093641,(((19_0_4:0.00000650,(19_0_9:0.00000467,19_0_6:0.00000362):0.00000176):0.00000600,(19_0_0:0.00000541,19_0_3:0.00000477):0.00000251):0.00003924,(((19_0_10:0.00000656,19_0_11:0.00000438):0.00001075,19_0_7:0.00001088):0.00000583,(((19_0_2:0.00000025,19_0_8:0.00000011):0.00000379,19_0_12:0.00000439):0.00000785,(19_0_5:0.00000031,19_0_1:0.00000034):0.00000623):0.00001143):0.00003388):0.00187600):0.00332156,(8_0_5:0.00006774,(((((8_0_10:0.00000216,8_0_11:0.00000312):0.00001487,8_0_9:0.00003956):0.00000071,8_0_3:0.00002424):0.00002079,8_0_12:0.00004099):0.00001066,(((8_0_2:0.00000102,8_0_7:0.00000105):0.00001973,(8_0_8:0.00000508,8_0_4:0.00000368):0.00001715):0.00001020,(8_0_1:0.00000747,(8_0_0:0.00000197,8_0_6:0.00000267):0.00000649):0.00003317):0.00001275):0.00000938):0.00404113):0.00485653,(((((12_0_5:0.00001627,12_0_4:0.00001526):0.00000770,(12_0_11:0.00001543,(12_0_0:0.00000075,12_0_12:0.00000078):0.00001770):0.00000497):0.00004406,(12_0_2:0.00003174,(((12_0_8:0.00001346,12_0_6:0.00000708):0.00000511,12_0_10:0.00001269):0.00000610,((12_0_1:0.00000754,12_0_7:0.00000696):0.00000788,12_0_9:0.00002057):0.00000762):0.00000428):0.00003690):0.00012095,12_0_3:0.00017926):0.00358850,(((((13_0_0:0.00004189,(((13_0_2:0.00000019,13_0_5:0.00000011):0.00000100,13_0_1:0.00000079):0.00001473,(13_0_8:0.00000036,13_0_9:0.00000056):0.00001512):0.00001192):0.00001484,((13_0_11:0.00000347,13_0_10:0.00000245):0.00000333,13_0_3:0.00000733):0.00004803):0.00000102,(((13_0_12:0.00000147,13_0_7:0.00000162):0.00000264,13_0_6:0.00000716):0.00002043,13_0_4:0.00001924):0.00002409):0.00107766,((15_0_4:0.00002296,((15_0_9:0.00000094,15_0_12:0.00000110):0.00001291,((15_0_2:0.00000076,15_0_8:0.00000080):0.00000008,15_0_0:0.00000030):0.00001246):0.00000370):0.00002632,(((((15_0_6:0.00000507,15_0_11:0.00000632):0.00000727,15_0_7:0.00000936):0.00000120,(15_0_10:0.00000082,15_0_5:0.00000050):0.00001305):0.00001060,15_0_1:0.00002380):0.00003518,15_0_3:0.00004856):0.00000136):0.00095901):0.00324181,((((17_0_0:0.00001256,(17_0_6:0.00000705,17_0_11:0.00000904):0.00000257):0.00002337,17_0_9:0.00003023):0.00001009,((17_0_10:0.00001276,(17_0_3:0.00000318,17_0_4:0.00000399):0.00000664):0.00001582,((17_0_7:0.00000099,17_0_8:0.00000052):0.00001619,((17_0_12:0.00000665,(17_0_5:0.00000052,17_0_2:0.00000051):0.00000660):0.00000701,17_0_1:0.00001335):0.00001286):0.00000548):0.00001283):0.00123276,(((((16_0_0:0.00000010,16_0_10:0.00000014):0.00000086,16_0_11:0.00000089):0.00000341,16_0_6:0.00000409):0.00003605,16_0_5:0.00003352):0.00002103,((((16_0_8:0.00000086,16_0_2:0.00000054):0.00000066,16_0_3:0.00000086):0.00000019,16_0_12:0.00000125):0.00005383,(16_0_9:0.00002440,((16_0_7:0.00000342,16_0_4:0.00000540):0.00001089,16_0_1:0.00002153):0.00000256):0.00001899):0.00002393):0.00129022):0.00257586):0.00138970):0.00488581):0.00474824,((((((((18_0_4:0.00004627,18_0_8:0.00005881):0.00003772,(18_0_0:0.00002385,((18_0_11:0.00000076,18_0_3:0.00000147):0.00002358,((18_0_12:0.00000290,18_0_5:0.00000141):0.00000344,18_0_9:0.00000795):0.00001771):0.00000722):0.00008016):0.00000151,(18_0_6:0.00002758,((18_0_1:0.00001672,(18_0_2:0.00000061,18_0_10:0.00000146):0.00000780):0.00001190,18_0_7:0.00001744):0.00000671):0.00004062):0.00103002,((((((4_0_3:0.00000099,4_0_7:0.00000069):0.00000007,4_0_4:0.00000113):0.00000624,((4_0_6:0.00000340,4_0_12:0.00000352):0.00000368,4_0_1:0.00000897):0.00000030):0.00000013,(4_0_11:0.00000311,4_0_10:0.00000239):0.00000852):0.00003457,((4_0_5:0.00000051,4_0_2:0.00000032):0.00002355,(4_0_0:0.00001359,4_0_9:0.00001633):0.00000793):0.00000808):0.00002821,4_0_8:0.00006427):0.00079210):0.00147254,((((3_0_0:0.00000099,3_0_8:0.00000154):0.00002377,(3_0_1:0.00002500,(3_0_3:0.00000453,3_0_7:0.00000411):0.00001964):0.00000075):0.00000536,((3_0_2:0.00000584,3_0_12:0.00000585):0.00001855,3_0_9:0.00002239):0.00001142):0.00011080,(3_0_11:0.00009278,((3_0_10:0.00002478,(3_0_4:0.00000928,3_0_5:0.00001032):0.00001071):0.00001381,3_0_6:0.00003887):0.00008363):0.00000389):0.00641016):0.00058217,((((9_0_9:0.00003294,((9_0_8:0.00000585,9_0_5:0.00000459):0.00007783,(9_0_4:0.00001549,9_0_2:0.00001963):0.00003617):0.00000624):0.00002167,((9_0_6:0.00000864,9_0_12:0.00000663):0.00004381,(((9_0_7:0.00000001,9_0_0:0.00000001):0.00001277,9_0_10:0.00000851):0.00000452,(9_0_3:0.00000622,(9_0_11:0.00000055,9_0_1:0.00000074):0.00000485):0.00001036):0.00002300):0.00004118):0.00033871,((((10_0_8:0.00000022,10_0_3:0.00000030):0.00000130,10_0_10:0.00000176):0.00003334,(10_0_6:0.00001737,(10_0_9:0.00000803,((10_0_4:0.00000389,10_0_1:0.00000429):0.00000123,10_0_11:0.00000521):0.00000351):0.00001738):0.00001463):0.00003281,(((10_0_0:0.00001458,10_0_2:0.00001712):0.00002212,(10_0_7:0.00000162,10_0_12:0.00000075):0.00002995):0.00000545,10_0_5:0.00004466):0.00003932):0.00066669):0.00358105,((((7_0_8:0.00000225,7_0_9:0.00000244):0.00001735,(7_0_2:0.00000592,7_0_3:0.00000360):0.00001413):0.00001470,((7_0_12:0.00000113,7_0_7:0.00000123):0.00000236,7_0_10:0.00000441):0.00003780):0.00006203,((((7_0_1:0.00000891,(7_0_5:0.00000601,7_0_11:0.00001039):0.00000022):0.00000597,7_0_4:0.00001409):0.00001412,7_0_6:0.00002477):0.00001420,7_0_0:0.00005277):0.00007373):0.00493253):0.00143974):0.00428069,(((((5_0_6:0.00002722,(5_0_7:0.00002056,((5_0_2:0.00000601,5_0_3:0.00000882):0.00000772,(5_0_9:0.00000304,5_0_5:0.00000200):0.00001806):0.00000080):0.00000852):0.00001796,5_0_1:0.00003929):0.00001152,(5_0_0:0.00001076,5_0_12:0.00001689):0.00003560):0.00000454,((5_0_10:0.00000568,(5_0_11:0.00000007,5_0_4:0.00000005):0.00000386):0.00000762,5_0_8:0.00001181):0.00004149):0.00452032,((11_0_1:0.00008934,((((11_0_3:0.00000642,(11_0_11:0.00000200,11_0_12:0.00000225):0.00000401):0.00000187,11_0_6:0.00000739):0.00000452,(11_0_0:0.00000319,((11_0_9:0.00000097,11_0_10:0.00000114):0.00000243,11_0_2:0.00000458):0.00000098):0.00000639):0.00013285,(11_0_8:0.00001197,(11_0_7:0.00000033,11_0_4:0.00000029):0.00001989):0.00007697):0.00000292):0.00011161,11_0_5:0.00017173):0.00282573):0.00494732):0.00078891,((((14_0_1:0.00000292,((14_0_2:0.00000042,14_0_3:0.00000040):0.00000432,(14_0_7:0.00000221,14_0_9:0.00000217):0.00000125):0.00000030):0.00003930,(14_0_12:0.00001638,(14_0_5:0.00000124,14_0_10:0.00000157):0.00002566):0.00001226):0.00001074,14_0_0:0.00003639):0.00000790,(((14_0_4:0.00000155,14_0_11:0.00000200):0.00000131,14_0_8:0.00000214):0.00000472,14_0_6:0.00000501):0.00003220):0.01224206):0.00587481):0.01884690,((2_0_9:0.00007452,((2_0_10:0.00002445,(2_0_2:0.00002139,((2_0_7:0.00000983,(2_0_8:0.00000421,2_0_12:0.00000626):0.00000664):0.00000025,(2_0_5:0.00000070,2_0_3:0.00000068):0.00001673):0.00000572):0.00000190):0.00003987,((2_0_4:0.00003055,2_0_1:0.00002320):0.00000500,((2_0_0:0.00000261,2_0_11:0.00000199):0.00000703,2_0_6:0.00001921):0.00001670):0.00002490):0.00001019):0.00223161,((((1_0_3:0.00000286,1_0_5:0.00000185):0.00000856,1_0_1:0.00001368):0.00004753,(1_0_0:0.00000471,1_0_4:0.00001173):0.00004244):0.00036249,((1_0_11:0.00001412,(1_0_7:0.00000499,1_0_8:0.00000732):0.00001116):0.00007217,((1_0_12:0.00000896,(1_0_10:0.00000655,1_0_9:0.00001149):0.00000056):0.00001392,(1_0_2:0.00000131,1_0_6:0.00000271):0.00002953):0.00008802):0.00023825):0.00220885):0.04957402):0.03096107);
[TREE] T05 (0_0_0:0.10054827,(((((((14_0_9:0.00000459,14_0_12:0.00000244):0.00002885,((14_0_10:0.00001240,((14_0_5:0.00000205,14_0_0:0.00000513):0.00000294,(14_0_8:0.00000215,14_0_11:0.00000359):0.00000638):0.00000567):0.00000464,((14_0_1:0.00000231,14_0_2:0.00000201):0.00001657,(14_0_7:0.00000840,14_0_6:0.00000835):0.00000863):0.00000453):0.00000648):0.00006831,14_0_3:0.00005140):0.00009942,14_0_4:0.00028128):0.00725356,(((((5_0_4:0.00001035,(5_0_10:0.00000257,((5_0_9:0.00000038,5_0_2:0.00000059):0.00000074,5_0_0:0.00000149):0.00000276):0.00000270):0.00001964,((5_0_3:0.00000518,5_0_1:0.00000475):0.00001826,(5_0_8:0.00001260,5_0_6:0.00001342):0.00000688):0.00001239):0.00006665,((5_0_7:0.00000228,5_0_11:0.00000188):0.00006261,(5_0_12:0.00000049,5_0_5:0.00000039):0.00009789):0.00002077):0.00460207,((((11_0_12:0.00000306,11_0_8:0.00000378):0.00002054,(11_0_4:0.00000145,11_0_6:0.00000217):0.00003890):0.00002326,11_0_9:0.00005910):0.00002196,((11_0_10:0.00000590,(11_0_7:0.00000269,11_0_1:0.00000242):0.00000478):0.00001891,(((11_0_0:0.00000341,11_0_5:0.00000514):0.00000250,11_0_11:0.00000355):0.00000466,(11_0_3:0.00000558,11_0_2:0.00000363):0.00000507):0.00001015):0.00008045):0.00409225):0.00487096,(((((((7_0_11:0.00000020,7_0_4:0.00000022):0.00000195,7_0_9:0.00000261):0.00000435,7_0_5:0.00000710):0.00000813,7_0_0:0.00001941):0.00031909,(7_0_10:0.00007717,((7_0_7:0.00000085,7_0_3:0.00000080):0.00006140,((7_0_1:0.00000758,7_0_6:0.00000480):0.00003423,((7_0_8:0.00001297,7_0_2:0.00001053):0.00000144,7_0_12:0.00001260):0.00007315):0.00001482):0.00001705):0.00038700):0.00435588,((((9_0_2:0.00000430,9_0_12:0.00000670):0.00000369,9_0_4:0.00000865):0.00007069,((((9_0_11:0.00000531,9_0_8:0.00000383):0.00000535,(9_0_7:0.00000762,9_0_6:0.00000801):0.00000647):0.00001403,((9_0_3:0.00000016,9_0_10:0.00000014):0.00002289,9_0_5:0.00002146):0.00000612):0.00002438,((9_0_0:0.00000179,9_0_9:0.00000152):0.00000106,9_0_1:0.00000392):0.00006778):0.00007842):0.00046927,(((((10_0_6:0.00000556,10_0_4:0.00000375):0.00000746,(10_0_2:0.00000617,10_0_0:0.00000526):0.00000513):0.00001184,(10_0_11:0.00000121,10_0_9:0.00000135):0.00002532):0.00005532,10_0_10:0.00007389):0.00000414,(10_0_3:0.00001866,((10_0_12:0.00000934,(10_0_8:0.00000388,10_0_1:0.00000473):0.00000047):0.00000414,(10_0_5:0.00000132,10_0_7:0.00000103):0.00000554):0.00002483):0.00004317):0.00068789):0.00227068):0.00166131,(((((3_0_12:0.00000240,3_0_7:0.00000142):0.00001449,((3_0_1:0.00000115,3_0_2:0.00000081):0.00000916,3_0_3:0.00000638):0.00000441):0.00003022,(3_0_4:0.00002729,(((3_0_11:0.00000140,3_0_8:0.00000076):0.00000902,3_0_9:0.00002208):0.00000144,3_0_0:0.00002372):0.00000750):0.00001657):0.00013696,((3_0_5:0.00000055,3_0_10:0.00000040):0.00002673,3_0_6:0.00001674):0.00018496):0.00328905,((18_0_4:0.00003794,(((18_0_3:0.00001015,18_0_0:0.00000898):0.00000786,(18_0_5:0.00000154,18_0_6:0.00000160):0.00000804):0.00001179,(((18_0_8:0.00000993,18_0_7:0.00000553):0.00001069,((18_0_9:0.00000467,18_0_2:0.00000236):0.00001005,18_0_1:0.00001442):0.00000449):0.00001216,((18_0_11:0.00000266,18_0_10:0.00000218):0.00000427,18_0_12:0.00000739):0.00003029):0.00000247):0.00000314):0.00067815,(4_0_4:0.00008327,((((4_0_9:0.00000370,(4_0_6:0.00000188,4_0_2:0.00000131):0.00000670):0.00001001,(4_0_12:0.00000208,4_0_10:0.00000150):0.00001468):0.00000481,(((4_0_5:0.00000025,4_0_1:0.00000023):0.00000479,4_0_11:0.00000391):0.00000344,(4_0_8:0.00000793,(4_0_7:0.00000084,4_0_0:0.00000071):0.00000559):0.00000053):0.00002224):0.00000569,4_0_3:0.00003737):0.00004345):0.00047343):0.00447289):0.00047626):0.00315275):0.00136062):0.00539990,(((((8_0_5:0.00001490,(8_0_1:0.00000694,(8_0_8:0.00000258,8_0_10:0.00000178):0.00000630):0.00000901):0.00003251,(((8_0_11:0.00000371,8_0_7:0.00000472):0.00000006,8_0_4:0.00000284):0.00002822,((8_0_12:0.00001578,((8_0_6:0.00000042,8_0_2:0.00000029):0.00000119,8_0_0:0.00000228):0.00001992):0.00000030,8_0_9:0.00001848):0.00001050):0.00001558):0.00019819,8_0_3:0.00037817):0.00506722,((19_0_5:0.00009437,(((19_0_8:0.00000156,19_0_4:0.00000124):0.00001921,19_0_12:0.00002469):0.00001562,(((19_0_7:0.00000337,(((19_0_11:0.00000002,19_0_2:0.00000003):0.00000084,19_0_9:0.00000076):0.00000064,19_0_3:0.00000134):0.00000231):0.00000508,(19_0_10:0.00000161,19_0_6:0.00000254):0.00000470):0.00001031,(19_0_0:0.00000984,19_0_1:0.00000805):0.00000627):0.00001279):0.00002665):0.00117513,(((6_0_0:0.00005012,((6_0_11:0.00000892,6_0_2:0.00000845):0.00000268,(6_0_4:0.00000244,6_0_8:0.00000255):0.00000878):0.00003058):0.00003396,(6_0_7:0.00001750,((6_0_6:0.00000125,6_0_10:0.00000105):0.00000261,6_0_1:0.00000532):0.00000716):0.00004851):0.00005952,((6_0_9:0.00000127,6_0_3:0.00000158):0.00000902,(6_0_5:0.00000130,6_0_12:0.00000121):0.00000393):0.00008156):0.00053515):0.00437627):0.00545907,((((((17_0_2:0.00002432,((17_0_11:0.00000193,17_0_7:0.00000368):0.00000634,17_0_8:0.00001133):0.00000860):0.00001816,(17_0_10:0.00002555,((17_0_0:0.00001126,(17_0_6:0.00001104,(17_0_4:0.00000049,17_0_9:0.00000046):0.00001175):0.00000099):0.00000184,17_0_5:0.00001000):0.00001778):0.00001307):0.00005778,(17_0_1:0.00001072,(17_0_3:0.00000163,17_0_12:0.00000229):0.00000286):0.00010705):0.00159540,(((16_0_2:0.00003319,(16_0_3:0.00001551,16_0_4:0.00002225):0.00000849):0.00004712,(16_0_9:0.00000939,((16_0_11:0.00000593,16_0_0:0.00000581):0.00000054,16_0_6:0.00000729):0.00000370):0.00007198):0.00002365,(16_0_12:0.00004801,(16_0_7:0.00001258,((16_0_10:0.00000451,(16_0_1:0.00000035,16_0_8:0.00000059):0.00000553):0.00000271,16_0_5:0.00000780):0.00001334):0.00001888):0.00007505):0.00095328):0.00216240,(((13_0_2:0.00012157,((13_0_4:0.00001416,(13_0_7:0.00000954,((13_0_8:0.00000007,13_0_0:0.00000005):0.00000272,13_0_11:0.00000276):0.00000302):0.00000502):0.00000625,(13_0_5:0.00001486,13_0_3:0.00001220):0.00000820):0.00012489):0.00003679,(((13_0_12:0.00000163,13_0_1:0.00000163):0.00000979,13_0_9:0.00001380):0.00003004,(13_0_6:0.00000294,13_0_10:0.00000337):0.00003137):0.00017383):0.00101326,((15_0_4:0.00004047,(15_0_11:0.00003035,((15_0_2:0.00000565,15_0_6:0.00000817):0.00001023,(15_0_12:0.00002744,15_0_1:0.00001866):0.00000115):0.00000589):0.00001098):0.00001365,((15_0_3:0.00000041,(15_0_9:0.00000036,15_0_5:0.00000047):0.00000019):0.00004834,((15_0_8:0.00000900,15_0_7:0.00001810):0.00001446,(15_0_0:0.00001486,15_0_10:0.00001301):0.00000963):0.00000697):0.00000829):0.00084428):0.00215670):0.00103171,((12_0_11:0.00000184,12_0_5:0.00000147):0.00013801,((12_0_2:0.00000660,(12_0_3:0.00000382,((12_0_10:0.00000196,(12_0_0:0.00000015,12_0_6:0.00000020):0.00000198):0.00000127,12_0_1:0.00000235):0.00000099):0.00000426):0.00004689,((12_0_8:0.00001074,(12_0_7:0.00000566,12_0_12:0.00000598):0.00000046):0.00000233,(12_0_9:0.00000579,12_0_4:0.00001207):0.00000139):0.00004813):0.00041485):0.00527569):0.00396754):0.00560050):0.03582339,(((((1_0_0:0.00000243,1_0_4:0.00000429):0.00000109,(1_0_12:0.00000697,1_0_5:0.00000372):0.00000034):0.00004000,((1_0_11:0.00001293,1_0_9:0.00001701):0.00001680,1_0_1:0.00004166):0.00001089):0.00016406,((1_0_3:0.00005786,((1_0_8:0.00000321,1_0_6:0.00000187):0.00002335,1_0_7:0.00003696):0.00000677):0.00005398,(1_0_10:0.00000189,1_0_2:0.00000202):0.00007933):0.00028726):0.00212707,((2_0_6:0.00004259,2_0_8:0.00004048):0.00004667,(((((2_0_3:0.00000190,2_0_11:0.00000157):0.00001208,2_0_2:0.00001295):0.00000983,(2_0_10:0.00000125,2_0_0:0.00000067):0.00001297):0.00001444,2_0_4:0.00005742):0.00000279,((2_0_1:0.00000604,2_0_9:0.00000420):0.00004316,((2_0_12:0.00000132,2_0_7:0.00000201):0.00000925,2_0_5:0.00001285):0.00001499):0.00000175):0.00003351):0.00295406):0.02495186):0.04385866);
[TREE] T06 (((((((2_0_10:0.00001658,(2_0_2:0.00000694,2_0_6:0.00000820):0.00001282):0.00000026,2_0_9:0.00001590):0.00000445,2_0_8:0.00003058):0.00010039,((2_0_0:0.00002313,((2_0_4:0.00000079,2_0_3:0.00000096):0.00000283,2_0_5:0.00000441):0.00002757):0.00003085,(2_0_11:0.00002175,((2_0_7:0.00000595,2_0_1:0.00000410):0.00000599,2_0_12:0.00000994):0.00000503):0.00004402):0.00007225):0.00246772,((1_0_11:0.00005859,(1_0_4:0.00000721,1_0_1:0.00000587):0.00009742):0.00004758,((1_0_12:0.00002092,1_0_5:0.00001373):0.00002042,(((1_0_2:0.00000943,1_0_9:0.00001024):0.00000094,1_0_7:0.00001008):0.00000991,((1_0_3:0.00000210,1_0_6:0.00000102):0.00001432,(1_0_8:0.00000996,(1_0_0:0.00000127,1_0_10:0.00000114):0.00001378):0.00000279):0.00001034):0.00003674):0.00009179):0.00261269):0.03924231,((((((14_0_1:0.00000899,((14_0_9:0.00000572,14_0_0:0.00000766):0.00000102,((14_0_4:0.00000185,14_0_6:0.00000191):0.00000059,14_0_3:0.00000215):0.00000457):0.00000160):0.00000684,(14_0_5:0.00000099,14_0_10:0.00000052):0.00001730):0.00000119,(14_0_8:0.00000432,14_0_2:0.00000989):0.00000578):0.00005939,((14_0_12:0.00000302,14_0_7:0.00000273):0.00004659,14_0_11:0.00005595):0.00002329):0.01031088,((((((((18_0_12:0.00002411,(18_0_6:0.00001027,18_0_3:0.00001416):0.00000356):0.00000766,(18_0_9:0.00000113,18_0_4:0.00000149):0.00002304):0.00002352,(18_0_7:0.00003063,((18_0_1:0.00000530,18_0_10:0.00000834):0.00000425,18_0_0:0.00000918):0.00002229):0.00002212):0.00000465,(((18_0_11:0.00000001,18_0_2:0.00000001):0.00000858,18_0_5:0.00001136):0.00002087,18_0_8:0.00003977):0.00002404):0.00056819,((((4_0_12:0.00000959,4_0_6:0.00001244):0.00002446,(4_0_5:0.00001023,4_0_10:0.00001312):0.00000758):0.00003617,((4_0_2:0.00001077,(4_0_3:0.00000417,4_0_8:0.00000515):0.00000233):0.00001932,4_0_7:0.00002808):0.00003531):0.00000243,(((4_0_4:0.00000106,4_0_9:0.00000122):0.00000343,(4_0_0:0.00000494,4_0_1:0.00000646):0.00000120):0.00000045,4_0_11:0.00001061):0.00006131):0.00046497):0.00361971,(((3_0_5:0.00000993,(3_0_9:0.00000067,3_0_4:0.00000136):0.00000383):0.00005254,((3_0_6:0.00000299,3_0_10:0.00000248):0.00001459,((3_0_8:0.00000020,3_0_12:0.00000012):0.00000214,3_0_1:0.00000066):0.00001851):0.00004146):0.00004961,((3_0_11:0.00003874,((3_0_2:0.00000575,3_0_0:0.00000344):0.00001147,3_0_3:0.00001470):0.00002089):0.00005809,3_0_7:0.00012156):0.00001649):0.00379099):0.00066503,((((10_0_2:0.00003196,(10_0_12:0.00000299,10_0_10:0.00000472):0.00001752):0.00012710,((((10_0_11:0.00002827,((10_0_9:0.00000046,10_0_7:0.00000082):0.00000318,(10_0_1:0.00000043,10_0_0:0.00000042):0.00000310):0.00003064):0.00000108,((10_0_3:0.00000055,10_0_6:0.00000067):0.00000886,10_0_5:0.00001063):0.00001336):0.00001404,10_0_4:0.00002361):0.00005684,10_0_8:0.00008034):0.00002025):0.00050145,(((((9_0_2:0.00000194,9_0_4:0.00000206):0.00003121,(9_0_6:0.00002257,(((9_0_0:0.00000223,9_0_5:0.00000258):0.00000207,9_0_3:0.00000677):0.00000209,9_0_7:0.00000784):0.00001331):0.00001154):0.00002591,(9_0_1:0.00002033,(9_0_10:0.00000619,9_0_11:0.00000664):0.00000704):0.00003223):0.00001269,(9_0_9:0.00000711,9_0_12:0.00001136):0.00004720):0.00020679,9_0_8:0.00025080):0.00037829):0.00321056,(((7_0_5:0.00006194,((7_0_7:0.00002394,(7_0_11:0.00000592,7_0_9:0.00000543):0.00002463):0.00000039,((7_0_1:0.00000423,(7_0_0:0.00000215,7_0_2:0.00000300):0.00000234):0.00000046,7_0_8:0.00000455):0.00001642):0.00002300):0.00001738,(7_0_3:0.00000799,(7_0_12:0.00000547,7_0_6:0.00000351):0.00000213):0.00007035):0.00006160,(7_0_4:0.00003583,7_0_10:0.00003101):0.00009389):0.00372320):0.00188665):0.00250067,((11_0_4:0.00020075,(((11_0_12:0.00000307,((11_0_1:0.00000033,11_0_7:0.00000047):0.00000205,(11_0_0:0.00000027,11_0_9:0.00000050):0.00000172):0.00000229):0.00000396,(11_0_11:0.00000962,11_0_8:0.00000840):0.00000138):0.00016478,((11_0_5:0.00001675,(11_0_3:0.00000845,11_0_6:0.00000717):0.00000597):0.00001423,(11_0_2:0.00002029,11_0_10:0.00002330):0.00001602):0.00005538):0.00000024):0.00227839,(((5_0_11:0.00004840,((5_0_4:0.00000381,5_0_0:0.00000450):0.00002875,(5_0_2:0.00000220,(5_0_12:0.00000134,5_0_5:0.00000089):0.00000167):0.00002362):0.00003663):0.00000281,(5_0_7:0.00002512,(((5_0_6:0.00000347,5_0_10:0.00000879):0.00000854,(5_0_9:0.00000505,5_0_1:0.00000750):0.00000342):0.00001486,5_0_8:0.00002501):0.00001136):0.00002209):0.00005908,5_0_3:0.00017981):0.00326581):0.00499962):0.00108721):0.00773839,(((((((17_0_0:0.00001938,(17_0_1:0.00000643,17_0_12:0.00000797):0.00001398):0.00001654,17_0_9:0.00003486):0.00004505,(17_0_11:0.00007073,(((17_0_6:0.00001886,17_0_2:0.00001176):0.00000237,((17_0_3:0.00001600,(17_0_4:0.00000556,(17_0_7:0.00000579,17_0_8:0.00000364):0.00000362):0.00000711):0.00000032,17_0_10:0.00001447):0.00000244):0.00001070,17_0_5:0.00002921):0.00005229):0.00002361):0.00070208,((((16_0_7:0.00000660,16_0_9:0.00000375):0.00001127,16_0_1:0.00001548):0.00003434,((16_0_11:0.00001111,(16_0_10:0.00000967,16_0_8:0.00001250):0.00000059):0.00001310,(16_0_2:0.00000850,16_0_4:0.00001107):0.00001913):0.00001863):0.00017316,((16_0_3:0.00000433,16_0_6:0.00000405):0.00005627,((16_0_5:0.00001377,16_0_0:0.00000913):0.00002745,16_0_12:0.00006271):0.00000734):0.00010288):0.00114834):0.00163492,(((((13_0_8:0.00001930,13_0_12:0.00001446):0.00001163,(13_0_5:0.00001003,((13_0_0:0.00000241,13_0_3:0.00000062):0.00000192,13_0_1:0.00000397):0.00000165):0.00001955):0.00001988,((13_0_6:0.00000943,13_0_2:0.00000579):0.00002432,(((13_0_4:0.00000139,13_0_10:0.00000121):0.00000155,13_0_9:0.00000206):0.00002026,13_0_11:0.00002017):0.00000307):0.00002126):0.00002976,13_0_7:0.00006456):0.00073489,(((15_0_0:0.00000924,15_0_7:0.00000894):0.00006702,15_0_4:0.00004022):0.00027341,(((((15_0_3:0.00000100,15_0_11:0.00000124):0.00000483,15_0_8:0.00000573):0.00001545,(15_0_9:0.00000699,(15_0_6:0.00000307,15_0_1:0.00000230):0.00000704):0.00001757):0.00000441,(15_0_5:0.00002628,(15_0_12:0.00000562,15_0_10:0.00000740):0.00001492):0.00000824):0.00013807,15_0_2:0.00011502):0.00008871):0.00073593):0.00279409):0.00121125,(((12_0_11:0.00001139,12_0_7:0.00001225):0.00003144,((12_0_9:0.00001290,((12_0_8:0.00000364,12_0_3:0.00000435):0.00000658,12_0_10:0.00000840):0.00000103):0.00001910,(12_0_12:0.00000166,12_0_2:0.00000146):0.00002140):0.00000979):0.00000560,(((12_0_1:0.00000003,12_0_6:0.00000004):0.00000955,12_0_0:0.00001206):0.00000322,(12_0_5:0.00000098,12_0_4:0.00000148):0.00002035):0.00002691):0.00528679):0.00556485,(((8_0_3:0.00005441,((8_0_5:0.00000607,8_0_10:0.00000467):0.00002656,(((8_0_9:0.00000812,(8_0_2:0.00000252,(8_0_0:0.00000049,8_0_12:0.00000045):0.00000262):0.00000597):0.00001246,(8_0_7:0.00000249,8_0_6:0.00000453):0.00001337):0.00002348,8_0_8:0.00002792):0.00000478):0.00000213):0.00000880,(8_0_1:0.00001829,(8_0_11:0.00000338,8_0_4:0.00000394):0.00000601):0.00003191):0.00491234,((((19_0_3:0.00000501,19_0_8:0.00000378):0.00001579,(((19_0_10:0.00000568,(19_0_4:0.00000474,19_0_6:0.00000318):0.00000204):0.00000556,19_0_12:0.00000926):0.00000940,(19_0_7:0.00001938,(19_0_9:0.00003004,((19_0_0:0.00000011,19_0_5:0.00000011):0.00000019,19_0_2:0.00000023):0.00001300):0.00000172):0.00000091):0.00000501):0.00012401,(19_0_11:0.00000288,19_0_1:0.00000555):0.00012237):0.00142027,((((6_0_2:0.00003696,(((6_0_10:0.00002301,(6_0_11:0.00000673,6_0_5:0.00000480):0.00000762):0.00000142,6_0_0:0.00001996):0.00000741,((6_0_12:0.00000006,6_0_7:0.00000004):0.00000312,(6_0_4:0.00000480,6_0_3:0.00000283):0.00000081):0.00002397):0.00000802):0.00000017,6_0_1:0.00003792):0.00002579,(6_0_9:0.00000639,6_0_8:0.00000500):0.00009424):0.00004520,6_0_6:0.00010100):0.00089341):0.00352169):0.00399041):0.00364777):0.01784124):0.03156093,0_0_0:0.06674997);
[TREE] T07 (0_0_0:0.06504567,(((((14_0_1:0.00002070,(14_0_10:0.00000163,14_0_9:0.00000110):0.00002548):0.00023260,(((14_0_12:0.00001586,14_0_3:0.00001347):0.00001578,14_0_0:0.00002164):0.00001951,(14_0_6:0.00000752,((14_0_5:0.00000042,14_0_7:0.00000022):0.00001377,(14_0_11:0.00000622,((14_0_4:0.00000509,14_0_2:0.00000668):0.00000062,14_0_8:0.00000443):0.00000174):0.00000436):0.00000130):0.00003341):0.00018157):0.00775572,(((((5_0_2:0.00001526,5_0_6:0.00001705):0.00000344,((5_0_5:0.00000473,5_0_11:0.00000686):0.00000325,5_0_0:0.00001770):0.00000697):0.00020688,((5_0_8:0.00000580,5_0_1:0.00000682):0.00004204,((5_0_9:0.00000921,((5_0_7:0.00000432,5_0_4:0.00000370):0.00000058,(5_0_3:0.00000454,5_0_12:0.00000209):0.00000197):0.00000370):0.00000055,5_0_10:0.00001298):0.00003751):0.00007045):0.00246103,((11_0_8:0.00014659,(11_0_6:0.00000122,11_0_12:0.00000188):0.00012359):0.00003138,(((11_0_10:0.00001219,(((11_0_4:0.00000194,11_0_11:0.00000200):0.00000244,11_0_2:0.00000516):0.00000090,11_0_5:0.00000418):0.00001980):0.00000081,(11_0_9:0.00000879,((11_0_7:0.00000114,11_0_1:0.00000034):0.00000120,11_0_0:0.00000139):0.00000919):0.00000533):0.00001222,11_0_3:0.00003334):0.00011967):0.00339881):0.00597809,(((3_0_10:0.00007756,((3_0_11:0.00002412,(3_0_8:0.00000713,3_0_0:0.00001075):0.00001332):0.00002958,((3_0_1:0.00002749,((3_0_9:0.00001117,(3_0_12:0.00002287,3_0_4:0.00001124):0.00000516):0.00000008,(3_0_6:0.00001477,3_0_2:0.00001537):0.00001124):0.00000054):0.00001072,(3_0_7:0.00000095,(3_0_5:0.00000176,3_0_3:0.00000159):0.00000013):0.00002676):0.00001865):0.00003464):0.00506137,(((18_0_9:0.00002731,((18_0_3:0.00001084,(18_0_2:0.00000488,18_0_6:0.00000886):0.00000397):0.00001932,(18_0_5:0.00000392,(18_0_1:0.00000108,18_0_4:0.00000097):0.00000303):0.00001554):0.00000436):0.00009145,((18_0_10:0.00003011,((18_0_0:0.00000285,18_0_11:0.00000327):0.00001059,18_0_7:0.00002830):0.00000990):0.00001162,(18_0_8:0.00000618,18_0_12:0.00000768):0.00003327):0.00007494):0.00059096,((4_0_6:0.00000057,4_0_4:0.00000069):0.00008797,(((4_0_10:0.00000180,4_0_8:0.00000268):0.00000082,(4_0_5:0.00000120,4_0_1:0.00000100):0.00000261):0.00001500,((4_0_9:0.00000290,4_0_11:0.00000361):0.00002132,(4_0_2:0.00001169,((4_0_3:0.00000074,4_0_7:0.00000077):0.00000199,(4_0_0:0.00000007,4_0_12:0.00000010):0.00000139):0.00000780):0.00000920):0.00000251):0.00002465):0.00028649):0.00391957):0.00031326,(((((9_0_3:0.00000866,((9_0_4:0.00000050,9_0_0:0.00000072):0.00000390,9_0_5:0.00000407):0.00001006):0.00011911,((9_0_12:0.00001586,(9_0_8:0.00001280,(9_0_1:0.00000236,9_0_10:0.00000702):0.00000288):0.00000528):0.00000695,((9_0_6:0.00001463,9_0_11:0.00000584):0.00000788,9_0_2:0.00001423):0.00000775):0.00015124):0.00008275,(9_0_7:0.00003861,9_0_9:0.00003470):0.00016741):0.00030622,((10_0_1:0.00000517,(10_0_7:0.00000156,10_0_0:0.00000168):0.00000206):0.00017690,((10_0_4:0.00001928,(10_0_12:0.00004924,10_0_11:0.00001861):0.00001241):0.00003113,(((10_0_3:0.00001257,((10_0_2:0.00000154,10_0_10:0.00000153):0.00000263,10_0_8:0.00000790):0.00000408):0.00001319,(10_0_9:0.00000447,10_0_6:0.00000400):0.00001994):0.00005409,10_0_5:0.00007597):0.00000760):0.00006678):0.00030187):0.00251884,((7_0_5:0.00005459,((((7_0_10:0.00000163,7_0_4:0.00000300):0.00000765,((7_0_0:0.00000589,7_0_8:0.00000358):0.00000054,7_0_3:0.00000672):0.00000120):0.00000275,7_0_11:0.00000966):0.00000909,(7_0_6:0.00001019,7_0_2:0.00000734):0.00000560):0.00003044):0.00018531,(7_0_12:0.00001742,((7_0_7:0.00000066,7_0_1:0.00000046):0.00001033,7_0_9:0.00001304):0.00000301):0.00029982):0.00337600):0.00117223):0.00594093):0.00070040):0.00744686,(((((8_0_0:0.00002488,(8_0_1:0.00000696,8_0_9:0.00000369):0.00001334):0.00009617,(8_0_8:0.00003538,((8_0_4:0.00000536,((8_0_10:0.00000307,8_0_7:0.00000328):0.00000065,8_0_2:0.00000275):0.00000312):0.00001521,((8_0_11:0.00000312,8_0_3:0.00000301):0.00001500,8_0_12:0.00001682):0.00000291):0.00003497):0.00003168):0.00000107,(8_0_6:0.00000717,8_0_5:0.00001152):0.00007248):0.00453389,((((((6_0_9:0.00000196,6_0_10:0.00000228):0.00001826,((6_0_11:0.00000128,6_0_5:0.00000188):0.00000253,6_0_2:0.00000440):0.00001636):0.00002589,(((6_0_3:0.00000244,6_0_6:0.00000171):0.00001296,6_0_4:0.00001158):0.00000879,6_0_0:0.00001992):0.00002954):0.00003043,6_0_1:0.00007256):0.00004635,(6_0_12:0.00002602,(6_0_7:0.00000210,6_0_8:0.00000149):0.00001259):0.00014237):0.00176648,((19_0_1:0.00004713,((19_0_3:0.00000149,19_0_12:0.00000093):0.00000356,19_0_2:0.00000434):0.00007874):0.00001441,(((19_0_7:0.00000721,19_0_9:0.00000784):0.00002260,(19_0_5:0.00001065,19_0_0:0.00001914):0.00001691):0.00000756,((((19_0_11:0.00000150,19_0_8:0.00000121):0.00000048,19_0_4:0.00000318):0.00000224,19_0_6:0.00000421):0.00000141,19_0_10:0.00000434):0.00002755):0.00004951):0.00094027):0.00344811):0.00623975,((((16_0_1:0.00017796,(((16_0_11:0.00002061,16_0_5:0.00001762):0.00000612,(((16_0_0:0.00000073,16_0_6:0.00000076):0.00000271,(16_0_7:0.00000209,(16_0_8:0.00000108,16_0_3:0.00000103):0.00000014):0.00000591):0.00001341,((16_0_12:0.00000067,16_0_9:0.00000062):0.00000743,(16_0_10:0.00000331,16_0_4:0.00000392):0.00000390):0.00001003):0.00000331):0.00000850,16_0_2:0.00002055):0.00020067):0.00067008,(((17_0_6:0.00001636,(17_0_1:0.00000002,17_0_5:0.00000003):0.00001494):0.00005486,(17_0_7:0.00000710,17_0_12:0.00000477):0.00006794):0.00010190,((17_0_4:0.00002395,(17_0_8:0.00000624,17_0_3:0.00000635):0.00001603):0.00000811,((17_0_9:0.00000332,17_0_10:0.00000360):0.00000148,(17_0_11:0.00000305,(17_0_2:0.00000228,17_0_0:0.00000189):0.00000125):0.00000185):0.00002567):0.00026931):0.00107376):0.00246695,(((15_0_9:0.00000428,15_0_7:0.00000319):0.00007121,(((15_0_5:0.00001302,(15_0_10:0.00000203,15_0_2:0.00000214):0.00002082):0.00002006,((15_0_6:0.00000369,15_0_0:0.00000225):0.00001969,15_0_8:0.00002593):0.00001193):0.00003273,((15_0_4:0.00000752,(15_0_11:0.00000632,15_0_12:0.00000711):0.00000001):0.00003136,(15_0_3:0.00000011,15_0_1:0.00000011):0.00003363):0.00003801):0.00000890):0.00070240,(((13_0_4:0.00000557,(13_0_8:0.00000393,13_0_12:0.00000330):0.00000555):0.00000380,(13_0_0:0.00000968,(13_0_11:0.00000811,((13_0_3:0.00000441,13_0_5:0.00000262):0.00000135,13_0_2:0.00000531):0.00000277):0.00000189):0.00000382):0.00027104,((13_0_10:0.00001133,13_0_9:0.00001058):0.00005467,(13_0_6:0.00002412,(13_0_1:0.00000571,13_0_7:0.00000622):0.00001864):0.00002896):0.00009755):0.00085327):0.00120549):0.00110238,(((((12_0_1:0.00000079,12_0_7:0.00000060):0.00000402,12_0_3:0.00000273):0.00002128,(12_0_8:0.00001547,12_0_2:0.00001329):0.00000924):0.00005796,((((12_0_4:0.00000409,12_0_0:0.00000196):0.00000033,12_0_11:0.00000322):0.00001835,12_0_5:0.00001586):0.00000275,(12_0_6:0.00002391,12_0_10:0.00002832):0.00000484):0.00003311):0.00003336,(12_0_9:0.00000142,12_0_12:0.00000255):0.00014539):0.00401218):0.00588848):0.00697115):0.02292522,((((1_0_12:0.00000078,1_0_3:0.00000075):0.00001177,1_0_0:0.00001095):0.00006385,(((1_0_11:0.00000752,1_0_8:0.00000776):0.00000733,(1_0_1:0.00000380,1_0_10:0.00000255):0.00001225):0.00000799,((1_0_9:0.00000626,1_0_5:0.00000858):0.00000802,(1_0_2:0.00001031,((1_0_7:0.00000498,1_0_6:0.00000442):0.00000217,1_0_4:0.00000861):0.00001207):0.00000001):0.00000792):0.00004301):0.00209022,((((2_0_10:0.00002772,(((2_0_6:0.00000058,2_0_0:0.00000134):0.00001178,((2_0_3:0.00000102,2_0_7:0.00000052):0.00000338,2_0_2:0.00000419):0.00001175):0.00001050,2_0_4:0.00002521):0.00000920):0.00000111,2_0_1:0.00003181):0.00000045,((2_0_12:0.00001348,(2_0_8:0.00000427,2_0_9:0.00000699):0.00000533):0.00003522,2_0_11:0.00003145):0.00000508):0.00009141,2_0_5:0.00020609):0.00314739):0.04295462):0.02098851);
[TREE] T08 (((((((1_0_7:0.00000505,1_0_9:0.00000555):0.00000284,1_0_1:0.00000694):0.00003839,(1_0_8:0.00001609,(1_0_3:0.00001836,(1_0_5:0.00001074,1_0_0:0.00000815):0.00000477):0.00000539):0.00003199):0.00019789,((1_0_6:0.00000650,(1_0_12:0.00000872,1_0_11:0.00000789):0.00000092):0.00001504,(1_0_2:0.00001369,(1_0_10:0.00000625,1_0_4:0.00001015):0.00000661):0.00002094):0.00017821):0.00236583,((2_0_5:0.00001515,(2_0_12:0.00000242,2_0_3:0.00000158):0.00000406):0.00005394,(((((2_0_7:0.00000144,2_0_2:0.00000109):0.00000673,2_0_6:0.00000976):0.00000768,2_0_10:0.00001060):0.00000050,(2_0_1:0.00000452,2_0_11:0.00001025):0.00000946):0.00005417,(2_0_8:0.00001684,((2_0_9:0.00000013,2_0_0:0.00000020):0.00000003,2_0_4:0.00000013):0.00001499):0.00004446):0.00001820):0.00284145):0.02449224,((((((((5_0_2:0.00000146,5_0_11:0.00000118):0.00000415,5_0_5:0.00000341):0.00002287,(5_0_6:0.00002053,5_0_1:0.00001146):0.00001084):0.00005081,(((5_0_9:0.00000550,(5_0_0:0.00000615,5_0_10:0.00000753):0.00000035):0.00000834,5_0_4:0.00002820):0.00002120,(5_0_8:0.00000784,(5_0_7:0.00000262,(5_0_12:0.00000237,5_0_3:0.00000183):0.00000078):0.00000641):0.00003277):0.00005987):0.00335663,(((11_0_0:0.00000816,11_0_1:0.00000932):0.00010084,((11_0_12:0.00000886,11_0_5:0.00000768):0.00009969,(11_0_4:0.00002102,11_0_2:0.00001130):0.00004489):0.00002297):0.00004163,(((11_0_11:0.00001469,((11_0_7:0.00000118,11_0_3:0.00000106):0.00000212,11_0_6:0.00000234):0.00001662):0.00000597,(11_0_9:0.00000728,11_0_8:0.00001323):0.00001745):0.00003405,11_0_10:0.00006953):0.00005784):0.00270748):0.00342795,(((((((9_0_0:0.00000269,9_0_2:0.00000472):0.00003353,((9_0_4:0.00000277,9_0_1:0.00000253):0.00000452,9_0_5:0.00000913):0.00001735):0.00000465,(9_0_11:0.00001338,(9_0_6:0.00000627,(9_0_7:0.00000442,(9_0_12:0.00000556,9_0_10:0.00000277):0.00000032):0.00000105):0.00001013):0.00001447):0.00006909,(9_0_3:0.00000219,(9_0_8:0.00000337,9_0_9:0.00000152):0.00000030):0.00011886):0.00032033,(((10_0_4:0.00001809,10_0_8:0.00002434):0.00002102,(10_0_10:0.00000631,((10_0_6:0.00000028,10_0_1:0.00000021):0.00000528,10_0_5:0.00000708):0.00000003):0.00002511):0.00011010,((((10_0_12:0.00000189,10_0_2:0.00000173):0.00001768,10_0_9:0.00001816):0.00003653,((10_0_7:0.00000059,10_0_0:0.00000056):0.00000431,10_0_11:0.00000589):0.00006737):0.00011583,10_0_3:0.00013829):0.00002401):0.00041037):0.00461290,(((((7_0_6:0.00001701,7_0_10:0.00001432):0.00000602,7_0_7:0.00002108):0.00000084,((7_0_1:0.00000555,7_0_0:0.00001003):0.00000334,(7_0_2:0.00000582,7_0_4:0.00000541):0.00000402):0.00001950):0.00001674,(7_0_5:0.00000816,7_0_3:0.00000842):0.00003479):0.00006496,((7_0_8:0.00002008,7_0_12:0.00004225):0.00000235,(7_0_9:0.00000397,7_0_11:0.00000331):0.00002647):0.00018326):0.00491620):0.00165818,(((((4_0_10:0.00000394,4_0_1:0.00000255):0.00006858,((4_0_11:0.00003089,((4_0_6:0.00001578,4_0_0:0.00001399):0.00000559,(4_0_5:0.00000103,4_0_3:0.00000109):0.00001500):0.00001211):0.00000450,(((4_0_8:0.00000552,4_0_7:0.00000869):0.00001983,(4_0_9:0.00000576,4_0_4:0.00000718):0.00001656):0.00000033,4_0_2:0.00002182):0.00001172):0.00003076):0.00002438,4_0_12:0.00012145):0.00038072,((18_0_3:0.00000341,18_0_5:0.00000237):0.00010348,((((18_0_0:0.00000042,18_0_9:0.00000085):0.00001550,(18_0_8:0.00000211,18_0_11:0.00000413):0.00001761):0.00001892,((18_0_12:0.00000009,18_0_1:0.00000017):0.00001846,(18_0_10:0.00000447,18_0_7:0.00000511):0.00000850):0.00001233):0.00000924,((18_0_4:0.00000033,18_0_2:0.00000024):0.00002789,18_0_6:0.00002304):0.00000962):0.00005971):0.00057581):0.00339924,(((((3_0_12:0.00000589,3_0_9:0.00001081):0.00000676,((3_0_5:0.00000076,3_0_7:0.00000078):0.00000329,3_0_11:0.00000474):0.00001328):0.00000167,(3_0_4:0.00001698,(3_0_8:0.00000222,3_0_10:0.00000389):0.00001368):0.00000203):0.00000063,((3_0_1:0.00000194,3_0_2:0.00000198):0.00000895,(3_0_3:0.00000155,3_0_6:0.00000118):0.00001316):0.00000436):0.00003196,3_0_0:0.00005880):0.00292558):0.00065919):0.00282920):0.00053420,((14_0_6:0.00002315,(14_0_0:0.00001349,(((14_0_3:0.00000801,14_0_11:0.00000553):0.00000013,(14_0_1:0.00000818,14_0_7:0.00000787):0.00000077):0.00000336,14_0_9:0.00001556):0.00000443):0.00001027):0.00006904,(14_0_5:0.00003091,((14_0_10:0.00000375,(14_0_8:0.00000137,14_0_12:0.00000206):0.00000175):0.00000450,(14_0_2:0.00000507,14_0_4:0.00000409):0.00000595):0.00004368):0.00008665):0.01400393):0.00611409,((((((13_0_3:0.00000340,(13_0_4:0.00000389,(13_0_6:0.00000160,13_0_2:0.00000159):0.00000326):0.00000016):0.00021897,(13_0_1:0.00014307,(((13_0_11:0.00000751,(13_0_8:0.00000644,(13_0_10:0.00000331,(13_0_0:0.00000264,13_0_7:0.00000331):0.00000101):0.00000140):0.00000251):0.00000263,13_0_12:0.00000919):0.00011843,(13_0_9:0.00001075,13_0_5:0.00001372):0.00008647):0.00003216):0.00002719):0.00094970,(15_0_1:0.00014544,(((15_0_12:0.00000265,15_0_6:0.00000239):0.00002014,((((15_0_5:0.00000127,15_0_2:0.00000090):0.00000190,15_0_0:0.00000107):0.00000099,15_0_7:0.00000204):0.00000572,(15_0_8:0.00000323,15_0_3:0.00000780):0.00000441):0.00002532):0.00001318,((15_0_11:0.00000762,15_0_10:0.00000500):0.00002353,(15_0_4:0.00003662,15_0_9:0.00004123):0.00000016):0.00000357):0.00026656):0.00058791):0.00294615,((((16_0_4:0.00001513,16_0_12:0.00001348):0.00008026,(((16_0_9:0.00000798,16_0_10:0.00000819):0.00000339,16_0_8:0.00001566):0.00001421,(16_0_3:0.00003119,(16_0_6:0.00002008,((16_0_0:0.00000699,16_0_2:0.00000509):0.00000641,16_0_5:0.00000912):0.00000472):0.00000695):0.00000918):0.00006090):0.00002176,(16_0_1:0.00002075,(16_0_7:0.00000141,16_0_11:0.00000114):0.00001762):0.00009327):0.00164024,(((17_0_9:0.00000173,17_0_0:0.00000181):0.00003338,(((17_0_12:0.00001187,(17_0_5:0.00000314,17_0_3:0.00000299):0.00000823):0.00000326,((17_0_2:0.00000192,17_0_6:0.00000129):0.00001436,17_0_10:0.00002025):0.00000052):0.00000081,17_0_11:0.00001855):0.00002288):0.00016930,(17_0_1:0.00001771,(17_0_7:0.00000454,(17_0_8:0.00000277,17_0_4:0.00000267):0.00000254):0.00001572):0.00015625):0.00077542):0.00223851):0.00141410,((((12_0_4:0.00000656,12_0_8:0.00000480):0.00000559,(((12_0_5:0.00000081,(12_0_12:0.00000081,12_0_3:0.00000090):0.00000021):0.00000252,12_0_11:0.00000627):0.00000787,12_0_10:0.00000861):0.00000053):0.00000637,(12_0_7:0.00001079,12_0_2:0.00001089):0.00000918):0.00015469,((12_0_9:0.00001697,12_0_1:0.00002089):0.00000810,(12_0_0:0.00000953,12_0_6:0.00000787):0.00001948):0.00009409):0.00617382):0.00550196,(((6_0_7:0.00018401,((((6_0_5:0.00001763,6_0_4:0.00000710):0.00000402,((6_0_0:0.00000148,6_0_8:0.00000209):0.00000174,6_0_9:0.00000403):0.00000927):0.00000968,(6_0_3:0.00001501,(6_0_6:0.00001133,(6_0_12:0.00000784,6_0_11:0.00000745):0.00000391):0.00000834):0.00001133):0.00002836,((6_0_10:0.00000113,6_0_1:0.00000099):0.00000004,6_0_2:0.00000114):0.00006570):0.00004511):0.00188129,((((19_0_5:0.00000733,19_0_10:0.00000726):0.00000950,19_0_6:0.00001466):0.00006326,((19_0_9:0.00001210,((19_0_4:0.00001618,(19_0_1:0.00000111,19_0_3:0.00000076):0.00001234):0.00000311,19_0_8:0.00000921):0.00000047):0.00001677,(19_0_12:0.00000948,(19_0_2:0.00000851,(19_0_0:0.00000616,19_0_7:0.00000461):0.00000091):0.00000216):0.00003281):0.00003569):0.00021918,19_0_11:0.00018241):0.00162488):0.00403804,(8_0_5:0.00008473,(((((8_0_4:0.00000167,8_0_6:0.00000233):0.00001590,((8_0_8:0.00000374,8_0_0:0.00000263):0.00001783,(((8_0_9:0.00000179,8_0_12:0.00000172):0.00000014,8_0_2:0.00000209):0.00001290,(8_0_10:0.00000193,8_0_1:0.00000149):0.00001085):0.00000468):0.00000501):0.00000184,8_0_11:0.00002666):0.00002029,8_0_7:0.00003672):0.00000624,8_0_3:0.00004936):0.00005269):0.01065167):0.00541323):0.00504439):0.01713608):0.03594231,0_0_0:0.05595471);
[TREE] T09 (0_0_0:0.07450549,((((2_0_9:0.00000033,2_0_5:0.00000029):0.00014951,((2_0_0:0.00000650,(2_0_8:0.00000147,2_0_7:0.00000312):0.00000443):0.00007571,(((2_0_4:0.00001069,2_0_11:0.00001238):0.00003162,(2_0_2:0.00001689,2_0_12:0.00001987):0.00001699):0.00003069,((2_0_1:0.00000324,2_0_6:0.00000184):0.00000899,(2_0_3:0.00000516,2_0_10:0.00000416):0.00000723):0.00004427):0.00001581):0.00001919):0.00212397,((((1_0_5:0.00000215,1_0_3:0.00000229):0.00001269,1_0_6:0.00001753):0.00004448,(1_0_11:0.00001970,1_0_4:0.00001291):0.00004871):0.00004692,((1_0_2:0.00000902,(1_0_8:0.00000201,1_0_10:0.00000232):0.00000408):0.00000795,((((1_0_1:0.00000558,1_0_0:0.00000940):0.00000102,1_0_9:0.00000483):0.00000317,1_0_7:0.00000877):0.00000379,1_0_12:0.00001301):0.00000298):0.00010494):0.00419902):0.03521745,(((((12_0_9:0.00003950,((12_0_12:0.00000979,12_0_1:0.00000813):0.00000910,(12_0_0:0.00002649,((12_0_4:0.00000716,12_0_5:0.00000853):0.00000448,12_0_11:0.00001244):0.00000706):0.00000063):0.00002606):0.00016794,(((12_0_10:0.00000641,12_0_8:0.00000521):0.00000341,(12_0_7:0.00000905,12_0_6:0.00000594):0.00000070):0.00007195,(12_0_3:0.00000112,12_0_2:0.00000140):0.00009527):0.00009171):0.00484271,(((16_0_10:0.00006182,(((16_0_5:0.00001216,((16_0_8:0.00000955,16_0_11:0.00000541):0.00000504,(16_0_4:0.00000303,(16_0_3:0.00000191,16_0_9:0.00000151):0.00000212):0.00000904):0.00000748):0.00001074,((16_0_12:0.00000126,16_0_1:0.00000153):0.00000376,16_0_0:0.00000587):0.00002238):0.00000919,(16_0_6:0.00000463,(16_0_2:0.00000508,16_0_7:0.00000291):0.00000122):0.00003486):0.00005220):0.00084783,((17_0_0:0.00006780,((17_0_11:0.00002217,(17_0_10:0.00000467,17_0_9:0.00000586):0.00003382):0.00000198,(((17_0_5:0.00000635,17_0_2:0.00000381):0.00001274,17_0_6:0.00003375):0.00000564,(17_0_3:0.00002167,17_0_4:0.00001567):0.00001262):0.00000347):0.00001908):0.00013530,(((17_0_1:0.00000010,17_0_7:0.00000016):0.00000807,17_0_12:0.00000956):0.00006620,17_0_8:0.00004637):0.00011136):0.00090140):0.00240153,(((((13_0_12:0.00001321,((13_0_3:0.00000240,13_0_11:0.00000350):0.00000655,13_0_2:0.00000805):0.00000705):0.00001907,13_0_5:0.00006597):0.00001014,((13_0_6:0.00000037,13_0_7:0.00000064):0.00006394,13_0_9:0.00003431):0.00001343):0.00004854,((13_0_0:0.00000441,13_0_1:0.00000456):0.00001410,(13_0_10:0.00000441,(13_0_4:0.00000437,13_0_8:0.00000508):0.00000305):0.00000497):0.00009123):0.00087633,(((15_0_9:0.00000957,15_0_11:0.00000897):0.00009363,((15_0_7:0.00000343,15_0_12:0.00000362):0.00003582,((15_0_2:0.00000308,15_0_0:0.00000235):0.00000835,15_0_5:0.00000758):0.00001939):0.00004855):0.00012006,((((15_0_8:0.00000433,15_0_4:0.00000641):0.00000745,15_0_1:0.00001331):0.00000476,(15_0_10:0.00000064,15_0_6:0.00000061):0.00001030):0.00000393,15_0_3:0.00002297):0.00019961):0.00093161):0.00251134):0.00125782):0.00758351,((((19_0_10:0.00011823,((19_0_2:0.00001047,19_0_12:0.00000572):0.00003257,(19_0_7:0.00005359,((19_0_9:0.00000481,19_0_8:0.00000581):0.00000561,19_0_1:0.00001468):0.00002581):0.00000574):0.00007020):0.00007583,(19_0_0:0.00002665,((19_0_6:0.00000544,19_0_5:0.00000374):0.00000856,(19_0_11:0.00000867,(19_0_4:0.00000650,19_0_3:0.00000978):0.00000221):0.00000425):0.00000337):0.00025417):0.00076166,(((6_0_8:0.00001666,6_0_10:0.00000809):0.00002785,(6_0_9:0.00003180,(6_0_5:0.00002121,6_0_11:0.00001949):0.00000272):0.00000895):0.00000203,(((6_0_1:0.00001680,6_0_2:0.00001860):0.00000193,(((6_0_7:0.00000816,6_0_6:0.00000738):0.00000418,6_0_4:0.00001741):0.00000481,6_0_3:0.00001112):0.00000413):0.00000090,(6_0_12:0.00000349,6_0_0:0.00000394):0.00001354):0.00001535):0.00128717):0.00370060,(((((8_0_12:0.00000182,8_0_10:0.00000158):0.00003664,(8_0_3:0.00001888,8_0_4:0.00001612):0.00001051):0.00000616,((8_0_5:0.00001270,8_0_2:0.00000813):0.00000265,(8_0_6:0.00000660,8_0_9:0.00000456):0.00000536):0.00002113):0.00003317,(8_0_7:0.00000601,8_0_1:0.00000436):0.00008099):0.00011159,((8_0_0:0.00000816,8_0_11:0.00000579):0.00000959,8_0_8:0.00001897):0.00012089):0.00469885):0.00552028):0.00365156,(((((((14_0_5:0.00000168,14_0_12:0.00000090):0.00001221,14_0_11:0.00000839):0.00003034,14_0_8:0.00004549):0.00000827,((14_0_7:0.00001023,(14_0_0:0.00001035,(14_0_1:0.00000662,14_0_10:0.00000716):0.00000160):0.00000010):0.00000287,14_0_4:0.00002484):0.00004658):0.00001770,14_0_9:0.00005084):0.00008485,(14_0_3:0.00001607,(14_0_2:0.00001237,14_0_6:0.00002648):0.00001170):0.00013965):0.00873232,((((((7_0_7:0.00005498,(7_0_8:0.00005133,((7_0_12:0.00000252,7_0_11:0.00000364):0.00001462,(7_0_0:0.00000901,7_0_10:0.00000858):0.00000579):0.00000854):0.00001257):0.00000153,(7_0_9:0.00000859,(7_0_3:0.00000375,7_0_6:0.00000371):0.00000167):0.00003366):0.00012490,((7_0_5:0.00000310,(7_0_4:0.00000350,7_0_1:0.00000197):0.00000286):0.00000033,7_0_2:0.00000400):0.00020113):0.00453298,(((9_0_0:0.00000510,9_0_8:0.00000462):0.00005998,((((9_0_11:0.00000699,9_0_2:0.00000580):0.00000029,9_0_12:0.00000600):0.00005851,9_0_4:0.00005177):0.00000316,(9_0_9:0.00004140,((9_0_3:0.00001302,((9_0_5:0.00000037,9_0_10:0.00000072):0.00000710,(9_0_1:0.00000860,9_0_7:0.00000562):0.00000002):0.00000484):0.00000003,9_0_6:0.00001512):0.00003835):0.00003406):0.00001612):0.00034088,((10_0_2:0.00001606,(10_0_4:0.00000043,10_0_0:0.00000037):0.00001899):0.00002507,(((10_0_3:0.00000321,10_0_1:0.00000557):0.00000712,(10_0_8:0.00001486,((10_0_7:0.00000484,((10_0_9:0.00000362,10_0_10:0.00000485):0.00000023,10_0_6:0.00000495):0.00000116):0.00000233,(10_0_11:0.00000638,10_0_12:0.00000602):0.00000111):0.00000251):0.00000497):0.00001730,10_0_5:0.00002863):0.00001591):0.00052864):0.00341287):0.00084787,((3_0_10:0.00017407,(((3_0_7:0.00000113,3_0_2:0.00000131):0.00002095,((3_0_12:0.00000003,3_0_4:0.00000002):0.00002721,3_0_11:0.00002008):0.00000324):0.00004368,(((3_0_5:0.00000227,3_0_9:0.00000237):0.00000086,3_0_6:0.00000420):0.00001437,(((3_0_3:0.00000443,3_0_1:0.00000639):0.00000259,3_0_8:0.00000678):0.00000096,3_0_0:0.00001178):0.00001454):0.00002683):0.00007633):0.00281337,(((4_0_0:0.00003937,((4_0_4:0.00001441,((4_0_10:0.00000505,4_0_11:0.00000370):0.00000109,4_0_2:0.00000414):0.00000725):0.00000148,(4_0_12:0.00000487,4_0_3:0.00000662):0.00000919):0.00001728):0.00007221,((4_0_8:0.00002217,(4_0_1:0.00000212,4_0_9:0.00000260):0.00002416):0.00002707,(4_0_5:0.00003484,(4_0_6:0.00000871,4_0_7:0.00001726):0.00001972):0.00002508):0.00002759):0.00056236,(((18_0_4:0.00000708,18_0_11:0.00000544):0.00000751,18_0_6:0.00001659):0.00005520,(((18_0_1:0.00000316,18_0_10:0.00000279):0.00001552,18_0_5:0.00001972):0.00012362,((18_0_2:0.00001432,(((18_0_12:0.00000092,18_0_7:0.00000127):0.00000234,18_0_9:0.00000300):0.00000171,18_0_0:0.00000735):0.00001408):0.00005506,(18_0_3:0.00000767,18_0_8:0.00000584):0.00010431):0.00003091):0.00004622):0.00044812):0.00301456):0.00022183):0.00541275,(((5_0_10:0.00000714,5_0_0:0.00000530):0.00014446,((5_0_12:0.00001476,((((5_0_5:0.00000135,(5_0_4:0.00000080,5_0_11:0.00000113):0.00000050):0.00000486,5_0_7:0.00000667):0.00000284,(5_0_9:0.00000001,5_0_1:0.00000001):0.00001184):0.00000148,(5_0_2:0.00000936,(5_0_6:0.00000207,5_0_3:0.00000210):0.00000524):0.00000090):0.00000827):0.00001103,5_0_8:0.00004169):0.00019886):0.00383396,(((11_0_12:0.00001050,(11_0_9:0.00000473,11_0_5:0.00000370):0.00000682):0.00000755,((11_0_1:0.00000185,11_0_4:0.00000569):0.00000409,11_0_0:0.00000640):0.00001167):0.00050437,((11_0_3:0.00000204,11_0_7:0.00000391):0.00003368,(((11_0_6:0.00000537,11_0_11:0.00000541):0.00000026,11_0_10:0.00000728):0.00001538,(11_0_2:0.00001351,11_0_8:0.00002521):0.00000051):0.00002372):0.00070809):0.00139942):0.00484468):0.00105728):0.00479193):0.02146023):0.04167255);
[TREE] T10 ((((((((((5_0_9:0.00000710,(5_0_0:0.00000212,(5_0_10:0.00000295,5_0_5:0.00000296):0.00000005):0.00000379):0.00003414,5_0_3:0.00005124):0.00000054,(((5_0_11:0.00000411,5_0_1:0.00000577):0.00001365,5_0_8:0.00001869):0.00000276,5_0_6:0.00001713):0.00002054):0.00000681,((5_0_2:0.00000935,5_0_12:0.00000779):0.00001900,(5_0_4:0.00001260,5_0_7:0.00000948):0.00001040):0.00003769):0.00420367,(((11_0_7:0.00007994,11_0_4:0.00005829):0.00004035,11_0_11:0.00008330):0.00000947,((11_0_8:0.00000058,11_0_0:0.00000100):0.00003442,(11_0_3:0.00002574,(11_0_1:0.00001300,((11_0_9:0.00000209,(11_0_6:0.00000194,11_0_2:0.00000264):0.00000053):0.00000612,((11_0_10:0.00000190,11_0_5:0.00000168):0.00000362,11_0_12:0.00000448):0.00000210):0.00000534):0.00000756):0.00001884):0.00010414):0.00345642):0.00798174,((((((9_0_6:0.00001470,((9_0_7:0.00000212,9_0_10:0.00000228):0.00000832,(9_0_0:0.00000794,9_0_3:0.00000942):0.00000585):0.00000490):0.00008769,9_0_8:0.00011634):0.00027046,(((9_0_1:0.00000450,9_0_9:0.00000434):0.00000012,9_0_11:0.00000618):0.00003622,(9_0_12:0.00000640,((9_0_4:0.00000050,9_0_2:0.00000033):0.00000369,9_0_5:0.00000433):0.00000415):0.00002493):0.00020928):0.00027479,(((10_0_0:0.00001830,10_0_4:0.00001798):0.00000446,((10_0_12:0.00000431,10_0_6:0.00000385):0.00001642,(10_0_5:0.00000713,(10_0_8:0.00000216,10_0_3:0.00000166):0.00000442):0.00001145):0.00000300):0.00008069,(10_0_1:0.00014759,((10_0_10:0.00002486,(10_0_11:0.00000469,10_0_7:0.00000495):0.00001541):0.00000753,(10_0_2:0.00000386,10_0_9:0.00000584):0.00001515):0.00010640):0.00002486):0.00059892):0.00333160,((7_0_4:0.00000201,7_0_10:0.00000178):0.00040702,(((7_0_11:0.00000373,7_0_2:0.00000633):0.00000791,7_0_0:0.00000831):0.00013551,(7_0_8:0.00005082,((7_0_12:0.00000032,7_0_9:0.00000046):0.00007554,(((7_0_7:0.00000062,7_0_6:0.00000040):0.00000693,7_0_5:0.00000472):0.00003157,(7_0_3:0.00002063,7_0_1:0.00001685):0.00002516):0.00001593):0.00001468):0.00009883):0.00037756):0.00297257):0.00144984,((((((18_0_9:0.00000676,((18_0_2:0.00000223,18_0_0:0.00000222):0.00000075,(18_0_4:0.00000159,18_0_10:0.00000124):0.00000201):0.00000166):0.00000268,18_0_1:0.00000646):0.00000208,18_0_12:0.00000747):0.00001174,(((18_0_3:0.00000208,18_0_7:0.00000250):0.00001864,18_0_8:0.00001429):0.00000038,(18_0_11:0.00000573,(18_0_5:0.00000423,18_0_6:0.00000927):0.00000168):0.00001318):0.00000085):0.00105052,((4_0_3:0.00000131,4_0_1:0.00000035):0.00014469,((4_0_6:0.00000067,4_0_10:0.00000062):0.00006802,((4_0_5:0.00000300,4_0_7:0.00000219):0.00002115,(4_0_2:0.00001569,((4_0_4:0.00000529,4_0_8:0.00000364):0.00001423,(4_0_12:0.00001318,(4_0_9:0.00000504,(4_0_11:0.00000194,4_0_0:0.00000226):0.00000151):0.00000539):0.00000582):0.00000039):0.00000250):0.00003516):0.00004872):0.00123022):0.00313480,(((3_0_0:0.00000479,(3_0_9:0.00000178,3_0_8:0.00000246):0.00000730):0.00006783,((3_0_7:0.00000037,3_0_6:0.00000016):0.00002290,3_0_4:0.00002680):0.00007348):0.00000019,(((3_0_5:0.00002166,((3_0_2:0.00000102,3_0_1:0.00000162):0.00000346,3_0_11:0.00000779):0.00001322):0.00001087,3_0_12:0.00001496):0.00001644,(3_0_10:0.00002456,3_0_3:0.00002483):0.00001615):0.00005179):0.00419733):0.00068249):0.00273328):0.00088279,(((14_0_4:0.00006410,(14_0_6:0.00000960,14_0_2:0.00000902):0.00004580):0.00001627,(((14_0_8:0.00000688,14_0_7:0.00000769):0.00000643,14_0_11:0.00001554):0.00000367,(14_0_1:0.00000799,((((14_0_3:0.00000041,14_0_0:0.00000027):0.00000003,14_0_12:0.00000036):0.00000176,14_0_5:0.00000249):0.00000203,14_0_10:0.00000369):0.00000896):0.00001200):0.00004307):0.00000261,14_0_9:0.00005906):0.00753263):0.00426565,((((((19_0_0:0.00002891,(19_0_6:0.00000010,19_0_7:0.00000004):0.00004695):0.00001586,(19_0_10:0.00001932,(19_0_9:0.00001150,(19_0_8:0.00000075,19_0_1:0.00000090):0.00001193):0.00000537):0.00002835):0.00008997,((19_0_3:0.00000153,19_0_2:0.00000132):0.00000346,(19_0_5:0.00000057,((19_0_4:0.00000006,19_0_12:0.00000006):0.00000018,19_0_11:0.00000035):0.00000015):0.00000312):0.00028905):0.00138475,(((6_0_5:0.00000930,(6_0_3:0.00000368,6_0_8:0.00000330):0.00000484):0.00012160,(((6_0_2:0.00000769,6_0_4:0.00000936):0.00000813,((6_0_6:0.00000015,6_0_0:0.00000013):0.00002167,6_0_12:0.00001543):0.00000355):0.00000500,6_0_7:0.00003794):0.00010361):0.00001869,(6_0_1:0.00005348,((6_0_10:0.00000394,6_0_11:0.00000177):0.00001924,6_0_9:0.00000857):0.00003344):0.00007192):0.00094908):0.00384443,(((8_0_4:0.00001349,(8_0_0:0.00000385,8_0_9:0.00000229):0.00000718):0.00001897,(8_0_5:0.00000162,8_0_7:0.00000135):0.00004081):0.00007251,(((8_0_3:0.00000607,((8_0_8:0.00000041,8_0_6:0.00000035):0.00000121,8_0_2:0.00000372):0.00000606):0.00000286,(8_0_1:0.00000920,8_0_10:0.00000558):0.00000772):0.00007511,(8_0_11:0.00002064,8_0_12:0.00001440):0.00005325):0.00002590):0.00688430):0.00427809,(((12_0_7:0.00000668,(((12_0_5:0.00000021,12_0_6:0.00000023):0.00000162,12_0_8:0.00000228):0.00000001,12_0_4:0.00000155):0.00000386):0.00011382,((12_0_10:0.00001884,(12_0_11:0.00001166,(12_0_2:0.00000289,12_0_12:0.00000372):0.00000647):0.00002111):0.00003150,(12_0_0:0.00005136,(12_0_3:0.00000935,(12_0_1:0.00000248,12_0_9:0.00000097):0.00000525):0.00004960):0.00000218):0.00006906):0.00453453,((((((17_0_1:0.00001434,17_0_3:0.00001343):0.00000081,(17_0_4:0.00000464,(((17_0_8:0.00000002,17_0_5:0.00000001):0.00000178,17_0_7:0.00000138):0.00000048,17_0_12:0.00000444):0.00000452):0.00000508):0.00007940,(17_0_2:0.00000050,17_0_0:0.00000053):0.00009200):0.00024075,(17_0_9:0.00001164,((17_0_11:0.00000110,17_0_10:0.00000145):0.00000250,17_0_6:0.00000446):0.00001191):0.00017539):0.00098862,(((((16_0_3:0.00000462,16_0_12:0.00000223):0.00001773,16_0_0:0.00001864):0.00001964,16_0_11:0.00004170):0.00002242,(16_0_7:0.00005447,(16_0_4:0.00001229,16_0_5:0.00001236):0.00003479):0.00001285):0.00002957,(16_0_2:0.00003685,(((16_0_6:0.00001081,(16_0_1:0.00000695,16_0_10:0.00000815):0.00000299):0.00000151,16_0_8:0.00001270):0.00000736,16_0_9:0.00003217):0.00001046):0.00004177):0.00099282):0.00189008,(((13_0_11:0.00003711,(13_0_1:0.00000185,13_0_12:0.00000144):0.00002476):0.00008829,(13_0_4:0.00004437,(((13_0_6:0.00000868,13_0_2:0.00000566):0.00000940,(13_0_3:0.00001743,((13_0_10:0.00000227,13_0_5:0.00000187):0.00000331,13_0_0:0.00000434):0.00001347):0.00000321):0.00001769,(13_0_7:0.00001089,(13_0_8:0.00000119,13_0_9:0.00000088):0.00001152):0.00002504):0.00000316):0.00009726):0.00060010,((((15_0_6:0.00001575,15_0_4:0.00001740):0.00000143,15_0_11:0.00001253):0.00001135,((15_0_3:0.00000107,((15_0_9:0.00000025,15_0_2:0.00000035):0.00000034,15_0_10:0.00000056):0.00000050):0.00001980,(15_0_1:0.00000998,((15_0_0:0.00000035,15_0_7:0.00000040):0.00000940,15_0_8:0.00001534):0.00000041):0.00001605):0.00001490):0.00011404,(15_0_12:0.00003141,15_0_5:0.00001734):0.00011772):0.00074314):0.00255392):0.00069671):0.00539507):0.00503901):0.02295770,(((((1_0_7:0.00000099,1_0_5:0.00000075):0.00001234,((1_0_8:0.00000513,(1_0_4:0.00000135,1_0_11:0.00000217):0.00000265):0.00000487,(1_0_2:0.00000359,1_0_10:0.00000381):0.00000831):0.00000050):0.00006464,((1_0_9:0.00000098,1_0_1:0.00000070):0.00002005,1_0_12:0.00000865):0.00003761):0.00009069,((1_0_3:0.00000524,1_0_0:0.00000427):0.00000006,1_0_6:0.00000398):0.00012713):0.00234347,((((2_0_10:0.00000549,2_0_11:0.00000561):0.00001656,(2_0_5:0.00000739,(2_0_6:0.00000086,2_0_2:0.00000075):0.00000411):0.00001755):0.00000470,((2_0_7:0.00000146,2_0_1:0.00000142):0.00001228,2_0_9:0.00001524):0.00000959):0.00009010,((2_0_12:0.00000061,2_0_3:0.00000051):0.00003757,(2_0_8:0.00001636,(2_0_4:0.00001331,2_0_0:0.00001281):0.00001171):0.00001261):0.00006677):0.00429904):0.04452556):0.05642000,0_0_0:0.10540813);

[PARTITIONS] csSimUnlinked_01 [T01 csSim_unlinked_1 500]
[PARTITIONS] csSimUnlinked_02 [T02 csSim_unlinked_2 500]
[PARTITIONS] csSimUnlinked_03 [T03 csSim_unlinked_3 500]
[PARTITIONS] csSimUnlinked_04 [T04 csSim_unlinked_4 500]
[PARTITIONS] csSimUnlinked_05 [T05 csSim_unlinked_5 500]
[PARTITIONS] csSimUnlinked_06 [T06 csSim_unlinked_6 500]
[PARTITIONS] csSimUnlinked_07 [T07 csSim_unlinked_7 500]
[PARTITIONS] csSimUnlinked_08 [T08 csSim_unlinked_8 500]
[PARTITIONS] csSimUnlinked_09 [T09 csSim_unlinked_9 500]
[PARTITIONS] csSimUnlinked_10 [T10 csSim_unlinked_10 500]

[EVOLVE] csSimUnlinked_01 1 data_01
csSimUnlinked_02 1 data_02
csSimUnlinked_03 1 data_03
csSimUnlinked_04 1 data_04
csSimUnlinked_05 1 data_05
csSimUnlinked_06 1 data_06
csSimUnlinked_07 1 data_07
csSimUnlinked_08 1 data_08
csSimUnlinked_09 1 data_09
csSimUnlinked_10 1 data_10
