Tree file : INDELible V1.03 (best viewed cut and paste in e.g. excel)

N.B. Simulation blocks with no random trees will have their trees printed for the first replicate only.

FILE	TREE	NTAXA	REP	PART	LENGTH	DEPTH	MAX PAIRWISE DISTANCE	TREE STRING

data_01	T01	73	1	1	0.132437	0.0767585	0.100069	((((((8_0_6:0.00000104,(8_0_0:0.00000126,8_0_1:0.00000107):0.00000253):0.00000046,8_0_7:0.00002415):0.00000049,(8_0_2:0.00000047,8_0_4:0.00001035):0.00000717):0.00003936,(8_0_5:0.00000074,(8_0_8:0.00000005,8_0_3:0.00000029):0.00000019):0.00009779):0.02296240,((((3_0_5:0.00000369,((3_0_2:0.00000804,3_0_6:0.00000115):0.00000016,((3_0_1:0.00001274,(3_0_0:0.00000067,3_0_8:0.00000045):0.00000048):0.00000050,3_0_4:0.00000535):0.00000458):0.00000487):0.00002198,(3_0_7:0.00000506,3_0_3:0.00000265):0.00001334):0.00001564,((5_0_5:0.00000139,(5_0_7:0.00000128,(5_0_4:0.00000001,5_0_1:0.00000042):0.00000005):0.00000421):0.00007631,((5_0_2:0.00000603,(5_0_8:0.00000087,5_0_0:0.00000083):0.00001168):0.00000077,(5_0_6:0.00000050,5_0_3:0.00000143):0.00000283):0.00004892):0.00000872):0.01114034,(((((2_0_2:0.00000031,2_0_0:0.00000290):0.00000224,(((2_0_3:0.00000010,2_0_6:0.00000003):0.00002328,((2_0_1:0.00000083,2_0_5:0.00000112):0.00000095,2_0_4:0.00000100):0.00001048):0.00000703,(2_0_7:0.00000391,2_0_8:0.00000583):0.00004621):0.00000405):0.00189494,(((7_0_8:0.00000163,7_0_4:0.00000084):0.00000355,((7_0_0:0.00000069,7_0_5:0.00000051):0.00000102,(7_0_7:0.00000013,(7_0_3:0.00000032,7_0_1:0.00000039):0.00000019):0.00000002):0.00000437):0.00000463,(7_0_6:0.00000852,7_0_2:0.00000404):0.00001681):0.00125334):0.00092492,(4_0_5:0.00005523,(((4_0_4:0.00000017,4_0_7:0.00000066):0.00003104,(4_0_3:0.00000014,4_0_6:0.00000026):0.00000099):0.00000815,(((4_0_2:0.00000176,4_0_1:0.00000054):0.00000258,4_0_0:0.00001827):0.00000919,4_0_8:0.00000760):0.00000027):0.00006153):0.00207187):0.00081411,((1_0_6:0.00001742,((1_0_3:0.00000247,1_0_7:0.00000524):0.00001650,(((1_0_2:0.00000368,1_0_0:0.00000441):0.00000021,1_0_1:0.00000159):0.00001109,(1_0_8:0.00000335,(1_0_5:0.00000022,1_0_4:0.00000082):0.00000114):0.00000247):0.00001465):0.00009466):0.00148104,((6_0_3:0.00000146,(6_0_8:0.00000015,6_0_6:0.00000041):0.00000047):0.00001520,(((6_0_7:0.00000470,6_0_4:0.00000145):0.00000065,6_0_5:0.00000301):0.00000835,(6_0_1:0.00000315,(6_0_0:0.00000017,6_0_2:0.00000036):0.00000150):0.00000362):0.00000075):0.00260424):0.00040572):0.00149436):0.00734496):0.05369760,0_0_0:0.02331071);

data_02	T02	73	1	1	0.243423	0.153964	0.196702	(0_0_0:0.15396411,((((((8_0_0:0.00000096,8_0_8:0.00000106):0.00000066,8_0_1:0.00000478):0.00000108,(8_0_4:0.00000553,(8_0_2:0.00000020,8_0_7:0.00000026):0.00000147):0.00000858):0.00000296,(8_0_6:0.00000355,8_0_3:0.00000283):0.00000960):0.00008119,8_0_5:0.00008351):0.02240398,((((5_0_0:0.00000143,(5_0_5:0.00000025,5_0_6:0.00000065):0.00000005):0.00001268,((5_0_2:0.00000925,((5_0_7:0.00000148,5_0_4:0.00000123):0.00001090,5_0_8:0.00002041):0.00000004):0.00000043,(5_0_3:0.00000042,5_0_1:0.00000019):0.00000879):0.00000162):0.00049059,((3_0_5:0.00000959,((3_0_2:0.00000044,3_0_8:0.00000104):0.00000006,3_0_4:0.00000115):0.00000255):0.00000407,(3_0_6:0.00001116,((3_0_0:0.00000457,(3_0_3:0.00000110,3_0_1:0.00000074):0.00000099):0.00000075,3_0_7:0.00000207):0.00000004):0.00000713):0.00076507):0.01170467,((((1_0_0:0.00000275,((1_0_3:0.00000063,(((1_0_6:0.00000072,1_0_7:0.00000081):0.00000209,(1_0_2:0.00000002,1_0_4:0.00000002):0.00000090):0.00000060,1_0_5:0.00000044):0.00000117):0.00000079,1_0_8:0.00000110):0.00000010):0.00000258,1_0_1:0.00002264):0.00143002,((6_0_3:0.00000384,6_0_0:0.00000216):0.00014575,((6_0_7:0.00001146,(6_0_4:0.00000021,6_0_8:0.00000346):0.00000266):0.00000005,(6_0_5:0.00000250,(6_0_1:0.00000074,(6_0_2:0.00000037,6_0_6:0.00000020):0.00000072):0.00000111):0.00000598):0.00001624):0.00332146):0.00129910,(((4_0_5:0.00000830,((4_0_0:0.00001472,4_0_8:0.00000788):0.00000515,((4_0_4:0.00000068,4_0_1:0.00000009):0.00000034,(4_0_6:0.00000035,4_0_7:0.00000023):0.00000228):0.00003046):0.00000499):0.00000762,(4_0_2:0.00001630,4_0_3:0.00001027):0.00000176):0.00997238,((((((2_0_1:0.00000160,(2_0_7:0.00000009,2_0_0:0.00000163):0.00000005):0.00000003,2_0_2:0.00000264):0.00000381,(2_0_8:0.00000473,2_0_6:0.00000263):0.00000042):0.00000467,(2_0_4:0.00000345,2_0_5:0.00000166):0.00001583):0.00000163,2_0_3:0.00001058):0.00115180,(((7_0_3:0.00000168,7_0_5:0.00000310):0.00000000,7_0_0:0.00000362):0.00001330,(((7_0_7:0.00000597,7_0_8:0.00000143):0.00000087,7_0_4:0.00000220):0.00000181,(7_0_2:0.00001259,(7_0_6:0.00000004,7_0_1:0.00000016):0.00000521):0.00001943):0.00000064):0.00124279):0.00215759):0.00083601):0.00585270):0.00596152):0.02006963);

data_03	T03	73	1	1	0.120119	0.0516491	0.0890088	(((((((1_0_4:0.00003575,((1_0_1:0.00000199,(1_0_0:0.00000269,1_0_2:0.00000085):0.00000011):0.00000012,1_0_6:0.00000033):0.00000344):0.00000216,((1_0_7:0.00000181,1_0_3:0.00000200):0.00000005,(1_0_8:0.00000019,1_0_5:0.00000028):0.00001052):0.00000140):0.00180722,((((6_0_2:0.00000139,6_0_0:0.00000136):0.00000187,(6_0_5:0.00000036,6_0_4:0.00000016):0.00000167):0.00000112,(6_0_3:0.00000276,6_0_8:0.00000139):0.00000265):0.00001543,((6_0_6:0.00000030,6_0_1:0.00000140):0.00000859,6_0_7:0.00000125):0.00000014):0.00140412):0.00117132,(((4_0_8:0.00001841,(4_0_3:0.00000252,4_0_1:0.00000292):0.00000234):0.00000700,(4_0_4:0.00000794,((4_0_7:0.00000009,4_0_0:0.00000000):0.00000108,((4_0_2:0.00000076,4_0_5:0.00000021):0.00000003,4_0_6:0.00000067):0.00001508):0.00000045):0.00004162):0.00039827,((((2_0_0:0.00000290,((2_0_8:0.00000895,2_0_1:0.00000603):0.00000005,2_0_7:0.00000425):0.00000379):0.00000006,(2_0_3:0.00000148,2_0_6:0.00000694):0.00000460):0.00001147,((2_0_4:0.00000340,2_0_2:0.00001474):0.00000293,2_0_5:0.00003089):0.00000462):0.00151886,((((7_0_3:0.00000015,7_0_6:0.00000028):0.00000038,7_0_1:0.00001328):0.00001985,(7_0_2:0.00000495,7_0_8:0.00000417):0.00000936):0.00000096,((7_0_0:0.00000013,7_0_7:0.00000013):0.00000400,(7_0_5:0.00000125,7_0_4:0.00000602):0.00000199):0.00001960):0.00007760):0.00102771):0.00114218):0.00071539,(((((5_0_7:0.00000310,5_0_1:0.00000179):0.00000028,5_0_0:0.00000336):0.00000416,((5_0_5:0.00000245,5_0_8:0.00000946):0.00000022,5_0_2:0.00000423):0.00000102):0.00002037,((5_0_4:0.00000043,5_0_6:0.00000029):0.00000007,5_0_3:0.00000024):0.00003979):0.00007374,((((3_0_2:0.00000222,(3_0_0:0.00000033,3_0_8:0.00000033):0.00000756):0.00000432,3_0_1:0.00000601):0.00000997,3_0_4:0.00000311):0.00012464,(3_0_6:0.00000939,((3_0_3:0.00000182,3_0_7:0.00000065):0.00000324,3_0_5:0.00000024):0.00000008):0.00006149):0.00006032):0.00829181):0.01536966,((8_0_3:0.00000239,(8_0_6:0.00000136,(8_0_5:0.00000055,8_0_8:0.00000013):0.00000013):0.00001088):0.00002916,((8_0_4:0.00000093,8_0_1:0.00000293):0.00001162,(8_0_2:0.00000126,(8_0_7:0.00000340,8_0_0:0.00000180):0.00000181):0.00002535):0.00001104):0.02108945):0.02778046,0_0_0:0.03735971);

data_04	T04	73	1	1	0.352673	0.170443	0.328577	(0_0_0:0.17044287,((((((4_0_5:0.00001841,((4_0_8:0.00000325,4_0_4:0.00000108):0.00002494,(4_0_7:0.00000236,4_0_3:0.00000087):0.00003471):0.00001010):0.00001500,(((4_0_2:0.00000119,4_0_1:0.00000045):0.00000018,4_0_6:0.00000006):0.00000018,4_0_0:0.00000079):0.00006551):0.00036642,((2_0_4:0.00002036,(((2_0_3:0.00000027,2_0_0:0.00000023):0.00000003,(2_0_6:0.00000160,2_0_8:0.00000339):0.00000070):0.00000704,((2_0_2:0.00000333,(2_0_5:0.00000208,2_0_7:0.00000037):0.00000076):0.00000053,2_0_1:0.00001644):0.00000092):0.00000187):0.00078586,(((7_0_0:0.00000143,((7_0_8:0.00000663,7_0_6:0.00000148):0.00000129,(7_0_7:0.00000020,7_0_1:0.00000256):0.00000416):0.00000003):0.00001531,7_0_4:0.00000067):0.00000061,(7_0_5:0.00000083,(7_0_2:0.00000100,7_0_3:0.00000087):0.00000009):0.00004606):0.00559597):0.00471435):0.00118350,((((1_0_0:0.00000232,1_0_4:0.00000057):0.00000054,(((1_0_3:0.00000453,(1_0_8:0.00000005,1_0_2:0.00000059):0.00000206):0.00000001,(1_0_6:0.00000004,1_0_5:0.00000410):0.00000015):0.00000004,1_0_7:0.00000199):0.00000033):0.00009683,1_0_1:0.00003447):0.00489697,(((6_0_3:0.00000110,6_0_7:0.00000286):0.00000137,(((6_0_2:0.00000012,6_0_8:0.00000059):0.00000211,6_0_4:0.00000460):0.00000540,(6_0_5:0.00001122,6_0_0:0.00000589):0.00000047):0.00000013):0.00000176,(6_0_6:0.00000070,6_0_1:0.00000305):0.00000160):0.00045374):0.00017818):0.00437673,((((((5_0_4:0.00000019,5_0_2:0.00000010):0.00000086,((5_0_3:0.00000005,5_0_5:0.00000001):0.00000007,5_0_6:0.00000008):0.00000044):0.00000621,5_0_1:0.00002031):0.00000986,5_0_8:0.00000481):0.00000176,((3_0_7:0.00001031,(3_0_4:0.00000022,(3_0_5:0.00000000,3_0_3:0.00000001):0.00000017):0.00000726):0.00003725,(3_0_1:0.00000577,(3_0_8:0.00000515,((3_0_6:0.00000002,3_0_2:0.00000012):0.00000041,3_0_0:0.00000045):0.00000295):0.00000420):0.00000580):0.00003228):0.00003443,(5_0_0:0.00000341,5_0_7:0.00000596):0.00011490):0.01356627):0.12180895,(((((8_0_8:0.00000015,(8_0_2:0.00000000,8_0_0:0.00000041):0.00000003):0.00000528,8_0_3:0.00000262):0.00000098,(8_0_5:0.00000048,8_0_6:0.00000152):0.00000047):0.00000026,(8_0_4:0.00000000,8_0_1:0.00000008):0.00000171):0.00009954,8_0_7:0.00002611):0.00292648):0.02040741);

data_05	T05	73	1	1	0.217627	0.0911169	0.153055	((((8_0_3:0.00000038,8_0_4:0.00000995):0.00001858,((((((8_0_7:0.00000007,8_0_2:0.00000024):0.00000067,8_0_5:0.00000223):0.00000011,8_0_6:0.00000399):0.00000215,8_0_8:0.00000013):0.00001038,8_0_0:0.00001967):0.00000144,8_0_1:0.00001480):0.00000325):0.04593811,((((3_0_0:0.00000529,(3_0_8:0.00000374,3_0_5:0.00000237):0.00000393):0.00000018,(3_0_1:0.00000879,(((3_0_2:0.00000037,3_0_4:0.00000083):0.00000020,(3_0_6:0.00000054,3_0_3:0.00000008):0.00000097):0.00000161,3_0_7:0.00000119):0.00000364):0.00000133):0.00001949,((5_0_7:0.00000586,5_0_1:0.00000653):0.00000092,((5_0_4:0.00000136,(5_0_8:0.00001127,5_0_3:0.00000204):0.00000019):0.00000552,((5_0_0:0.00000026,5_0_5:0.00000062):0.00000017,(5_0_6:0.00000110,5_0_2:0.00000318):0.00000004):0.00000395):0.00001388):0.00007510):0.00546282,((((6_0_7:0.00000235,(6_0_2:0.00000767,(6_0_5:0.00000284,(6_0_8:0.00000037,(6_0_0:0.00000046,6_0_3:0.00000001):0.00000019):0.00000414):0.00000165):0.00001579):0.00000155,((6_0_4:0.00000001,6_0_6:0.00000001):0.00000048,6_0_1:0.00000044):0.00008051):0.00057302,(((((1_0_7:0.00000012,1_0_3:0.00000017):0.00000169,(1_0_5:0.00000163,1_0_0:0.00000174):0.00000059):0.00000338,(1_0_4:0.00000568,1_0_6:0.00000312):0.00000245):0.00000168,(1_0_8:0.00000008,1_0_2:0.00000021):0.00001310):0.00000631,1_0_1:0.00002432):0.00179629):0.00247801,((4_0_0:0.00002603,((4_0_6:0.00000302,4_0_5:0.00000342):0.00002160,((4_0_8:0.00000667,(4_0_3:0.00000131,(4_0_7:0.00000011,4_0_1:0.00000073):0.00001221):0.00000395):0.00000126,(4_0_4:0.00000439,4_0_2:0.00000091):0.00000986):0.00001219):0.00001758):0.00654134,((7_0_3:0.00004985,(((((7_0_0:0.00000052,7_0_5:0.00000009):0.00000002,7_0_1:0.00000033):0.00000179,((7_0_8:0.00000050,7_0_7:0.00000110):0.00000022,7_0_6:0.00000158):0.00000119):0.00000021,7_0_2:0.00000863):0.00000204,7_0_4:0.00000075):0.00000024):0.00203517,(((2_0_0:0.00000305,2_0_7:0.00000274):0.00004805,((2_0_5:0.00000024,2_0_4:0.00000082):0.00000061,2_0_2:0.00000261):0.00001913):0.00001408,(2_0_8:0.00004949,((2_0_6:0.00000075,2_0_3:0.00000077):0.00000063,2_0_1:0.00000043):0.00000983):0.00001052):0.00572453):0.00051601):0.00082502):0.00488516):0.03294588):0.01597144,0_0_0:0.09111689);

data_06	T06	73	1	1	0.262391	0.111471	0.204267	((((8_0_8:0.00000129,((8_0_2:0.00000485,8_0_4:0.00000158):0.00000091,8_0_3:0.00000300):0.00000042):0.00001748,((8_0_0:0.00001510,(8_0_5:0.00000254,8_0_7:0.00001723):0.00000014):0.00000003,(8_0_6:0.00000030,8_0_1:0.00000069):0.00000256):0.00001355):0.04823678,((((6_0_1:0.00000351,(((6_0_2:0.00000560,6_0_4:0.00001086):0.00000003,(6_0_5:0.00000275,6_0_3:0.00000039):0.00000033):0.00000699,((6_0_6:0.00000002,6_0_0:0.00000053):0.00000043,(6_0_7:0.00000134,6_0_8:0.00000189):0.00000133):0.00000792):0.00000548):0.00160405,((((1_0_4:0.00000060,1_0_6:0.00000014):0.00000973,1_0_5:0.00000111):0.00000479,1_0_0:0.00000707):0.00002340,((1_0_3:0.00000069,1_0_8:0.00000106):0.00000675,(1_0_7:0.00000807,(1_0_2:0.00000022,1_0_1:0.00000079):0.00000065):0.00000378):0.00003435):0.00098623):0.00413201,((((4_0_0:0.00000170,(4_0_4:0.00000007,4_0_3:0.00000001):0.00000467):0.00001263,4_0_6:0.00001578):0.00000834,(((4_0_2:0.00000073,4_0_1:0.00000115):0.00000046,4_0_5:0.00000043):0.00000640,(4_0_8:0.00000177,4_0_7:0.00000100):0.00001220):0.00001834):0.00236141,((((7_0_8:0.00000143,7_0_7:0.00000146):0.00000390,7_0_0:0.00000140):0.00000444,(7_0_2:0.00000208,((7_0_6:0.00000032,7_0_3:0.00000008):0.00000195,((7_0_5:0.00000029,7_0_4:0.00000008):0.00000031,7_0_1:0.00000256):0.00000263):0.00000048):0.00000276):0.00156478,(((2_0_3:0.00000926,2_0_6:0.00000387):0.00000021,2_0_7:0.00000391):0.00001594,(2_0_4:0.00000156,((2_0_2:0.00000091,2_0_8:0.00000344):0.00000050,((2_0_5:0.00000102,2_0_1:0.00000033):0.00000082,2_0_0:0.00000024):0.00000065):0.00001386):0.00000256):0.00022092):0.00288612):0.00017312):0.00512952,(((5_0_7:0.00000133,(5_0_6:0.00000006,5_0_2:0.00000001):0.00000020):0.00000840,(5_0_3:0.00000739,((5_0_0:0.00000176,5_0_4:0.00000110):0.00000084,((5_0_8:0.00000020,5_0_1:0.00000007):0.00000113,5_0_5:0.00000089):0.00000131):0.00000577):0.00000022):0.00002716,(((((3_0_4:0.00000502,(3_0_8:0.00000004,3_0_5:0.00000005):0.00000226):0.00000017,3_0_1:0.00000369):0.00000022,3_0_3:0.00000580):0.00000058,(3_0_6:0.00000277,3_0_0:0.00000136):0.00000206):0.00000505,(3_0_2:0.00002066,3_0_7:0.00001137):0.00000671):0.00001990):0.00116680):0.08374151):0.01684025,0_0_0:0.09279666);

data_07	T07	73	1	1	0.135137	0.0923786	0.113962	(((((8_0_4:0.00000001,8_0_3:0.00000001):0.00007999,((8_0_8:0.00000002,8_0_2:0.00000003):0.00000329,((8_0_1:0.00000344,8_0_5:0.00000162):0.00000139,8_0_0:0.00000203):0.00001680):0.00000057):0.00001171,(8_0_6:0.00000583,8_0_7:0.00001818):0.00002654):0.00460356,((((((((1_0_3:0.00000086,1_0_6:0.00000119):0.00000019,1_0_1:0.00000220):0.00000028,1_0_7:0.00000014):0.00002487,(1_0_0:0.00000063,1_0_4:0.00000086):0.00000649):0.00000190,(1_0_2:0.00000159,(1_0_5:0.00000006,1_0_8:0.00000004):0.00000049):0.00004924):0.00152232,((6_0_7:0.00002050,((6_0_1:0.00000009,6_0_2:0.00000002):0.00000220,(((6_0_0:0.00000127,6_0_5:0.00000051):0.00000487,6_0_3:0.00000067):0.00000800,(6_0_6:0.00000050,6_0_4:0.00000088):0.00000046):0.00000701):0.00000345):0.00000899,6_0_8:0.00003984):0.00117045):0.00467207,(((4_0_5:0.00000314,4_0_2:0.00001238):0.00000460,(4_0_0:0.00000761,((4_0_3:0.00000464,(4_0_1:0.00000118,4_0_4:0.00000039):0.00000015):0.00000171,(4_0_6:0.00000284,(4_0_7:0.00000199,4_0_8:0.00000024):0.00000135):0.00000052):0.00000171):0.00000052):0.00511734,((((2_0_6:0.00000079,(2_0_2:0.00000056,2_0_3:0.00000053):0.00000015):0.00003784,(2_0_7:0.00000023,2_0_0:0.00000062):0.00005117):0.00004280,((2_0_5:0.00000137,(2_0_4:0.00000124,2_0_1:0.00000068):0.00000006):0.00000034,2_0_8:0.00003076):0.00002815):0.00083579,(((7_0_0:0.00000677,7_0_7:0.00000295):0.00000560,7_0_2:0.00000502):0.00001220,((7_0_5:0.00000953,(7_0_8:0.00000381,7_0_3:0.00000628):0.00000972):0.00000457,((7_0_4:0.00001118,7_0_1:0.00000902):0.00000208,7_0_6:0.00001183):0.00000084):0.00003474):0.00339427):0.00273639):0.00006509):0.00206376,(((((3_0_1:0.00000102,3_0_4:0.00000018):0.00000221,3_0_2:0.00000191):0.00001727,(((3_0_7:0.00000365,(3_0_0:0.00000342,3_0_3:0.00000018):0.00000068):0.00000382,3_0_6:0.00000308):0.00000012,3_0_8:0.00000224):0.00000113):0.00000501,3_0_5:0.00009228):0.00000438,((5_0_2:0.00000950,((5_0_5:0.00000380,5_0_8:0.00000055):0.00000002,(5_0_1:0.00000067,5_0_3:0.00000008):0.00000089):0.00000483):0.00003535,(5_0_4:0.00000827,((5_0_0:0.00000019,5_0_6:0.00000136):0.00000097,5_0_7:0.00000124):0.00000072):0.00001278):0.00000959):0.00233503):0.02124680):0.06281700,0_0_0:0.02158357);

data_08	T08	73	1	1	0.588986	0.372954	0.560147	(0_0_0:0.37295401,((((8_0_5:0.00000478,(8_0_6:0.00000578,((8_0_8:0.00000037,8_0_0:0.00000038):0.00000193,(8_0_2:0.00000002,8_0_4:0.00000001):0.00000127):0.00000073):0.00000213):0.00000259,8_0_1:0.00000013):0.00001290,(8_0_7:0.00000048,8_0_3:0.00000009):0.00000342):0.08344824,(((((((3_0_7:0.00000000,3_0_1:0.00000002):0.00000256,3_0_3:0.00000088):0.00000684,3_0_8:0.00001645):0.00000283,(((3_0_4:0.00000016,3_0_6:0.00000028):0.00000218,(3_0_5:0.00000732,3_0_2:0.00000268):0.00000123):0.00000453,3_0_0:0.00001689):0.00000113):0.00004333,5_0_3:0.00002357):0.00006182,((5_0_1:0.00000209,(5_0_0:0.00001729,((5_0_8:0.00000076,(5_0_4:0.00000777,5_0_6:0.00000076):0.00000071):0.00000430,5_0_7:0.00000813):0.00000009):0.00000587):0.00000204,(5_0_5:0.00000012,5_0_2:0.00000015):0.00001941):0.00001261):0.00335034,((((6_0_5:0.00000293,6_0_2:0.00000086):0.00017422,(6_0_7:0.00000628,(((6_0_1:0.00000122,6_0_6:0.00000022):0.00000232,(6_0_3:0.00000003,(6_0_8:0.00000017,6_0_0:0.00000030):0.00000012):0.00000070):0.00000114,6_0_4:0.00000294):0.00000078):0.00000708):0.00154036,((1_0_6:0.00002965,1_0_3:0.00000143):0.00001491,((1_0_4:0.00000208,1_0_2:0.00000298):0.00000572,(((1_0_7:0.00000284,1_0_1:0.00000141):0.00000010,(1_0_0:0.00000019,1_0_8:0.00000007):0.00001000):0.00000188,1_0_5:0.00001770):0.00003594):0.00003212):0.00017037):0.00310710,(((4_0_1:0.00001808,(((4_0_3:0.00001981,4_0_0:0.00000156):0.00000273,4_0_2:0.00000151):0.00001016,((4_0_5:0.00000169,4_0_6:0.00000132):0.00001397,4_0_8:0.00002898):0.00000267):0.00000229):0.00004315,(4_0_4:0.00001026,4_0_7:0.00000403):0.00006318):0.00068800,(((((2_0_4:0.00000117,2_0_6:0.00000187):0.00000094,2_0_1:0.00001080):0.00000188,(((2_0_2:0.00000012,2_0_0:0.00000129):0.00000247,2_0_3:0.00000379):0.00000148,(2_0_7:0.00000014,2_0_5:0.00000093):0.00000160):0.00000103):0.00000193,2_0_8:0.00001714):0.00165668,((((7_0_1:0.00000007,7_0_7:0.00000010):0.00000005,7_0_3:0.00000053):0.00000114,(7_0_6:0.00000044,7_0_0:0.00000096):0.00000043):0.00001648,(7_0_8:0.00000438,(7_0_2:0.00000971,(7_0_4:0.00000094,7_0_5:0.00000135):0.00000472):0.00000040):0.00000401):0.00208705):0.00053366):0.00133593):0.00032619):0.01307254):0.10372171);

data_09	T09	73	1	1	0.225442	0.110177	0.204473	(0_0_0:0.11017651,((8_0_0:0.00019129,((8_0_8:0.00000239,((8_0_4:0.00000000,8_0_1:0.00000000):0.00000294,8_0_2:0.00000063):0.00000405):0.00000175,((8_0_3:0.00000198,8_0_6:0.00000012):0.00000024,(8_0_7:0.00000014,8_0_5:0.00000016):0.00000050):0.00000181):0.00000576):0.00571796,(((((4_0_3:0.00000042,4_0_1:0.00000061):0.00002192,(((4_0_4:0.00000218,4_0_8:0.00000335):0.00000276,4_0_7:0.00000186):0.00000306,((4_0_5:0.00000041,4_0_0:0.00000055):0.00000344,(4_0_2:0.00000016,4_0_6:0.00000013):0.00000058):0.00000107):0.00000575):0.01363555,(((((2_0_7:0.00000239,2_0_0:0.00000100):0.00000374,((2_0_6:0.00000078,(2_0_3:0.00000031,2_0_8:0.00000268):0.00000143):0.00000030,2_0_2:0.00000323):0.00000011):0.00000706,(2_0_5:0.00000582,2_0_4:0.00000116):0.00000220):0.00000341,2_0_1:0.00002045):0.00329995,(7_0_4:0.00001222,((7_0_8:0.00000304,7_0_6:0.00000668):0.00000046,(7_0_7:0.00000337,((7_0_2:0.00000016,(7_0_3:0.00000119,7_0_5:0.00000125):0.00000004):0.00000006,(7_0_1:0.00000010,7_0_0:0.00000087):0.00000014):0.00000090):0.00000450):0.00000663):0.00027784):0.00182869):0.00074307,((((1_0_6:0.00000061,1_0_1:0.00000159):0.00000158,((1_0_4:0.00000016,1_0_3:0.00000016):0.00000328,1_0_7:0.00001087):0.00000193):0.00000521,(1_0_5:0.00000194,((1_0_2:0.00000034,1_0_8:0.00000096):0.00000410,1_0_0:0.00000738):0.00000154):0.00002510):0.00104768,((6_0_8:0.00003452,(6_0_6:0.00000145,6_0_1:0.00000393):0.00000910):0.00001931,((6_0_0:0.00000237,6_0_2:0.00000183):0.00009417,(6_0_3:0.00001633,((6_0_5:0.00000140,6_0_7:0.00000010):0.00000495,6_0_4:0.00000537):0.00000463):0.00000401):0.00005720):0.00056621):0.00239391):0.00579522,(((3_0_5:0.00001505,((3_0_4:0.00000015,(3_0_1:0.00000005,3_0_8:0.00000025):0.00000083):0.00000053,3_0_7:0.00000110):0.00001161):0.00000655,(3_0_6:0.00000416,((3_0_3:0.00000177,3_0_2:0.00000066):0.00000151,3_0_0:0.00000141):0.00000063):0.00003325):0.00004587,((((5_0_5:0.00000020,5_0_7:0.00000005):0.00000252,5_0_1:0.00000167):0.00000001,((5_0_4:0.00000169,5_0_2:0.00000020):0.00000011,5_0_3:0.00000208):0.00000470):0.00001761,((5_0_6:0.00000025,5_0_8:0.00000039):0.00001474,5_0_0:0.00000373):0.00000048):0.00005691):0.00493928):0.00717214):0.06692766);

data_10	T10	73	1	1	0.159019	0.0892195	0.114867	((((((5_0_4:0.00000504,((((5_0_7:0.00000071,5_0_6:0.00000008):0.00000006,(5_0_1:0.00000001,5_0_0:0.00000002):0.00000287):0.00000124,(5_0_5:0.00000037,5_0_3:0.00000031):0.00000483):0.00000431,5_0_8:0.00000273):0.00001934):0.00000073,5_0_2:0.00002326):0.00003759,((((3_0_8:0.00000098,3_0_1:0.00000102):0.00000048,3_0_5:0.00001369):0.00000238,(3_0_6:0.00001308,3_0_3:0.00000024):0.00000214):0.00000330,((3_0_2:0.00000013,3_0_0:0.00000067):0.00000274,(3_0_4:0.00000736,3_0_7:0.00000966):0.00000207):0.00000284):0.00005986):0.02491681,(((((4_0_3:0.00000069,(4_0_8:0.00000069,4_0_4:0.00000075):0.00000132):0.00000436,((4_0_6:0.00000059,4_0_7:0.00000239):0.00000033,(4_0_1:0.00000116,(4_0_0:0.00000209,4_0_2:0.00000018):0.00000053):0.00000028):0.00000631):0.00001099,4_0_5:0.00001694):0.00209937,((((2_0_7:0.00000369,((2_0_6:0.00000263,2_0_3:0.00000239):0.00000001,2_0_4:0.00000152):0.00000005):0.00000790,((2_0_0:0.00000091,2_0_5:0.00000046):0.00000124,2_0_1:0.00000127):0.00000079):0.00000144,(2_0_2:0.00000026,2_0_8:0.00000026):0.00000871):0.00165704,(7_0_1:0.00002679,((7_0_6:0.00000983,(7_0_3:0.00000359,7_0_4:0.00000084):0.00000209):0.00001902,(((7_0_0:0.00000243,7_0_8:0.00000259):0.00000044,(7_0_2:0.00000029,7_0_7:0.00000095):0.00000314):0.00000415,7_0_5:0.00000587):0.00002676):0.00000295):0.00002811):0.00130699):0.00131592,(((((1_0_6:0.00000024,1_0_8:0.00000037):0.00000951,1_0_4:0.00000546):0.00000333,((1_0_7:0.00000061,1_0_1:0.00000005):0.00000185,1_0_0:0.00000055):0.00000023):0.00003609,((1_0_5:0.00000267,1_0_3:0.00000042):0.00000257,1_0_2:0.00000519):0.00000172):0.00109203,(((6_0_0:0.00000324,(6_0_7:0.00000096,(6_0_2:0.00000052,6_0_1:0.00000182):0.00001244):0.00000000):0.00005263,(6_0_6:0.00000192,(6_0_8:0.00000014,6_0_3:0.00000009):0.00000030):0.00000789):0.00000473,(6_0_5:0.00001013,6_0_4:0.00000142):0.00003285):0.00031460):0.00449379):0.00278312):0.00350418,(((8_0_1:0.00000062,8_0_2:0.00000004):0.00000048,8_0_3:0.00000113):0.00001013,((8_0_4:0.00000122,(8_0_5:0.00000066,(8_0_0:0.00000196,(8_0_8:0.00000020,8_0_6:0.00000047):0.00000107):0.00000120):0.00000033):0.00003969,8_0_7:0.00000082):0.00001482):0.07798354):0.01117797,0_0_0:0.02564782);
