********************************************************************************
INDELible V1.03 by Will Fletcher : Simulation began at: Fri Dec  2 11:10:09 2016
********************************************************************************

  * Block 1 was completed in 0.18 seconds.

********************************************************************************


  * Block 2 was completed in 0.17 seconds.

********************************************************************************


  * Block 3 was completed in 0.17 seconds.

********************************************************************************


  * Block 4 was completed in 0.17 seconds.

********************************************************************************


  * Block 5 was completed in 0.17 seconds.

********************************************************************************


  * Block 6 was completed in 0.18 seconds.

********************************************************************************


  * Block 7 was completed in 0.18 seconds.

********************************************************************************


  * Block 8 was completed in 0.17 seconds.

********************************************************************************


  * Block 9 was completed in 0.17 seconds.

********************************************************************************


  * Block 10 was completed in 0.17 seconds.

********************************************************************************

  * Simulation completed. Whole batch took: 1.74 seconds.

INDELible V1.03 Simulations completed at: Fri Dec  2 11:10:11 2016

********************************************************************************


 Original Control File 

-----------------------


[TYPE] NUCLEOTIDE 1 

[SETTINGS]
    [fastaextension] fasta  

[MODEL] csSim_unlinked_1
    [submodel] GTR 0.102490 0.008179 0.008346 0.023970 0.066354 
    [statefreq] 0.194866 0.113828 0.031712 0.659595 
[rates] 0 15.634395 0 

[MODEL] csSim_unlinked_2
    [submodel] GTR 0.092300 0.006066 0.032566 0.032822 0.042506 
    [statefreq] 0.385378 0.181948 0.428719 0.003956 
[rates] 0 6.688506 0 

[MODEL] csSim_unlinked_3
    [submodel] GTR 0.069115 0.007898 0.026421 0.014391 0.029542 
    [statefreq] 0.500213 0.317056 0.063468 0.119263 
[rates] 0 0.600999 0 

[MODEL] csSim_unlinked_4
    [submodel] GTR 0.101253 0.008330 0.024946 0.030528 0.033148 
    [statefreq] 0.598836 0.012882 0.386818 0.001464 
[rates] 0 42.493502 0 

[MODEL] csSim_unlinked_5
    [submodel] GTR 0.119520 0.007946 0.008100 0.035076 0.039009 
    [statefreq] 0.022846 0.375675 0.358864 0.242615 
[rates] 0 4.200557 0 

[MODEL] csSim_unlinked_6
    [submodel] GTR 0.089073 0.003002 0.009194 0.040519 0.046204 
    [statefreq] 0.170992 0.141487 0.095526 0.591995 
[rates] 0 0.162996 0 

[MODEL] csSim_unlinked_7
    [submodel] GTR 0.146683 0.009246 0.029709 0.024856 0.021710 
    [statefreq] 0.033711 0.261093 0.412063 0.293133 
[rates] 0 68.377677 0 

[MODEL] csSim_unlinked_8
    [submodel] GTR 0.095355 0.012628 0.011143 0.009379 0.038999 
    [statefreq] 0.120608 0.413891 0.289384 0.176117 
[rates] 0 8.699767 0 

[MODEL] csSim_unlinked_9
    [submodel] GTR 0.088852 0.016453 0.013969 0.025668 0.055404 
    [statefreq] 0.110609 0.120090 0.668413 0.100888 
[rates] 0 8.416689 0 

[MODEL] csSim_unlinked_10
    [submodel] GTR 0.108869 0.000939 0.038217 0.034801 0.035334 
    [statefreq] 0.041095 0.160394 0.142760 0.655751 
[rates] 0 5.763261 0 


[TREE] T01 (((((((3_0_12:0.00001339,((((3_0_3:0.00000057,(3_0_13:0.00000014,3_0_4:0.00000015):0.00000050):0.00000082,3_0_9:0.00000100):0.00000030,(3_0_10:0.00000095,3_0_2:0.00000072):0.00000076):0.00000158,((3_0_16:0.00000139,(3_0_15:0.00000074,3_0_8:0.00000065):0.00000104):0.00000002,3_0_11:0.00000198):0.00000240):0.00000401):0.00002112,(3_0_5:0.00000014,3_0_14:0.00000029):0.00004303):0.00000692,((3_0_0:0.00000178,(3_0_6:0.00000050,3_0_7:0.00000049):0.00000119):0.00000085,3_0_1:0.00000380):0.00004825):0.00007239,((((1_0_6:0.00000168,(1_0_13:0.00000116,1_0_14:0.00000138):0.00000095):0.00000081,(1_0_9:0.00000015,1_0_1:0.00000015):0.00000582):0.00001811,((((1_0_0:0.00000036,1_0_16:0.00000062):0.00000092,1_0_4:0.00000288):0.00000198,(1_0_10:0.00000353,(1_0_8:0.00000017,1_0_2:0.00000019):0.00000252):0.00000067):0.00001546,(1_0_12:0.00000835,1_0_11:0.00000704):0.00000776):0.00000089):0.00002689,((1_0_15:0.00000047,1_0_7:0.00000039):0.00000177,(1_0_3:0.00000046,1_0_5:0.00000034):0.00000116):0.00004394):0.00016381):0.00088869,(((2_0_14:0.00000012,2_0_2:0.00000031):0.00000020,2_0_9:0.00000058):0.00002917,(2_0_12:0.00001126,(((2_0_10:0.00000340,(2_0_3:0.00000112,2_0_4:0.00000053):0.00000378):0.00000275,(((2_0_5:0.00000004,2_0_15:0.00000006):0.00000048,2_0_7:0.00000044):0.00000007,(2_0_1:0.00000039,2_0_11:0.00000025):0.00000018):0.00000349):0.00000098,(2_0_13:0.00000276,(((2_0_6:0.00000061,2_0_8:0.00000028):0.00000062,2_0_16:0.00000060):0.00000153,2_0_0:0.00000104):0.00000391):0.00000217):0.00000399):0.00001166):0.00066944):0.01663234,((4_0_2:0.00001102,((4_0_6:0.00000029,(4_0_12:0.00000023,4_0_16:0.00000049):0.00000002):0.00000390,4_0_0:0.00000367):0.00000463):0.00005789,((4_0_10:0.00000319,4_0_15:0.00000341):0.00000538,(((4_0_8:0.00000509,(4_0_5:0.00000148,(4_0_9:0.00000067,4_0_4:0.00000108):0.00000057):0.00000461):0.00000034,(4_0_1:0.00000104,4_0_11:0.00000063):0.00000488):0.00000086,((4_0_3:0.00000075,(4_0_7:0.00000051,4_0_13:0.00000024):0.00000093):0.00000023,4_0_14:0.00000125):0.00000476):0.00000048):0.00004995):0.03477636):0.02294953,0_0_0:0.04524606);
[TREE] T02 (0_0_0:0.06480582,((((((4_0_14:0.00000040,4_0_6:0.00000057):0.00000100,4_0_2:0.00000178):0.00000471,(4_0_7:0.00000426,(((4_0_5:0.00000037,4_0_9:0.00000051):0.00000075,4_0_3:0.00000114):0.00000397,4_0_12:0.00000367):0.00000048):0.00000201):0.00000368,((4_0_1:0.00000071,(4_0_8:0.00000013,4_0_10:0.00000009):0.00000093):0.00000045,(4_0_15:0.00000118,4_0_16:0.00000110):0.00000012):0.00000641):0.00002590,((4_0_4:0.00000533,4_0_11:0.00000574):0.00000933,(4_0_13:0.00000007,4_0_0:0.00000005):0.00002081):0.00000181):0.03212428,((((2_0_15:0.00000999,(2_0_3:0.00000069,(2_0_1:0.00000059,2_0_5:0.00000115):0.00000047):0.00000949):0.00000440,(((2_0_8:0.00000252,2_0_7:0.00000192):0.00000314,2_0_0:0.00000254):0.00000177,(2_0_6:0.00000329,(2_0_12:0.00000152,(2_0_16:0.00000048,(2_0_13:0.00000019,2_0_9:0.00000019):0.00000048):0.00000114):0.00000046):0.00000193):0.00000502):0.00000863,(2_0_10:0.00000043,(2_0_4:0.00000162,(2_0_2:0.00000010,(2_0_11:0.00000000,2_0_14:0.00000000):0.00000006):0.00000202):0.00000007):0.00002356):0.00102006,(((((1_0_2:0.00000274,1_0_9:0.00000209):0.00000134,1_0_14:0.00000655):0.00000404,1_0_15:0.00000875):0.00002533,((((1_0_3:0.00000219,1_0_6:0.00000228):0.00000339,(1_0_4:0.00000035,1_0_0:0.00000051):0.00000372):0.00000127,(((1_0_7:0.00000119,1_0_1:0.00000366):0.00000013,(1_0_12:0.00000015,1_0_11:0.00000023):0.00000303):0.00000200,((1_0_10:0.00000051,1_0_8:0.00000062):0.00000010,1_0_13:0.00000083):0.00000221):0.00000278):0.00000057,(1_0_5:0.00001049,1_0_16:0.00000773):0.00000011):0.00004075):0.00014732,((((3_0_4:0.00000106,(3_0_0:0.00000053,3_0_6:0.00000065):0.00000096):0.00000056,3_0_11:0.00000166):0.00000095,3_0_1:0.00000198):0.00005444,((3_0_5:0.00000749,((3_0_14:0.00000007,3_0_15:0.00000008):0.00000259,3_0_16:0.00000228):0.00000170):0.00001153,(((3_0_13:0.00000180,((3_0_7:0.00000011,3_0_2:0.00000010):0.00000136,3_0_9:0.00000074):0.00000331):0.00000313,3_0_10:0.00000582):0.00000164,((3_0_3:0.00000033,3_0_8:0.00000010):0.00000651,3_0_12:0.00000499):0.00000279):0.00001370):0.00002310):0.00011130):0.00078020):0.01932477):0.03896011);
[TREE] T03 (0_0_0:0.06146526,(((((2_0_9:0.00000403,2_0_16:0.00000998):0.00000428,((((2_0_1:0.00000008,2_0_12:0.00000010):0.00000133,(2_0_6:0.00000138,2_0_0:0.00000072):0.00000114):0.00000046,2_0_10:0.00000233):0.00000761,(((2_0_2:0.00000045,2_0_11:0.00000036):0.00000108,2_0_15:0.00000142):0.00000253,2_0_7:0.00000439):0.00000334):0.00000578):0.00000449,((2_0_3:0.00000426,(2_0_8:0.00000020,2_0_5:0.00000051):0.00000991):0.00001317,(2_0_14:0.00000160,(2_0_13:0.00000067,2_0_4:0.00000046):0.00000052):0.00001270):0.00000117):0.00079591,((((3_0_16:0.00000029,3_0_15:0.00000031):0.00000031,3_0_14:0.00000086):0.00009050,(((3_0_7:0.00000235,3_0_9:0.00000138):0.00000991,((3_0_3:0.00000245,((3_0_5:0.00000038,3_0_12:0.00000045):0.00000039,3_0_4:0.00000084):0.00000138):0.00000734,(3_0_10:0.00000129,3_0_13:0.00000221):0.00000829):0.00000126):0.00000360,(((3_0_2:0.00000044,3_0_8:0.00000069):0.00000023,3_0_1:0.00000062):0.00001127,((3_0_11:0.00000008,3_0_0:0.00000026):0.00000062,3_0_6:0.00000075):0.00000596):0.00000430):0.00005666):0.00009559,(((1_0_0:0.00000102,1_0_9:0.00000057):0.00000140,((1_0_7:0.00000109,(1_0_6:0.00000028,1_0_15:0.00000022):0.00000058):0.00000004,1_0_3:0.00000082):0.00000201):0.00001241,(1_0_16:0.00001448,(((1_0_11:0.00000073,(1_0_13:0.00000074,1_0_8:0.00000102):0.00000011):0.00000184,(1_0_14:0.00000186,(((1_0_10:0.00000046,1_0_2:0.00000047):0.00000050,1_0_1:0.00000070):0.00000065,(1_0_5:0.00000010,1_0_12:0.00000013):0.00000260):0.00000002):0.00000036):0.00000586,1_0_4:0.00000656):0.00000848):0.00000007):0.00024107):0.00087780):0.04396567,(((4_0_15:0.00000152,(4_0_10:0.00000148,4_0_9:0.00000088):0.00000046):0.00000800,(((4_0_12:0.00000224,(4_0_6:0.00000001,4_0_16:0.00000001):0.00000165):0.00000043,(4_0_13:0.00000294,4_0_0:0.00000135):0.00000051):0.00000161,(4_0_11:0.00000135,((4_0_14:0.00000084,4_0_7:0.00000063):0.00000032,4_0_4:0.00000150):0.00000019):0.00000445):0.00000586):0.00001211,((4_0_2:0.00000056,(4_0_3:0.00000084,4_0_5:0.00000065):0.00000005):0.00000769,(4_0_8:0.00000052,4_0_1:0.00000064):0.00001140):0.00000459):0.02657141):0.03412410);
[TREE] T04 (0_0_0:0.06793152,(((4_0_10:0.00001124,((4_0_14:0.00000333,(4_0_9:0.00000010,4_0_5:0.00000025):0.00000164):0.00000039,((4_0_0:0.00000144,4_0_7:0.00000164):0.00000118,(4_0_13:0.00000103,(4_0_16:0.00000073,4_0_15:0.00000055):0.00000006):0.00000080):0.00000137):0.00000558):0.00002252,(((4_0_6:0.00000835,((4_0_3:0.00000117,4_0_1:0.00000154):0.00000192,(4_0_8:0.00000064,4_0_4:0.00000045):0.00000585):0.00000081):0.00000523,(4_0_12:0.00000080,4_0_2:0.00000095):0.00001228):0.00001189,4_0_11:0.00001718):0.00001152):0.02457853,(((((1_0_9:0.00000399,1_0_1:0.00000335):0.00001067,(((1_0_14:0.00000299,(1_0_11:0.00000121,1_0_4:0.00000181):0.00000199):0.00000219,((1_0_16:0.00000237,1_0_15:0.00000077):0.00000162,(1_0_5:0.00000030,1_0_0:0.00000021):0.00000141):0.00000324):0.00000142,1_0_7:0.00000488):0.00000860):0.00000121,((1_0_2:0.00000269,(1_0_6:0.00000059,(1_0_13:0.00000019,1_0_8:0.00000026):0.00000072):0.00000163):0.00000100,((1_0_10:0.00000021,1_0_12:0.00000029):0.00000287,1_0_3:0.00000431):0.00000102):0.00000909):0.00022534,(((((3_0_3:0.00000062,3_0_8:0.00000035):0.00000163,(3_0_16:0.00000040,3_0_2:0.00000053):0.00000109):0.00001047,(3_0_13:0.00000105,3_0_6:0.00000086):0.00001177):0.00000581,(3_0_7:0.00000464,(3_0_4:0.00000009,3_0_10:0.00000009):0.00000737):0.00001425):0.00001192,((((3_0_1:0.00000164,3_0_12:0.00000125):0.00000059,3_0_14:0.00000394):0.00000325,(3_0_9:0.00000135,3_0_5:0.00000112):0.00000585):0.00000290,(3_0_0:0.00000182,(3_0_15:0.00000051,3_0_11:0.00000073):0.00000073):0.00000504):0.00001850):0.00009974):0.00096022,((((2_0_0:0.00000173,(((2_0_16:0.00000008,2_0_4:0.00000011):0.00000030,(2_0_12:0.00000010,2_0_3:0.00000009):0.00000026):0.00000024,2_0_10:0.00000071):0.00000126):0.00000019,((2_0_2:0.00000140,(2_0_5:0.00000087,(2_0_8:0.00000005,2_0_15:0.00000005):0.00000056):0.00000039):0.00000024,2_0_6:0.00000131):0.00000101):0.00000522,2_0_11:0.00001364):0.00000339,((2_0_1:0.00000032,(2_0_14:0.00000005,2_0_13:0.00000012):0.00000022):0.00001123,(2_0_7:0.00000499,2_0_9:0.00000951):0.00000360):0.00001010):0.00106205):0.02960209):0.01976395);
[TREE] T05 (((((((2_0_8:0.00000075,(2_0_12:0.00000125,2_0_2:0.00000102):0.00000018):0.00000090,(2_0_7:0.00000069,2_0_3:0.00000068):0.00000088):0.00001850,((2_0_1:0.00000430,(2_0_13:0.00000250,(2_0_0:0.00000208,(2_0_6:0.00000128,2_0_15:0.00000140):0.00000016):0.00000031):0.00001111):0.00000370,2_0_4:0.00001408):0.00000087):0.00002650,(((2_0_11:0.00000046,2_0_5:0.00000020):0.00000724,(2_0_14:0.00000135,2_0_10:0.00000304):0.00000301):0.00000048,(2_0_16:0.00000815,2_0_9:0.00000495):0.00000175):0.00004467):0.00058811,(((((1_0_11:0.00000631,(1_0_3:0.00000029,1_0_5:0.00000116):0.00000262):0.00000098,(1_0_15:0.00000759,(1_0_1:0.00000015,1_0_7:0.00000017):0.00000558):0.00000036):0.00000129,(1_0_0:0.00000056,1_0_13:0.00000033):0.00000751):0.00001352,(1_0_2:0.00001147,(((1_0_8:0.00000001,1_0_4:0.00000001):0.00000019,1_0_16:0.00000038):0.00000432,(1_0_6:0.00000203,((1_0_12:0.00000173,(1_0_9:0.00000055,1_0_14:0.00000029):0.00000062):0.00000052,1_0_10:0.00000242):0.00000149):0.00000270):0.00000204):0.00004563):0.00011166,(((3_0_15:0.00000048,(3_0_11:0.00000035,3_0_2:0.00000049):0.00000063):0.00000484,((3_0_10:0.00000493,(((3_0_4:0.00000138,3_0_6:0.00000139):0.00000155,3_0_1:0.00000391):0.00000091,(3_0_5:0.00000225,3_0_14:0.00000150):0.00000161):0.00000133):0.00000019,((3_0_12:0.00000334,(3_0_8:0.00000090,(3_0_0:0.00000128,3_0_3:0.00000167):0.00000054):0.00000039):0.00000232,3_0_7:0.00000332):0.00000010):0.00000338):0.00000382,((3_0_9:0.00000056,3_0_16:0.00000072):0.00000191,3_0_13:0.00000337):0.00000782):0.00018537):0.00078986):0.02114168,((4_0_5:0.00000017,4_0_1:0.00000006):0.00000961,(((4_0_10:0.00000637,(((4_0_11:0.00000017,4_0_15:0.00000032):0.00000041,4_0_9:0.00000065):0.00000139,(4_0_12:0.00000079,(4_0_6:0.00000060,4_0_0:0.00000056):0.00000062):0.00000094):0.00000393):0.00000058,(4_0_14:0.00000260,(4_0_13:0.00000046,4_0_16:0.00000043):0.00000348):0.00000489):0.00000151,((4_0_7:0.00000053,4_0_3:0.00000050):0.00000588,(4_0_4:0.00000344,(4_0_2:0.00000127,4_0_8:0.00000159):0.00000076):0.00000405):0.00000010):0.00001549):0.04011513):0.01824261,0_0_0:0.02329673);
[TREE] T06 (((((4_0_10:0.00000056,((4_0_8:0.00000030,4_0_6:0.00000098):0.00000007,(4_0_15:0.00000016,4_0_0:0.00000014):0.00000116):0.00000012):0.00000462,(4_0_14:0.00000215,(4_0_2:0.00000245,((4_0_16:0.00000151,4_0_12:0.00000083):0.00000078,4_0_3:0.00000119):0.00000049):0.00000041):0.00000527):0.00001076,(((4_0_1:0.00000060,4_0_7:0.00000045):0.00000429,4_0_9:0.00000238):0.00001537,(4_0_11:0.00000881,((4_0_13:0.00000041,4_0_4:0.00000054):0.00000133,4_0_5:0.00000119):0.00001831):0.00000484):0.00000128):0.02831733,((((1_0_8:0.00001670,((1_0_16:0.00000271,((1_0_0:0.00000115,1_0_13:0.00000105):0.00000034,1_0_1:0.00000194):0.00000241):0.00000111,(((1_0_10:0.00000137,((1_0_11:0.00000022,1_0_4:0.00000040):0.00000040,(1_0_15:0.00000034,1_0_5:0.00000038):0.00000061):0.00000059):0.00000163,(1_0_6:0.00000009,1_0_2:0.00000011):0.00000371):0.00000100,1_0_7:0.00000575):0.00000106):0.00001398):0.00000837,((1_0_12:0.00000032,1_0_3:0.00000025):0.00000869,(1_0_14:0.00000248,1_0_9:0.00000205):0.00000923):0.00001110):0.00022355,(((((3_0_0:0.00000135,(3_0_9:0.00000017,3_0_4:0.00000016):0.00000083):0.00000095,(3_0_11:0.00000076,3_0_3:0.00000106):0.00000114):0.00000361,(3_0_13:0.00000023,3_0_6:0.00000035):0.00000389):0.00000446,3_0_2:0.00001525):0.00002812,(((3_0_14:0.00000233,(3_0_10:0.00000128,3_0_7:0.00000168):0.00000233):0.00000039,(3_0_15:0.00000359,((3_0_1:0.00000083,3_0_8:0.00000084):0.00000063,(3_0_16:0.00000141,3_0_5:0.00000073):0.00000028):0.00000063):0.00000127):0.00000477,3_0_12:0.00001801):0.00002025):0.00015158):0.00106926,(2_0_15:0.00005268,((2_0_13:0.00000642,((2_0_9:0.00000531,(((((2_0_10:0.00000022,2_0_5:0.00000019):0.00000006,(2_0_1:0.00000014,2_0_14:0.00000028):0.00000019):0.00000028,2_0_8:0.00000079):0.00000429,(2_0_7:0.00000013,2_0_11:0.00000011):0.00000494):0.00000320,(2_0_2:0.00000115,((2_0_6:0.00000066,2_0_0:0.00000067):0.00000174,2_0_12:0.00000207):0.00000069):0.00000431):0.00000009):0.00000221,(2_0_16:0.00000102,2_0_4:0.00000141):0.00000814):0.00000000):0.00000068,2_0_3:0.00000868):0.00006185):0.00108896):0.02980200):0.03491760,0_0_0:0.04880265);
[TREE] T07 (0_0_0:0.07388498,(((((1_0_7:0.00000634,(1_0_3:0.00000153,1_0_2:0.00000158):0.00000505):0.00001466,((((1_0_5:0.00000006,1_0_0:0.00000004):0.00000819,(((1_0_13:0.00000197,1_0_16:0.00000079):0.00000021,1_0_11:0.00000157):0.00000384,1_0_14:0.00000701):0.00000458):0.00000767,(1_0_15:0.00000053,1_0_8:0.00000069):0.00000630):0.00000152,(1_0_6:0.00000225,(1_0_1:0.00000436,(((1_0_4:0.00000005,1_0_9:0.00000009):0.00000045,1_0_12:0.00000076):0.00000019,1_0_10:0.00000049):0.00000383):0.00000007):0.00001372):0.00000734):0.00025952,(((3_0_5:0.00000284,3_0_14:0.00000274):0.00002487,((((3_0_1:0.00000093,3_0_8:0.00000072):0.00000087,3_0_6:0.00000274):0.00000057,(3_0_13:0.00000020,(3_0_16:0.00000004,3_0_11:0.00000002):0.00000016):0.00000164):0.00000789,(((3_0_12:0.00000227,3_0_10:0.00000445):0.00000033,((3_0_2:0.00000322,(3_0_3:0.00000104,3_0_9:0.00000089):0.00000414):0.00000014,(3_0_0:0.00000032,3_0_7:0.00000032):0.00000384):0.00000008):0.00000070,3_0_4:0.00000511):0.00000327):0.00001041):0.00000110,3_0_15:0.00002039):0.00031189):0.00074972,(((2_0_6:0.00000043,2_0_1:0.00000040):0.00000710,2_0_5:0.00000752):0.00001432,((((((2_0_10:0.00000052,(2_0_4:0.00000001,2_0_3:0.00000001):0.00000070):0.00000283,2_0_16:0.00000184):0.00000008,2_0_9:0.00000491):0.00000046,(2_0_15:0.00000169,2_0_13:0.00000306):0.00000097):0.00000052,(((2_0_12:0.00000013,2_0_14:0.00000015):0.00000121,2_0_11:0.00000145):0.00000027,(2_0_8:0.00000137,2_0_2:0.00000170):0.00000030):0.00000176):0.00000293,(2_0_0:0.00000030,2_0_7:0.00000020):0.00000781):0.00000609):0.00099422):0.02630822,(((4_0_5:0.00000136,(4_0_12:0.00000094,4_0_0:0.00000056):0.00000143):0.00000624,4_0_14:0.00000593):0.00004022,(((4_0_2:0.00000286,4_0_8:0.00000283):0.00000223,((4_0_10:0.00000005,4_0_7:0.00000004):0.00000429,(4_0_1:0.00000196,4_0_15:0.00000164):0.00000269):0.00000048):0.00000740,((4_0_6:0.00000038,4_0_16:0.00000016):0.00001067,((4_0_11:0.00000137,(4_0_3:0.00000093,4_0_4:0.00000083):0.00000020):0.00000562,(4_0_9:0.00000181,4_0_13:0.00000243):0.00000407):0.00000235):0.00000628):0.00003175):0.03584473):0.02529300);
[TREE] T08 ((((((4_0_2:0.00000079,4_0_5:0.00000055):0.00000338,(4_0_4:0.00000031,4_0_11:0.00000021):0.00000353):0.00000141,(4_0_12:0.00000140,4_0_0:0.00000097):0.00000430):0.00000642,((4_0_3:0.00000232,(4_0_8:0.00000055,4_0_13:0.00000048):0.00000237):0.00001647,(4_0_10:0.00000285,((4_0_9:0.00000114,((4_0_1:0.00000037,4_0_15:0.00000097):0.00000064,4_0_14:0.00000097):0.00000024):0.00000146,((4_0_16:0.00000076,4_0_7:0.00000068):0.00000019,4_0_6:0.00000102):0.00000137):0.00000051):0.00001178):0.00000012):0.02528617,((((((1_0_11:0.00000074,1_0_5:0.00000150):0.00000298,((1_0_7:0.00000061,1_0_9:0.00000084):0.00000395,((1_0_16:0.00000150,(1_0_8:0.00000148,((1_0_15:0.00000019,1_0_14:0.00000013):0.00000045,(1_0_0:0.00000026,1_0_12:0.00000009):0.00000026):0.00000021):0.00000043):0.00000128,(1_0_1:0.00000005,1_0_10:0.00000003):0.00000193):0.00000085):0.00000102):0.00000782,((1_0_2:0.00000768,1_0_6:0.00000482):0.00000119,(1_0_4:0.00000115,1_0_3:0.00000123):0.00000673):0.00000251):0.00000521,1_0_13:0.00004935):0.00026330,(((3_0_8:0.00000284,((3_0_4:0.00000168,3_0_11:0.00000104):0.00000014,(3_0_7:0.00000148,3_0_0:0.00000101):0.00000012):0.00000143):0.00000538,(((3_0_10:0.00000322,3_0_2:0.00000157):0.00000512,((3_0_5:0.00000014,3_0_3:0.00000020):0.00000070,3_0_12:0.00000114):0.00001120):0.00000210,((3_0_13:0.00000600,3_0_9:0.00000564):0.00000396,(((3_0_15:0.00000148,3_0_16:0.00000243):0.00000312,3_0_6:0.00000710):0.00000258,3_0_1:0.00000723):0.00000385):0.00000147):0.00000012):0.00000625,3_0_14:0.00001036):0.00012411):0.00070479,((((2_0_3:0.00000052,2_0_4:0.00000044):0.00000250,((2_0_8:0.00000032,(2_0_14:0.00000017,2_0_13:0.00000029):0.00000003):0.00000006,2_0_10:0.00000030):0.00000270):0.00000673,(2_0_2:0.00000013,2_0_0:0.00000014):0.00000527):0.00003552,((((2_0_6:0.00000067,(2_0_9:0.00000024,2_0_16:0.00000031):0.00000070):0.00000387,2_0_15:0.00000488):0.00001069,((2_0_5:0.00000001,2_0_12:0.00000000):0.00000418,2_0_1:0.00000116):0.00000797):0.00000015,(2_0_11:0.00000242,2_0_7:0.00000092):0.00000507):0.00007416):0.00059974):0.03220413):0.02255498,0_0_0:0.03517332);
[TREE] T09 (((((4_0_3:0.00000214,(4_0_0:0.00000159,(4_0_10:0.00000154,(4_0_12:0.00000008,(4_0_6:0.00000008,4_0_15:0.00000009):0.00000002):0.00000169):0.00000039):0.00000005):0.00001006,(4_0_16:0.00000860,((4_0_2:0.00000050,(4_0_11:0.00000015,4_0_8:0.00000015):0.00000025):0.00000222,4_0_9:0.00000386):0.00000586):0.00000321):0.00000563,((4_0_13:0.00000021,4_0_4:0.00000051):0.00000593,((4_0_5:0.00000004,(4_0_7:0.00000002,4_0_1:0.00000001):0.00000002):0.00000103,4_0_14:0.00000089):0.00000733):0.00001176):0.03525196,(((((3_0_5:0.00000093,((3_0_12:0.00000010,3_0_4:0.00000015):0.00000029,3_0_0:0.00000034):0.00000129):0.00000106,3_0_2:0.00000320):0.00004517,(((3_0_6:0.00000058,3_0_1:0.00000041):0.00000417,3_0_3:0.00001257):0.00001608,((3_0_9:0.00000769,3_0_16:0.00000936):0.00000120,(3_0_7:0.00000178,((3_0_13:0.00000004,3_0_10:0.00000015):0.00000245,(((3_0_8:0.00000011,3_0_14:0.00000031):0.00000004,3_0_11:0.00000034):0.00000036,3_0_15:0.00000048):0.00000067):0.00000039):0.00001055):0.00000311):0.00001341):0.00011212,(((1_0_11:0.00001333,(1_0_16:0.00001000,(((1_0_13:0.00000041,1_0_5:0.00000053):0.00000166,1_0_15:0.00000048):0.00000024,((1_0_4:0.00000043,1_0_12:0.00000056):0.00000088,(1_0_7:0.00000117,1_0_8:0.00000079):0.00000009):0.00000068):0.00000363):0.00000599):0.00000680,(1_0_3:0.00000100,(1_0_1:0.00000022,1_0_9:0.00000033):0.00000115):0.00001481):0.00000278,((1_0_14:0.00000156,((1_0_0:0.00000054,1_0_6:0.00000075):0.00000069,1_0_10:0.00000093):0.00000162):0.00000536,1_0_2:0.00000964):0.00001115):0.00020837):0.00113036,((((((2_0_4:0.00000194,(2_0_1:0.00000209,2_0_14:0.00000116):0.00000003):0.00000001,((2_0_5:0.00000023,2_0_11:0.00000046):0.00000001,2_0_2:0.00000021):0.00000067):0.00000015,(2_0_0:0.00000076,2_0_6:0.00000098):0.00000070):0.00000178,(2_0_8:0.00000238,2_0_10:0.00000122):0.00000028):0.00002164,(((2_0_13:0.00000011,(2_0_9:0.00000007,2_0_3:0.00000005):0.00000005):0.00000348,2_0_7:0.00000417):0.00000038,2_0_15:0.00000159):0.00001075):0.00000287,(2_0_12:0.00000029,2_0_16:0.00000048):0.00002073):0.00095593):0.02560129):0.04920711,0_0_0:0.05600755);
[TREE] T10 (0_0_0:0.06249522,(((((((2_0_11:0.00000136,(2_0_16:0.00000024,2_0_15:0.00000024):0.00000140):0.00000161,2_0_9:0.00000219):0.00000193,((2_0_0:0.00000363,(2_0_3:0.00000042,2_0_14:0.00000048):0.00000181):0.00000113,(((2_0_7:0.00000130,2_0_12:0.00000102):0.00000160,2_0_13:0.00000168):0.00000013,2_0_8:0.00000342):0.00000056):0.00000250):0.00000687,((2_0_10:0.00000005,2_0_2:0.00000004):0.00000413,(2_0_5:0.00000124,2_0_1:0.00000193):0.00000263):0.00000657):0.00000735,(2_0_4:0.00000177,2_0_6:0.00000290):0.00002030):0.00118325,((((((1_0_13:0.00000127,((1_0_12:0.00000010,1_0_2:0.00000039):0.00000021,1_0_15:0.00000050):0.00000073):0.00000743,((1_0_10:0.00000199,1_0_5:0.00000195):0.00000335,(1_0_3:0.00000115,(1_0_4:0.00000009,1_0_14:0.00000010):0.00000158):0.00000169):0.00000184):0.00000237,(1_0_1:0.00000131,1_0_8:0.00000186):0.00001099):0.00000096,1_0_16:0.00001434):0.00002701,(((1_0_9:0.00000063,1_0_0:0.00000099):0.00000543,1_0_6:0.00000498):0.00000616,(1_0_11:0.00000071,1_0_7:0.00000084):0.00000764):0.00002352):0.00010991,(((3_0_6:0.00000013,3_0_5:0.00000023):0.00000097,3_0_11:0.00000060):0.00002335,(((3_0_8:0.00001219,((3_0_2:0.00000169,3_0_14:0.00000176):0.00000061,(3_0_9:0.00000128,((3_0_0:0.00000015,3_0_3:0.00000015):0.00000025,3_0_13:0.00000038):0.00000057):0.00000070):0.00000860):0.00000196,((3_0_10:0.00000180,3_0_12:0.00000182):0.00000546,3_0_4:0.00000900):0.00000004):0.00000011,((3_0_7:0.00000158,3_0_1:0.00000083):0.00000061,(3_0_16:0.00000044,3_0_15:0.00000039):0.00000155):0.00001028):0.00000730):0.00025886):0.00124597):0.02483157,((4_0_7:0.00000086,(4_0_16:0.00000018,4_0_5:0.00000028):0.00000139):0.00001314,(((4_0_1:0.00000441,((4_0_3:0.00000050,4_0_6:0.00000024):0.00000054,4_0_11:0.00000100):0.00000108):0.00000747,(((4_0_10:0.00000065,4_0_8:0.00000082):0.00000247,4_0_15:0.00000199):0.00000249,((4_0_2:0.00000193,(4_0_13:0.00000052,4_0_0:0.00000044):0.00000137):0.00000003,4_0_4:0.00000236):0.00000328):0.00000254):0.00000097,(4_0_9:0.00000922,(4_0_12:0.00000339,4_0_14:0.00000226):0.00000862):0.00000173):0.00002615):0.02063577):0.03855876);

[PARTITIONS] csSimUnlinked_01 [T01 csSim_unlinked_1 500]
[PARTITIONS] csSimUnlinked_02 [T02 csSim_unlinked_2 500]
[PARTITIONS] csSimUnlinked_03 [T03 csSim_unlinked_3 500]
[PARTITIONS] csSimUnlinked_04 [T04 csSim_unlinked_4 500]
[PARTITIONS] csSimUnlinked_05 [T05 csSim_unlinked_5 500]
[PARTITIONS] csSimUnlinked_06 [T06 csSim_unlinked_6 500]
[PARTITIONS] csSimUnlinked_07 [T07 csSim_unlinked_7 500]
[PARTITIONS] csSimUnlinked_08 [T08 csSim_unlinked_8 500]
[PARTITIONS] csSimUnlinked_09 [T09 csSim_unlinked_9 500]
[PARTITIONS] csSimUnlinked_10 [T10 csSim_unlinked_10 500]

[EVOLVE] csSimUnlinked_01 1 data_01
csSimUnlinked_02 1 data_02
csSimUnlinked_03 1 data_03
csSimUnlinked_04 1 data_04
csSimUnlinked_05 1 data_05
csSimUnlinked_06 1 data_06
csSimUnlinked_07 1 data_07
csSimUnlinked_08 1 data_08
csSimUnlinked_09 1 data_09
csSimUnlinked_10 1 data_10
