********************************************************************************
INDELible V1.03 by Will Fletcher : Simulation began at: Fri Dec  2 11:10:50 2016
********************************************************************************

  * Block 1 was completed in 0.48 seconds.

********************************************************************************


  * Block 2 was completed in 0.48 seconds.

********************************************************************************


  * Block 3 was completed in 0.49 seconds.

********************************************************************************


  * Block 4 was completed in 0.49 seconds.

********************************************************************************


  * Block 5 was completed in 0.51 seconds.

********************************************************************************


  * Block 6 was completed in 0.48 seconds.

********************************************************************************


  * Block 7 was completed in 0.51 seconds.

********************************************************************************


  * Block 8 was completed in 0.5 seconds.

********************************************************************************


  * Block 9 was completed in 0.48 seconds.

********************************************************************************


  * Block 10 was completed in 0.49 seconds.

********************************************************************************

  * Simulation completed. Whole batch took: 4.94 seconds.

INDELible V1.03 Simulations completed at: Fri Dec  2 11:10:55 2016

********************************************************************************


 Original Control File 

-----------------------


[TYPE] NUCLEOTIDE 1 

[SETTINGS]
    [fastaextension] fasta  

[MODEL] csSim_unlinked_1
    [submodel] GTR 0.129580 0.014136 0.008794 0.025261 0.032012 
    [statefreq] 0.600646 0.192327 0.155671 0.051356 
[rates] 0 8.781764 0 

[MODEL] csSim_unlinked_2
    [submodel] GTR 0.095932 0.027528 0.008935 0.023397 0.041911 
    [statefreq] 0.351724 0.112635 0.395008 0.140633 
[rates] 0 23.607946 0 

[MODEL] csSim_unlinked_3
    [submodel] GTR 0.094901 0.004468 0.013388 0.032328 0.065609 
    [statefreq] 0.206223 0.407018 0.216548 0.170211 
[rates] 0 3.022623 0 

[MODEL] csSim_unlinked_4
    [submodel] GTR 0.107852 0.008945 0.016351 0.025098 0.035534 
    [statefreq] 0.158209 0.354333 0.300650 0.186808 
[rates] 0 48.756812 0 

[MODEL] csSim_unlinked_5
    [submodel] GTR 0.099544 0.008685 0.007945 0.038337 0.053111 
    [statefreq] 0.168961 0.119363 0.624663 0.087013 
[rates] 0 78.343318 0 

[MODEL] csSim_unlinked_6
    [submodel] GTR 0.107377 0.018663 0.019373 0.037254 0.034863 
    [statefreq] 0.437540 0.124913 0.144122 0.293425 
[rates] 0 16.135941 0 

[MODEL] csSim_unlinked_7
    [submodel] GTR 0.086279 0.004637 0.020357 0.072396 0.045781 
    [statefreq] 0.167901 0.665337 0.023701 0.143062 
[rates] 0 21.556083 0 

[MODEL] csSim_unlinked_8
    [submodel] GTR 0.081961 0.003644 0.004413 0.025133 0.024582 
    [statefreq] 0.062303 0.169507 0.474878 0.293312 
[rates] 0 4.500763 0 

[MODEL] csSim_unlinked_9
    [submodel] GTR 0.098202 0.009991 0.020841 0.028712 0.043942 
    [statefreq] 0.093887 0.307363 0.597024 0.001726 
[rates] 0 29.056090 0 

[MODEL] csSim_unlinked_10
    [submodel] GTR 0.097239 0.009646 0.030163 0.035189 0.048513 
    [statefreq] 0.127906 0.028361 0.478195 0.365538 
[rates] 0 0.675759 0 


[TREE] T01 (0_0_0:0.10172390,(((((((((11_0_12:0.00000273,11_0_2:0.00000039):0.00000276,(11_0_10:0.00000062,((11_0_13:0.00000038,11_0_5:0.00000178):0.00000050,11_0_0:0.00000554):0.00000088):0.00000097):0.00000910,(11_0_3:0.00000105,11_0_9:0.00000007):0.00000433):0.00000493,11_0_7:0.00004282):0.00001993,(((11_0_8:0.00000007,11_0_15:0.00000004):0.00000874,11_0_6:0.00000382):0.00000914,11_0_14:0.00000353):0.00001129):0.00002595,(11_0_11:0.00006334,(11_0_1:0.00000800,11_0_4:0.00002622):0.00004186):0.00003526):0.00324700,((((12_0_8:0.00000196,12_0_9:0.00000051):0.00001724,(12_0_11:0.00000444,(12_0_4:0.00000012,12_0_14:0.00000638):0.00000168):0.00000176):0.00001348,(12_0_10:0.00000024,12_0_7:0.00000547):0.00006509):0.00011143,(((12_0_13:0.00000012,(12_0_1:0.00000118,12_0_2:0.00000148):0.00001767):0.00000096,(12_0_12:0.00000602,12_0_15:0.00000199):0.00001955):0.00003563,(12_0_6:0.00000690,(12_0_0:0.00000859,(12_0_5:0.00000050,12_0_3:0.00000183):0.00008051):0.00000604):0.00001835):0.00001835):0.00024782):0.00097179,((((10_0_8:0.00000232,(10_0_0:0.00000004,10_0_1:0.00000015):0.00000760):0.00004866,(10_0_4:0.00000686,10_0_11:0.00000334):0.00000291):0.00002245,(((10_0_12:0.00000138,10_0_3:0.00000076):0.00000000,10_0_6:0.00000028):0.00000155,10_0_2:0.00001363):0.00002611):0.00000958,(10_0_5:0.00012835,((10_0_9:0.00000404,((10_0_13:0.00000155,10_0_10:0.00000025):0.00000001,10_0_7:0.00000140):0.00000143):0.00000458,(10_0_15:0.00000011,10_0_14:0.00000006):0.00003693):0.00008157):0.00001857):0.00273781):0.01069934,(((4_0_8:0.00001069,((((((4_0_3:0.00000007,4_0_7:0.00000361):0.00000025,4_0_15:0.00000162):0.00000905,((4_0_0:0.00000266,(4_0_1:0.00000001,4_0_12:0.00000001):0.00000006):0.00000033,4_0_2:0.00000119):0.00002268):0.00000393,(4_0_5:0.00000129,(4_0_4:0.00000119,4_0_13:0.00000169):0.00000001):0.00000589):0.00001379,(4_0_11:0.00000234,4_0_6:0.00000123):0.00007320):0.00001768,((4_0_14:0.00000102,4_0_9:0.00000068):0.00000131,4_0_10:0.00000204):0.00007895):0.00006673):0.00381991,(((2_0_8:0.00000440,2_0_2:0.00000467):0.00001515,(((2_0_1:0.00000958,(2_0_0:0.00000003,2_0_10:0.00000002):0.00000017):0.00000301,(2_0_4:0.00000845,2_0_9:0.00000956):0.00000401):0.00001532,(2_0_5:0.00000438,(2_0_13:0.00000101,((2_0_7:0.00000032,(2_0_11:0.00000026,2_0_15:0.00000010):0.00000060):0.00001012,(2_0_14:0.00000292,(2_0_12:0.00000087,(2_0_6:0.00000072,2_0_3:0.00000086):0.00000140):0.00000266):0.00000273):0.00000077):0.00000925):0.00001118):0.00001014):0.00048961,((((((6_0_5:0.00000008,6_0_14:0.00000003):0.00000440,6_0_6:0.00000046):0.00000797,((6_0_13:0.00000041,6_0_15:0.00000056):0.00000103,6_0_9:0.00000189):0.00000625):0.00000653,6_0_12:0.00004855):0.00001641,((((6_0_7:0.00000526,6_0_4:0.00002036):0.00000267,6_0_1:0.00001138):0.00001330,((6_0_11:0.00000198,6_0_8:0.00000158):0.00000025,6_0_0:0.00000013):0.00001717):0.00002734,(6_0_2:0.00000258,(6_0_3:0.00000196,6_0_10:0.00000113):0.00000377):0.00009139):0.00019494):0.00014568,(((3_0_11:0.00000035,3_0_12:0.00000044):0.00004142,(((((3_0_4:0.00000347,3_0_1:0.00000157):0.00001020,(3_0_9:0.00000463,3_0_8:0.00000449):0.00000018):0.00000091,3_0_6:0.00004039):0.00001892,(3_0_15:0.00001095,(3_0_5:0.00000413,3_0_7:0.00000361):0.00000082):0.00000431):0.00004513,((3_0_2:0.00000160,3_0_0:0.00000040):0.00001718,3_0_3:0.00001578):0.00000710):0.00001716):0.00003197,(3_0_14:0.00001279,(3_0_10:0.00000308,3_0_13:0.00000446):0.00000612):0.00018047):0.00066943):0.00176329):0.01036600):0.00024048,(((((1_0_11:0.00000414,(1_0_5:0.00000191,1_0_4:0.00000370):0.00000058):0.00001796,(1_0_14:0.00000570,1_0_6:0.00000163):0.00000265):0.00007183,(((1_0_0:0.00000405,(1_0_9:0.00000211,1_0_1:0.00000663):0.00000712):0.00000064,1_0_15:0.00000749):0.00001041,((((1_0_2:0.00000232,1_0_12:0.00000043):0.00000322,((1_0_10:0.00000422,1_0_3:0.00000101):0.00000066,1_0_13:0.00000175):0.00000000):0.00000515,1_0_8:0.00001074):0.00003002,1_0_7:0.00000436):0.00001705):0.00000561):0.00599159,(((((9_0_11:0.00006991,(9_0_7:0.00001772,(((9_0_3:0.00000027,9_0_5:0.00000013):0.00000159,(9_0_12:0.00000064,9_0_6:0.00000852):0.00000034):0.00000256,((9_0_15:0.00000134,(9_0_10:0.00000017,9_0_14:0.00000002):0.00000250):0.00000250,9_0_9:0.00001386):0.00000006):0.00000640):0.00001531):0.00000186,9_0_0:0.00001643):0.00000462,((((8_0_0:0.00000029,8_0_7:0.00000035):0.00000354,8_0_10:0.00004407):0.00000102,(8_0_8:0.00000497,8_0_13:0.00001793):0.00000440):0.00001274,(8_0_12:0.00000291,8_0_2:0.00000076):0.00002145):0.00002487):0.00006013,((((9_0_13:0.00000701,(9_0_1:0.00000098,9_0_4:0.00000432):0.00000080):0.00000706,9_0_2:0.00000121):0.00004913,9_0_8:0.00006665):0.00007572,(((((((8_0_5:0.00000172,8_0_11:0.00000037):0.00000023,8_0_1:0.00000145):0.00000398,8_0_6:0.00000856):0.00000486,8_0_3:0.00001625):0.00000543,8_0_14:0.00000879):0.00005657,8_0_4:0.00003026):0.00001253,(8_0_15:0.00000140,8_0_9:0.00000263):0.00003371):0.00004589):0.00001786):0.00008884,((5_0_9:0.00000443,5_0_6:0.00004982):0.00017180,(5_0_13:0.00004594,((5_0_11:0.00001367,((((5_0_1:0.00000411,5_0_10:0.00000037):0.00000151,5_0_5:0.00000168):0.00000218,((5_0_8:0.00000018,(5_0_14:0.00000000,5_0_7:0.00000026):0.00000014):0.00000096,5_0_2:0.00000177):0.00001483):0.00000680,((5_0_0:0.00000655,5_0_15:0.00001063):0.00001016,5_0_12:0.00000319):0.00000937):0.00000042):0.00001111,(5_0_4:0.00000308,5_0_3:0.00000700):0.00000943):0.00001254):0.00001673):0.00023829):0.00335536):0.00027673,((7_0_13:0.00003415,((7_0_7:0.00000043,7_0_6:0.00000054):0.00001067,7_0_4:0.00000409):0.00001095):0.00026882,(((((7_0_14:0.00000846,(7_0_8:0.00000436,7_0_0:0.00000090):0.00000208):0.00001111,((7_0_2:0.00000025,7_0_3:0.00000049):0.00000139,7_0_12:0.00000551):0.00001481):0.00000214,7_0_15:0.00000198):0.00000112,((7_0_5:0.00000026,7_0_10:0.00000031):0.00000258,7_0_11:0.00000211):0.00001680):0.00000317,(7_0_9:0.00000197,7_0_1:0.00000076):0.00010216):0.00002628):0.00816863):0.00353470):0.02459479):0.02367045);
[TREE] T02 (0_0_0:0.05183875,((((((7_0_6:0.00002422,7_0_7:0.00001003):0.00000115,((((7_0_13:0.00000040,7_0_10:0.00000021):0.00000044,7_0_15:0.00000400):0.00000084,(7_0_14:0.00000079,7_0_2:0.00000225):0.00000191):0.00000568,(7_0_9:0.00000061,7_0_5:0.00000072):0.00000598):0.00000297):0.00002208,(((7_0_8:0.00000556,7_0_3:0.00000006):0.00006329,((7_0_1:0.00000037,7_0_12:0.00000024):0.00000320,(7_0_4:0.00000043,7_0_0:0.00000028):0.00000226):0.00003784):0.00001766,7_0_11:0.00014205):0.00005960):0.00159718,(((((((5_0_12:0.00000169,5_0_9:0.00000145):0.00000044,((5_0_11:0.00000006,5_0_3:0.00000010):0.00000012,5_0_0:0.00000331):0.00000403):0.00000032,(5_0_5:0.00000614,5_0_15:0.00001816):0.00000221):0.00005558,(((5_0_4:0.00000083,5_0_13:0.00000001):0.00000582,5_0_14:0.00000694):0.00000345,((5_0_1:0.00000367,5_0_10:0.00000168):0.00001359,(5_0_7:0.00000275,5_0_8:0.00000105):0.00000798):0.00000354):0.00000837):0.00008058,(5_0_6:0.00002418,5_0_2:0.00003862):0.00005491):0.00020833,((9_0_13:0.00000218,9_0_2:0.00000098):0.00038037,((((9_0_5:0.00003462,9_0_14:0.00001540):0.00000223,((9_0_1:0.00000874,(9_0_3:0.00000755,9_0_15:0.00000064):0.00000211):0.00001046,((9_0_12:0.00001492,(9_0_0:0.00000245,9_0_10:0.00000539):0.00000197):0.00002198,((9_0_7:0.00000099,(9_0_6:0.00000026,9_0_4:0.00000030):0.00000047):0.00001426,(9_0_9:0.00000079,9_0_11:0.00000065):0.00000749):0.00000162):0.00000200):0.00000506):0.00000565,9_0_8:0.00004327):0.00002452,(((8_0_10:0.00001673,((8_0_8:0.00000139,8_0_4:0.00000653):0.00001525,8_0_1:0.00001206):0.00001180):0.00002493,((8_0_12:0.00000814,(8_0_13:0.00000161,8_0_15:0.00000149):0.00000845):0.00000584,((8_0_7:0.00001689,8_0_14:0.00001344):0.00000034,((8_0_2:0.00000090,8_0_11:0.00000081):0.00000287,(8_0_6:0.00000012,(8_0_3:0.00000000,8_0_9:0.00000003):0.00000007):0.00000162):0.00000216):0.00001064):0.00000735):0.00001003,(8_0_5:0.00000033,8_0_0:0.00000221):0.00005444):0.00004421):0.00004380):0.00016755):0.00172554,(((1_0_8:0.00000558,(1_0_15:0.00000015,1_0_3:0.00000070):0.00000667):0.00000551,((1_0_14:0.00000304,1_0_1:0.00000025):0.00000315,((1_0_6:0.00000122,1_0_9:0.00000321):0.00000006,1_0_0:0.00000096):0.00000783):0.00000314):0.00001503,(((1_0_10:0.00002050,1_0_5:0.00001109):0.00000032,(1_0_7:0.00001184,1_0_2:0.00000206):0.00000007):0.00000509,((1_0_12:0.00000131,1_0_4:0.00000640):0.00000705,(1_0_13:0.00000503,1_0_11:0.00000145):0.00001782):0.00000001):0.00005419):0.00115853):0.00088879):0.00317657,((((3_0_15:0.00015433,(((((3_0_14:0.00000256,3_0_9:0.00000628):0.00000070,(3_0_0:0.00000329,3_0_1:0.00000037):0.00000634):0.00000899,3_0_12:0.00000326):0.00001651,((3_0_5:0.00001179,3_0_10:0.00000513):0.00001295,3_0_2:0.00000490):0.00000378):0.00001667,(3_0_3:0.00001900,((3_0_6:0.00000051,3_0_4:0.00000053):0.00000551,((3_0_13:0.00000735,(3_0_7:0.00001705,3_0_11:0.00001018):0.00000087):0.00000147,3_0_8:0.00000274):0.00000005):0.00001525):0.00000572):0.00002989):0.00044908,(6_0_3:0.00003673,((6_0_1:0.00005062,((6_0_7:0.00004220,((6_0_4:0.00000056,6_0_5:0.00000010):0.00001523,6_0_8:0.00000849):0.00000143):0.00000016,((((6_0_11:0.00000007,6_0_9:0.00000155):0.00000018,6_0_15:0.00000089):0.00000696,6_0_13:0.00000570):0.00000218,6_0_10:0.00000355):0.00001390):0.00002014):0.00000620,((6_0_2:0.00000029,6_0_0:0.00000004):0.00000466,(6_0_14:0.00000696,(6_0_12:0.00000195,6_0_6:0.00000014):0.00000385):0.00000891):0.00002773):0.00000355):0.00030457):0.00032926,(((2_0_13:0.00000620,(2_0_4:0.00000056,(2_0_1:0.00000518,2_0_7:0.00000368):0.00000003):0.00000551):0.00000340,(2_0_6:0.00000460,(2_0_12:0.00003103,2_0_3:0.00000608):0.00000106):0.00001306):0.00001446,(((2_0_10:0.00000044,2_0_8:0.00000054):0.00000141,2_0_0:0.00000066):0.00011418,(((((2_0_14:0.00000185,2_0_9:0.00000152):0.00000000,2_0_5:0.00000107):0.00000433,2_0_11:0.00000246):0.00000849,2_0_15:0.00002946):0.00000085,2_0_2:0.00003921):0.00000002):0.00000278):0.00021456):0.00439098,(((((4_0_9:0.00000602,(4_0_12:0.00000029,4_0_5:0.00000364):0.00000165):0.00000106,4_0_6:0.00001137):0.00001986,(4_0_11:0.00000185,4_0_0:0.00000186):0.00001938):0.00000217,((4_0_15:0.00000047,4_0_4:0.00000527):0.00001618,(((4_0_3:0.00000005,4_0_1:0.00000012):0.00000354,4_0_13:0.00001920):0.00000005,(4_0_10:0.00001391,(4_0_8:0.00000038,4_0_14:0.00000027):0.00001831):0.00002057):0.00000205):0.00001162):0.00005417,(4_0_7:0.00000806,4_0_2:0.00000298):0.00002082):0.00288719):0.00011070):0.00133378,(((((12_0_5:0.00000016,12_0_8:0.00000880):0.00000902,((12_0_3:0.00000249,(((12_0_0:0.00000199,12_0_13:0.00000168):0.00000020,(12_0_10:0.00000324,(((12_0_6:0.00000024,12_0_14:0.00000011):0.00000051,12_0_2:0.00000164):0.00000105,12_0_15:0.00000506):0.00000024):0.00000007):0.00000095,(12_0_4:0.00000158,12_0_1:0.00000448):0.00000012):0.00000194):0.00000090,(12_0_12:0.00000606,12_0_11:0.00000337):0.00001249):0.00000670):0.00004359,(12_0_7:0.00003221,12_0_9:0.00001194):0.00000280):0.00153521,((((11_0_12:0.00000111,11_0_15:0.00000163):0.00000047,11_0_11:0.00000127):0.00001372,((11_0_8:0.00000589,11_0_4:0.00000078):0.00000041,11_0_2:0.00000337):0.00000817):0.00000348,((11_0_6:0.00000259,11_0_13:0.00000097):0.00001187,((((11_0_1:0.00000088,11_0_0:0.00000091):0.00000561,11_0_5:0.00001110):0.00000119,11_0_9:0.00004991):0.00000703,((11_0_14:0.00000132,11_0_7:0.00000108):0.00000713,(11_0_3:0.00000117,11_0_10:0.00002403):0.00000567):0.00000030):0.00000404):0.00001937):0.00146290):0.00053036,(((10_0_11:0.00000038,10_0_2:0.00000039):0.00007673,((10_0_6:0.00003751,((10_0_13:0.00000568,10_0_0:0.00000124):0.00000869,(10_0_7:0.00001276,10_0_15:0.00000365):0.00000091):0.00000278):0.00001246,10_0_4:0.00002250):0.00002577):0.00000184,((10_0_5:0.00000265,10_0_14:0.00000543):0.00001302,((((10_0_1:0.00000016,10_0_9:0.00000006):0.00000507,10_0_8:0.00001274):0.00000051,(10_0_10:0.00000044,10_0_3:0.00000109):0.00001473):0.00002402,10_0_12:0.00004323):0.00000271):0.00012923):0.00142813):0.00406943):0.02244488);
[TREE] T03 (((((10_0_14:0.00002844,(((10_0_15:0.00000003,10_0_2:0.00000053):0.00000290,(10_0_0:0.00000592,10_0_1:0.00000138):0.00000017):0.00000376,10_0_6:0.00000547):0.00001960):0.00002336,((10_0_5:0.00002159,(((10_0_8:0.00000112,10_0_10:0.00000275):0.00000118,(10_0_7:0.00000204,10_0_4:0.00000043):0.00000344):0.00001141,((10_0_11:0.00000155,10_0_13:0.00000047):0.00000194,(10_0_12:0.00000063,10_0_3:0.00000006):0.00000560):0.00000037):0.00000130):0.00003860,10_0_9:0.00004631):0.00002223):0.00686733,(((((((11_0_11:0.00000236,11_0_3:0.00000111):0.00000052,11_0_13:0.00000864):0.00000665,11_0_14:0.00001660):0.00000149,11_0_7:0.00000344):0.00001298,(((11_0_15:0.00000182,11_0_5:0.00000236):0.00000378,11_0_1:0.00000293):0.00002715,11_0_8:0.00000693):0.00001420):0.00000392,((11_0_9:0.00000073,((11_0_4:0.00000121,11_0_12:0.00000239):0.00000014,11_0_10:0.00000188):0.00000011):0.00000182,((11_0_0:0.00000101,11_0_2:0.00000622):0.00000004,11_0_6:0.00000283):0.00000084):0.00001227):0.00181952,(((((12_0_9:0.00000029,12_0_2:0.00000098):0.00000193,12_0_10:0.00001952):0.00004067,((12_0_6:0.00000188,12_0_3:0.00000612):0.00000420,12_0_0:0.00003269):0.00000056):0.00000342,((((12_0_14:0.00000051,12_0_1:0.00000008):0.00000104,12_0_8:0.00004444):0.00000090,12_0_7:0.00001851):0.00000334,12_0_4:0.00004139):0.00001573):0.00000789,(12_0_5:0.00001424,(12_0_15:0.00000057,(12_0_12:0.00000075,(12_0_11:0.00000006,12_0_13:0.00000038):0.00000051):0.00000432):0.00000896):0.00001917):0.00612183):0.00011457):0.00123753,((((((((9_0_12:0.00000045,9_0_15:0.00000368):0.00000616,(9_0_10:0.00000512,(9_0_5:0.00000050,9_0_6:0.00000055):0.00000242):0.00002680):0.00003762,((9_0_1:0.00004431,(9_0_11:0.00000034,9_0_3:0.00000005):0.00002555):0.00000095,(9_0_0:0.00000492,(((9_0_4:0.00000025,9_0_14:0.00000062):0.00000035,9_0_8:0.00000243):0.00001155,((9_0_9:0.00000084,9_0_13:0.00000182):0.00000039,(9_0_7:0.00000217,9_0_2:0.00000046):0.00000600):0.00000091):0.00000164):0.00000241):0.00011158):0.00002004,((8_0_1:0.00001046,((8_0_15:0.00000019,8_0_3:0.00000179):0.00000068,8_0_10:0.00000146):0.00000022):0.00001119,((8_0_8:0.00000916,((8_0_0:0.00000124,(8_0_13:0.00000076,8_0_5:0.00000017):0.00000294):0.00001420,8_0_14:0.00001765):0.00006480):0.00001812,(8_0_11:0.00000783,((8_0_7:0.00000454,((8_0_12:0.00000316,(8_0_6:0.00000035,8_0_4:0.00000035):0.00000700):0.00000197,8_0_9:0.00000176):0.00000177):0.00001420,8_0_2:0.00007326):0.00000093):0.00000449):0.00001045):0.00011004):0.00008081,((5_0_8:0.00004020,((5_0_2:0.00001489,(((5_0_15:0.00000127,5_0_1:0.00000078):0.00000029,5_0_13:0.00000161):0.00000389,(5_0_7:0.00000188,(5_0_11:0.00000002,5_0_10:0.00000001):0.00000016):0.00000326):0.00000100):0.00000432,(5_0_3:0.00000238,(5_0_4:0.00000029,5_0_5:0.00000507):0.00000000):0.00003328):0.00000002):0.00001114,((((5_0_12:0.00000326,5_0_0:0.00002013):0.00000999,5_0_9:0.00006577):0.00000000,5_0_6:0.00004745):0.00000120,5_0_14:0.00001558):0.00010092):0.00041355):0.00369007,((1_0_12:0.00000155,(1_0_10:0.00000018,1_0_2:0.00000009):0.00000269):0.00011084,((1_0_15:0.00006689,(1_0_8:0.00000759,((1_0_0:0.00001652,1_0_5:0.00000244):0.00000017,1_0_6:0.00000164):0.00001636):0.00007825):0.00001542,((((1_0_11:0.00003172,(1_0_9:0.00000184,(1_0_4:0.00000003,1_0_1:0.00000113):0.00000889):0.00000472):0.00000459,1_0_3:0.00000265):0.00000104,1_0_7:0.00001061):0.00000543,(1_0_14:0.00000740,1_0_13:0.00004830):0.00000742):0.00001909):0.00001740):0.00414872):0.00262036,((((((7_0_8:0.00000001,7_0_12:0.00000000):0.00000043,7_0_4:0.00000008):0.00000086,((7_0_14:0.00000021,7_0_6:0.00000030):0.00000007,7_0_15:0.00000039):0.00000075):0.00002974,7_0_11:0.00000309):0.00003049,(7_0_2:0.00001844,(7_0_5:0.00001969,7_0_3:0.00002665):0.00000151):0.00000788):0.00005226,((7_0_7:0.00000394,7_0_9:0.00000599):0.00002772,(((7_0_1:0.00000007,7_0_0:0.00000004):0.00001628,7_0_10:0.00001201):0.00003564,7_0_13:0.00002425):0.00000890):0.00002009):0.00168504):0.00265876,((((((4_0_14:0.00000978,4_0_10:0.00003057):0.00000336,4_0_15:0.00001132):0.00000233,((4_0_8:0.00000217,(4_0_9:0.00000057,4_0_1:0.00000893):0.00000017):0.00001647,(4_0_7:0.00000053,4_0_12:0.00000058):0.00000762):0.00001020):0.00002090,((4_0_11:0.00000314,(4_0_13:0.00000013,4_0_0:0.00000016):0.00000069):0.00001012,(4_0_6:0.00000411,4_0_2:0.00000201):0.00000931):0.00000844):0.00002954,((4_0_3:0.00000539,4_0_5:0.00000362):0.00000538,4_0_4:0.00002865):0.00004469):0.00505265,(((((6_0_6:0.00005971,(((6_0_4:0.00000161,6_0_5:0.00000138):0.00000023,6_0_1:0.00000045):0.00004533,6_0_14:0.00003138):0.00001108):0.00003069,((6_0_8:0.00000956,((6_0_13:0.00000024,6_0_7:0.00000161):0.00000520,(6_0_9:0.00000161,(6_0_15:0.00000393,(6_0_3:0.00000148,6_0_0:0.00000167):0.00000018):0.00000093):0.00000143):0.00001339):0.00001436,(6_0_2:0.00002779,6_0_12:0.00002071):0.00004456):0.00001208):0.00000253,(6_0_11:0.00000108,6_0_10:0.00000094):0.00000769):0.00007441,((3_0_12:0.00004780,(((3_0_2:0.00000429,3_0_7:0.00000465):0.00001220,((3_0_11:0.00000109,3_0_9:0.00000079):0.00000114,3_0_5:0.00000020):0.00000999):0.00005318,(((3_0_3:0.00000804,3_0_0:0.00000787):0.00000404,(3_0_13:0.00000014,3_0_4:0.00000088):0.00003781):0.00000251,((3_0_8:0.00000056,3_0_14:0.00000037):0.00000001,3_0_1:0.00000024):0.00000952):0.00002080):0.00011959):0.00006858,(3_0_6:0.00001332,(3_0_10:0.00002125,3_0_15:0.00000466):0.00001033):0.00017689):0.00032775):0.00232315,(((2_0_7:0.00000108,(2_0_6:0.00000041,2_0_15:0.00000177):0.00000135):0.00002430,(2_0_13:0.00000054,(2_0_2:0.00000001,2_0_4:0.00000001):0.00000089):0.00001215):0.00022457,(((2_0_5:0.00002614,(2_0_0:0.00001131,2_0_1:0.00000841):0.00001529):0.00000245,((2_0_14:0.00000008,2_0_11:0.00000224):0.00000254,(2_0_8:0.00000054,2_0_3:0.00000099):0.00000028):0.00004726):0.00000784,((2_0_9:0.00000226,2_0_12:0.00000072):0.00000015,2_0_10:0.00000951):0.00004228):0.00000960):0.00082563):0.00071028):0.00169801):0.00170598):0.00764570,0_0_0:0.05325046);
[TREE] T04 (0_0_0:0.02690031,((((((10_0_8:0.00000335,10_0_14:0.00000443):0.00000546,((10_0_2:0.00000213,10_0_0:0.00000082):0.00000453,(10_0_9:0.00000294,10_0_3:0.00000030):0.00000530):0.00000094):0.00002979,(10_0_15:0.00000614,(10_0_12:0.00000064,10_0_13:0.00000017):0.00000999):0.00007875):0.00002291,((((10_0_4:0.00000457,10_0_7:0.00000475):0.00002526,((10_0_5:0.00000136,10_0_10:0.00000042):0.00000009,10_0_11:0.00000033):0.00000639):0.00001566,10_0_6:0.00005623):0.00001348,10_0_1:0.00000017):0.00007428):0.00366450,(((12_0_10:0.00003026,((12_0_15:0.00000063,12_0_12:0.00000062):0.00000726,(12_0_14:0.00001339,12_0_11:0.00002312):0.00000766):0.00000121):0.00002971,((12_0_1:0.00006299,(12_0_8:0.00000267,12_0_4:0.00000083):0.00000953):0.00000104,(((12_0_7:0.00000143,12_0_9:0.00000359):0.00000240,12_0_2:0.00000209):0.00004096,(((12_0_6:0.00000146,12_0_13:0.00000086):0.00000943,(12_0_5:0.00000717,12_0_0:0.00000611):0.00000193):0.00000003,12_0_3:0.00001412):0.00001291):0.00002036):0.00001807):0.00164640,(((11_0_9:0.00000194,11_0_14:0.00000516):0.00003336,(((11_0_8:0.00000074,11_0_3:0.00000243):0.00000586,(11_0_12:0.00000030,11_0_7:0.00000062):0.00000586):0.00000220,(11_0_13:0.00001686,(11_0_10:0.00000020,11_0_11:0.00000394):0.00000692):0.00000397):0.00000304):0.00001232,(((11_0_4:0.00000251,11_0_5:0.00000311):0.00000404,(((11_0_15:0.00000012,11_0_6:0.00000027):0.00001227,11_0_2:0.00000126):0.00001196,11_0_0:0.00000716):0.00000435):0.00000331,11_0_1:0.00002214):0.00002116):0.00112233):0.00039546):0.02656400,(((((((8_0_12:0.00002207,((8_0_0:0.00000433,(8_0_15:0.00000578,8_0_9:0.00000264):0.00000056):0.00000036,(8_0_7:0.00000273,8_0_14:0.00000043):0.00000354):0.00000397):0.00001689,((8_0_2:0.00000172,((8_0_5:0.00000033,8_0_8:0.00000077):0.00000001,8_0_10:0.00000003):0.00000033):0.00007221,((8_0_3:0.00000940,8_0_4:0.00000245):0.00004050,8_0_1:0.00001958):0.00002073):0.00000675):0.00038020,(((((9_0_3:0.00000034,9_0_12:0.00000416):0.00000383,(9_0_13:0.00000418,9_0_8:0.00000152):0.00000049):0.00006363,9_0_9:0.00000396):0.00002172,(((9_0_4:0.00000045,9_0_5:0.00000002):0.00000472,9_0_7:0.00000108):0.00002239,((9_0_10:0.00000248,(((9_0_11:0.00000945,9_0_1:0.00000546):0.00000114,9_0_0:0.00000889):0.00000042,9_0_15:0.00000953):0.00000011):0.00000034,((9_0_6:0.00000177,9_0_14:0.00000424):0.00000301,9_0_2:0.00002606):0.00000358):0.00001149):0.00001498):0.00004836,(8_0_6:0.00000532,(8_0_11:0.00000178,8_0_13:0.00000181):0.00002180):0.00001562):0.00025562):0.00037547,(((5_0_12:0.00000019,5_0_0:0.00000013):0.00001184,5_0_13:0.00003223):0.00005157,((((5_0_15:0.00000016,5_0_10:0.00000010):0.00000000,5_0_8:0.00000138):0.00001561,(5_0_7:0.00000287,5_0_4:0.00000034):0.00000528):0.00002216,(((5_0_6:0.00001324,(5_0_2:0.00000147,5_0_9:0.00000285):0.00000456):0.00001417,((5_0_3:0.00000224,5_0_14:0.00000373):0.00000236,(5_0_5:0.00000937,5_0_1:0.00000387):0.00001735):0.00000560):0.00000227,5_0_11:0.00002511):0.00004583):0.00000867):0.00021941):0.00074956,((((1_0_2:0.00000935,((1_0_1:0.00000174,1_0_3:0.00001129):0.00000463,1_0_11:0.00001353):0.00000085):0.00000480,1_0_12:0.00003758):0.00004164,(((1_0_13:0.00000050,1_0_14:0.00000094):0.00000675,1_0_15:0.00000407):0.00000339,1_0_4:0.00000774):0.00005385):0.00015041,((((1_0_5:0.00001127,1_0_6:0.00002505):0.00000108,1_0_0:0.00002790):0.00000058,(1_0_9:0.00000016,(1_0_10:0.00000121,1_0_7:0.00000158):0.00000104):0.00001590):0.00002279,1_0_8:0.00006602):0.00010610):0.00097687):0.00004044,((((7_0_12:0.00004794,7_0_4:0.00003410):0.00000453,(((7_0_13:0.00000000,7_0_11:0.00000011):0.00000121,7_0_14:0.00000008):0.00001593,7_0_5:0.00001962):0.00001439):0.00004391,(7_0_8:0.00002456,((7_0_3:0.00000076,7_0_15:0.00000180):0.00000054,(7_0_7:0.00000251,7_0_1:0.00000088):0.00000216):0.00000494):0.00013100):0.00000520,(((7_0_2:0.00000123,7_0_10:0.00001842):0.00000529,(7_0_0:0.00000005,7_0_6:0.00000031):0.00001483):0.00000107,7_0_9:0.00000708):0.00013369):0.00294913):0.00768738,(((((((6_0_4:0.00002025,6_0_7:0.00000815):0.00000088,((6_0_12:0.00001041,(6_0_6:0.00000113,6_0_11:0.00000068):0.00000725):0.00000822,(6_0_10:0.00003440,(((6_0_15:0.00000341,6_0_0:0.00000266):0.00000020,6_0_14:0.00000120):0.00000236,6_0_3:0.00000116):0.00000645):0.00000005):0.00000066):0.00000032,(6_0_8:0.00000781,((6_0_5:0.00000023,6_0_2:0.00000045):0.00000051,6_0_1:0.00000303):0.00000196):0.00000450):0.00000614,(6_0_13:0.00000589,6_0_9:0.00000178):0.00003467):0.00014508,(((3_0_13:0.00000159,3_0_11:0.00000106):0.00013329,((3_0_5:0.00000608,(3_0_2:0.00000409,3_0_10:0.00000656):0.00000415):0.00000745,3_0_3:0.00003291):0.00001661):0.00004829,(((((3_0_9:0.00000032,3_0_14:0.00000017):0.00000036,3_0_15:0.00000912):0.00003517,((3_0_1:0.00000248,3_0_12:0.00000358):0.00000249,3_0_6:0.00000395):0.00000320):0.00000130,(3_0_7:0.00000347,3_0_4:0.00000154):0.00007178):0.00001254,(3_0_8:0.00000249,3_0_0:0.00000074):0.00006894):0.00006624):0.00006741):0.00081045,((2_0_2:0.00001193,((2_0_12:0.00000159,2_0_3:0.00000074):0.00000050,2_0_8:0.00000009):0.00000279):0.00004137,(((2_0_4:0.00001140,(2_0_6:0.00000428,2_0_10:0.00000726):0.00000089):0.00000277,((2_0_7:0.00000053,(2_0_0:0.00000020,2_0_15:0.00000011):0.00000381):0.00001785,(((2_0_5:0.00000068,2_0_14:0.00000410):0.00000107,2_0_9:0.00000694):0.00000482,2_0_1:0.00000149):0.00001039):0.00000024):0.00003366,(2_0_11:0.00001381,2_0_13:0.00000320):0.00007001):0.00002922):0.00352007):0.00106785,(4_0_7:0.00000755,((4_0_9:0.00000278,4_0_6:0.00000067):0.00004667,((((4_0_2:0.00000047,4_0_5:0.00000085):0.00000469,(4_0_14:0.00000624,4_0_0:0.00000068):0.00001035):0.00000509,4_0_13:0.00000153):0.00000660,((((4_0_10:0.00000264,4_0_1:0.00000260):0.00000533,((4_0_3:0.00000091,4_0_11:0.00000041):0.00000076,4_0_15:0.00000224):0.00001917):0.00001023,(4_0_4:0.00002210,4_0_8:0.00004035):0.00000066):0.00000244,4_0_12:0.00002066):0.00000719):0.00006519):0.00000029):0.00147426):0.00071555):0.00162289):0.00320870);
[TREE] T05 (0_0_0:0.02165478,(((((((4_0_1:0.00000181,4_0_6:0.00000582):0.00000690,(4_0_15:0.00000005,4_0_13:0.00000006):0.00001130):0.00000246,((4_0_14:0.00002975,4_0_12:0.00001445):0.00001269,4_0_2:0.00000743):0.00000417):0.00003230,((4_0_5:0.00000663,4_0_11:0.00000140):0.00003832,((4_0_4:0.00000890,(4_0_8:0.00000177,4_0_7:0.00000003):0.00000135):0.00000739,((4_0_3:0.00000335,4_0_9:0.00000031):0.00000634,(4_0_10:0.00000258,4_0_0:0.00000150):0.00001391):0.00003089):0.00002074):0.00000951):0.00252898,(((((2_0_14:0.00000409,(2_0_6:0.00000442,2_0_13:0.00000721):0.00000046):0.00001472,(2_0_7:0.00000006,2_0_4:0.00000005):0.00000163):0.00001048,((((2_0_10:0.00000135,(2_0_1:0.00001217,2_0_11:0.00000628):0.00000096):0.00000042,2_0_2:0.00000296):0.00000156,2_0_9:0.00001712):0.00017835,(2_0_3:0.00001843,2_0_0:0.00001735):0.00000194):0.00000686):0.00038678,((2_0_5:0.00000056,(2_0_15:0.00000067,2_0_8:0.00000097):0.00000040):0.00000435,2_0_12:0.00000585):0.00011153):0.00040878,((((6_0_10:0.00000945,6_0_11:0.00000270):0.00002836,(((6_0_8:0.00000181,((6_0_14:0.00002437,6_0_3:0.00000540):0.00000617,6_0_0:0.00003131):0.00000018):0.00000592,(6_0_5:0.00000066,6_0_1:0.00000167):0.00001977):0.00000741,6_0_7:0.00001056):0.00000606):0.00000119,((6_0_13:0.00000626,(6_0_4:0.00000037,6_0_6:0.00000370):0.00000106):0.00000829,(((6_0_9:0.00000009,6_0_12:0.00000031):0.00000005,6_0_15:0.00000027):0.00001761,6_0_2:0.00004588):0.00001346):0.00000631):0.00001459,((3_0_0:0.00000060,3_0_12:0.00000095):0.00006364,((3_0_10:0.00000634,(3_0_9:0.00000002,3_0_2:0.00000007):0.00000326):0.00005416,(((3_0_5:0.00000290,((((3_0_14:0.00000433,(3_0_4:0.00000049,3_0_13:0.00000145):0.00000025):0.00000146,3_0_11:0.00000463):0.00002305,(3_0_1:0.00000317,3_0_3:0.00001155):0.00000269):0.00000095,(3_0_6:0.00000081,3_0_15:0.00000076):0.00002373):0.00000227):0.00001140,3_0_8:0.00003547):0.00000056,3_0_7:0.00002637):0.00000004):0.00001027):0.00063809):0.00007603):0.00435716):0.00123883,(((((((5_0_1:0.00001085,((((5_0_6:0.00000006,5_0_2:0.00000020):0.00000154,5_0_5:0.00000249):0.00000093,(5_0_3:0.00000170,5_0_4:0.00002038):0.00000164):0.00000310,5_0_9:0.00000234):0.00000135):0.00000297,(((5_0_12:0.00000241,5_0_0:0.00000030):0.00000233,(5_0_15:0.00000002,5_0_11:0.00000007):0.00000660):0.00000574,5_0_10:0.00001957):0.00001001):0.00000344,5_0_7:0.00003564):0.00001618,(5_0_14:0.00002204,(5_0_8:0.00002062,5_0_13:0.00000072):0.00012170):0.00004617):0.00057777,(((((9_0_15:0.00000194,(9_0_0:0.00000072,9_0_8:0.00000007):0.00000165):0.00000488,9_0_2:0.00001276):0.00004558,(9_0_7:0.00000402,(9_0_11:0.00000013,9_0_14:0.00000018):0.00000887):0.00008402):0.00002568,9_0_6:0.00010320):0.00001617,(((((9_0_3:0.00000149,9_0_12:0.00000093):0.00000059,(9_0_1:0.00000091,9_0_5:0.00000016):0.00000179):0.00004885,9_0_4:0.00004125):0.00000398,(9_0_13:0.00002404,(9_0_10:0.00000043,9_0_9:0.00000011):0.00000848):0.00003899):0.00000117,((((8_0_14:0.00000704,((8_0_5:0.00000875,8_0_12:0.00000422):0.00000138,((8_0_11:0.00001760,8_0_9:0.00000615):0.00000280,(8_0_13:0.00000233,8_0_10:0.00000268):0.00000590):0.00000008):0.00000700):0.00000071,8_0_8:0.00000349):0.00000227,((8_0_6:0.00000002,8_0_4:0.00000004):0.00000021,8_0_0:0.00000043):0.00006727):0.00001221,(8_0_3:0.00000011,(8_0_2:0.00000332,((8_0_1:0.00000002,8_0_7:0.00000134):0.00000127,8_0_15:0.00000397):0.00000497):0.00000153):0.00002923):0.00000417):0.00010737):0.00006490):0.00069762,(((((1_0_5:0.00000093,1_0_15:0.00000029):0.00001103,1_0_0:0.00000317):0.00000232,((1_0_3:0.00000048,((1_0_8:0.00000227,(1_0_1:0.00000080,1_0_7:0.00000127):0.00000015):0.00000064,1_0_4:0.00000499):0.00000079):0.00000746,((1_0_13:0.00000117,1_0_6:0.00000320):0.00001409,(1_0_9:0.00000238,(1_0_10:0.00000268,1_0_12:0.00000626):0.00000015):0.00000957):0.00000023):0.00000794):0.00002578,(1_0_2:0.00000073,1_0_14:0.00000139):0.00005994):0.00002638,1_0_11:0.00004768):0.00257622):0.00121143,((7_0_12:0.00001972,(7_0_7:0.00001913,(7_0_3:0.00000036,7_0_2:0.00000047):0.00000884):0.00000684):0.00011260,(((((7_0_14:0.00000180,7_0_0:0.00000126):0.00000310,(7_0_1:0.00000212,7_0_8:0.00000063):0.00000142):0.00001617,((7_0_4:0.00000025,7_0_10:0.00000270):0.00002555,(7_0_11:0.00000084,(7_0_15:0.00000013,7_0_6:0.00000022):0.00001594):0.00000098):0.00000110):0.00003222,(7_0_5:0.00000256,7_0_13:0.00000694):0.00000534):0.00010406,7_0_9:0.00013653):0.00002959):0.00240848):0.00267584):0.01035426,((((10_0_3:0.00001584,((((10_0_0:0.00000013,10_0_12:0.00000001):0.00000030,10_0_5:0.00000008):0.00001867,10_0_4:0.00000217):0.00003724,(((10_0_1:0.00000043,10_0_14:0.00000090):0.00000008,10_0_2:0.00000019):0.00000178,10_0_10:0.00000347):0.00007417):0.00000566):0.00004311,(((10_0_15:0.00001201,10_0_7:0.00001477):0.00001358,10_0_8:0.00001587):0.00000962,(10_0_6:0.00000145,(10_0_9:0.00001150,10_0_13:0.00000879):0.00000131):0.00000792):0.00012881):0.00002693,10_0_11:0.00017935):0.00110186,((((12_0_14:0.00000308,((12_0_8:0.00000020,12_0_2:0.00000052):0.00000233,((12_0_4:0.00000022,12_0_12:0.00000034):0.00000682,(12_0_5:0.00000030,12_0_10:0.00000268):0.00000243):0.00000495):0.00000092):0.00010525,((12_0_3:0.00000131,12_0_1:0.00000065):0.00003744,((12_0_15:0.00000133,(12_0_13:0.00000126,12_0_6:0.00000169):0.00000280):0.00001065,12_0_7:0.00001478):0.00005243):0.00000090):0.00000813,(12_0_9:0.00001042,(12_0_0:0.00000023,12_0_11:0.00000012):0.00000223):0.00004925):0.00004280,(((11_0_5:0.00000379,((11_0_13:0.00000051,11_0_12:0.00000655):0.00000146,((11_0_2:0.00001089,11_0_7:0.00000167):0.00000067,11_0_14:0.00000324):0.00000023):0.00000528):0.00000178,11_0_3:0.00005450):0.00000697,((11_0_1:0.00000957,(11_0_0:0.00000434,((11_0_10:0.00000073,11_0_15:0.00000048):0.00000555,(11_0_9:0.00000056,11_0_11:0.00000027):0.00000866):0.00000330):0.00000346):0.00001350,(11_0_6:0.00002905,(11_0_8:0.00000048,11_0_4:0.00000045):0.00002031):0.00000059):0.00001420):0.00136592):0.00003723):0.02004735):0.04819552);
[TREE] T06 (0_0_0:0.03460561,((((((4_0_12:0.00003153,4_0_14:0.00000505):0.00000371,4_0_15:0.00001505):0.00001188,(((((4_0_6:0.00000052,4_0_9:0.00000048):0.00000162,((4_0_8:0.00000415,4_0_10:0.00000278):0.00000096,(4_0_4:0.00000399,4_0_1:0.00000115):0.00000423):0.00000046):0.00000007,4_0_11:0.00000867):0.00000017,4_0_5:0.00000200):0.00000486,(((4_0_3:0.00000083,4_0_0:0.00000034):0.00000108,4_0_13:0.00000048):0.00000050,(4_0_2:0.00000034,4_0_7:0.00000035):0.00000135):0.00001786):0.00001789):0.01136954,((((6_0_10:0.00011599,(6_0_4:0.00000145,6_0_11:0.00000125):0.00001535):0.00016225,((6_0_14:0.00000057,(6_0_7:0.00000271,(6_0_6:0.00000083,6_0_2:0.00000022):0.00000039):0.00000423):0.00002197,(((6_0_9:0.00000948,6_0_1:0.00000120):0.00000081,6_0_5:0.00000003):0.00000189,((6_0_13:0.00002533,6_0_3:0.00002467):0.00001602,((6_0_8:0.00000081,6_0_15:0.00000070):0.00000764,(6_0_0:0.00000220,6_0_12:0.00000227):0.00001838):0.00000093):0.00000772):0.00001300):0.00000543):0.00003190,(((3_0_0:0.00000025,3_0_8:0.00000036):0.00000146,(3_0_14:0.00000001,3_0_4:0.00000001):0.00000041):0.00016402,((3_0_2:0.00000046,((3_0_5:0.00000396,3_0_6:0.00000629):0.00000034,(3_0_15:0.00000001,3_0_7:0.00000001):0.00000176):0.00001028):0.00001911,(((3_0_1:0.00000138,(3_0_13:0.00000048,3_0_3:0.00000036):0.00000009):0.00000307,3_0_11:0.00000937):0.00001871,((3_0_12:0.00000501,3_0_10:0.00000106):0.00000226,3_0_9:0.00000862):0.00004527):0.00000004):0.00031195):0.00071056):0.00016115,((((2_0_0:0.00002066,2_0_7:0.00001578):0.00000199,((2_0_14:0.00000016,(2_0_2:0.00000218,2_0_9:0.00000156):0.00000027):0.00000068,((2_0_15:0.00000168,(2_0_13:0.00000023,2_0_5:0.00000017):0.00000088):0.00000119,2_0_6:0.00000338):0.00000597):0.00000575):0.00000144,((2_0_11:0.00001501,(2_0_3:0.00000059,((2_0_1:0.00000001,2_0_12:0.00000003):0.00000009,2_0_10:0.00000017):0.00000019):0.00002847):0.00000106,2_0_8:0.00004064):0.00000815):0.00001023,2_0_4:0.00022157):0.00076812):0.00753936):0.00030025,((((((((8_0_12:0.00000039,8_0_9:0.00000197):0.00000092,(((8_0_2:0.00000225,8_0_3:0.00000034):0.00000275,8_0_1:0.00000993):0.00000798,(8_0_15:0.00000871,(8_0_11:0.00000009,8_0_6:0.00000026):0.00001818):0.00000028):0.00002937):0.00000481,((((9_0_14:0.00000001,9_0_4:0.00000001):0.00002880,9_0_13:0.00003769):0.00001856,(9_0_1:0.00000538,9_0_7:0.00000147):0.00003762):0.00000511,(((9_0_0:0.00000040,9_0_12:0.00000018):0.00000917,9_0_3:0.00000962):0.00014989,(9_0_9:0.00000409,9_0_10:0.00000569):0.00002355):0.00000239):0.00001412):0.00023430,((((9_0_2:0.00000059,9_0_15:0.00000010):0.00000233,9_0_5:0.00000355):0.00001621,9_0_11:0.00005345):0.00000111,(((8_0_4:0.00000341,8_0_8:0.00001107):0.00000011,(8_0_10:0.00001248,8_0_7:0.00000052):0.00000055):0.00002769,(8_0_5:0.00000058,8_0_13:0.00001401):0.00002850):0.00000162):0.00020071):0.00000039,((9_0_8:0.00004585,9_0_6:0.00001742):0.00000811,(8_0_14:0.00000216,8_0_0:0.00000933):0.00002462):0.00015441):0.00024195,((5_0_9:0.00004882,5_0_8:0.00002318):0.00002059,((5_0_14:0.00001632,((((5_0_1:0.00000008,5_0_3:0.00000074):0.00001076,5_0_4:0.00001160):0.00000049,5_0_10:0.00004635):0.00000328,((5_0_15:0.00000117,(5_0_6:0.00000222,5_0_7:0.00000681):0.00000051):0.00000138,((5_0_13:0.00000534,(5_0_11:0.00000066,5_0_5:0.00000745):0.00000230):0.00000040,5_0_0:0.00000073):0.00002018):0.00000402):0.00000933):0.00000954,(5_0_2:0.00000551,5_0_12:0.00000242):0.00000783):0.00000072):0.00026348):0.00040162,(1_0_2:0.00012788,(((1_0_8:0.00002312,(((1_0_12:0.00001486,1_0_14:0.00000627):0.00000296,(1_0_0:0.00000120,(1_0_3:0.00000180,1_0_11:0.00000007):0.00000076):0.00001048):0.00000057,1_0_5:0.00001050):0.00000162):0.00000209,1_0_1:0.00000221):0.00001873,((((1_0_6:0.00000083,1_0_10:0.00000078):0.00002906,((1_0_4:0.00000006,1_0_15:0.00000021):0.00001306,1_0_7:0.00000257):0.00001578):0.00001077,1_0_13:0.00001190):0.00002198,1_0_9:0.00001236):0.00001778):0.00006348):0.00456364):0.00026568,(((7_0_10:0.00000002,7_0_14:0.00000000):0.00000352,((7_0_12:0.00000229,(7_0_2:0.00000141,(7_0_7:0.00000125,7_0_15:0.00000043):0.00000157):0.00000244):0.00000165,(7_0_4:0.00000101,(7_0_11:0.00000052,7_0_1:0.00000055):0.00000024):0.00000711):0.00000696):0.00001326,(7_0_5:0.00005010,((7_0_13:0.00000881,7_0_0:0.00000629):0.00000772,(((7_0_6:0.00000331,7_0_8:0.00000859):0.00000030,7_0_9:0.00000679):0.00000094,7_0_3:0.00000794):0.00008224):0.00000127):0.00038641):0.01402305):0.00064445):0.00243100,((((((11_0_13:0.00000225,11_0_12:0.00000056):0.00001323,(11_0_14:0.00000445,(11_0_7:0.00000476,(11_0_8:0.00000049,11_0_6:0.00000131):0.00000816):0.00000231):0.00000063):0.00004661,(11_0_15:0.00000712,(((11_0_10:0.00000070,11_0_2:0.00000086):0.00000160,11_0_5:0.00000515):0.00000332,11_0_3:0.00000490):0.00000036):0.00005322):0.00001943,(11_0_1:0.00001701,(11_0_11:0.00000068,((11_0_0:0.00000815,11_0_9:0.00000126):0.00000015,11_0_4:0.00000204):0.00000195):0.00000047):0.00005816):0.00319690,(((((((12_0_5:0.00000004,12_0_10:0.00000001):0.00000646,(12_0_6:0.00000033,12_0_0:0.00000134):0.00000385):0.00002934,((12_0_3:0.00000003,12_0_7:0.00000145):0.00000511,12_0_15:0.00000051):0.00000968):0.00000306,(12_0_2:0.00001426,12_0_12:0.00000906):0.00001319):0.00000141,12_0_1:0.00000546):0.00000727,((12_0_8:0.00000087,12_0_11:0.00000038):0.00002940,(12_0_4:0.00002315,12_0_13:0.00002326):0.00000028):0.00000035):0.00000378,(12_0_9:0.00000239,12_0_14:0.00000042):0.00001913):0.00387097):0.00052025,(((((10_0_12:0.00000199,10_0_0:0.00000662):0.00000693,(10_0_10:0.00000184,10_0_1:0.00000198):0.00001068):0.00000691,(10_0_13:0.00000062,(10_0_3:0.00000401,((10_0_15:0.00000111,10_0_11:0.00000143):0.00000015,10_0_2:0.00000661):0.00000200):0.00000168):0.00000943):0.00000199,10_0_5:0.00000791):0.00007398,(((10_0_6:0.00000281,(10_0_7:0.00000269,10_0_4:0.00000242):0.00000101):0.00000074,10_0_14:0.00000065):0.00000721,(10_0_8:0.00000574,10_0_9:0.00000405):0.00001399):0.00009022):0.00309624):0.00516903):0.00730484);
[TREE] T07 (0_0_0:0.00848384,((((((6_0_2:0.00011014,(((((6_0_3:0.00000084,6_0_8:0.00000243):0.00000287,6_0_1:0.00000029):0.00000913,(6_0_13:0.00001229,6_0_14:0.00000200):0.00000025):0.00000753,(6_0_12:0.00001888,((((6_0_7:0.00000005,6_0_0:0.00000006):0.00000162,6_0_11:0.00000043):0.00000037,6_0_6:0.00000154):0.00000090,6_0_15:0.00000510):0.00001092):0.00000698):0.00002532,(6_0_5:0.00002301,(6_0_10:0.00000013,(6_0_4:0.00000226,6_0_9:0.00000133):0.00000030):0.00000542):0.00000214):0.00004826):0.00021637,(((3_0_10:0.00001739,(3_0_6:0.00000787,3_0_13:0.00000799):0.00000949):0.00001036,((3_0_15:0.00000824,3_0_12:0.00000537):0.00000566,(3_0_8:0.00000663,(3_0_14:0.00000039,(3_0_3:0.00000048,3_0_4:0.00000072):0.00000203):0.00000079):0.00002099):0.00001002):0.00001571,(((((3_0_1:0.00000020,3_0_2:0.00000094):0.00000005,3_0_9:0.00000017):0.00000291,3_0_7:0.00000657):0.00000858,(3_0_5:0.00000224,3_0_0:0.00000107):0.00000409):0.00000141,3_0_11:0.00003041):0.00000414):0.00074786):0.00002985,((2_0_14:0.00000097,2_0_13:0.00000070):0.00007780,((((2_0_3:0.00001575,2_0_6:0.00000909):0.00000405,(2_0_8:0.00000494,2_0_0:0.00000786):0.00000123):0.00003366,((((2_0_5:0.00000057,2_0_9:0.00000008):0.00000112,(2_0_12:0.00000012,2_0_10:0.00000010):0.00000178):0.00000033,2_0_15:0.00000536):0.00006367,2_0_4:0.00001638):0.00001314):0.00001290,(2_0_1:0.00000100,((2_0_7:0.00000222,2_0_11:0.00000374):0.00000039,2_0_2:0.00000009):0.00000393):0.00010675):0.00008680):0.00292189):0.00437454,(((((4_0_5:0.00000964,4_0_1:0.00002012):0.00000063,4_0_10:0.00000356):0.00000018,(4_0_4:0.00001207,(4_0_12:0.00001172,(4_0_14:0.00001180,4_0_7:0.00000176):0.00000201):0.00000308):0.00000588):0.00000655,(4_0_13:0.00001955,(4_0_0:0.00000584,4_0_9:0.00000494):0.00000344):0.00001546):0.00006829,((4_0_8:0.00000083,4_0_15:0.00000092):0.00000398,(((4_0_11:0.00000096,4_0_6:0.00000026):0.00000168,4_0_2:0.00000498):0.00000286,4_0_3:0.00000480):0.00000040):0.00003586):0.00774577):0.00069449,((((7_0_12:0.00000274,7_0_14:0.00000121):0.00000303,(7_0_0:0.00000336,((7_0_15:0.00000010,7_0_6:0.00000003):0.00000066,7_0_3:0.00000286):0.00000399):0.00001583):0.00007246,(((((7_0_7:0.00000984,7_0_4:0.00000203):0.00000203,(7_0_1:0.00000572,(7_0_8:0.00000126,7_0_5:0.00000045):0.00000854):0.00000343):0.00000050,7_0_10:0.00000431):0.00002647,((7_0_13:0.00000254,7_0_11:0.00000073):0.00000008,7_0_9:0.00000018):0.00004378):0.00002515,7_0_2:0.00002091):0.00000021):0.01207995,(((1_0_1:0.00000075,1_0_8:0.00000142):0.00011996,(((1_0_11:0.00000766,1_0_6:0.00000085):0.00000201,1_0_12:0.00000099):0.00011246,(((1_0_5:0.00000089,1_0_9:0.00000170):0.00000669,((1_0_7:0.00000003,(1_0_13:0.00000020,1_0_10:0.00000001):0.00000026):0.00000072,1_0_3:0.00000169):0.00002406):0.00000009,((1_0_15:0.00000133,1_0_4:0.00000274):0.00000126,((1_0_2:0.00000399,1_0_14:0.00000703):0.00000250,1_0_0:0.00002315):0.00000703):0.00002367):0.00000760):0.00000761):0.00172778,((((9_0_13:0.00000471,(9_0_0:0.00000047,9_0_14:0.00000014):0.00001316):0.00000494,(9_0_8:0.00002365,9_0_9:0.00006000):0.00000329):0.00038741,(((8_0_12:0.00000160,8_0_10:0.00000450):0.00000427,((8_0_7:0.00000021,8_0_15:0.00000001):0.00000380,(8_0_5:0.00000062,8_0_3:0.00000249):0.00000108):0.00005100):0.00014332,(((((9_0_3:0.00001397,((9_0_6:0.00000029,(9_0_10:0.00000001,9_0_12:0.00000007):0.00000001):0.00000400,9_0_15:0.00000575):0.00000140):0.00000287,(9_0_2:0.00000002,9_0_5:0.00000159):0.00001205):0.00000932,(9_0_1:0.00001512,9_0_11:0.00000370):0.00007510):0.00001655,(9_0_4:0.00000196,9_0_7:0.00000643):0.00007744):0.00005614,(((8_0_11:0.00000127,8_0_4:0.00000034):0.00000502,(8_0_2:0.00000209,(((8_0_9:0.00000205,(8_0_6:0.00000501,8_0_8:0.00000091):0.00000127):0.00001192,8_0_14:0.00002592):0.00000430,8_0_13:0.00002296):0.00000039):0.00000625):0.00000460,(8_0_0:0.00000102,8_0_1:0.00000280):0.00002070):0.00016288):0.00000153):0.00052378):0.00003380,((((5_0_12:0.00000034,5_0_3:0.00000018):0.00000724,((5_0_9:0.00000075,5_0_8:0.00000134):0.00000790,5_0_1:0.00000502):0.00000085):0.00004280,((5_0_14:0.00000318,(5_0_13:0.00000441,5_0_2:0.00000231):0.00000087):0.00000006,5_0_11:0.00000527):0.00002593):0.00000129,(5_0_6:0.00008095,(((5_0_0:0.00000956,(5_0_15:0.00000055,5_0_7:0.00000201):0.00000252):0.00000173,5_0_4:0.00000107):0.00002386,(5_0_5:0.00000238,5_0_10:0.00000706):0.00001125):0.00000546):0.00005103):0.00008040):0.00249768):0.00038236):0.00179000):0.00006287,(((((11_0_6:0.00000019,11_0_15:0.00000058):0.00011289,(((11_0_4:0.00000163,11_0_8:0.00000383):0.00001218,(11_0_12:0.00001877,((11_0_9:0.00000076,11_0_3:0.00000156):0.00000048,11_0_1:0.00000013):0.00000417):0.00000018):0.00001093,((11_0_2:0.00000120,(11_0_11:0.00000006,11_0_7:0.00000132):0.00000040):0.00002190,11_0_13:0.00001608):0.00000116):0.00001623):0.00002674,((11_0_14:0.00000061,(11_0_0:0.00000013,11_0_10:0.00000006):0.00000371):0.00000191,11_0_5:0.00001196):0.00023075):0.00005571,((((12_0_8:0.00000003,12_0_9:0.00000077):0.00000399,12_0_11:0.00001369):0.00001144,(((12_0_7:0.00000105,12_0_12:0.00000019):0.00001258,12_0_2:0.00000185):0.00000640,(12_0_15:0.00000261,((12_0_5:0.00000036,12_0_3:0.00000010):0.00000032,12_0_14:0.00000116):0.00000006):0.00002579):0.00010621):0.00001360,((12_0_1:0.00000111,(12_0_0:0.00000015,12_0_10:0.00000020):0.00000014):0.00004300,(12_0_4:0.00000689,(12_0_6:0.00000015,12_0_13:0.00000359):0.00000059):0.00001412):0.00023814):0.00216893):0.00017325,(((((10_0_10:0.00000789,10_0_9:0.00000395):0.00000592,(10_0_11:0.00000244,(((10_0_15:0.00000003,10_0_14:0.00000004):0.00000065,10_0_0:0.00000093):0.00000335,10_0_6:0.00000160):0.00000091):0.00002013):0.00000402,(10_0_3:0.00000843,(10_0_5:0.00001644,10_0_13:0.00000062):0.00001287):0.00000284):0.00005800,((((10_0_12:0.00000033,10_0_2:0.00000133):0.00000065,10_0_7:0.00000365):0.00002554,10_0_1:0.00002908):0.00000673,10_0_4:0.00000604):0.00001696):0.00008771,10_0_8:0.00015961):0.01255196):0.01220501):0.01507136);
[TREE] T08 (0_0_0:0.06102987,((((((((4_0_14:0.00000628,4_0_15:0.00000183):0.00000033,(4_0_9:0.00000230,4_0_0:0.00000289):0.00000478):0.00000727,(4_0_12:0.00000061,(4_0_7:0.00000033,4_0_11:0.00000040):0.00000939):0.00000843):0.00001411,(4_0_5:0.00001041,4_0_2:0.00000852):0.00001068):0.00001821,((((4_0_8:0.00000119,4_0_10:0.00000438):0.00000349,4_0_3:0.00000480):0.00001681,(4_0_1:0.00001939,4_0_4:0.00000169):0.00000651):0.00000329,(4_0_13:0.00000059,4_0_6:0.00000007):0.00002588):0.00003405):0.00287715,((((((2_0_15:0.00000080,2_0_13:0.00000080):0.00000002,2_0_14:0.00000037):0.00000152,((2_0_0:0.00000125,2_0_12:0.00000268):0.00000088,(2_0_7:0.00000220,2_0_1:0.00000105):0.00000191):0.00000269):0.00000097,2_0_6:0.00001490):0.00010722,(((2_0_3:0.00000748,(2_0_4:0.00000365,2_0_10:0.00000471):0.00002546):0.00001671,(2_0_9:0.00003768,((2_0_2:0.00000059,2_0_5:0.00000040):0.00000269,2_0_8:0.00000120):0.00001714):0.00000713):0.00000278,2_0_11:0.00002410):0.00023980):0.00066435,(((((3_0_13:0.00001240,3_0_7:0.00001729):0.00003622,((3_0_14:0.00000446,(3_0_6:0.00000112,3_0_4:0.00000286):0.00000185):0.00006596,(3_0_12:0.00000148,(3_0_1:0.00000468,(3_0_10:0.00000108,3_0_3:0.00000014):0.00000120):0.00000075):0.00005504):0.00011110):0.00000757,(3_0_15:0.00000618,((3_0_2:0.00000149,3_0_8:0.00000130):0.00001664,(3_0_9:0.00000860,(3_0_11:0.00000089,3_0_0:0.00000228):0.00000460):0.00000039):0.00001777):0.00010875):0.00000283,3_0_5:0.00005715):0.00068550,((6_0_8:0.00001553,6_0_14:0.00000058):0.00009657,((6_0_5:0.00000529,((6_0_3:0.00000330,6_0_13:0.00000937):0.00000726,(6_0_12:0.00000285,((6_0_4:0.00000181,6_0_6:0.00000134):0.00000370,6_0_10:0.00000584):0.00000055):0.00001024):0.00000118):0.00000073,((6_0_15:0.00000180,(6_0_2:0.00001089,(6_0_1:0.00000128,(6_0_0:0.00000099,6_0_7:0.00000061):0.00000022):0.00000141):0.00001334):0.00000190,(6_0_11:0.00000020,6_0_9:0.00000109):0.00000510):0.00000860):0.00001314):0.00099582):0.00049307):0.00759767):0.00096989,(((7_0_11:0.00000015,7_0_3:0.00000020):0.00002885,((((7_0_2:0.00001561,7_0_4:0.00000709):0.00001059,((7_0_7:0.00000000,7_0_9:0.00000000):0.00000001,7_0_10:0.00000009):0.00002348):0.00000236,((7_0_0:0.00002543,((7_0_14:0.00000283,(7_0_5:0.00000013,7_0_8:0.00000001):0.00000164):0.00000607,7_0_15:0.00001798):0.00000077):0.00000368,(7_0_1:0.00000068,7_0_13:0.00000190):0.00001614):0.00000366):0.00000625,(7_0_12:0.00008875,7_0_6:0.00001716):0.00000850):0.00001843):0.01071766,(((((5_0_1:0.00001759,5_0_9:0.00001428):0.00000601,(((((5_0_14:0.00000017,5_0_13:0.00000056):0.00000443,5_0_3:0.00000019):0.00000071,(5_0_8:0.00000037,5_0_11:0.00000028):0.00000384):0.00000063,5_0_5:0.00000587):0.00005101,(5_0_15:0.00000275,5_0_7:0.00000683):0.00000229):0.00000002):0.00002989,((((5_0_6:0.00000209,5_0_10:0.00000011):0.00000359,5_0_0:0.00000275):0.00000015,(5_0_2:0.00000721,5_0_12:0.00002600):0.00000029):0.00003459,5_0_4:0.00002579):0.00009304):0.00016587,((((8_0_2:0.00000023,8_0_12:0.00000456):0.00004613,(8_0_14:0.00001524,8_0_8:0.00006580):0.00004541):0.00001188,(((((8_0_3:0.00000715,(8_0_9:0.00000043,8_0_10:0.00000054):0.00000089):0.00000994,(8_0_4:0.00001500,(8_0_13:0.00000051,8_0_11:0.00000006):0.00000413):0.00000115):0.00000416,(8_0_15:0.00000050,(8_0_6:0.00000017,8_0_0:0.00000066):0.00001207):0.00000121):0.00001068,(8_0_5:0.00000539,(8_0_7:0.00000108,8_0_1:0.00000160):0.00000205):0.00003152):0.00009127,((9_0_12:0.00000209,(9_0_6:0.00000044,9_0_5:0.00000046):0.00000033):0.00009282,(9_0_4:0.00000958,((9_0_1:0.00000514,9_0_14:0.00000551):0.00000010,9_0_9:0.00000327):0.00000251):0.00004173):0.00008050):0.00001337):0.00000087,(((9_0_7:0.00003251,9_0_3:0.00000061):0.00000039,9_0_10:0.00001052):0.00011648,(((9_0_0:0.00000214,((9_0_11:0.00000211,9_0_2:0.00000237):0.00000015,9_0_8:0.00000107):0.00000146):0.00000191,9_0_15:0.00000559):0.00001187,9_0_13:0.00000392):0.00000643):0.00004639):0.00032472):0.00032595,(((1_0_8:0.00002441,(1_0_3:0.00000015,1_0_7:0.00000019):0.00002416):0.00000772,((1_0_5:0.00000770,1_0_4:0.00000287):0.00000121,1_0_11:0.00000951):0.00001969):0.00000788,((1_0_13:0.00000053,1_0_15:0.00000003):0.00000167,((1_0_9:0.00000243,1_0_14:0.00002014):0.00001256,((1_0_12:0.00000217,1_0_1:0.00000327):0.00000238,((1_0_0:0.00000036,1_0_2:0.00000071):0.00000755,(1_0_6:0.00000019,1_0_10:0.00000080):0.00000001):0.00003287):0.00000046):0.00000001):0.00003434):0.00574770):0.00200342):0.00087784):0.01119475,(((((10_0_11:0.00000026,10_0_14:0.00000017):0.00000986,((10_0_9:0.00000791,(10_0_2:0.00000286,((10_0_3:0.00000013,10_0_15:0.00000015):0.00000051,10_0_1:0.00000033):0.00000002):0.00000192):0.00001584,10_0_4:0.00002166):0.00000041):0.00005324,((10_0_7:0.00001902,(((10_0_0:0.00000026,10_0_6:0.00000017):0.00001069,10_0_13:0.00000712):0.00001233,10_0_12:0.00001358):0.00001291):0.00000782,10_0_8:0.00001221):0.00004790):0.00005144,(10_0_5:0.00000364,10_0_10:0.00003399):0.00039307):0.00438291,((((11_0_2:0.00000172,((11_0_4:0.00000005,11_0_10:0.00000057):0.00000024,(11_0_13:0.00000035,11_0_6:0.00000128):0.00000289):0.00000541):0.00000705,((11_0_8:0.00000872,(11_0_7:0.00000046,((11_0_3:0.00000089,11_0_11:0.00000758):0.00000096,11_0_9:0.00001080):0.00000127):0.00000116):0.00001785,(11_0_14:0.00000505,(11_0_12:0.00000114,11_0_15:0.00000078):0.00000250):0.00000165):0.00000458):0.00001262,((11_0_5:0.00000180,11_0_1:0.00000296):0.00000200,11_0_0:0.00001245):0.00009650):0.00162080,(((12_0_12:0.00000002,12_0_8:0.00000034):0.00001255,(12_0_15:0.00000015,(12_0_4:0.00000029,(12_0_0:0.00000031,12_0_1:0.00000012):0.00000003):0.00000003):0.00000978):0.00012320,((12_0_11:0.00001504,(((12_0_6:0.00000775,12_0_3:0.00000314):0.00000078,12_0_2:0.00000451):0.00000385,((12_0_13:0.00000054,12_0_9:0.00000009):0.00000115,12_0_5:0.00001043):0.00000556):0.00000131):0.00003339,(12_0_10:0.00000043,(12_0_7:0.00000044,12_0_14:0.00000049):0.00000390):0.00002493):0.00002158):0.00183615):0.00068923):0.01170999):0.01345771);
[TREE] T09 (0_0_0:0.14442660,(((((((4_0_12:0.00000713,4_0_13:0.00000272):0.00000935,(4_0_10:0.00004045,((((4_0_15:0.00000357,((4_0_11:0.00000030,4_0_0:0.00000016):0.00000928,4_0_2:0.00000298):0.00000017):0.00000113,4_0_9:0.00000208):0.00000016,(4_0_5:0.00000056,4_0_14:0.00000020):0.00000247):0.00000471,(4_0_6:0.00000198,4_0_1:0.00000018):0.00001719):0.00000336):0.00001424):0.00001474,((4_0_3:0.00000805,4_0_7:0.00000677):0.00000389,4_0_4:0.00000890):0.00001666):0.00000562,4_0_8:0.00000166):0.00299442,((((2_0_8:0.00000028,(2_0_10:0.00000411,2_0_6:0.00000179):0.00000723):0.00002038,(2_0_5:0.00001132,((((2_0_1:0.00000011,2_0_12:0.00000046):0.00000022,2_0_2:0.00000057):0.00001560,2_0_3:0.00001364):0.00000071,2_0_14:0.00001874):0.00000133):0.00000020):0.00002852,(2_0_11:0.00003387,(((2_0_4:0.00000176,2_0_13:0.00000071):0.00000200,(2_0_9:0.00000385,2_0_15:0.00000196):0.00000442):0.00000573,(2_0_7:0.00000427,2_0_0:0.00000051):0.00001327):0.00000475):0.00001590):0.00071330,(((((((3_0_2:0.00000028,3_0_4:0.00000160):0.00000555,3_0_11:0.00000385):0.00000194,(((3_0_1:0.00000142,3_0_14:0.00000205):0.00000401,3_0_9:0.00000077):0.00000006,3_0_3:0.00000080):0.00000488):0.00000238,3_0_13:0.00002826):0.00004730,3_0_5:0.00006453):0.00007766,(((3_0_15:0.00000410,3_0_7:0.00000717):0.00000625,(3_0_8:0.00000794,(3_0_6:0.00000062,3_0_0:0.00000485):0.00000030):0.00006302):0.00001079,(3_0_10:0.00000906,3_0_12:0.00000237):0.00017055):0.00010447):0.00029369,((((((6_0_1:0.00000720,6_0_0:0.00001370):0.00000113,(6_0_5:0.00000096,(6_0_13:0.00000087,6_0_3:0.00000379):0.00000211):0.00002843):0.00000962,(6_0_4:0.00003052,(6_0_2:0.00000192,(6_0_12:0.00000087,6_0_6:0.00000450):0.00000636):0.00001378):0.00000573):0.00001625,(((6_0_14:0.00000091,6_0_8:0.00000083):0.00001018,6_0_9:0.00001496):0.00000143,6_0_7:0.00000849):0.00003827):0.00000433,6_0_15:0.00025080):0.00006083,(6_0_10:0.00000115,6_0_11:0.00001303):0.00013642):0.00019721):0.00034079):0.00200122):0.00090568,((((((7_0_6:0.00000490,7_0_5:0.00000124):0.00001551,(7_0_12:0.00000924,((7_0_13:0.00000202,7_0_3:0.00000436):0.00000010,(7_0_0:0.00001040,7_0_4:0.00000243):0.00000054):0.00000019):0.00003291):0.00000494,(7_0_1:0.00000062,(7_0_15:0.00000302,7_0_2:0.00000265):0.00000023):0.00000212):0.00001242,((7_0_11:0.00000583,(7_0_7:0.00000176,(7_0_10:0.00000009,7_0_8:0.00000036):0.00000020):0.00002224):0.00000274,7_0_14:0.00000370):0.00001031):0.00002775,7_0_9:0.00008495):0.00263535,((((((1_0_10:0.00000000,1_0_1:0.00000001):0.00000394,((1_0_3:0.00000117,1_0_14:0.00000212):0.00000019,1_0_5:0.00002141):0.00000354):0.00002796,(1_0_11:0.00000299,1_0_9:0.00000406):0.00001228):0.00001872,((1_0_6:0.00000661,1_0_2:0.00000458):0.00001019,(1_0_13:0.00000771,1_0_8:0.00001206):0.00001137):0.00001895):0.00000127,((((1_0_12:0.00000018,1_0_7:0.00000004):0.00001361,1_0_15:0.00000815):0.00000376,1_0_0:0.00000221):0.00007690,1_0_4:0.00004867):0.00007594):0.00382710,((((((((5_0_9:0.00000005,5_0_11:0.00000019):0.00000074,5_0_4:0.00000019):0.00002148,(5_0_5:0.00000165,((5_0_15:0.00000018,5_0_13:0.00000026):0.00000215,5_0_7:0.00000196):0.00000277):0.00002384):0.00000190,5_0_0:0.00000387):0.00000094,5_0_2:0.00000773):0.00000248,5_0_3:0.00003920):0.00014081,((5_0_14:0.00000011,5_0_8:0.00000043):0.00002470,((5_0_6:0.00001124,(5_0_1:0.00000049,5_0_12:0.00000076):0.00001066):0.00002029,5_0_10:0.00003831):0.00000865):0.00000981):0.00025577,((((9_0_4:0.00006189,(((9_0_0:0.00000439,(9_0_15:0.00000045,(9_0_1:0.00000028,9_0_7:0.00000513):0.00000000):0.00000346):0.00000103,9_0_12:0.00000547):0.00000257,9_0_5:0.00004164):0.00000820):0.00001742,((9_0_9:0.00000157,9_0_11:0.00000247):0.00000794,((((9_0_8:0.00000256,(9_0_13:0.00000064,9_0_3:0.00000276):0.00000024):0.00000049,9_0_14:0.00000681):0.00000029,9_0_6:0.00000158):0.00000364,9_0_10:0.00000504):0.00000546):0.00001983):0.00003659,(((8_0_7:0.00000207,8_0_10:0.00000279):0.00013706,((((8_0_11:0.00000030,(8_0_4:0.00000002,8_0_0:0.00000003):0.00000102):0.00000083,(8_0_3:0.00000220,8_0_2:0.00000201):0.00000164):0.00000170,(8_0_1:0.00000115,8_0_8:0.00000220):0.00000680):0.00003901,8_0_12:0.00001763):0.00000061):0.00005045,9_0_2:0.00001201):0.00000667):0.00001672,(8_0_14:0.00000947,(((8_0_6:0.00000212,8_0_15:0.00000052):0.00000539,8_0_9:0.00000741):0.00000423,(8_0_5:0.00000098,8_0_13:0.00000432):0.00001075):0.00000264):0.00004294):0.00017123):0.00166109):0.00036659):0.00336524):0.00265814,((((11_0_4:0.00001458,(11_0_5:0.00000693,(11_0_7:0.00000326,11_0_13:0.00000285):0.00000238):0.00000125):0.00008441,(((11_0_3:0.00001142,11_0_11:0.00000129):0.00000666,(11_0_9:0.00000343,11_0_0:0.00000248):0.00000283):0.00011111,((11_0_15:0.00000142,(11_0_6:0.00000239,(11_0_1:0.00000410,11_0_12:0.00000059):0.00000041):0.00000118):0.00000373,((11_0_2:0.00000981,11_0_14:0.00000306):0.00000705,(11_0_10:0.00000003,11_0_8:0.00000007):0.00000832):0.00000244):0.00010421):0.00000315):0.00374607,((((12_0_1:0.00000517,(12_0_2:0.00000099,(12_0_14:0.00000025,12_0_7:0.00000025):0.00000042):0.00000012):0.00001301,((12_0_11:0.00000343,(12_0_0:0.00000168,12_0_9:0.00000280):0.00000135):0.00001034,(12_0_12:0.00000310,12_0_15:0.00000455):0.00002376):0.00000070):0.00003098,((12_0_5:0.00000236,12_0_13:0.00002389):0.00000401,12_0_10:0.00000373):0.00001969):0.00005099,(12_0_6:0.00035000,(12_0_4:0.00002386,(12_0_3:0.00000030,12_0_8:0.00000001):0.00004552):0.00004050):0.00003885):0.00539890):0.00034337,(((10_0_0:0.00000173,10_0_2:0.00001657):0.00002659,((10_0_10:0.00002070,(10_0_13:0.00000487,10_0_12:0.00000510):0.00001051):0.00000802,(10_0_7:0.00006955,(10_0_6:0.00000054,10_0_15:0.00000929):0.00000409):0.00002544):0.00000650):0.00003033,((((10_0_4:0.00000019,10_0_11:0.00000031):0.00000167,10_0_1:0.00000057):0.00000887,(10_0_9:0.00001465,((10_0_8:0.00000059,10_0_3:0.00000005):0.00000015,10_0_5:0.00000266):0.00000254):0.00000062):0.00001309,10_0_14:0.00009594):0.00010438):0.00326051):0.01169733):0.00251314);
[TREE] T10 (0_0_0:0.07135007,(((((((6_0_3:0.00009504,((6_0_6:0.00000614,(6_0_14:0.00000473,6_0_12:0.00000189):0.00000066):0.00000268,(6_0_13:0.00000785,(((6_0_15:0.00000010,6_0_8:0.00000169):0.00000017,(6_0_7:0.00000107,6_0_1:0.00000104):0.00000040):0.00001442,6_0_11:0.00000632):0.00000267):0.00002839):0.00000942):0.00005214,(6_0_0:0.00003059,(6_0_5:0.00005254,((6_0_2:0.00000535,(6_0_9:0.00000128,6_0_10:0.00000168):0.00001151):0.00003100,6_0_4:0.00000663):0.00000914):0.00003707):0.00004458):0.00034604,((((3_0_9:0.00000038,(3_0_15:0.00000382,3_0_13:0.00000590):0.00000185):0.00000007,(3_0_8:0.00000159,3_0_14:0.00000333):0.00000141):0.00001236,(3_0_11:0.00006303,((3_0_0:0.00000123,((3_0_6:0.00000004,3_0_4:0.00000018):0.00000080,(3_0_10:0.00000047,3_0_3:0.00000149):0.00000051):0.00001830):0.00000035,3_0_1:0.00001147):0.00000013):0.00001670):0.00006453,(3_0_2:0.00000471,(3_0_5:0.00000762,(3_0_7:0.00000262,3_0_12:0.00000954):0.00002218):0.00000058):0.00026249):0.00054236):0.00067656,((2_0_11:0.00001149,(2_0_10:0.00000071,2_0_5:0.00000058):0.00001140):0.00008729,(((2_0_14:0.00000417,2_0_0:0.00000900):0.00000202,2_0_6:0.00002350):0.00001762,(((2_0_3:0.00001044,2_0_13:0.00000755):0.00000766,(2_0_9:0.00000324,2_0_1:0.00000956):0.00000870):0.00000369,((2_0_4:0.00000677,(2_0_8:0.00000215,((2_0_15:0.00000109,2_0_7:0.00000047):0.00000103,2_0_2:0.00000002):0.00000032):0.00000069):0.00000088,2_0_12:0.00000567):0.00002064):0.00000301):0.00017419):0.00096071):0.00106611,(((((4_0_4:0.00001151,4_0_0:0.00000309):0.00001986,4_0_13:0.00002065):0.00000756,4_0_11:0.00004758):0.00000269,(4_0_15:0.00002698,4_0_8:0.00004272):0.00000960):0.00001165,(4_0_14:0.00006671,(((4_0_7:0.00000736,4_0_9:0.00000977):0.00000687,((((4_0_2:0.00000019,4_0_10:0.00000187):0.00000005,4_0_12:0.00000083):0.00000513,4_0_3:0.00000410):0.00000183,(4_0_1:0.00000335,4_0_5:0.00000524):0.00000079):0.00000238):0.00001300,4_0_6:0.00001606):0.00001627):0.00000542):0.00396422):0.00095103,((((((5_0_1:0.00003050,((5_0_7:0.00000776,5_0_11:0.00000274):0.00000476,5_0_4:0.00001965):0.00002491):0.00001931,(((5_0_8:0.00000204,(5_0_12:0.00000014,(5_0_13:0.00000025,5_0_14:0.00000007):0.00000081):0.00000046):0.00000366,(5_0_3:0.00001234,5_0_5:0.00001321):0.00000005):0.00001889,((5_0_2:0.00000095,5_0_6:0.00000371):0.00002297,5_0_15:0.00002127):0.00000217):0.00002288):0.00001799,((5_0_0:0.00000028,5_0_10:0.00000339):0.00000204,5_0_9:0.00000130):0.00012277):0.00014293,((((8_0_8:0.00000967,((8_0_2:0.00000190,(8_0_10:0.00000459,8_0_13:0.00000039):0.00000001):0.00000088,8_0_12:0.00000612):0.00000079):0.00003671,(8_0_14:0.00000233,8_0_3:0.00000128):0.00017901):0.00000020,((((9_0_7:0.00000986,9_0_13:0.00004048):0.00002031,((9_0_10:0.00000840,(9_0_2:0.00000210,9_0_1:0.00000101):0.00001517):0.00000774,(9_0_4:0.00000006,9_0_0:0.00000055):0.00004436):0.00000105):0.00000225,((8_0_6:0.00000116,(8_0_1:0.00000018,8_0_15:0.00000067):0.00000812):0.00000768,(8_0_4:0.00000601,(8_0_11:0.00000657,8_0_7:0.00000168):0.00000144):0.00003800):0.00001329):0.00000062,(8_0_0:0.00000134,(8_0_5:0.00000028,8_0_9:0.00000097):0.00000044):0.00007482):0.00000888):0.00006095,(9_0_6:0.00004270,(((9_0_5:0.00000428,9_0_15:0.00001194):0.00000033,9_0_3:0.00000603):0.00002776,((9_0_14:0.00000509,9_0_9:0.00000092):0.00000872,((9_0_8:0.00000002,9_0_12:0.00000276):0.00000084,9_0_11:0.00000057):0.00003192):0.00000937):0.00001490):0.00006954):0.00002099):0.00489460,(1_0_14:0.00002764,(((((1_0_5:0.00000011,(1_0_13:0.00000008,1_0_8:0.00000007):0.00000079):0.00000144,1_0_1:0.00000154):0.00001427,(((1_0_6:0.00000725,1_0_3:0.00000676):0.00000101,(1_0_15:0.00000893,((1_0_10:0.00000329,1_0_7:0.00000019):0.00000029,1_0_12:0.00000091):0.00000125):0.00000094):0.00000802,(1_0_9:0.00000030,1_0_2:0.00000550):0.00002320):0.00000301):0.00000191,(1_0_4:0.00000015,1_0_0:0.00000041):0.00000897):0.00000405,1_0_11:0.00001209):0.00000551):0.00093758):0.00046667,((((7_0_9:0.00000358,(7_0_5:0.00000242,7_0_8:0.00000206):0.00001002):0.00001926,(((7_0_2:0.00000003,7_0_13:0.00000152):0.00000111,7_0_10:0.00000240):0.00000113,7_0_14:0.00000056):0.00000271):0.00000245,((7_0_12:0.00000325,(7_0_4:0.00000301,(7_0_1:0.00000140,7_0_0:0.00000035):0.00000048):0.00000832):0.00002638,((7_0_11:0.00000000,7_0_3:0.00000000):0.00001680,7_0_15:0.00001128):0.00002394):0.00000414):0.00003254,(7_0_7:0.00000002,7_0_6:0.00000003):0.00021193):0.00654653):0.00284062):0.02339240,(((((((11_0_3:0.00000420,(11_0_8:0.00000814,(11_0_11:0.00000108,11_0_14:0.00000128):0.00000210):0.00000192):0.00002808,11_0_7:0.00000040):0.00000019,(11_0_4:0.00000814,11_0_5:0.00000070):0.00001088):0.00000378,(11_0_9:0.00001130,(11_0_10:0.00004186,((11_0_6:0.00000218,11_0_1:0.00000421):0.00000173,(11_0_2:0.00000145,11_0_15:0.00000144):0.00000445):0.00000426):0.00000201):0.00000087):0.00011242,((11_0_13:0.00002624,11_0_0:0.00001052):0.00000067,11_0_12:0.00008972):0.00000313):0.00103892,(((12_0_13:0.00000077,(12_0_4:0.00000436,((12_0_14:0.00000043,12_0_5:0.00000178):0.00000001,(12_0_9:0.00000052,12_0_3:0.00000015):0.00000159):0.00000239):0.00000717):0.00000157,(12_0_2:0.00002775,12_0_7:0.00000900):0.00001525):0.00038823,((12_0_8:0.00001074,(12_0_15:0.00000086,12_0_1:0.00000426):0.00001076):0.00000314,(((12_0_12:0.00000005,(12_0_6:0.00000054,12_0_11:0.00000227):0.00000125):0.00000151,12_0_0:0.00000178):0.00001509,12_0_10:0.00000633):0.00000239):0.00032631):0.00304305):0.00053065,((10_0_10:0.00002540,((10_0_3:0.00000006,10_0_0:0.00000009):0.00003621,(10_0_11:0.00000499,10_0_1:0.00000070):0.00002529):0.00004228):0.00006740,((((10_0_8:0.00000136,10_0_13:0.00000220):0.00001456,(((10_0_14:0.00000018,10_0_6:0.00000006):0.00000116,10_0_15:0.00000070):0.00000959,(10_0_5:0.00000404,10_0_7:0.00000249):0.00000364):0.00000286):0.00000023,((10_0_4:0.00000120,10_0_12:0.00000202):0.00000144,10_0_9:0.00000897):0.00001267):0.00000450,10_0_2:0.00008061):0.00034169):0.00181044):0.00490635):0.01035349);

[PARTITIONS] csSimUnlinked_01 [T01 csSim_unlinked_1 500]
[PARTITIONS] csSimUnlinked_02 [T02 csSim_unlinked_2 500]
[PARTITIONS] csSimUnlinked_03 [T03 csSim_unlinked_3 500]
[PARTITIONS] csSimUnlinked_04 [T04 csSim_unlinked_4 500]
[PARTITIONS] csSimUnlinked_05 [T05 csSim_unlinked_5 500]
[PARTITIONS] csSimUnlinked_06 [T06 csSim_unlinked_6 500]
[PARTITIONS] csSimUnlinked_07 [T07 csSim_unlinked_7 500]
[PARTITIONS] csSimUnlinked_08 [T08 csSim_unlinked_8 500]
[PARTITIONS] csSimUnlinked_09 [T09 csSim_unlinked_9 500]
[PARTITIONS] csSimUnlinked_10 [T10 csSim_unlinked_10 500]

[EVOLVE] csSimUnlinked_01 1 data_01
csSimUnlinked_02 1 data_02
csSimUnlinked_03 1 data_03
csSimUnlinked_04 1 data_04
csSimUnlinked_05 1 data_05
csSimUnlinked_06 1 data_06
csSimUnlinked_07 1 data_07
csSimUnlinked_08 1 data_08
csSimUnlinked_09 1 data_09
csSimUnlinked_10 1 data_10
