Tree file : INDELible V1.03 (best viewed cut and paste in e.g. excel)

N.B. Simulation blocks with no random trees will have their trees printed for the first replicate only.

FILE	TREE	NTAXA	REP	PART	LENGTH	DEPTH	MAX PAIRWISE DISTANCE	TREE STRING

data_01	T01	177	1	1	1.41712	0.438313	0.850909	(0_0_0:0.43831344,((((1_0_7:0.00000528,1_0_0:0.00001233):0.00001919,(((1_0_11:0.00000076,1_0_2:0.00000028):0.00000203,1_0_6:0.00000121):0.00000505,(1_0_9:0.00000002,1_0_5:0.00000050):0.00000710):0.00001687):0.00003164,((1_0_4:0.00000917,1_0_12:0.00002919):0.00028173,(((1_0_13:0.00001864,(1_0_1:0.00000473,(1_0_8:0.00000056,(1_0_10:0.00000027,1_0_14:0.00000123):0.00000171):0.00000194):0.00002264):0.00000149,1_0_3:0.00000226):0.00005354,1_0_15:0.00007647):0.00016919):0.00003211):0.27638308,(((((((10_0_10:0.00000352,(10_0_8:0.00000027,10_0_3:0.00000026):0.00000453):0.00002400,((10_0_5:0.00002040,10_0_1:0.00002197):0.00000291,(((10_0_4:0.00000128,10_0_15:0.00000042):0.00000488,10_0_7:0.00000137):0.00000561,10_0_9:0.00001171):0.00000939):0.00004803):0.00001404,10_0_11:0.00005232):0.00002157,(10_0_6:0.00003660,10_0_2:0.00003381):0.00001329):0.00004618,(((10_0_12:0.00000128,10_0_14:0.00000482):0.00000200,10_0_13:0.00001940):0.00001012,10_0_0:0.00003114):0.00002306):0.03069315,((11_0_4:0.00000976,(11_0_15:0.00000564,(11_0_11:0.00000167,(11_0_7:0.00001542,(11_0_3:0.00000057,((11_0_12:0.00000008,11_0_14:0.00000001):0.00000207,11_0_13:0.00000096):0.00000509):0.00000028):0.00001626):0.00002931):0.00003722):0.00001480,(11_0_10:0.00013653,(((11_0_2:0.00000067,(11_0_9:0.00000015,11_0_5:0.00000039):0.00000197):0.00000232,(11_0_8:0.00000030,11_0_6:0.00000220):0.00000230):0.00000175,(11_0_1:0.00000437,11_0_0:0.00000629):0.00000237):0.00004062):0.00001343):0.10688036):0.01626681,(((((9_0_14:0.00000271,(9_0_2:0.00000041,9_0_1:0.00000120):0.00001043):0.00000467,9_0_0:0.00003452):0.00003968,((((9_0_4:0.00000048,9_0_7:0.00000018):0.00000027,(9_0_9:0.00000019,9_0_13:0.00000027):0.00000017):0.00001479,(9_0_11:0.00000339,9_0_10:0.00001220):0.00000821):0.00000634,((9_0_8:0.00000089,9_0_6:0.00000683):0.00002639,(9_0_12:0.00000583,9_0_5:0.00000280):0.00007250):0.00000004):0.00000505):0.00002135,(9_0_15:0.00003029,9_0_3:0.00001058):0.00008320):0.13008296,((((3_0_12:0.00000452,(3_0_9:0.00000555,(3_0_13:0.00000230,3_0_10:0.00000117):0.00000248):0.00000118):0.00001874,(((3_0_15:0.00000436,(3_0_5:0.00000335,3_0_2:0.00000296):0.00000265):0.00002770,3_0_7:0.00001033):0.00000697,(((3_0_4:0.00000261,(((3_0_0:0.00000018,3_0_11:0.00000008):0.00000170,3_0_8:0.00000161):0.00000369,3_0_14:0.00001164):0.00000062):0.00000584,(3_0_6:0.00000946,3_0_1:0.00000963):0.00000162):0.00000780,3_0_3:0.00001203):0.00002056):0.00001099):0.06846415,(((((((2_0_14:0.00000494,2_0_15:0.00000780):0.00013604,((2_0_11:0.00000423,2_0_13:0.00000682):0.00002623,(2_0_0:0.00006765,(2_0_9:0.00004304,(2_0_5:0.00004161,(2_0_2:0.00000368,2_0_4:0.00002228):0.00000005):0.00001045):0.00000729):0.00000382):0.00001217):0.00004713,(2_0_12:0.00001164,2_0_6:0.00000741):0.00007517):0.00007537,((2_0_1:0.00000114,2_0_10:0.00000203):0.00000275,((2_0_8:0.00000170,2_0_3:0.00000010):0.00000010,2_0_7:0.00000080):0.00000176):0.00005744):0.00007547,7_0_5:0.00018362):0.00014413,((((7_0_11:0.00000765,7_0_8:0.00002735):0.00000207,7_0_2:0.00002230):0.00002695,((((7_0_10:0.00000029,7_0_15:0.00000041):0.00000759,7_0_6:0.00000345):0.00001741,(((7_0_9:0.00000094,7_0_4:0.00000097):0.00000621,7_0_3:0.00000104):0.00000037,7_0_14:0.00000508):0.00000974):0.00002026,7_0_7:0.00003821):0.00001617):0.00009098,((7_0_13:0.00000265,(7_0_12:0.00000306,7_0_1:0.00000229):0.00005106):0.00001510,7_0_0:0.00006370):0.00001172):0.00027847):0.00228403,(((8_0_12:0.00000642,(8_0_6:0.00000104,8_0_9:0.00000048):0.00002239):0.00001857,((8_0_2:0.00002969,(8_0_4:0.00001338,((8_0_1:0.00000438,(8_0_15:0.00000366,8_0_3:0.00000649):0.00000247):0.00000644,8_0_0:0.00001950):0.00000084):0.00000303):0.00002076,(8_0_14:0.00000099,(8_0_11:0.00000135,8_0_8:0.00000314):0.00000012):0.00001103):0.00000158):0.00007755,((8_0_13:0.00000016,8_0_5:0.00000087):0.00001809,(8_0_7:0.00000003,8_0_10:0.00000006):0.00002707):0.00008183):0.05185986):0.00378702):0.01224648,((((4_0_15:0.00000127,(4_0_14:0.00000045,4_0_1:0.00000265):0.00000025):0.00000579,((4_0_10:0.00000548,4_0_3:0.00000672):0.00002096,4_0_0:0.00001562):0.00001322):0.00006137,((((4_0_6:0.00000733,4_0_9:0.00000368):0.00000151,(4_0_4:0.00000011,4_0_7:0.00000038):0.00000630):0.00004271,(4_0_13:0.00002353,4_0_8:0.00003659):0.00000753):0.00002698,((4_0_5:0.00001668,4_0_12:0.00002213):0.00001179,(4_0_11:0.00000178,4_0_2:0.00000095):0.00001699):0.00000140):0.00002600):0.00341579,(((((5_0_11:0.00001525,5_0_7:0.00001606):0.00001905,(5_0_5:0.00001950,(5_0_12:0.00000432,5_0_13:0.00000266):0.00000204):0.00003222):0.00000835,5_0_15:0.00000899):0.00006201,(((5_0_14:0.00001552,(5_0_2:0.00000462,((5_0_9:0.00000104,5_0_8:0.00000098):0.00000145,5_0_1:0.00000391):0.00000223):0.00000827):0.00002372,((5_0_4:0.00000009,5_0_10:0.00000015):0.00002010,5_0_6:0.00000433):0.00002096):0.00000678,(5_0_3:0.00002525,5_0_0:0.00002679):0.00006372):0.00006977):0.04991597,((((6_0_3:0.00000272,6_0_11:0.00000724):0.00005538,(6_0_12:0.00011062,6_0_7:0.00005465):0.00012778):0.00001915,6_0_1:0.00032547):0.00059471,((((6_0_9:0.00000071,6_0_4:0.00000105):0.00000021,6_0_8:0.00000424):0.00001853,6_0_15:0.00001542):0.00000221,((6_0_10:0.00000899,(6_0_14:0.00000075,6_0_6:0.00000039):0.00001516):0.00000070,((6_0_13:0.00000005,6_0_0:0.00000008):0.00000914,(6_0_2:0.00000076,6_0_5:0.00000187):0.00000468):0.00000274):0.00000427):0.00079255):0.02920982):0.00569953):0.02651243):0.00181259):0.00036765):0.01955554):0.13586924);

data_02	T02	177	1	1	1.15501	0.360297	0.632216	(0_0_0:0.36029744,((((1_0_13:0.00000090,((1_0_4:0.00000797,(1_0_9:0.00000240,1_0_1:0.00000164):0.00000123):0.00000313,(1_0_15:0.00001986,((1_0_7:0.00000205,1_0_6:0.00000487):0.00000010,1_0_14:0.00000366):0.00000304):0.00000655):0.00002803):0.00003339,(1_0_3:0.00010138,((1_0_0:0.00000702,1_0_12:0.00001438):0.00000025,(1_0_8:0.00000401,1_0_5:0.00001390):0.00000267):0.00005092):0.00018044):0.00002281,((1_0_10:0.00000726,1_0_2:0.00001084):0.00004416,1_0_11:0.00000963):0.00005214):0.09377909,(((((((((((7_0_11:0.00001394,((7_0_0:0.00000065,7_0_7:0.00000356):0.00000356,7_0_13:0.00000136):0.00000410):0.00002705,(7_0_6:0.00000088,7_0_4:0.00000062):0.00002678):0.00004458,((7_0_1:0.00000375,(7_0_3:0.00000010,7_0_8:0.00000020):0.00000055):0.00000062,(7_0_14:0.00000401,7_0_10:0.00000065):0.00003511):0.00001053):0.00000218,(((7_0_5:0.00002209,7_0_9:0.00000345):0.00001956,(7_0_15:0.00002927,7_0_2:0.00001522):0.00000250):0.00000684,7_0_12:0.00004724):0.00000062):0.00008001,((((2_0_8:0.00000039,2_0_14:0.00000185):0.00000190,2_0_15:0.00000069):0.00000056,(2_0_10:0.00000037,2_0_1:0.00000030):0.00000232):0.00000815,2_0_0:0.00001092):0.00030465):0.00019271,(((((2_0_13:0.00000376,2_0_11:0.00000211):0.00000030,2_0_2:0.00000330):0.00002116,(2_0_9:0.00000063,2_0_4:0.00000195):0.00001579):0.00006179,2_0_7:0.00006718):0.00002482,(2_0_3:0.00002567,(2_0_6:0.00013338,(2_0_5:0.00000830,2_0_12:0.00000884):0.00004841):0.00000482):0.00001382):0.00025957):0.02568339,((8_0_15:0.00005699,(((((8_0_14:0.00000086,8_0_3:0.00000033):0.00001481,8_0_11:0.00001810):0.00000013,8_0_7:0.00003052):0.00000186,8_0_5:0.00000311):0.00001702,(8_0_9:0.00002429,((8_0_0:0.00000259,8_0_2:0.00000361):0.00000186,8_0_1:0.00001373):0.00000954):0.00000075):0.00000709):0.00024935,((8_0_12:0.00000206,8_0_13:0.00000182):0.00006967,(8_0_4:0.00000376,((8_0_10:0.00000350,8_0_8:0.00000039):0.00000058,8_0_6:0.00000121):0.00003100):0.00004867):0.00006081):0.01489346):0.00598380,(3_0_10:0.00013527,((3_0_6:0.00001277,(3_0_3:0.00000531,((((3_0_0:0.00000427,3_0_9:0.00000421):0.00000017,3_0_15:0.00000571):0.00000068,3_0_8:0.00001376):0.00000119,((3_0_11:0.00000389,3_0_1:0.00000438):0.00000051,3_0_4:0.00000942):0.00000324):0.00000061):0.00000341):0.00006529,((((3_0_12:0.00000341,3_0_13:0.00000269):0.00000261,(3_0_14:0.00000118,3_0_2:0.00000094):0.00000535):0.00000088,3_0_5:0.00001777):0.00001038,3_0_7:0.00001737):0.00008172):0.00000136):0.08817532):0.05168136,(((((4_0_0:0.00001663,(((4_0_13:0.00000083,(4_0_9:0.00000050,4_0_6:0.00000025):0.00000003):0.00000004,4_0_3:0.00000034):0.00000873,((4_0_10:0.00000133,4_0_5:0.00000282):0.00000052,(4_0_2:0.00000035,(4_0_1:0.00000040,4_0_15:0.00000073):0.00000000):0.00000460):0.00000166):0.00000006):0.00001312,(4_0_12:0.00000105,4_0_14:0.00000004):0.00000496):0.00006153,(4_0_8:0.00000196,4_0_4:0.00000230):0.00007718):0.00005764,(4_0_11:0.00000180,4_0_7:0.00000463):0.00005789):0.01956373,(((((5_0_15:0.00000107,5_0_9:0.00000109):0.00000157,5_0_11:0.00001517):0.00003005,((5_0_12:0.00001227,(5_0_3:0.00000131,5_0_2:0.00000513):0.00000552):0.00003318,(((5_0_0:0.00002338,5_0_10:0.00003927):0.00000184,5_0_13:0.00001154):0.00001243,(5_0_14:0.00000368,((5_0_4:0.00000154,5_0_1:0.00000418):0.00001250,(5_0_7:0.00000364,5_0_6:0.00000027):0.00000095):0.00000045):0.00004505):0.00000271):0.00000086):0.00034199,(5_0_8:0.00001998,5_0_5:0.00007276):0.00029995):0.01210814,(((6_0_15:0.00000477,6_0_3:0.00001171):0.00002387,(6_0_10:0.00000601,6_0_9:0.00000055):0.00004256):0.00001389,(6_0_11:0.00003175,(((6_0_14:0.00003486,6_0_6:0.00001827):0.00000079,(6_0_2:0.00000325,((6_0_13:0.00000246,6_0_4:0.00000517):0.00000664,6_0_8:0.00000468):0.00000235):0.00000825):0.00001456,((6_0_12:0.00000624,6_0_7:0.00000146):0.00003485,(6_0_5:0.00000371,(6_0_0:0.00000043,6_0_1:0.00000042):0.00000255):0.00003512):0.00003279):0.00000700):0.00005705):0.01839645):0.00530618):0.04691535):0.00112417,(((9_0_8:0.00001969,(((9_0_13:0.00000147,9_0_12:0.00000124):0.00001077,(9_0_6:0.00000413,9_0_11:0.00000248):0.00001655):0.00000100,((9_0_4:0.00000038,9_0_5:0.00000008):0.00001448,9_0_2:0.00000373):0.00000375):0.00000008):0.00000338,9_0_1:0.00001833):0.00021093,((9_0_3:0.00000033,9_0_10:0.00000027):0.00020317,(((9_0_9:0.00000242,(9_0_0:0.00000987,9_0_15:0.00000111):0.00000024):0.00000124,9_0_14:0.00002135):0.00001543,9_0_7:0.00001157):0.00001842):0.00014318):0.13281552):0.00022367,((((11_0_6:0.00007918,(11_0_2:0.00001041,(((11_0_0:0.00000674,(11_0_14:0.00000027,11_0_3:0.00000031):0.00000013):0.00000129,11_0_12:0.00000214):0.00000036,11_0_13:0.00000402):0.00000074):0.00000151):0.00009243,((((11_0_11:0.00000311,11_0_7:0.00000498):0.00000571,11_0_9:0.00000442):0.00000329,((11_0_8:0.00000011,11_0_1:0.00000029):0.00000274,11_0_10:0.00000093):0.00000205):0.00002026,(11_0_4:0.00000322,11_0_5:0.00000230):0.00003432):0.00002302):0.00000247,11_0_15:0.00033243):0.05512800,(((((10_0_13:0.00000028,10_0_9:0.00000047):0.00001113,10_0_8:0.00000993):0.00000085,(10_0_12:0.00000982,10_0_15:0.00000402):0.00000161):0.00000618,(((10_0_7:0.00000784,10_0_0:0.00000298):0.00003511,(10_0_1:0.00000635,10_0_5:0.00000183):0.00000424):0.00002533,(10_0_3:0.00003965,(10_0_4:0.00000337,(10_0_10:0.00000523,10_0_11:0.00000396):0.00000837):0.00004578):0.00000772):0.00000615):0.00011741,(10_0_6:0.00004830,(10_0_2:0.00001132,10_0_14:0.00001168):0.00004598):0.00010363):0.07254420):0.01270979):0.07455133):0.05602784);

data_03	T03	177	1	1	1.14251	0.511773	0.594066	(0_0_0:0.07797805,(((((((((4_0_13:0.00000427,4_0_8:0.00000735):0.00000104,(4_0_7:0.00000115,4_0_6:0.00000299):0.00000167):0.00001775,4_0_11:0.00001724):0.00002875,(((4_0_5:0.00000166,4_0_9:0.00000102):0.00001535,((4_0_3:0.00000358,4_0_10:0.00000721):0.00002537,(((4_0_0:0.00000085,4_0_12:0.00000027):0.00000827,4_0_15:0.00001052):0.00000448,(4_0_14:0.00000001,4_0_1:0.00000012):0.00000720):0.00000869):0.00000261):0.00000937,(4_0_4:0.00000929,4_0_2:0.00000337):0.00002680):0.00005673):0.07024064,(((((6_0_9:0.00000659,6_0_6:0.00000878):0.00000348,(6_0_11:0.00000400,6_0_13:0.00000356):0.00000064):0.00011704,(6_0_4:0.00000698,(((6_0_3:0.00001214,(6_0_14:0.00000201,6_0_7:0.00000399):0.00002462):0.00001713,(6_0_1:0.00000839,((6_0_5:0.00000437,6_0_8:0.00000402):0.00000585,(6_0_2:0.00000133,6_0_0:0.00000126):0.00000508):0.00000013):0.00000187):0.00000008,(6_0_15:0.00001778,6_0_10:0.00000131):0.00002370):0.00003470):0.00003020):0.00019727,6_0_12:0.00007613):0.00577921,((((5_0_13:0.00006815,(((5_0_0:0.00000186,5_0_7:0.00000878):0.00000207,5_0_15:0.00000751):0.00000177,((5_0_11:0.00000092,5_0_4:0.00000161):0.00000401,5_0_3:0.00000339):0.00000241):0.00001791):0.00000534,((((5_0_5:0.00000035,5_0_2:0.00000033):0.00000646,5_0_9:0.00000902):0.00000092,5_0_1:0.00000282):0.00004685,(5_0_10:0.00000324,(5_0_6:0.00000195,5_0_12:0.00000018):0.00000553):0.00006744):0.00000023):0.00028500,5_0_14:0.00026897):0.00027604,5_0_8:0.00008048):0.02048448):0.00018209):0.01266753,((((3_0_9:0.00000306,(3_0_4:0.00000293,3_0_11:0.00000139):0.00000450):0.00011031,(3_0_1:0.00000897,(3_0_13:0.00001262,(3_0_5:0.00001819,(3_0_8:0.00000262,3_0_0:0.00000682):0.00000379):0.00000278):0.00000299):0.00001650):0.00000138,((3_0_7:0.00002243,((3_0_2:0.00000376,(3_0_15:0.00000073,3_0_6:0.00000086):0.00000103):0.00000179,3_0_3:0.00002447):0.00000351):0.00000214,(3_0_14:0.00000203,(3_0_10:0.00000178,3_0_12:0.00000066):0.00000308):0.00007748):0.00000100):0.01877995,(((((8_0_8:0.00001233,(8_0_6:0.00000215,8_0_14:0.00000070):0.00000695):0.00000397,(8_0_7:0.00000364,(8_0_10:0.00000989,8_0_11:0.00000330):0.00000112):0.00000191):0.00000646,(((8_0_15:0.00000079,8_0_2:0.00000343):0.00000064,(8_0_3:0.00000009,8_0_9:0.00000022):0.00000667):0.00000269,8_0_0:0.00001873):0.00000995):0.00002475,(8_0_13:0.00014199,((8_0_12:0.00001770,8_0_1:0.00000774):0.00005636,(8_0_4:0.00000797,8_0_5:0.00000159):0.00008246):0.00000339):0.00001370):0.04702730,((((((7_0_8:0.00000107,7_0_1:0.00000083):0.00000808,((7_0_3:0.00000262,7_0_0:0.00000180):0.00000266,7_0_10:0.00000366):0.00001421):0.00008123,7_0_11:0.00010048):0.00002128,((7_0_13:0.00000732,7_0_6:0.00001261):0.00003727,(((7_0_4:0.00000160,7_0_9:0.00000186):0.00000151,7_0_14:0.00000131):0.00001480,(7_0_2:0.00000508,7_0_12:0.00000541):0.00001275):0.00003327):0.00000716):0.00003171,((7_0_7:0.00000472,7_0_15:0.00000152):0.00000499,7_0_5:0.00000832):0.00007534):0.00034833,(((((((2_0_7:0.00000047,2_0_5:0.00000083):0.00001036,2_0_0:0.00000547):0.00000343,2_0_2:0.00000218):0.00000770,((2_0_14:0.00000129,2_0_9:0.00000215):0.00001473,2_0_11:0.00005540):0.00000863):0.00005377,(2_0_1:0.00005270,2_0_13:0.00009510):0.00000228):0.00000155,(2_0_3:0.00000042,2_0_8:0.00000158):0.00005642):0.00005275,(2_0_15:0.00000406,(2_0_4:0.00001662,((2_0_12:0.00000141,2_0_6:0.00000349):0.00000278,2_0_10:0.00000363):0.00000022):0.00000980):0.00052391):0.00006902):0.02350042):0.00829141):0.04010324):0.00169265,((((9_0_5:0.00000153,9_0_1:0.00000268):0.00003694,(((9_0_9:0.00000839,9_0_7:0.00000383):0.00003356,(9_0_6:0.00000173,(9_0_11:0.00000043,9_0_3:0.00000091):0.00000693):0.00000644):0.00000669,(((9_0_13:0.00000240,9_0_2:0.00000166):0.00000094,9_0_8:0.00000349):0.00001763,((9_0_15:0.00000097,(9_0_0:0.00000105,9_0_10:0.00000024):0.00000046):0.00000063,9_0_4:0.00000508):0.00000199):0.00001450):0.00002203):0.00001095,9_0_14:0.00001154):0.00004588,9_0_12:0.00008710):0.08474675):0.00020676,(((10_0_5:0.00010854,10_0_15:0.00003285):0.00001245,((((10_0_2:0.00000977,10_0_0:0.00000236):0.00000205,(((10_0_4:0.00000024,(10_0_13:0.00000234,10_0_8:0.00000057):0.00000082):0.00000064,(10_0_12:0.00000014,10_0_6:0.00000030):0.00000107):0.00000072,10_0_7:0.00001512):0.00000528):0.00001767,(10_0_10:0.00000187,10_0_3:0.00000114):0.00000379):0.00000054,((10_0_11:0.00000361,10_0_1:0.00000428):0.00000077,(10_0_14:0.00000620,10_0_9:0.00000132):0.00000051):0.00000951):0.00001804):0.04745069,((11_0_3:0.00002547,(11_0_6:0.00000178,11_0_5:0.00000285):0.00001741):0.00012004,(((11_0_12:0.00000493,(11_0_7:0.00000358,(11_0_0:0.00000157,11_0_14:0.00000306):0.00001346):0.00002315):0.00002382,(11_0_15:0.00000229,11_0_2:0.00000331):0.00007318):0.00000382,((11_0_8:0.00000133,(11_0_9:0.00000076,11_0_10:0.00000008):0.00000233):0.00000843,(((11_0_1:0.00001316,11_0_11:0.00001022):0.00000682,11_0_13:0.00001241):0.00000522,11_0_4:0.00003373):0.00000403):0.00003481):0.00000742):0.17941386):0.03859964):0.21036698,((1_0_10:0.00002061,1_0_3:0.00000615):0.00017811,(((1_0_4:0.00002474,(((1_0_6:0.00000068,1_0_1:0.00000012):0.00000604,1_0_8:0.00000501):0.00000489,1_0_2:0.00002547):0.00001480):0.00002301,1_0_12:0.00004565):0.00000202,((((1_0_9:0.00000070,1_0_13:0.00000319):0.00000601,1_0_11:0.00001454):0.00000203,1_0_15:0.00000639):0.00000231,(1_0_14:0.00001528,(1_0_5:0.00001065,(1_0_0:0.00000266,1_0_7:0.00000491):0.00001522):0.00000045):0.00000014):0.00004813):0.00004745):0.16534151):0.08324747);

data_04	T04	177	1	1	0.933933	0.369041	0.537203	(((((((9_0_5:0.00000063,9_0_1:0.00000199):0.00001434,(9_0_4:0.00002053,(9_0_2:0.00000204,9_0_9:0.00000509):0.00002625):0.00001324):0.00001662,(((((9_0_14:0.00000417,9_0_6:0.00000331):0.00000083,(9_0_10:0.00000760,9_0_15:0.00000598):0.00000381):0.00003507,(9_0_3:0.00001509,(9_0_12:0.00001302,9_0_11:0.00000937):0.00000080):0.00001285):0.00000071,9_0_7:0.00004510):0.00002474,((9_0_8:0.00001120,9_0_13:0.00000445):0.00001819,9_0_0:0.00000853):0.00004305):0.00003515):0.03351461,(((((((8_0_12:0.00004080,(8_0_8:0.00000647,8_0_13:0.00001080):0.00003832):0.00014253,(8_0_10:0.00000014,8_0_3:0.00000001):0.00012517):0.00004762,((8_0_7:0.00001084,((8_0_11:0.00000147,8_0_14:0.00000123):0.00000422,(8_0_0:0.00000157,(8_0_1:0.00000079,8_0_6:0.00000149):0.00000135):0.00000631):0.00000533):0.00000292,8_0_4:0.00003427):0.00003564):0.00001364,(((8_0_2:0.00000855,8_0_5:0.00001600):0.00000611,8_0_9:0.00000175):0.00001135,8_0_15:0.00007448):0.00001956):0.00393358,(((((2_0_11:0.00001198,(2_0_4:0.00001879,(2_0_2:0.00001022,2_0_13:0.00001346):0.00000623):0.00000195):0.00003282,(2_0_12:0.00002368,((2_0_5:0.00000219,2_0_0:0.00000028):0.00001614,(2_0_14:0.00001989,(2_0_3:0.00000119,2_0_15:0.00000192):0.00000044):0.00000464):0.00000198):0.00000443):0.00000940,(2_0_7:0.00000670,(2_0_6:0.00000532,((2_0_9:0.00000203,2_0_10:0.00000330):0.00000140,2_0_1:0.00000667):0.00000097):0.00000757):0.00005420):0.00001980,2_0_8:0.00014018):0.00001170,(((((7_0_11:0.00002075,(7_0_12:0.00000705,7_0_6:0.00001577):0.00001167):0.00001883,(7_0_10:0.00000319,7_0_4:0.00001082):0.00003142):0.00001592,(7_0_14:0.00001117,(7_0_15:0.00008785,(7_0_9:0.00000107,(7_0_5:0.00000070,7_0_1:0.00000003):0.00000019):0.00003340):0.00000093):0.00000119):0.00001013,(7_0_2:0.00000255,7_0_7:0.00000326):0.00029133):0.00003447,((7_0_0:0.00000833,(7_0_8:0.00000132,7_0_13:0.00000124):0.00001540):0.00000461,7_0_3:0.00001222):0.00018337):0.00016209):0.01933496):0.01293663,((3_0_15:0.00000005,3_0_8:0.00000002):0.00003136,((((3_0_6:0.00000827,3_0_13:0.00000560):0.00000187,(3_0_11:0.00001079,(3_0_0:0.00000234,3_0_5:0.00000240):0.00000081):0.00000092):0.00001542,3_0_10:0.00000320):0.00000035,(((3_0_4:0.00000321,(3_0_9:0.00000294,(3_0_3:0.00000162,3_0_1:0.00000263):0.00000079):0.00000158):0.00001510,(3_0_14:0.00000091,3_0_7:0.00000060):0.00001341):0.00000320,(3_0_12:0.00000175,3_0_2:0.00000475):0.00001812):0.00000679):0.00000893):0.03310450):0.01718361,(((((((6_0_9:0.00000084,(6_0_14:0.00000239,6_0_11:0.00000575):0.00000128):0.00000809,(6_0_5:0.00000621,6_0_6:0.00000079):0.00000703):0.00005153,(6_0_2:0.00001764,((6_0_4:0.00000594,6_0_12:0.00000093):0.00000399,6_0_15:0.00001066):0.00000869):0.00002223):0.00000209,(((6_0_7:0.00001375,(6_0_13:0.00000338,6_0_3:0.00000138):0.00000826):0.00000481,6_0_8:0.00000338):0.00000094,6_0_10:0.00000647):0.00001371):0.00001369,(6_0_0:0.00000034,6_0_1:0.00000015):0.00026304):0.02507888,((5_0_15:0.00000477,(5_0_4:0.00000130,(5_0_6:0.00000763,5_0_13:0.00000365):0.00000393):0.00000035):0.00005985,((5_0_3:0.00000294,(5_0_10:0.00000520,5_0_2:0.00001243):0.00002498):0.00001221,((5_0_12:0.00000417,5_0_9:0.00000200):0.00002034,((5_0_0:0.00000324,((5_0_14:0.00000014,5_0_5:0.00000047):0.00000131,5_0_8:0.00000055):0.00000289):0.00002779,(5_0_1:0.00001522,(5_0_11:0.00000102,5_0_7:0.00000064):0.00001669):0.00000022):0.00000448):0.00000847):0.00000120):0.00582504):0.00664288,(((4_0_0:0.00000496,(4_0_5:0.00000219,4_0_14:0.00000034):0.00000455):0.00002079,4_0_1:0.00003951):0.00008524,(((((4_0_3:0.00002196,4_0_2:0.00003827):0.00001097,(4_0_8:0.00001337,4_0_7:0.00001284):0.00002375):0.00000059,4_0_15:0.00002098):0.00000349,(4_0_11:0.00001520,(((4_0_10:0.00001118,4_0_9:0.00000784):0.00000155,(4_0_6:0.00000203,4_0_12:0.00000029):0.00000111):0.00000295,4_0_13:0.00000615):0.00000167):0.00002137):0.00000149,4_0_4:0.00000730):0.00009749):0.01343967):0.05244495):0.00121153):0.00069422,((((10_0_5:0.00005027,10_0_13:0.00002799):0.00001682,((10_0_4:0.00000304,10_0_15:0.00000221):0.00000704,((10_0_0:0.00000078,10_0_3:0.00000093):0.00000811,10_0_8:0.00000453):0.00000017):0.00004840):0.00008109,(((10_0_1:0.00000711,10_0_7:0.00000174):0.00000666,(10_0_11:0.00000195,(10_0_12:0.00000162,10_0_9:0.00001059):0.00000076):0.00000999):0.00000167,(((10_0_2:0.00000001,10_0_6:0.00000002):0.00000031,10_0_14:0.00000348):0.00000137,10_0_10:0.00000427):0.00002560):0.00008471):0.09364938,((((11_0_0:0.00003981,((11_0_11:0.00001339,(11_0_13:0.00002885,11_0_3:0.00000242):0.00000754):0.00000134,11_0_9:0.00002312):0.00001557):0.00000321,(11_0_10:0.00000014,11_0_6:0.00000003):0.00001753):0.00000134,(11_0_4:0.00000539,(11_0_5:0.00000810,11_0_8:0.00000962):0.00000290):0.00002642):0.00003741,((11_0_15:0.00000016,11_0_2:0.00000372):0.00000310,((11_0_12:0.00001467,11_0_14:0.00000895):0.00000019,(11_0_7:0.00000015,11_0_1:0.00000030):0.00000045):0.00000162):0.00004474):0.04103973):0.02826883):0.17606234,((((1_0_6:0.00000780,(1_0_1:0.00000809,1_0_12:0.00001282):0.00000431):0.00000151,1_0_9:0.00004091):0.00002616,((1_0_5:0.00000654,1_0_7:0.00001212):0.00003752,(1_0_0:0.00003505,((1_0_8:0.00000137,(1_0_3:0.00000004,1_0_13:0.00000033):0.00000945):0.00001843,(1_0_4:0.00002674,(1_0_14:0.00000519,1_0_2:0.00000097):0.00000062):0.00000423):0.00001269):0.00002555):0.00002101):0.00012979,((1_0_15:0.00002092,1_0_11:0.00000483):0.00000094,1_0_10:0.00001295):0.00040740):0.12495323):0.07091229,0_0_0:0.16816163);

data_05	T05	177	1	1	1.20602	0.494882	0.601074	(0_0_0:0.10619215,(((1_0_14:0.00000457,1_0_2:0.00000396):0.00004706,(((1_0_13:0.00002509,((1_0_15:0.00000923,(1_0_6:0.00000133,1_0_0:0.00000096):0.00000389):0.00001921,(1_0_1:0.00000183,1_0_10:0.00000111):0.00000184):0.00001013):0.00003878,(((1_0_4:0.00000063,1_0_7:0.00000087):0.00000765,1_0_3:0.00000095):0.00001505,(1_0_5:0.00001983,((1_0_12:0.00000319,1_0_9:0.00000938):0.00000384,1_0_8:0.00000585):0.00000012):0.00005503):0.00001351):0.00000631,1_0_11:0.00008600):0.00007515):0.07987946,(((((((6_0_7:0.00000861,6_0_0:0.00003849):0.00014512,((((6_0_2:0.00000309,6_0_15:0.00000033):0.00002211,((6_0_1:0.00000656,(6_0_14:0.00000087,6_0_4:0.00000104):0.00000200):0.00000307,6_0_3:0.00001188):0.00000151):0.00004441,6_0_12:0.00006533):0.00000177,(((6_0_10:0.00000609,(6_0_11:0.00000197,6_0_6:0.00000346):0.00000395):0.00000070,6_0_8:0.00000089):0.00001139,(6_0_13:0.00000679,(6_0_9:0.00000567,6_0_5:0.00000134):0.00000212):0.00005334):0.00004345):0.00011811):0.01714871,((((5_0_14:0.00002234,5_0_1:0.00002310):0.00001161,(5_0_7:0.00000951,(5_0_11:0.00001496,5_0_9:0.00000814):0.00000029):0.00000832):0.00000372,((5_0_13:0.00001194,(5_0_8:0.00000088,(5_0_12:0.00000022,5_0_10:0.00000005):0.00000294):0.00000165):0.00003640,(5_0_2:0.00001319,((5_0_3:0.00000023,5_0_6:0.00000013):0.00000049,(5_0_15:0.00000024,5_0_5:0.00000039):0.00000594):0.00000688):0.00002732):0.00000083):0.00003031,(5_0_4:0.00000000,5_0_0:0.00000005):0.00019861):0.00901215):0.00565270,(((4_0_13:0.00013093,((((4_0_9:0.00000122,(4_0_2:0.00000028,4_0_0:0.00000022):0.00000185):0.00000187,4_0_15:0.00000110):0.00000769,4_0_10:0.00000533):0.00000613,(4_0_14:0.00000249,4_0_6:0.00000078):0.00000325):0.00000711):0.00008904,(4_0_4:0.00001329,((4_0_12:0.00000533,4_0_11:0.00000202):0.00000852,(4_0_3:0.00001178,4_0_5:0.00001004):0.00000086):0.00000696):0.00004118):0.00033629,((4_0_1:0.00000096,4_0_7:0.00000025):0.00000072,4_0_8:0.00000612):0.00050540):0.01347152):0.05899269,((((((3_0_12:0.00000431,3_0_10:0.00000067):0.00003247,(3_0_8:0.00000327,3_0_13:0.00000087):0.00001641):0.00000328,(3_0_4:0.00001669,(3_0_6:0.00000011,3_0_11:0.00000176):0.00000639):0.00000160):0.00006996,((3_0_15:0.00000329,(3_0_7:0.00000105,3_0_9:0.00000019):0.00000594):0.00000884,(3_0_3:0.00000230,(3_0_2:0.00000917,3_0_5:0.00000426):0.00001065):0.00000235):0.00001256):0.00037696,(3_0_14:0.00000204,(3_0_0:0.00000166,3_0_1:0.00000375):0.00000012):0.00061245):0.05926976,(((((8_0_0:0.00000342,8_0_15:0.00000008):0.00011547,8_0_13:0.00007683):0.00001494,((8_0_14:0.00000611,8_0_12:0.00000114):0.00000195,(8_0_9:0.00000169,8_0_1:0.00000185):0.00001700):0.00007206):0.00028066,((8_0_5:0.00002694,(((8_0_4:0.00000395,8_0_11:0.00000711):0.00000117,8_0_10:0.00000177):0.00001319,(8_0_2:0.00000098,8_0_6:0.00000066):0.00000406):0.00001449):0.00015094,((8_0_8:0.00000448,8_0_7:0.00000097):0.00001509,8_0_3:0.00002046):0.00001388):0.00000023):0.01315209,(((((2_0_13:0.00000690,2_0_12:0.00000055):0.00000348,(2_0_14:0.00000445,(2_0_5:0.00000320,2_0_1:0.00000479):0.00000468):0.00000497):0.00007266,((2_0_9:0.00000310,2_0_10:0.00002640):0.00008390,((2_0_4:0.00001908,2_0_7:0.00000159):0.00001317,(2_0_8:0.00003276,2_0_2:0.00001171):0.00000026):0.00000160):0.00000735):0.00005883,((2_0_15:0.00000204,2_0_3:0.00000124):0.00005910,(2_0_11:0.00001967,(2_0_0:0.00000239,2_0_6:0.00000649):0.00000807):0.00000448):0.00010369):0.00059176,(((7_0_13:0.00000007,7_0_15:0.00000034):0.00004135,(((7_0_2:0.00001189,7_0_1:0.00000313):0.00000616,((7_0_5:0.00001801,7_0_7:0.00000524):0.00000029,7_0_3:0.00000967):0.00000439):0.00001093,((7_0_14:0.00000932,7_0_11:0.00000420):0.00000015,7_0_6:0.00000231):0.00002732):0.00001213):0.00008454,(7_0_10:0.00003054,(((7_0_12:0.00000116,7_0_4:0.00000058):0.00001571,7_0_9:0.00000839):0.00000365,(7_0_0:0.00000091,7_0_8:0.00000117):0.00004419):0.00003728):0.00002729):0.00008817):0.08216275):0.01757782):0.01693065):0.00589925,((9_0_12:0.00002846,(9_0_11:0.00002434,(((9_0_5:0.00000060,9_0_4:0.00000033):0.00001650,(9_0_2:0.00000151,9_0_10:0.00000273):0.00000295):0.00000142,9_0_0:0.00000254):0.00000077):0.00002700):0.00071142,((9_0_6:0.00000460,(9_0_3:0.00001168,(9_0_7:0.00000017,9_0_15:0.00000013):0.00000713):0.00000193):0.00002922,(((9_0_13:0.00000544,(9_0_8:0.00000366,9_0_1:0.00000328):0.00000502):0.00000891,9_0_14:0.00000264):0.00002759,9_0_9:0.00003747):0.00000197):0.00024628):0.22649973):0.00055996,((((10_0_13:0.00000315,(((10_0_12:0.00000004,10_0_14:0.00000008):0.00000009,10_0_4:0.00000061):0.00001001,10_0_2:0.00001465):0.00000037):0.00009263,((10_0_5:0.00000235,10_0_10:0.00001539):0.00002821,(10_0_6:0.00000197,(10_0_9:0.00000005,10_0_1:0.00000012):0.00000126):0.00000721):0.00000161):0.00002427,(((10_0_3:0.00001088,10_0_11:0.00001090):0.00000840,10_0_8:0.00005031):0.00000533,((10_0_7:0.00001016,10_0_0:0.00000088):0.00001412,10_0_15:0.00001181):0.00002089):0.00006391):0.06661758,((11_0_6:0.00000106,(11_0_15:0.00000263,11_0_13:0.00000109):0.00000439):0.00002417,(((11_0_4:0.00001121,((11_0_2:0.00000161,11_0_3:0.00000040):0.00000575,11_0_12:0.00001021):0.00000244):0.00000423,(((11_0_8:0.00000188,11_0_5:0.00000410):0.00000006,11_0_10:0.00000055):0.00000832,11_0_11:0.00002586):0.00002486):0.00006152,((11_0_0:0.00000528,11_0_14:0.00000495):0.00004717,((11_0_1:0.00001247,11_0_9:0.00000471):0.00000251,11_0_7:0.00002512):0.00008726):0.00001399):0.00005221):0.14309819):0.00826428):0.01119137):0.25586779);

data_06	T06	177	1	1	1.4743	0.526457	0.984707	(0_0_0:0.45824949,((((((((4_0_1:0.00000677,4_0_15:0.00000643):0.00000989,((4_0_5:0.00000027,4_0_3:0.00000024):0.00000090,4_0_2:0.00000090):0.00006266):0.00004414,(((4_0_9:0.00000163,4_0_13:0.00000744):0.00000263,(4_0_8:0.00000136,4_0_4:0.00000047):0.00000058):0.00005127,(4_0_12:0.00001222,((4_0_10:0.00000298,4_0_6:0.00000118):0.00000163,((4_0_11:0.00000580,4_0_14:0.00000382):0.00000025,(4_0_7:0.00000278,4_0_0:0.00000069):0.00000408):0.00001239):0.00000058):0.00000651):0.00005482):0.02743494,(((5_0_12:0.00005875,((((5_0_6:0.00000047,5_0_5:0.00000035):0.00002571,(5_0_15:0.00000461,5_0_10:0.00000930):0.00000017):0.00000603,5_0_11:0.00000599):0.00000627,((5_0_0:0.00000016,5_0_8:0.00000074):0.00001300,(5_0_2:0.00000234,5_0_4:0.00000821):0.00001769):0.00000903):0.00007903):0.00015816,(((5_0_1:0.00000442,5_0_13:0.00000203):0.00001015,5_0_3:0.00001426):0.00010217,(5_0_14:0.00000362,(5_0_7:0.00001661,5_0_9:0.00000697):0.00001117):0.00008896):0.00008803):0.03067950,(((6_0_3:0.00000003,6_0_15:0.00000026):0.00008597,(6_0_11:0.00000580,(6_0_12:0.00000853,(6_0_10:0.00000139,6_0_6:0.00000098):0.00002032):0.00000308):0.00005250):0.00008673,(((6_0_9:0.00000742,(6_0_4:0.00000433,6_0_0:0.00000899):0.00000335):0.00000093,6_0_13:0.00000399):0.00013882,(((6_0_8:0.00000703,6_0_5:0.00001056):0.00001416,(6_0_7:0.00000401,(6_0_1:0.00000585,6_0_2:0.00000135):0.00000183):0.00001080):0.00000276,6_0_14:0.00000700):0.00015985):0.00004460):0.01700587):0.00791934):0.03051995,((((((2_0_4:0.00001419,((2_0_5:0.00000811,2_0_2:0.00004327):0.00002592,(((2_0_11:0.00000049,2_0_3:0.00000021):0.00000290,2_0_13:0.00000267):0.00000408,2_0_1:0.00001213):0.00000384):0.00000191):0.00006992,(2_0_14:0.00005308,(2_0_6:0.00000933,(2_0_12:0.00000074,2_0_7:0.00000163):0.00000556):0.00008677):0.00001755):0.00001079,((2_0_8:0.00000532,2_0_15:0.00000263):0.00002155,((2_0_10:0.00000021,2_0_0:0.00000099):0.00000846,2_0_9:0.00003464):0.00000834):0.00002159):0.00020365,((((((7_0_0:0.00000917,7_0_9:0.00003279):0.00000169,7_0_1:0.00005308):0.00001441,(7_0_7:0.00003434,7_0_6:0.00001341):0.00001891):0.00001536,((7_0_12:0.00000270,7_0_10:0.00000011):0.00006625,(7_0_5:0.00001150,(7_0_4:0.00000356,7_0_14:0.00000538):0.00001040):0.00000615):0.00001132):0.00010357,(((7_0_2:0.00000204,7_0_11:0.00000136):0.00000366,(7_0_15:0.00000048,7_0_13:0.00000263):0.00000288):0.00000293,7_0_3:0.00000324):0.00005428):0.00000002,7_0_8:0.00010316):0.00035249):0.09093796,(((((8_0_12:0.00000248,8_0_5:0.00000865):0.00000235,8_0_4:0.00000283):0.00004851,(8_0_2:0.00000065,8_0_0:0.00000829):0.00005257):0.00001577,(((8_0_13:0.00000228,8_0_3:0.00000443):0.00000073,8_0_15:0.00000067):0.00004558,(((8_0_14:0.00000140,8_0_9:0.00000075):0.00000522,8_0_8:0.00000125):0.00000021,8_0_1:0.00000226):0.00006038):0.00001004):0.00012343,((8_0_7:0.00000542,8_0_11:0.00000328):0.00002106,(8_0_10:0.00000390,8_0_6:0.00000278):0.00000696):0.00028715):0.02560177):0.00719059,(((((3_0_13:0.00004360,3_0_10:0.00000704):0.00001650,((3_0_1:0.00000842,(3_0_6:0.00000923,(3_0_7:0.00000000,3_0_9:0.00000000):0.00000050):0.00000713):0.00001918,((3_0_2:0.00000063,3_0_12:0.00000143):0.00000694,3_0_15:0.00000371):0.00001408):0.00000221):0.00000005,3_0_11:0.00003956):0.00008575,((3_0_0:0.00000157,3_0_5:0.00000174):0.00000838,3_0_4:0.00001061):0.00006290):0.00005677,((3_0_14:0.00000176,3_0_3:0.00000498):0.00005861,3_0_8:0.00005271):0.00007704):0.02727715):0.00928003):0.01117000,((9_0_8:0.00000243,(9_0_0:0.00000063,(9_0_5:0.00000010,9_0_11:0.00000016):0.00000131):0.00000002):0.00016462,(((((9_0_3:0.00000459,9_0_12:0.00000115):0.00000005,(9_0_9:0.00000949,(9_0_14:0.00000344,9_0_10:0.00000260):0.00000279):0.00000049):0.00001541,(9_0_1:0.00000702,((9_0_4:0.00000645,(9_0_15:0.00000093,9_0_7:0.00000053):0.00000118):0.00000947,9_0_13:0.00000420):0.00000279):0.00000067):0.00000464,9_0_2:0.00003565):0.00001045,9_0_6:0.00002006):0.00000588):0.07764330):0.00077612,((((((10_0_8:0.00000220,10_0_9:0.00000119):0.00003254,(10_0_12:0.00000045,10_0_6:0.00000157):0.00001486):0.00000614,10_0_0:0.00002262):0.00015355,(10_0_14:0.00002617,(10_0_2:0.00000997,10_0_13:0.00000533):0.00000173):0.00005177):0.00005410,(((10_0_3:0.00000011,(10_0_10:0.00000033,10_0_5:0.00000018):0.00000082):0.00000888,(10_0_15:0.00000318,10_0_1:0.00000133):0.00000543):0.00004397,((10_0_4:0.00000491,10_0_7:0.00000864):0.00000163,10_0_11:0.00001721):0.00009569):0.00017769):0.05807428,((((((11_0_6:0.00000053,11_0_11:0.00000015):0.00000096,(11_0_7:0.00000078,11_0_10:0.00000061):0.00000378):0.00000190,11_0_1:0.00000775):0.00002018,((11_0_14:0.00000057,11_0_13:0.00000050):0.00000759,11_0_15:0.00000825):0.00000605):0.00001561,11_0_2:0.00001791):0.00009316,(((11_0_9:0.00000607,(11_0_5:0.00001291,11_0_4:0.00001081):0.00001668):0.00001812,11_0_3:0.00002770):0.00000492,(11_0_0:0.00003370,(11_0_12:0.00000320,11_0_8:0.00001360):0.00000446):0.00002215):0.00026349):0.01706774):0.00710767):0.03718462,((((((1_0_2:0.00000449,1_0_13:0.00000132):0.00000032,1_0_4:0.00000265):0.00000127,1_0_15:0.00000481):0.00001797,(1_0_3:0.00001658,(1_0_6:0.00000919,((1_0_7:0.00000091,(1_0_12:0.00000052,1_0_10:0.00000062):0.00000007):0.00002382,1_0_11:0.00001372):0.00000433):0.00000301):0.00002218):0.00001551,(1_0_14:0.00001013,1_0_1:0.00001544):0.00002218):0.00007017,(1_0_0:0.00017290,((1_0_9:0.00000672,1_0_8:0.00000411):0.00000521,1_0_5:0.00001129):0.00000840):0.00004501):0.41661826):0.10962118);

data_07	T07	177	1	1	1.22148	0.655729	0.744966	(0_0_0:0.08923675,(((((((9_0_12:0.00004949,((9_0_6:0.00000555,9_0_3:0.00000704):0.00000473,(9_0_11:0.00001147,9_0_1:0.00000249):0.00001905):0.00000993):0.00000585,(9_0_10:0.00000748,9_0_2:0.00000671):0.00002868):0.00000604,(9_0_15:0.00000250,(9_0_9:0.00000940,((9_0_4:0.00000122,9_0_5:0.00000099):0.00001512,9_0_7:0.00000459):0.00000021):0.00000880):0.00003731):0.00005190,((9_0_0:0.00000575,(9_0_8:0.00001365,9_0_14:0.00000040):0.00000016):0.00003395,9_0_13:0.00013106):0.00006098):0.00997209,(((((((((2_0_9:0.00000734,2_0_8:0.00000227):0.00000040,2_0_15:0.00000386):0.00004841,2_0_14:0.00004767):0.00002128,((2_0_6:0.00001264,(2_0_2:0.00001711,(2_0_10:0.00000555,2_0_5:0.00000207):0.00000072):0.00000362):0.00000301,(((2_0_7:0.00000332,2_0_11:0.00000347):0.00000748,(2_0_0:0.00000249,2_0_13:0.00000036):0.00002460):0.00000208,(2_0_1:0.00000998,2_0_4:0.00002218):0.00003975):0.00000756):0.00000279):0.00000592,(2_0_3:0.00016516,2_0_12:0.00010527):0.00000545):0.00031864,(((((7_0_8:0.00000803,((7_0_6:0.00000165,7_0_3:0.00000102):0.00000111,7_0_0:0.00000239):0.00000233):0.00001874,((7_0_2:0.00000070,7_0_14:0.00000026):0.00001138,7_0_13:0.00001351):0.00000067):0.00000280,(7_0_12:0.00000869,(7_0_5:0.00000085,7_0_7:0.00000409):0.00000514):0.00001947):0.00007155,(7_0_4:0.00004903,(7_0_11:0.00000540,7_0_1:0.00000993):0.00000197):0.00002294):0.00028427,(7_0_15:0.00000167,(7_0_9:0.00000051,7_0_10:0.00000592):0.00000061):0.00005772):0.00016499):0.03055025,(((8_0_10:0.00001245,((8_0_7:0.00000072,8_0_1:0.00000607):0.00000074,(8_0_13:0.00000094,8_0_15:0.00000142):0.00000419):0.00000061):0.00009810,((8_0_11:0.00000119,8_0_14:0.00000341):0.00001781,8_0_0:0.00000551):0.00003592):0.00004596,(8_0_3:0.00003488,((8_0_8:0.00000304,8_0_4:0.00001712):0.00001338,(8_0_6:0.00001272,(8_0_5:0.00000840,(8_0_12:0.00000284,(8_0_9:0.00000005,8_0_2:0.00000005):0.00000556):0.00000007):0.00000749):0.00001739):0.00003107):0.00004053):0.10933858):0.00849686,(((((3_0_10:0.00000129,3_0_11:0.00000223):0.00000485,3_0_1:0.00000922):0.00000602,3_0_13:0.00002184):0.00002902,(3_0_12:0.00000219,3_0_8:0.00003084):0.00015909):0.00006848,((((3_0_4:0.00000129,3_0_9:0.00000451):0.00001020,3_0_7:0.00004067):0.00005390,(3_0_15:0.00006885,(3_0_5:0.00000061,3_0_3:0.00000022):0.00000968):0.00000241):0.00004217,((3_0_2:0.00001081,(3_0_6:0.00000144,3_0_0:0.00000060):0.00000153):0.00000601,3_0_14:0.00005808):0.00025891):0.00016946):0.03517709):0.01054718,((((5_0_2:0.00000020,5_0_9:0.00000138):0.00009019,(5_0_4:0.00010602,(((((5_0_14:0.00000052,5_0_11:0.00000054):0.00000320,5_0_3:0.00000659):0.00000147,5_0_7:0.00000382):0.00000796,5_0_10:0.00000642):0.00002615,((((5_0_12:0.00000276,(5_0_13:0.00000136,5_0_15:0.00000124):0.00000000):0.00000017,5_0_8:0.00000172):0.00001806,((5_0_5:0.00000302,5_0_0:0.00000073):0.00000909,5_0_1:0.00001680):0.00001915):0.00000142,5_0_6:0.00004700):0.00000551):0.00000697):0.00015789):0.00490438,(((6_0_14:0.00003817,(6_0_2:0.00001207,6_0_6:0.00000447):0.00004997):0.00000072,((((6_0_3:0.00000519,6_0_7:0.00000238):0.00003113,(6_0_0:0.00001453,6_0_8:0.00001679):0.00000396):0.00004492,(6_0_11:0.00001830,(6_0_15:0.00000039,6_0_1:0.00000087):0.00003044):0.00001398):0.00000051,(((6_0_10:0.00000162,6_0_13:0.00000872):0.00000336,(6_0_12:0.00000165,6_0_9:0.00000134):0.00000705):0.00000579,6_0_4:0.00000464):0.00001173):0.00000618):0.00009603,6_0_5:0.00007704):0.00954155):0.00382578,(((4_0_13:0.00000052,4_0_1:0.00000051):0.00000378,4_0_10:0.00000603):0.00008593,(((4_0_8:0.00000878,4_0_7:0.00000226):0.00004980,((4_0_5:0.00000507,(4_0_4:0.00000999,(4_0_6:0.00000331,(4_0_0:0.00000121,4_0_11:0.00000532):0.00001031):0.00000084):0.00000062):0.00010983,(4_0_14:0.00001518,(4_0_9:0.00001141,(4_0_3:0.00000368,(4_0_2:0.00000033,4_0_15:0.00000099):0.00000245):0.00001191):0.00000741):0.00000539):0.00000390):0.00002844,4_0_12:0.00009841):0.00024851):0.05703578):0.03832191):0.00547038):0.00155289,((((10_0_15:0.00002133,(10_0_11:0.00000633,10_0_13:0.00000037):0.00000188):0.00000522,((10_0_0:0.00002640,((10_0_9:0.00000709,10_0_4:0.00000912):0.00000119,(10_0_1:0.00000147,10_0_2:0.00000044):0.00000428):0.00000105):0.00000541,(10_0_10:0.00001331,(10_0_6:0.00000040,10_0_3:0.00000131):0.00001100):0.00000771):0.00000258):0.00006676,(10_0_14:0.00000654,(10_0_5:0.00000452,((10_0_8:0.00000196,10_0_7:0.00000613):0.00000088,10_0_12:0.00000391):0.00000019):0.00000038):0.00009085):0.04001586,(((((11_0_14:0.00000363,11_0_9:0.00000106):0.00000001,(11_0_2:0.00000437,11_0_7:0.00000192):0.00000156):0.00001165,11_0_4:0.00001152):0.00009919,((11_0_8:0.00000561,11_0_0:0.00000420):0.00002987,(11_0_13:0.00015142,11_0_15:0.00000666):0.00000470):0.00000048):0.00011447,(((11_0_11:0.00001526,11_0_6:0.00000434):0.00000504,((11_0_3:0.00000193,11_0_1:0.00000313):0.00000277,11_0_5:0.00000729):0.00000102):0.00002914,(11_0_10:0.00000271,11_0_12:0.00000435):0.00006803):0.00005279):0.02885603):0.03656051):0.03951732,((((((1_0_4:0.00000126,1_0_7:0.00000069):0.00000390,1_0_11:0.00001036):0.00008471,(1_0_8:0.00001564,(1_0_13:0.00000430,1_0_10:0.00004157):0.00000245):0.00000710):0.00001461,((1_0_3:0.00000063,(1_0_5:0.00000005,1_0_14:0.00000001):0.00000018):0.00000062,(1_0_9:0.00000357,(1_0_2:0.00000122,1_0_1:0.00000064):0.00000039):0.00000006):0.00003018):0.00002987,1_0_0:0.00008550):0.00001609,((1_0_6:0.00000181,1_0_12:0.00000302):0.00000095,1_0_15:0.00000529):0.00012690):0.56026282):0.09531084);

data_08	T08	177	1	1	1.57786	0.598624	0.964218	(0_0_0:0.36559450,(((((1_0_12:0.00000171,1_0_2:0.00000043):0.00000138,1_0_10:0.00000258):0.00002040,1_0_1:0.00000708):0.00002261,(((1_0_9:0.00000241,1_0_15:0.00000126):0.00003641,(1_0_4:0.00000156,(1_0_7:0.00000191,1_0_6:0.00000035):0.00000021):0.00003256):0.00000307,((1_0_5:0.00000707,((1_0_0:0.00000024,1_0_8:0.00000003):0.00000298,1_0_14:0.00000338):0.00001833):0.00000966,((1_0_11:0.00000948,1_0_13:0.00000773):0.00000852,1_0_3:0.00002716):0.00000880):0.00001512):0.00010618):0.05562312,((((9_0_9:0.00000765,(9_0_14:0.00000806,(9_0_7:0.00000056,9_0_8:0.00000108):0.00000159):0.00000133):0.00001319,((((9_0_12:0.00000582,9_0_1:0.00000646):0.00000553,9_0_0:0.00000836):0.00000569,9_0_13:0.00003162):0.00003542,(((9_0_15:0.00003893,9_0_10:0.00002557):0.00000317,(9_0_2:0.00000004,9_0_4:0.00000004):0.00003258):0.00000612,((9_0_3:0.00000737,(9_0_5:0.00000241,9_0_11:0.00000139):0.00000023):0.00000428,9_0_6:0.00004309):0.00001073):0.00001272):0.00001525):0.11014090,(((3_0_2:0.00005285,(((((3_0_3:0.00000160,3_0_7:0.00000076):0.00003015,3_0_8:0.00007316):0.00000696,(3_0_10:0.00000008,3_0_6:0.00002177):0.00002904):0.00002530,(3_0_11:0.00001121,((3_0_9:0.00000039,3_0_4:0.00000003):0.00001318,((3_0_1:0.00000062,3_0_13:0.00000237):0.00000320,(3_0_12:0.00000057,3_0_15:0.00000017):0.00000383):0.00000192):0.00000081):0.00003523):0.00000432,(3_0_14:0.00001092,(3_0_5:0.00001397,3_0_0:0.00001109):0.00000557):0.00003037):0.00007231):0.14864224,((((7_0_7:0.00001597,(((7_0_3:0.00000353,7_0_14:0.00000159):0.00000062,((7_0_15:0.00000160,7_0_11:0.00000223):0.00000023,(7_0_2:0.00000307,7_0_1:0.00000092):0.00000027):0.00000055):0.00001664,7_0_13:0.00000722):0.00000419):0.00004491,((((7_0_6:0.00000149,7_0_12:0.00000753):0.00000700,(7_0_0:0.00000584,(7_0_10:0.00000079,7_0_9:0.00000042):0.00000148):0.00000486):0.00015347,(7_0_4:0.00000026,7_0_5:0.00000013):0.00001677):0.00004963,7_0_8:0.00004688):0.00005918):0.00011391,(((2_0_7:0.00018638,((2_0_4:0.00000900,((2_0_13:0.00000033,2_0_6:0.00000186):0.00000002,2_0_11:0.00000085):0.00000882):0.00000961,((2_0_9:0.00000027,2_0_3:0.00000017):0.00000163,(2_0_0:0.00000070,2_0_1:0.00000022):0.00000225):0.00005780):0.00005145):0.00000662,(2_0_12:0.00012040,(2_0_8:0.00000760,2_0_14:0.00000216):0.00004876):0.00001010):0.00000836,((2_0_10:0.00000846,2_0_15:0.00000006):0.00000130,(2_0_5:0.00000241,2_0_2:0.00000278):0.00000113):0.00002421):0.00005454):0.04278389,(8_0_4:0.00003557,(((((8_0_2:0.00001646,8_0_0:0.00001460):0.00001018,(8_0_3:0.00000194,(8_0_9:0.00000634,8_0_11:0.00000881):0.00000496):0.00003032):0.00000474,((8_0_15:0.00000327,8_0_12:0.00000108):0.00000670,((8_0_14:0.00000117,(8_0_6:0.00000001,8_0_10:0.00000020):0.00000300):0.00000063,8_0_7:0.00000323):0.00000054):0.00001493):0.00002950,(8_0_13:0.00000281,8_0_5:0.00000320):0.00004206):0.00023490,(8_0_1:0.00000166,8_0_8:0.00000372):0.00008291):0.00009087):0.01281839):0.01594228):0.03724437,((((((5_0_12:0.00000001,5_0_5:0.00000014):0.00000242,((5_0_1:0.00000646,5_0_0:0.00002889):0.00000013,5_0_11:0.00000364):0.00000114):0.00001928,(((5_0_15:0.00000132,5_0_9:0.00000859):0.00000035,5_0_10:0.00001151):0.00000146,5_0_14:0.00000664):0.00001645):0.00000249,((5_0_2:0.00000622,5_0_4:0.00000196):0.00000180,(5_0_8:0.00000661,(5_0_13:0.00000602,((5_0_7:0.00000332,5_0_3:0.00000477):0.00000109,5_0_6:0.00001675):0.00000384):0.00000355):0.00003521):0.00001905):0.02753599,((((6_0_7:0.00000174,6_0_8:0.00000036):0.00000025,6_0_14:0.00000288):0.00004784,(((6_0_4:0.00000257,6_0_11:0.00001133):0.00000133,6_0_2:0.00000435):0.00000401,((6_0_12:0.00001047,6_0_1:0.00000248):0.00001533,(6_0_13:0.00000363,6_0_6:0.00000235):0.00000417):0.00000974):0.00006401):0.00001570,((6_0_3:0.00000191,(6_0_10:0.00000009,6_0_0:0.00000044):0.00001075):0.00006335,(6_0_15:0.00005897,(6_0_9:0.00000008,6_0_5:0.00000055):0.00007683):0.00005345):0.00001142):0.02182511):0.00984840,((((4_0_1:0.00000305,4_0_5:0.00000675):0.00004654,(4_0_8:0.00003870,4_0_12:0.00001677):0.00000409):0.00001576,(((4_0_0:0.00000308,4_0_4:0.00000463):0.00000622,4_0_14:0.00001115):0.00002185,((4_0_2:0.00000506,4_0_15:0.00001862):0.00000898,4_0_3:0.00004086):0.00001458):0.00003115):0.00010838,((4_0_7:0.00000270,(4_0_6:0.00000706,(4_0_13:0.00000047,4_0_11:0.00000012):0.00001331):0.00001492):0.00004761,(4_0_9:0.00000715,4_0_10:0.00000254):0.00001517):0.00003593):0.03775926):0.05521497):0.00363875):0.00041849,((((((10_0_8:0.00000658,(10_0_6:0.00000037,10_0_12:0.00000035):0.00000372):0.00005300,(10_0_13:0.00000529,10_0_9:0.00000136):0.00002168):0.00004948,((10_0_5:0.00000088,(10_0_2:0.00000372,10_0_4:0.00000132):0.00000594):0.00000051,((10_0_3:0.00000090,10_0_11:0.00000376):0.00000008,(10_0_10:0.00000022,10_0_14:0.00000020):0.00000150):0.00000851):0.00005012):0.00007237,((10_0_7:0.00000480,10_0_1:0.00000528):0.00003009,10_0_0:0.00008696):0.00000241):0.00008153,10_0_15:0.00008154):0.03181019,((((11_0_4:0.00000867,((11_0_10:0.00000095,(11_0_14:0.00000018,11_0_11:0.00000037):0.00000270):0.00000207,11_0_8:0.00000709):0.00000531):0.00003892,(11_0_12:0.00003021,11_0_7:0.00002685):0.00001420):0.00005860,((11_0_0:0.00000109,11_0_2:0.00000098):0.00002622,11_0_5:0.00008371):0.00002635):0.00005589,((11_0_1:0.00012848,((11_0_3:0.00000483,11_0_15:0.00000527):0.00001166,(11_0_6:0.00001092,11_0_9:0.00000266):0.00002196):0.00000590):0.00003409,11_0_13:0.00002725):0.00008961):0.16366723):0.02326045):0.05003908):0.35845871);

data_09	T09	177	1	1	1.94277	0.818728	1.4448	(0_0_0:0.81872836,(((1_0_11:0.00000383,1_0_2:0.00001119):0.00001186,((1_0_9:0.00001391,((1_0_15:0.00000004,1_0_0:0.00000127):0.00000080,1_0_7:0.00000036):0.00004084):0.00002552,(((1_0_8:0.00000066,1_0_5:0.00000678):0.00001462,(1_0_6:0.00002329,((1_0_4:0.00000006,1_0_10:0.00000017):0.00000910,1_0_3:0.00001018):0.00000168):0.00000562):0.00003764,((1_0_12:0.00000358,(1_0_14:0.00000248,1_0_13:0.00000161):0.00000140):0.00011820,1_0_1:0.00006971):0.00002177):0.00000226):0.00003013):0.20416187,((((((11_0_12:0.00007094,(11_0_3:0.00002340,11_0_13:0.00002601):0.00000245):0.00004241,(11_0_11:0.00000273,11_0_14:0.00000292):0.00002393):0.00005595,(11_0_2:0.00001361,(11_0_10:0.00004565,((11_0_9:0.00000209,(11_0_8:0.00000031,11_0_7:0.00000077):0.00000556):0.00000149,11_0_15:0.00001918):0.00000572):0.00002328):0.00010865):0.00001920,(((11_0_5:0.00000544,11_0_4:0.00000011):0.00000150,(11_0_0:0.00000031,11_0_1:0.00000013):0.00000048):0.00000946,11_0_6:0.00004930):0.00019185):0.04967405,((10_0_12:0.00023590,(((10_0_0:0.00000393,10_0_14:0.00001105):0.00000026,(10_0_11:0.00000083,10_0_1:0.00000077):0.00000598):0.00003080,(10_0_10:0.00000084,10_0_3:0.00000463):0.00006083):0.00000679):0.00000323,(((((10_0_9:0.00000079,10_0_7:0.00000162):0.00000477,10_0_4:0.00001809):0.00000168,10_0_6:0.00002021):0.00001629,(10_0_2:0.00000317,10_0_5:0.00000498):0.00000353):0.00003411,((10_0_8:0.00001656,10_0_15:0.00001427):0.00000205,10_0_13:0.00001318):0.00002960):0.00004923):0.01454967):0.00637651,((((9_0_7:0.00002605,((9_0_1:0.00000062,9_0_14:0.00000237):0.00000087,9_0_0:0.00000450):0.00001336):0.00004074,(9_0_13:0.00000028,9_0_12:0.00000072):0.00004044):0.00002741,(((9_0_11:0.00000976,(9_0_9:0.00000745,9_0_6:0.00000072):0.00000014):0.00003999,(9_0_2:0.00000729,9_0_4:0.00003264):0.00002301):0.00002197,(9_0_5:0.00000830,((9_0_15:0.00000310,9_0_3:0.00000785):0.00000346,(9_0_8:0.00000628,9_0_10:0.00000435):0.00000504):0.00000521):0.00002349):0.00002295):0.08760550,(((((4_0_8:0.00003379,(4_0_1:0.00001400,(4_0_14:0.00000219,4_0_11:0.00000084):0.00000458):0.00000764):0.00007703,((4_0_6:0.00000993,4_0_2:0.00000684):0.00001698,4_0_15:0.00001924):0.00016620):0.00001332,(4_0_5:0.00010391,((((4_0_3:0.00000044,4_0_9:0.00000903):0.00000013,4_0_13:0.00000250):0.00000646,4_0_0:0.00000713):0.00000002,(((4_0_4:0.00000782,4_0_10:0.00000191):0.00000132,4_0_12:0.00000278):0.00000126,4_0_7:0.00000401):0.00000561):0.00001255):0.00006027):0.02644308,((((6_0_0:0.00000371,6_0_12:0.00000491):0.00001663,(6_0_8:0.00000370,6_0_1:0.00000588):0.00006266):0.00029450,((6_0_5:0.00002651,6_0_6:0.00005158):0.00010400,(((6_0_2:0.00000383,6_0_10:0.00000332):0.00002581,(6_0_13:0.00000026,6_0_7:0.00000209):0.00000552):0.00002966,((((6_0_4:0.00000216,6_0_9:0.00000060):0.00001417,6_0_15:0.00001890):0.00000067,6_0_11:0.00001093):0.00000271,(6_0_14:0.00000136,6_0_3:0.00000131):0.00000271):0.00002050):0.00009789):0.00006367):0.01075997,(((5_0_0:0.00001022,5_0_9:0.00001420):0.00004781,5_0_7:0.00015105):0.00005816,(((5_0_4:0.00000178,((5_0_5:0.00000002,5_0_3:0.00000019):0.00000257,(5_0_15:0.00000150,5_0_14:0.00000149):0.00000009):0.00000125):0.00000841,5_0_2:0.00000302):0.00002820,((5_0_1:0.00001624,(5_0_12:0.00001180,((5_0_10:0.00000281,5_0_11:0.00000080):0.00000464,(5_0_6:0.00000119,5_0_8:0.00000006):0.00000121):0.00000566):0.00002266):0.00000270,5_0_13:0.00000982):0.00000079):0.00008113):0.01045961):0.00385082):0.04458930,((((((7_0_10:0.00000814,7_0_5:0.00000588):0.00001885,7_0_8:0.00001621):0.00022465,(((2_0_5:0.00000751,(2_0_7:0.00001020,2_0_1:0.00001571):0.00001939):0.00007075,(((2_0_15:0.00001788,(2_0_0:0.00000314,2_0_11:0.00000584):0.00000604):0.00000526,(2_0_14:0.00001222,((((2_0_8:0.00000062,2_0_4:0.00000048):0.00000101,2_0_2:0.00000244):0.00000005,2_0_10:0.00000013):0.00000077,2_0_12:0.00000146):0.00001266):0.00000956):0.00006280,2_0_6:0.00000830):0.00001008):0.00001934,((2_0_3:0.00000158,2_0_9:0.00000315):0.00001371,2_0_13:0.00002841):0.00002970):0.00008758):0.00008449,((((7_0_6:0.00000181,(7_0_0:0.00000058,7_0_7:0.00000103):0.00000373):0.00000354,7_0_3:0.00001564):0.00003380,(7_0_12:0.00000161,7_0_14:0.00000281):0.00000333):0.00008944,(((7_0_9:0.00000042,7_0_11:0.00000183):0.00001540,7_0_2:0.00000082):0.00002930,(7_0_4:0.00001694,(7_0_13:0.00000895,(7_0_15:0.00000794,7_0_1:0.00000278):0.00000630):0.00002325):0.00001381):0.00002169):0.00013618):0.07284675,(8_0_13:0.00020445,(((8_0_12:0.00000694,8_0_6:0.00000391):0.00000514,8_0_2:0.00001479):0.00004967,(((((8_0_11:0.00000161,8_0_8:0.00000584):0.00001358,((8_0_15:0.00000088,8_0_0:0.00000071):0.00001519,8_0_9:0.00002008):0.00000000):0.00000023,8_0_3:0.00000289):0.00001648,8_0_10:0.00001864):0.00000180,((8_0_1:0.00000539,((8_0_5:0.00000108,8_0_14:0.00000211):0.00000199,8_0_4:0.00000395):0.00000236):0.00003581,8_0_7:0.00000519):0.00001441):0.00013717):0.00000334):0.00987943):0.00942741,(((3_0_13:0.00000529,(3_0_0:0.00000026,3_0_3:0.00000571):0.00000130):0.00002008,((3_0_12:0.00002914,3_0_5:0.00009734):0.00001673,(((3_0_2:0.00000020,3_0_7:0.00000043):0.00000475,(3_0_15:0.00000091,3_0_14:0.00000095):0.00000018):0.00001320,(3_0_8:0.00000381,3_0_9:0.00000239):0.00000474):0.00000098):0.00000289):0.00008413,((3_0_4:0.00000446,(3_0_6:0.00001180,(3_0_1:0.00001887,3_0_10:0.00000439):0.00000251):0.00000096):0.00001332,3_0_11:0.00004534):0.00092002):0.02257854):0.00559215):0.00626148):0.00162285):0.15483205):0.37515539);

data_10	T10	177	1	1	0.82739	0.236161	0.418638	(0_0_0:0.18247753,((((1_0_5:0.00002270,((1_0_6:0.00000001,1_0_2:0.00000005):0.00000921,(1_0_0:0.00000190,1_0_10:0.00000061):0.00000063):0.00001573):0.00001359,(1_0_8:0.00000541,1_0_11:0.00000365):0.00004137):0.00003818,(((((1_0_7:0.00000034,1_0_15:0.00000061):0.00000098,(1_0_13:0.00000413,(1_0_4:0.00000581,1_0_1:0.00000045):0.00000082):0.00000818):0.00000136,1_0_9:0.00001210):0.00006960,1_0_12:0.00006420):0.00000121,(1_0_14:0.00000569,1_0_3:0.00000357):0.00004541):0.00000679):0.09869112,((((((((3_0_4:0.00000175,3_0_10:0.00000056):0.00000270,3_0_9:0.00000347):0.00010298,(3_0_12:0.00000345,(3_0_0:0.00000187,3_0_3:0.00000722):0.00000027):0.00001977):0.00024409,(((3_0_13:0.00000070,3_0_11:0.00001509):0.00000980,3_0_5:0.00001895):0.00013506,(((3_0_15:0.00002873,(3_0_1:0.00000741,3_0_2:0.00001006):0.00001002):0.00000300,(3_0_7:0.00000187,3_0_6:0.00000578):0.00001135):0.00000108,(3_0_14:0.00000138,3_0_8:0.00000299):0.00001094):0.00023908):0.00032157):0.03689530,(((((8_0_0:0.00001311,(((8_0_15:0.00000162,8_0_14:0.00000023):0.00001499,((8_0_7:0.00000140,8_0_10:0.00000055):0.00000751,(((8_0_12:0.00000008,8_0_9:0.00000001):0.00000041,8_0_2:0.00000096):0.00000353,8_0_5:0.00000490):0.00000337):0.00000229):0.00000364,(8_0_13:0.00000195,8_0_1:0.00000065):0.00000493):0.00000352):0.00000553,8_0_4:0.00001223):0.00002428,(8_0_11:0.00000468,8_0_3:0.00000697):0.00001759):0.00018275,(8_0_6:0.00000273,8_0_8:0.00000117):0.00032959):0.00541478,((((7_0_7:0.00001319,7_0_12:0.00000462):0.00005504,(7_0_15:0.00001879,((7_0_13:0.00000001,7_0_8:0.00000003):0.00001205,(((((7_0_0:0.00000392,7_0_6:0.00000101):0.00000057,7_0_14:0.00000438):0.00000146,7_0_2:0.00000582):0.00000210,(7_0_9:0.00000542,7_0_4:0.00000212):0.00000533):0.00000075,7_0_1:0.00000892):0.00000205):0.00005179):0.00003079):0.00003373,((7_0_11:0.00000467,7_0_3:0.00000882):0.00008828,(7_0_5:0.00001400,7_0_10:0.00001979):0.00005872):0.00002161):0.00004828,((2_0_13:0.00000331,(2_0_4:0.00000741,(2_0_1:0.00000001,2_0_0:0.00000001):0.00000281):0.00000454):0.00000365,(((2_0_5:0.00000101,2_0_7:0.00000015):0.00004064,((2_0_14:0.00000048,2_0_8:0.00000328):0.00003996,(2_0_3:0.00000242,(2_0_6:0.00000199,(2_0_9:0.00000012,2_0_11:0.00000013):0.00000111):0.00000544):0.00001031):0.00000037):0.00005984,(((2_0_2:0.00000165,2_0_15:0.00000134):0.00000112,2_0_12:0.00000106):0.00001966,2_0_10:0.00003206):0.00009689):0.00000245):0.00003439):0.01993556):0.00318304):0.01516980,(((((4_0_11:0.00001637,4_0_9:0.00005625):0.00001418,(4_0_0:0.00004453,4_0_6:0.00003036):0.00000606):0.00000200,((((4_0_10:0.00000050,(4_0_4:0.00000060,4_0_5:0.00000019):0.00000162):0.00000515,4_0_2:0.00000760):0.00000216,(4_0_15:0.00000308,4_0_12:0.00001027):0.00000666):0.00000746,(4_0_8:0.00000451,(4_0_1:0.00000115,4_0_7:0.00000025):0.00000793):0.00002539):0.00005104):0.00000400,(4_0_3:0.00006678,(4_0_13:0.00000049,4_0_14:0.00000013):0.00002781):0.00004373):0.01388679,(((6_0_6:0.00008436,(6_0_10:0.00000144,6_0_9:0.00000494):0.00013487):0.00007072,(((((6_0_11:0.00000880,6_0_7:0.00002287):0.00000567,6_0_8:0.00000815):0.00000347,(6_0_5:0.00000130,6_0_0:0.00000190):0.00002255):0.00000777,(6_0_3:0.00001436,(6_0_15:0.00000404,6_0_14:0.00000654):0.00000351):0.00000623):0.00001770,(((6_0_2:0.00001167,6_0_1:0.00000445):0.00001750,(6_0_13:0.00000506,6_0_12:0.00000427):0.00002585):0.00001384,6_0_4:0.00002016):0.00000033):0.00011236):0.01967399,((5_0_8:0.00002838,((5_0_11:0.00001530,5_0_0:0.00000529):0.00000743,(5_0_2:0.00004692,(5_0_10:0.00000108,(5_0_13:0.00000309,5_0_4:0.00001589):0.00000055):0.00000786):0.00001828):0.00000512):0.00011564,(((5_0_5:0.00000961,5_0_7:0.00000129):0.00004399,(5_0_1:0.00000309,((5_0_14:0.00000082,(5_0_3:0.00000291,5_0_6:0.00000032):0.00000059):0.00000536,5_0_9:0.00000095):0.00000315):0.00011304):0.00003332,(5_0_12:0.00000946,5_0_15:0.00000637):0.00009076):0.00001062):0.01138595):0.00554818):0.05602559):0.00229666,(9_0_14:0.00016103,((((9_0_2:0.00000058,9_0_12:0.00000219):0.00000165,(9_0_11:0.00001704,9_0_1:0.00000904):0.00000681):0.00000131,9_0_6:0.00000661):0.00000607,(((((9_0_5:0.00000149,9_0_3:0.00000044):0.00000303,9_0_0:0.00000225):0.00000082,9_0_10:0.00002253):0.00002561,9_0_13:0.00001698):0.00000893,((9_0_8:0.00000881,9_0_15:0.00002063):0.00000484,(9_0_4:0.00000261,(9_0_9:0.00000004,9_0_7:0.00000034):0.00000016):0.00000880):0.00000510):0.00000187):0.00000152):0.13051271):0.00135619,((((((10_0_1:0.00000463,((10_0_7:0.00000070,10_0_5:0.00001232):0.00000158,10_0_15:0.00000207):0.00000882):0.00000408,10_0_3:0.00002724):0.00000596,((10_0_4:0.00000068,10_0_12:0.00000037):0.00000050,((10_0_11:0.00000274,((10_0_13:0.00000142,10_0_6:0.00000060):0.00000010,10_0_8:0.00000142):0.00000262):0.00000169,10_0_0:0.00000923):0.00000218):0.00000434):0.00000523,10_0_9:0.00010797):0.00001261,((10_0_2:0.00000131,10_0_14:0.00000434):0.00007082,10_0_10:0.00007064):0.00000679):0.09133103,(((((11_0_8:0.00000069,11_0_12:0.00000120):0.00000870,(11_0_4:0.00000631,11_0_9:0.00001296):0.00000311):0.00000595,11_0_6:0.00000874):0.00006316,11_0_0:0.00008131):0.00001194,((11_0_5:0.00000537,11_0_15:0.00001140):0.00000716,((11_0_3:0.00000215,(11_0_1:0.00000136,11_0_13:0.00000099):0.00000113):0.00005095,(((11_0_7:0.00000180,(11_0_11:0.00000246,11_0_2:0.00000060):0.00000330):0.00000090,11_0_14:0.00000750):0.00001141,11_0_10:0.00001130):0.00007134):0.00000164):0.00000538):0.00535129):0.01812404):0.01433981):0.08979087);
