Tree file : INDELible V1.03 (best viewed cut and paste in e.g. excel)

N.B. Simulation blocks with no random trees will have their trees printed for the first replicate only.

FILE	TREE	NTAXA	REP	PART	LENGTH	DEPTH	MAX PAIRWISE DISTANCE	TREE STRING

data_01	T01	49	1	1	0.455565	0.336275	0.366093	((((((((3_0_7:0.00001586,(3_0_5:0.00000098,(3_0_2:0.00000061,3_0_11:0.00000038):0.00000007):0.00001029):0.00000968,3_0_6:0.00003590):0.00000007,(3_0_0:0.00000735,3_0_4:0.00000989):0.00000795):0.00005515,((3_0_10:0.00000589,(3_0_9:0.00000003,3_0_3:0.00000013):0.00005484):0.00000159,3_0_1:0.00000588):0.00009880):0.00023482,3_0_8:0.00005167):0.01439759,(((((4_0_2:0.00001002,4_0_6:0.00000345):0.00002716,(4_0_10:0.00001445,4_0_0:0.00001732):0.00000253):0.00001148,4_0_3:0.00001299):0.00001165,4_0_8:0.00004699):0.00000371,((4_0_9:0.00000313,4_0_11:0.00000329):0.00000205,((4_0_1:0.00001089,4_0_5:0.00000239):0.00000144,(4_0_4:0.00000245,4_0_7:0.00000398):0.00000291):0.00000021):0.00003851):0.00511653):0.06224486,(((2_0_11:0.00004310,(((2_0_6:0.00000727,2_0_3:0.00000063):0.00002174,2_0_7:0.00000684):0.00002546,(((2_0_8:0.00000375,2_0_9:0.00000157):0.00000558,2_0_10:0.00000340):0.00006925,(2_0_2:0.00000325,2_0_4:0.00000238):0.00008340):0.00000564):0.00000291):0.00000253,(2_0_1:0.00002421,(2_0_0:0.00000286,2_0_5:0.00000322):0.00006884):0.00000101):0.00616406,((1_0_0:0.00000210,1_0_10:0.00000114):0.00017689,(((((1_0_9:0.00000291,1_0_2:0.00000176):0.00000369,1_0_5:0.00000844):0.00001789,(1_0_11:0.00000497,1_0_6:0.00000883):0.00000334):0.00001523,(1_0_4:0.00000575,1_0_1:0.00000111):0.00001750):0.00002581,((1_0_8:0.00002308,1_0_3:0.00000721):0.00001572,1_0_7:0.00001453):0.00016758):0.00001578):0.00975001):0.21766952):0.10863321,0_0_0:0.02981852);

data_02	T02	49	1	1	0.545028	0.428438	0.477019	((((((((4_0_7:0.00000205,4_0_10:0.00001100):0.00000105,4_0_0:0.00000076):0.00000035,4_0_1:0.00002362):0.00002351,4_0_3:0.00011886):0.00018801,(((4_0_9:0.00000630,4_0_8:0.00001099):0.00002091,((4_0_4:0.00000700,4_0_11:0.00000037):0.00001683,(4_0_2:0.00000563,4_0_5:0.00001092):0.00002033):0.00000042):0.00003278,4_0_6:0.00004775):0.00001222):0.02472561,(((3_0_10:0.00001105,(((3_0_5:0.00000748,3_0_6:0.00000075):0.00000011,3_0_1:0.00000245):0.00000067,(3_0_2:0.00000245,3_0_4:0.00000191):0.00001411):0.00000286):0.00000241,(3_0_9:0.00001726,3_0_11:0.00000922):0.00000625):0.00004219,((3_0_3:0.00001023,(3_0_7:0.00000638,3_0_8:0.00000190):0.00000498):0.00000301,3_0_0:0.00000490):0.00002350):0.00778293):0.22314072,((((2_0_7:0.00000668,2_0_3:0.00000314):0.00000808,((((2_0_0:0.00000268,2_0_9:0.00000224):0.00000665,2_0_6:0.00000925):0.00000055,2_0_1:0.00002231):0.00000030,2_0_2:0.00001879):0.00000149):0.00009029,(2_0_8:0.00012322,(2_0_5:0.00000659,((2_0_11:0.00000122,2_0_10:0.00000579):0.00000133,2_0_4:0.00000683):0.00000272):0.00002173):0.00004563):0.00465286,(((1_0_11:0.00000792,(1_0_3:0.00000532,(1_0_8:0.00000007,1_0_5:0.00000003):0.00000555):0.00001269):0.00003059,((1_0_0:0.00001094,(1_0_7:0.00001265,((1_0_2:0.00000192,1_0_9:0.00000197):0.00000581,1_0_1:0.00000341):0.00000723):0.00000504):0.00003465,(1_0_4:0.00000655,1_0_10:0.00000622):0.00007811):0.00002414):0.00017697,1_0_6:0.00009903):0.00899866):0.04521919):0.18026523,0_0_0:0.04858086);

data_03	T03	49	1	1	0.3295	0.164331	0.244496	((((((((1_0_8:0.00000316,(1_0_10:0.00000741,(1_0_4:0.00000363,1_0_6:0.00001211):0.00000134):0.00000236):0.00000702,1_0_9:0.00002246):0.00002974,1_0_3:0.00003017):0.00000250,(1_0_1:0.00000858,(1_0_2:0.00000291,1_0_5:0.00001642):0.00000143):0.00004233):0.00006844,((1_0_11:0.00001212,1_0_0:0.00001961):0.00000023,1_0_7:0.00001520):0.00010254):0.00390683,((2_0_1:0.00000025,(2_0_0:0.00000023,2_0_3:0.00000018):0.00000085):0.00005619,((2_0_7:0.00003736,(((2_0_5:0.00000048,2_0_6:0.00000028):0.00001514,2_0_4:0.00001258):0.00001501,(2_0_2:0.00001674,2_0_9:0.00000260):0.00001921):0.00000304):0.00001964,((2_0_8:0.00000278,2_0_10:0.00000064):0.00001310,2_0_11:0.00001113):0.00004070):0.00002021):0.00310756):0.05235297,((((3_0_6:0.00000739,3_0_9:0.00000100):0.00002448,(((3_0_0:0.00000040,(3_0_3:0.00000067,3_0_5:0.00000040):0.00000056):0.00001043,3_0_7:0.00001455):0.00000890,((3_0_11:0.00000175,3_0_2:0.00000057):0.00000786,(3_0_8:0.00000067,3_0_1:0.00000032):0.00001540):0.00002331):0.00000764):0.00012038,(3_0_4:0.00000397,3_0_10:0.00000101):0.00021143):0.02616456,((((4_0_7:0.00000487,4_0_11:0.00000282):0.00000316,(((4_0_4:0.00000056,4_0_0:0.00000062):0.00000016,(4_0_8:0.00000104,4_0_9:0.00000064):0.00000138):0.00000082,(4_0_2:0.00000162,4_0_6:0.00000298):0.00000075):0.00001189):0.00000181,(4_0_5:0.00002476,4_0_1:0.00001232):0.00000465):0.00001640,(4_0_3:0.00000542,4_0_10:0.00001149):0.00006492):0.02451421):0.12004199):0.01790904,0_0_0:0.08016492);

data_04	T04	49	1	1	0.980949	0.789556	0.910352	(0_0_0:0.78955557,(((((((3_0_7:0.00000251,3_0_2:0.00000472):0.00001056,3_0_9:0.00002615):0.00001367,(3_0_4:0.00001071,3_0_8:0.00000957):0.00000442):0.00000194,(3_0_0:0.00000038,3_0_1:0.00000071):0.00002270):0.00001180,(((3_0_3:0.00000006,3_0_11:0.00000007):0.00000127,(3_0_5:0.00000056,3_0_10:0.00000020):0.00000191):0.00000032,3_0_6:0.00000134):0.00009926):0.00788088,(((((4_0_8:0.00000192,4_0_5:0.00000037):0.00000588,(4_0_11:0.00000433,4_0_0:0.00000421):0.00000302):0.00000070,4_0_7:0.00000474):0.00001292,(4_0_1:0.00001461,4_0_9:0.00000789):0.00001440):0.00000303,(((4_0_2:0.00000825,4_0_6:0.00000167):0.00000674,4_0_3:0.00001617):0.00000229,(4_0_10:0.00000085,4_0_4:0.00000330):0.00001285):0.00000954):0.03857688):0.04875790,(((((2_0_4:0.00000034,2_0_7:0.00000098):0.00005025,((2_0_1:0.00000127,2_0_5:0.00000061):0.00000263,2_0_9:0.00001234):0.00001566):0.00002985,(((2_0_2:0.00000008,2_0_0:0.00000052):0.00000194,2_0_10:0.00000069):0.00000211,2_0_3:0.00000332):0.00001657):0.00002345,((2_0_6:0.00000043,2_0_11:0.00000300):0.00001143,2_0_8:0.00002372):0.00003401):0.00457708,(1_0_6:0.00054172,((1_0_3:0.00002785,(1_0_8:0.00005577,(1_0_2:0.00001164,1_0_0:0.00000248):0.00000552):0.00000786):0.00000254,(((1_0_10:0.00000119,1_0_5:0.00000150):0.00000020,1_0_7:0.00000108):0.00000146,(((1_0_11:0.00000024,1_0_4:0.00000023):0.00000025,1_0_9:0.00000043):0.00000087,1_0_1:0.00000009):0.00000005):0.00001311):0.00013549):0.00338474):0.05337441):0.03342985);

data_05	T05	49	1	1	0.702561	0.362845	0.613717	(((((4_0_10:0.00009124,((4_0_3:0.00000228,(4_0_1:0.00003741,(4_0_4:0.00001223,4_0_5:0.00000515):0.00002581):0.00000122):0.00000009,4_0_7:0.00003097):0.00004431):0.00008776,(4_0_2:0.00003465,((((4_0_6:0.00000010,4_0_0:0.00000056):0.00000380,4_0_9:0.00000100):0.00001231,4_0_11:0.00000612):0.00000572,4_0_8:0.00001250):0.00000880):0.00014227):0.01065525,((3_0_11:0.00000418,((3_0_8:0.00000413,3_0_5:0.00000113):0.00000690,((3_0_10:0.00000818,(3_0_3:0.00000478,3_0_6:0.00000432):0.00000058):0.00000917,(3_0_7:0.00001141,3_0_4:0.00000143):0.00000938):0.00000039):0.00000073):0.00011450,((3_0_2:0.00000865,(3_0_9:0.00000040,3_0_1:0.00000200):0.00000617):0.00000640,3_0_0:0.00001603):0.00004950):0.01371977):0.06161378,((((2_0_7:0.00000452,(2_0_3:0.00005796,(2_0_0:0.00000786,(2_0_9:0.00000165,2_0_6:0.00000226):0.00000214):0.00000958):0.00001350):0.00000114,(2_0_2:0.00000134,2_0_4:0.00000095):0.00000669):0.00003573,((2_0_5:0.00001499,(2_0_8:0.00000243,2_0_11:0.00000170):0.00002643):0.00000951,(2_0_10:0.00000317,2_0_1:0.00000099):0.00003263):0.00002215):0.00115680,((1_0_2:0.00000369,1_0_3:0.00000290):0.00022682,(((1_0_5:0.00000715,1_0_9:0.00000581):0.00001597,(1_0_1:0.00000926,1_0_7:0.00001059):0.00000672):0.00016144,((1_0_8:0.00000637,1_0_4:0.00005852):0.00008456,((1_0_10:0.00001260,1_0_0:0.00000579):0.00000546,(1_0_6:0.00003290,1_0_11:0.00004472):0.00000191):0.00007446):0.00003513):0.00001995):0.00706874):0.15200890):0.09156455,0_0_0:0.36284451);

data_06	T06	49	1	1	0.252593	0.137192	0.196773	(0_0_0:0.05958103,((((2_0_1:0.00000897,(2_0_11:0.00000151,(2_0_10:0.00000225,2_0_0:0.00000114):0.00001655):0.00003203):0.00002140,(((2_0_3:0.00000129,2_0_7:0.00000111):0.00003540,(2_0_9:0.00000737,2_0_5:0.00000353):0.00005897):0.00000220,(2_0_8:0.00002649,(2_0_4:0.00000327,(2_0_2:0.00000032,2_0_6:0.00000009):0.00000988):0.00001896):0.00002445):0.00002747):0.00207581,(((1_0_11:0.00000465,1_0_1:0.00000378):0.00006566,((1_0_4:0.00000447,1_0_0:0.00000343):0.00000050,1_0_3:0.00000642):0.00001249):0.00023989,(1_0_8:0.00000654,((((1_0_7:0.00000318,1_0_10:0.00000058):0.00000575,(1_0_6:0.00000369,1_0_9:0.00000169):0.00000411):0.00000192,1_0_2:0.00001285):0.00000149,1_0_5:0.00000887):0.00000343):0.00007885):0.00109271):0.03713409,(((4_0_9:0.00000205,4_0_7:0.00000354):0.00011897,(((4_0_5:0.00000173,4_0_1:0.00000608):0.00006749,4_0_3:0.00011816):0.00000123,((((4_0_10:0.00000337,(4_0_2:0.00000213,4_0_6:0.00000085):0.00000312):0.00001287,4_0_11:0.00000366):0.00000062,4_0_0:0.00000949):0.00002731,(4_0_8:0.00000070,4_0_4:0.00000363):0.00002519):0.00000051):0.00028443):0.03253436,((3_0_0:0.00002499,((3_0_8:0.00000771,(3_0_10:0.00000013,3_0_3:0.00000051):0.00000895):0.00000749,(3_0_11:0.00000269,(3_0_7:0.00000038,(3_0_2:0.00000103,3_0_9:0.00000022):0.00000110):0.00000531):0.00000838):0.00002011):0.00000425,((3_0_5:0.00000038,3_0_4:0.00000010):0.00002262,(3_0_6:0.00000466,3_0_1:0.00000163):0.00002411):0.00000698):0.01429135):0.02551622):0.07873771);

data_07	T07	49	1	1	0.441887	0.252587	0.326736	(0_0_0:0.07414860,((((((3_0_10:0.00001978,3_0_3:0.00001127):0.00000719,((3_0_7:0.00002037,(3_0_6:0.00000075,(3_0_1:0.00000015,3_0_5:0.00000021):0.00000156):0.00001009):0.00001434,(3_0_2:0.00000373,3_0_9:0.00000997):0.00001777):0.00000262):0.00002739,(3_0_4:0.00003592,3_0_8:0.00002541):0.00006096):0.00013295,(3_0_0:0.00000006,3_0_11:0.00000037):0.00012105):0.02279686,(((4_0_0:0.00000051,(4_0_1:0.00000037,4_0_11:0.00000042):0.00000016):0.00001035,(4_0_3:0.00000139,4_0_6:0.00001098):0.00000032):0.00011678,(((4_0_4:0.00000793,(4_0_2:0.00000131,4_0_10:0.00000263):0.00001039):0.00000221,((4_0_5:0.00000449,4_0_7:0.00000020):0.00000179,4_0_9:0.00000239):0.00001658):0.00000371,4_0_8:0.00004177):0.00004013):0.02982750):0.15802406,(((1_0_5:0.00005699,(1_0_0:0.00000082,1_0_10:0.00000745):0.00005944):0.00044259,(1_0_11:0.00012111,((((1_0_6:0.00000153,1_0_1:0.00000071):0.00000612,1_0_9:0.00000115):0.00001245,(1_0_2:0.00000516,1_0_3:0.00000266):0.00000808):0.00004194,((1_0_8:0.00000270,1_0_7:0.00000430):0.00000341,1_0_4:0.00000748):0.00011489):0.00004744):0.00005425):0.00760639,(((2_0_9:0.00000987,(2_0_11:0.00000237,2_0_7:0.00000099):0.00000478):0.00011703,2_0_0:0.00003311):0.00007166,(((2_0_5:0.00000585,2_0_3:0.00003203):0.00001228,2_0_2:0.00003635):0.00002765,(((2_0_1:0.00000593,2_0_10:0.00000744):0.00000571,2_0_4:0.00000836):0.00001808,(2_0_8:0.00000353,2_0_6:0.00000107):0.00002035):0.00003783):0.00004039):0.00044529):0.08212469):0.06460750);

data_08	T08	49	1	1	0.682428	0.37104	0.603134	((((((2_0_2:0.00000665,2_0_6:0.00002498):0.00000248,2_0_9:0.00002240):0.00006428,((2_0_7:0.00001942,((2_0_3:0.00001870,((2_0_1:0.00000272,2_0_0:0.00000083):0.00001001,(2_0_5:0.00000333,2_0_11:0.00000476):0.00000513):0.00003842):0.00001048,(2_0_8:0.00000138,2_0_4:0.00000046):0.00001158):0.00000248):0.00003591,2_0_10:0.00003218):0.00001953):0.00823307,(((1_0_1:0.00000061,1_0_4:0.00000199):0.00000273,1_0_10:0.00000634):0.00019139,((1_0_7:0.00000419,(1_0_6:0.00000057,1_0_5:0.00000278):0.00000269):0.00009424,(((1_0_8:0.00000176,(1_0_9:0.00000013,1_0_0:0.00000048):0.00000051):0.00000629,1_0_3:0.00004015):0.00000368,(1_0_2:0.00002194,1_0_11:0.00000457):0.00000620):0.00005548):0.00055653):0.00138180):0.06176997,((4_0_2:0.00011096,(((4_0_5:0.00000564,(4_0_6:0.00000448,(4_0_1:0.00000086,4_0_9:0.00000094):0.00001228):0.00000006):0.00004624,(4_0_4:0.00001067,4_0_3:0.00000300):0.00000336):0.00000201,(4_0_10:0.00003559,(4_0_8:0.00000910,((4_0_11:0.00000170,4_0_0:0.00000198):0.00000221,4_0_7:0.00000377):0.00000390):0.00000875):0.00003145):0.00001075):0.01568239,((((3_0_4:0.00000376,3_0_6:0.00000231):0.00000383,3_0_11:0.00002971):0.00002529,(3_0_9:0.00001507,(3_0_0:0.00002172,(3_0_7:0.00000195,3_0_8:0.00001476):0.00000071):0.00001145):0.00000311):0.00005439,(3_0_2:0.00000870,(3_0_3:0.00005301,((3_0_10:0.00000191,3_0_1:0.00000020):0.00001000,3_0_5:0.00000226):0.00002828):0.00000978):0.00004444):0.00602067):0.10919119):0.24605587,0_0_0:0.23209339);

data_09	T09	49	1	1	0.772745	0.339966	0.666201	(0_0_0:0.33996598,((((((2_0_2:0.00000055,2_0_4:0.00000482):0.00000959,((2_0_9:0.00000752,(2_0_1:0.00000048,2_0_0:0.00000035):0.00000250):0.00000907,2_0_5:0.00002046):0.00000527):0.00006008,(2_0_10:0.00003271,2_0_6:0.00002365):0.00004813):0.00008989,((2_0_11:0.00000106,(2_0_8:0.00000320,2_0_3:0.00000107):0.00000936):0.00000422,2_0_7:0.00000832):0.00011453):0.00335320,(1_0_1:0.00007371,((((1_0_8:0.00000019,(1_0_7:0.00000071,1_0_5:0.00000071):0.00000024):0.00000195,1_0_6:0.00000555):0.00000454,(((1_0_10:0.00000359,1_0_3:0.00000310):0.00000030,(1_0_0:0.00000110,1_0_9:0.00000261):0.00000155):0.00000092,(1_0_11:0.00000278,1_0_4:0.00000049):0.00000375):0.00000085):0.00001854,1_0_2:0.00003873):0.00006360):0.00702631):0.14678992,((((((4_0_0:0.00000823,((4_0_5:0.00000335,4_0_11:0.00000412):0.00000523,4_0_9:0.00000394):0.00000585):0.00000277,4_0_4:0.00000507):0.00000092,4_0_1:0.00001261):0.00002188,(4_0_2:0.00000966,4_0_3:0.00000481):0.00006924):0.00003841,(4_0_7:0.00006814,(4_0_8:0.00000504,(4_0_10:0.00000998,4_0_6:0.00000191):0.00000242):0.00000716):0.00016945):0.01523235,((3_0_3:0.00000072,3_0_1:0.00000717):0.00003665,((((3_0_11:0.00001155,3_0_2:0.00000135):0.00000604,3_0_6:0.00000935):0.00003556,((3_0_0:0.00000309,3_0_5:0.00000094):0.00000168,3_0_4:0.00000726):0.00001250):0.00000626,((3_0_10:0.00000274,3_0_7:0.00000172):0.00000912,(3_0_8:0.00000234,3_0_9:0.00001096):0.00001765):0.00002701):0.00016320):0.04392994):0.04260998):0.17231608);

data_10	T10	49	1	1	0.656011	0.310508	0.599676	(0_0_0:0.31050839,((((((4_0_7:0.00000166,4_0_5:0.00000777):0.00002341,4_0_2:0.00001015):0.00000845,(4_0_0:0.00001210,(4_0_9:0.00000001,4_0_4:0.00000001):0.00002527):0.00001721):0.00012298,(4_0_11:0.00001957,(((4_0_8:0.00000775,4_0_6:0.00001151):0.00000257,4_0_10:0.00001355):0.00003758,(4_0_3:0.00000310,4_0_1:0.00000465):0.00003527):0.00005560):0.00016778):0.02048893,(((3_0_10:0.00005758,((3_0_6:0.00000359,3_0_8:0.00000132):0.00000683,(3_0_11:0.00000137,3_0_2:0.00000503):0.00002911):0.00001502):0.00001509,((3_0_1:0.00004339,3_0_3:0.00002672):0.00001900,(3_0_0:0.00000266,3_0_9:0.00000394):0.00001098):0.00002508):0.00000531,(3_0_5:0.00013993,(3_0_4:0.00003830,3_0_7:0.00001088):0.00009517):0.00000969):0.01248495):0.04916739,(((((2_0_0:0.00000143,2_0_10:0.00000068):0.00000348,2_0_3:0.00000401):0.00000215,2_0_9:0.00001483):0.00001873,((2_0_5:0.00000347,(2_0_11:0.00000464,((2_0_7:0.00000074,2_0_6:0.00000098):0.00000171,2_0_2:0.00000312):0.00000030):0.00000128):0.00000869,((2_0_8:0.00000051,2_0_1:0.00000014):0.00000096,2_0_4:0.00000570):0.00000703):0.00003088):0.00735439,(((1_0_1:0.00000327,1_0_6:0.00001030):0.00000449,(((((1_0_2:0.00000727,(1_0_0:0.00000142,1_0_5:0.00000233):0.00000422):0.00000100,1_0_8:0.00000555):0.00000025,(1_0_7:0.00000340,1_0_9:0.00000457):0.00000163):0.00000380,1_0_3:0.00000504):0.00001046,1_0_11:0.00001286):0.00001152):0.00000359,(1_0_10:0.00000093,1_0_4:0.00000086):0.00003846):0.00368197):0.03168213):0.21923663);
