********************************************************************************
INDELible V1.03 by Will Fletcher : Simulation began at: Wed Nov 16 09:12:42 2016
********************************************************************************

  * Block 1 was completed in 0.13 seconds.

********************************************************************************


  * Block 2 was completed in 0.13 seconds.

********************************************************************************


  * Block 3 was completed in 0.13 seconds.

********************************************************************************


  * Block 4 was completed in 0.14 seconds.

********************************************************************************


  * Block 5 was completed in 0.12 seconds.

********************************************************************************


  * Block 6 was completed in 0.13 seconds.

********************************************************************************


  * Block 7 was completed in 0.12 seconds.

********************************************************************************


  * Block 8 was completed in 0.13 seconds.

********************************************************************************


  * Block 9 was completed in 0.13 seconds.

********************************************************************************


  * Block 10 was completed in 0.12 seconds.

********************************************************************************

  * Simulation completed. Whole batch took: 1.28 seconds.

INDELible V1.03 Simulations completed at: Wed Nov 16 09:12:43 2016

********************************************************************************


 Original Control File 

-----------------------


[TYPE] NUCLEOTIDE 1 

[SETTINGS]
    [fastaextension] fasta  

[MODEL] csSim_unlinked_1
    [submodel] GTR 0.112750 0.029427 0.033322 0.012945 0.021341 
    [statefreq] 0.097473 0.395024 0.404346 0.103158 
[rates] 0 4.356006 0 

[MODEL] csSim_unlinked_2
    [submodel] GTR 0.113295 0.009615 0.013997 0.035746 0.036152 
    [statefreq] 0.128270 0.702111 0.098132 0.071488 
[rates] 0 17.170793 0 

[MODEL] csSim_unlinked_3
    [submodel] GTR 0.101470 0.010070 0.011092 0.031217 0.062653 
    [statefreq] 0.074966 0.362525 0.210532 0.351977 
[rates] 0 2.574309 0 

[MODEL] csSim_unlinked_4
    [submodel] GTR 0.103290 0.011056 0.024051 0.057313 0.029660 
    [statefreq] 0.026424 0.364384 0.516441 0.092751 
[rates] 0 29.805823 0 

[MODEL] csSim_unlinked_5
    [submodel] GTR 0.100621 0.036324 0.014933 0.026897 0.014275 
    [statefreq] 0.062048 0.230695 0.238372 0.468886 
[rates] 0 10.666255 0 

[MODEL] csSim_unlinked_6
    [submodel] GTR 0.102778 0.006517 0.016913 0.028615 0.043665 
    [statefreq] 0.211489 0.262215 0.088615 0.437681 
[rates] 0 0.865007 0 

[MODEL] csSim_unlinked_7
    [submodel] GTR 0.142237 0.005943 0.011146 0.011047 0.016227 
    [statefreq] 0.237840 0.096598 0.478973 0.186589 
[rates] 0 9.994472 0 

[MODEL] csSim_unlinked_8
    [submodel] GTR 0.101475 0.015147 0.011139 0.041627 0.022460 
    [statefreq] 0.101133 0.670066 0.036848 0.191952 
[rates] 0 33.150693 0 

[MODEL] csSim_unlinked_9
    [submodel] GTR 0.091027 0.008964 0.003270 0.010316 0.034854 
    [statefreq] 0.533452 0.141540 0.177864 0.147144 
[rates] 0 2.410463 0 

[MODEL] csSim_unlinked_10
    [submodel] GTR 0.138090 0.010496 0.008931 0.026121 0.028274 
    [statefreq] 0.118896 0.384101 0.185404 0.311599 
[rates] 0 76.566029 0 


[TREE] T01 (0_0_0:0.00218776,(((4_0_15:0.00000092,(4_0_9:0.00000018,4_0_7:0.00000009):0.00000162):0.00001192,(((4_0_2:0.00000088,(4_0_0:0.00000015,(4_0_5:0.00000001,4_0_4:0.00000001):0.00000020):0.00000040):0.00000214,(4_0_1:0.00000007,4_0_12:0.00000029):0.00000340):0.00000027,((((4_0_6:0.00000002,4_0_11:0.00000010):0.00000011,4_0_13:0.00000013):0.00000029,(4_0_14:0.00000027,4_0_10:0.00000013):0.00000014):0.00000200,(4_0_8:0.00000016,4_0_3:0.00000039):0.00000158):0.00000030):0.00000556):0.00082389,((((2_0_6:0.00000599,2_0_7:0.00000264):0.00000947,((2_0_10:0.00000177,(2_0_0:0.00000136,(2_0_15:0.00000035,2_0_5:0.00000033):0.00000092):0.00000017):0.00000103,2_0_14:0.00000359):0.00000954):0.00000762,(((2_0_4:0.00000007,2_0_2:0.00000015):0.00000020,(2_0_1:0.00000007,2_0_8:0.00000010):0.00000015):0.00000670,(((2_0_9:0.00000030,2_0_3:0.00000024):0.00000309,2_0_11:0.00000165):0.00000171,(2_0_12:0.00000067,2_0_13:0.00000030):0.00000196):0.00000086):0.00001736):0.00040564,(((((3_0_11:0.00000030,3_0_6:0.00000017):0.00000154,3_0_3:0.00000164):0.00000071,3_0_14:0.00000252):0.00000672,(3_0_2:0.00000194,((3_0_1:0.00000059,3_0_10:0.00000124):0.00000039,((((3_0_4:0.00000084,3_0_9:0.00000022):0.00000010,(3_0_0:0.00000011,3_0_7:0.00000005):0.00000018):0.00000030,(3_0_5:0.00000038,3_0_15:0.00000101):0.00000055):0.00000011,((3_0_12:0.00000022,3_0_8:0.00000044):0.00000081,3_0_13:0.00000124):0.00000008):0.00000025):0.00000028):0.00000360):0.00016795,(((1_0_0:0.00000031,1_0_14:0.00000022):0.00000031,1_0_4:0.00000039):0.00000921,(1_0_1:0.00000825,((((1_0_12:0.00000327,1_0_9:0.00000116):0.00000072,(1_0_15:0.00000208,((1_0_7:0.00000021,1_0_3:0.00000014):0.00000164,((1_0_5:0.00000004,1_0_13:0.00000002):0.00000013,1_0_11:0.00000024):0.00000288):0.00000006):0.00000048):0.00000125,(1_0_6:0.00000047,(1_0_8:0.00000002,1_0_10:0.00000008):0.00000085):0.00000568):0.00000009,1_0_2:0.00000294):0.00000059):0.00000367):0.00004612):0.00027561):0.00028200):0.00076555);
[TREE] T02 (((((4_0_3:0.00000048,((4_0_1:0.00000012,((((4_0_9:0.00000001,4_0_13:0.00000001):0.00000001,4_0_14:0.00000005):0.00000002,4_0_11:0.00000004):0.00000021,(4_0_5:0.00000004,(4_0_6:0.00000007,4_0_0:0.00000004):0.00000001):0.00000013):0.00000002):0.00000031,4_0_2:0.00000054):0.00000002):0.00000051,(4_0_10:0.00000153,((4_0_7:0.00000004,4_0_12:0.00000004):0.00000032,4_0_8:0.00000017):0.00000124):0.00000026):0.00000176,(4_0_15:0.00000039,4_0_4:0.00000034):0.00000124):0.00039375,((((2_0_3:0.00000044,(2_0_2:0.00000004,2_0_12:0.00000003):0.00000055):0.00000138,((2_0_9:0.00000178,2_0_8:0.00000245):0.00000073,(((2_0_1:0.00000065,2_0_7:0.00000031):0.00000086,(2_0_0:0.00000017,2_0_6:0.00000022):0.00000070):0.00000002,(2_0_14:0.00000049,(2_0_15:0.00000005,(2_0_11:0.00000006,2_0_5:0.00000005):0.00000001):0.00000028):0.00000055):0.00000201):0.00000015):0.00000295,((2_0_4:0.00000004,2_0_13:0.00000002):0.00000021,2_0_10:0.00000026):0.00000469):0.00047945,((((1_0_14:0.00000005,1_0_6:0.00000009):0.00000099,(((((1_0_10:0.00000004,1_0_5:0.00000006):0.00000002,1_0_12:0.00000022):0.00000031,(1_0_7:0.00000001,1_0_1:0.00000003):0.00000012):0.00000022,1_0_4:0.00000036):0.00000004,(1_0_3:0.00000039,(1_0_15:0.00000029,1_0_13:0.00000034):0.00000004):0.00000030):0.00000003):0.00000013,((1_0_11:0.00000061,1_0_2:0.00000072):0.00000002,((1_0_0:0.00000024,1_0_9:0.00000025):0.00000005,1_0_8:0.00000047):0.00000060):0.00000039):0.00004246,(((3_0_14:0.00000146,((3_0_9:0.00000022,3_0_12:0.00000018):0.00000016,3_0_2:0.00000045):0.00000199):0.00000044,3_0_15:0.00000371):0.00000153,(((3_0_8:0.00000014,(3_0_5:0.00000000,3_0_1:0.00000000):0.00000013):0.00000016,(((3_0_7:0.00000023,3_0_0:0.00000013):0.00000035,3_0_4:0.00000022):0.00000012,3_0_13:0.00000044):0.00000003):0.00000004,((3_0_11:0.00000022,(3_0_10:0.00000000,3_0_3:0.00000000):0.00000023):0.00000015,3_0_6:0.00000042):0.00000018):0.00000856):0.00005377):0.00015597):0.00015254):0.00017924,0_0_0:0.00117093);
[TREE] T03 (((((((1_0_10:0.00000134,1_0_8:0.00000179):0.00000233,1_0_6:0.00000994):0.00001145,(((1_0_1:0.00000147,1_0_2:0.00000255):0.00000073,((1_0_9:0.00000030,1_0_11:0.00000013):0.00000076,(1_0_15:0.00000050,(1_0_13:0.00000022,(1_0_12:0.00000014,1_0_5:0.00000011):0.00000007):0.00000022):0.00000093):0.00000015):0.00000705,((((1_0_0:0.00000009,1_0_14:0.00000023):0.00000024,1_0_4:0.00000070):0.00000089,1_0_7:0.00000220):0.00000069,1_0_3:0.00000250):0.00000629):0.00001192):0.00031666,(((3_0_12:0.00000180,(3_0_13:0.00000191,3_0_14:0.00000132):0.00000056):0.00000488,(3_0_9:0.00000249,(((3_0_2:0.00000010,(3_0_6:0.00000008,3_0_7:0.00000002):0.00000010):0.00000288,3_0_8:0.00000211):0.00000125,((3_0_10:0.00000010,3_0_5:0.00000027):0.00000091,((3_0_1:0.00000006,3_0_3:0.00000009):0.00000046,3_0_4:0.00000068):0.00000040):0.00000115):0.00000059):0.00000725):0.00001223,(3_0_15:0.00000045,(3_0_0:0.00000009,3_0_11:0.00000007):0.00000038):0.00001624):0.00010062):0.00048518,((2_0_2:0.00001070,((2_0_6:0.00000101,(2_0_4:0.00000102,2_0_8:0.00000029):0.00000008):0.00000066,(2_0_0:0.00000099,2_0_14:0.00000121):0.00000094):0.00000151):0.00000448,(((2_0_3:0.00000164,2_0_5:0.00000064):0.00000098,((2_0_7:0.00000232,2_0_10:0.00000130):0.00000133,((2_0_11:0.00000043,2_0_9:0.00000053):0.00000004,(2_0_13:0.00000082,2_0_12:0.00000039):0.00000011):0.00000246):0.00000036):0.00000247,(2_0_15:0.00000100,2_0_1:0.00000222):0.00000617):0.00000805):0.00103491):0.00035222,(((((4_0_5:0.00000101,(((((4_0_6:0.00000017,4_0_2:0.00000017):0.00000007,4_0_3:0.00000022):0.00000015,4_0_14:0.00000042):0.00000016,(4_0_4:0.00000051,(4_0_0:0.00000057,4_0_10:0.00000012):0.00000025):0.00000004):0.00000007,4_0_13:0.00000040):0.00000147):0.00000103,(4_0_9:0.00000335,(4_0_7:0.00000021,4_0_1:0.00000024):0.00000062):0.00000029):0.00000008,4_0_11:0.00000216):0.00000348,4_0_15:0.00001786):0.00000332,(4_0_12:0.00000060,4_0_8:0.00000038):0.00000821):0.00090735):0.00155004,0_0_0:0.00112572);
[TREE] T04 (0_0_0:0.00412580,(((((4_0_1:0.00000025,((4_0_6:0.00000007,4_0_4:0.00000014):0.00000043,4_0_7:0.00000028):0.00000010):0.00000258,(4_0_14:0.00000148,(4_0_11:0.00000017,4_0_13:0.00000079):0.00000049):0.00000301):0.00000280,(((4_0_8:0.00000089,4_0_9:0.00000084):0.00000150,4_0_10:0.00000180):0.00000004,(4_0_15:0.00000027,4_0_3:0.00000053):0.00000065):0.00000609):0.00000078,(4_0_12:0.00000039,(4_0_5:0.00000089,(4_0_0:0.00000033,4_0_2:0.00000059):0.00000084):0.00000135):0.00001101):0.00180262,(((((((3_0_9:0.00000030,3_0_11:0.00000016):0.00000200,((3_0_14:0.00000144,(3_0_15:0.00000208,(3_0_2:0.00000010,3_0_13:0.00000003):0.00000046):0.00000017):0.00000004,(3_0_8:0.00000043,(3_0_1:0.00000024,3_0_5:0.00000016):0.00000065):0.00000046):0.00000148):0.00000236,3_0_10:0.00000426):0.00000105,(((3_0_6:0.00000083,3_0_12:0.00000050):0.00000004,3_0_0:0.00000032):0.00000028,3_0_4:0.00000178):0.00000460):0.00000349,(3_0_3:0.00000028,3_0_7:0.00000066):0.00000898):0.00054339,((1_0_6:0.00000443,(1_0_3:0.00000049,1_0_15:0.00000037):0.00001141):0.00000655,(((((((1_0_13:0.00000002,1_0_4:0.00000001):0.00000027,1_0_0:0.00000049):0.00000052,1_0_7:0.00000134):0.00000007,1_0_12:0.00000215):0.00000416,1_0_5:0.00000674):0.00000648,((1_0_10:0.00000135,((1_0_14:0.00000015,1_0_9:0.00000029):0.00000115,1_0_11:0.00000081):0.00000141):0.00000059,1_0_1:0.00000231):0.00001196):0.00000008,(1_0_8:0.00000003,1_0_2:0.00000002):0.00000734):0.00000459):0.00021467):0.00030852,((2_0_2:0.00000641,((((2_0_1:0.00000077,2_0_4:0.00000072):0.00000095,(2_0_12:0.00000005,2_0_11:0.00000007):0.00000096):0.00000185,2_0_15:0.00000343):0.00000239,2_0_14:0.00000626):0.00000258):0.00000537,((2_0_6:0.00000153,(((2_0_3:0.00000010,2_0_7:0.00000011):0.00000033,(2_0_13:0.00000038,2_0_0:0.00000023):0.00000032):0.00000019,2_0_10:0.00000120):0.00000114):0.00000028,((2_0_5:0.00000005,2_0_9:0.00000010):0.00000046,2_0_8:0.00000029):0.00000141):0.00001420):0.00075439):0.00099670):0.00176044);
[TREE] T05 (0_0_0:0.00729655,(((4_0_6:0.00000917,((((4_0_13:0.00000172,4_0_8:0.00000189):0.00000010,((4_0_12:0.00000037,4_0_5:0.00000020):0.00000040,4_0_1:0.00000051):0.00000177):0.00000196,((4_0_7:0.00000052,4_0_10:0.00000094):0.00000142,4_0_4:0.00000322):0.00000330):0.00000454,(4_0_15:0.00000022,4_0_11:0.00000021):0.00000350):0.00000121):0.00000021,(4_0_0:0.00000371,((4_0_3:0.00000079,4_0_2:0.00000183):0.00000062,(4_0_9:0.00000035,4_0_14:0.00000030):0.00000101):0.00000483):0.00000159):0.00162201,((((3_0_4:0.00000924,3_0_0:0.00000777):0.00000271,(((((3_0_10:0.00000159,(3_0_5:0.00000008,3_0_14:0.00000006):0.00000149):0.00000037,3_0_6:0.00000331):0.00000334,(3_0_13:0.00000330,(3_0_15:0.00000036,3_0_12:0.00000054):0.00000036):0.00000296):0.00000036,(3_0_2:0.00000314,3_0_11:0.00000279):0.00000243):0.00000204,((3_0_9:0.00000007,3_0_3:0.00000014):0.00000695,((3_0_1:0.00000260,3_0_8:0.00000458):0.00000209,3_0_7:0.00000407):0.00000417):0.00000086):0.00000319):0.00051229,(((1_0_10:0.00000527,1_0_7:0.00000344):0.00000056,((1_0_15:0.00000086,1_0_1:0.00000079):0.00000356,(1_0_4:0.00000067,1_0_5:0.00000159):0.00000200):0.00000141):0.00005323,((((1_0_12:0.00000798,(1_0_3:0.00000098,(1_0_8:0.00000119,(1_0_2:0.00000006,1_0_13:0.00000018):0.00000189):0.00000005):0.00000212):0.00000137,(1_0_11:0.00000275,1_0_0:0.00000164):0.00000057):0.00000127,(1_0_9:0.00000068,1_0_14:0.00000034):0.00000354):0.00000162,1_0_6:0.00001358):0.00002502):0.00040964):0.00152943,((((2_0_1:0.00000499,(2_0_8:0.00000394,(((2_0_6:0.00000020,2_0_3:0.00000007):0.00000036,(2_0_0:0.00000001,2_0_12:0.00000001):0.00000058):0.00000141,2_0_7:0.00000146):0.00000067):0.00000160):0.00000509,2_0_9:0.00002357):0.00001504,(2_0_4:0.00000670,(2_0_5:0.00001313,2_0_11:0.00000460):0.00000179):0.00001436):0.00009672,((2_0_13:0.00000020,2_0_2:0.00000089):0.00000182,((2_0_10:0.00000008,2_0_14:0.00000003):0.00000030,2_0_15:0.00000054):0.00000226):0.00020563):0.00102106):0.00091693):0.00096962);
[TREE] T06 ((((((((3_0_2:0.00000001,3_0_0:0.00000003):0.00000071,((3_0_5:0.00000010,(3_0_6:0.00000003,3_0_11:0.00000003):0.00000004):0.00000005,3_0_12:0.00000026):0.00000009):0.00000096,((3_0_8:0.00000024,3_0_9:0.00000040):0.00000043,(3_0_10:0.00000004,3_0_1:0.00000002):0.00000090):0.00000054):0.00000007,((3_0_7:0.00000095,(3_0_14:0.00000038,3_0_4:0.00000029):0.00000017):0.00000006,(3_0_3:0.00000003,(3_0_15:0.00000001,3_0_13:0.00000001):0.00000012):0.00000036):0.00000158):0.00002964,((((1_0_11:0.00000013,1_0_15:0.00000012):0.00000013,(1_0_2:0.00000025,1_0_13:0.00000015):0.00000016):0.00000104,(1_0_0:0.00000005,1_0_10:0.00000005):0.00000147):0.00000117,(((1_0_8:0.00000015,1_0_3:0.00000028):0.00000038,(1_0_5:0.00000004,1_0_9:0.00000014):0.00000087):0.00000164,((1_0_6:0.00000033,(1_0_7:0.00000005,1_0_4:0.00000008):0.00000049):0.00000100,(1_0_1:0.00000063,(1_0_12:0.00000010,1_0_14:0.00000011):0.00000012):0.00000109):0.00000028):0.00000097):0.00003995):0.00012529,(((2_0_5:0.00000021,2_0_2:0.00000013):0.00000157,(((2_0_8:0.00000017,2_0_1:0.00000046):0.00000015,(2_0_7:0.00000004,2_0_9:0.00000004):0.00000071):0.00000022,2_0_10:0.00000063):0.00000079):0.00000451,((((2_0_4:0.00000037,2_0_13:0.00000037):0.00000015,((2_0_6:0.00000061,2_0_11:0.00000026):0.00000000,(2_0_14:0.00000003,2_0_12:0.00000002):0.00000010):0.00000002):0.00000024,(2_0_15:0.00000043,2_0_0:0.00000027):0.00000041):0.00000041,2_0_3:0.00000158):0.00000321):0.00017087):0.00011211,(((4_0_2:0.00000003,4_0_11:0.00000006):0.00000239,((4_0_4:0.00000003,4_0_5:0.00000002):0.00000012,4_0_12:0.00000019):0.00000208):0.00000172,(((4_0_14:0.00000007,4_0_0:0.00000010):0.00000009,4_0_13:0.00000036):0.00000225,((4_0_1:0.00000056,((4_0_3:0.00000019,4_0_9:0.00000027):0.00000004,4_0_7:0.00000023):0.00000037):0.00000263,(((4_0_10:0.00000013,4_0_15:0.00000012):0.00000001,4_0_6:0.00000006):0.00000352,4_0_8:0.00000081):0.00000012):0.00000027):0.00000107):0.00043437):0.00031983,0_0_0:0.00040379);
[TREE] T07 ((((((((((4_0_7:0.00000004,(4_0_5:0.00000001,4_0_10:0.00000003):0.00000001):0.00000009,(4_0_4:0.00000004,4_0_6:0.00000005):0.00000013):0.00000004,4_0_11:0.00000014):0.00000017,(4_0_15:0.00000008,4_0_0:0.00000007):0.00000046):0.00000015,4_0_14:0.00000032):0.00000001,4_0_2:0.00000044):0.00000152,4_0_3:0.00000080):0.00000025,(((4_0_9:0.00000007,4_0_12:0.00000009):0.00000014,4_0_13:0.00000019):0.00000023,(4_0_8:0.00000026,4_0_1:0.00000007):0.00000059):0.00000114):0.00017978,(((((3_0_15:0.00000016,(3_0_11:0.00000009,(3_0_12:0.00000002,3_0_10:0.00000005):0.00000008):0.00000005):0.00000007,3_0_0:0.00000030):0.00000057,(3_0_2:0.00000155,(((3_0_3:0.00000002,(3_0_14:0.00000001,3_0_9:0.00000001):0.00000000):0.00000105,(3_0_4:0.00000030,((3_0_1:0.00000001,3_0_8:0.00000001):0.00000013,(3_0_5:0.00000001,3_0_6:0.00000001):0.00000008):0.00000011):0.00000022):0.00000006,(3_0_13:0.00000054,3_0_7:0.00000063):0.00000012):0.00000026):0.00000039):0.00002381,(((1_0_11:0.00000001,1_0_12:0.00000000):0.00000121,(((((1_0_4:0.00000001,1_0_15:0.00000001):0.00000010,(1_0_10:0.00000001,1_0_2:0.00000008):0.00000001):0.00000019,1_0_3:0.00000023):0.00000025,((1_0_6:0.00000005,(1_0_7:0.00000001,1_0_13:0.00000003):0.00000002):0.00000028,(1_0_8:0.00000002,(1_0_9:0.00000000,1_0_0:0.00000000):0.00000001):0.00000030):0.00000003):0.00000062,(1_0_14:0.00000031,1_0_1:0.00000047):0.00000013):0.00000087):0.00000089,1_0_5:0.00000256):0.00001809):0.00006251,((2_0_0:0.00000042,2_0_4:0.00000075):0.00000202,((((2_0_8:0.00000014,((2_0_12:0.00000004,(2_0_5:0.00000003,2_0_3:0.00000002):0.00000001):0.00000008,2_0_2:0.00000008):0.00000005):0.00000018,(2_0_6:0.00000003,2_0_14:0.00000012):0.00000015):0.00000077,(2_0_10:0.00000004,2_0_9:0.00000002):0.00000125):0.00000404,((2_0_15:0.00000004,2_0_7:0.00000004):0.00000013,((2_0_11:0.00000003,2_0_13:0.00000008):0.00000008,2_0_1:0.00000031):0.00000005):0.00000413):0.00000084):0.00021646):0.00004338):0.00021924,0_0_0:0.00043128);
[TREE] T08 (((((((1_0_13:0.00001130,(1_0_0:0.00000072,1_0_2:0.00000073):0.00001950):0.00000440,((((1_0_12:0.00000284,1_0_1:0.00000189):0.00000040,1_0_3:0.00000176):0.00000241,((1_0_11:0.00000012,1_0_9:0.00000022):0.00000071,1_0_5:0.00000060):0.00000438):0.00001027,(1_0_10:0.00000229,1_0_4:0.00000294):0.00000956):0.00000195):0.00015638,(((1_0_14:0.00000390,1_0_6:0.00000161):0.00000213,(1_0_7:0.00000510,1_0_15:0.00000814):0.00000089):0.00000201,1_0_8:0.00002100):0.00006659):0.00032048,(((3_0_2:0.00000652,(((3_0_6:0.00000063,3_0_0:0.00000091):0.00000044,3_0_9:0.00000177):0.00000689,(3_0_4:0.00000066,3_0_13:0.00000052):0.00000156):0.00000712):0.00000830,(3_0_15:0.00001127,((3_0_1:0.00000002,3_0_14:0.00000004):0.00000428,(3_0_12:0.00000507,3_0_11:0.00000243):0.00000210):0.00000759):0.00001304):0.00001687,(((3_0_10:0.00000030,(3_0_5:0.00000030,3_0_3:0.00000023):0.00000002):0.00000580,3_0_8:0.00000766):0.00000361,3_0_7:0.00001251):0.00003549):0.00053429):0.00143434,(((((2_0_7:0.00000009,2_0_2:0.00000006):0.00000160,(2_0_0:0.00000518,(2_0_10:0.00000062,2_0_8:0.00000043):0.00000592):0.00000032):0.00000946,(2_0_15:0.00000367,(2_0_5:0.00000452,2_0_6:0.00000328):0.00000197):0.00001105):0.00000147,2_0_1:0.00001333):0.00009335,((2_0_12:0.00000073,2_0_11:0.00000035):0.00001445,(2_0_4:0.00000498,((2_0_13:0.00000427,(2_0_14:0.00000051,2_0_9:0.00000066):0.00000217):0.00000048,2_0_3:0.00000327):0.00000187):0.00000397):0.00003369):0.00226523):0.00182205,((((4_0_5:0.00000035,4_0_13:0.00000041):0.00000369,(4_0_15:0.00000316,4_0_2:0.00000335):0.00000047):0.00002654,(4_0_9:0.00000021,4_0_8:0.00000021):0.00001376):0.00014198,((((4_0_3:0.00000134,4_0_1:0.00000432):0.00000275,4_0_7:0.00000687):0.00000542,(4_0_10:0.00000404,((4_0_12:0.00000612,4_0_0:0.00000502):0.00000164,4_0_14:0.00000397):0.00000040):0.00000243):0.00001265,(4_0_6:0.00000692,(4_0_11:0.00000128,4_0_4:0.00000184):0.00000833):0.00000765):0.00012293):0.00768945):0.00337104,0_0_0:0.00846926);
[TREE] T09 (((((((3_0_3:0.00001162,(((3_0_1:0.00000004,3_0_4:0.00000001):0.00000135,3_0_8:0.00000171):0.00000489,(3_0_12:0.00000506,3_0_14:0.00000262):0.00000159):0.00000539):0.00000486,(((3_0_9:0.00000020,3_0_13:0.00000015):0.00000065,((3_0_11:0.00000043,3_0_5:0.00000102):0.00000002,3_0_2:0.00000056):0.00000098):0.00000153,(3_0_10:0.00000410,(3_0_6:0.00000204,3_0_15:0.00000193):0.00000000):0.00000019):0.00002607):0.00000804,(3_0_0:0.00000015,3_0_7:0.00000055):0.00001889):0.00037362,(1_0_15:0.00000343,((1_0_1:0.00000620,1_0_8:0.00000070):0.00000431,((1_0_9:0.00000322,((1_0_6:0.00000050,1_0_11:0.00000061):0.00000194,((1_0_2:0.00000085,1_0_12:0.00000071):0.00000199,(1_0_5:0.00000009,1_0_13:0.00000008):0.00000397):0.00000022):0.00000087):0.00000232,(1_0_3:0.00000682,((1_0_7:0.00000135,1_0_10:0.00000048):0.00000401,((1_0_14:0.00000009,1_0_0:0.00000006):0.00000069,1_0_4:0.00000202):0.00000139):0.00000046):0.00000072):0.00000088):0.00000061):0.00009055):0.00055409,(((((2_0_3:0.00000149,2_0_11:0.00000127):0.00000059,(((2_0_7:0.00000006,2_0_13:0.00000012):0.00000044,2_0_5:0.00000029):0.00000012,2_0_4:0.00000075):0.00000074):0.00000325,2_0_10:0.00000372):0.00003287,((2_0_6:0.00000008,2_0_2:0.00000008):0.00001530,(((2_0_14:0.00000054,2_0_9:0.00000066):0.00000066,(2_0_0:0.00000167,2_0_12:0.00000090):0.00000040):0.00000136,2_0_1:0.00000168):0.00000395):0.00001424):0.00000099,(2_0_15:0.00000579,2_0_8:0.00000762):0.00001871):0.00130550):0.00130447,(((4_0_11:0.00000790,4_0_15:0.00000276):0.00000528,(((4_0_4:0.00000018,4_0_9:0.00000027):0.00000052,4_0_6:0.00000151):0.00000261,(4_0_13:0.00000338,(4_0_8:0.00000436,4_0_3:0.00000146):0.00000159):0.00000008):0.00000416):0.00002277,(((4_0_1:0.00000447,4_0_5:0.00000795):0.00000015,4_0_14:0.00000692):0.00000766,(((4_0_2:0.00000046,4_0_0:0.00000022):0.00000134,4_0_10:0.00000138):0.00000000,(4_0_12:0.00000010,4_0_7:0.00000008):0.00000252):0.00002067):0.00001345):0.00109346):0.00406801,0_0_0:0.00341264);
[TREE] T10 ((((((1_0_10:0.00000046,1_0_1:0.00000111):0.00000983,(1_0_5:0.00000824,((((1_0_9:0.00000369,((1_0_12:0.00000018,1_0_0:0.00000011):0.00000018,1_0_11:0.00000057):0.00000325):0.00000287,1_0_14:0.00000682):0.00000088,(1_0_15:0.00000088,(1_0_3:0.00000023,1_0_4:0.00000041):0.00000063):0.00000357):0.00000022,(((1_0_2:0.00000050,1_0_8:0.00000019):0.00000023,(1_0_6:0.00000002,1_0_13:0.00000002):0.00000051):0.00000011,1_0_7:0.00000068):0.00000969):0.00000022):0.00000161):0.00030233,(((3_0_1:0.00000307,(3_0_15:0.00000203,(3_0_2:0.00000052,3_0_4:0.00000041):0.00000155):0.00000261):0.00000054,3_0_8:0.00000289):0.00002296,((((3_0_3:0.00000024,3_0_10:0.00000022):0.00000019,3_0_12:0.00000049):0.00000124,((3_0_14:0.00000080,3_0_5:0.00000099):0.00000016,3_0_6:0.00000098):0.00000070):0.00001525,(3_0_13:0.00000979,(3_0_11:0.00000099,(3_0_0:0.00000040,(3_0_9:0.00000015,3_0_7:0.00000018):0.00000025):0.00000340):0.00000102):0.00000041):0.00002401):0.00024636):0.00053271,(((((2_0_6:0.00000232,2_0_1:0.00000332):0.00000115,2_0_4:0.00000281):0.00000595,(2_0_15:0.00000131,2_0_3:0.00000340):0.00000607):0.00000374,((2_0_2:0.00000033,2_0_14:0.00000055):0.00000044,((2_0_9:0.00000021,2_0_12:0.00000042):0.00000019,2_0_8:0.00000060):0.00000097):0.00001715):0.00000006,((2_0_13:0.00000003,2_0_7:0.00000001):0.00000831,((2_0_0:0.00000065,(2_0_10:0.00000030,2_0_5:0.00000043):0.00000025):0.00000358,2_0_11:0.00000357):0.00000156):0.00000699):0.00119575):0.00122674,(4_0_3:0.00002834,(((4_0_15:0.00000045,(4_0_4:0.00000077,4_0_9:0.00000040):0.00000097):0.00000151,(((4_0_5:0.00000146,(4_0_14:0.00000049,4_0_6:0.00000113):0.00000030):0.00000265,(4_0_10:0.00000014,4_0_13:0.00000010):0.00000206):0.00000766,(4_0_12:0.00000215,4_0_11:0.00000056):0.00000198):0.00000070):0.00000396,(4_0_7:0.00000483,(4_0_8:0.00000783,((4_0_1:0.00000052,4_0_0:0.00000029):0.00000424,4_0_2:0.00000614):0.00000145):0.00000079):0.00000416):0.00000913):0.00243706):0.00126881,0_0_0:0.00672074);

[PARTITIONS] csSimUnlinked_01 [T01 csSim_unlinked_1 500]
[PARTITIONS] csSimUnlinked_02 [T02 csSim_unlinked_2 500]
[PARTITIONS] csSimUnlinked_03 [T03 csSim_unlinked_3 500]
[PARTITIONS] csSimUnlinked_04 [T04 csSim_unlinked_4 500]
[PARTITIONS] csSimUnlinked_05 [T05 csSim_unlinked_5 500]
[PARTITIONS] csSimUnlinked_06 [T06 csSim_unlinked_6 500]
[PARTITIONS] csSimUnlinked_07 [T07 csSim_unlinked_7 500]
[PARTITIONS] csSimUnlinked_08 [T08 csSim_unlinked_8 500]
[PARTITIONS] csSimUnlinked_09 [T09 csSim_unlinked_9 500]
[PARTITIONS] csSimUnlinked_10 [T10 csSim_unlinked_10 500]

[EVOLVE] csSimUnlinked_01 1 data_01
csSimUnlinked_02 1 data_02
csSimUnlinked_03 1 data_03
csSimUnlinked_04 1 data_04
csSimUnlinked_05 1 data_05
csSimUnlinked_06 1 data_06
csSimUnlinked_07 1 data_07
csSimUnlinked_08 1 data_08
csSimUnlinked_09 1 data_09
csSimUnlinked_10 1 data_10
