[TYPE] NUCLEOTIDE 1 

[SETTINGS]
    [fastaextension] fasta  

[MODEL] csSim_unlinked_1
    [submodel] GTR 0.130647 0.006123 0.047143 0.021702 0.019813 
    [statefreq] 0.207549 0.148199 0.069388 0.574865 
[rates] 0 9.998628 0 

[MODEL] csSim_unlinked_2
    [submodel] GTR 0.107747 0.012056 0.010845 0.010777 0.049799 
    [statefreq] 0.374045 0.108897 0.422192 0.094867 
[rates] 0 23.871366 0 

[MODEL] csSim_unlinked_3
    [submodel] GTR 0.110150 0.008404 0.030755 0.027923 0.057031 
    [statefreq] 0.176402 0.074261 0.614120 0.135218 
[rates] 0 21.801494 0 

[MODEL] csSim_unlinked_4
    [submodel] GTR 0.073397 0.008180 0.014710 0.036141 0.033554 
    [statefreq] 0.156094 0.492437 0.012377 0.339092 
[rates] 0 16.160678 0 

[MODEL] csSim_unlinked_5
    [submodel] GTR 0.047987 0.005776 0.014231 0.041557 0.064896 
    [statefreq] 0.110522 0.324233 0.060219 0.505027 
[rates] 0 10.078780 0 

[MODEL] csSim_unlinked_6
    [submodel] GTR 0.090539 0.007989 0.028246 0.018140 0.047843 
    [statefreq] 0.048636 0.450356 0.359830 0.141178 
[rates] 0 13.721595 0 

[MODEL] csSim_unlinked_7
    [submodel] GTR 0.127132 0.007708 0.014923 0.022549 0.034685 
    [statefreq] 0.623103 0.110403 0.041061 0.225432 
[rates] 0 20.758949 0 

[MODEL] csSim_unlinked_8
    [submodel] GTR 0.094072 0.014347 0.015556 0.046412 0.030645 
    [statefreq] 0.166779 0.126681 0.327871 0.378669 
[rates] 0 34.012039 0 

[MODEL] csSim_unlinked_9
    [submodel] GTR 0.095148 0.007788 0.006040 0.034895 0.040113 
    [statefreq] 0.785631 0.045014 0.021698 0.147657 
[rates] 0 39.924801 0 

[MODEL] csSim_unlinked_10
    [submodel] GTR 0.107393 0.004801 0.013484 0.037146 0.055818 
    [statefreq] 0.005296 0.170900 0.344244 0.479560 
[rates] 0 0.936119 0 


[TREE] T01 ((((((7_0_8:0.00000080,7_0_2:0.00000057):0.00000065,(((7_0_5:0.00000008,7_0_0:0.00000000):0.00000036,7_0_7:0.00000068):0.00000029,(((7_0_1:0.00000032,7_0_9:0.00000006):0.00000003,7_0_10:0.00000005):0.00000166,7_0_11:0.00000078):0.00000127):0.00000180):0.00000469,((7_0_3:0.00000129,7_0_6:0.00000083):0.00000142,7_0_4:0.00000038):0.00000706):0.00308836,(((8_0_3:0.00001619,(((8_0_9:0.00000038,(8_0_6:0.00000012,(8_0_0:0.00000040,8_0_1:0.00000030):0.00000013):0.00000189):0.00000239,(8_0_7:0.00000012,8_0_11:0.00000004):0.00000112):0.00000207,((8_0_2:0.00000003,8_0_10:0.00000006):0.00000059,((8_0_8:0.00000012,8_0_5:0.00000005):0.00000002,8_0_4:0.00000024):0.00000030):0.00000582):0.00000659):0.00096306,((3_0_3:0.00000534,((3_0_5:0.00000069,(3_0_1:0.00000018,3_0_8:0.00000057):0.00000020):0.00000112,((3_0_0:0.00000024,3_0_6:0.00000054):0.00000027,(((3_0_10:0.00000003,3_0_4:0.00000000):0.00000012,(3_0_11:0.00000020,3_0_2:0.00000014):0.00000010):0.00000008,3_0_9:0.00000011):0.00000037):0.00000068):0.00000368):0.00000600,3_0_7:0.00001883):0.00493176):0.00075340,((((((4_0_0:0.00000010,(4_0_4:0.00000000,4_0_10:0.00000000):0.00000010):0.00000006,4_0_8:0.00000062):0.00000244,(4_0_11:0.00000007,4_0_5:0.00000020):0.00000044):0.00002487,(4_0_3:0.00000051,((4_0_1:0.00000046,(4_0_6:0.00000012,4_0_9:0.00000018):0.00000015):0.00000008,(4_0_7:0.00000037,4_0_2:0.00000085):0.00000009):0.00000096):0.00004839):0.00016087,(((5_0_2:0.00000071,5_0_9:0.00000104):0.00000008,((5_0_3:0.00000036,(5_0_10:0.00000009,5_0_0:0.00000016):0.00000029):0.00000001,(5_0_11:0.00000034,5_0_1:0.00000009):0.00000041):0.00000047):0.00000486,(((5_0_8:0.00000013,5_0_6:0.00000015):0.00000013,5_0_7:0.00000047):0.00000137,(5_0_5:0.00000055,5_0_4:0.00000089):0.00000202):0.00000231):0.00018705):0.00055941,(6_0_6:0.00000156,((((6_0_9:0.00000010,6_0_2:0.00000002):0.00000045,6_0_0:0.00000094):0.00000039,((6_0_10:0.00000024,6_0_8:0.00000075):0.00000009,(6_0_11:0.00000069,(6_0_5:0.00000008,(6_0_4:0.00000026,6_0_1:0.00000009):0.00000006):0.00000028):0.00000012):0.00000001):0.00000308,(6_0_7:0.00000375,6_0_3:0.00000281):0.00000044):0.00000029):0.00183503):0.00151842):0.00275748):0.02793759,((((1_0_8:0.00000104,((1_0_0:0.00000019,1_0_1:0.00000020):0.00000012,1_0_6:0.00000019):0.00000053):0.00000115,((1_0_2:0.00000062,((1_0_9:0.00000007,1_0_5:0.00000007):0.00000008,1_0_11:0.00000031):0.00000003):0.00000004,1_0_4:0.00000119):0.00000810):0.00000760,(1_0_7:0.00000429,(1_0_3:0.00000626,1_0_10:0.00000169):0.00000012):0.00000538):0.00208582,(2_0_5:0.00000660,((((2_0_3:0.00000050,2_0_1:0.00000079):0.00000021,((2_0_7:0.00000044,2_0_10:0.00000034):0.00000041,2_0_11:0.00000020):0.00000011):0.00000022,((2_0_0:0.00000001,2_0_8:0.00000001):0.00000044,2_0_4:0.00000030):0.00000201):0.00000191,(2_0_6:0.00000084,(2_0_9:0.00000003,2_0_2:0.00000018):0.00000029):0.00000554):0.00001557):0.00215154):0.01798789):0.00214090,0_0_0:0.03872753);
[TREE] T02 (0_0_0:0.05447279,((((((2_0_10:0.00000107,(2_0_7:0.00000023,2_0_11:0.00000026):0.00000060):0.00000260,2_0_5:0.00000067):0.00000081,(2_0_6:0.00000065,2_0_8:0.00000146):0.00000175):0.00000274,((2_0_4:0.00000114,(2_0_1:0.00000147,((2_0_0:0.00000015,2_0_3:0.00000010):0.00000025,2_0_2:0.00000026):0.00000018):0.00000014):0.00000060,2_0_9:0.00000237):0.00001140):0.00072959,(((1_0_7:0.00000107,(1_0_0:0.00000025,((1_0_1:0.00000020,1_0_10:0.00000005):0.00000016,(1_0_3:0.00000029,1_0_5:0.00000029):0.00000049):0.00000012):0.00000012):0.00000088,1_0_9:0.00000142):0.00000257,((1_0_2:0.00000333,1_0_4:0.00000038):0.00000561,(1_0_11:0.00000175,(1_0_8:0.00000050,1_0_6:0.00000076):0.00000103):0.00000833):0.00000172):0.00083731):0.03220887,((((((6_0_9:0.00000050,6_0_4:0.00000053):0.00000279,(((6_0_1:0.00000011,6_0_2:0.00000017):0.00000158,6_0_8:0.00000178):0.00000011,(((6_0_6:0.00000006,6_0_5:0.00000007):0.00000004,6_0_3:0.00000003):0.00000000,6_0_7:0.00000017):0.00000311):0.00000132):0.00000041,((6_0_10:0.00000015,6_0_0:0.00000042):0.00000004,6_0_11:0.00000074):0.00000178):0.00105492,(((((5_0_5:0.00000056,5_0_6:0.00000024):0.00000376,((5_0_1:0.00000034,5_0_8:0.00000055):0.00000356,(5_0_4:0.00000163,5_0_7:0.00000184):0.00000035):0.00000018):0.00000008,(5_0_10:0.00000129,(5_0_2:0.00000005,5_0_11:0.00000006):0.00000055):0.00000309):0.00000110,(5_0_9:0.00000078,(5_0_3:0.00000056,5_0_0:0.00000034):0.00000082):0.00000751):0.00027314,((4_0_8:0.00000156,(4_0_4:0.00000040,((4_0_6:0.00000013,4_0_5:0.00000004):0.00000020,4_0_10:0.00000080):0.00000127):0.00000060):0.00000064,(((4_0_3:0.00000002,4_0_9:0.00000006):0.00000492,((4_0_11:0.00000004,4_0_2:0.00000004):0.00000078,4_0_0:0.00000094):0.00000018):0.00000029,(4_0_7:0.00000012,4_0_1:0.00000152):0.00000219):0.00000012):0.00002477):0.00118624):0.00092032,((((8_0_0:0.00000072,(8_0_11:0.00000079,(8_0_10:0.00000031,8_0_6:0.00000011):0.00000006):0.00000025):0.00000204,(8_0_4:0.00000096,8_0_8:0.00000362):0.00000184):0.00001669,((8_0_2:0.00000079,(8_0_3:0.00000016,8_0_7:0.00000006):0.00000054):0.00000184,(8_0_9:0.00000131,(8_0_5:0.00000009,8_0_1:0.00000007):0.00000084):0.00000143):0.00001427):0.00191780,((((3_0_0:0.00000104,3_0_6:0.00000036):0.00000512,(3_0_7:0.00000148,3_0_2:0.00000185):0.00000078):0.00000021,(3_0_9:0.00000014,(3_0_5:0.00000114,((3_0_3:0.00000028,3_0_8:0.00000045):0.00000020,3_0_10:0.00000068):0.00000032):0.00000010):0.00000120):0.00000157,(3_0_1:0.00000030,(3_0_4:0.00000015,3_0_11:0.00000033):0.00000249):0.00000238):0.00086528):0.00042654):0.00288489,((7_0_0:0.00000062,(((7_0_4:0.00000138,(7_0_8:0.00000011,7_0_11:0.00000011):0.00000010):0.00000035,(7_0_6:0.00000079,7_0_1:0.00000152):0.00000003):0.00000453,(7_0_9:0.00000117,7_0_5:0.00000068):0.00000127):0.00000023):0.00001210,((7_0_10:0.00000006,7_0_3:0.00000005):0.00000393,(7_0_7:0.00000011,7_0_2:0.00000008):0.00000031):0.00000842):0.01669899):0.02646884):0.00314125);
[TREE] T03 (0_0_0:0.02305342,((((((((((4_0_2:0.00000019,4_0_1:0.00000015):0.00000026,((4_0_8:0.00000002,4_0_4:0.00000006):0.00000113,4_0_0:0.00000046):0.00000119):0.00000088,4_0_11:0.00000330):0.00000136,(4_0_5:0.00000003,4_0_9:0.00000014):0.00000164):0.00000356,((4_0_3:0.00000083,(4_0_6:0.00000025,4_0_7:0.00000016):0.00000054):0.00000070,4_0_10:0.00000471):0.00000747):0.00026048,((5_0_10:0.00000061,(5_0_6:0.00000056,5_0_4:0.00000042):0.00000052):0.00000615,((5_0_2:0.00000036,(5_0_9:0.00000051,5_0_11:0.00000040):0.00000026):0.00000477,((5_0_7:0.00000007,5_0_3:0.00000026):0.00000591,((5_0_5:0.00000045,5_0_8:0.00000027):0.00000037,(5_0_0:0.00000078,5_0_1:0.00000071):0.00000028):0.00000094):0.00000027):0.00000085):0.00013198):0.00025879,(((((6_0_8:0.00000017,6_0_4:0.00000051):0.00000040,6_0_3:0.00000080):0.00000599,6_0_0:0.00000368):0.00000166,((6_0_7:0.00000004,6_0_2:0.00000004):0.00000375,6_0_10:0.00001006):0.00000052):0.00000679,((6_0_11:0.00000009,6_0_6:0.00000037):0.00000322,((6_0_5:0.00000003,6_0_9:0.00000003):0.00000044,6_0_1:0.00000046):0.00000041):0.00000441):0.00060567):0.00104255,(((((3_0_1:0.00000123,(3_0_5:0.00000096,3_0_3:0.00000014):0.00000057):0.00000011,3_0_10:0.00000126):0.00000292,3_0_6:0.00000292):0.00000111,((3_0_9:0.00000052,((3_0_11:0.00000006,3_0_7:0.00000006):0.00000120,3_0_8:0.00000032):0.00000041):0.00000071,(3_0_2:0.00000047,(3_0_4:0.00000001,3_0_0:0.00000002):0.00000050):0.00000139):0.00000825):0.00248450,(((((8_0_1:0.00000010,8_0_10:0.00000015):0.00000067,8_0_3:0.00000068):0.00000045,8_0_5:0.00000226):0.00000012,(8_0_11:0.00000365,((8_0_4:0.00000000,8_0_0:0.00000000):0.00000042,(8_0_6:0.00000007,(8_0_2:0.00000002,8_0_9:0.00000000):0.00000020):0.00000019):0.00000220):0.00000010):0.00001421,(8_0_7:0.00000495,8_0_8:0.00000547):0.00001325):0.00062004):0.00061443):0.00231683,((((7_0_4:0.00000032,7_0_11:0.00000036):0.00000005,(7_0_8:0.00000072,7_0_5:0.00000026):0.00000069):0.00000186,(7_0_10:0.00000616,(((7_0_6:0.00000086,7_0_3:0.00000095):0.00000123,((7_0_9:0.00000005,7_0_1:0.00000002):0.00000032,7_0_0:0.00000148):0.00000274):0.00000062,7_0_7:0.00000238):0.00000020):0.00000100):0.00000088,7_0_2:0.00000386):0.00186104):0.01298142,(((1_0_4:0.00000263,1_0_9:0.00000126):0.00000283,(1_0_0:0.00000066,(((((1_0_5:0.00000026,(1_0_1:0.00000018,1_0_3:0.00000042):0.00000023):0.00000022,1_0_10:0.00000016):0.00000030,(1_0_2:0.00000020,(1_0_11:0.00000009,1_0_7:0.00000004):0.00000002):0.00000120):0.00000058,1_0_6:0.00000032):0.00000049,1_0_8:0.00000074):0.00000004):0.00000860):0.00086241,(((2_0_10:0.00000141,(2_0_4:0.00000005,2_0_8:0.00000004):0.00000154):0.00000076,((((2_0_2:0.00000030,2_0_3:0.00000006):0.00000068,(2_0_9:0.00000014,2_0_7:0.00000032):0.00000072):0.00000121,2_0_11:0.00000106):0.00000003,(2_0_5:0.00000004,2_0_1:0.00000001):0.00000090):0.00000023):0.00000004,(2_0_0:0.00000108,2_0_6:0.00000047):0.00000102):0.00247110):0.02455109):0.02255129);
[TREE] T04 (0_0_0:0.03522518,(((((1_0_4:0.00000034,((1_0_2:0.00000012,(1_0_3:0.00000001,1_0_10:0.00000001):0.00000017):0.00000009,1_0_1:0.00000059):0.00000012):0.00000146,((1_0_5:0.00000010,1_0_11:0.00000010):0.00000103,1_0_7:0.00000265):0.00000396):0.00000029,((1_0_6:0.00000001,1_0_9:0.00000001):0.00000072,(1_0_8:0.00000048,1_0_0:0.00000014):0.00000017):0.00000195):0.00254970,(((2_0_9:0.00000004,2_0_11:0.00000047):0.00000078,((2_0_7:0.00000001,2_0_5:0.00000009):0.00000026,2_0_0:0.00000022):0.00000169):0.00000880,(((2_0_10:0.00000030,2_0_2:0.00000006):0.00000182,2_0_6:0.00000085):0.00000238,((2_0_3:0.00000000,2_0_4:0.00000000):0.00000098,(2_0_1:0.00000003,2_0_8:0.00000004):0.00000124):0.00000414):0.00000275):0.00226170):0.00823915,(((((((6_0_2:0.00000075,6_0_0:0.00000053):0.00000239,((6_0_5:0.00000130,6_0_6:0.00000103):0.00000049,((6_0_7:0.00000064,6_0_1:0.00000056):0.00000032,(6_0_9:0.00000035,6_0_3:0.00000054):0.00000012):0.00000173):0.00000052):0.00000094,(6_0_8:0.00000012,6_0_10:0.00000009):0.00000824):0.00000075,(6_0_4:0.00000072,6_0_11:0.00000664):0.00000329):0.00019892,((((5_0_9:0.00000167,(5_0_2:0.00000006,(5_0_8:0.00000022,5_0_0:0.00000012):0.00000001):0.00000042):0.00000094,(5_0_11:0.00000001,5_0_7:0.00000003):0.00000311):0.00003187,((5_0_1:0.00000139,(5_0_4:0.00000036,(5_0_3:0.00000005,5_0_5:0.00000001):0.00000061):0.00000103):0.00000033,(5_0_6:0.00000003,5_0_10:0.00000044):0.00000109):0.00000026):0.00008507,(((((4_0_5:0.00000011,4_0_9:0.00000054):0.00000016,4_0_11:0.00000114):0.00000017,4_0_2:0.00000037):0.00000506,(((4_0_8:0.00000009,4_0_3:0.00000008):0.00000025,4_0_6:0.00000029):0.00000059,(4_0_10:0.00000014,4_0_7:0.00000032):0.00000059):0.00000071):0.00000349,(4_0_0:0.00000058,(4_0_4:0.00000012,4_0_1:0.00000024):0.00000023):0.00001273):0.00013365):0.00107871):0.00252561,(((((3_0_6:0.00000031,3_0_9:0.00000035):0.00000022,((3_0_1:0.00000012,3_0_3:0.00000002):0.00000057,3_0_4:0.00000090):0.00000008):0.00000186,((3_0_0:0.00000260,3_0_2:0.00000067):0.00000014,3_0_5:0.00000199):0.00000027):0.00000996,(3_0_10:0.00000086,(3_0_7:0.00000020,(3_0_8:0.00000000,3_0_11:0.00000000):0.00000028):0.00000064):0.00000438):0.00200015,(((8_0_5:0.00000103,8_0_9:0.00000047):0.00000309,((((8_0_7:0.00000011,8_0_3:0.00000017):0.00000033,8_0_10:0.00000031):0.00000172,((8_0_0:0.00000035,(8_0_11:0.00000005,8_0_4:0.00000004):0.00000001):0.00000039,8_0_2:0.00000061):0.00000022):0.00000056,8_0_8:0.00000077):0.00000286):0.00000214,(8_0_1:0.00000004,8_0_6:0.00000010):0.00000596):0.00077029):0.00037103):0.00282833,(((7_0_2:0.00000127,(7_0_9:0.00000478,(7_0_7:0.00000244,7_0_11:0.00000071):0.00000017):0.00000006):0.00000070,((7_0_6:0.00000052,(7_0_10:0.00000163,7_0_1:0.00000033):0.00000018):0.00000015,(7_0_3:0.00000103,7_0_8:0.00000062):0.00000016):0.00000106):0.00001025,((7_0_0:0.00000009,7_0_4:0.00000001):0.00000222,7_0_5:0.00000013):0.00000333):0.00463084):0.01975315):0.01468973);
[TREE] T05 (0_0_0:0.01758113,(((((1_0_0:0.00000043,(1_0_1:0.00000002,1_0_4:0.00000002):0.00000024):0.00000005,1_0_6:0.00000035):0.00000800,((1_0_7:0.00000013,1_0_5:0.00000116):0.00000538,(((1_0_11:0.00000038,1_0_8:0.00000060):0.00000020,1_0_3:0.00000153):0.00000006,((1_0_10:0.00000031,1_0_9:0.00000046):0.00000010,1_0_2:0.00000017):0.00000064):0.00000690):0.00000097):0.00101386,(((2_0_4:0.00000215,2_0_11:0.00000062):0.00001445,((2_0_1:0.00000044,2_0_3:0.00000063):0.00000623,((2_0_9:0.00000067,2_0_10:0.00000062):0.00000268,((2_0_7:0.00000005,2_0_6:0.00000001):0.00000018,2_0_8:0.00000038):0.00000411):0.00000013):0.00000196):0.00000081,(2_0_5:0.00000067,(2_0_2:0.00000017,2_0_0:0.00000082):0.00000034):0.00000667):0.00474762):0.01463804,(((((8_0_10:0.00000370,(((8_0_7:0.00000128,8_0_3:0.00000029):0.00000013,8_0_1:0.00000048):0.00000063,((8_0_6:0.00000001,8_0_2:0.00000001):0.00000006,8_0_8:0.00000009):0.00000084):0.00000068):0.00001282,(8_0_9:0.00000280,((8_0_4:0.00000023,(8_0_0:0.00000002,8_0_11:0.00000003):0.00000009):0.00000006,8_0_5:0.00000026):0.00000380):0.00000548):0.00099426,(((3_0_4:0.00000055,3_0_0:0.00000053):0.00000000,3_0_6:0.00000035):0.00000201,(((3_0_10:0.00000018,3_0_2:0.00000042):0.00000302,(3_0_3:0.00000024,(3_0_8:0.00000147,3_0_1:0.00000152):0.00000025):0.00000263):0.00000011,((3_0_11:0.00000017,(3_0_9:0.00000019,3_0_7:0.00000019):0.00000063):0.00000035,3_0_5:0.00000313):0.00000264):0.00000356):0.00383356):0.00098990,((((6_0_7:0.00000060,6_0_0:0.00000027):0.00000134,6_0_10:0.00000021):0.00001032,(((6_0_11:0.00000039,6_0_2:0.00000024):0.00000247,((6_0_5:0.00000020,6_0_4:0.00000009):0.00000037,6_0_1:0.00000025):0.00000313):0.00000778,((6_0_9:0.00000051,6_0_3:0.00000037):0.00000082,(6_0_6:0.00000009,6_0_8:0.00000030):0.00000326):0.00000826):0.00000384):0.00170474,(((((5_0_1:0.00000015,5_0_5:0.00000055):0.00000073,(((5_0_8:0.00000008,5_0_9:0.00000001):0.00000009,5_0_0:0.00000010):0.00000068,5_0_2:0.00000437):0.00000011):0.00000001,5_0_7:0.00000253):0.00001148,((5_0_10:0.00000164,5_0_6:0.00000136):0.00000072,(5_0_4:0.00000170,(5_0_11:0.00000048,5_0_3:0.00000022):0.00000061):0.00000163):0.00000563):0.00046894,(((4_0_11:0.00000893,(4_0_8:0.00000264,4_0_7:0.00000324):0.00000052):0.00000138,((4_0_2:0.00000033,4_0_5:0.00000037):0.00000170,((((4_0_4:0.00000031,4_0_6:0.00000031):0.00000008,4_0_9:0.00000031):0.00000015,4_0_0:0.00000013):0.00000021,4_0_10:0.00000205):0.00000037):0.00000420):0.00000452,(4_0_1:0.00000007,4_0_3:0.00000047):0.00001048):0.00027622):0.00043993):0.00248164):0.00288909,((7_0_11:0.00000153,((7_0_0:0.00000624,7_0_6:0.00000038):0.00000010,(7_0_1:0.00000060,(7_0_10:0.00000002,7_0_7:0.00000004):0.00000021):0.00000067):0.00000001):0.00003391,((7_0_4:0.00000143,(7_0_3:0.00000043,(7_0_8:0.00000001,7_0_9:0.00000031):0.00000009):0.00000062):0.00000088,(7_0_5:0.00000021,7_0_2:0.00000108):0.00000332):0.00001991):0.00609017):0.02005392):0.01653568);
[TREE] T06 ((((2_0_11:0.00002796,(((2_0_9:0.00000130,(((2_0_1:0.00000001,2_0_4:0.00000000):0.00000003,2_0_10:0.00000002):0.00000042,(2_0_3:0.00000041,(2_0_2:0.00000007,2_0_8:0.00000028):0.00000008):0.00000132):0.00000104):0.00000077,((2_0_7:0.00000020,2_0_5:0.00000047):0.00000004,2_0_0:0.00000119):0.00000529):0.00000046,2_0_6:0.00000352):0.00000671):0.00178973,(((1_0_11:0.00000190,(1_0_2:0.00000164,1_0_3:0.00000034):0.00000192):0.00000067,(1_0_1:0.00000035,1_0_9:0.00000008):0.00000445):0.00000065,((((1_0_8:0.00000002,1_0_4:0.00000001):0.00000007,1_0_0:0.00000071):0.00000014,1_0_7:0.00000034):0.00000115,(1_0_6:0.00000116,(1_0_5:0.00000037,1_0_10:0.00000024):0.00000030):0.00000228):0.00000527):0.00140149):0.01048519,((((((5_0_0:0.00000490,((5_0_3:0.00000122,5_0_2:0.00000102):0.00000058,5_0_9:0.00000552):0.00000295):0.00000452,(((5_0_10:0.00000014,5_0_1:0.00000003):0.00000198,(5_0_8:0.00000060,5_0_5:0.00000037):0.00000018):0.00000660,((5_0_6:0.00000006,5_0_4:0.00000002):0.00000171,(5_0_7:0.00000107,5_0_11:0.00000098):0.00000077):0.00000115):0.00000445):0.00052132,(((4_0_11:0.00000046,4_0_7:0.00000056):0.00000176,(4_0_0:0.00000010,4_0_2:0.00000007):0.00000095):0.00001209,((4_0_9:0.00000525,(4_0_5:0.00000279,4_0_4:0.00000080):0.00000010):0.00000123,(4_0_3:0.00000331,((4_0_8:0.00000011,4_0_10:0.00000021):0.00000064,(4_0_6:0.00000002,4_0_1:0.00000025):0.00000056):0.00000174):0.00000019):0.00001948):0.00006146):0.00069026,((((6_0_8:0.00000005,6_0_2:0.00000036):0.00000001,(6_0_4:0.00000003,6_0_7:0.00000010):0.00000075):0.00000165,6_0_11:0.00000110):0.00001036,((6_0_0:0.00000149,(6_0_1:0.00000219,(6_0_10:0.00000040,((6_0_9:0.00000018,6_0_3:0.00000024):0.00000000,6_0_5:0.00000017):0.00000000):0.00000129):0.00000061):0.00000091,6_0_6:0.00000146):0.00000271):0.00007552):0.00132346,((((8_0_7:0.00000173,((8_0_6:0.00000042,8_0_11:0.00000044):0.00000082,8_0_3:0.00000104):0.00000146):0.00000137,((8_0_9:0.00000149,(8_0_2:0.00000057,8_0_5:0.00000022):0.00000024):0.00000017,(8_0_1:0.00000039,8_0_4:0.00000134):0.00000099):0.00000105):0.00000108,(8_0_0:0.00000008,(8_0_10:0.00000012,8_0_8:0.00000003):0.00000003):0.00000413):0.00107569,((3_0_3:0.00000345,3_0_1:0.00000323):0.00000020,(3_0_11:0.00000616,(((3_0_10:0.00000004,3_0_6:0.00000006):0.00000020,3_0_5:0.00000019):0.00000066,(3_0_4:0.00000047,(((3_0_9:0.00000011,3_0_8:0.00000007):0.00000023,3_0_0:0.00000027):0.00000001,(3_0_7:0.00000010,3_0_2:0.00000012):0.00000016):0.00000061):0.00000269):0.00000077):0.00000041):0.00152188):0.00061950):0.00121800,((7_0_9:0.00000012,7_0_8:0.00000089):0.00001068,((7_0_4:0.00000364,((7_0_11:0.00000009,(7_0_10:0.00000023,7_0_1:0.00000011):0.00000002):0.00000050,(7_0_5:0.00000119,7_0_0:0.00000045):0.00000011):0.00000145):0.00000022,((7_0_7:0.00000289,7_0_6:0.00000064):0.00000009,(7_0_3:0.00000023,7_0_2:0.00000018):0.00000203):0.00000028):0.00000355):0.00616885):0.00686823):0.00656043,0_0_0:0.07043990);
[TREE] T07 (0_0_0:0.00976983,((((((1_0_5:0.00000100,1_0_6:0.00000180):0.00000197,1_0_7:0.00000341):0.00000097,((1_0_10:0.00000011,1_0_0:0.00000003):0.00000014,1_0_9:0.00000051):0.00000333):0.00000143,(1_0_3:0.00000082,(1_0_11:0.00000263,((1_0_8:0.00000037,1_0_1:0.00000084):0.00000018,(1_0_4:0.00000039,1_0_2:0.00000010):0.00000035):0.00000074):0.00000036):0.00000134):0.00248550,((2_0_1:0.00000162,2_0_9:0.00000293):0.00000904,(((2_0_7:0.00000018,(2_0_10:0.00000001,2_0_5:0.00000001):0.00000005):0.00000004,(2_0_6:0.00000001,2_0_2:0.00000006):0.00000017):0.00000058,((2_0_11:0.00000030,(2_0_3:0.00000008,2_0_8:0.00000013):0.00000010):0.00000008,(2_0_4:0.00000032,2_0_0:0.00000050):0.00000003):0.00000083):0.00000884):0.00095682):0.00425154,((((((6_0_2:0.00000080,(6_0_3:0.00000009,(6_0_7:0.00000012,6_0_0:0.00000003):0.00000004):0.00000142):0.00000521,(((6_0_10:0.00000030,(6_0_8:0.00000028,6_0_5:0.00000023):0.00000006):0.00000025,6_0_1:0.00000043):0.00000067,((6_0_4:0.00000017,6_0_9:0.00000012):0.00000015,6_0_6:0.00000007):0.00000200):0.00000191):0.00001031,6_0_11:0.00000047):0.00095029,((((((5_0_11:0.00000009,(5_0_8:0.00000023,5_0_2:0.00000016):0.00000001):0.00000080,5_0_3:0.00000068):0.00000052,5_0_10:0.00000195):0.00000915,5_0_9:0.00000187):0.00001402,((5_0_4:0.00000169,5_0_0:0.00000414):0.00000003,(5_0_7:0.00000433,(5_0_5:0.00000275,(5_0_6:0.00000022,5_0_1:0.00000010):0.00000202):0.00000192):0.00000071):0.00001799):0.00022320,((((4_0_11:0.00000003,4_0_6:0.00000004):0.00000021,(4_0_10:0.00000010,4_0_0:0.00000013):0.00000037):0.00000089,(4_0_5:0.00000048,4_0_2:0.00000368):0.00000217):0.00001308,((((4_0_8:0.00000004,4_0_4:0.00000012):0.00000019,4_0_3:0.00000021):0.00000064,(4_0_7:0.00000007,4_0_1:0.00000018):0.00000049):0.00000041,4_0_9:0.00000098):0.00001599):0.00027737):0.00024466):0.00201658,(((((3_0_6:0.00000013,3_0_10:0.00000010):0.00000189,(3_0_7:0.00000025,3_0_9:0.00000058):0.00000078):0.00000058,((3_0_3:0.00000059,((3_0_5:0.00000016,(3_0_4:0.00000009,3_0_1:0.00000014):0.00000000):0.00000025,3_0_8:0.00000045):0.00000303):0.00000033,3_0_2:0.00000111):0.00000060):0.00000494,(3_0_11:0.00000263,3_0_0:0.00000495):0.00000230):0.00190644,(((8_0_2:0.00000397,(8_0_0:0.00000089,(8_0_7:0.00000006,8_0_1:0.00000003):0.00000059):0.00000086):0.00000408,(8_0_3:0.00000120,(8_0_6:0.00000006,8_0_10:0.00000008):0.00000228):0.00000086):0.00000265,(((8_0_9:0.00000027,8_0_8:0.00000011):0.00000031,8_0_4:0.00000074):0.00000002,(8_0_5:0.00000000,8_0_11:0.00000001):0.00000241):0.00001045):0.00131413):0.00021042):0.00147077,(((((7_0_1:0.00000001,7_0_10:0.00000004):0.00000171,(7_0_7:0.00000080,(7_0_6:0.00000002,7_0_4:0.00000005):0.00000023):0.00000343):0.00000296,7_0_11:0.00000918):0.00000111,7_0_5:0.00000761):0.00000122,((7_0_8:0.00000039,7_0_3:0.00000039):0.00000490,((7_0_9:0.00000098,7_0_2:0.00000179):0.00000023,7_0_0:0.00000209):0.00000169):0.00000599):0.00088543):0.02214718):0.00672215);
[TREE] T08 (0_0_0:0.02839308,(((((7_0_3:0.00000201,((7_0_2:0.00000001,7_0_4:0.00000000):0.00000085,7_0_8:0.00000033):0.00000023):0.00000084,((7_0_0:0.00000214,(7_0_1:0.00000049,7_0_9:0.00000107):0.00000025):0.00000091,(((7_0_6:0.00000010,7_0_7:0.00000006):0.00000006,7_0_11:0.00000011):0.00000017,7_0_5:0.00000079):0.00000048):0.00000220):0.00000143,7_0_10:0.00000834):0.00303866,((((3_0_11:0.00000197,3_0_1:0.00000109):0.00000231,((3_0_3:0.00000214,(3_0_8:0.00000099,(3_0_9:0.00000013,((3_0_5:0.00000046,3_0_6:0.00000026):0.00000007,3_0_4:0.00000051):0.00000012):0.00000168):0.00000049):0.00000258,((3_0_2:0.00000005,3_0_10:0.00000007):0.00000066,(3_0_0:0.00000011,3_0_7:0.00000012):0.00000113):0.00000063):0.00000075):0.00172231,(8_0_1:0.00001274,((((8_0_5:0.00000020,8_0_9:0.00000020):0.00000009,8_0_0:0.00000032):0.00000005,(8_0_6:0.00000019,8_0_3:0.00000007):0.00000059):0.00000265,(8_0_4:0.00000186,((8_0_10:0.00000017,(8_0_7:0.00000022,8_0_2:0.00000025):0.00000099):0.00000041,(8_0_8:0.00000046,8_0_11:0.00000030):0.00000123):0.00000025):0.00000162):0.00001589):0.00229624):0.00044148,((((4_0_9:0.00000053,(4_0_2:0.00000051,4_0_8:0.00000030):0.00000012):0.00000259,(((4_0_11:0.00000073,(4_0_10:0.00000012,(4_0_1:0.00000041,4_0_7:0.00000031):0.00000012):0.00000066):0.00000183,(4_0_3:0.00000046,(4_0_5:0.00000020,4_0_0:0.00000025):0.00000096):0.00000173):0.00000025,(4_0_6:0.00000274,4_0_4:0.00000120):0.00000030):0.00000038):0.00017383,((((5_0_7:0.00000020,5_0_0:0.00000045):0.00000002,5_0_9:0.00000081):0.00000121,((((5_0_10:0.00000018,5_0_3:0.00000012):0.00000003,5_0_1:0.00000032):0.00000017,5_0_2:0.00000098):0.00000011,(5_0_11:0.00000051,5_0_8:0.00000037):0.00000095):0.00000037):0.00000907,(5_0_4:0.00001229,(5_0_5:0.00000018,5_0_6:0.00000010):0.00000925):0.00000006):0.00009196):0.00122248,(((6_0_3:0.00000223,(6_0_10:0.00000248,(((6_0_9:0.00000004,6_0_0:0.00000025):0.00000022,6_0_11:0.00000018):0.00000193,6_0_2:0.00000067):0.00000008):0.00000007):0.00000100,((6_0_6:0.00000022,6_0_7:0.00000106):0.00000060,(6_0_4:0.00000152,6_0_5:0.00000103):0.00000149):0.00000006):0.00000240,(6_0_8:0.00000055,6_0_1:0.00000054):0.00000222):0.00112260):0.00179271):0.00794746):0.00259837,((((1_0_11:0.00000207,((1_0_5:0.00000005,(1_0_6:0.00000013,1_0_4:0.00000023):0.00000000):0.00000790,(1_0_0:0.00000007,1_0_10:0.00000030):0.00001173):0.00000013):0.00000062,((1_0_1:0.00000102,(1_0_3:0.00000010,(1_0_8:0.00000002,1_0_7:0.00000002):0.00000007):0.00000042):0.00000027,1_0_2:0.00000316):0.00000467):0.00000107,1_0_9:0.00001972):0.00111233,((((2_0_9:0.00000002,2_0_8:0.00000003):0.00000034,2_0_5:0.00000005):0.00000450,(((2_0_2:0.00000003,2_0_0:0.00000003):0.00000027,(2_0_1:0.00000020,2_0_4:0.00000004):0.00000058):0.00000032,2_0_6:0.00000071):0.00000626):0.00001198,((2_0_10:0.00000019,2_0_3:0.00000005):0.00000247,(2_0_11:0.00000041,2_0_7:0.00000056):0.00000153):0.00001363):0.00243130):0.01767773):0.00860314);
[TREE] T09 (0_0_0:0.03319170,((((((7_0_9:0.00000033,((7_0_1:0.00000019,7_0_0:0.00000017):0.00000033,7_0_11:0.00000113):0.00000033):0.00000124,7_0_7:0.00000299):0.00000195,7_0_6:0.00001171):0.00001056,((7_0_3:0.00000156,7_0_10:0.00000124):0.00001641,((7_0_8:0.00000008,7_0_5:0.00000030):0.00000313,(7_0_4:0.00000188,7_0_2:0.00000112):0.00000332):0.00000227):0.00000323):0.00344141,((((3_0_11:0.00000871,(3_0_2:0.00000002,(3_0_5:0.00000002,3_0_3:0.00000004):0.00000001):0.00000132):0.00000475,((3_0_0:0.00000018,3_0_9:0.00000025):0.00000335,((3_0_6:0.00000150,((3_0_1:0.00000089,(3_0_4:0.00000021,3_0_8:0.00000126):0.00000024):0.00000005,3_0_7:0.00000043):0.00000038):0.00000006,3_0_10:0.00000191):0.00000101):0.00000401):0.00252905,(((8_0_7:0.00000028,((8_0_10:0.00000005,8_0_5:0.00000003):0.00000052,8_0_11:0.00000034):0.00000020):0.00000258,((8_0_2:0.00000008,((8_0_1:0.00000002,8_0_9:0.00000007):0.00000119,8_0_4:0.00000125):0.00000002):0.00000293,8_0_3:0.00000162):0.00000087):0.00000156,(8_0_6:0.00000003,(8_0_0:0.00000001,8_0_8:0.00000003):0.00000001):0.00001098):0.00006780):0.00037780,(((((((5_0_7:0.00000023,5_0_3:0.00000016):0.00000060,(5_0_8:0.00000038,5_0_9:0.00000042):0.00000023):0.00000038,(5_0_4:0.00000011,5_0_6:0.00000057):0.00000012):0.00000108,(5_0_10:0.00000006,5_0_1:0.00000029):0.00000370):0.00000598,((5_0_11:0.00000001,5_0_0:0.00000001):0.00000088,(5_0_5:0.00000059,5_0_2:0.00000033):0.00000253):0.00001156):0.00009496,(((((4_0_5:0.00000045,4_0_9:0.00000062):0.00000036,((4_0_10:0.00000063,4_0_4:0.00000026):0.00000001,4_0_1:0.00000038):0.00000110):0.00000083,(4_0_8:0.00000007,4_0_0:0.00000008):0.00000033):0.00000024,(((4_0_2:0.00000111,4_0_3:0.00000071):0.00000008,4_0_11:0.00000066):0.00000103,4_0_6:0.00000253):0.00000072):0.00000057,4_0_7:0.00000419):0.00040755):0.00080123,((6_0_4:0.00000020,6_0_11:0.00000126):0.00001195,(6_0_6:0.00000113,(((6_0_9:0.00000201,6_0_1:0.00000028):0.00000135,(6_0_2:0.00000206,(6_0_8:0.00000219,6_0_7:0.00000015):0.00000075):0.00000021):0.00000145,(((6_0_5:0.00000017,6_0_10:0.00000001):0.00000026,6_0_0:0.00000041):0.00000095,6_0_3:0.00000061):0.00000236):0.00000127):0.00001834):0.00056288):0.00208839):0.00095363):0.01732336,((((((((1_0_2:0.00000003,1_0_11:0.00000001):0.00000017,1_0_1:0.00000034):0.00000003,1_0_9:0.00000020):0.00000028,1_0_10:0.00000105):0.00000018,(1_0_4:0.00000066,((1_0_8:0.00000008,1_0_5:0.00000016):0.00000020,1_0_6:0.00000030):0.00000003):0.00000186):0.00000049,1_0_3:0.00000488):0.00000081,(1_0_0:0.00000025,1_0_7:0.00000047):0.00000251):0.00149782,((((((((2_0_7:0.00000000,2_0_4:0.00000000):0.00000014,2_0_3:0.00000025):0.00000009,(2_0_1:0.00000003,2_0_10:0.00000008):0.00000008):0.00000113,(2_0_2:0.00000005,2_0_9:0.00000005):0.00000126):0.00000015,2_0_11:0.00000139):0.00000004,2_0_8:0.00000147):0.00000048,(2_0_6:0.00000003,2_0_0:0.00000012):0.00000195):0.00000541,2_0_5:0.00000998):0.00350874):0.00399259):0.00514156);
[TREE] T10 (((((((1_0_10:0.00000007,1_0_7:0.00000003):0.00000062,1_0_11:0.00000183):0.00000191,(1_0_8:0.00000028,1_0_9:0.00000007):0.00000057):0.00000334,((1_0_5:0.00000007,1_0_0:0.00000012):0.00000180,(1_0_2:0.00000028,(((1_0_6:0.00000001,1_0_1:0.00000003):0.00000072,1_0_4:0.00000049):0.00000003,1_0_3:0.00000107):0.00000025):0.00000526):0.00000020):0.00304273,((((2_0_8:0.00000009,2_0_0:0.00000011):0.00000036,((2_0_1:0.00000013,2_0_3:0.00000005):0.00000063,(2_0_10:0.00000003,2_0_2:0.00000000):0.00000122):0.00000016):0.00000347,2_0_4:0.00000655):0.00000795,((2_0_9:0.00000043,2_0_6:0.00000061):0.00000117,((2_0_7:0.00000021,2_0_5:0.00000033):0.00000063,2_0_11:0.00000133):0.00000045):0.00000410):0.00413289):0.03006256,(((((((5_0_3:0.00000021,5_0_6:0.00000010):0.00000119,(5_0_4:0.00000115,((5_0_0:0.00000000,5_0_8:0.00000000):0.00000259,5_0_10:0.00000128):0.00000105):0.00000022):0.00000329,(((5_0_1:0.00000019,5_0_9:0.00000033):0.00000124,(5_0_5:0.00000170,(5_0_2:0.00000005,5_0_7:0.00000004):0.00000044):0.00000019):0.00000070,5_0_11:0.00000208):0.00000069):0.00003753,((4_0_3:0.00000543,(((4_0_2:0.00000002,4_0_4:0.00000002):0.00000071,4_0_9:0.00000116):0.00000003,4_0_6:0.00000046):0.00000559):0.00001042,((4_0_8:0.00000044,(4_0_11:0.00000003,4_0_1:0.00000005):0.00000021):0.00000415,((4_0_0:0.00000023,(4_0_7:0.00000100,4_0_5:0.00000034):0.00000026):0.00000026,4_0_10:0.00000039):0.00000108):0.00000805):0.00016804):0.00036099,((6_0_4:0.00000103,((6_0_1:0.00000004,6_0_6:0.00000018):0.00000028,6_0_11:0.00000015):0.00000045):0.00000170,((((((6_0_9:0.00000001,6_0_8:0.00000001):0.00000004,6_0_0:0.00000011):0.00000047,(6_0_3:0.00000301,6_0_2:0.00000184):0.00000011):0.00000058,6_0_5:0.00000020):0.00000013,6_0_7:0.00000073):0.00000361,6_0_10:0.00000673):0.00000154):0.00184049):0.00041904,((8_0_8:0.00002071,((8_0_10:0.00000348,(8_0_6:0.00000030,8_0_0:0.00000039):0.00000224):0.00000410,((8_0_7:0.00000001,8_0_11:0.00000000):0.00000368,((8_0_3:0.00000007,(8_0_2:0.00000023,(8_0_1:0.00000037,8_0_9:0.00000091):0.00000006):0.00000012):0.00000030,(8_0_5:0.00000014,8_0_4:0.00000011):0.00000151):0.00000069):0.00001071):0.00000454):0.00199690,(((3_0_11:0.00000027,3_0_7:0.00000014):0.00000020,(3_0_1:0.00000010,3_0_8:0.00000032):0.00000043):0.00003928,(((3_0_6:0.00000003,3_0_0:0.00000001):0.00000001,3_0_10:0.00000001):0.00000069,(((3_0_2:0.00000005,3_0_3:0.00000095):0.00000015,(3_0_5:0.00000004,3_0_4:0.00000004):0.00000093):0.00000089,3_0_9:0.00000071):0.00000009):0.00001247):0.00087287):0.00049207):0.00257153,((7_0_1:0.00000282,((7_0_9:0.00000023,7_0_7:0.00000022):0.00000211,((7_0_8:0.00000048,(7_0_4:0.00000036,7_0_11:0.00000120):0.00000019):0.00000062,(7_0_0:0.00000101,7_0_2:0.00000035):0.00000137):0.00000085):0.00000081):0.00004274,((7_0_3:0.00000120,(7_0_5:0.00000013,7_0_6:0.00000026):0.00000060):0.00000056,7_0_10:0.00000076):0.00000409):0.00449514):0.02131551):0.02185363,0_0_0:0.02277052);

[PARTITIONS] csSimUnlinked_01 [T01 csSim_unlinked_1 500]
[PARTITIONS] csSimUnlinked_02 [T02 csSim_unlinked_2 500]
[PARTITIONS] csSimUnlinked_03 [T03 csSim_unlinked_3 500]
[PARTITIONS] csSimUnlinked_04 [T04 csSim_unlinked_4 500]
[PARTITIONS] csSimUnlinked_05 [T05 csSim_unlinked_5 500]
[PARTITIONS] csSimUnlinked_06 [T06 csSim_unlinked_6 500]
[PARTITIONS] csSimUnlinked_07 [T07 csSim_unlinked_7 500]
[PARTITIONS] csSimUnlinked_08 [T08 csSim_unlinked_8 500]
[PARTITIONS] csSimUnlinked_09 [T09 csSim_unlinked_9 500]
[PARTITIONS] csSimUnlinked_10 [T10 csSim_unlinked_10 500]

[EVOLVE] csSimUnlinked_01 1 data_01
csSimUnlinked_02 1 data_02
csSimUnlinked_03 1 data_03
csSimUnlinked_04 1 data_04
csSimUnlinked_05 1 data_05
csSimUnlinked_06 1 data_06
csSimUnlinked_07 1 data_07
csSimUnlinked_08 1 data_08
csSimUnlinked_09 1 data_09
csSimUnlinked_10 1 data_10
