"","Description","Ind1","Ind2","Ind3","Ind4","Ind5","Ind6","Ind7","Ind8","Ind9","Ind10","Ind11","Ind12","Ind13","Ind14","Ind15","Ind16","Ind17","Ind18","Ind19","Ind20","Ind21","Ind22","Ind23","Ind24","Ind25","Ind26","Ind27","Ind28","Ind29","Ind30","Ind31","Ind32","Ind33","Ind34","Ind35","Ind36","Ind37","Ind38","Ind39","Ind40","Ind41"
"Ind1","20_0_1",-1,0,0,0,0,0,0,0,0,0,0,0,0,0,0,0,0,0,0,0,0,0,0,0,0,0,0,0,0,0,0,0,0,0,0,0,0,0,0,0,0
"Ind2","20_0_0",0,-1,0,0,0,0,0,0,0,0,0,0,0,0,0,0,0,0,0,0,0,0,0,0,0,0,0,0,0,0,0,0,0,0,0,0,0,0,0,0,0
"Ind3","18_0_0",10,10,-1,0,0,0,0,0,0,0,0,0,0,0,0,0,0,0,0,0,0,0,0,0,0,0,0,0,0,0,0,0,0,0,0,0,0,0,0,0,0
"Ind4","18_0_1",10,10,0,-1,0,0,0,0,0,0,0,0,0,0,0,0,0,0,0,0,0,0,0,0,0,0,0,0,0,0,0,0,0,0,0,0,0,0,0,0,0
"Ind5","19_0_0",30,30,29,29,-1,0,0,0,0,0,0,0,0,0,0,0,0,0,0,0,0,0,0,0,0,0,0,0,0,0,0,0,0,0,0,0,0,0,0,0,0
"Ind6","19_0_1",30,30,29,29,0,-1,0,0,0,0,0,0,0,0,0,0,0,0,0,0,0,0,0,0,0,0,0,0,0,0,0,0,0,0,0,0,0,0,0,0,0
"Ind7","8_0_0",49,49,55,55,55,55,-1,0,0,0,0,0,0,0,0,0,0,0,0,0,0,0,0,0,0,0,0,0,0,0,0,0,0,0,0,0,0,0,0,0,0
"Ind8","8_0_1",49,49,55,55,55,55,0,-1,0,0,0,0,0,0,0,0,0,0,0,0,0,0,0,0,0,0,0,0,0,0,0,0,0,0,0,0,0,0,0,0,0
"Ind9","17_0_0",53,53,57,57,59,59,12,12,-1,0,0,0,0,0,0,0,0,0,0,0,0,0,0,0,0,0,0,0,0,0,0,0,0,0,0,0,0,0,0,0,0
"Ind10","17_0_1",53,53,57,57,59,59,12,12,0,-1,0,0,0,0,0,0,0,0,0,0,0,0,0,0,0,0,0,0,0,0,0,0,0,0,0,0,0,0,0,0,0
"Ind11","16_0_0",54,54,56,56,54,54,31,31,35,35,-1,0,0,0,0,0,0,0,0,0,0,0,0,0,0,0,0,0,0,0,0,0,0,0,0,0,0,0,0,0,0
"Ind12","16_0_1",54,54,56,56,54,54,31,31,35,35,0,-1,0,0,0,0,0,0,0,0,0,0,0,0,0,0,0,0,0,0,0,0,0,0,0,0,0,0,0,0,0
"Ind13","5_0_1",53,53,55,55,53,53,30,30,34,34,1,1,-1,0,0,0,0,0,0,0,0,0,0,0,0,0,0,0,0,0,0,0,0,0,0,0,0,0,0,0,0
"Ind14","5_0_0",53,53,55,55,53,53,30,30,34,34,1,1,0,-1,0,0,0,0,0,0,0,0,0,0,0,0,0,0,0,0,0,0,0,0,0,0,0,0,0,0,0
"Ind15","9_0_0",54,54,54,54,53,53,33,33,37,37,8,8,7,7,-1,0,0,0,0,0,0,0,0,0,0,0,0,0,0,0,0,0,0,0,0,0,0,0,0,0,0
"Ind16","9_0_1",54,54,54,54,53,53,33,33,37,37,8,8,7,7,0,-1,0,0,0,0,0,0,0,0,0,0,0,0,0,0,0,0,0,0,0,0,0,0,0,0,0
"Ind17","2_0_0",52,52,52,52,55,55,33,33,37,37,12,12,11,11,10,10,-1,0,0,0,0,0,0,0,0,0,0,0,0,0,0,0,0,0,0,0,0,0,0,0,0
"Ind18","2_0_1",52,52,52,52,55,55,33,33,37,37,12,12,11,11,10,10,0,-1,0,0,0,0,0,0,0,0,0,0,0,0,0,0,0,0,0,0,0,0,0,0,0
"Ind19","6_0_1",52,52,50,50,55,55,35,35,39,39,14,14,13,13,14,14,8,8,-1,0,0,0,0,0,0,0,0,0,0,0,0,0,0,0,0,0,0,0,0,0,0
"Ind20","6_0_0",52,52,50,50,55,55,35,35,39,39,14,14,13,13,14,14,8,8,0,-1,0,0,0,0,0,0,0,0,0,0,0,0,0,0,0,0,0,0,0,0,0
"Ind21","11_0_0",52,52,52,52,55,55,37,37,41,41,16,16,15,15,16,16,10,10,6,6,-1,0,0,0,0,0,0,0,0,0,0,0,0,0,0,0,0,0,0,0,0
"Ind22","11_0_1",52,52,52,52,55,55,37,37,41,41,16,16,15,15,16,16,10,10,6,6,0,-1,0,0,0,0,0,0,0,0,0,0,0,0,0,0,0,0,0,0,0
"Ind23","7_0_0",57,57,57,57,58,58,38,38,38,38,21,21,20,20,19,19,21,21,25,25,25,25,-1,0,0,0,0,0,0,0,0,0,0,0,0,0,0,0,0,0,0
"Ind24","7_0_1",57,57,57,57,58,58,38,38,38,38,21,21,20,20,19,19,21,21,25,25,25,25,0,-1,0,0,0,0,0,0,0,0,0,0,0,0,0,0,0,0,0
"Ind25","14_0_1",55,55,55,55,56,56,34,34,36,36,17,17,16,16,17,17,19,19,21,21,21,21,12,12,-1,0,0,0,0,0,0,0,0,0,0,0,0,0,0,0,0
"Ind26","14_0_0",55,55,55,55,56,56,34,34,36,36,17,17,16,16,17,17,19,19,21,21,21,21,12,12,0,-1,0,0,0,0,0,0,0,0,0,0,0,0,0,0,0
"Ind27","1_0_1",57,57,55,55,54,54,45,45,49,49,40,40,39,39,38,38,40,40,40,40,44,44,45,45,43,43,-1,0,0,0,0,0,0,0,0,0,0,0,0,0,0
"Ind28","1_0_0",57,57,55,55,54,54,45,45,49,49,40,40,39,39,38,38,40,40,40,40,44,44,45,45,43,43,0,-1,0,0,0,0,0,0,0,0,0,0,0,0,0
"Ind29","10_0_0",52,52,52,52,51,51,38,38,42,42,33,33,32,32,31,31,32,32,36,36,38,38,38,38,36,36,23,23,-1,0,0,0,0,0,0,0,0,0,0,0,0
"Ind30","10_0_1",52,52,52,52,51,51,38,38,42,42,33,33,32,32,31,31,32,32,36,36,38,38,38,38,36,36,23,23,0,-1,0,0,0,0,0,0,0,0,0,0,0
"Ind31","13_0_1",54,54,52,52,51,51,40,40,44,44,33,33,32,32,31,31,32,32,36,36,38,38,38,38,36,36,23,23,2,2,-1,0,0,0,0,0,0,0,0,0,0
"Ind32","13_0_0",54,54,52,52,51,51,40,40,44,44,33,33,32,32,31,31,32,32,36,36,38,38,38,38,36,36,23,23,2,2,0,-1,0,0,0,0,0,0,0,0,0
"Ind33","15_0_0",55,55,51,51,52,52,44,44,48,48,39,39,38,38,35,35,39,39,43,43,45,45,42,42,40,40,29,29,20,20,20,20,-1,0,0,0,0,0,0,0,0
"Ind34","15_0_1",55,55,51,51,52,52,44,44,48,48,39,39,38,38,35,35,39,39,43,43,45,45,42,42,40,40,29,29,20,20,20,20,0,-1,0,0,0,0,0,0,0
"Ind35","12_0_1",58,58,56,56,57,57,41,41,45,45,36,36,35,35,32,32,36,36,40,40,42,42,41,41,39,39,28,28,19,19,19,19,7,7,-1,0,0,0,0,0,0
"Ind36","12_0_0",58,58,56,56,57,57,41,41,45,45,36,36,35,35,32,32,36,36,40,40,42,42,41,41,39,39,28,28,19,19,19,19,7,7,0,-1,0,0,0,0,0
"Ind37","4_0_0",56,56,54,54,55,55,39,39,43,43,34,34,33,33,30,30,34,34,38,38,40,40,39,39,37,37,26,26,17,17,17,17,5,5,2,2,-1,0,0,0,0
"Ind38","4_0_1",56,56,54,54,55,55,39,39,43,43,34,34,33,33,30,30,34,34,38,38,40,40,39,39,37,37,26,26,17,17,17,17,5,5,2,2,0,-1,0,0,0
"Ind39","3_0_1",55,55,53,53,54,54,38,38,42,42,33,33,32,32,31,31,33,33,37,37,39,39,38,38,36,36,25,25,16,16,16,16,6,6,3,3,1,1,-1,0,0
"Ind40","3_0_0",55,55,53,53,54,54,38,38,42,42,33,33,32,32,31,31,33,33,37,37,39,39,38,38,36,36,25,25,16,16,16,16,6,6,3,3,1,1,0,-1,0
"Ind41","0_0_0",70,70,70,70,71,71,82,82,90,90,79,79,78,78,80,80,80,80,82,82,82,82,85,85,79,79,78,78,77,77,79,79,86,86,89,89,87,87,86,86,-1
