"","Description","Ind1","Ind2","Ind3","Ind4","Ind5","Ind6","Ind7","Ind8","Ind9","Ind10","Ind11","Ind12","Ind13","Ind14","Ind15","Ind16","Ind17","Ind18","Ind19","Ind20","Ind21","Ind22","Ind23","Ind24","Ind25","Ind26","Ind27","Ind28","Ind29","Ind30","Ind31","Ind32","Ind33","Ind34","Ind35","Ind36","Ind37","Ind38","Ind39","Ind40","Ind41","Ind42","Ind43","Ind44","Ind45","Ind46","Ind47","Ind48","Ind49","Ind50","Ind51","Ind52","Ind53","Ind54","Ind55","Ind56","Ind57","Ind58","Ind59","Ind60","Ind61","Ind62","Ind63","Ind64","Ind65","Ind66","Ind67","Ind68","Ind69","Ind70","Ind71","Ind72","Ind73","Ind74","Ind75","Ind76","Ind77","Ind78","Ind79","Ind80","Ind81","Ind82","Ind83","Ind84","Ind85","Ind86","Ind87","Ind88","Ind89","Ind90","Ind91","Ind92","Ind93","Ind94","Ind95","Ind96","Ind97","Ind98","Ind99","Ind100","Ind101","Ind102","Ind103","Ind104","Ind105","Ind106"
"Ind1","10_0_2",-1,0,0,0,0,0,0,0,0,0,0,0,0,0,0,0,0,0,0,0,0,0,0,0,0,0,0,0,0,0,0,0,0,0,0,0,0,0,0,0,0,0,0,0,0,0,0,0,0,0,0,0,0,0,0,0,0,0,0,0,0,0,0,0,0,0,0,0,0,0,0,0,0,0,0,0,0,0,0,0,0,0,0,0,0,0,0,0,0,0,0,0,0,0,0,0,0,0,0,0,0,0,0,0,0,0
"Ind2","10_0_4",0,-1,0,0,0,0,0,0,0,0,0,0,0,0,0,0,0,0,0,0,0,0,0,0,0,0,0,0,0,0,0,0,0,0,0,0,0,0,0,0,0,0,0,0,0,0,0,0,0,0,0,0,0,0,0,0,0,0,0,0,0,0,0,0,0,0,0,0,0,0,0,0,0,0,0,0,0,0,0,0,0,0,0,0,0,0,0,0,0,0,0,0,0,0,0,0,0,0,0,0,0,0,0,0,0,0
"Ind3","10_0_0",0,0,-1,0,0,0,0,0,0,0,0,0,0,0,0,0,0,0,0,0,0,0,0,0,0,0,0,0,0,0,0,0,0,0,0,0,0,0,0,0,0,0,0,0,0,0,0,0,0,0,0,0,0,0,0,0,0,0,0,0,0,0,0,0,0,0,0,0,0,0,0,0,0,0,0,0,0,0,0,0,0,0,0,0,0,0,0,0,0,0,0,0,0,0,0,0,0,0,0,0,0,0,0,0,0,0
"Ind4","10_0_6",0,0,0,-1,0,0,0,0,0,0,0,0,0,0,0,0,0,0,0,0,0,0,0,0,0,0,0,0,0,0,0,0,0,0,0,0,0,0,0,0,0,0,0,0,0,0,0,0,0,0,0,0,0,0,0,0,0,0,0,0,0,0,0,0,0,0,0,0,0,0,0,0,0,0,0,0,0,0,0,0,0,0,0,0,0,0,0,0,0,0,0,0,0,0,0,0,0,0,0,0,0,0,0,0,0,0
"Ind5","10_0_5",0,0,0,0,-1,0,0,0,0,0,0,0,0,0,0,0,0,0,0,0,0,0,0,0,0,0,0,0,0,0,0,0,0,0,0,0,0,0,0,0,0,0,0,0,0,0,0,0,0,0,0,0,0,0,0,0,0,0,0,0,0,0,0,0,0,0,0,0,0,0,0,0,0,0,0,0,0,0,0,0,0,0,0,0,0,0,0,0,0,0,0,0,0,0,0,0,0,0,0,0,0,0,0,0,0,0
"Ind6","10_0_3",0,0,0,0,0,-1,0,0,0,0,0,0,0,0,0,0,0,0,0,0,0,0,0,0,0,0,0,0,0,0,0,0,0,0,0,0,0,0,0,0,0,0,0,0,0,0,0,0,0,0,0,0,0,0,0,0,0,0,0,0,0,0,0,0,0,0,0,0,0,0,0,0,0,0,0,0,0,0,0,0,0,0,0,0,0,0,0,0,0,0,0,0,0,0,0,0,0,0,0,0,0,0,0,0,0,0
"Ind7","10_0_1",0,0,0,0,0,0,-1,0,0,0,0,0,0,0,0,0,0,0,0,0,0,0,0,0,0,0,0,0,0,0,0,0,0,0,0,0,0,0,0,0,0,0,0,0,0,0,0,0,0,0,0,0,0,0,0,0,0,0,0,0,0,0,0,0,0,0,0,0,0,0,0,0,0,0,0,0,0,0,0,0,0,0,0,0,0,0,0,0,0,0,0,0,0,0,0,0,0,0,0,0,0,0,0,0,0,0
"Ind8","11_0_6",9,9,9,9,9,9,9,-1,0,0,0,0,0,0,0,0,0,0,0,0,0,0,0,0,0,0,0,0,0,0,0,0,0,0,0,0,0,0,0,0,0,0,0,0,0,0,0,0,0,0,0,0,0,0,0,0,0,0,0,0,0,0,0,0,0,0,0,0,0,0,0,0,0,0,0,0,0,0,0,0,0,0,0,0,0,0,0,0,0,0,0,0,0,0,0,0,0,0,0,0,0,0,0,0,0,0
"Ind9","11_0_1",9,9,9,9,9,9,9,0,-1,0,0,0,0,0,0,0,0,0,0,0,0,0,0,0,0,0,0,0,0,0,0,0,0,0,0,0,0,0,0,0,0,0,0,0,0,0,0,0,0,0,0,0,0,0,0,0,0,0,0,0,0,0,0,0,0,0,0,0,0,0,0,0,0,0,0,0,0,0,0,0,0,0,0,0,0,0,0,0,0,0,0,0,0,0,0,0,0,0,0,0,0,0,0,0,0,0
"Ind10","11_0_0",9,9,9,9,9,9,9,0,0,-1,0,0,0,0,0,0,0,0,0,0,0,0,0,0,0,0,0,0,0,0,0,0,0,0,0,0,0,0,0,0,0,0,0,0,0,0,0,0,0,0,0,0,0,0,0,0,0,0,0,0,0,0,0,0,0,0,0,0,0,0,0,0,0,0,0,0,0,0,0,0,0,0,0,0,0,0,0,0,0,0,0,0,0,0,0,0,0,0,0,0,0,0,0,0,0,0
"Ind11","11_0_2",9,9,9,9,9,9,9,0,0,0,-1,0,0,0,0,0,0,0,0,0,0,0,0,0,0,0,0,0,0,0,0,0,0,0,0,0,0,0,0,0,0,0,0,0,0,0,0,0,0,0,0,0,0,0,0,0,0,0,0,0,0,0,0,0,0,0,0,0,0,0,0,0,0,0,0,0,0,0,0,0,0,0,0,0,0,0,0,0,0,0,0,0,0,0,0,0,0,0,0,0,0,0,0,0,0,0
"Ind12","11_0_4",9,9,9,9,9,9,9,0,0,0,0,-1,0,0,0,0,0,0,0,0,0,0,0,0,0,0,0,0,0,0,0,0,0,0,0,0,0,0,0,0,0,0,0,0,0,0,0,0,0,0,0,0,0,0,0,0,0,0,0,0,0,0,0,0,0,0,0,0,0,0,0,0,0,0,0,0,0,0,0,0,0,0,0,0,0,0,0,0,0,0,0,0,0,0,0,0,0,0,0,0,0,0,0,0,0,0
"Ind13","11_0_3",9,9,9,9,9,9,9,0,0,0,0,0,-1,0,0,0,0,0,0,0,0,0,0,0,0,0,0,0,0,0,0,0,0,0,0,0,0,0,0,0,0,0,0,0,0,0,0,0,0,0,0,0,0,0,0,0,0,0,0,0,0,0,0,0,0,0,0,0,0,0,0,0,0,0,0,0,0,0,0,0,0,0,0,0,0,0,0,0,0,0,0,0,0,0,0,0,0,0,0,0,0,0,0,0,0,0
"Ind14","11_0_5",9,9,9,9,9,9,9,0,0,0,0,0,0,-1,0,0,0,0,0,0,0,0,0,0,0,0,0,0,0,0,0,0,0,0,0,0,0,0,0,0,0,0,0,0,0,0,0,0,0,0,0,0,0,0,0,0,0,0,0,0,0,0,0,0,0,0,0,0,0,0,0,0,0,0,0,0,0,0,0,0,0,0,0,0,0,0,0,0,0,0,0,0,0,0,0,0,0,0,0,0,0,0,0,0,0,0
"Ind15","8_0_2",13,13,13,13,13,13,13,10,10,10,10,10,10,10,-1,0,0,0,0,0,0,0,0,0,0,0,0,0,0,0,0,0,0,0,0,0,0,0,0,0,0,0,0,0,0,0,0,0,0,0,0,0,0,0,0,0,0,0,0,0,0,0,0,0,0,0,0,0,0,0,0,0,0,0,0,0,0,0,0,0,0,0,0,0,0,0,0,0,0,0,0,0,0,0,0,0,0,0,0,0,0,0,0,0,0,0
"Ind16","8_0_1",13,13,13,13,13,13,13,10,10,10,10,10,10,10,0,-1,0,0,0,0,0,0,0,0,0,0,0,0,0,0,0,0,0,0,0,0,0,0,0,0,0,0,0,0,0,0,0,0,0,0,0,0,0,0,0,0,0,0,0,0,0,0,0,0,0,0,0,0,0,0,0,0,0,0,0,0,0,0,0,0,0,0,0,0,0,0,0,0,0,0,0,0,0,0,0,0,0,0,0,0,0,0,0,0,0,0
"Ind17","8_0_6",13,13,13,13,13,13,13,10,10,10,10,10,10,10,0,0,-1,0,0,0,0,0,0,0,0,0,0,0,0,0,0,0,0,0,0,0,0,0,0,0,0,0,0,0,0,0,0,0,0,0,0,0,0,0,0,0,0,0,0,0,0,0,0,0,0,0,0,0,0,0,0,0,0,0,0,0,0,0,0,0,0,0,0,0,0,0,0,0,0,0,0,0,0,0,0,0,0,0,0,0,0,0,0,0,0,0
"Ind18","8_0_4",13,13,13,13,13,13,13,10,10,10,10,10,10,10,0,0,0,-1,0,0,0,0,0,0,0,0,0,0,0,0,0,0,0,0,0,0,0,0,0,0,0,0,0,0,0,0,0,0,0,0,0,0,0,0,0,0,0,0,0,0,0,0,0,0,0,0,0,0,0,0,0,0,0,0,0,0,0,0,0,0,0,0,0,0,0,0,0,0,0,0,0,0,0,0,0,0,0,0,0,0,0,0,0,0,0,0
"Ind19","8_0_5",13,13,13,13,13,13,13,10,10,10,10,10,10,10,0,0,0,0,-1,0,0,0,0,0,0,0,0,0,0,0,0,0,0,0,0,0,0,0,0,0,0,0,0,0,0,0,0,0,0,0,0,0,0,0,0,0,0,0,0,0,0,0,0,0,0,0,0,0,0,0,0,0,0,0,0,0,0,0,0,0,0,0,0,0,0,0,0,0,0,0,0,0,0,0,0,0,0,0,0,0,0,0,0,0,0,0
"Ind20","8_0_3",13,13,13,13,13,13,13,10,10,10,10,10,10,10,0,0,0,0,0,-1,0,0,0,0,0,0,0,0,0,0,0,0,0,0,0,0,0,0,0,0,0,0,0,0,0,0,0,0,0,0,0,0,0,0,0,0,0,0,0,0,0,0,0,0,0,0,0,0,0,0,0,0,0,0,0,0,0,0,0,0,0,0,0,0,0,0,0,0,0,0,0,0,0,0,0,0,0,0,0,0,0,0,0,0,0,0
"Ind21","8_0_0",13,13,13,13,13,13,13,10,10,10,10,10,10,10,0,0,0,0,0,0,-1,0,0,0,0,0,0,0,0,0,0,0,0,0,0,0,0,0,0,0,0,0,0,0,0,0,0,0,0,0,0,0,0,0,0,0,0,0,0,0,0,0,0,0,0,0,0,0,0,0,0,0,0,0,0,0,0,0,0,0,0,0,0,0,0,0,0,0,0,0,0,0,0,0,0,0,0,0,0,0,0,0,0,0,0,0
"Ind22","7_0_3",12,12,12,12,12,12,12,9,9,9,9,9,9,9,1,1,1,1,1,1,1,-1,0,0,0,0,0,0,0,0,0,0,0,0,0,0,0,0,0,0,0,0,0,0,0,0,0,0,0,0,0,0,0,0,0,0,0,0,0,0,0,0,0,0,0,0,0,0,0,0,0,0,0,0,0,0,0,0,0,0,0,0,0,0,0,0,0,0,0,0,0,0,0,0,0,0,0,0,0,0,0,0,0,0,0,0
"Ind23","7_0_4",12,12,12,12,12,12,12,9,9,9,9,9,9,9,1,1,1,1,1,1,1,0,-1,0,0,0,0,0,0,0,0,0,0,0,0,0,0,0,0,0,0,0,0,0,0,0,0,0,0,0,0,0,0,0,0,0,0,0,0,0,0,0,0,0,0,0,0,0,0,0,0,0,0,0,0,0,0,0,0,0,0,0,0,0,0,0,0,0,0,0,0,0,0,0,0,0,0,0,0,0,0,0,0,0,0,0
"Ind24","7_0_6",12,12,12,12,12,12,12,9,9,9,9,9,9,9,1,1,1,1,1,1,1,0,0,-1,0,0,0,0,0,0,0,0,0,0,0,0,0,0,0,0,0,0,0,0,0,0,0,0,0,0,0,0,0,0,0,0,0,0,0,0,0,0,0,0,0,0,0,0,0,0,0,0,0,0,0,0,0,0,0,0,0,0,0,0,0,0,0,0,0,0,0,0,0,0,0,0,0,0,0,0,0,0,0,0,0,0
"Ind25","7_0_2",12,12,12,12,12,12,12,9,9,9,9,9,9,9,1,1,1,1,1,1,1,0,0,0,-1,0,0,0,0,0,0,0,0,0,0,0,0,0,0,0,0,0,0,0,0,0,0,0,0,0,0,0,0,0,0,0,0,0,0,0,0,0,0,0,0,0,0,0,0,0,0,0,0,0,0,0,0,0,0,0,0,0,0,0,0,0,0,0,0,0,0,0,0,0,0,0,0,0,0,0,0,0,0,0,0,0
"Ind26","7_0_1",12,12,12,12,12,12,12,9,9,9,9,9,9,9,1,1,1,1,1,1,1,0,0,0,0,-1,0,0,0,0,0,0,0,0,0,0,0,0,0,0,0,0,0,0,0,0,0,0,0,0,0,0,0,0,0,0,0,0,0,0,0,0,0,0,0,0,0,0,0,0,0,0,0,0,0,0,0,0,0,0,0,0,0,0,0,0,0,0,0,0,0,0,0,0,0,0,0,0,0,0,0,0,0,0,0,0
"Ind27","7_0_0",12,12,12,12,12,12,12,9,9,9,9,9,9,9,1,1,1,1,1,1,1,0,0,0,0,0,-1,0,0,0,0,0,0,0,0,0,0,0,0,0,0,0,0,0,0,0,0,0,0,0,0,0,0,0,0,0,0,0,0,0,0,0,0,0,0,0,0,0,0,0,0,0,0,0,0,0,0,0,0,0,0,0,0,0,0,0,0,0,0,0,0,0,0,0,0,0,0,0,0,0,0,0,0,0,0,0
"Ind28","7_0_5",12,12,12,12,12,12,12,9,9,9,9,9,9,9,1,1,1,1,1,1,1,0,0,0,0,0,0,-1,0,0,0,0,0,0,0,0,0,0,0,0,0,0,0,0,0,0,0,0,0,0,0,0,0,0,0,0,0,0,0,0,0,0,0,0,0,0,0,0,0,0,0,0,0,0,0,0,0,0,0,0,0,0,0,0,0,0,0,0,0,0,0,0,0,0,0,0,0,0,0,0,0,0,0,0,0,0
"Ind29","6_0_2",37,37,37,37,37,37,37,34,34,34,34,34,34,34,36,36,36,36,36,36,36,35,35,35,35,35,35,35,-1,0,0,0,0,0,0,0,0,0,0,0,0,0,0,0,0,0,0,0,0,0,0,0,0,0,0,0,0,0,0,0,0,0,0,0,0,0,0,0,0,0,0,0,0,0,0,0,0,0,0,0,0,0,0,0,0,0,0,0,0,0,0,0,0,0,0,0,0,0,0,0,0,0,0,0,0,0
"Ind30","6_0_6",37,37,37,37,37,37,37,34,34,34,34,34,34,34,36,36,36,36,36,36,36,35,35,35,35,35,35,35,0,-1,0,0,0,0,0,0,0,0,0,0,0,0,0,0,0,0,0,0,0,0,0,0,0,0,0,0,0,0,0,0,0,0,0,0,0,0,0,0,0,0,0,0,0,0,0,0,0,0,0,0,0,0,0,0,0,0,0,0,0,0,0,0,0,0,0,0,0,0,0,0,0,0,0,0,0,0
"Ind31","6_0_4",37,37,37,37,37,37,37,34,34,34,34,34,34,34,36,36,36,36,36,36,36,35,35,35,35,35,35,35,0,0,-1,0,0,0,0,0,0,0,0,0,0,0,0,0,0,0,0,0,0,0,0,0,0,0,0,0,0,0,0,0,0,0,0,0,0,0,0,0,0,0,0,0,0,0,0,0,0,0,0,0,0,0,0,0,0,0,0,0,0,0,0,0,0,0,0,0,0,0,0,0,0,0,0,0,0,0
"Ind32","6_0_3",37,37,37,37,37,37,37,34,34,34,34,34,34,34,36,36,36,36,36,36,36,35,35,35,35,35,35,35,0,0,0,-1,0,0,0,0,0,0,0,0,0,0,0,0,0,0,0,0,0,0,0,0,0,0,0,0,0,0,0,0,0,0,0,0,0,0,0,0,0,0,0,0,0,0,0,0,0,0,0,0,0,0,0,0,0,0,0,0,0,0,0,0,0,0,0,0,0,0,0,0,0,0,0,0,0,0
"Ind33","6_0_1",37,37,37,37,37,37,37,34,34,34,34,34,34,34,36,36,36,36,36,36,36,35,35,35,35,35,35,35,0,0,0,0,-1,0,0,0,0,0,0,0,0,0,0,0,0,0,0,0,0,0,0,0,0,0,0,0,0,0,0,0,0,0,0,0,0,0,0,0,0,0,0,0,0,0,0,0,0,0,0,0,0,0,0,0,0,0,0,0,0,0,0,0,0,0,0,0,0,0,0,0,0,0,0,0,0,0
"Ind34","6_0_5",37,37,37,37,37,37,37,34,34,34,34,34,34,34,36,36,36,36,36,36,36,35,35,35,35,35,35,35,0,0,0,0,0,-1,0,0,0,0,0,0,0,0,0,0,0,0,0,0,0,0,0,0,0,0,0,0,0,0,0,0,0,0,0,0,0,0,0,0,0,0,0,0,0,0,0,0,0,0,0,0,0,0,0,0,0,0,0,0,0,0,0,0,0,0,0,0,0,0,0,0,0,0,0,0,0,0
"Ind35","6_0_0",37,37,37,37,37,37,37,34,34,34,34,34,34,34,36,36,36,36,36,36,36,35,35,35,35,35,35,35,0,0,0,0,0,0,-1,0,0,0,0,0,0,0,0,0,0,0,0,0,0,0,0,0,0,0,0,0,0,0,0,0,0,0,0,0,0,0,0,0,0,0,0,0,0,0,0,0,0,0,0,0,0,0,0,0,0,0,0,0,0,0,0,0,0,0,0,0,0,0,0,0,0,0,0,0,0,0
"Ind36","2_0_1",39,39,39,39,39,39,39,36,36,36,36,36,36,36,38,38,38,38,38,38,38,37,37,37,37,37,37,37,4,4,4,4,4,4,4,-1,0,0,0,0,0,0,0,0,0,0,0,0,0,0,0,0,0,0,0,0,0,0,0,0,0,0,0,0,0,0,0,0,0,0,0,0,0,0,0,0,0,0,0,0,0,0,0,0,0,0,0,0,0,0,0,0,0,0,0,0,0,0,0,0,0,0,0,0,0,0
"Ind37","2_0_6",39,39,39,39,39,39,39,36,36,36,36,36,36,36,38,38,38,38,38,38,38,37,37,37,37,37,37,37,4,4,4,4,4,4,4,0,-1,0,0,0,0,0,0,0,0,0,0,0,0,0,0,0,0,0,0,0,0,0,0,0,0,0,0,0,0,0,0,0,0,0,0,0,0,0,0,0,0,0,0,0,0,0,0,0,0,0,0,0,0,0,0,0,0,0,0,0,0,0,0,0,0,0,0,0,0,0
"Ind38","2_0_5",39,39,39,39,39,39,39,36,36,36,36,36,36,36,38,38,38,38,38,38,38,37,37,37,37,37,37,37,4,4,4,4,4,4,4,0,0,-1,0,0,0,0,0,0,0,0,0,0,0,0,0,0,0,0,0,0,0,0,0,0,0,0,0,0,0,0,0,0,0,0,0,0,0,0,0,0,0,0,0,0,0,0,0,0,0,0,0,0,0,0,0,0,0,0,0,0,0,0,0,0,0,0,0,0,0,0
"Ind39","2_0_3",39,39,39,39,39,39,39,36,36,36,36,36,36,36,38,38,38,38,38,38,38,37,37,37,37,37,37,37,4,4,4,4,4,4,4,0,0,0,-1,0,0,0,0,0,0,0,0,0,0,0,0,0,0,0,0,0,0,0,0,0,0,0,0,0,0,0,0,0,0,0,0,0,0,0,0,0,0,0,0,0,0,0,0,0,0,0,0,0,0,0,0,0,0,0,0,0,0,0,0,0,0,0,0,0,0,0
"Ind40","2_0_2",39,39,39,39,39,39,39,36,36,36,36,36,36,36,38,38,38,38,38,38,38,37,37,37,37,37,37,37,4,4,4,4,4,4,4,0,0,0,0,-1,0,0,0,0,0,0,0,0,0,0,0,0,0,0,0,0,0,0,0,0,0,0,0,0,0,0,0,0,0,0,0,0,0,0,0,0,0,0,0,0,0,0,0,0,0,0,0,0,0,0,0,0,0,0,0,0,0,0,0,0,0,0,0,0,0,0
"Ind41","2_0_4",39,39,39,39,39,39,39,36,36,36,36,36,36,36,38,38,38,38,38,38,38,37,37,37,37,37,37,37,4,4,4,4,4,4,4,0,0,0,0,0,-1,0,0,0,0,0,0,0,0,0,0,0,0,0,0,0,0,0,0,0,0,0,0,0,0,0,0,0,0,0,0,0,0,0,0,0,0,0,0,0,0,0,0,0,0,0,0,0,0,0,0,0,0,0,0,0,0,0,0,0,0,0,0,0,0,0
"Ind42","2_0_0",39,39,39,39,39,39,39,36,36,36,36,36,36,36,38,38,38,38,38,38,38,37,37,37,37,37,37,37,4,4,4,4,4,4,4,0,0,0,0,0,0,-1,0,0,0,0,0,0,0,0,0,0,0,0,0,0,0,0,0,0,0,0,0,0,0,0,0,0,0,0,0,0,0,0,0,0,0,0,0,0,0,0,0,0,0,0,0,0,0,0,0,0,0,0,0,0,0,0,0,0,0,0,0,0,0,0
"Ind43","4_0_5",39,39,39,39,39,39,39,36,36,36,36,36,36,36,38,38,38,38,38,38,38,37,37,37,37,37,37,37,4,4,4,4,4,4,4,0,0,0,0,0,0,0,-1,0,0,0,0,0,0,0,0,0,0,0,0,0,0,0,0,0,0,0,0,0,0,0,0,0,0,0,0,0,0,0,0,0,0,0,0,0,0,0,0,0,0,0,0,0,0,0,0,0,0,0,0,0,0,0,0,0,0,0,0,0,0,0
"Ind44","4_0_0",39,39,39,39,39,39,39,36,36,36,36,36,36,36,38,38,38,38,38,38,38,37,37,37,37,37,37,37,4,4,4,4,4,4,4,0,0,0,0,0,0,0,0,-1,0,0,0,0,0,0,0,0,0,0,0,0,0,0,0,0,0,0,0,0,0,0,0,0,0,0,0,0,0,0,0,0,0,0,0,0,0,0,0,0,0,0,0,0,0,0,0,0,0,0,0,0,0,0,0,0,0,0,0,0,0,0
"Ind45","4_0_2",39,39,39,39,39,39,39,36,36,36,36,36,36,36,38,38,38,38,38,38,38,37,37,37,37,37,37,37,4,4,4,4,4,4,4,0,0,0,0,0,0,0,0,0,-1,0,0,0,0,0,0,0,0,0,0,0,0,0,0,0,0,0,0,0,0,0,0,0,0,0,0,0,0,0,0,0,0,0,0,0,0,0,0,0,0,0,0,0,0,0,0,0,0,0,0,0,0,0,0,0,0,0,0,0,0,0
"Ind46","4_0_3",39,39,39,39,39,39,39,36,36,36,36,36,36,36,38,38,38,38,38,38,38,37,37,37,37,37,37,37,4,4,4,4,4,4,4,0,0,0,0,0,0,0,0,0,0,-1,0,0,0,0,0,0,0,0,0,0,0,0,0,0,0,0,0,0,0,0,0,0,0,0,0,0,0,0,0,0,0,0,0,0,0,0,0,0,0,0,0,0,0,0,0,0,0,0,0,0,0,0,0,0,0,0,0,0,0,0
"Ind47","4_0_6",39,39,39,39,39,39,39,36,36,36,36,36,36,36,38,38,38,38,38,38,38,37,37,37,37,37,37,37,4,4,4,4,4,4,4,0,0,0,0,0,0,0,0,0,0,0,-1,0,0,0,0,0,0,0,0,0,0,0,0,0,0,0,0,0,0,0,0,0,0,0,0,0,0,0,0,0,0,0,0,0,0,0,0,0,0,0,0,0,0,0,0,0,0,0,0,0,0,0,0,0,0,0,0,0,0,0
"Ind48","4_0_4",39,39,39,39,39,39,39,36,36,36,36,36,36,36,38,38,38,38,38,38,38,37,37,37,37,37,37,37,4,4,4,4,4,4,4,0,0,0,0,0,0,0,0,0,0,0,0,-1,0,0,0,0,0,0,0,0,0,0,0,0,0,0,0,0,0,0,0,0,0,0,0,0,0,0,0,0,0,0,0,0,0,0,0,0,0,0,0,0,0,0,0,0,0,0,0,0,0,0,0,0,0,0,0,0,0,0
"Ind49","4_0_1",39,39,39,39,39,39,39,36,36,36,36,36,36,36,38,38,38,38,38,38,38,37,37,37,37,37,37,37,4,4,4,4,4,4,4,0,0,0,0,0,0,0,0,0,0,0,0,0,-1,0,0,0,0,0,0,0,0,0,0,0,0,0,0,0,0,0,0,0,0,0,0,0,0,0,0,0,0,0,0,0,0,0,0,0,0,0,0,0,0,0,0,0,0,0,0,0,0,0,0,0,0,0,0,0,0,0
"Ind50","1_0_1",40,40,40,40,40,40,40,37,37,37,37,37,37,37,39,39,39,39,39,39,39,38,38,38,38,38,38,38,5,5,5,5,5,5,5,3,3,3,3,3,3,3,3,3,3,3,3,3,3,-1,0,0,0,0,0,0,0,0,0,0,0,0,0,0,0,0,0,0,0,0,0,0,0,0,0,0,0,0,0,0,0,0,0,0,0,0,0,0,0,0,0,0,0,0,0,0,0,0,0,0,0,0,0,0,0,0
"Ind51","1_0_2",40,40,40,40,40,40,40,37,37,37,37,37,37,37,39,39,39,39,39,39,39,38,38,38,38,38,38,38,5,5,5,5,5,5,5,3,3,3,3,3,3,3,3,3,3,3,3,3,3,0,-1,0,0,0,0,0,0,0,0,0,0,0,0,0,0,0,0,0,0,0,0,0,0,0,0,0,0,0,0,0,0,0,0,0,0,0,0,0,0,0,0,0,0,0,0,0,0,0,0,0,0,0,0,0,0,0
"Ind52","1_0_6",40,40,40,40,40,40,40,37,37,37,37,37,37,37,39,39,39,39,39,39,39,38,38,38,38,38,38,38,5,5,5,5,5,5,5,3,3,3,3,3,3,3,3,3,3,3,3,3,3,0,0,-1,0,0,0,0,0,0,0,0,0,0,0,0,0,0,0,0,0,0,0,0,0,0,0,0,0,0,0,0,0,0,0,0,0,0,0,0,0,0,0,0,0,0,0,0,0,0,0,0,0,0,0,0,0,0
"Ind53","1_0_4",40,40,40,40,40,40,40,37,37,37,37,37,37,37,39,39,39,39,39,39,39,38,38,38,38,38,38,38,5,5,5,5,5,5,5,3,3,3,3,3,3,3,3,3,3,3,3,3,3,0,0,0,-1,0,0,0,0,0,0,0,0,0,0,0,0,0,0,0,0,0,0,0,0,0,0,0,0,0,0,0,0,0,0,0,0,0,0,0,0,0,0,0,0,0,0,0,0,0,0,0,0,0,0,0,0,0
"Ind54","1_0_3",40,40,40,40,40,40,40,37,37,37,37,37,37,37,39,39,39,39,39,39,39,38,38,38,38,38,38,38,5,5,5,5,5,5,5,3,3,3,3,3,3,3,3,3,3,3,3,3,3,0,0,0,0,-1,0,0,0,0,0,0,0,0,0,0,0,0,0,0,0,0,0,0,0,0,0,0,0,0,0,0,0,0,0,0,0,0,0,0,0,0,0,0,0,0,0,0,0,0,0,0,0,0,0,0,0,0
"Ind55","1_0_5",40,40,40,40,40,40,40,37,37,37,37,37,37,37,39,39,39,39,39,39,39,38,38,38,38,38,38,38,5,5,5,5,5,5,5,3,3,3,3,3,3,3,3,3,3,3,3,3,3,0,0,0,0,0,-1,0,0,0,0,0,0,0,0,0,0,0,0,0,0,0,0,0,0,0,0,0,0,0,0,0,0,0,0,0,0,0,0,0,0,0,0,0,0,0,0,0,0,0,0,0,0,0,0,0,0,0
"Ind56","1_0_0",40,40,40,40,40,40,40,37,37,37,37,37,37,37,39,39,39,39,39,39,39,38,38,38,38,38,38,38,5,5,5,5,5,5,5,3,3,3,3,3,3,3,3,3,3,3,3,3,3,0,0,0,0,0,0,-1,0,0,0,0,0,0,0,0,0,0,0,0,0,0,0,0,0,0,0,0,0,0,0,0,0,0,0,0,0,0,0,0,0,0,0,0,0,0,0,0,0,0,0,0,0,0,0,0,0,0
"Ind57","9_0_0",39,39,39,39,39,39,39,36,36,36,36,36,36,36,38,38,38,38,38,38,38,37,37,37,37,37,37,37,4,4,4,4,4,4,4,4,4,4,4,4,4,4,4,4,4,4,4,4,4,7,7,7,7,7,7,7,-1,0,0,0,0,0,0,0,0,0,0,0,0,0,0,0,0,0,0,0,0,0,0,0,0,0,0,0,0,0,0,0,0,0,0,0,0,0,0,0,0,0,0,0,0,0,0,0,0,0
"Ind58","9_0_5",39,39,39,39,39,39,39,36,36,36,36,36,36,36,38,38,38,38,38,38,38,37,37,37,37,37,37,37,4,4,4,4,4,4,4,4,4,4,4,4,4,4,4,4,4,4,4,4,4,7,7,7,7,7,7,7,0,-1,0,0,0,0,0,0,0,0,0,0,0,0,0,0,0,0,0,0,0,0,0,0,0,0,0,0,0,0,0,0,0,0,0,0,0,0,0,0,0,0,0,0,0,0,0,0,0,0
"Ind59","9_0_1",39,39,39,39,39,39,39,36,36,36,36,36,36,36,38,38,38,38,38,38,38,37,37,37,37,37,37,37,4,4,4,4,4,4,4,4,4,4,4,4,4,4,4,4,4,4,4,4,4,7,7,7,7,7,7,7,0,0,-1,0,0,0,0,0,0,0,0,0,0,0,0,0,0,0,0,0,0,0,0,0,0,0,0,0,0,0,0,0,0,0,0,0,0,0,0,0,0,0,0,0,0,0,0,0,0,0
"Ind60","9_0_2",39,39,39,39,39,39,39,36,36,36,36,36,36,36,38,38,38,38,38,38,38,37,37,37,37,37,37,37,4,4,4,4,4,4,4,4,4,4,4,4,4,4,4,4,4,4,4,4,4,7,7,7,7,7,7,7,0,0,0,-1,0,0,0,0,0,0,0,0,0,0,0,0,0,0,0,0,0,0,0,0,0,0,0,0,0,0,0,0,0,0,0,0,0,0,0,0,0,0,0,0,0,0,0,0,0,0
"Ind61","9_0_6",39,39,39,39,39,39,39,36,36,36,36,36,36,36,38,38,38,38,38,38,38,37,37,37,37,37,37,37,4,4,4,4,4,4,4,4,4,4,4,4,4,4,4,4,4,4,4,4,4,7,7,7,7,7,7,7,0,0,0,0,-1,0,0,0,0,0,0,0,0,0,0,0,0,0,0,0,0,0,0,0,0,0,0,0,0,0,0,0,0,0,0,0,0,0,0,0,0,0,0,0,0,0,0,0,0,0
"Ind62","9_0_4",39,39,39,39,39,39,39,36,36,36,36,36,36,36,38,38,38,38,38,38,38,37,37,37,37,37,37,37,4,4,4,4,4,4,4,4,4,4,4,4,4,4,4,4,4,4,4,4,4,7,7,7,7,7,7,7,0,0,0,0,0,-1,0,0,0,0,0,0,0,0,0,0,0,0,0,0,0,0,0,0,0,0,0,0,0,0,0,0,0,0,0,0,0,0,0,0,0,0,0,0,0,0,0,0,0,0
"Ind63","9_0_3",39,39,39,39,39,39,39,36,36,36,36,36,36,36,38,38,38,38,38,38,38,37,37,37,37,37,37,37,4,4,4,4,4,4,4,4,4,4,4,4,4,4,4,4,4,4,4,4,4,7,7,7,7,7,7,7,0,0,0,0,0,0,-1,0,0,0,0,0,0,0,0,0,0,0,0,0,0,0,0,0,0,0,0,0,0,0,0,0,0,0,0,0,0,0,0,0,0,0,0,0,0,0,0,0,0,0
"Ind64","5_0_6",38,38,38,38,38,38,38,35,35,35,35,35,35,35,37,37,37,37,37,37,37,36,36,36,36,36,36,36,45,45,45,45,45,45,45,45,45,45,45,45,45,45,45,45,45,45,45,45,45,46,46,46,46,46,46,46,45,45,45,45,45,45,45,-1,0,0,0,0,0,0,0,0,0,0,0,0,0,0,0,0,0,0,0,0,0,0,0,0,0,0,0,0,0,0,0,0,0,0,0,0,0,0,0,0,0,0
"Ind65","5_0_4",38,38,38,38,38,38,38,35,35,35,35,35,35,35,37,37,37,37,37,37,37,36,36,36,36,36,36,36,45,45,45,45,45,45,45,45,45,45,45,45,45,45,45,45,45,45,45,45,45,46,46,46,46,46,46,46,45,45,45,45,45,45,45,0,-1,0,0,0,0,0,0,0,0,0,0,0,0,0,0,0,0,0,0,0,0,0,0,0,0,0,0,0,0,0,0,0,0,0,0,0,0,0,0,0,0,0
"Ind66","5_0_1",38,38,38,38,38,38,38,35,35,35,35,35,35,35,37,37,37,37,37,37,37,36,36,36,36,36,36,36,45,45,45,45,45,45,45,45,45,45,45,45,45,45,45,45,45,45,45,45,45,46,46,46,46,46,46,46,45,45,45,45,45,45,45,0,0,-1,0,0,0,0,0,0,0,0,0,0,0,0,0,0,0,0,0,0,0,0,0,0,0,0,0,0,0,0,0,0,0,0,0,0,0,0,0,0,0,0
"Ind67","5_0_3",38,38,38,38,38,38,38,35,35,35,35,35,35,35,37,37,37,37,37,37,37,36,36,36,36,36,36,36,45,45,45,45,45,45,45,45,45,45,45,45,45,45,45,45,45,45,45,45,45,46,46,46,46,46,46,46,45,45,45,45,45,45,45,0,0,0,-1,0,0,0,0,0,0,0,0,0,0,0,0,0,0,0,0,0,0,0,0,0,0,0,0,0,0,0,0,0,0,0,0,0,0,0,0,0,0,0
"Ind68","5_0_0",38,38,38,38,38,38,38,35,35,35,35,35,35,35,37,37,37,37,37,37,37,36,36,36,36,36,36,36,45,45,45,45,45,45,45,45,45,45,45,45,45,45,45,45,45,45,45,45,45,46,46,46,46,46,46,46,45,45,45,45,45,45,45,0,0,0,0,-1,0,0,0,0,0,0,0,0,0,0,0,0,0,0,0,0,0,0,0,0,0,0,0,0,0,0,0,0,0,0,0,0,0,0,0,0,0,0
"Ind69","5_0_5",38,38,38,38,38,38,38,35,35,35,35,35,35,35,37,37,37,37,37,37,37,36,36,36,36,36,36,36,45,45,45,45,45,45,45,45,45,45,45,45,45,45,45,45,45,45,45,45,45,46,46,46,46,46,46,46,45,45,45,45,45,45,45,0,0,0,0,0,-1,0,0,0,0,0,0,0,0,0,0,0,0,0,0,0,0,0,0,0,0,0,0,0,0,0,0,0,0,0,0,0,0,0,0,0,0,0
"Ind70","5_0_2",38,38,38,38,38,38,38,35,35,35,35,35,35,35,37,37,37,37,37,37,37,36,36,36,36,36,36,36,45,45,45,45,45,45,45,45,45,45,45,45,45,45,45,45,45,45,45,45,45,46,46,46,46,46,46,46,45,45,45,45,45,45,45,0,0,0,0,0,0,-1,0,0,0,0,0,0,0,0,0,0,0,0,0,0,0,0,0,0,0,0,0,0,0,0,0,0,0,0,0,0,0,0,0,0,0,0
"Ind71","3_0_5",38,38,38,38,38,38,38,35,35,35,35,35,35,35,37,37,37,37,37,37,37,36,36,36,36,36,36,36,45,45,45,45,45,45,45,45,45,45,45,45,45,45,45,45,45,45,45,45,45,46,46,46,46,46,46,46,45,45,45,45,45,45,45,0,0,0,0,0,0,0,-1,0,0,0,0,0,0,0,0,0,0,0,0,0,0,0,0,0,0,0,0,0,0,0,0,0,0,0,0,0,0,0,0,0,0,0
"Ind72","3_0_3",38,38,38,38,38,38,38,35,35,35,35,35,35,35,37,37,37,37,37,37,37,36,36,36,36,36,36,36,45,45,45,45,45,45,45,45,45,45,45,45,45,45,45,45,45,45,45,45,45,46,46,46,46,46,46,46,45,45,45,45,45,45,45,0,0,0,0,0,0,0,0,-1,0,0,0,0,0,0,0,0,0,0,0,0,0,0,0,0,0,0,0,0,0,0,0,0,0,0,0,0,0,0,0,0,0,0
"Ind73","3_0_6",38,38,38,38,38,38,38,35,35,35,35,35,35,35,37,37,37,37,37,37,37,36,36,36,36,36,36,36,45,45,45,45,45,45,45,45,45,45,45,45,45,45,45,45,45,45,45,45,45,46,46,46,46,46,46,46,45,45,45,45,45,45,45,0,0,0,0,0,0,0,0,0,-1,0,0,0,0,0,0,0,0,0,0,0,0,0,0,0,0,0,0,0,0,0,0,0,0,0,0,0,0,0,0,0,0,0
"Ind74","3_0_0",38,38,38,38,38,38,38,35,35,35,35,35,35,35,37,37,37,37,37,37,37,36,36,36,36,36,36,36,45,45,45,45,45,45,45,45,45,45,45,45,45,45,45,45,45,45,45,45,45,46,46,46,46,46,46,46,45,45,45,45,45,45,45,0,0,0,0,0,0,0,0,0,0,-1,0,0,0,0,0,0,0,0,0,0,0,0,0,0,0,0,0,0,0,0,0,0,0,0,0,0,0,0,0,0,0,0
"Ind75","3_0_2",39,39,39,39,39,39,39,36,36,36,36,36,36,36,38,38,38,38,38,38,38,37,37,37,37,37,37,37,46,46,46,46,46,46,46,46,46,46,46,46,46,46,46,46,46,46,46,46,46,47,47,47,47,47,47,47,46,46,46,46,46,46,46,1,1,1,1,1,1,1,1,1,1,1,-1,0,0,0,0,0,0,0,0,0,0,0,0,0,0,0,0,0,0,0,0,0,0,0,0,0,0,0,0,0,0,0
"Ind76","3_0_1",39,39,39,39,39,39,39,36,36,36,36,36,36,36,38,38,38,38,38,38,38,37,37,37,37,37,37,37,46,46,46,46,46,46,46,46,46,46,46,46,46,46,46,46,46,46,46,46,46,47,47,47,47,47,47,47,46,46,46,46,46,46,46,1,1,1,1,1,1,1,1,1,1,1,0,-1,0,0,0,0,0,0,0,0,0,0,0,0,0,0,0,0,0,0,0,0,0,0,0,0,0,0,0,0,0,0
"Ind77","3_0_4",39,39,39,39,39,39,39,36,36,36,36,36,36,36,38,38,38,38,38,38,38,37,37,37,37,37,37,37,46,46,46,46,46,46,46,46,46,46,46,46,46,46,46,46,46,46,46,46,46,47,47,47,47,47,47,47,46,46,46,46,46,46,46,1,1,1,1,1,1,1,1,1,1,1,0,0,-1,0,0,0,0,0,0,0,0,0,0,0,0,0,0,0,0,0,0,0,0,0,0,0,0,0,0,0,0,0
"Ind78","15_0_2",58,58,58,58,58,58,58,55,55,55,55,55,55,55,57,57,57,57,57,57,57,56,56,56,56,56,56,56,58,58,58,58,58,58,58,60,60,60,60,60,60,60,60,60,60,60,60,60,60,61,61,61,61,61,61,61,60,60,60,60,60,60,60,53,53,53,53,53,53,53,53,53,53,53,54,54,54,-1,0,0,0,0,0,0,0,0,0,0,0,0,0,0,0,0,0,0,0,0,0,0,0,0,0,0,0,0
"Ind79","15_0_6",58,58,58,58,58,58,58,55,55,55,55,55,55,55,57,57,57,57,57,57,57,56,56,56,56,56,56,56,58,58,58,58,58,58,58,60,60,60,60,60,60,60,60,60,60,60,60,60,60,61,61,61,61,61,61,61,60,60,60,60,60,60,60,53,53,53,53,53,53,53,53,53,53,53,54,54,54,0,-1,0,0,0,0,0,0,0,0,0,0,0,0,0,0,0,0,0,0,0,0,0,0,0,0,0,0,0
"Ind80","15_0_3",58,58,58,58,58,58,58,55,55,55,55,55,55,55,57,57,57,57,57,57,57,56,56,56,56,56,56,56,58,58,58,58,58,58,58,60,60,60,60,60,60,60,60,60,60,60,60,60,60,61,61,61,61,61,61,61,60,60,60,60,60,60,60,53,53,53,53,53,53,53,53,53,53,53,54,54,54,0,0,-1,0,0,0,0,0,0,0,0,0,0,0,0,0,0,0,0,0,0,0,0,0,0,0,0,0,0
"Ind81","15_0_1",58,58,58,58,58,58,58,55,55,55,55,55,55,55,57,57,57,57,57,57,57,56,56,56,56,56,56,56,58,58,58,58,58,58,58,60,60,60,60,60,60,60,60,60,60,60,60,60,60,61,61,61,61,61,61,61,60,60,60,60,60,60,60,53,53,53,53,53,53,53,53,53,53,53,54,54,54,0,0,0,-1,0,0,0,0,0,0,0,0,0,0,0,0,0,0,0,0,0,0,0,0,0,0,0,0,0
"Ind82","15_0_0",58,58,58,58,58,58,58,55,55,55,55,55,55,55,57,57,57,57,57,57,57,56,56,56,56,56,56,56,58,58,58,58,58,58,58,60,60,60,60,60,60,60,60,60,60,60,60,60,60,61,61,61,61,61,61,61,60,60,60,60,60,60,60,53,53,53,53,53,53,53,53,53,53,53,54,54,54,0,0,0,0,-1,0,0,0,0,0,0,0,0,0,0,0,0,0,0,0,0,0,0,0,0,0,0,0,0
"Ind83","15_0_4",58,58,58,58,58,58,58,55,55,55,55,55,55,55,57,57,57,57,57,57,57,56,56,56,56,56,56,56,58,58,58,58,58,58,58,60,60,60,60,60,60,60,60,60,60,60,60,60,60,61,61,61,61,61,61,61,60,60,60,60,60,60,60,53,53,53,53,53,53,53,53,53,53,53,54,54,54,0,0,0,0,0,-1,0,0,0,0,0,0,0,0,0,0,0,0,0,0,0,0,0,0,0,0,0,0,0
"Ind84","15_0_5",59,59,59,59,59,59,59,56,56,56,56,56,56,56,58,58,58,58,58,58,58,57,57,57,57,57,57,57,59,59,59,59,59,59,59,61,61,61,61,61,61,61,61,61,61,61,61,61,61,62,62,62,62,62,62,62,61,61,61,61,61,61,61,54,54,54,54,54,54,54,54,54,54,54,55,55,55,1,1,1,1,1,1,-1,0,0,0,0,0,0,0,0,0,0,0,0,0,0,0,0,0,0,0,0,0,0
"Ind85","14_0_2",58,58,58,58,58,58,58,57,57,57,57,57,57,57,59,59,59,59,59,59,59,58,58,58,58,58,58,58,62,62,62,62,62,62,62,64,64,64,64,64,64,64,64,64,64,64,64,64,64,65,65,65,65,65,65,65,64,64,64,64,64,64,64,55,55,55,55,55,55,55,55,55,55,55,56,56,56,8,8,8,8,8,8,9,-1,0,0,0,0,0,0,0,0,0,0,0,0,0,0,0,0,0,0,0,0,0
"Ind86","14_0_3",58,58,58,58,58,58,58,57,57,57,57,57,57,57,59,59,59,59,59,59,59,58,58,58,58,58,58,58,62,62,62,62,62,62,62,64,64,64,64,64,64,64,64,64,64,64,64,64,64,65,65,65,65,65,65,65,64,64,64,64,64,64,64,55,55,55,55,55,55,55,55,55,55,55,56,56,56,8,8,8,8,8,8,9,0,-1,0,0,0,0,0,0,0,0,0,0,0,0,0,0,0,0,0,0,0,0
"Ind87","14_0_1",58,58,58,58,58,58,58,57,57,57,57,57,57,57,59,59,59,59,59,59,59,58,58,58,58,58,58,58,62,62,62,62,62,62,62,64,64,64,64,64,64,64,64,64,64,64,64,64,64,65,65,65,65,65,65,65,64,64,64,64,64,64,64,55,55,55,55,55,55,55,55,55,55,55,56,56,56,8,8,8,8,8,8,9,0,0,-1,0,0,0,0,0,0,0,0,0,0,0,0,0,0,0,0,0,0,0
"Ind88","14_0_0",58,58,58,58,58,58,58,57,57,57,57,57,57,57,59,59,59,59,59,59,59,58,58,58,58,58,58,58,62,62,62,62,62,62,62,64,64,64,64,64,64,64,64,64,64,64,64,64,64,65,65,65,65,65,65,65,64,64,64,64,64,64,64,55,55,55,55,55,55,55,55,55,55,55,56,56,56,8,8,8,8,8,8,9,0,0,0,-1,0,0,0,0,0,0,0,0,0,0,0,0,0,0,0,0,0,0
"Ind89","14_0_6",58,58,58,58,58,58,58,57,57,57,57,57,57,57,59,59,59,59,59,59,59,58,58,58,58,58,58,58,62,62,62,62,62,62,62,64,64,64,64,64,64,64,64,64,64,64,64,64,64,65,65,65,65,65,65,65,64,64,64,64,64,64,64,55,55,55,55,55,55,55,55,55,55,55,56,56,56,8,8,8,8,8,8,9,0,0,0,0,-1,0,0,0,0,0,0,0,0,0,0,0,0,0,0,0,0,0
"Ind90","14_0_4",58,58,58,58,58,58,58,57,57,57,57,57,57,57,59,59,59,59,59,59,59,58,58,58,58,58,58,58,62,62,62,62,62,62,62,64,64,64,64,64,64,64,64,64,64,64,64,64,64,65,65,65,65,65,65,65,64,64,64,64,64,64,64,55,55,55,55,55,55,55,55,55,55,55,56,56,56,8,8,8,8,8,8,9,0,0,0,0,0,-1,0,0,0,0,0,0,0,0,0,0,0,0,0,0,0,0
"Ind91","14_0_5",58,58,58,58,58,58,58,57,57,57,57,57,57,57,59,59,59,59,59,59,59,58,58,58,58,58,58,58,62,62,62,62,62,62,62,64,64,64,64,64,64,64,64,64,64,64,64,64,64,65,65,65,65,65,65,65,64,64,64,64,64,64,64,55,55,55,55,55,55,55,55,55,55,55,56,56,56,8,8,8,8,8,8,9,0,0,0,0,0,0,-1,0,0,0,0,0,0,0,0,0,0,0,0,0,0,0
"Ind92","12_0_4",59,59,59,59,59,59,59,56,56,56,56,56,56,56,58,58,58,58,58,58,58,57,57,57,57,57,57,57,61,61,61,61,61,61,61,63,63,63,63,63,63,63,63,63,63,63,63,63,63,64,64,64,64,64,64,64,63,63,63,63,63,63,63,54,54,54,54,54,54,54,54,54,54,54,55,55,55,7,7,7,7,7,7,8,1,1,1,1,1,1,1,-1,0,0,0,0,0,0,0,0,0,0,0,0,0,0
"Ind93","12_0_2",59,59,59,59,59,59,59,56,56,56,56,56,56,56,58,58,58,58,58,58,58,57,57,57,57,57,57,57,61,61,61,61,61,61,61,63,63,63,63,63,63,63,63,63,63,63,63,63,63,64,64,64,64,64,64,64,63,63,63,63,63,63,63,54,54,54,54,54,54,54,54,54,54,54,55,55,55,7,7,7,7,7,7,8,1,1,1,1,1,1,1,0,-1,0,0,0,0,0,0,0,0,0,0,0,0,0
"Ind94","12_0_1",59,59,59,59,59,59,59,56,56,56,56,56,56,56,58,58,58,58,58,58,58,57,57,57,57,57,57,57,61,61,61,61,61,61,61,63,63,63,63,63,63,63,63,63,63,63,63,63,63,64,64,64,64,64,64,64,63,63,63,63,63,63,63,54,54,54,54,54,54,54,54,54,54,54,55,55,55,7,7,7,7,7,7,8,1,1,1,1,1,1,1,0,0,-1,0,0,0,0,0,0,0,0,0,0,0,0
"Ind95","12_0_0",59,59,59,59,59,59,59,56,56,56,56,56,56,56,58,58,58,58,58,58,58,57,57,57,57,57,57,57,61,61,61,61,61,61,61,63,63,63,63,63,63,63,63,63,63,63,63,63,63,64,64,64,64,64,64,64,63,63,63,63,63,63,63,54,54,54,54,54,54,54,54,54,54,54,55,55,55,7,7,7,7,7,7,8,1,1,1,1,1,1,1,0,0,0,-1,0,0,0,0,0,0,0,0,0,0,0
"Ind96","12_0_5",59,59,59,59,59,59,59,56,56,56,56,56,56,56,58,58,58,58,58,58,58,57,57,57,57,57,57,57,61,61,61,61,61,61,61,63,63,63,63,63,63,63,63,63,63,63,63,63,63,64,64,64,64,64,64,64,63,63,63,63,63,63,63,54,54,54,54,54,54,54,54,54,54,54,55,55,55,7,7,7,7,7,7,8,1,1,1,1,1,1,1,0,0,0,0,-1,0,0,0,0,0,0,0,0,0,0
"Ind97","12_0_3",59,59,59,59,59,59,59,56,56,56,56,56,56,56,58,58,58,58,58,58,58,57,57,57,57,57,57,57,61,61,61,61,61,61,61,63,63,63,63,63,63,63,63,63,63,63,63,63,63,64,64,64,64,64,64,64,63,63,63,63,63,63,63,54,54,54,54,54,54,54,54,54,54,54,55,55,55,7,7,7,7,7,7,8,1,1,1,1,1,1,1,0,0,0,0,0,-1,0,0,0,0,0,0,0,0,0
"Ind98","12_0_6",59,59,59,59,59,59,59,56,56,56,56,56,56,56,58,58,58,58,58,58,58,57,57,57,57,57,57,57,61,61,61,61,61,61,61,63,63,63,63,63,63,63,63,63,63,63,63,63,63,64,64,64,64,64,64,64,63,63,63,63,63,63,63,54,54,54,54,54,54,54,54,54,54,54,55,55,55,7,7,7,7,7,7,8,1,1,1,1,1,1,1,0,0,0,0,0,0,-1,0,0,0,0,0,0,0,0
"Ind99","13_0_0",59,59,59,59,59,59,59,56,56,56,56,56,56,56,58,58,58,58,58,58,58,57,57,57,57,57,57,57,61,61,61,61,61,61,61,63,63,63,63,63,63,63,63,63,63,63,63,63,63,64,64,64,64,64,64,64,63,63,63,63,63,63,63,54,54,54,54,54,54,54,54,54,54,54,55,55,55,7,7,7,7,7,7,8,3,3,3,3,3,3,3,2,2,2,2,2,2,2,-1,0,0,0,0,0,0,0
"Ind100","13_0_1",59,59,59,59,59,59,59,56,56,56,56,56,56,56,58,58,58,58,58,58,58,57,57,57,57,57,57,57,61,61,61,61,61,61,61,63,63,63,63,63,63,63,63,63,63,63,63,63,63,64,64,64,64,64,64,64,63,63,63,63,63,63,63,54,54,54,54,54,54,54,54,54,54,54,55,55,55,7,7,7,7,7,7,8,3,3,3,3,3,3,3,2,2,2,2,2,2,2,0,-1,0,0,0,0,0,0
"Ind101","13_0_2",59,59,59,59,59,59,59,56,56,56,56,56,56,56,58,58,58,58,58,58,58,57,57,57,57,57,57,57,61,61,61,61,61,61,61,63,63,63,63,63,63,63,63,63,63,63,63,63,63,64,64,64,64,64,64,64,63,63,63,63,63,63,63,54,54,54,54,54,54,54,54,54,54,54,55,55,55,7,7,7,7,7,7,8,3,3,3,3,3,3,3,2,2,2,2,2,2,2,0,0,-1,0,0,0,0,0
"Ind102","13_0_6",59,59,59,59,59,59,59,56,56,56,56,56,56,56,58,58,58,58,58,58,58,57,57,57,57,57,57,57,61,61,61,61,61,61,61,63,63,63,63,63,63,63,63,63,63,63,63,63,63,64,64,64,64,64,64,64,63,63,63,63,63,63,63,54,54,54,54,54,54,54,54,54,54,54,55,55,55,7,7,7,7,7,7,8,3,3,3,3,3,3,3,2,2,2,2,2,2,2,0,0,0,-1,0,0,0,0
"Ind103","13_0_4",59,59,59,59,59,59,59,56,56,56,56,56,56,56,58,58,58,58,58,58,58,57,57,57,57,57,57,57,61,61,61,61,61,61,61,63,63,63,63,63,63,63,63,63,63,63,63,63,63,64,64,64,64,64,64,64,63,63,63,63,63,63,63,54,54,54,54,54,54,54,54,54,54,54,55,55,55,7,7,7,7,7,7,8,3,3,3,3,3,3,3,2,2,2,2,2,2,2,0,0,0,0,-1,0,0,0
"Ind104","13_0_5",59,59,59,59,59,59,59,56,56,56,56,56,56,56,58,58,58,58,58,58,58,57,57,57,57,57,57,57,61,61,61,61,61,61,61,63,63,63,63,63,63,63,63,63,63,63,63,63,63,64,64,64,64,64,64,64,63,63,63,63,63,63,63,54,54,54,54,54,54,54,54,54,54,54,55,55,55,7,7,7,7,7,7,8,3,3,3,3,3,3,3,2,2,2,2,2,2,2,0,0,0,0,0,-1,0,0
"Ind105","13_0_3",59,59,59,59,59,59,59,56,56,56,56,56,56,56,58,58,58,58,58,58,58,57,57,57,57,57,57,57,61,61,61,61,61,61,61,63,63,63,63,63,63,63,63,63,63,63,63,63,63,64,64,64,64,64,64,64,63,63,63,63,63,63,63,54,54,54,54,54,54,54,54,54,54,54,55,55,55,7,7,7,7,7,7,8,3,3,3,3,3,3,3,2,2,2,2,2,2,2,0,0,0,0,0,0,-1,0
"Ind106","0_0_0",114,114,114,114,114,114,114,113,113,113,113,113,113,113,111,111,111,111,111,111,111,112,112,112,112,112,112,112,118,118,118,118,118,118,118,118,118,118,118,118,118,118,118,118,118,118,118,118,118,119,119,119,119,119,119,119,118,118,118,118,118,118,118,112,112,112,112,112,112,112,112,112,112,112,111,111,111,116,116,116,116,116,116,117,116,116,116,116,116,116,116,115,115,115,115,115,115,115,113,113,113,113,113,113,113,-1
