"","Description","Ind1","Ind2","Ind3","Ind4","Ind5","Ind6","Ind7","Ind8","Ind9","Ind10","Ind11","Ind12","Ind13","Ind14","Ind15","Ind16","Ind17","Ind18","Ind19","Ind20","Ind21","Ind22","Ind23","Ind24","Ind25","Ind26","Ind27","Ind28","Ind29","Ind30","Ind31","Ind32","Ind33","Ind34","Ind35","Ind36","Ind37","Ind38","Ind39","Ind40","Ind41","Ind42","Ind43","Ind44","Ind45","Ind46","Ind47","Ind48","Ind49","Ind50","Ind51","Ind52","Ind53","Ind54","Ind55","Ind56","Ind57","Ind58","Ind59","Ind60","Ind61"
"Ind1","0_0_0",-1,0,0,0,0,0,0,0,0,0,0,0,0,0,0,0,0,0,0,0,0,0,0,0,0,0,0,0,0,0,0,0,0,0,0,0,0,0,0,0,0,0,0,0,0,0,0,0,0,0,0,0,0,0,0,0,0,0,0,0,0
"Ind2","4_0_2",97,-1,0,0,0,0,0,0,0,0,0,0,0,0,0,0,0,0,0,0,0,0,0,0,0,0,0,0,0,0,0,0,0,0,0,0,0,0,0,0,0,0,0,0,0,0,0,0,0,0,0,0,0,0,0,0,0,0,0,0,0
"Ind3","4_0_7",97,0,-1,0,0,0,0,0,0,0,0,0,0,0,0,0,0,0,0,0,0,0,0,0,0,0,0,0,0,0,0,0,0,0,0,0,0,0,0,0,0,0,0,0,0,0,0,0,0,0,0,0,0,0,0,0,0,0,0,0,0
"Ind4","4_0_5",97,0,0,-1,0,0,0,0,0,0,0,0,0,0,0,0,0,0,0,0,0,0,0,0,0,0,0,0,0,0,0,0,0,0,0,0,0,0,0,0,0,0,0,0,0,0,0,0,0,0,0,0,0,0,0,0,0,0,0,0,0
"Ind5","4_0_9",97,0,0,0,-1,0,0,0,0,0,0,0,0,0,0,0,0,0,0,0,0,0,0,0,0,0,0,0,0,0,0,0,0,0,0,0,0,0,0,0,0,0,0,0,0,0,0,0,0,0,0,0,0,0,0,0,0,0,0,0,0
"Ind6","4_0_6",97,0,0,0,0,-1,0,0,0,0,0,0,0,0,0,0,0,0,0,0,0,0,0,0,0,0,0,0,0,0,0,0,0,0,0,0,0,0,0,0,0,0,0,0,0,0,0,0,0,0,0,0,0,0,0,0,0,0,0,0,0
"Ind7","4_0_1",97,0,0,0,0,0,-1,0,0,0,0,0,0,0,0,0,0,0,0,0,0,0,0,0,0,0,0,0,0,0,0,0,0,0,0,0,0,0,0,0,0,0,0,0,0,0,0,0,0,0,0,0,0,0,0,0,0,0,0,0,0
"Ind8","4_0_0",97,0,0,0,0,0,0,-1,0,0,0,0,0,0,0,0,0,0,0,0,0,0,0,0,0,0,0,0,0,0,0,0,0,0,0,0,0,0,0,0,0,0,0,0,0,0,0,0,0,0,0,0,0,0,0,0,0,0,0,0,0
"Ind9","4_0_4",97,0,0,0,0,0,0,0,-1,0,0,0,0,0,0,0,0,0,0,0,0,0,0,0,0,0,0,0,0,0,0,0,0,0,0,0,0,0,0,0,0,0,0,0,0,0,0,0,0,0,0,0,0,0,0,0,0,0,0,0,0
"Ind10","4_0_8",97,0,0,0,0,0,0,0,0,-1,0,0,0,0,0,0,0,0,0,0,0,0,0,0,0,0,0,0,0,0,0,0,0,0,0,0,0,0,0,0,0,0,0,0,0,0,0,0,0,0,0,0,0,0,0,0,0,0,0,0,0
"Ind11","4_0_3",97,0,0,0,0,0,0,0,0,0,-1,0,0,0,0,0,0,0,0,0,0,0,0,0,0,0,0,0,0,0,0,0,0,0,0,0,0,0,0,0,0,0,0,0,0,0,0,0,0,0,0,0,0,0,0,0,0,0,0,0,0
"Ind12","5_0_4",91,53,53,53,53,53,53,53,53,53,53,-1,0,0,0,0,0,0,0,0,0,0,0,0,0,0,0,0,0,0,0,0,0,0,0,0,0,0,0,0,0,0,0,0,0,0,0,0,0,0,0,0,0,0,0,0,0,0,0,0,0
"Ind13","5_0_3",91,53,53,53,53,53,53,53,53,53,53,0,-1,0,0,0,0,0,0,0,0,0,0,0,0,0,0,0,0,0,0,0,0,0,0,0,0,0,0,0,0,0,0,0,0,0,0,0,0,0,0,0,0,0,0,0,0,0,0,0,0
"Ind14","5_0_1",91,53,53,53,53,53,53,53,53,53,53,0,0,-1,0,0,0,0,0,0,0,0,0,0,0,0,0,0,0,0,0,0,0,0,0,0,0,0,0,0,0,0,0,0,0,0,0,0,0,0,0,0,0,0,0,0,0,0,0,0,0
"Ind15","5_0_7",91,53,53,53,53,53,53,53,53,53,53,0,0,0,-1,0,0,0,0,0,0,0,0,0,0,0,0,0,0,0,0,0,0,0,0,0,0,0,0,0,0,0,0,0,0,0,0,0,0,0,0,0,0,0,0,0,0,0,0,0,0
"Ind16","5_0_9",91,53,53,53,53,53,53,53,53,53,53,0,0,0,0,-1,0,0,0,0,0,0,0,0,0,0,0,0,0,0,0,0,0,0,0,0,0,0,0,0,0,0,0,0,0,0,0,0,0,0,0,0,0,0,0,0,0,0,0,0,0
"Ind17","5_0_0",91,53,53,53,53,53,53,53,53,53,53,0,0,0,0,0,-1,0,0,0,0,0,0,0,0,0,0,0,0,0,0,0,0,0,0,0,0,0,0,0,0,0,0,0,0,0,0,0,0,0,0,0,0,0,0,0,0,0,0,0,0
"Ind18","5_0_5",91,53,53,53,53,53,53,53,53,53,53,0,0,0,0,0,0,-1,0,0,0,0,0,0,0,0,0,0,0,0,0,0,0,0,0,0,0,0,0,0,0,0,0,0,0,0,0,0,0,0,0,0,0,0,0,0,0,0,0,0,0
"Ind19","5_0_2",91,53,53,53,53,53,53,53,53,53,53,0,0,0,0,0,0,0,-1,0,0,0,0,0,0,0,0,0,0,0,0,0,0,0,0,0,0,0,0,0,0,0,0,0,0,0,0,0,0,0,0,0,0,0,0,0,0,0,0,0,0
"Ind20","5_0_8",91,53,53,53,53,53,53,53,53,53,53,0,0,0,0,0,0,0,0,-1,0,0,0,0,0,0,0,0,0,0,0,0,0,0,0,0,0,0,0,0,0,0,0,0,0,0,0,0,0,0,0,0,0,0,0,0,0,0,0,0,0
"Ind21","5_0_6",91,53,53,53,53,53,53,53,53,53,53,0,0,0,0,0,0,0,0,0,-1,0,0,0,0,0,0,0,0,0,0,0,0,0,0,0,0,0,0,0,0,0,0,0,0,0,0,0,0,0,0,0,0,0,0,0,0,0,0,0,0
"Ind22","6_0_4",90,44,44,44,44,44,44,44,44,44,44,25,25,25,25,25,25,25,25,25,25,-1,0,0,0,0,0,0,0,0,0,0,0,0,0,0,0,0,0,0,0,0,0,0,0,0,0,0,0,0,0,0,0,0,0,0,0,0,0,0,0
"Ind23","6_0_7",90,44,44,44,44,44,44,44,44,44,44,25,25,25,25,25,25,25,25,25,25,0,-1,0,0,0,0,0,0,0,0,0,0,0,0,0,0,0,0,0,0,0,0,0,0,0,0,0,0,0,0,0,0,0,0,0,0,0,0,0,0
"Ind24","6_0_8",90,44,44,44,44,44,44,44,44,44,44,25,25,25,25,25,25,25,25,25,25,0,0,-1,0,0,0,0,0,0,0,0,0,0,0,0,0,0,0,0,0,0,0,0,0,0,0,0,0,0,0,0,0,0,0,0,0,0,0,0,0
"Ind25","6_0_3",90,44,44,44,44,44,44,44,44,44,44,25,25,25,25,25,25,25,25,25,25,0,0,0,-1,0,0,0,0,0,0,0,0,0,0,0,0,0,0,0,0,0,0,0,0,0,0,0,0,0,0,0,0,0,0,0,0,0,0,0,0
"Ind26","6_0_9",90,44,44,44,44,44,44,44,44,44,44,25,25,25,25,25,25,25,25,25,25,0,0,0,0,-1,0,0,0,0,0,0,0,0,0,0,0,0,0,0,0,0,0,0,0,0,0,0,0,0,0,0,0,0,0,0,0,0,0,0,0
"Ind27","6_0_2",90,44,44,44,44,44,44,44,44,44,44,25,25,25,25,25,25,25,25,25,25,0,0,0,0,0,-1,0,0,0,0,0,0,0,0,0,0,0,0,0,0,0,0,0,0,0,0,0,0,0,0,0,0,0,0,0,0,0,0,0,0
"Ind28","6_0_0",90,44,44,44,44,44,44,44,44,44,44,25,25,25,25,25,25,25,25,25,25,0,0,0,0,0,0,-1,0,0,0,0,0,0,0,0,0,0,0,0,0,0,0,0,0,0,0,0,0,0,0,0,0,0,0,0,0,0,0,0,0
"Ind29","6_0_5",90,44,44,44,44,44,44,44,44,44,44,25,25,25,25,25,25,25,25,25,25,0,0,0,0,0,0,0,-1,0,0,0,0,0,0,0,0,0,0,0,0,0,0,0,0,0,0,0,0,0,0,0,0,0,0,0,0,0,0,0,0
"Ind30","6_0_1",90,44,44,44,44,44,44,44,44,44,44,25,25,25,25,25,25,25,25,25,25,0,0,0,0,0,0,0,0,-1,0,0,0,0,0,0,0,0,0,0,0,0,0,0,0,0,0,0,0,0,0,0,0,0,0,0,0,0,0,0,0
"Ind31","6_0_6",90,44,44,44,44,44,44,44,44,44,44,25,25,25,25,25,25,25,25,25,25,0,0,0,0,0,0,0,0,0,-1,0,0,0,0,0,0,0,0,0,0,0,0,0,0,0,0,0,0,0,0,0,0,0,0,0,0,0,0,0,0
"Ind32","2_0_8",89,48,48,48,48,48,48,48,48,48,48,26,26,26,26,26,26,26,26,26,26,17,17,17,17,17,17,17,17,17,17,-1,0,0,0,0,0,0,0,0,0,0,0,0,0,0,0,0,0,0,0,0,0,0,0,0,0,0,0,0,0
"Ind33","2_0_2",89,48,48,48,48,48,48,48,48,48,48,26,26,26,26,26,26,26,26,26,26,17,17,17,17,17,17,17,17,17,17,0,-1,0,0,0,0,0,0,0,0,0,0,0,0,0,0,0,0,0,0,0,0,0,0,0,0,0,0,0,0
"Ind34","2_0_6",89,48,48,48,48,48,48,48,48,48,48,26,26,26,26,26,26,26,26,26,26,17,17,17,17,17,17,17,17,17,17,0,0,-1,0,0,0,0,0,0,0,0,0,0,0,0,0,0,0,0,0,0,0,0,0,0,0,0,0,0,0
"Ind35","2_0_4",89,48,48,48,48,48,48,48,48,48,48,26,26,26,26,26,26,26,26,26,26,17,17,17,17,17,17,17,17,17,17,0,0,0,-1,0,0,0,0,0,0,0,0,0,0,0,0,0,0,0,0,0,0,0,0,0,0,0,0,0,0
"Ind36","2_0_5",89,48,48,48,48,48,48,48,48,48,48,26,26,26,26,26,26,26,26,26,26,17,17,17,17,17,17,17,17,17,17,0,0,0,0,-1,0,0,0,0,0,0,0,0,0,0,0,0,0,0,0,0,0,0,0,0,0,0,0,0,0
"Ind37","2_0_3",89,48,48,48,48,48,48,48,48,48,48,26,26,26,26,26,26,26,26,26,26,17,17,17,17,17,17,17,17,17,17,0,0,0,0,0,-1,0,0,0,0,0,0,0,0,0,0,0,0,0,0,0,0,0,0,0,0,0,0,0,0
"Ind38","2_0_0",89,48,48,48,48,48,48,48,48,48,48,26,26,26,26,26,26,26,26,26,26,17,17,17,17,17,17,17,17,17,17,0,0,0,0,0,0,-1,0,0,0,0,0,0,0,0,0,0,0,0,0,0,0,0,0,0,0,0,0,0,0
"Ind39","2_0_1",89,48,48,48,48,48,48,48,48,48,48,26,26,26,26,26,26,26,26,26,26,17,17,17,17,17,17,17,17,17,17,0,0,0,0,0,0,0,-1,0,0,0,0,0,0,0,0,0,0,0,0,0,0,0,0,0,0,0,0,0,0
"Ind40","2_0_9",89,48,48,48,48,48,48,48,48,48,48,26,26,26,26,26,26,26,26,26,26,17,17,17,17,17,17,17,17,17,17,0,0,0,0,0,0,0,0,-1,0,0,0,0,0,0,0,0,0,0,0,0,0,0,0,0,0,0,0,0,0
"Ind41","2_0_7",89,48,48,48,48,48,48,48,48,48,48,26,26,26,26,26,26,26,26,26,26,17,17,17,17,17,17,17,17,17,17,0,0,0,0,0,0,0,0,0,-1,0,0,0,0,0,0,0,0,0,0,0,0,0,0,0,0,0,0,0,0
"Ind42","3_0_3",89,48,48,48,48,48,48,48,48,48,48,25,25,25,25,25,25,25,25,25,25,13,13,13,13,13,13,13,13,13,13,19,19,19,19,19,19,19,19,19,19,-1,0,0,0,0,0,0,0,0,0,0,0,0,0,0,0,0,0,0,0
"Ind43","3_0_6",89,48,48,48,48,48,48,48,48,48,48,25,25,25,25,25,25,25,25,25,25,13,13,13,13,13,13,13,13,13,13,19,19,19,19,19,19,19,19,19,19,0,-1,0,0,0,0,0,0,0,0,0,0,0,0,0,0,0,0,0,0
"Ind44","3_0_5",89,48,48,48,48,48,48,48,48,48,48,25,25,25,25,25,25,25,25,25,25,13,13,13,13,13,13,13,13,13,13,19,19,19,19,19,19,19,19,19,19,0,0,-1,0,0,0,0,0,0,0,0,0,0,0,0,0,0,0,0,0
"Ind45","3_0_1",89,48,48,48,48,48,48,48,48,48,48,25,25,25,25,25,25,25,25,25,25,13,13,13,13,13,13,13,13,13,13,19,19,19,19,19,19,19,19,19,19,0,0,0,-1,0,0,0,0,0,0,0,0,0,0,0,0,0,0,0,0
"Ind46","3_0_4",89,48,48,48,48,48,48,48,48,48,48,25,25,25,25,25,25,25,25,25,25,13,13,13,13,13,13,13,13,13,13,19,19,19,19,19,19,19,19,19,19,0,0,0,0,-1,0,0,0,0,0,0,0,0,0,0,0,0,0,0,0
"Ind47","3_0_8",89,48,48,48,48,48,48,48,48,48,48,25,25,25,25,25,25,25,25,25,25,13,13,13,13,13,13,13,13,13,13,19,19,19,19,19,19,19,19,19,19,0,0,0,0,0,-1,0,0,0,0,0,0,0,0,0,0,0,0,0,0
"Ind48","3_0_2",89,48,48,48,48,48,48,48,48,48,48,25,25,25,25,25,25,25,25,25,25,13,13,13,13,13,13,13,13,13,13,19,19,19,19,19,19,19,19,19,19,0,0,0,0,0,0,-1,0,0,0,0,0,0,0,0,0,0,0,0,0
"Ind49","3_0_7",89,48,48,48,48,48,48,48,48,48,48,25,25,25,25,25,25,25,25,25,25,13,13,13,13,13,13,13,13,13,13,19,19,19,19,19,19,19,19,19,19,0,0,0,0,0,0,0,-1,0,0,0,0,0,0,0,0,0,0,0,0
"Ind50","3_0_9",89,48,48,48,48,48,48,48,48,48,48,25,25,25,25,25,25,25,25,25,25,13,13,13,13,13,13,13,13,13,13,19,19,19,19,19,19,19,19,19,19,0,0,0,0,0,0,0,0,-1,0,0,0,0,0,0,0,0,0,0,0
"Ind51","3_0_0",89,48,48,48,48,48,48,48,48,48,48,25,25,25,25,25,25,25,25,25,25,13,13,13,13,13,13,13,13,13,13,19,19,19,19,19,19,19,19,19,19,0,0,0,0,0,0,0,0,0,-1,0,0,0,0,0,0,0,0,0,0
"Ind52","1_0_2",90,42,42,42,42,42,42,42,42,42,42,48,48,48,48,48,48,48,48,48,48,45,45,45,45,45,45,45,45,45,45,46,46,46,46,46,46,46,46,46,46,47,47,47,47,47,47,47,47,47,47,-1,0,0,0,0,0,0,0,0,0
"Ind53","1_0_8",90,42,42,42,42,42,42,42,42,42,42,48,48,48,48,48,48,48,48,48,48,45,45,45,45,45,45,45,45,45,45,46,46,46,46,46,46,46,46,46,46,47,47,47,47,47,47,47,47,47,47,0,-1,0,0,0,0,0,0,0,0
"Ind54","1_0_3",90,42,42,42,42,42,42,42,42,42,42,48,48,48,48,48,48,48,48,48,48,45,45,45,45,45,45,45,45,45,45,46,46,46,46,46,46,46,46,46,46,47,47,47,47,47,47,47,47,47,47,0,0,-1,0,0,0,0,0,0,0
"Ind55","1_0_6",90,42,42,42,42,42,42,42,42,42,42,48,48,48,48,48,48,48,48,48,48,45,45,45,45,45,45,45,45,45,45,46,46,46,46,46,46,46,46,46,46,47,47,47,47,47,47,47,47,47,47,0,0,0,-1,0,0,0,0,0,0
"Ind56","1_0_1",90,42,42,42,42,42,42,42,42,42,42,48,48,48,48,48,48,48,48,48,48,45,45,45,45,45,45,45,45,45,45,46,46,46,46,46,46,46,46,46,46,47,47,47,47,47,47,47,47,47,47,0,0,0,0,-1,0,0,0,0,0
"Ind57","1_0_0",90,42,42,42,42,42,42,42,42,42,42,48,48,48,48,48,48,48,48,48,48,45,45,45,45,45,45,45,45,45,45,46,46,46,46,46,46,46,46,46,46,47,47,47,47,47,47,47,47,47,47,0,0,0,0,0,-1,0,0,0,0
"Ind58","1_0_9",90,42,42,42,42,42,42,42,42,42,42,48,48,48,48,48,48,48,48,48,48,45,45,45,45,45,45,45,45,45,45,46,46,46,46,46,46,46,46,46,46,47,47,47,47,47,47,47,47,47,47,0,0,0,0,0,0,-1,0,0,0
"Ind59","1_0_4",90,42,42,42,42,42,42,42,42,42,42,48,48,48,48,48,48,48,48,48,48,45,45,45,45,45,45,45,45,45,45,46,46,46,46,46,46,46,46,46,46,47,47,47,47,47,47,47,47,47,47,0,0,0,0,0,0,0,-1,0,0
"Ind60","1_0_5",90,42,42,42,42,42,42,42,42,42,42,48,48,48,48,48,48,48,48,48,48,45,45,45,45,45,45,45,45,45,45,46,46,46,46,46,46,46,46,46,46,47,47,47,47,47,47,47,47,47,47,0,0,0,0,0,0,0,0,-1,0
"Ind61","1_0_7",90,42,42,42,42,42,42,42,42,42,42,48,48,48,48,48,48,48,48,48,48,45,45,45,45,45,45,45,45,45,45,46,46,46,46,46,46,46,46,46,46,47,47,47,47,47,47,47,47,47,47,0,0,0,0,0,0,0,0,0,-1
