"","Description","Ind1","Ind2","Ind3","Ind4","Ind5","Ind6","Ind7","Ind8","Ind9","Ind10","Ind11","Ind12","Ind13","Ind14","Ind15","Ind16","Ind17","Ind18","Ind19","Ind20","Ind21","Ind22","Ind23","Ind24","Ind25","Ind26","Ind27","Ind28","Ind29","Ind30","Ind31","Ind32","Ind33","Ind34","Ind35","Ind36","Ind37","Ind38","Ind39","Ind40","Ind41","Ind42","Ind43","Ind44","Ind45","Ind46","Ind47","Ind48","Ind49","Ind50","Ind51","Ind52","Ind53","Ind54","Ind55","Ind56","Ind57","Ind58","Ind59","Ind60","Ind61","Ind62","Ind63","Ind64","Ind65","Ind66","Ind67","Ind68","Ind69","Ind70","Ind71","Ind72","Ind73","Ind74","Ind75","Ind76","Ind77","Ind78","Ind79","Ind80","Ind81","Ind82","Ind83","Ind84","Ind85","Ind86","Ind87","Ind88","Ind89","Ind90","Ind91","Ind92","Ind93","Ind94","Ind95","Ind96","Ind97","Ind98","Ind99","Ind100","Ind101","Ind102","Ind103","Ind104","Ind105","Ind106","Ind107","Ind108","Ind109"
"Ind1","0_0_0",-1,0,0,0,0,0,0,0,0,0,0,0,0,0,0,0,0,0,0,0,0,0,0,0,0,0,0,0,0,0,0,0,0,0,0,0,0,0,0,0,0,0,0,0,0,0,0,0,0,0,0,0,0,0,0,0,0,0,0,0,0,0,0,0,0,0,0,0,0,0,0,0,0,0,0,0,0,0,0,0,0,0,0,0,0,0,0,0,0,0,0,0,0,0,0,0,0,0,0,0,0,0,0,0,0,0,0,0,0
"Ind2","14_0_1",148,-1,0,0,0,0,0,0,0,0,0,0,0,0,0,0,0,0,0,0,0,0,0,0,0,0,0,0,0,0,0,0,0,0,0,0,0,0,0,0,0,0,0,0,0,0,0,0,0,0,0,0,0,0,0,0,0,0,0,0,0,0,0,0,0,0,0,0,0,0,0,0,0,0,0,0,0,0,0,0,0,0,0,0,0,0,0,0,0,0,0,0,0,0,0,0,0,0,0,0,0,0,0,0,0,0,0,0,0
"Ind3","14_0_2",148,0,-1,0,0,0,0,0,0,0,0,0,0,0,0,0,0,0,0,0,0,0,0,0,0,0,0,0,0,0,0,0,0,0,0,0,0,0,0,0,0,0,0,0,0,0,0,0,0,0,0,0,0,0,0,0,0,0,0,0,0,0,0,0,0,0,0,0,0,0,0,0,0,0,0,0,0,0,0,0,0,0,0,0,0,0,0,0,0,0,0,0,0,0,0,0,0,0,0,0,0,0,0,0,0,0,0,0,0
"Ind4","14_0_0",148,0,0,-1,0,0,0,0,0,0,0,0,0,0,0,0,0,0,0,0,0,0,0,0,0,0,0,0,0,0,0,0,0,0,0,0,0,0,0,0,0,0,0,0,0,0,0,0,0,0,0,0,0,0,0,0,0,0,0,0,0,0,0,0,0,0,0,0,0,0,0,0,0,0,0,0,0,0,0,0,0,0,0,0,0,0,0,0,0,0,0,0,0,0,0,0,0,0,0,0,0,0,0,0,0,0,0,0,0
"Ind5","14_0_5",148,0,0,0,-1,0,0,0,0,0,0,0,0,0,0,0,0,0,0,0,0,0,0,0,0,0,0,0,0,0,0,0,0,0,0,0,0,0,0,0,0,0,0,0,0,0,0,0,0,0,0,0,0,0,0,0,0,0,0,0,0,0,0,0,0,0,0,0,0,0,0,0,0,0,0,0,0,0,0,0,0,0,0,0,0,0,0,0,0,0,0,0,0,0,0,0,0,0,0,0,0,0,0,0,0,0,0,0,0
"Ind6","14_0_4",148,0,0,0,0,-1,0,0,0,0,0,0,0,0,0,0,0,0,0,0,0,0,0,0,0,0,0,0,0,0,0,0,0,0,0,0,0,0,0,0,0,0,0,0,0,0,0,0,0,0,0,0,0,0,0,0,0,0,0,0,0,0,0,0,0,0,0,0,0,0,0,0,0,0,0,0,0,0,0,0,0,0,0,0,0,0,0,0,0,0,0,0,0,0,0,0,0,0,0,0,0,0,0,0,0,0,0,0,0
"Ind7","14_0_3",148,0,0,0,0,0,-1,0,0,0,0,0,0,0,0,0,0,0,0,0,0,0,0,0,0,0,0,0,0,0,0,0,0,0,0,0,0,0,0,0,0,0,0,0,0,0,0,0,0,0,0,0,0,0,0,0,0,0,0,0,0,0,0,0,0,0,0,0,0,0,0,0,0,0,0,0,0,0,0,0,0,0,0,0,0,0,0,0,0,0,0,0,0,0,0,0,0,0,0,0,0,0,0,0,0,0,0,0,0
"Ind8","2_0_2",148,12,12,12,12,12,12,-1,0,0,0,0,0,0,0,0,0,0,0,0,0,0,0,0,0,0,0,0,0,0,0,0,0,0,0,0,0,0,0,0,0,0,0,0,0,0,0,0,0,0,0,0,0,0,0,0,0,0,0,0,0,0,0,0,0,0,0,0,0,0,0,0,0,0,0,0,0,0,0,0,0,0,0,0,0,0,0,0,0,0,0,0,0,0,0,0,0,0,0,0,0,0,0,0,0,0,0,0,0
"Ind9","2_0_0",148,12,12,12,12,12,12,0,-1,0,0,0,0,0,0,0,0,0,0,0,0,0,0,0,0,0,0,0,0,0,0,0,0,0,0,0,0,0,0,0,0,0,0,0,0,0,0,0,0,0,0,0,0,0,0,0,0,0,0,0,0,0,0,0,0,0,0,0,0,0,0,0,0,0,0,0,0,0,0,0,0,0,0,0,0,0,0,0,0,0,0,0,0,0,0,0,0,0,0,0,0,0,0,0,0,0,0,0,0
"Ind10","2_0_3",148,12,12,12,12,12,12,0,0,-1,0,0,0,0,0,0,0,0,0,0,0,0,0,0,0,0,0,0,0,0,0,0,0,0,0,0,0,0,0,0,0,0,0,0,0,0,0,0,0,0,0,0,0,0,0,0,0,0,0,0,0,0,0,0,0,0,0,0,0,0,0,0,0,0,0,0,0,0,0,0,0,0,0,0,0,0,0,0,0,0,0,0,0,0,0,0,0,0,0,0,0,0,0,0,0,0,0,0,0
"Ind11","2_0_1",148,12,12,12,12,12,12,0,0,0,-1,0,0,0,0,0,0,0,0,0,0,0,0,0,0,0,0,0,0,0,0,0,0,0,0,0,0,0,0,0,0,0,0,0,0,0,0,0,0,0,0,0,0,0,0,0,0,0,0,0,0,0,0,0,0,0,0,0,0,0,0,0,0,0,0,0,0,0,0,0,0,0,0,0,0,0,0,0,0,0,0,0,0,0,0,0,0,0,0,0,0,0,0,0,0,0,0,0,0
"Ind12","2_0_5",148,12,12,12,12,12,12,0,0,0,0,-1,0,0,0,0,0,0,0,0,0,0,0,0,0,0,0,0,0,0,0,0,0,0,0,0,0,0,0,0,0,0,0,0,0,0,0,0,0,0,0,0,0,0,0,0,0,0,0,0,0,0,0,0,0,0,0,0,0,0,0,0,0,0,0,0,0,0,0,0,0,0,0,0,0,0,0,0,0,0,0,0,0,0,0,0,0,0,0,0,0,0,0,0,0,0,0,0,0
"Ind13","2_0_4",148,12,12,12,12,12,12,0,0,0,0,0,-1,0,0,0,0,0,0,0,0,0,0,0,0,0,0,0,0,0,0,0,0,0,0,0,0,0,0,0,0,0,0,0,0,0,0,0,0,0,0,0,0,0,0,0,0,0,0,0,0,0,0,0,0,0,0,0,0,0,0,0,0,0,0,0,0,0,0,0,0,0,0,0,0,0,0,0,0,0,0,0,0,0,0,0,0,0,0,0,0,0,0,0,0,0,0,0,0
"Ind14","15_0_4",152,61,61,61,61,61,61,61,61,61,61,61,61,-1,0,0,0,0,0,0,0,0,0,0,0,0,0,0,0,0,0,0,0,0,0,0,0,0,0,0,0,0,0,0,0,0,0,0,0,0,0,0,0,0,0,0,0,0,0,0,0,0,0,0,0,0,0,0,0,0,0,0,0,0,0,0,0,0,0,0,0,0,0,0,0,0,0,0,0,0,0,0,0,0,0,0,0,0,0,0,0,0,0,0,0,0,0,0,0
"Ind15","15_0_1",152,61,61,61,61,61,61,61,61,61,61,61,61,0,-1,0,0,0,0,0,0,0,0,0,0,0,0,0,0,0,0,0,0,0,0,0,0,0,0,0,0,0,0,0,0,0,0,0,0,0,0,0,0,0,0,0,0,0,0,0,0,0,0,0,0,0,0,0,0,0,0,0,0,0,0,0,0,0,0,0,0,0,0,0,0,0,0,0,0,0,0,0,0,0,0,0,0,0,0,0,0,0,0,0,0,0,0,0,0
"Ind16","15_0_0",153,62,62,62,62,62,62,62,62,62,62,62,62,1,1,-1,0,0,0,0,0,0,0,0,0,0,0,0,0,0,0,0,0,0,0,0,0,0,0,0,0,0,0,0,0,0,0,0,0,0,0,0,0,0,0,0,0,0,0,0,0,0,0,0,0,0,0,0,0,0,0,0,0,0,0,0,0,0,0,0,0,0,0,0,0,0,0,0,0,0,0,0,0,0,0,0,0,0,0,0,0,0,0,0,0,0,0,0,0
"Ind17","15_0_3",152,61,61,61,61,61,61,61,61,61,61,61,61,0,0,1,-1,0,0,0,0,0,0,0,0,0,0,0,0,0,0,0,0,0,0,0,0,0,0,0,0,0,0,0,0,0,0,0,0,0,0,0,0,0,0,0,0,0,0,0,0,0,0,0,0,0,0,0,0,0,0,0,0,0,0,0,0,0,0,0,0,0,0,0,0,0,0,0,0,0,0,0,0,0,0,0,0,0,0,0,0,0,0,0,0,0,0,0,0
"Ind18","15_0_2",152,61,61,61,61,61,61,61,61,61,61,61,61,0,0,1,0,-1,0,0,0,0,0,0,0,0,0,0,0,0,0,0,0,0,0,0,0,0,0,0,0,0,0,0,0,0,0,0,0,0,0,0,0,0,0,0,0,0,0,0,0,0,0,0,0,0,0,0,0,0,0,0,0,0,0,0,0,0,0,0,0,0,0,0,0,0,0,0,0,0,0,0,0,0,0,0,0,0,0,0,0,0,0,0,0,0,0,0,0
"Ind19","15_0_5",152,61,61,61,61,61,61,61,61,61,61,61,61,0,0,1,0,0,-1,0,0,0,0,0,0,0,0,0,0,0,0,0,0,0,0,0,0,0,0,0,0,0,0,0,0,0,0,0,0,0,0,0,0,0,0,0,0,0,0,0,0,0,0,0,0,0,0,0,0,0,0,0,0,0,0,0,0,0,0,0,0,0,0,0,0,0,0,0,0,0,0,0,0,0,0,0,0,0,0,0,0,0,0,0,0,0,0,0,0
"Ind20","5_0_2",138,53,53,53,53,53,53,55,55,55,55,55,55,50,50,51,50,50,50,-1,0,0,0,0,0,0,0,0,0,0,0,0,0,0,0,0,0,0,0,0,0,0,0,0,0,0,0,0,0,0,0,0,0,0,0,0,0,0,0,0,0,0,0,0,0,0,0,0,0,0,0,0,0,0,0,0,0,0,0,0,0,0,0,0,0,0,0,0,0,0,0,0,0,0,0,0,0,0,0,0,0,0,0,0,0,0,0,0,0
"Ind21","5_0_5",138,53,53,53,53,53,53,55,55,55,55,55,55,50,50,51,50,50,50,0,-1,0,0,0,0,0,0,0,0,0,0,0,0,0,0,0,0,0,0,0,0,0,0,0,0,0,0,0,0,0,0,0,0,0,0,0,0,0,0,0,0,0,0,0,0,0,0,0,0,0,0,0,0,0,0,0,0,0,0,0,0,0,0,0,0,0,0,0,0,0,0,0,0,0,0,0,0,0,0,0,0,0,0,0,0,0,0,0,0
"Ind22","5_0_4",138,53,53,53,53,53,53,55,55,55,55,55,55,50,50,51,50,50,50,0,0,-1,0,0,0,0,0,0,0,0,0,0,0,0,0,0,0,0,0,0,0,0,0,0,0,0,0,0,0,0,0,0,0,0,0,0,0,0,0,0,0,0,0,0,0,0,0,0,0,0,0,0,0,0,0,0,0,0,0,0,0,0,0,0,0,0,0,0,0,0,0,0,0,0,0,0,0,0,0,0,0,0,0,0,0,0,0,0,0
"Ind23","5_0_1",138,53,53,53,53,53,53,55,55,55,55,55,55,50,50,51,50,50,50,0,0,0,-1,0,0,0,0,0,0,0,0,0,0,0,0,0,0,0,0,0,0,0,0,0,0,0,0,0,0,0,0,0,0,0,0,0,0,0,0,0,0,0,0,0,0,0,0,0,0,0,0,0,0,0,0,0,0,0,0,0,0,0,0,0,0,0,0,0,0,0,0,0,0,0,0,0,0,0,0,0,0,0,0,0,0,0,0,0,0
"Ind24","5_0_3",138,53,53,53,53,53,53,55,55,55,55,55,55,50,50,51,50,50,50,0,0,0,0,-1,0,0,0,0,0,0,0,0,0,0,0,0,0,0,0,0,0,0,0,0,0,0,0,0,0,0,0,0,0,0,0,0,0,0,0,0,0,0,0,0,0,0,0,0,0,0,0,0,0,0,0,0,0,0,0,0,0,0,0,0,0,0,0,0,0,0,0,0,0,0,0,0,0,0,0,0,0,0,0,0,0,0,0,0,0
"Ind25","5_0_0",138,53,53,53,53,53,53,55,55,55,55,55,55,50,50,51,50,50,50,0,0,0,0,0,-1,0,0,0,0,0,0,0,0,0,0,0,0,0,0,0,0,0,0,0,0,0,0,0,0,0,0,0,0,0,0,0,0,0,0,0,0,0,0,0,0,0,0,0,0,0,0,0,0,0,0,0,0,0,0,0,0,0,0,0,0,0,0,0,0,0,0,0,0,0,0,0,0,0,0,0,0,0,0,0,0,0,0,0,0
"Ind26","1_0_2",157,68,68,68,68,68,68,72,72,72,72,72,72,76,76,75,76,76,76,77,77,77,77,77,77,-1,0,0,0,0,0,0,0,0,0,0,0,0,0,0,0,0,0,0,0,0,0,0,0,0,0,0,0,0,0,0,0,0,0,0,0,0,0,0,0,0,0,0,0,0,0,0,0,0,0,0,0,0,0,0,0,0,0,0,0,0,0,0,0,0,0,0,0,0,0,0,0,0,0,0,0,0,0,0,0,0,0,0,0
"Ind27","1_0_1",157,68,68,68,68,68,68,72,72,72,72,72,72,76,76,75,76,76,76,77,77,77,77,77,77,0,-1,0,0,0,0,0,0,0,0,0,0,0,0,0,0,0,0,0,0,0,0,0,0,0,0,0,0,0,0,0,0,0,0,0,0,0,0,0,0,0,0,0,0,0,0,0,0,0,0,0,0,0,0,0,0,0,0,0,0,0,0,0,0,0,0,0,0,0,0,0,0,0,0,0,0,0,0,0,0,0,0,0,0
"Ind28","1_0_4",157,68,68,68,68,68,68,72,72,72,72,72,72,76,76,75,76,76,76,77,77,77,77,77,77,0,0,-1,0,0,0,0,0,0,0,0,0,0,0,0,0,0,0,0,0,0,0,0,0,0,0,0,0,0,0,0,0,0,0,0,0,0,0,0,0,0,0,0,0,0,0,0,0,0,0,0,0,0,0,0,0,0,0,0,0,0,0,0,0,0,0,0,0,0,0,0,0,0,0,0,0,0,0,0,0,0,0,0,0
"Ind29","1_0_5",157,68,68,68,68,68,68,72,72,72,72,72,72,76,76,75,76,76,76,77,77,77,77,77,77,0,0,0,-1,0,0,0,0,0,0,0,0,0,0,0,0,0,0,0,0,0,0,0,0,0,0,0,0,0,0,0,0,0,0,0,0,0,0,0,0,0,0,0,0,0,0,0,0,0,0,0,0,0,0,0,0,0,0,0,0,0,0,0,0,0,0,0,0,0,0,0,0,0,0,0,0,0,0,0,0,0,0,0,0
"Ind30","1_0_0",157,68,68,68,68,68,68,72,72,72,72,72,72,76,76,75,76,76,76,77,77,77,77,77,77,0,0,0,0,-1,0,0,0,0,0,0,0,0,0,0,0,0,0,0,0,0,0,0,0,0,0,0,0,0,0,0,0,0,0,0,0,0,0,0,0,0,0,0,0,0,0,0,0,0,0,0,0,0,0,0,0,0,0,0,0,0,0,0,0,0,0,0,0,0,0,0,0,0,0,0,0,0,0,0,0,0,0,0,0
"Ind31","1_0_3",157,68,68,68,68,68,68,72,72,72,72,72,72,76,76,75,76,76,76,77,77,77,77,77,77,0,0,0,0,0,-1,0,0,0,0,0,0,0,0,0,0,0,0,0,0,0,0,0,0,0,0,0,0,0,0,0,0,0,0,0,0,0,0,0,0,0,0,0,0,0,0,0,0,0,0,0,0,0,0,0,0,0,0,0,0,0,0,0,0,0,0,0,0,0,0,0,0,0,0,0,0,0,0,0,0,0,0,0,0
"Ind32","4_0_3",156,65,65,65,65,65,65,71,71,71,71,71,71,75,75,74,75,75,75,76,76,76,76,76,76,3,3,3,3,3,3,-1,0,0,0,0,0,0,0,0,0,0,0,0,0,0,0,0,0,0,0,0,0,0,0,0,0,0,0,0,0,0,0,0,0,0,0,0,0,0,0,0,0,0,0,0,0,0,0,0,0,0,0,0,0,0,0,0,0,0,0,0,0,0,0,0,0,0,0,0,0,0,0,0,0,0,0,0,0
"Ind33","4_0_0",156,65,65,65,65,65,65,71,71,71,71,71,71,75,75,74,75,75,75,76,76,76,76,76,76,3,3,3,3,3,3,0,-1,0,0,0,0,0,0,0,0,0,0,0,0,0,0,0,0,0,0,0,0,0,0,0,0,0,0,0,0,0,0,0,0,0,0,0,0,0,0,0,0,0,0,0,0,0,0,0,0,0,0,0,0,0,0,0,0,0,0,0,0,0,0,0,0,0,0,0,0,0,0,0,0,0,0,0,0
"Ind34","4_0_5",156,65,65,65,65,65,65,71,71,71,71,71,71,75,75,74,75,75,75,76,76,76,76,76,76,3,3,3,3,3,3,0,0,-1,0,0,0,0,0,0,0,0,0,0,0,0,0,0,0,0,0,0,0,0,0,0,0,0,0,0,0,0,0,0,0,0,0,0,0,0,0,0,0,0,0,0,0,0,0,0,0,0,0,0,0,0,0,0,0,0,0,0,0,0,0,0,0,0,0,0,0,0,0,0,0,0,0,0,0
"Ind35","4_0_2",156,65,65,65,65,65,65,71,71,71,71,71,71,75,75,74,75,75,75,76,76,76,76,76,76,3,3,3,3,3,3,0,0,0,-1,0,0,0,0,0,0,0,0,0,0,0,0,0,0,0,0,0,0,0,0,0,0,0,0,0,0,0,0,0,0,0,0,0,0,0,0,0,0,0,0,0,0,0,0,0,0,0,0,0,0,0,0,0,0,0,0,0,0,0,0,0,0,0,0,0,0,0,0,0,0,0,0,0,0
"Ind36","4_0_4",156,65,65,65,65,65,65,71,71,71,71,71,71,75,75,74,75,75,75,76,76,76,76,76,76,3,3,3,3,3,3,0,0,0,0,-1,0,0,0,0,0,0,0,0,0,0,0,0,0,0,0,0,0,0,0,0,0,0,0,0,0,0,0,0,0,0,0,0,0,0,0,0,0,0,0,0,0,0,0,0,0,0,0,0,0,0,0,0,0,0,0,0,0,0,0,0,0,0,0,0,0,0,0,0,0,0,0,0,0
"Ind37","4_0_1",156,65,65,65,65,65,65,71,71,71,71,71,71,75,75,74,75,75,75,76,76,76,76,76,76,3,3,3,3,3,3,0,0,0,0,0,-1,0,0,0,0,0,0,0,0,0,0,0,0,0,0,0,0,0,0,0,0,0,0,0,0,0,0,0,0,0,0,0,0,0,0,0,0,0,0,0,0,0,0,0,0,0,0,0,0,0,0,0,0,0,0,0,0,0,0,0,0,0,0,0,0,0,0,0,0,0,0,0,0
"Ind38","8_0_0",141,55,55,55,55,55,55,61,61,61,61,61,61,76,76,75,76,76,76,59,59,59,59,59,59,57,57,57,57,57,57,54,54,54,54,54,54,-1,0,0,0,0,0,0,0,0,0,0,0,0,0,0,0,0,0,0,0,0,0,0,0,0,0,0,0,0,0,0,0,0,0,0,0,0,0,0,0,0,0,0,0,0,0,0,0,0,0,0,0,0,0,0,0,0,0,0,0,0,0,0,0,0,0,0,0,0,0,0,0
"Ind39","8_0_3",141,55,55,55,55,55,55,61,61,61,61,61,61,76,76,75,76,76,76,59,59,59,59,59,59,57,57,57,57,57,57,54,54,54,54,54,54,0,-1,0,0,0,0,0,0,0,0,0,0,0,0,0,0,0,0,0,0,0,0,0,0,0,0,0,0,0,0,0,0,0,0,0,0,0,0,0,0,0,0,0,0,0,0,0,0,0,0,0,0,0,0,0,0,0,0,0,0,0,0,0,0,0,0,0,0,0,0,0,0
"Ind40","8_0_4",141,55,55,55,55,55,55,61,61,61,61,61,61,76,76,75,76,76,76,59,59,59,59,59,59,57,57,57,57,57,57,54,54,54,54,54,54,0,0,-1,0,0,0,0,0,0,0,0,0,0,0,0,0,0,0,0,0,0,0,0,0,0,0,0,0,0,0,0,0,0,0,0,0,0,0,0,0,0,0,0,0,0,0,0,0,0,0,0,0,0,0,0,0,0,0,0,0,0,0,0,0,0,0,0,0,0,0,0,0
"Ind41","8_0_5",141,55,55,55,55,55,55,61,61,61,61,61,61,76,76,75,76,76,76,59,59,59,59,59,59,57,57,57,57,57,57,54,54,54,54,54,54,0,0,0,-1,0,0,0,0,0,0,0,0,0,0,0,0,0,0,0,0,0,0,0,0,0,0,0,0,0,0,0,0,0,0,0,0,0,0,0,0,0,0,0,0,0,0,0,0,0,0,0,0,0,0,0,0,0,0,0,0,0,0,0,0,0,0,0,0,0,0,0,0
"Ind42","8_0_1",141,55,55,55,55,55,55,61,61,61,61,61,61,76,76,75,76,76,76,59,59,59,59,59,59,57,57,57,57,57,57,54,54,54,54,54,54,0,0,0,0,-1,0,0,0,0,0,0,0,0,0,0,0,0,0,0,0,0,0,0,0,0,0,0,0,0,0,0,0,0,0,0,0,0,0,0,0,0,0,0,0,0,0,0,0,0,0,0,0,0,0,0,0,0,0,0,0,0,0,0,0,0,0,0,0,0,0,0,0
"Ind43","8_0_2",141,55,55,55,55,55,55,61,61,61,61,61,61,76,76,75,76,76,76,59,59,59,59,59,59,57,57,57,57,57,57,54,54,54,54,54,54,0,0,0,0,0,-1,0,0,0,0,0,0,0,0,0,0,0,0,0,0,0,0,0,0,0,0,0,0,0,0,0,0,0,0,0,0,0,0,0,0,0,0,0,0,0,0,0,0,0,0,0,0,0,0,0,0,0,0,0,0,0,0,0,0,0,0,0,0,0,0,0,0
"Ind44","13_0_0",143,57,57,57,57,57,57,63,63,63,63,63,63,78,78,77,78,78,78,61,61,61,61,61,61,59,59,59,59,59,59,56,56,56,56,56,56,2,2,2,2,2,2,-1,0,0,0,0,0,0,0,0,0,0,0,0,0,0,0,0,0,0,0,0,0,0,0,0,0,0,0,0,0,0,0,0,0,0,0,0,0,0,0,0,0,0,0,0,0,0,0,0,0,0,0,0,0,0,0,0,0,0,0,0,0,0,0,0,0
"Ind45","13_0_1",143,57,57,57,57,57,57,63,63,63,63,63,63,78,78,77,78,78,78,61,61,61,61,61,61,59,59,59,59,59,59,56,56,56,56,56,56,2,2,2,2,2,2,0,-1,0,0,0,0,0,0,0,0,0,0,0,0,0,0,0,0,0,0,0,0,0,0,0,0,0,0,0,0,0,0,0,0,0,0,0,0,0,0,0,0,0,0,0,0,0,0,0,0,0,0,0,0,0,0,0,0,0,0,0,0,0,0,0,0
"Ind46","13_0_4",143,57,57,57,57,57,57,63,63,63,63,63,63,78,78,77,78,78,78,61,61,61,61,61,61,59,59,59,59,59,59,56,56,56,56,56,56,2,2,2,2,2,2,0,0,-1,0,0,0,0,0,0,0,0,0,0,0,0,0,0,0,0,0,0,0,0,0,0,0,0,0,0,0,0,0,0,0,0,0,0,0,0,0,0,0,0,0,0,0,0,0,0,0,0,0,0,0,0,0,0,0,0,0,0,0,0,0,0,0
"Ind47","13_0_2",143,57,57,57,57,57,57,63,63,63,63,63,63,78,78,77,78,78,78,61,61,61,61,61,61,59,59,59,59,59,59,56,56,56,56,56,56,2,2,2,2,2,2,0,0,0,-1,0,0,0,0,0,0,0,0,0,0,0,0,0,0,0,0,0,0,0,0,0,0,0,0,0,0,0,0,0,0,0,0,0,0,0,0,0,0,0,0,0,0,0,0,0,0,0,0,0,0,0,0,0,0,0,0,0,0,0,0,0,0
"Ind48","13_0_3",143,57,57,57,57,57,57,63,63,63,63,63,63,78,78,77,78,78,78,61,61,61,61,61,61,59,59,59,59,59,59,56,56,56,56,56,56,2,2,2,2,2,2,0,0,0,0,-1,0,0,0,0,0,0,0,0,0,0,0,0,0,0,0,0,0,0,0,0,0,0,0,0,0,0,0,0,0,0,0,0,0,0,0,0,0,0,0,0,0,0,0,0,0,0,0,0,0,0,0,0,0,0,0,0,0,0,0,0,0
"Ind49","13_0_5",143,57,57,57,57,57,57,63,63,63,63,63,63,78,78,77,78,78,78,61,61,61,61,61,61,59,59,59,59,59,59,56,56,56,56,56,56,2,2,2,2,2,2,0,0,0,0,0,-1,0,0,0,0,0,0,0,0,0,0,0,0,0,0,0,0,0,0,0,0,0,0,0,0,0,0,0,0,0,0,0,0,0,0,0,0,0,0,0,0,0,0,0,0,0,0,0,0,0,0,0,0,0,0,0,0,0,0,0,0
"Ind50","16_0_0",148,69,69,69,69,69,69,75,75,75,75,75,75,85,85,84,85,85,85,71,71,71,71,71,71,67,67,67,67,67,67,64,64,64,64,64,64,38,38,38,38,38,38,38,38,38,38,38,38,-1,0,0,0,0,0,0,0,0,0,0,0,0,0,0,0,0,0,0,0,0,0,0,0,0,0,0,0,0,0,0,0,0,0,0,0,0,0,0,0,0,0,0,0,0,0,0,0,0,0,0,0,0,0,0,0,0,0,0,0
"Ind51","16_0_5",148,69,69,69,69,69,69,75,75,75,75,75,75,85,85,84,85,85,85,71,71,71,71,71,71,67,67,67,67,67,67,64,64,64,64,64,64,38,38,38,38,38,38,38,38,38,38,38,38,0,-1,0,0,0,0,0,0,0,0,0,0,0,0,0,0,0,0,0,0,0,0,0,0,0,0,0,0,0,0,0,0,0,0,0,0,0,0,0,0,0,0,0,0,0,0,0,0,0,0,0,0,0,0,0,0,0,0,0,0
"Ind52","16_0_2",148,69,69,69,69,69,69,75,75,75,75,75,75,85,85,84,85,85,85,71,71,71,71,71,71,67,67,67,67,67,67,64,64,64,64,64,64,38,38,38,38,38,38,38,38,38,38,38,38,0,0,-1,0,0,0,0,0,0,0,0,0,0,0,0,0,0,0,0,0,0,0,0,0,0,0,0,0,0,0,0,0,0,0,0,0,0,0,0,0,0,0,0,0,0,0,0,0,0,0,0,0,0,0,0,0,0,0,0,0
"Ind53","16_0_4",148,69,69,69,69,69,69,75,75,75,75,75,75,85,85,84,85,85,85,71,71,71,71,71,71,67,67,67,67,67,67,64,64,64,64,64,64,38,38,38,38,38,38,38,38,38,38,38,38,0,0,0,-1,0,0,0,0,0,0,0,0,0,0,0,0,0,0,0,0,0,0,0,0,0,0,0,0,0,0,0,0,0,0,0,0,0,0,0,0,0,0,0,0,0,0,0,0,0,0,0,0,0,0,0,0,0,0,0,0
"Ind54","16_0_3",148,69,69,69,69,69,69,75,75,75,75,75,75,85,85,84,85,85,85,71,71,71,71,71,71,67,67,67,67,67,67,64,64,64,64,64,64,38,38,38,38,38,38,38,38,38,38,38,38,0,0,0,0,-1,0,0,0,0,0,0,0,0,0,0,0,0,0,0,0,0,0,0,0,0,0,0,0,0,0,0,0,0,0,0,0,0,0,0,0,0,0,0,0,0,0,0,0,0,0,0,0,0,0,0,0,0,0,0,0
"Ind55","16_0_1",148,69,69,69,69,69,69,75,75,75,75,75,75,85,85,84,85,85,85,71,71,71,71,71,71,67,67,67,67,67,67,64,64,64,64,64,64,38,38,38,38,38,38,38,38,38,38,38,38,0,0,0,0,0,-1,0,0,0,0,0,0,0,0,0,0,0,0,0,0,0,0,0,0,0,0,0,0,0,0,0,0,0,0,0,0,0,0,0,0,0,0,0,0,0,0,0,0,0,0,0,0,0,0,0,0,0,0,0,0
"Ind56","11_0_5",146,64,64,64,64,64,64,70,70,70,70,70,70,84,84,83,84,84,84,68,68,68,68,68,68,66,66,66,66,66,66,63,63,63,63,63,63,35,35,35,35,35,35,35,35,35,35,35,35,7,7,7,7,7,7,-1,0,0,0,0,0,0,0,0,0,0,0,0,0,0,0,0,0,0,0,0,0,0,0,0,0,0,0,0,0,0,0,0,0,0,0,0,0,0,0,0,0,0,0,0,0,0,0,0,0,0,0,0,0
"Ind57","11_0_4",146,64,64,64,64,64,64,70,70,70,70,70,70,84,84,83,84,84,84,68,68,68,68,68,68,66,66,66,66,66,66,63,63,63,63,63,63,35,35,35,35,35,35,35,35,35,35,35,35,7,7,7,7,7,7,0,-1,0,0,0,0,0,0,0,0,0,0,0,0,0,0,0,0,0,0,0,0,0,0,0,0,0,0,0,0,0,0,0,0,0,0,0,0,0,0,0,0,0,0,0,0,0,0,0,0,0,0,0,0
"Ind58","11_0_0",146,64,64,64,64,64,64,70,70,70,70,70,70,84,84,83,84,84,84,68,68,68,68,68,68,66,66,66,66,66,66,63,63,63,63,63,63,35,35,35,35,35,35,35,35,35,35,35,35,7,7,7,7,7,7,0,0,-1,0,0,0,0,0,0,0,0,0,0,0,0,0,0,0,0,0,0,0,0,0,0,0,0,0,0,0,0,0,0,0,0,0,0,0,0,0,0,0,0,0,0,0,0,0,0,0,0,0,0,0
"Ind59","11_0_2",146,64,64,64,64,64,64,70,70,70,70,70,70,84,84,83,84,84,84,68,68,68,68,68,68,66,66,66,66,66,66,63,63,63,63,63,63,35,35,35,35,35,35,35,35,35,35,35,35,7,7,7,7,7,7,0,0,0,-1,0,0,0,0,0,0,0,0,0,0,0,0,0,0,0,0,0,0,0,0,0,0,0,0,0,0,0,0,0,0,0,0,0,0,0,0,0,0,0,0,0,0,0,0,0,0,0,0,0,0
"Ind60","11_0_3",146,64,64,64,64,64,64,70,70,70,70,70,70,84,84,83,84,84,84,68,68,68,68,68,68,66,66,66,66,66,66,63,63,63,63,63,63,35,35,35,35,35,35,35,35,35,35,35,35,7,7,7,7,7,7,0,0,0,0,-1,0,0,0,0,0,0,0,0,0,0,0,0,0,0,0,0,0,0,0,0,0,0,0,0,0,0,0,0,0,0,0,0,0,0,0,0,0,0,0,0,0,0,0,0,0,0,0,0,0
"Ind61","11_0_1",146,64,64,64,64,64,64,70,70,70,70,70,70,84,84,83,84,84,84,68,68,68,68,68,68,66,66,66,66,66,66,63,63,63,63,63,63,35,35,35,35,35,35,35,35,35,35,35,35,7,7,7,7,7,7,0,0,0,0,0,-1,0,0,0,0,0,0,0,0,0,0,0,0,0,0,0,0,0,0,0,0,0,0,0,0,0,0,0,0,0,0,0,0,0,0,0,0,0,0,0,0,0,0,0,0,0,0,0,0
"Ind62","9_0_4",148,67,67,67,67,67,67,73,73,73,73,73,73,85,85,86,85,85,85,71,71,71,71,71,71,76,76,76,76,76,76,74,74,74,74,74,74,48,48,48,48,48,48,50,50,50,50,50,50,62,62,62,62,62,62,61,61,61,61,61,61,-1,0,0,0,0,0,0,0,0,0,0,0,0,0,0,0,0,0,0,0,0,0,0,0,0,0,0,0,0,0,0,0,0,0,0,0,0,0,0,0,0,0,0,0,0,0,0,0
"Ind63","9_0_1",148,67,67,67,67,67,67,73,73,73,73,73,73,85,85,86,85,85,85,71,71,71,71,71,71,76,76,76,76,76,76,74,74,74,74,74,74,48,48,48,48,48,48,50,50,50,50,50,50,62,62,62,62,62,62,61,61,61,61,61,61,0,-1,0,0,0,0,0,0,0,0,0,0,0,0,0,0,0,0,0,0,0,0,0,0,0,0,0,0,0,0,0,0,0,0,0,0,0,0,0,0,0,0,0,0,0,0,0,0
"Ind64","9_0_5",148,67,67,67,67,67,67,73,73,73,73,73,73,85,85,86,85,85,85,71,71,71,71,71,71,76,76,76,76,76,76,74,74,74,74,74,74,48,48,48,48,48,48,50,50,50,50,50,50,62,62,62,62,62,62,61,61,61,61,61,61,0,0,-1,0,0,0,0,0,0,0,0,0,0,0,0,0,0,0,0,0,0,0,0,0,0,0,0,0,0,0,0,0,0,0,0,0,0,0,0,0,0,0,0,0,0,0,0,0
"Ind65","9_0_0",148,67,67,67,67,67,67,73,73,73,73,73,73,85,85,86,85,85,85,71,71,71,71,71,71,76,76,76,76,76,76,74,74,74,74,74,74,48,48,48,48,48,48,50,50,50,50,50,50,62,62,62,62,62,62,61,61,61,61,61,61,0,0,0,-1,0,0,0,0,0,0,0,0,0,0,0,0,0,0,0,0,0,0,0,0,0,0,0,0,0,0,0,0,0,0,0,0,0,0,0,0,0,0,0,0,0,0,0,0
"Ind66","9_0_3",148,67,67,67,67,67,67,73,73,73,73,73,73,85,85,86,85,85,85,71,71,71,71,71,71,76,76,76,76,76,76,74,74,74,74,74,74,48,48,48,48,48,48,50,50,50,50,50,50,62,62,62,62,62,62,61,61,61,61,61,61,0,0,0,0,-1,0,0,0,0,0,0,0,0,0,0,0,0,0,0,0,0,0,0,0,0,0,0,0,0,0,0,0,0,0,0,0,0,0,0,0,0,0,0,0,0,0,0,0
"Ind67","9_0_2",148,67,67,67,67,67,67,73,73,73,73,73,73,85,85,86,85,85,85,71,71,71,71,71,71,76,76,76,76,76,76,74,74,74,74,74,74,48,48,48,48,48,48,50,50,50,50,50,50,62,62,62,62,62,62,61,61,61,61,61,61,0,0,0,0,0,-1,0,0,0,0,0,0,0,0,0,0,0,0,0,0,0,0,0,0,0,0,0,0,0,0,0,0,0,0,0,0,0,0,0,0,0,0,0,0,0,0,0,0
"Ind68","6_0_1",147,52,52,52,52,52,52,59,59,59,59,59,59,74,74,75,74,74,74,62,62,62,62,62,62,61,61,61,61,61,61,58,58,58,58,58,58,28,28,28,28,28,28,30,30,30,30,30,30,49,49,49,49,49,49,46,46,46,46,46,46,48,48,48,48,48,48,-1,0,0,0,0,0,0,0,0,0,0,0,0,0,0,0,0,0,0,0,0,0,0,0,0,0,0,0,0,0,0,0,0,0,0,0,0,0,0,0,0,0
"Ind69","6_0_3",147,52,52,52,52,52,52,59,59,59,59,59,59,74,74,75,74,74,74,62,62,62,62,62,62,61,61,61,61,61,61,58,58,58,58,58,58,28,28,28,28,28,28,30,30,30,30,30,30,49,49,49,49,49,49,46,46,46,46,46,46,48,48,48,48,48,48,0,-1,0,0,0,0,0,0,0,0,0,0,0,0,0,0,0,0,0,0,0,0,0,0,0,0,0,0,0,0,0,0,0,0,0,0,0,0,0,0,0,0
"Ind70","6_0_5",147,52,52,52,52,52,52,59,59,59,59,59,59,74,74,75,74,74,74,62,62,62,62,62,62,61,61,61,61,61,61,58,58,58,58,58,58,28,28,28,28,28,28,30,30,30,30,30,30,49,49,49,49,49,49,46,46,46,46,46,46,48,48,48,48,48,48,0,0,-1,0,0,0,0,0,0,0,0,0,0,0,0,0,0,0,0,0,0,0,0,0,0,0,0,0,0,0,0,0,0,0,0,0,0,0,0,0,0,0
"Ind71","6_0_0",147,52,52,52,52,52,52,59,59,59,59,59,59,74,74,75,74,74,74,62,62,62,62,62,62,61,61,61,61,61,61,58,58,58,58,58,58,28,28,28,28,28,28,30,30,30,30,30,30,49,49,49,49,49,49,46,46,46,46,46,46,48,48,48,48,48,48,0,0,0,-1,0,0,0,0,0,0,0,0,0,0,0,0,0,0,0,0,0,0,0,0,0,0,0,0,0,0,0,0,0,0,0,0,0,0,0,0,0,0
"Ind72","6_0_2",147,52,52,52,52,52,52,59,59,59,59,59,59,74,74,75,74,74,74,62,62,62,62,62,62,61,61,61,61,61,61,58,58,58,58,58,58,28,28,28,28,28,28,30,30,30,30,30,30,49,49,49,49,49,49,46,46,46,46,46,46,48,48,48,48,48,48,0,0,0,0,-1,0,0,0,0,0,0,0,0,0,0,0,0,0,0,0,0,0,0,0,0,0,0,0,0,0,0,0,0,0,0,0,0,0,0,0,0,0
"Ind73","6_0_4",147,52,52,52,52,52,52,59,59,59,59,59,59,74,74,75,74,74,74,62,62,62,62,62,62,61,61,61,61,61,61,58,58,58,58,58,58,28,28,28,28,28,28,30,30,30,30,30,30,49,49,49,49,49,49,46,46,46,46,46,46,48,48,48,48,48,48,0,0,0,0,0,-1,0,0,0,0,0,0,0,0,0,0,0,0,0,0,0,0,0,0,0,0,0,0,0,0,0,0,0,0,0,0,0,0,0,0,0,0
"Ind74","3_0_3",140,52,52,52,52,52,52,58,58,58,58,58,58,74,74,73,74,74,74,59,59,59,59,59,59,57,57,57,57,57,57,54,54,54,54,54,54,20,20,20,20,20,20,20,20,20,20,20,20,38,38,38,38,38,38,35,35,35,35,35,35,46,46,46,46,46,46,22,22,22,22,22,22,-1,0,0,0,0,0,0,0,0,0,0,0,0,0,0,0,0,0,0,0,0,0,0,0,0,0,0,0,0,0,0,0,0,0,0,0
"Ind75","3_0_2",140,52,52,52,52,52,52,58,58,58,58,58,58,74,74,73,74,74,74,59,59,59,59,59,59,57,57,57,57,57,57,54,54,54,54,54,54,20,20,20,20,20,20,20,20,20,20,20,20,38,38,38,38,38,38,35,35,35,35,35,35,46,46,46,46,46,46,22,22,22,22,22,22,0,-1,0,0,0,0,0,0,0,0,0,0,0,0,0,0,0,0,0,0,0,0,0,0,0,0,0,0,0,0,0,0,0,0,0,0
"Ind76","3_0_4",140,52,52,52,52,52,52,58,58,58,58,58,58,74,74,73,74,74,74,59,59,59,59,59,59,57,57,57,57,57,57,54,54,54,54,54,54,20,20,20,20,20,20,20,20,20,20,20,20,38,38,38,38,38,38,35,35,35,35,35,35,46,46,46,46,46,46,22,22,22,22,22,22,0,0,-1,0,0,0,0,0,0,0,0,0,0,0,0,0,0,0,0,0,0,0,0,0,0,0,0,0,0,0,0,0,0,0,0,0
"Ind77","3_0_0",140,52,52,52,52,52,52,58,58,58,58,58,58,74,74,73,74,74,74,59,59,59,59,59,59,57,57,57,57,57,57,54,54,54,54,54,54,20,20,20,20,20,20,20,20,20,20,20,20,38,38,38,38,38,38,35,35,35,35,35,35,46,46,46,46,46,46,22,22,22,22,22,22,0,0,0,-1,0,0,0,0,0,0,0,0,0,0,0,0,0,0,0,0,0,0,0,0,0,0,0,0,0,0,0,0,0,0,0,0
"Ind78","3_0_1",140,52,52,52,52,52,52,58,58,58,58,58,58,74,74,73,74,74,74,59,59,59,59,59,59,57,57,57,57,57,57,54,54,54,54,54,54,20,20,20,20,20,20,20,20,20,20,20,20,38,38,38,38,38,38,35,35,35,35,35,35,46,46,46,46,46,46,22,22,22,22,22,22,0,0,0,0,-1,0,0,0,0,0,0,0,0,0,0,0,0,0,0,0,0,0,0,0,0,0,0,0,0,0,0,0,0,0,0,0
"Ind79","3_0_5",140,52,52,52,52,52,52,58,58,58,58,58,58,74,74,73,74,74,74,59,59,59,59,59,59,57,57,57,57,57,57,54,54,54,54,54,54,20,20,20,20,20,20,20,20,20,20,20,20,38,38,38,38,38,38,35,35,35,35,35,35,46,46,46,46,46,46,22,22,22,22,22,22,0,0,0,0,0,-1,0,0,0,0,0,0,0,0,0,0,0,0,0,0,0,0,0,0,0,0,0,0,0,0,0,0,0,0,0,0
"Ind80","12_0_3",140,51,51,51,51,51,51,57,57,57,57,57,57,70,70,69,70,70,70,57,57,57,57,57,57,53,53,53,53,53,53,50,50,50,50,50,50,16,16,16,16,16,16,16,16,16,16,16,16,34,34,34,34,34,34,33,33,33,33,33,33,42,42,42,42,42,42,20,20,20,20,20,20,10,10,10,10,10,10,-1,0,0,0,0,0,0,0,0,0,0,0,0,0,0,0,0,0,0,0,0,0,0,0,0,0,0,0,0,0
"Ind81","12_0_2",140,51,51,51,51,51,51,57,57,57,57,57,57,70,70,69,70,70,70,57,57,57,57,57,57,53,53,53,53,53,53,50,50,50,50,50,50,16,16,16,16,16,16,16,16,16,16,16,16,34,34,34,34,34,34,33,33,33,33,33,33,42,42,42,42,42,42,20,20,20,20,20,20,10,10,10,10,10,10,0,-1,0,0,0,0,0,0,0,0,0,0,0,0,0,0,0,0,0,0,0,0,0,0,0,0,0,0,0,0
"Ind82","12_0_0",140,51,51,51,51,51,51,57,57,57,57,57,57,70,70,69,70,70,70,57,57,57,57,57,57,53,53,53,53,53,53,50,50,50,50,50,50,16,16,16,16,16,16,16,16,16,16,16,16,34,34,34,34,34,34,33,33,33,33,33,33,42,42,42,42,42,42,20,20,20,20,20,20,10,10,10,10,10,10,0,0,-1,0,0,0,0,0,0,0,0,0,0,0,0,0,0,0,0,0,0,0,0,0,0,0,0,0,0,0
"Ind83","12_0_5",140,51,51,51,51,51,51,57,57,57,57,57,57,70,70,69,70,70,70,57,57,57,57,57,57,53,53,53,53,53,53,50,50,50,50,50,50,16,16,16,16,16,16,16,16,16,16,16,16,34,34,34,34,34,34,33,33,33,33,33,33,42,42,42,42,42,42,20,20,20,20,20,20,10,10,10,10,10,10,0,0,0,-1,0,0,0,0,0,0,0,0,0,0,0,0,0,0,0,0,0,0,0,0,0,0,0,0,0,0
"Ind84","12_0_1",140,51,51,51,51,51,51,57,57,57,57,57,57,70,70,69,70,70,70,57,57,57,57,57,57,53,53,53,53,53,53,50,50,50,50,50,50,16,16,16,16,16,16,16,16,16,16,16,16,34,34,34,34,34,34,33,33,33,33,33,33,42,42,42,42,42,42,20,20,20,20,20,20,10,10,10,10,10,10,0,0,0,0,-1,0,0,0,0,0,0,0,0,0,0,0,0,0,0,0,0,0,0,0,0,0,0,0,0,0
"Ind85","12_0_4",140,51,51,51,51,51,51,57,57,57,57,57,57,70,70,69,70,70,70,57,57,57,57,57,57,53,53,53,53,53,53,50,50,50,50,50,50,16,16,16,16,16,16,16,16,16,16,16,16,34,34,34,34,34,34,33,33,33,33,33,33,42,42,42,42,42,42,20,20,20,20,20,20,10,10,10,10,10,10,0,0,0,0,0,-1,0,0,0,0,0,0,0,0,0,0,0,0,0,0,0,0,0,0,0,0,0,0,0,0
"Ind86","10_0_5",147,54,54,54,54,54,54,58,58,58,58,58,58,76,76,75,76,76,76,63,63,63,63,63,63,59,59,59,59,59,59,56,56,56,56,56,56,24,24,24,24,24,24,24,24,24,24,24,24,41,41,41,41,41,41,38,38,38,38,38,38,43,43,43,43,43,43,27,27,27,27,27,27,17,17,17,17,17,17,15,15,15,15,15,15,-1,0,0,0,0,0,0,0,0,0,0,0,0,0,0,0,0,0,0,0,0,0,0,0
"Ind87","10_0_0",147,54,54,54,54,54,54,58,58,58,58,58,58,76,76,75,76,76,76,63,63,63,63,63,63,59,59,59,59,59,59,56,56,56,56,56,56,24,24,24,24,24,24,24,24,24,24,24,24,41,41,41,41,41,41,38,38,38,38,38,38,43,43,43,43,43,43,27,27,27,27,27,27,17,17,17,17,17,17,15,15,15,15,15,15,0,-1,0,0,0,0,0,0,0,0,0,0,0,0,0,0,0,0,0,0,0,0,0,0
"Ind88","10_0_3",147,54,54,54,54,54,54,58,58,58,58,58,58,76,76,75,76,76,76,63,63,63,63,63,63,59,59,59,59,59,59,56,56,56,56,56,56,24,24,24,24,24,24,24,24,24,24,24,24,41,41,41,41,41,41,38,38,38,38,38,38,43,43,43,43,43,43,27,27,27,27,27,27,17,17,17,17,17,17,15,15,15,15,15,15,0,0,-1,0,0,0,0,0,0,0,0,0,0,0,0,0,0,0,0,0,0,0,0,0
"Ind89","10_0_1",147,54,54,54,54,54,54,58,58,58,58,58,58,76,76,75,76,76,76,63,63,63,63,63,63,59,59,59,59,59,59,56,56,56,56,56,56,24,24,24,24,24,24,24,24,24,24,24,24,41,41,41,41,41,41,38,38,38,38,38,38,43,43,43,43,43,43,27,27,27,27,27,27,17,17,17,17,17,17,15,15,15,15,15,15,0,0,0,-1,0,0,0,0,0,0,0,0,0,0,0,0,0,0,0,0,0,0,0,0
"Ind90","10_0_4",147,54,54,54,54,54,54,58,58,58,58,58,58,76,76,75,76,76,76,63,63,63,63,63,63,59,59,59,59,59,59,56,56,56,56,56,56,24,24,24,24,24,24,24,24,24,24,24,24,41,41,41,41,41,41,38,38,38,38,38,38,43,43,43,43,43,43,27,27,27,27,27,27,17,17,17,17,17,17,15,15,15,15,15,15,0,0,0,0,-1,0,0,0,0,0,0,0,0,0,0,0,0,0,0,0,0,0,0,0
"Ind91","10_0_2",147,54,54,54,54,54,54,58,58,58,58,58,58,76,76,75,76,76,76,63,63,63,63,63,63,59,59,59,59,59,59,56,56,56,56,56,56,24,24,24,24,24,24,24,24,24,24,24,24,41,41,41,41,41,41,38,38,38,38,38,38,43,43,43,43,43,43,27,27,27,27,27,27,17,17,17,17,17,17,15,15,15,15,15,15,0,0,0,0,0,-1,0,0,0,0,0,0,0,0,0,0,0,0,0,0,0,0,0,0
"Ind92","7_0_4",142,52,52,52,52,52,52,58,58,58,58,58,58,74,74,73,74,74,74,61,61,61,61,61,61,60,60,60,60,60,60,57,57,57,57,57,57,23,23,23,23,23,23,23,23,23,23,23,23,41,41,41,41,41,41,38,38,38,38,38,38,46,46,46,46,46,46,31,31,31,31,31,31,23,23,23,23,23,23,17,17,17,17,17,17,26,26,26,26,26,26,-1,0,0,0,0,0,0,0,0,0,0,0,0,0,0,0,0,0
"Ind93","7_0_0",142,52,52,52,52,52,52,58,58,58,58,58,58,74,74,73,74,74,74,61,61,61,61,61,61,60,60,60,60,60,60,57,57,57,57,57,57,23,23,23,23,23,23,23,23,23,23,23,23,41,41,41,41,41,41,38,38,38,38,38,38,46,46,46,46,46,46,31,31,31,31,31,31,23,23,23,23,23,23,17,17,17,17,17,17,26,26,26,26,26,26,0,-1,0,0,0,0,0,0,0,0,0,0,0,0,0,0,0,0
"Ind94","7_0_1",142,52,52,52,52,52,52,58,58,58,58,58,58,74,74,73,74,74,74,61,61,61,61,61,61,60,60,60,60,60,60,57,57,57,57,57,57,23,23,23,23,23,23,23,23,23,23,23,23,41,41,41,41,41,41,38,38,38,38,38,38,46,46,46,46,46,46,31,31,31,31,31,31,23,23,23,23,23,23,17,17,17,17,17,17,26,26,26,26,26,26,0,0,-1,0,0,0,0,0,0,0,0,0,0,0,0,0,0,0
"Ind95","7_0_2",142,52,52,52,52,52,52,58,58,58,58,58,58,74,74,73,74,74,74,61,61,61,61,61,61,60,60,60,60,60,60,57,57,57,57,57,57,23,23,23,23,23,23,23,23,23,23,23,23,41,41,41,41,41,41,38,38,38,38,38,38,46,46,46,46,46,46,31,31,31,31,31,31,23,23,23,23,23,23,17,17,17,17,17,17,26,26,26,26,26,26,0,0,0,-1,0,0,0,0,0,0,0,0,0,0,0,0,0,0
"Ind96","7_0_3",142,52,52,52,52,52,52,58,58,58,58,58,58,74,74,73,74,74,74,61,61,61,61,61,61,60,60,60,60,60,60,57,57,57,57,57,57,23,23,23,23,23,23,23,23,23,23,23,23,41,41,41,41,41,41,38,38,38,38,38,38,46,46,46,46,46,46,31,31,31,31,31,31,23,23,23,23,23,23,17,17,17,17,17,17,26,26,26,26,26,26,0,0,0,0,-1,0,0,0,0,0,0,0,0,0,0,0,0,0
"Ind97","7_0_5",142,52,52,52,52,52,52,58,58,58,58,58,58,74,74,73,74,74,74,61,61,61,61,61,61,60,60,60,60,60,60,57,57,57,57,57,57,23,23,23,23,23,23,23,23,23,23,23,23,41,41,41,41,41,41,38,38,38,38,38,38,46,46,46,46,46,46,31,31,31,31,31,31,23,23,23,23,23,23,17,17,17,17,17,17,26,26,26,26,26,26,0,0,0,0,0,-1,0,0,0,0,0,0,0,0,0,0,0,0
"Ind98","18_0_1",148,75,75,75,75,75,75,81,81,81,81,81,81,95,95,94,95,95,95,83,83,83,83,83,83,82,82,82,82,82,82,81,81,81,81,81,81,71,71,71,71,71,71,73,73,73,73,73,73,84,84,84,84,84,84,79,79,79,79,79,79,85,85,85,85,85,85,74,74,74,74,74,74,66,66,66,66,66,66,71,71,71,71,71,71,76,76,76,76,76,76,71,71,71,71,71,71,-1,0,0,0,0,0,0,0,0,0,0,0
"Ind99","18_0_0",148,75,75,75,75,75,75,81,81,81,81,81,81,95,95,94,95,95,95,83,83,83,83,83,83,82,82,82,82,82,82,81,81,81,81,81,81,71,71,71,71,71,71,73,73,73,73,73,73,84,84,84,84,84,84,79,79,79,79,79,79,85,85,85,85,85,85,74,74,74,74,74,74,66,66,66,66,66,66,71,71,71,71,71,71,76,76,76,76,76,76,71,71,71,71,71,71,0,-1,0,0,0,0,0,0,0,0,0,0
"Ind100","18_0_3",148,75,75,75,75,75,75,81,81,81,81,81,81,95,95,94,95,95,95,83,83,83,83,83,83,82,82,82,82,82,82,81,81,81,81,81,81,71,71,71,71,71,71,73,73,73,73,73,73,84,84,84,84,84,84,79,79,79,79,79,79,85,85,85,85,85,85,74,74,74,74,74,74,66,66,66,66,66,66,71,71,71,71,71,71,76,76,76,76,76,76,71,71,71,71,71,71,0,0,-1,0,0,0,0,0,0,0,0,0
"Ind101","18_0_2",148,75,75,75,75,75,75,81,81,81,81,81,81,95,95,94,95,95,95,83,83,83,83,83,83,82,82,82,82,82,82,81,81,81,81,81,81,71,71,71,71,71,71,73,73,73,73,73,73,84,84,84,84,84,84,79,79,79,79,79,79,85,85,85,85,85,85,74,74,74,74,74,74,66,66,66,66,66,66,71,71,71,71,71,71,76,76,76,76,76,76,71,71,71,71,71,71,0,0,0,-1,0,0,0,0,0,0,0,0
"Ind102","18_0_4",148,75,75,75,75,75,75,81,81,81,81,81,81,95,95,94,95,95,95,83,83,83,83,83,83,82,82,82,82,82,82,81,81,81,81,81,81,71,71,71,71,71,71,73,73,73,73,73,73,84,84,84,84,84,84,79,79,79,79,79,79,85,85,85,85,85,85,74,74,74,74,74,74,66,66,66,66,66,66,71,71,71,71,71,71,76,76,76,76,76,76,71,71,71,71,71,71,0,0,0,0,-1,0,0,0,0,0,0,0
"Ind103","18_0_5",148,75,75,75,75,75,75,81,81,81,81,81,81,95,95,94,95,95,95,83,83,83,83,83,83,82,82,82,82,82,82,81,81,81,81,81,81,71,71,71,71,71,71,73,73,73,73,73,73,84,84,84,84,84,84,79,79,79,79,79,79,85,85,85,85,85,85,74,74,74,74,74,74,66,66,66,66,66,66,71,71,71,71,71,71,76,76,76,76,76,76,71,71,71,71,71,71,0,0,0,0,0,-1,0,0,0,0,0,0
"Ind104","17_0_1",147,74,74,74,74,74,74,80,80,80,80,80,80,94,94,93,94,94,94,82,82,82,82,82,82,79,79,79,79,79,79,78,78,78,78,78,78,70,70,70,70,70,70,72,72,72,72,72,72,83,83,83,83,83,83,78,78,78,78,78,78,84,84,84,84,84,84,73,73,73,73,73,73,65,65,65,65,65,65,70,70,70,70,70,70,75,75,75,75,75,75,70,70,70,70,70,70,3,3,3,3,3,3,-1,0,0,0,0,0
"Ind105","17_0_2",147,74,74,74,74,74,74,80,80,80,80,80,80,94,94,93,94,94,94,82,82,82,82,82,82,79,79,79,79,79,79,78,78,78,78,78,78,70,70,70,70,70,70,72,72,72,72,72,72,83,83,83,83,83,83,78,78,78,78,78,78,84,84,84,84,84,84,73,73,73,73,73,73,65,65,65,65,65,65,70,70,70,70,70,70,75,75,75,75,75,75,70,70,70,70,70,70,3,3,3,3,3,3,0,-1,0,0,0,0
"Ind106","17_0_5",147,74,74,74,74,74,74,80,80,80,80,80,80,94,94,93,94,94,94,82,82,82,82,82,82,79,79,79,79,79,79,78,78,78,78,78,78,70,70,70,70,70,70,72,72,72,72,72,72,83,83,83,83,83,83,78,78,78,78,78,78,84,84,84,84,84,84,73,73,73,73,73,73,65,65,65,65,65,65,70,70,70,70,70,70,75,75,75,75,75,75,70,70,70,70,70,70,3,3,3,3,3,3,0,0,-1,0,0,0
"Ind107","17_0_0",147,74,74,74,74,74,74,80,80,80,80,80,80,94,94,93,94,94,94,82,82,82,82,82,82,79,79,79,79,79,79,78,78,78,78,78,78,70,70,70,70,70,70,72,72,72,72,72,72,83,83,83,83,83,83,78,78,78,78,78,78,84,84,84,84,84,84,73,73,73,73,73,73,65,65,65,65,65,65,70,70,70,70,70,70,75,75,75,75,75,75,70,70,70,70,70,70,3,3,3,3,3,3,0,0,0,-1,0,0
"Ind108","17_0_4",147,74,74,74,74,74,74,80,80,80,80,80,80,94,94,93,94,94,94,82,82,82,82,82,82,79,79,79,79,79,79,78,78,78,78,78,78,70,70,70,70,70,70,72,72,72,72,72,72,83,83,83,83,83,83,78,78,78,78,78,78,84,84,84,84,84,84,73,73,73,73,73,73,65,65,65,65,65,65,70,70,70,70,70,70,75,75,75,75,75,75,70,70,70,70,70,70,3,3,3,3,3,3,0,0,0,0,-1,0
"Ind109","17_0_3",147,74,74,74,74,74,74,80,80,80,80,80,80,94,94,93,94,94,94,82,82,82,82,82,82,79,79,79,79,79,79,78,78,78,78,78,78,70,70,70,70,70,70,72,72,72,72,72,72,83,83,83,83,83,83,78,78,78,78,78,78,84,84,84,84,84,84,73,73,73,73,73,73,65,65,65,65,65,65,70,70,70,70,70,70,75,75,75,75,75,75,70,70,70,70,70,70,3,3,3,3,3,3,0,0,0,0,0,-1
