Tree file : INDELible V1.03 (best viewed cut and paste in e.g. excel)

N.B. Simulation blocks with no random trees will have their trees printed for the first replicate only.

FILE	TREE	NTAXA	REP	PART	LENGTH	DEPTH	MAX PAIRWISE DISTANCE	TREE STRING

data_01	T01	145	1	1	0.110278	0.0554672	0.0925623	(0_0_0:0.05546722,((((((((8_0_11:0.00000025,8_0_9:0.00000035):0.00000033,8_0_1:0.00000063):0.00000262,((8_0_2:0.00000203,(8_0_8:0.00000016,8_0_12:0.00000016):0.00000072):0.00000073,(8_0_15:0.00000071,8_0_7:0.00000152):0.00000095):0.00000242):0.00000115,((((8_0_0:0.00000022,8_0_4:0.00000023):0.00000002,8_0_13:0.00000028):0.00000213,8_0_14:0.00000333):0.00000016,((8_0_5:0.00000001,8_0_6:0.00000002):0.00000030,(8_0_3:0.00000027,8_0_10:0.00000015):0.00000018):0.00000155):0.00000317):0.00007087,(((((3_0_1:0.00000218,(3_0_8:0.00000000,3_0_5:0.00000000):0.00000207):0.00000041,3_0_4:0.00000180):0.00000053,((3_0_2:0.00000067,3_0_13:0.00000063):0.00000069,((3_0_3:0.00000001,3_0_14:0.00000001):0.00000064,(3_0_0:0.00000019,((3_0_7:0.00000024,3_0_9:0.00000031):0.00000002,(3_0_11:0.00000007,3_0_12:0.00000010):0.00000007):0.00000003):0.00000020):0.00000054):0.00000213):0.00000377,(3_0_10:0.00000254,3_0_6:0.00000259):0.00000189):0.00002086,3_0_15:0.00001750):0.00019879):0.00036868,((((((4_0_8:0.00000000,4_0_14:0.00000000):0.00000100,4_0_2:0.00000058):0.00000055,4_0_5:0.00000161):0.00000456,((4_0_7:0.00000015,4_0_6:0.00000012):0.00000320,(4_0_3:0.00000076,(4_0_1:0.00000009,4_0_0:0.00000008):0.00000074):0.00000291):0.00000286):0.00000333,(((4_0_11:0.00000006,(4_0_4:0.00000004,4_0_10:0.00000009):0.00000005):0.00000086,(4_0_13:0.00000062,4_0_9:0.00000023):0.00000023):0.00000030,(4_0_12:0.00000051,4_0_15:0.00000076):0.00000032):0.00001080):0.00075240,(((5_0_7:0.00000289,((5_0_14:0.00000095,(5_0_6:0.00000039,5_0_9:0.00000037):0.00000007):0.00000016,5_0_8:0.00000112):0.00000384):0.00001631,((((5_0_5:0.00000092,5_0_3:0.00000048):0.00000037,5_0_15:0.00000101):0.00000453,((5_0_0:0.00000050,5_0_1:0.00000092):0.00000086,((5_0_2:0.00000005,5_0_4:0.00000007):0.00000026,5_0_12:0.00000046):0.00000113):0.00000119):0.00000023,((5_0_10:0.00000018,5_0_11:0.00000034):0.00000035,5_0_13:0.00000034):0.00000360):0.00000652):0.00036701,((((((9_0_13:0.00000009,9_0_3:0.00000010):0.00000088,(9_0_12:0.00000028,9_0_8:0.00000016):0.00000069):0.00000078,((9_0_9:0.00000026,(9_0_10:0.00000008,9_0_4:0.00000011):0.00000006):0.00000003,9_0_2:0.00000022):0.00000157):0.00000174,(((9_0_7:0.00000008,(9_0_11:0.00000007,9_0_0:0.00000003):0.00000004):0.00000011,9_0_5:0.00000032):0.00000130,(9_0_6:0.00000022,9_0_1:0.00000028):0.00000095):0.00000318):0.00001422,(9_0_15:0.00000468,9_0_14:0.00000356):0.00002565):0.00009470,(((((7_0_2:0.00000007,7_0_13:0.00000005):0.00000088,(((7_0_15:0.00000040,7_0_9:0.00000020):0.00000004,7_0_1:0.00000016):0.00000008,7_0_10:0.00000027):0.00000055):0.00000046,(7_0_11:0.00000024,7_0_3:0.00000016):0.00000171):0.00000455,(7_0_8:0.00000143,(7_0_14:0.00000022,7_0_4:0.00000012):0.00000054):0.00000294):0.00000033,((7_0_5:0.00000014,(7_0_6:0.00000008,7_0_0:0.00000009):0.00000015):0.00000150,(7_0_7:0.00000003,7_0_12:0.00000003):0.00000107):0.00000337):0.00016733):0.00040213):0.00013660):0.00002681):0.00057472,((6_0_1:0.00000357,(((6_0_12:0.00000012,6_0_9:0.00000009):0.00000431,6_0_13:0.00000404):0.00000035,((6_0_4:0.00000042,6_0_3:0.00000050):0.00000258,(6_0_14:0.00000155,(6_0_10:0.00000051,6_0_7:0.00000096):0.00000117):0.00000158):0.00000015):0.00000046):0.00001839,((6_0_6:0.00000045,(6_0_2:0.00000001,6_0_8:0.00000002):0.00000045):0.00000513,((6_0_15:0.00000010,6_0_5:0.00000006):0.00000011,(6_0_0:0.00000020,6_0_11:0.00000026):0.00000002):0.00000253):0.00000744):0.00102881):0.01305655,(((((1_0_4:0.00000099,1_0_13:0.00000048):0.00000193,1_0_5:0.00000395):0.00000043,(((1_0_2:0.00000179,1_0_11:0.00000112):0.00000027,(1_0_9:0.00000003,1_0_8:0.00000008):0.00000117):0.00000172,((1_0_1:0.00000088,1_0_6:0.00000078):0.00000244,((1_0_10:0.00000050,1_0_0:0.00000039):0.00000017,1_0_3:0.00000100):0.00000235):0.00000058):0.00000116):0.00000343,((1_0_7:0.00000008,1_0_12:0.00000005):0.00000199,(1_0_15:0.00000072,1_0_14:0.00000128):0.00000184):0.00000535):0.00011905,(2_0_9:0.00001083,((((2_0_12:0.00000084,(2_0_0:0.00000010,2_0_7:0.00000010):0.00000027):0.00000006,(2_0_11:0.00000024,2_0_2:0.00000034):0.00000026):0.00000099,2_0_4:0.00000082):0.00000422,(2_0_13:0.00000237,(((((2_0_14:0.00000013,2_0_1:0.00000012):0.00000025,2_0_10:0.00000012):0.00000007,2_0_6:0.00000058):0.00000013,2_0_5:0.00000062):0.00000122,(2_0_8:0.00000038,(2_0_3:0.00000003,2_0_15:0.00000004):0.00000049):0.00000130):0.00000001):0.00000338):0.00000104):0.00009030):0.02102087):0.01594661);

data_02	T02	145	1	1	0.117446	0.0499712	0.0990182	(((((((((4_0_11:0.00000055,(4_0_0:0.00000033,(4_0_14:0.00000060,((4_0_13:0.00000032,4_0_8:0.00000040):0.00000013,4_0_5:0.00000045):0.00000009):0.00000007):0.00000019):0.00000016,((4_0_12:0.00000018,(4_0_7:0.00000013,4_0_2:0.00000008):0.00000013):0.00000101,4_0_3:0.00000081):0.00000006):0.00000152,((4_0_4:0.00000002,4_0_6:0.00000002):0.00000242,((4_0_1:0.00000002,4_0_15:0.00000001):0.00000027,4_0_10:0.00000044):0.00000195):0.00000001):0.00000093,4_0_9:0.00000289):0.00067499,((((5_0_13:0.00000297,((5_0_1:0.00000056,5_0_10:0.00000082):0.00000050,((5_0_5:0.00000057,((5_0_7:0.00000038,(5_0_2:0.00000012,5_0_12:0.00000011):0.00000044):0.00000003,5_0_11:0.00000046):0.00000002):0.00000038,((5_0_8:0.00000002,5_0_15:0.00000002):0.00000086,5_0_14:0.00000075):0.00000023):0.00000079):0.00000075):0.00000056,(((5_0_4:0.00000007,5_0_6:0.00000008):0.00000013,5_0_9:0.00000024):0.00000084,5_0_0:0.00000065):0.00000246):0.00000592,5_0_3:0.00001113):0.00038900,(((((((7_0_14:0.00000007,7_0_7:0.00000006):0.00000041,(7_0_12:0.00000006,7_0_9:0.00000011):0.00000118):0.00000156,((7_0_15:0.00000040,7_0_5:0.00000055):0.00000052,((7_0_13:0.00000025,7_0_6:0.00000044):0.00000026,7_0_2:0.00000087):0.00000019):0.00000166):0.00000093,7_0_1:0.00000358):0.00000057,(7_0_11:0.00000284,(7_0_3:0.00000143,7_0_0:0.00000176):0.00000068):0.00000049):0.00004716,(7_0_10:0.00000066,(7_0_8:0.00000031,7_0_4:0.00000080):0.00000042):0.00005584):0.00009305,(((9_0_7:0.00000010,9_0_11:0.00000020):0.00000019,(9_0_14:0.00000013,9_0_3:0.00000013):0.00000021):0.00000511,(9_0_1:0.00000981,(((9_0_8:0.00000098,9_0_2:0.00000159):0.00000086,(9_0_15:0.00000018,9_0_12:0.00000020):0.00000166):0.00000292,((9_0_6:0.00000077,(9_0_4:0.00000067,9_0_5:0.00000033):0.00000003):0.00000505,((9_0_10:0.00000018,9_0_0:0.00000027):0.00000057,(9_0_13:0.00000003,9_0_9:0.00000004):0.00000064):0.00000538):0.00000042):0.00000213):0.00000160):0.00022159):0.00018599):0.00011676):0.00003053,((((8_0_15:0.00000174,(((8_0_2:0.00000035,(8_0_4:0.00000000,8_0_1:0.00000000):0.00000035):0.00000034,8_0_10:0.00000052):0.00000016,(8_0_6:0.00000015,8_0_7:0.00000011):0.00000058):0.00000172):0.00000166,((8_0_12:0.00000259,((8_0_11:0.00000055,8_0_13:0.00000056):0.00000084,8_0_8:0.00000284):0.00000037):0.00000037,(8_0_0:0.00000215,(8_0_14:0.00000017,(8_0_5:0.00000015,8_0_9:0.00000013):0.00000008):0.00000113):0.00000150):0.00000028):0.00000658,8_0_3:0.00001221):0.00028582,(((3_0_4:0.00000163,(3_0_1:0.00000025,(3_0_10:0.00000000,3_0_9:0.00000001):0.00000013):0.00000110):0.00000004,((3_0_5:0.00000007,3_0_2:0.00000005):0.00000033,3_0_13:0.00000032):0.00000096):0.00001312,((((3_0_8:0.00000022,3_0_12:0.00000034):0.00000052,(3_0_11:0.00000051,((3_0_0:0.00000029,(3_0_15:0.00000002,3_0_7:0.00000003):0.00000028):0.00000032,3_0_14:0.00000055):0.00000011):0.00000024):0.00000243,3_0_6:0.00000719):0.00000139,3_0_3:0.00000574):0.00000468):0.00023843):0.00044767):0.00067918,((((6_0_11:0.00000011,6_0_10:0.00000008):0.00000134,(6_0_3:0.00000093,((6_0_6:0.00000012,(6_0_13:0.00000009,6_0_8:0.00000007):0.00000022):0.00000073,(6_0_14:0.00000050,6_0_1:0.00000056):0.00000011):0.00000088):0.00000042):0.00000204,(((6_0_0:0.00000038,6_0_4:0.00000062):0.00000010,(6_0_15:0.00000051,6_0_7:0.00000028):0.00000024):0.00000186,((6_0_2:0.00000003,6_0_12:0.00000003):0.00000008,6_0_5:0.00000009):0.00000236):0.00000003):0.00000105,6_0_9:0.00000652):0.00157011):0.03404606,((((2_0_12:0.00000145,2_0_5:0.00000114):0.00000562,(((2_0_11:0.00000076,(2_0_0:0.00000038,2_0_4:0.00000045):0.00000097):0.00000029,(2_0_6:0.00000074,((2_0_3:0.00000024,2_0_7:0.00000013):0.00000035,(2_0_1:0.00000026,2_0_14:0.00000048):0.00000004):0.00000020):0.00000072):0.00000190,(2_0_15:0.00000157,2_0_13:0.00000272):0.00000192):0.00000237):0.00000458,((2_0_8:0.00000019,2_0_2:0.00000017):0.00000241,(2_0_10:0.00000091,2_0_9:0.00000048):0.00000227):0.00000944):0.00023098,((((1_0_5:0.00000055,((1_0_9:0.00000002,1_0_2:0.00000001):0.00000010,1_0_14:0.00000028):0.00000064):0.00000240,1_0_15:0.00000408):0.00000200,((1_0_0:0.00000038,(1_0_6:0.00000004,(1_0_8:0.00000002,1_0_11:0.00000002):0.00000001):0.00000054):0.00000194,1_0_4:0.00000250):0.00000309):0.00000462,(1_0_1:0.00000413,((1_0_3:0.00000038,1_0_13:0.00000028):0.00000308,(1_0_7:0.00000129,(1_0_12:0.00000111,1_0_10:0.00000059):0.00000051):0.00000122):0.00000292):0.00000601):0.00013957):0.01428805):0.01434854,0_0_0:0.04904698);

data_03	T03	145	1	1	0.10211	0.0469536	0.0772072	((((((2_0_2:0.00000087,((2_0_8:0.00000055,2_0_0:0.00000017):0.00000031,(2_0_12:0.00000034,2_0_4:0.00000031):0.00000012):0.00000060):0.00000099,(((2_0_15:0.00000016,2_0_11:0.00000019):0.00000001,2_0_5:0.00000038):0.00000095,((2_0_13:0.00000021,2_0_14:0.00000009):0.00000131,2_0_3:0.00000095):0.00000008):0.00000226):0.00000075,(((2_0_9:0.00000003,2_0_10:0.00000005):0.00000004,2_0_7:0.00000008):0.00000198,(2_0_6:0.00000032,2_0_1:0.00000033):0.00000109):0.00000282):0.00015452,(((1_0_8:0.00000130,1_0_4:0.00000209):0.00000094,1_0_1:0.00000293):0.00001406,(((((1_0_0:0.00000009,(1_0_14:0.00000018,((1_0_11:0.00000001,1_0_3:0.00000001):0.00000009,1_0_9:0.00000013):0.00000006):0.00000002):0.00000023,(1_0_5:0.00000008,1_0_10:0.00000013):0.00000069):0.00000031,(1_0_7:0.00000031,(1_0_15:0.00000032,1_0_6:0.00000018):0.00000011):0.00000093):0.00000006,1_0_12:0.00000065):0.00000382,(1_0_2:0.00000033,1_0_13:0.00000021):0.00000606):0.00000811):0.00017077):0.02082052,(((((((7_0_1:0.00000004,7_0_11:0.00000005):0.00001098,(((7_0_6:0.00000076,7_0_3:0.00000072):0.00000225,7_0_0:0.00000363):0.00000207,((((7_0_14:0.00000068,7_0_8:0.00000104):0.00000028,7_0_5:0.00000175):0.00000008,(((7_0_13:0.00000006,7_0_2:0.00000003):0.00000031,7_0_15:0.00000039):0.00000049,(7_0_10:0.00000039,7_0_4:0.00000021):0.00000054):0.00000029):0.00000041,(7_0_7:0.00000077,(7_0_9:0.00000032,7_0_12:0.00000024):0.00000006):0.00000083):0.00000403):0.00000654):0.00022759,((((((9_0_13:0.00000131,9_0_7:0.00000105):0.00000008,9_0_0:0.00000074):0.00000054,9_0_6:0.00000123):0.00000023,9_0_15:0.00000171):0.00000023,9_0_10:0.00000130):0.00001978,(((9_0_2:0.00000063,(9_0_5:0.00000011,(9_0_14:0.00000002,9_0_4:0.00000001):0.00000011):0.00000055):0.00000008,(9_0_9:0.00000100,9_0_1:0.00000133):0.00000024):0.00000035,(9_0_8:0.00000049,((9_0_11:0.00000006,9_0_3:0.00000005):0.00000018,9_0_12:0.00000030):0.00000016):0.00000096):0.00001364):0.00014062):0.00029619,(((5_0_14:0.00000082,(5_0_0:0.00000031,5_0_5:0.00000021):0.00000030):0.00000178,5_0_12:0.00000144):0.00001108,((5_0_7:0.00000184,((((5_0_1:0.00000000,5_0_13:0.00000000):0.00000010,5_0_9:0.00000007):0.00000018,(5_0_15:0.00000019,5_0_4:0.00000020):0.00000009):0.00000027,5_0_2:0.00000057):0.00000070):0.00000101,((5_0_6:0.00000114,(5_0_8:0.00000034,5_0_3:0.00000066):0.00000006):0.00000104,(5_0_11:0.00000008,5_0_10:0.00000010):0.00000177):0.00000073):0.00002260):0.00044174):0.00025270,((((4_0_9:0.00000011,4_0_12:0.00000004):0.00000031,4_0_13:0.00000096):0.00000329,(4_0_0:0.00000017,4_0_14:0.00000018):0.00000409):0.00001405,(4_0_3:0.00000332,(((4_0_10:0.00000008,4_0_7:0.00000008):0.00000233,((4_0_1:0.00000008,4_0_15:0.00000014):0.00000012,4_0_4:0.00000039):0.00000138):0.00000007,(((4_0_5:0.00000010,4_0_11:0.00000026):0.00000059,4_0_6:0.00000115):0.00000054,(4_0_8:0.00000005,4_0_2:0.00000003):0.00000112):0.00000049):0.00000142):0.00001724):0.00084631):0.00002066,(((((8_0_0:0.00000006,8_0_4:0.00000007):0.00000198,((8_0_13:0.00000101,(8_0_10:0.00000026,8_0_15:0.00000017):0.00000152):0.00000046,(((8_0_14:0.00000022,(8_0_6:0.00000010,(8_0_8:0.00000005,8_0_5:0.00000007):0.00000004):0.00000008):0.00000161,8_0_9:0.00000080):0.00000004,8_0_2:0.00000081):0.00000129):0.00000097):0.00000080,(8_0_12:0.00000133,(8_0_3:0.00000074,8_0_1:0.00000037):0.00000099):0.00000324):0.00000173,(8_0_11:0.00000009,8_0_7:0.00000015):0.00000496):0.00012759,(((3_0_9:0.00000069,(3_0_11:0.00000006,3_0_3:0.00000011):0.00000049):0.00000088,(3_0_14:0.00000141,(3_0_7:0.00000038,3_0_2:0.00000060):0.00000067):0.00000021):0.00001007,(((((3_0_1:0.00000009,3_0_4:0.00000012):0.00000035,3_0_13:0.00000054):0.00000065,(3_0_6:0.00000088,((3_0_0:0.00000007,3_0_15:0.00000006):0.00000007,3_0_12:0.00000008):0.00000045):0.00000040):0.00000035,3_0_8:0.00000157):0.00000268,(3_0_5:0.00000220,3_0_10:0.00000252):0.00000183):0.00000619):0.00007936):0.00049843):0.00092746,(((6_0_9:0.00000020,(6_0_1:0.00000014,6_0_5:0.00000015):0.00000008):0.00000423,(((6_0_10:0.00000028,6_0_12:0.00000027):0.00000116,(6_0_14:0.00000038,(6_0_13:0.00000015,6_0_11:0.00000020):0.00000013):0.00000083):0.00000016,((6_0_6:0.00000008,6_0_2:0.00000009):0.00000100,(6_0_0:0.00000043,6_0_4:0.00000055):0.00000022):0.00000045):0.00000306):0.00000549,((6_0_8:0.00000015,(6_0_15:0.00000002,6_0_7:0.00000001):0.00000023):0.00000461,6_0_3:0.00000867):0.00000338):0.00135873):0.02982099):0.01531709,0_0_0:0.03025358);

data_04	T04	145	1	1	0.0763212	0.0303941	0.0592448	(0_0_0:0.02885074,(((((((1_0_1:0.00000170,1_0_7:0.00000141):0.00000103,1_0_14:0.00000176):0.00000067,(1_0_6:0.00000160,(((1_0_4:0.00000033,(1_0_15:0.00000022,1_0_2:0.00000027):0.00000012):0.00000090,1_0_0:0.00000151):0.00000010,(((1_0_3:0.00000005,1_0_5:0.00000006):0.00000017,1_0_11:0.00000044):0.00000026,1_0_8:0.00000055):0.00000075):0.00000028):0.00000100):0.00000047,(1_0_12:0.00000146,(1_0_10:0.00000011,1_0_13:0.00000027):0.00000183):0.00000149):0.00001117,1_0_9:0.00001193):0.00010391,(2_0_2:0.00001568,(((2_0_6:0.00000053,2_0_11:0.00000037):0.00000197,((((2_0_3:0.00000005,(2_0_10:0.00000008,(2_0_9:0.00000004,2_0_13:0.00000006):0.00000002):0.00000001):0.00000018,2_0_5:0.00000059):0.00000055,(2_0_7:0.00000041,2_0_1:0.00000056):0.00000057):0.00000113,((2_0_0:0.00000026,2_0_4:0.00000020):0.00000016,(2_0_14:0.00000041,2_0_8:0.00000030):0.00000000):0.00000093):0.00000029):0.00000128,(2_0_12:0.00000148,2_0_15:0.00000167):0.00000176):0.00001211):0.00017023):0.01371186,((((((8_0_1:0.00000006,8_0_9:0.00000006):0.00000507,(((8_0_3:0.00000036,8_0_10:0.00000073):0.00000007,((8_0_13:0.00000059,8_0_15:0.00000061):0.00000001,8_0_2:0.00000110):0.00000008):0.00000196,(8_0_11:0.00000056,((8_0_4:0.00000003,8_0_8:0.00000004):0.00000018,(8_0_0:0.00000002,8_0_6:0.00000002):0.00000028):0.00000019):0.00000126):0.00000049):0.00000083,(8_0_14:0.00000214,(8_0_7:0.00000029,(8_0_12:0.00000027,8_0_5:0.00000050):0.00000019):0.00000111):0.00000077):0.00014430,((((3_0_3:0.00000069,((3_0_6:0.00000015,3_0_12:0.00000020):0.00000008,(3_0_5:0.00000013,3_0_1:0.00000005):0.00000012):0.00000036):0.00000025,((((3_0_11:0.00000002,3_0_2:0.00000001):0.00000004,3_0_0:0.00000007):0.00000049,3_0_9:0.00000048):0.00000003,3_0_10:0.00000060):0.00000021):0.00000287,(3_0_8:0.00000021,3_0_15:0.00000018):0.00000197):0.00000265,(3_0_13:0.00000619,(3_0_14:0.00000269,(3_0_4:0.00000043,3_0_7:0.00000024):0.00000251):0.00000294):0.00000032):0.00017452):0.00040800,(((4_0_2:0.00000296,((((4_0_10:0.00000011,4_0_11:0.00000014):0.00000013,4_0_0:0.00000020):0.00000192,4_0_3:0.00000211):0.00000056,(((4_0_9:0.00000138,4_0_8:0.00000081):0.00000077,(4_0_14:0.00000035,4_0_15:0.00000039):0.00000130):0.00000083,4_0_7:0.00000276):0.00000015):0.00000013):0.00000013,(((4_0_6:0.00000023,(4_0_12:0.00000035,4_0_1:0.00000027):0.00000000):0.00000191,4_0_4:0.00000096):0.00000023,(4_0_13:0.00000001,4_0_5:0.00000001):0.00000084):0.00000083):0.00046966,((((5_0_9:0.00000042,5_0_3:0.00000044):0.00000449,((5_0_4:0.00000043,5_0_11:0.00000056):0.00000223,5_0_14:0.00000141):0.00000529):0.00000029,(((((5_0_2:0.00000004,5_0_1:0.00000006):0.00000003,5_0_6:0.00000010):0.00000000,5_0_5:0.00000012):0.00000031,5_0_12:0.00000125):0.00000033,(5_0_8:0.00000292,((5_0_7:0.00000004,5_0_13:0.00000005):0.00000071,(5_0_0:0.00000095,(5_0_15:0.00000008,5_0_10:0.00000005):0.00000068):0.00000006):0.00000030):0.00000015):0.00000415):0.00035124,(((((((9_0_9:0.00000080,9_0_0:0.00000095):0.00000022,9_0_7:0.00000152):0.00000034,9_0_2:0.00000174):0.00000041,9_0_12:0.00000223):0.00000434,((9_0_6:0.00000162,9_0_15:0.00000054):0.00000047,9_0_14:0.00000145):0.00000189):0.00000590,((9_0_3:0.00000057,9_0_5:0.00000085):0.00000383,((9_0_10:0.00000117,9_0_1:0.00000339):0.00000245,((9_0_13:0.00000036,9_0_4:0.00000062):0.00000031,(9_0_11:0.00000044,9_0_8:0.00000049):0.00000034):0.00000358):0.00000103):0.00000359):0.00015197,((((7_0_3:0.00000176,((7_0_14:0.00000057,7_0_2:0.00000028):0.00000050,7_0_6:0.00000095):0.00000046):0.00000081,(7_0_1:0.00000136,(7_0_5:0.00000042,(7_0_11:0.00000014,(7_0_7:0.00000006,7_0_4:0.00000003):0.00000007):0.00000034):0.00000128):0.00000020):0.00000219,(7_0_13:0.00000321,(7_0_12:0.00000047,7_0_0:0.00000109):0.00000297):0.00000196):0.00000526,((7_0_10:0.00000123,7_0_8:0.00000216):0.00000182,(7_0_9:0.00000325,7_0_15:0.00000409):0.00000124):0.00000502):0.00013901):0.00022002):0.00012776):0.00001513):0.00058015,(((6_0_4:0.00000328,6_0_9:0.00000263):0.00000251,(6_0_8:0.00000181,(6_0_12:0.00000215,(6_0_11:0.00000021,(6_0_2:0.00000019,(6_0_10:0.00000004,6_0_14:0.00000002):0.00000015):0.00000003):0.00000116):0.00000042):0.00000470):0.00000304,(((6_0_7:0.00000214,((6_0_3:0.00000058,(6_0_6:0.00000013,6_0_13:0.00000008):0.00000045):0.00000110,6_0_0:0.00000113):0.00000053):0.00000004,(6_0_5:0.00000041,6_0_1:0.00000030):0.00000091):0.00000132,6_0_15:0.00000275):0.00000863):0.00142268):0.01316653):0.01579269);

data_05	T05	145	1	1	0.125091	0.0676942	0.100452	((((((((8_0_6:0.00000062,((8_0_10:0.00000006,8_0_1:0.00000007):0.00000026,8_0_15:0.00000051):0.00000022):0.00000022,8_0_12:0.00000170):0.00001772,((8_0_2:0.00000223,(8_0_13:0.00000023,8_0_11:0.00000012):0.00000177):0.00000585,((8_0_14:0.00000231,(8_0_0:0.00000207,8_0_7:0.00000200):0.00000113):0.00000104,(((8_0_5:0.00000003,8_0_8:0.00000004):0.00000006,8_0_4:0.00000010):0.00000024,(8_0_3:0.00000031,8_0_9:0.00000033):0.00000002):0.00000520):0.00000230):0.00000434):0.00009918,((((((3_0_4:0.00000009,3_0_7:0.00000008):0.00000000,3_0_13:0.00000010):0.00000077,3_0_6:0.00000048):0.00000123,((3_0_12:0.00000070,3_0_5:0.00000053):0.00000098,((3_0_2:0.00000025,3_0_0:0.00000019):0.00000012,3_0_10:0.00000062):0.00000163):0.00000054):0.00000161,(((3_0_3:0.00000040,(3_0_8:0.00000028,(3_0_1:0.00000016,3_0_15:0.00000014):0.00000017):0.00000012):0.00000024,3_0_9:0.00000042):0.00000141,3_0_11:0.00000373):0.00000154):0.00002446,3_0_14:0.00001407):0.00012250):0.00029490,(((((4_0_2:0.00000014,((4_0_12:0.00000003,4_0_9:0.00000002):0.00000004,4_0_8:0.00000009):0.00000004):0.00000052,(4_0_5:0.00000022,4_0_1:0.00000012):0.00000027):0.00000473,(4_0_13:0.00000180,(4_0_11:0.00000211,(4_0_15:0.00000038,(4_0_14:0.00000013,(4_0_0:0.00000009,4_0_10:0.00000009):0.00000012):0.00000005):0.00000111):0.00000002):0.00000348):0.00000077,(((4_0_4:0.00000017,4_0_6:0.00000019):0.00000017,4_0_7:0.00000026):0.00000271,4_0_3:0.00000224):0.00000208):0.00068073,((((((7_0_2:0.00000008,7_0_5:0.00000008):0.00000019,(7_0_0:0.00000004,7_0_1:0.00000007):0.00000045):0.00000289,(7_0_15:0.00000135,(((7_0_8:0.00000009,7_0_11:0.00000011):0.00000018,(((7_0_6:0.00000003,7_0_9:0.00000003):0.00000005,7_0_4:0.00000012):0.00000026,7_0_13:0.00000032):0.00000000):0.00000087,7_0_14:0.00000087):0.00000007):0.00000095):0.00000195,((7_0_3:0.00000008,7_0_10:0.00000009):0.00000040,(7_0_7:0.00000032,7_0_12:0.00000022):0.00000037):0.00000731):0.00017067,((((9_0_6:0.00000037,9_0_3:0.00000050):0.00000076,(9_0_4:0.00000021,9_0_0:0.00000024):0.00000065):0.00000007,(9_0_13:0.00000028,9_0_12:0.00000043):0.00000126):0.00001736,(9_0_5:0.00000144,(9_0_14:0.00000121,(((9_0_7:0.00000021,9_0_11:0.00000015):0.00000033,((9_0_10:0.00000003,9_0_1:0.00000005):0.00000047,9_0_15:0.00000042):0.00000002):0.00000023,((9_0_2:0.00000002,9_0_8:0.00000003):0.00000023,9_0_9:0.00000028):0.00000069):0.00000017):0.00000131):0.00001080):0.00019768):0.00016286,(((5_0_2:0.00000030,((5_0_14:0.00000000,5_0_11:0.00000000):0.00000022,5_0_15:0.00000025):0.00000012):0.00000551,((5_0_13:0.00000027,5_0_4:0.00000031):0.00000096,5_0_6:0.00000189):0.00000184):0.00000312,(((5_0_3:0.00000062,5_0_10:0.00000051):0.00000308,(5_0_7:0.00000049,(5_0_12:0.00000045,5_0_0:0.00000031):0.00000006):0.00000095):0.00000028,((5_0_1:0.00000034,(5_0_8:0.00000012,5_0_5:0.00000012):0.00000019):0.00000008,5_0_9:0.00000026):0.00000284):0.00000278):0.00036097):0.00013786):0.00000479):0.00092147,((((6_0_1:0.00000074,(((6_0_14:0.00000006,6_0_13:0.00000003):0.00000025,(6_0_12:0.00000017,6_0_0:0.00000012):0.00000009):0.00000030,6_0_11:0.00000082):0.00000020):0.00000146,6_0_5:0.00000268):0.00000064,((6_0_6:0.00000080,6_0_4:0.00000060):0.00000032,6_0_10:0.00000125):0.00000268):0.00000496,((6_0_7:0.00000131,((6_0_8:0.00000038,(6_0_15:0.00000013,6_0_3:0.00000007):0.00000018):0.00000004,6_0_9:0.00000042):0.00000057):0.00000063,6_0_2:0.00000194):0.00000461):0.00079161):0.02030125,(((((1_0_1:0.00000076,1_0_13:0.00000043):0.00000020,1_0_6:0.00000082):0.00000123,(((1_0_8:0.00000081,1_0_10:0.00000081):0.00000010,(1_0_12:0.00000006,(1_0_5:0.00000000,1_0_4:0.00000000):0.00000006):0.00000056):0.00000132,((1_0_7:0.00000002,1_0_3:0.00000002):0.00000070,(1_0_0:0.00000026,(1_0_15:0.00000022,1_0_9:0.00000017):0.00000014):0.00000008):0.00000145):0.00000048):0.00001675,(1_0_14:0.00000518,(1_0_2:0.00000291,1_0_11:0.00000177):0.00000357):0.00001912):0.00009790,((2_0_9:0.00000005,2_0_15:0.00000008):0.00000913,((2_0_10:0.00000293,(2_0_6:0.00000001,2_0_0:0.00000001):0.00000271):0.00000390,((2_0_7:0.00000003,2_0_2:0.00000004):0.00001088,((2_0_1:0.00000091,2_0_5:0.00000080):0.00000198,((2_0_13:0.00000134,2_0_12:0.00000172):0.00000068,((2_0_4:0.00000105,(2_0_14:0.00000081,2_0_3:0.00000060):0.00000027):0.00000027,(2_0_11:0.00000014,2_0_8:0.00000016):0.00000105):0.00000066):0.00000009):0.00000463):0.00000062):0.00000040):0.00005871):0.03227887):0.03529182,0_0_0:0.03275816);

data_06	T06	145	1	1	0.102175	0.0450646	0.0814298	(0_0_0:0.03636518,((((((6_0_3:0.00000040,(6_0_5:0.00000081,(6_0_2:0.00000008,6_0_11:0.00000008):0.00000104):0.00000002):0.00000085,6_0_13:0.00000233):0.00000055,((6_0_15:0.00000001,6_0_0:0.00000001):0.00000023,6_0_10:0.00000016):0.00000169):0.00000284,(6_0_9:0.00000181,((((6_0_6:0.00000009,6_0_12:0.00000005):0.00000016,6_0_4:0.00000017):0.00000075,6_0_14:0.00000050):0.00000279,((6_0_7:0.00000006,6_0_8:0.00000004):0.00000211,6_0_1:0.00000198):0.00000148):0.00000411):0.00000039):0.00079727,((((((5_0_9:0.00000209,5_0_2:0.00000209):0.00000262,(5_0_5:0.00000159,((5_0_4:0.00000048,(5_0_3:0.00000001,5_0_1:0.00000001):0.00000040):0.00000030,((5_0_8:0.00000054,5_0_6:0.00000065):0.00000041,((5_0_7:0.00000020,5_0_14:0.00000035):0.00000003,(5_0_0:0.00000024,5_0_15:0.00000038):0.00000001):0.00000066):0.00000008):0.00000032):0.00000285):0.00000948,((5_0_12:0.00000036,5_0_13:0.00000030):0.00000063,(5_0_10:0.00000025,5_0_11:0.00000020):0.00000055):0.00001100):0.00033648,(((((7_0_0:0.00000091,7_0_12:0.00000052):0.00000294,((7_0_15:0.00000175,((7_0_5:0.00000002,7_0_9:0.00000002):0.00000009,7_0_7:0.00000014):0.00000097):0.00000379,((7_0_3:0.00000299,((7_0_6:0.00000002,7_0_14:0.00000001):0.00000037,7_0_13:0.00000039):0.00000265):0.00000047,7_0_2:0.00000330):0.00000107):0.00000014):0.00000398,(7_0_11:0.00000105,(7_0_8:0.00000139,(7_0_4:0.00000022,7_0_10:0.00000023):0.00000072):0.00000075):0.00001026):0.00000635,7_0_1:0.00000813):0.00017397,((9_0_4:0.00000068,(((9_0_13:0.00000015,(9_0_9:0.00000016,9_0_1:0.00000015):0.00000001):0.00000039,((9_0_7:0.00000014,(9_0_10:0.00000009,9_0_11:0.00000013):0.00000010):0.00000007,(9_0_0:0.00000005,(9_0_2:0.00000001,9_0_15:0.00000001):0.00000003):0.00000018):0.00000006):0.00000006,(9_0_5:0.00000035,9_0_8:0.00000055):0.00000001):0.00000044):0.00001210,(9_0_12:0.00000474,(9_0_6:0.00000139,(9_0_3:0.00000015,9_0_14:0.00000014):0.00000226):0.00000554):0.00000207):0.00018471):0.00021090):0.00016348,(((4_0_5:0.00000045,(4_0_9:0.00000046,(4_0_12:0.00000006,4_0_14:0.00000018):0.00000020):0.00000012):0.00000486,(4_0_7:0.00000043,4_0_1:0.00000030):0.00000365):0.00000035,((((4_0_15:0.00000007,(4_0_11:0.00000002,4_0_4:0.00000001):0.00000002):0.00000039,4_0_10:0.00000021):0.00000029,(4_0_6:0.00000045,4_0_3:0.00000014):0.00000083):0.00000019,((4_0_8:0.00000000,4_0_0:0.00000000):0.00000023,(4_0_2:0.00000019,4_0_13:0.00000012):0.00000012):0.00000106):0.00000715):0.00060667):0.00001060,((((3_0_5:0.00000125,(3_0_0:0.00000028,3_0_2:0.00000024):0.00000033):0.00000295,(((3_0_14:0.00000028,3_0_15:0.00000039):0.00000009,(3_0_10:0.00000066,(3_0_11:0.00000029,3_0_3:0.00000021):0.00000012):0.00000001):0.00000116,(3_0_8:0.00000071,((3_0_13:0.00000064,3_0_7:0.00000045):0.00000036,((3_0_9:0.00000007,3_0_12:0.00000006):0.00000010,3_0_1:0.00000030):0.00000058):0.00000012):0.00000092):0.00000139):0.00000264,(3_0_6:0.00000537,3_0_4:0.00000558):0.00000122):0.00022657,(((8_0_0:0.00000007,8_0_15:0.00000006):0.00000012,8_0_14:0.00000025):0.00000825,((((8_0_12:0.00000014,8_0_9:0.00000005):0.00000062,8_0_5:0.00000065):0.00000207,(((8_0_8:0.00000119,((8_0_7:0.00000002,8_0_4:0.00000001):0.00000062,8_0_13:0.00000067):0.00000021):0.00000113,((8_0_11:0.00000000,8_0_6:0.00000000):0.00000264,8_0_1:0.00000178):0.00000071):0.00000046,8_0_3:0.00000309):0.00000009):0.00000003,(8_0_2:0.00000145,8_0_10:0.00000150):0.00000253):0.00000480):0.00011933):0.00051255):0.00065341):0.01635302,((((((1_0_15:0.00000056,1_0_13:0.00000112):0.00000025,1_0_0:0.00000175):0.00000193,(1_0_14:0.00000296,(1_0_6:0.00000040,((1_0_7:0.00000024,1_0_1:0.00000016):0.00000006,(1_0_4:0.00000013,1_0_11:0.00000014):0.00000033):0.00000002):0.00000257):0.00000156):0.00000035,((1_0_9:0.00000027,(1_0_5:0.00000023,1_0_8:0.00000020):0.00000004):0.00000049,1_0_12:0.00000037):0.00000695):0.00000091,((1_0_3:0.00000014,1_0_2:0.00000019):0.00000023,1_0_10:0.00000059):0.00000418):0.00018133,(((2_0_14:0.00000132,2_0_12:0.00000094):0.00000092,((2_0_10:0.00000052,(2_0_4:0.00000010,2_0_5:0.00000011):0.00000088):0.00000017,(((2_0_11:0.00000017,2_0_3:0.00000015):0.00000011,(2_0_2:0.00000004,2_0_0:0.00000005):0.00000019):0.00000022,2_0_13:0.00000091):0.00000031):0.00000213):0.00000047,(2_0_1:0.00000114,((2_0_6:0.00000023,2_0_15:0.00000012):0.00000077,(2_0_8:0.00000013,(2_0_7:0.00000009,2_0_9:0.00000007):0.00000003):0.00000044):0.00000001):0.00000241):0.00011885):0.02739541):0.01747928);

data_07	T07	145	1	1	0.107687	0.0466802	0.0836791	((((((1_0_14:0.00000096,1_0_2:0.00000116):0.00000019,(((1_0_4:0.00000044,(1_0_0:0.00000005,1_0_3:0.00000005):0.00000048):0.00000055,(1_0_1:0.00000028,1_0_15:0.00000017):0.00000057):0.00000025,1_0_7:0.00000117):0.00000016):0.00000493,((1_0_12:0.00000038,1_0_9:0.00000042):0.00000018,((1_0_8:0.00000006,1_0_10:0.00000010):0.00000113,((1_0_13:0.00000011,1_0_6:0.00000012):0.00000005,(1_0_11:0.00000023,1_0_5:0.00000016):0.00000006):0.00000047):0.00000011):0.00000484):0.00012200,((((2_0_15:0.00000018,(2_0_9:0.00000019,(2_0_6:0.00000001,2_0_14:0.00000001):0.00000014):0.00000015):0.00000067,2_0_1:0.00000074):0.00000288,(2_0_8:0.00000024,2_0_2:0.00000009):0.00000457):0.00000059,(((2_0_0:0.00000003,2_0_13:0.00000002):0.00000137,(2_0_5:0.00000079,(2_0_3:0.00000137,(((2_0_12:0.00000006,2_0_10:0.00000005):0.00000041,2_0_7:0.00000034):0.00000030,2_0_11:0.00000030):0.00000020):0.00000039):0.00000021):0.00000205,2_0_4:0.00000406):0.00000171):0.00016532):0.01982017,(((((((8_0_0:0.00000072,8_0_13:0.00000047):0.00000027,8_0_8:0.00000103):0.00000437,8_0_10:0.00000386):0.00000606,(((8_0_7:0.00000035,8_0_15:0.00000057):0.00000436,((8_0_12:0.00000234,(8_0_6:0.00000028,8_0_4:0.00000022):0.00000060):0.00000052,((8_0_14:0.00000019,(8_0_9:0.00000002,8_0_5:0.00000002):0.00000016):0.00000003,8_0_3:0.00000012):0.00000133):0.00000211):0.00000072,((8_0_1:0.00000007,8_0_11:0.00000005):0.00000012,8_0_2:0.00000012):0.00000751):0.00000610):0.00021522,(((3_0_13:0.00000064,3_0_10:0.00000059):0.00000075,3_0_9:0.00000056):0.00000264,((3_0_0:0.00000105,(3_0_15:0.00000083,3_0_8:0.00000039):0.00000038):0.00000265,(((3_0_6:0.00000063,3_0_1:0.00000068):0.00000088,((3_0_5:0.00000024,3_0_4:0.00000011):0.00000139,((3_0_14:0.00000029,3_0_7:0.00000020):0.00000086,3_0_12:0.00000073):0.00000077):0.00000014):0.00000011,((3_0_3:0.00000132,3_0_11:0.00000077):0.00000054,3_0_2:0.00000142):0.00000025):0.00000302):0.00000001):0.00014861):0.00028757,((((4_0_9:0.00000139,((4_0_6:0.00000050,4_0_15:0.00000040):0.00000001,(4_0_1:0.00000046,4_0_2:0.00000061):0.00000011):0.00000081):0.00000026,((4_0_5:0.00000037,(4_0_13:0.00000019,4_0_11:0.00000010):0.00000011):0.00000023,(4_0_3:0.00000000,4_0_4:0.00000000):0.00000076):0.00000063):0.00000810,((((4_0_0:0.00000002,4_0_14:0.00000003):0.00000029,4_0_8:0.00000030):0.00000059,(4_0_7:0.00000011,4_0_12:0.00000015):0.00000059):0.00000201,4_0_10:0.00000769):0.00000158):0.00110589,(((7_0_8:0.00000823,((((7_0_1:0.00000045,7_0_0:0.00000042):0.00000037,((7_0_14:0.00000084,7_0_6:0.00000113):0.00000021,((7_0_7:0.00000072,7_0_12:0.00000046):0.00000004,(7_0_5:0.00000020,7_0_15:0.00000038):0.00000033):0.00000021):0.00000053):0.00000215,7_0_4:0.00000792):0.00000127,(((7_0_9:0.00000015,(7_0_2:0.00000009,7_0_13:0.00000007):0.00000016):0.00000055,(7_0_10:0.00000017,7_0_11:0.00000033):0.00000063):0.00000052,7_0_3:0.00000170):0.00000194):0.00000099):0.00023816,((9_0_0:0.00000008,9_0_4:0.00000010):0.00001523,(((9_0_2:0.00000272,((9_0_6:0.00000040,9_0_11:0.00000038):0.00000105,((9_0_15:0.00000005,9_0_10:0.00000003):0.00000009,9_0_8:0.00000017):0.00000234):0.00000128):0.00000027,9_0_13:0.00000303):0.00000810,(9_0_12:0.00000183,(((9_0_1:0.00000005,9_0_5:0.00000005):0.00000073,((9_0_7:0.00000016,9_0_14:0.00000031):0.00000002,9_0_9:0.00000012):0.00000049):0.00000190,9_0_3:0.00000332):0.00000025):0.00000705):0.00001996):0.00015397):0.00054449,(((5_0_1:0.00000033,5_0_14:0.00000034):0.00000001,(5_0_7:0.00000014,(5_0_0:0.00000004,5_0_12:0.00000004):0.00000020):0.00000028):0.00000412,(5_0_15:0.00000366,(5_0_10:0.00000214,(((5_0_9:0.00000011,(5_0_2:0.00000001,5_0_13:0.00000001):0.00000005):0.00000131,(5_0_8:0.00000032,(5_0_3:0.00000025,5_0_6:0.00000014):0.00000018):0.00000098):0.00000028,((5_0_11:0.00000104,5_0_5:0.00000111):0.00000056,5_0_4:0.00000185):0.00000021):0.00000035):0.00000094):0.00000056):0.00066045):0.00018592):0.00001171):0.00100263,(((((6_0_3:0.00000005,6_0_0:0.00000003):0.00000049,6_0_13:0.00000056):0.00000093,(6_0_14:0.00000048,(6_0_1:0.00000016,6_0_2:0.00000018):0.00000056):0.00000135):0.00000400,(((6_0_5:0.00000159,6_0_7:0.00000193):0.00000114,(6_0_12:0.00000103,(6_0_15:0.00000024,6_0_8:0.00000011):0.00000052):0.00000301):0.00000022,((6_0_6:0.00000020,6_0_4:0.00000022):0.00000001,6_0_10:0.00000026):0.00000305):0.00000284):0.00000026,(6_0_9:0.00000037,6_0_11:0.00000034):0.00000959):0.00117248):0.02994703):0.01460302,0_0_0:0.03699891);

data_08	T08	145	1	1	0.11718	0.0598711	0.100749	((((((((((1_0_6:0.00000002,1_0_8:0.00000005):0.00000035,1_0_7:0.00000053):0.00000011,(1_0_3:0.00000027,1_0_1:0.00000020):0.00000058):0.00000044,1_0_15:0.00000088):0.00000093,(1_0_11:0.00000032,1_0_12:0.00000040):0.00000209):0.00000050,(1_0_2:0.00000206,1_0_14:0.00000340):0.00000093):0.00000743,(((1_0_5:0.00000100,1_0_13:0.00000058):0.00000001,1_0_9:0.00000052):0.00000086,((1_0_0:0.00000007,1_0_10:0.00000005):0.00000056,1_0_4:0.00000091):0.00000026):0.00001532):0.00017321,((((((2_0_2:0.00000049,(2_0_5:0.00000043,2_0_15:0.00000043):0.00000045):0.00000112,2_0_10:0.00000152):0.00000009,((2_0_9:0.00000025,(2_0_13:0.00000015,(2_0_4:0.00000023,2_0_12:0.00000017):0.00000003):0.00000006):0.00000000,((2_0_11:0.00000010,2_0_1:0.00000007):0.00000028,2_0_0:0.00000024):0.00000002):0.00000182):0.00000002,(2_0_8:0.00000053,2_0_14:0.00000053):0.00000130):0.00000095,(2_0_3:0.00000036,2_0_7:0.00000055):0.00000181):0.00000304,2_0_6:0.00001035):0.00014900):0.02237965,((((((3_0_9:0.00000013,3_0_10:0.00000027):0.00000109,((((3_0_7:0.00000022,3_0_12:0.00000036):0.00000108,3_0_3:0.00000076):0.00000010,3_0_8:0.00000095):0.00000054,(3_0_1:0.00000046,(3_0_15:0.00000009,3_0_4:0.00000020):0.00000013):0.00000073):0.00000018):0.00000389,(3_0_6:0.00000487,((3_0_13:0.00000006,3_0_2:0.00000004):0.00000193,(((3_0_11:0.00000069,3_0_14:0.00000034):0.00000027,3_0_5:0.00000066):0.00000002,3_0_0:0.00000104):0.00000146):0.00000203):0.00000119):0.00012109,(8_0_11:0.00000752,((((8_0_13:0.00000061,((8_0_10:0.00000012,8_0_1:0.00000015):0.00000066,(8_0_4:0.00000012,8_0_15:0.00000011):0.00000041):0.00000021):0.00000217,((8_0_3:0.00000006,8_0_8:0.00000008):0.00000003,8_0_0:0.00000005):0.00000162):0.00000166,((8_0_2:0.00000094,8_0_5:0.00000090):0.00000194,(8_0_12:0.00000266,8_0_7:0.00000173):0.00000051):0.00000101):0.00000010,(8_0_14:0.00000105,(8_0_9:0.00000059,8_0_6:0.00000042):0.00000001):0.00000357):0.00000073):0.00011827):0.00030138,(((5_0_0:0.00001360,(((5_0_3:0.00000117,5_0_2:0.00000174):0.00000051,(((5_0_6:0.00000042,((5_0_10:0.00000029,5_0_4:0.00000015):0.00000002,5_0_9:0.00000034):0.00000030):0.00000013,5_0_13:0.00000102):0.00000039,5_0_8:0.00000072):0.00000059):0.00000338,(((5_0_1:0.00000010,5_0_12:0.00000008):0.00000070,(5_0_5:0.00000041,(5_0_7:0.00000000,5_0_11:0.00000000):0.00000016):0.00000090):0.00000084,(5_0_15:0.00000017,5_0_14:0.00000021):0.00000091):0.00000319):0.00001035):0.00029181,((((((9_0_13:0.00000010,9_0_15:0.00000004):0.00000184,(9_0_5:0.00000040,(9_0_8:0.00000022,(9_0_11:0.00000019,9_0_0:0.00000013):0.00000009):0.00000028):0.00000067):0.00000112,((9_0_3:0.00000031,9_0_2:0.00000033):0.00000038,9_0_10:0.00000056):0.00000306):0.00000350,((((9_0_4:0.00000054,9_0_6:0.00000047):0.00000004,9_0_7:0.00000070):0.00000051,9_0_14:0.00000109):0.00000226,(9_0_9:0.00000001,9_0_12:0.00000002):0.00000717):0.00000266):0.00000823,9_0_1:0.00001356):0.00012223,((((((7_0_5:0.00000037,(7_0_7:0.00000068,7_0_6:0.00000077):0.00000010):0.00000020,7_0_0:0.00000082):0.00000181,(7_0_11:0.00000022,7_0_3:0.00000035):0.00000121):0.00000032,7_0_4:0.00000298):0.00000020,7_0_1:0.00000158):0.00000458,((7_0_9:0.00000000,7_0_14:0.00000000):0.00000199,((7_0_12:0.00000062,(7_0_13:0.00000018,7_0_2:0.00000028):0.00000028):0.00000081,((7_0_15:0.00000015,7_0_10:0.00000013):0.00000017,7_0_8:0.00000026):0.00000197):0.00000019):0.00000462):0.00017194):0.00031095):0.00021599,((4_0_6:0.00000272,(4_0_9:0.00000124,(4_0_1:0.00000106,(((4_0_10:0.00000005,4_0_5:0.00000007):0.00000000,4_0_0:0.00000009):0.00000079,(4_0_3:0.00000143,((4_0_11:0.00000001,4_0_15:0.00000002):0.00000092,(4_0_7:0.00000038,4_0_14:0.00000020):0.00000028):0.00000025):0.00000021):0.00000016):0.00000011):0.00000092):0.00001967,((4_0_8:0.00000071,4_0_4:0.00000050):0.00000382,((4_0_2:0.00000011,4_0_12:0.00000022):0.00000037,4_0_13:0.00000056):0.00000479):0.00001472):0.00057331):0.00000907):0.00089009,(((6_0_5:0.00000300,6_0_6:0.00000235):0.00000013,(6_0_4:0.00000169,(6_0_3:0.00000041,(6_0_0:0.00000006,6_0_11:0.00000005):0.00000026):0.00000096):0.00000137):0.00000639,((6_0_1:0.00000166,6_0_2:0.00000104):0.00000068,(((6_0_10:0.00000125,((6_0_9:0.00000008,6_0_15:0.00000008):0.00000029,((6_0_14:0.00000009,6_0_12:0.00000006):0.00000008,6_0_8:0.00000013):0.00000023):0.00000074):0.00000001,6_0_13:0.00000070):0.00000007,6_0_7:0.00000196):0.00000072):0.00000634):0.00170553):0.01113005):0.01830809,0_0_0:0.05987107);

data_09	T09	145	1	1	0.143468	0.0777849	0.120528	(((((6_0_4:0.00000452,(6_0_13:0.00000220,((6_0_8:0.00000005,6_0_7:0.00000009):0.00000035,6_0_9:0.00000038):0.00000452):0.00000007):0.00000553,(((((6_0_2:0.00000018,6_0_0:0.00000023):0.00000030,((6_0_1:0.00000018,6_0_5:0.00000027):0.00000014,6_0_10:0.00000066):0.00000004):0.00000100,6_0_11:0.00000123):0.00000126,(((6_0_3:0.00000008,6_0_12:0.00000015):0.00000007,6_0_15:0.00000024):0.00000047,6_0_14:0.00000056):0.00000129):0.00000253,6_0_6:0.00000472):0.00000523):0.00174879,((((3_0_8:0.00000031,3_0_5:0.00000039):0.00001308,(((3_0_15:0.00000169,3_0_12:0.00000167):0.00000175,(((3_0_6:0.00000007,3_0_3:0.00000009):0.00000082,(3_0_14:0.00000085,(3_0_13:0.00000030,3_0_4:0.00000077):0.00000029):0.00000003):0.00000043,(((3_0_10:0.00000002,3_0_11:0.00000004):0.00000034,3_0_2:0.00000041):0.00000058,(3_0_0:0.00000073,3_0_9:0.00000042):0.00000029):0.00000008):0.00000290):0.00000490,(3_0_7:0.00000048,3_0_1:0.00000043):0.00000577):0.00000268):0.00023391,(((8_0_12:0.00000044,8_0_0:0.00000041):0.00000228,8_0_14:0.00000260):0.00000693,((((8_0_11:0.00000101,8_0_7:0.00000109):0.00000005,8_0_6:0.00000108):0.00000220,(((8_0_4:0.00000003,8_0_9:0.00000005):0.00000006,8_0_15:0.00000011):0.00000011,8_0_3:0.00000022):0.00000483):0.00000031,((8_0_2:0.00000018,(8_0_8:0.00000007,8_0_1:0.00000011):0.00000008):0.00000050,((8_0_5:0.00000006,8_0_13:0.00000008):0.00000009,8_0_10:0.00000017):0.00000051):0.00000231):0.00000444):0.00011219):0.00046636,(((((5_0_5:0.00000071,(((5_0_3:0.00000010,5_0_15:0.00000017):0.00000043,((5_0_14:0.00000009,5_0_4:0.00000006):0.00000003,5_0_9:0.00000008):0.00000048):0.00000044,5_0_12:0.00000050):0.00000019):0.00000228,(5_0_6:0.00000045,(5_0_11:0.00000033,(((5_0_1:0.00000013,5_0_0:0.00000006):0.00000007,5_0_8:0.00000017):0.00000004,5_0_2:0.00000015):0.00000003):0.00000077):0.00000474):0.00000938,(5_0_13:0.00000041,(5_0_7:0.00000018,5_0_10:0.00000026):0.00000025):0.00001170):0.00037473,(((((9_0_13:0.00000127,9_0_0:0.00000108):0.00000022,9_0_8:0.00000163):0.00000050,((9_0_9:0.00000026,9_0_2:0.00000023):0.00000011,9_0_15:0.00000049):0.00000176):0.00000301,(((9_0_3:0.00000101,(9_0_10:0.00000053,9_0_7:0.00000042):0.00000042):0.00000040,((9_0_12:0.00000033,9_0_5:0.00000036):0.00000047,9_0_6:0.00000086):0.00000136):0.00000033,(((9_0_14:0.00000006,9_0_11:0.00000008):0.00000009,9_0_1:0.00000012):0.00000026,9_0_4:0.00000033):0.00000139):0.00000140):0.00012207,(7_0_7:0.00001111,(((7_0_10:0.00000102,7_0_8:0.00000134):0.00000119,((((7_0_4:0.00000015,7_0_12:0.00000018):0.00000012,7_0_0:0.00000025):0.00000038,(7_0_13:0.00000114,((7_0_6:0.00000014,7_0_3:0.00000009):0.00000047,7_0_2:0.00000054):0.00000017):0.00000068):0.00000061,(((7_0_14:0.00000065,7_0_5:0.00000054):0.00000007,7_0_15:0.00000045):0.00000025,(7_0_1:0.00000015,7_0_9:0.00000024):0.00000092):0.00000058):0.00000033):0.00000125,7_0_11:0.00000335):0.00001095):0.00019697):0.00031912):0.00013036,(((4_0_2:0.00000167,4_0_6:0.00000262):0.00000044,((4_0_5:0.00000030,4_0_4:0.00000025):0.00000017,((4_0_10:0.00000013,4_0_12:0.00000010):0.00000001,4_0_1:0.00000018):0.00000017):0.00000294):0.00000475,(((4_0_0:0.00000014,4_0_14:0.00000019):0.00000191,4_0_8:0.00000275):0.00000271,(4_0_7:0.00000185,((4_0_9:0.00000009,4_0_15:0.00000008):0.00000176,((4_0_3:0.00000012,4_0_13:0.00000009):0.00000046,4_0_11:0.00000076):0.00000090):0.00000023):0.00000303):0.00000190):0.00059461):0.00001306):0.00071893):0.02235545,(((2_0_7:0.00000422,((2_0_8:0.00000022,2_0_6:0.00000031):0.00000037,2_0_1:0.00000084):0.00000413):0.00000283,((((2_0_11:0.00000092,2_0_13:0.00000137):0.00000075,((2_0_9:0.00000013,2_0_0:0.00000033):0.00000041,2_0_15:0.00000067):0.00000156):0.00000048,(2_0_3:0.00000018,2_0_4:0.00000029):0.00000232):0.00000369,((2_0_14:0.00000018,(2_0_5:0.00000028,2_0_2:0.00000031):0.00000005):0.00000016,(2_0_12:0.00000003,2_0_10:0.00000005):0.00000020):0.00000484):0.00000158):0.00012546,(((1_0_8:0.00000045,1_0_14:0.00000123):0.00000201,((((1_0_9:0.00000012,1_0_7:0.00000006):0.00000033,(1_0_3:0.00000035,(1_0_5:0.00000003,1_0_2:0.00000005):0.00000014):0.00000060):0.00000029,(1_0_11:0.00000069,1_0_15:0.00000152):0.00000012):0.00000267,(((1_0_6:0.00000011,1_0_12:0.00000008):0.00000022,(1_0_13:0.00000011,1_0_1:0.00000017):0.00000015):0.00000383,1_0_4:0.00000426):0.00000048):0.00000018):0.00000261,(1_0_10:0.00000057,1_0_0:0.00000061):0.00000590):0.00012477):0.01911313):0.01862830,0_0_0:0.07778488);

data_10	T10	145	1	1	0.126366	0.060062	0.104408	(((((((((((5_0_11:0.00000008,5_0_8:0.00000008):0.00000037,5_0_4:0.00000035):0.00000163,(((5_0_5:0.00000031,(5_0_2:0.00000024,5_0_3:0.00000010):0.00000013):0.00000042,5_0_14:0.00000066):0.00000076,(5_0_15:0.00000026,5_0_1:0.00000012):0.00000068):0.00000050):0.00000090,((5_0_12:0.00000039,(5_0_9:0.00000043,(5_0_6:0.00000009,5_0_0:0.00000024):0.00000014):0.00000001):0.00000109,5_0_10:0.00000210):0.00000081):0.00000347,(5_0_13:0.00000259,5_0_7:0.00000216):0.00000242):0.00046286,((7_0_8:0.00001245,((((7_0_9:0.00000098,7_0_15:0.00000074):0.00000081,(((7_0_7:0.00000001,7_0_4:0.00000005):0.00000013,7_0_5:0.00000017):0.00000064,7_0_3:0.00000073):0.00000069):0.00000002,7_0_2:0.00000200):0.00000221,((7_0_0:0.00000081,7_0_6:0.00000066):0.00000014,(7_0_1:0.00000072,(((7_0_14:0.00000002,7_0_12:0.00000001):0.00000001,7_0_10:0.00000002):0.00000036,(7_0_13:0.00000006,7_0_11:0.00000019):0.00000012):0.00000027):0.00000023):0.00000323):0.00000577):0.00017428,(((((9_0_0:0.00000051,9_0_13:0.00000029):0.00000055,9_0_12:0.00000238):0.00000155,(9_0_9:0.00000024,9_0_15:0.00000017):0.00000250):0.00000081,((9_0_1:0.00000075,(9_0_6:0.00000009,9_0_5:0.00000020):0.00000050):0.00000154,((9_0_14:0.00000049,(9_0_4:0.00000023,9_0_11:0.00000039):0.00000002):0.00000015,9_0_10:0.00000049):0.00000122):0.00000180):0.00000683,(9_0_7:0.00000268,(9_0_2:0.00000075,(9_0_8:0.00000016,9_0_3:0.00000009):0.00000125):0.00000078):0.00001001):0.00011757):0.00033607):0.00013489,(((4_0_15:0.00000146,(4_0_5:0.00000036,4_0_1:0.00000037):0.00000082):0.00000072,(4_0_11:0.00000012,4_0_8:0.00000018):0.00000209):0.00000893,(((4_0_10:0.00000308,(4_0_6:0.00000124,4_0_13:0.00000091):0.00000211):0.00000079,((4_0_3:0.00000006,4_0_7:0.00000014):0.00000053,((4_0_0:0.00000009,4_0_4:0.00000016):0.00000029,((4_0_12:0.00000016,4_0_2:0.00000007):0.00000042,4_0_9:0.00000037):0.00000019):0.00000009):0.00000490):0.00000073,4_0_14:0.00000341):0.00000155):0.00063386):0.00001729,((((3_0_6:0.00000047,(3_0_3:0.00000006,3_0_15:0.00000003):0.00000055):0.00000075,(3_0_0:0.00000052,((3_0_11:0.00000069,3_0_5:0.00000042):0.00000005,3_0_8:0.00000046):0.00000001):0.00000089):0.00002742,((3_0_14:0.00000029,3_0_9:0.00000016):0.00000232,((3_0_1:0.00000081,3_0_4:0.00000061):0.00000105,(((3_0_12:0.00000041,3_0_2:0.00000035):0.00000067,3_0_10:0.00000108):0.00000030,(3_0_13:0.00000092,3_0_7:0.00000048):0.00000052):0.00000030):0.00000155):0.00000791):0.00017454,((8_0_5:0.00000017,8_0_9:0.00000012):0.00001380,(((8_0_13:0.00000155,(8_0_8:0.00000039,((8_0_3:0.00000005,8_0_14:0.00000007):0.00000006,8_0_4:0.00000009):0.00000030):0.00000116):0.00000040,((8_0_2:0.00000042,8_0_11:0.00000033):0.00000091,(((8_0_15:0.00000017,8_0_7:0.00000019):0.00000001,8_0_1:0.00000009):0.00000088,(8_0_0:0.00000068,(8_0_12:0.00000020,8_0_10:0.00000034):0.00000024):0.00000032):0.00000038):0.00000106):0.00000021,8_0_6:0.00000166):0.00000672):0.00013634):0.00026805):0.00051690,((((6_0_4:0.00000073,((6_0_0:0.00000070,(6_0_14:0.00000049,(6_0_11:0.00000002,6_0_6:0.00000003):0.00000046):0.00000011):0.00000007,(6_0_2:0.00000010,(6_0_9:0.00000012,6_0_10:0.00000009):0.00000005):0.00000043):0.00000023):0.00000042,((((6_0_7:0.00000002,6_0_13:0.00000002):0.00000005,6_0_3:0.00000006):0.00000016,6_0_12:0.00000024):0.00000019,6_0_5:0.00000043):0.00000071):0.00000009,6_0_15:0.00000233):0.00000373,(6_0_8:0.00000021,6_0_1:0.00000028):0.00000320):0.00140638):0.01717096,((((1_0_3:0.00000152,(1_0_1:0.00000036,1_0_10:0.00000032):0.00000040):0.00000067,(((1_0_7:0.00000005,1_0_12:0.00000004):0.00000028,1_0_9:0.00000031):0.00000004,1_0_6:0.00000025):0.00000107):0.00001374,(1_0_8:0.00000674,((1_0_15:0.00000050,1_0_14:0.00000081):0.00000062,(1_0_11:0.00000085,(((1_0_0:0.00000036,1_0_5:0.00000022):0.00000006,1_0_13:0.00000038):0.00000025,(1_0_2:0.00000042,1_0_4:0.00000067):0.00000003):0.00000005):0.00000084):0.00000867):0.00000741):0.00011437,((2_0_5:0.00000061,2_0_8:0.00000096):0.00000357,(2_0_12:0.00000146,(((2_0_1:0.00000027,(2_0_9:0.00000030,2_0_0:0.00000041):0.00000012):0.00000032,((2_0_2:0.00000008,2_0_10:0.00000009):0.00000082,2_0_13:0.00000048):0.00000024):0.00000015,(((2_0_4:0.00000000,2_0_14:0.00000000):0.00000033,(2_0_6:0.00000020,(2_0_3:0.00000001,2_0_15:0.00000001):0.00000019):0.00000016):0.00000045,(2_0_7:0.00000035,2_0_11:0.00000072):0.00000015):0.00000009):0.00000055):0.00001072):0.00018384):0.03912833):0.02073724,0_0_0:0.04434618);
