Tree file : INDELible V1.03 (best viewed cut and paste in e.g. excel)

N.B. Simulation blocks with no random trees will have their trees printed for the first replicate only.

FILE	TREE	NTAXA	REP	PART	LENGTH	DEPTH	MAX PAIRWISE DISTANCE	TREE STRING

data_01	T01	82	1	1	0.0897273	0.0421513	0.077097	((((1_0_1:0.00004410,((1_0_3:0.00000537,(1_0_6:0.00000085,(1_0_2:0.00000028,1_0_7:0.00000020):0.00000093):0.00000492):0.00000925,((1_0_5:0.00000447,1_0_0:0.00000356):0.00000018,(1_0_4:0.00000116,1_0_8:0.00000412):0.00000149):0.00002866):0.00001868):0.00046533,((2_0_4:0.00001530,((2_0_7:0.00000027,2_0_0:0.00000031):0.00000181,((2_0_6:0.00000050,2_0_8:0.00000068):0.00000069,(2_0_1:0.00000108,2_0_5:0.00000070):0.00000141):0.00000129):0.00001086):0.00001927,(2_0_3:0.00000313,2_0_2:0.00000568):0.00003318):0.00044377):0.00889701,((((((3_0_0:0.00000564,(3_0_2:0.00000125,3_0_8:0.00000122):0.00000256):0.00001432,(3_0_3:0.00000133,3_0_1:0.00000268):0.00001361):0.00002817,(3_0_7:0.00000323,(3_0_6:0.00000147,(3_0_5:0.00000082,3_0_4:0.00000047):0.00000048):0.00000117):0.00003748):0.00034991,((9_0_6:0.00000223,9_0_7:0.00000211):0.00000718,((((9_0_2:0.00000468,(9_0_4:0.00000045,9_0_3:0.00000132):0.00000131):0.00000003,9_0_5:0.00000464):0.00000176,9_0_0:0.00000445):0.00000795,(9_0_8:0.00000141,9_0_1:0.00000238):0.00001422):0.00000846):0.00026158):0.00001688,((((7_0_5:0.00000006,7_0_8:0.00000007):0.00002219,((((7_0_1:0.00000095,7_0_4:0.00000176):0.00000147,(7_0_0:0.00000204,7_0_3:0.00000054):0.00000101):0.00000334,7_0_2:0.00000700):0.00000481,(7_0_6:0.00000013,7_0_7:0.00000004):0.00000917):0.00001627):0.00022565,(((4_0_7:0.00001204,(((((4_0_2:0.00000055,4_0_0:0.00000085):0.00000036,4_0_3:0.00000158):0.00000073,4_0_6:0.00000119):0.00000296,4_0_5:0.00000670):0.00000017,4_0_1:0.00000470):0.00000324):0.00000244,(4_0_4:0.00000274,4_0_8:0.00000508):0.00000828):0.00010500,(((8_0_6:0.00000198,8_0_8:0.00000144):0.00000762,((8_0_3:0.00000296,8_0_2:0.00000314):0.00000408,(8_0_7:0.00000350,8_0_4:0.00000343):0.00000674):0.00000391):0.00000140,(8_0_1:0.00000311,(8_0_0:0.00000137,8_0_5:0.00000211):0.00000152):0.00001291):0.00017347):0.00003737):0.00006190,((5_0_3:0.00000820,(5_0_5:0.00000118,5_0_1:0.00000133):0.00001329):0.00000259,(((5_0_7:0.00000271,5_0_4:0.00000114):0.00000032,(5_0_2:0.00000237,5_0_6:0.00000199):0.00000100):0.00000318,(5_0_0:0.00000108,5_0_8:0.00000119):0.00000673):0.00000427):0.00021111):0.00009257):0.00086282,(((6_0_3:0.00000104,6_0_8:0.00000141):0.00000162,(6_0_2:0.00000079,6_0_1:0.00000087):0.00000174):0.00002261,(6_0_6:0.00000980,((6_0_4:0.00000296,(6_0_7:0.00000151,6_0_0:0.00000147):0.00000172):0.00000439,6_0_5:0.00000370):0.00000170):0.00003068):0.00097258):0.02082841):0.01283952,0_0_0:0.04215133);

data_02	T02	82	1	1	0.104372	0.0462242	0.0806976	(0_0_0:0.03447341,((((((((((4_0_2:0.00000244,4_0_5:0.00000221):0.00000477,4_0_3:0.00000441):0.00000242,(4_0_7:0.00000726,4_0_0:0.00001438):0.00000017):0.00002460,((4_0_6:0.00000018,(4_0_4:0.00000016,4_0_1:0.00000009):0.00000017):0.00000174,4_0_8:0.00000197):0.00002765):0.00013199,((8_0_1:0.00001253,((((8_0_0:0.00000006,8_0_4:0.00000004):0.00000087,8_0_6:0.00000208):0.00000094,8_0_3:0.00000158):0.00000173,((8_0_5:0.00000004,8_0_8:0.00000007):0.00000136,8_0_2:0.00000151):0.00000453):0.00000176):0.00000440,8_0_7:0.00001447):0.00015764):0.00005722,((7_0_4:0.00000081,7_0_7:0.00000112):0.00002842,(((7_0_3:0.00000205,(7_0_2:0.00000044,7_0_8:0.00000049):0.00000173):0.00000238,(7_0_6:0.00000324,(7_0_5:0.00000099,7_0_1:0.00000090):0.00000103):0.00000080):0.00000722,7_0_0:0.00001310):0.00001318):0.00019590):0.00004520,(((5_0_1:0.00000419,(5_0_5:0.00000323,5_0_0:0.00000392):0.00000134):0.00000122,5_0_2:0.00000358):0.00002239,(5_0_6:0.00002019,(5_0_4:0.00000343,((5_0_7:0.00000149,5_0_8:0.00000150):0.00000156,5_0_3:0.00000245):0.00000221):0.00000503):0.00001438):0.00019046):0.00009423,((((3_0_3:0.00000176,3_0_0:0.00000179):0.00001525,((3_0_6:0.00000027,3_0_8:0.00000026):0.00000804,3_0_4:0.00000481):0.00000774):0.00000500,(((3_0_2:0.00000094,3_0_7:0.00000051):0.00000008,3_0_5:0.00000115):0.00000073,3_0_1:0.00000134):0.00001598):0.00020510,(((9_0_0:0.00000245,9_0_4:0.00000340):0.00000107,9_0_1:0.00000291):0.00003954,(((9_0_7:0.00000314,9_0_3:0.00000144):0.00000440,(9_0_6:0.00000272,9_0_8:0.00000431):0.00000063):0.00000023,(9_0_2:0.00000462,9_0_5:0.00000354):0.00000093):0.00005999):0.00042702):0.00001012):0.00125158,(((6_0_1:0.00000113,(6_0_4:0.00000068,6_0_8:0.00000096):0.00000017):0.00000032,6_0_7:0.00000159):0.00004153,(6_0_0:0.00000320,(6_0_3:0.00000845,((6_0_6:0.00000178,6_0_2:0.00000316):0.00000033,6_0_5:0.00000183):0.00000068):0.00000258):0.00001703):0.00193118):0.01794117,((((1_0_6:0.00000820,(1_0_2:0.00000336,(1_0_8:0.00000264,1_0_4:0.00000298):0.00000117):0.00000248):0.00000267,1_0_0:0.00000681):0.00000690,((1_0_5:0.00000006,1_0_1:0.00000006):0.00000248,(1_0_7:0.00000057,1_0_3:0.00000062):0.00000265):0.00001731):0.00032131,(2_0_3:0.00002365,(2_0_0:0.00000911,((((2_0_8:0.00000487,(2_0_5:0.00000078,2_0_6:0.00000108):0.00000136):0.00000063,2_0_4:0.00000178):0.00000051,2_0_2:0.00000465):0.00000468,(2_0_1:0.00000175,2_0_7:0.00000269):0.00000756):0.00000200):0.00002733):0.00058837):0.02776820):0.01782763);

data_03	T03	82	1	1	0.0919868	0.0458859	0.0794332	(((((2_0_3:0.00000690,2_0_6:0.00001065):0.00000185,((2_0_2:0.00000294,(2_0_0:0.00000100,(2_0_1:0.00000027,2_0_7:0.00000028):0.00000119):0.00000213):0.00000095,(2_0_8:0.00000242,(2_0_4:0.00000025,2_0_5:0.00000022):0.00000177):0.00000147):0.00000936):0.00029819,(((((1_0_2:0.00000108,(1_0_7:0.00000040,1_0_8:0.00000048):0.00000028):0.00000030,1_0_1:0.00000195):0.00000034,1_0_3:0.00000249):0.00001496,((1_0_6:0.00000446,1_0_5:0.00000405):0.00000717,1_0_0:0.00002007):0.00000238):0.00000828,1_0_4:0.00004850):0.00028615):0.00863175,((((9_0_0:0.00000359,9_0_6:0.00000179):0.00008071,((9_0_1:0.00000395,9_0_2:0.00000986):0.00000153,((9_0_4:0.00000213,(9_0_7:0.00000110,(9_0_3:0.00000090,9_0_5:0.00000146):0.00000012):0.00000021):0.00000494,9_0_8:0.00000273):0.00000258):0.00007693):0.00024749,((((3_0_3:0.00000018,3_0_4:0.00000022):0.00000530,(3_0_1:0.00000367,(((3_0_7:0.00000077,3_0_0:0.00000043):0.00000010,3_0_6:0.00000183):0.00000110,3_0_5:0.00000268):0.00000216):0.00000176):0.00001240,(3_0_8:0.00000167,3_0_2:0.00000314):0.00001304):0.00026541,(((5_0_5:0.00003168,5_0_3:0.00002797):0.00000281,(((5_0_8:0.00000133,(5_0_2:0.00000006,5_0_7:0.00000007):0.00000178):0.00000790,(5_0_6:0.00000034,(5_0_1:0.00000038,5_0_4:0.00000036):0.00000013):0.00001045):0.00000282,5_0_0:0.00000626):0.00002084):0.00033769,(((((7_0_3:0.00000053,7_0_6:0.00000037):0.00000327,7_0_7:0.00000331):0.00000074,(7_0_8:0.00000347,7_0_4:0.00000287):0.00000080):0.00000368,(7_0_5:0.00000698,(7_0_1:0.00000368,(7_0_0:0.00000310,7_0_2:0.00000432):0.00000073):0.00000256):0.00000169):0.00024063,((((8_0_2:0.00000224,(8_0_3:0.00000034,8_0_1:0.00000042):0.00000170):0.00000471,((8_0_5:0.00000322,(8_0_4:0.00000206,8_0_8:0.00000175):0.00000024):0.00000185,8_0_0:0.00000702):0.00000071):0.00000747,(8_0_6:0.00000121,8_0_7:0.00000108):0.00001299):0.00011289,((((4_0_4:0.00000688,4_0_6:0.00000276):0.00000041,4_0_5:0.00000623):0.00000630,(4_0_7:0.00000458,(4_0_1:0.00000689,(4_0_0:0.00000253,4_0_3:0.00000268):0.00000499):0.00000068):0.00000311):0.00001855,(4_0_2:0.00000185,4_0_8:0.00000186):0.00002730):0.00009930):0.00006814):0.00008727):0.00009183):0.00001383):0.00108199,(((6_0_8:0.00000156,6_0_4:0.00000150):0.00000154,((((6_0_5:0.00000002,6_0_2:0.00000002):0.00000144,6_0_7:0.00000254):0.00000013,6_0_1:0.00000135):0.00000118,(6_0_6:0.00000181,6_0_0:0.00000188):0.00000157):0.00000058):0.00000961,6_0_3:0.00002402):0.00149057):0.01753494):0.01445241,0_0_0:0.04588589);

data_04	T04	82	1	1	0.0838879	0.0380501	0.0671074	((((((((6_0_8:0.00000038,6_0_3:0.00000046):0.00000091,6_0_4:0.00000123):0.00000432,6_0_5:0.00000370):0.00000593,(6_0_7:0.00000150,(6_0_1:0.00000114,6_0_6:0.00000177):0.00000023):0.00001090):0.00000137,(6_0_2:0.00000097,6_0_0:0.00000087):0.00001272):0.00089601,((((3_0_6:0.00000052,3_0_4:0.00000106):0.00001317,(((3_0_5:0.00000131,3_0_3:0.00000183):0.00000274,3_0_8:0.00000365):0.00000013,3_0_1:0.00000353):0.00000709):0.00000137,(3_0_0:0.00000095,(3_0_2:0.00000063,3_0_7:0.00000060):0.00000024):0.00001006):0.00038892,(((((5_0_6:0.00000046,5_0_1:0.00000039):0.00000526,(5_0_8:0.00000433,(5_0_5:0.00000203,5_0_7:0.00000162):0.00000240):0.00000465):0.00000250,((5_0_0:0.00000094,(5_0_2:0.00000047,5_0_3:0.00000055):0.00000060):0.00000149,5_0_4:0.00000222):0.00000732):0.00040211,(((4_0_8:0.00001769,((4_0_0:0.00000004,4_0_7:0.00000005):0.00000392,(((4_0_6:0.00000001,4_0_5:0.00000002):0.00000187,((4_0_3:0.00000002,4_0_4:0.00000002):0.00000093,4_0_2:0.00000100):0.00000024):0.00000197,4_0_1:0.00000406):0.00000273):0.00000861):0.00013229,((8_0_4:0.00001776,(8_0_6:0.00000380,(8_0_1:0.00000209,(8_0_3:0.00000050,8_0_2:0.00000106):0.00000164):0.00000240):0.00000594):0.00002076,(8_0_0:0.00001064,(8_0_8:0.00000607,(8_0_7:0.00000091,8_0_5:0.00000045):0.00000977):0.00000157):0.00002646):0.00014819):0.00015165,((7_0_8:0.00000028,7_0_3:0.00000036):0.00002405,((7_0_0:0.00000814,((7_0_6:0.00000021,7_0_1:0.00000012):0.00000185,(7_0_7:0.00000137,(7_0_5:0.00000010,7_0_4:0.00000010):0.00000086):0.00000012):0.00000526):0.00000171,7_0_2:0.00000830):0.00001377):0.00020538):0.00003873):0.00005284,(((9_0_0:0.00000169,9_0_7:0.00000117):0.00000068,(9_0_2:0.00000021,9_0_4:0.00000073):0.00000102):0.00000806,(9_0_3:0.00000060,((9_0_1:0.00000041,(9_0_5:0.00000001,9_0_6:0.00000002):0.00000056):0.00000007,9_0_8:0.00000071):0.00000027):0.00000914):0.00029938):0.00000577):0.00066076):0.01237382,(((((2_0_7:0.00000225,2_0_2:0.00000232):0.00000319,((2_0_4:0.00000113,(2_0_5:0.00000146,(2_0_1:0.00000070,2_0_0:0.00000034):0.00000072):0.00000009):0.00000075,2_0_8:0.00000145):0.00000349):0.00000711,2_0_3:0.00001337):0.00000846,2_0_6:0.00001817):0.00051712,(((((1_0_5:0.00000048,1_0_6:0.00000039):0.00000247,(1_0_1:0.00000371,1_0_7:0.00000401):0.00000062):0.00000139,(1_0_2:0.00000353,1_0_3:0.00000456):0.00000149):0.00001267,(1_0_8:0.00001254,1_0_0:0.00000738):0.00000509):0.00000075,1_0_4:0.00002340):0.00065687):0.01815459):0.01022240,0_0_0:0.03805010);

data_05	T05	82	1	1	0.0912646	0.0432777	0.0712424	(((((((6_0_6:0.00000179,((6_0_2:0.00000014,6_0_7:0.00000019):0.00000032,6_0_5:0.00000069):0.00000082):0.00000848,(6_0_8:0.00000279,6_0_1:0.00000269):0.00000248):0.00001667,6_0_4:0.00002108):0.00000125,(6_0_0:0.00000001,6_0_3:0.00000001):0.00001835):0.00211402,(((5_0_0:0.00002854,(((((5_0_6:0.00000051,5_0_7:0.00000046):0.00000217,5_0_4:0.00000116):0.00000105,5_0_5:0.00000471):0.00000569,((5_0_2:0.00000086,5_0_1:0.00000131):0.00000133,5_0_3:0.00000240):0.00000835):0.00000079,5_0_8:0.00001124):0.00005571):0.00018825,((((8_0_6:0.00000195,(8_0_7:0.00000127,8_0_1:0.00000188):0.00000019):0.00002954,(((8_0_5:0.00000017,8_0_4:0.00000014):0.00000027,8_0_2:0.00000082):0.00000295,((8_0_8:0.00000044,8_0_3:0.00000038):0.00000255,8_0_0:0.00000266):0.00000113):0.00002116):0.00012670,(((((4_0_3:0.00000006,4_0_1:0.00000003):0.00000230,4_0_0:0.00000234):0.00000109,4_0_4:0.00000331):0.00000974,(4_0_2:0.00000501,((4_0_5:0.00000086,4_0_6:0.00000096):0.00000204,4_0_7:0.00000344):0.00000031):0.00000653):0.00001183,4_0_8:0.00001539):0.00010885):0.00006993,(((7_0_6:0.00000039,7_0_4:0.00000045):0.00000357,(((7_0_8:0.00000067,7_0_2:0.00000149):0.00000021,7_0_5:0.00000053):0.00000260,7_0_0:0.00000437):0.00000057):0.00000463,(7_0_7:0.00000128,(7_0_1:0.00000030,7_0_3:0.00000039):0.00000222):0.00000814):0.00026692):0.00008712):0.00009693,((((3_0_2:0.00000061,3_0_5:0.00000052):0.00000124,(3_0_6:0.00000002,3_0_3:0.00000006):0.00000191):0.00003022,((3_0_7:0.00000502,3_0_0:0.00000602):0.00000700,(3_0_4:0.00000790,(3_0_8:0.00000381,3_0_1:0.00000214):0.00000462):0.00000125):0.00000885):0.00025945,(9_0_2:0.00002236,((((9_0_7:0.00000219,9_0_4:0.00000123):0.00000251,(9_0_6:0.00000256,9_0_8:0.00000211):0.00000322):0.00000201,(9_0_5:0.00000233,9_0_3:0.00000175):0.00000610):0.00001208,(9_0_1:0.00000135,9_0_0:0.00000123):0.00001009):0.00000193):0.00029780):0.00001038):0.00138351):0.01403806,((((((2_0_2:0.00000277,2_0_5:0.00000496):0.00000060,2_0_6:0.00000790):0.00000559,(2_0_8:0.00000065,2_0_7:0.00000120):0.00001458):0.00000473,(2_0_0:0.00000272,(2_0_1:0.00000012,2_0_3:0.00000017):0.00000218):0.00002044):0.00001361,2_0_4:0.00002242):0.00049882,((((1_0_0:0.00000056,1_0_2:0.00000074):0.00000123,(1_0_4:0.00000170,1_0_1:0.00000154):0.00000067):0.00001519,1_0_3:0.00000782):0.00001302,((1_0_6:0.00000140,(1_0_5:0.00000031,1_0_7:0.00000028):0.00000085):0.00001076,1_0_8:0.00000594):0.00001968):0.00029987):0.01885003):0.02389213,0_0_0:0.02796464);

data_06	T06	82	1	1	0.0972842	0.0399175	0.0740971	(0_0_0:0.03417957,(((((1_0_8:0.00000133,(1_0_4:0.00000154,(1_0_5:0.00000049,1_0_3:0.00000072):0.00000048):0.00000002):0.00000038,1_0_0:0.00000113):0.00004070,((1_0_7:0.00000990,1_0_1:0.00001028):0.00001149,(1_0_2:0.00000005,1_0_6:0.00000005):0.00002654):0.00002905):0.00043347,(((2_0_0:0.00000504,(2_0_1:0.00000117,2_0_8:0.00000229):0.00000124):0.00000150,(2_0_6:0.00000472,2_0_3:0.00000527):0.00000022):0.00000647,(2_0_5:0.00000381,(2_0_4:0.00000077,(2_0_7:0.00000065,2_0_2:0.00000097):0.00000007):0.00000210):0.00000542):0.00046148):0.01913433,((((6_0_1:0.00000145,6_0_2:0.00000116):0.00000521,(6_0_4:0.00000074,6_0_8:0.00000190):0.00001181):0.00001913,((6_0_6:0.00000101,6_0_3:0.00000106):0.00000247,((6_0_5:0.00000043,6_0_7:0.00000067):0.00000199,6_0_0:0.00000232):0.00000061):0.00001842):0.00097381,((((((9_0_1:0.00000092,9_0_4:0.00000098):0.00000059,9_0_3:0.00000174):0.00001900,((9_0_8:0.00000538,(9_0_5:0.00000010,9_0_7:0.00000017):0.00000596):0.00000965,(9_0_0:0.00000052,9_0_2:0.00000059):0.00001183):0.00000647):0.00000243,9_0_6:0.00002374):0.00046347,(((3_0_0:0.00000087,3_0_2:0.00000106):0.00001511,((3_0_6:0.00000054,3_0_5:0.00000047):0.00000091,3_0_4:0.00000142):0.00001777):0.00003426,((3_0_8:0.00000155,(3_0_7:0.00000120,3_0_3:0.00000102):0.00000115):0.00000734,3_0_1:0.00001613):0.00003589):0.00035362):0.00001859,((((((7_0_3:0.00000083,7_0_5:0.00000071):0.00000172,(7_0_4:0.00000076,7_0_8:0.00000036):0.00000231):0.00000682,(7_0_6:0.00000103,(7_0_7:0.00000084,7_0_1:0.00000066):0.00000065):0.00000560):0.00002243,(7_0_0:0.00000446,7_0_2:0.00000333):0.00003566):0.00026413,((((8_0_3:0.00000148,(8_0_0:0.00000241,(8_0_2:0.00000114,8_0_7:0.00000208):0.00000116):0.00000046):0.00000416,8_0_1:0.00000474):0.00000843,(8_0_8:0.00000451,(8_0_6:0.00000088,(8_0_5:0.00000002,8_0_4:0.00000001):0.00000066):0.00000304):0.00001593):0.00010141,((4_0_7:0.00000353,(4_0_2:0.00000163,(4_0_6:0.00000065,4_0_0:0.00000043):0.00000104):0.00000090):0.00004748,((4_0_4:0.00001019,((4_0_5:0.00000284,4_0_1:0.00000177):0.00000264,4_0_3:0.00000590):0.00000163):0.00000168,4_0_8:0.00000918):0.00004051):0.00008473):0.00006337):0.00010107,((5_0_8:0.00001650,((5_0_7:0.00000374,(5_0_1:0.00000098,5_0_2:0.00000071):0.00000287):0.00000025,((5_0_5:0.00000036,5_0_0:0.00000043):0.00000187,5_0_6:0.00000175):0.00000109):0.00000661):0.00000522,(5_0_3:0.00000125,5_0_4:0.00000327):0.00000983):0.00037583):0.00006353):0.00117969):0.02273515):0.01549594);

data_07	T07	82	1	1	0.103781	0.0463634	0.0864878	(0_0_0:0.04636341,((((((1_0_5:0.00000087,(1_0_4:0.00000068,1_0_0:0.00000085):0.00000039):0.00000332,1_0_1:0.00000698):0.00000634,(1_0_3:0.00000733,(1_0_6:0.00000133,1_0_2:0.00000063):0.00001016):0.00000286):0.00006024,(1_0_8:0.00000082,1_0_7:0.00000069):0.00008282):0.00035130,((2_0_0:0.00001005,2_0_4:0.00001142):0.00001861,(2_0_2:0.00001648,(((2_0_1:0.00000046,2_0_6:0.00000043):0.00000225,(2_0_7:0.00000219,(2_0_8:0.00000114,2_0_3:0.00000077):0.00000061):0.00000089):0.00000067,2_0_5:0.00000250):0.00001608):0.00004370):0.00032510):0.01335872,(((((6_0_1:0.00000025,6_0_3:0.00000014):0.00000111,6_0_5:0.00000126):0.00000202,(6_0_4:0.00000002,6_0_2:0.00000002):0.00000324):0.00000266,(6_0_8:0.00000228,((6_0_7:0.00000237,6_0_6:0.00000177):0.00000012,6_0_0:0.00000161):0.00000002):0.00000671):0.00120097,((((5_0_3:0.00001007,(5_0_1:0.00000431,((5_0_5:0.00000012,5_0_8:0.00000024):0.00000546,(5_0_7:0.00000122,5_0_4:0.00000213):0.00000377):0.00000067):0.00000454):0.00001180,((5_0_2:0.00000016,5_0_6:0.00000015):0.00000153,5_0_0:0.00000103):0.00000966):0.00034052,(((((4_0_7:0.00000247,(4_0_0:0.00000075,4_0_6:0.00000156):0.00000141):0.00000148,(4_0_3:0.00000416,4_0_4:0.00000974):0.00000041):0.00000650,(4_0_8:0.00001724,(4_0_2:0.00000041,(4_0_1:0.00000019,4_0_5:0.00000021):0.00000001):0.00001299):0.00000104):0.00013461,(((8_0_1:0.00000521,(8_0_0:0.00000660,8_0_7:0.00000728):0.00000058):0.00001351,((8_0_8:0.00000027,(8_0_5:0.00000001,8_0_4:0.00000001):0.00000025):0.00000199,(8_0_2:0.00000006,8_0_3:0.00000006):0.00000236):0.00002234):0.00001790,8_0_6:0.00004267):0.00012435):0.00010865,(((7_0_1:0.00000245,7_0_2:0.00000315):0.00000622,(((7_0_7:0.00000029,7_0_6:0.00000038):0.00000143,7_0_8:0.00000372):0.00000080,(7_0_0:0.00000046,7_0_3:0.00000081):0.00000329):0.00000830):0.00000462,(7_0_5:0.00000081,7_0_4:0.00000106):0.00001225):0.00016250):0.00007996):0.00008810,((((9_0_1:0.00000329,(9_0_6:0.00000073,((9_0_4:0.00000014,(9_0_2:0.00000006,9_0_0:0.00000003):0.00000029):0.00000040,9_0_7:0.00000055):0.00000039):0.00000203):0.00000442,(9_0_8:0.00000003,9_0_3:0.00000002):0.00000914):0.00000109,9_0_5:0.00000896):0.00025516,((3_0_0:0.00001418,(3_0_5:0.00000950,((3_0_4:0.00000683,(3_0_2:0.00000042,3_0_1:0.00000027):0.00000482):0.00000035,3_0_8:0.00000562):0.00000260):0.00000232):0.00003993,((3_0_6:0.00000321,3_0_7:0.00000225):0.00001898,3_0_3:0.00001453):0.00003081):0.00033762):0.00010719):0.00130130):0.02284922):0.01547496);

data_08	T08	82	1	1	0.0882484	0.0412362	0.073445	(((((((3_0_4:0.00000166,(3_0_8:0.00000334,3_0_2:0.00000342):0.00000354):0.00001298,((3_0_7:0.00000859,(3_0_1:0.00000086,(3_0_5:0.00000148,3_0_3:0.00000193):0.00000000):0.00000604):0.00000510,(3_0_0:0.00000088,3_0_6:0.00000046):0.00000906):0.00000647):0.00022823,((((((7_0_4:0.00000190,(7_0_8:0.00000101,7_0_3:0.00000072):0.00000035):0.00000225,(7_0_2:0.00000037,7_0_5:0.00000039):0.00000233):0.00000472,((7_0_7:0.00000165,7_0_1:0.00000224):0.00000310,7_0_6:0.00000768):0.00000200):0.00000284,7_0_0:0.00000926):0.00021885,((((8_0_7:0.00000064,8_0_6:0.00000073):0.00001202,((8_0_0:0.00000007,8_0_1:0.00000005):0.00000356,8_0_4:0.00000388):0.00000931):0.00002591,(((8_0_8:0.00000031,8_0_2:0.00000014):0.00000150,8_0_5:0.00000191):0.00000608,8_0_3:0.00000982):0.00003000):0.00013293,((4_0_8:0.00001041,(4_0_6:0.00000497,(4_0_4:0.00000184,4_0_1:0.00000134):0.00000157):0.00000323):0.00002320,((4_0_7:0.00000288,4_0_3:0.00000245):0.00000419,((4_0_0:0.00000069,4_0_5:0.00000049):0.00000447,4_0_2:0.00000569):0.00000157):0.00001706):0.00012776):0.00008655):0.00004076,(((5_0_7:0.00000111,5_0_0:0.00000136):0.00000368,5_0_2:0.00000468):0.00002855,((5_0_1:0.00000181,5_0_5:0.00000307):0.00001087,(((5_0_3:0.00000073,5_0_6:0.00000067):0.00000066,5_0_4:0.00000155):0.00000143,5_0_8:0.00000115):0.00000624):0.00002371):0.00030673):0.00006662):0.00000187,(((9_0_5:0.00000513,9_0_1:0.00000599):0.00000923,((9_0_8:0.00000211,(9_0_2:0.00000059,((9_0_4:0.00000076,9_0_6:0.00000040):0.00000012,9_0_7:0.00000040):0.00000024):0.00000076):0.00000051,9_0_3:0.00000190):0.00001139):0.00003577,9_0_0:0.00007230):0.00040668):0.00073821,((6_0_7:0.00000832,(6_0_2:0.00000115,(6_0_4:0.00000007,6_0_1:0.00000011):0.00000056):0.00000525):0.00002067,(((6_0_0:0.00000215,(6_0_5:0.00000141,6_0_8:0.00000243):0.00000037):0.00000138,6_0_6:0.00000208):0.00001203,6_0_3:0.00002831):0.00000999):0.00118294):0.01033301,((((1_0_7:0.00000360,1_0_0:0.00000182):0.00000556,(1_0_5:0.00000312,1_0_8:0.00000298):0.00001369):0.00000284,(1_0_2:0.00000368,(((1_0_6:0.00000160,1_0_1:0.00000293):0.00000185,1_0_3:0.00000315):0.00000086,1_0_4:0.00000432):0.00000208):0.00002010):0.00065465,((((2_0_6:0.00000245,2_0_3:0.00000237):0.00000850,((2_0_4:0.00000075,2_0_8:0.00000063):0.00000410,((2_0_7:0.00000058,2_0_2:0.00000060):0.00000008,2_0_5:0.00000044):0.00000520):0.00000570):0.00000138,2_0_0:0.00000975):0.00000998,2_0_1:0.00001374):0.00018388):0.01395329):0.01757308,0_0_0:0.04123617);

data_09	T09	82	1	1	0.0788881	0.031518	0.0624263	(0_0_0:0.03151798,((((1_0_7:0.00000288,1_0_4:0.00000254):0.00000344,(((1_0_2:0.00000028,1_0_6:0.00000030):0.00000146,1_0_8:0.00000113):0.00000402,(1_0_0:0.00000379,((1_0_1:0.00000219,1_0_5:0.00000135):0.00000073,1_0_3:0.00000196):0.00000530):0.00000186):0.00000024):0.00038738,((2_0_0:0.00000258,2_0_7:0.00000250):0.00002990,((2_0_8:0.00000155,2_0_1:0.00000209):0.00001020,(2_0_5:0.00001072,(((2_0_2:0.00000096,2_0_4:0.00000114):0.00000063,2_0_6:0.00000065):0.00000264,2_0_3:0.00000270):0.00000500):0.00000336):0.00002062):0.00049724):0.01279011,(((6_0_2:0.00000436,6_0_8:0.00000383):0.00004718,(((6_0_4:0.00000439,(6_0_5:0.00000042,6_0_7:0.00000089):0.00000275):0.00000402,(6_0_3:0.00000134,6_0_6:0.00000171):0.00000750):0.00000322,(6_0_1:0.00000063,6_0_0:0.00000068):0.00001583):0.00002542):0.00172538,((((((9_0_3:0.00000012,9_0_6:0.00000011):0.00000020,9_0_4:0.00000056):0.00000625,(9_0_2:0.00000338,((9_0_8:0.00000020,9_0_7:0.00000016):0.00000081,9_0_1:0.00000151):0.00000134):0.00000468):0.00000067,(9_0_5:0.00000179,9_0_0:0.00000086):0.00000559):0.00036904,((((3_0_0:0.00000022,3_0_6:0.00000016):0.00000057,3_0_7:0.00000083):0.00000070,3_0_1:0.00000174):0.00000874,((3_0_5:0.00000252,(3_0_8:0.00000040,3_0_4:0.00000042):0.00000423):0.00000602,(3_0_3:0.00000040,3_0_2:0.00000046):0.00000731):0.00000386):0.00013306):0.00001712,((((((7_0_7:0.00000212,7_0_6:0.00000236):0.00000377,7_0_8:0.00000532):0.00002041,7_0_5:0.00001631):0.00000120,(7_0_1:0.00001058,((7_0_0:0.00000045,(7_0_3:0.00000025,7_0_4:0.00000074):0.00000005):0.00000412,7_0_2:0.00000408):0.00001249):0.00001256):0.00014865,((((((4_0_0:0.00000081,4_0_2:0.00000059):0.00000483,4_0_4:0.00000630):0.00000138,4_0_3:0.00000781):0.00000172,((4_0_1:0.00000119,4_0_7:0.00000081):0.00000417,4_0_6:0.00000449):0.00000728):0.00001833,(4_0_8:0.00000224,4_0_5:0.00000188):0.00003852):0.00015650,(((8_0_3:0.00000099,(8_0_0:0.00000028,8_0_2:0.00000038):0.00000191):0.00000821,(8_0_1:0.00000611,(8_0_4:0.00000436,8_0_5:0.00000315):0.00000204):0.00000496):0.00003858,(8_0_7:0.00000647,(8_0_8:0.00000069,8_0_6:0.00000090):0.00000593):0.00004856):0.00011972):0.00010351):0.00007700,((5_0_0:0.00000140,(5_0_6:0.00000002,5_0_4:0.00000002):0.00000114):0.00000447,(5_0_3:0.00000905,((5_0_8:0.00000153,5_0_1:0.00000157):0.00000142,(5_0_2:0.00000027,(5_0_5:0.00000020,5_0_7:0.00000009):0.00000024):0.00000379):0.00000111):0.00000062):0.00027470):0.00008032):0.00067765):0.01785136):0.01128004);

data_10	T10	82	1	1	0.103598	0.0430197	0.0807702	(0_0_0:0.04301968,((((9_0_1:0.00003407,((((9_0_3:0.00000077,9_0_6:0.00000046):0.00000267,9_0_0:0.00000208):0.00000182,(9_0_7:0.00000222,(9_0_4:0.00000048,9_0_8:0.00000091):0.00000137):0.00000199):0.00000729,(9_0_5:0.00000223,9_0_2:0.00000362):0.00000737):0.00001046):0.00035052,(((3_0_1:0.00001157,((3_0_5:0.00000559,3_0_4:0.00000304):0.00000805,((3_0_0:0.00000401,3_0_2:0.00000217):0.00000140,(3_0_8:0.00000004,3_0_3:0.00000004):0.00000293):0.00000883):0.00000493):0.00000889,(3_0_6:0.00000104,3_0_7:0.00000105):0.00001649):0.00026966,(((5_0_0:0.00000345,(5_0_1:0.00000049,5_0_6:0.00000025):0.00000289):0.00001361,((5_0_5:0.00000172,5_0_8:0.00000217):0.00000766,((5_0_4:0.00000257,(5_0_2:0.00000023,5_0_7:0.00000026):0.00000239):0.00000167,5_0_3:0.00000744):0.00000034):0.00000584):0.00024446,((((4_0_0:0.00000166,(4_0_2:0.00000063,4_0_7:0.00000065):0.00000079):0.00002001,((4_0_4:0.00000408,(4_0_1:0.00000047,4_0_3:0.00000039):0.00000243):0.00000246,(4_0_5:0.00000180,(4_0_8:0.00000012,4_0_6:0.00000009):0.00000422):0.00000349):0.00002187):0.00015864,((8_0_6:0.00000515,8_0_0:0.00000563):0.00000925,(((8_0_7:0.00000724,8_0_3:0.00000564):0.00000192,(8_0_1:0.00000065,8_0_5:0.00000065):0.00000631):0.00000653,((8_0_8:0.00000044,8_0_4:0.00000067):0.00000255,8_0_2:0.00000822):0.00000705):0.00000322):0.00015935):0.00005118,(((7_0_6:0.00000908,7_0_7:0.00000847):0.00001308,7_0_4:0.00002230):0.00001700,((7_0_8:0.00000106,(7_0_5:0.00000028,7_0_2:0.00000048):0.00000047):0.00001518,((7_0_3:0.00000353,7_0_1:0.00000240):0.00000728,7_0_0:0.00001204):0.00000575):0.00002060):0.00014694):0.00007110):0.00010952):0.00000835):0.00104366,(((6_0_6:0.00000150,6_0_7:0.00000125):0.00000158,6_0_0:0.00000340):0.00002437,(6_0_5:0.00001983,((6_0_1:0.00000163,(6_0_8:0.00000001,6_0_2:0.00000001):0.00000265):0.00000039,(6_0_3:0.00000038,6_0_4:0.00000038):0.00000210):0.00002034):0.00001985):0.00166489):0.01755535,(((((2_0_8:0.00000205,2_0_2:0.00000255):0.00000130,2_0_6:0.00000324):0.00000497,2_0_1:0.00001288):0.00002919,(2_0_3:0.00000198,(2_0_5:0.00000058,(2_0_7:0.00000073,(2_0_4:0.00000042,2_0_0:0.00000027):0.00000019):0.00000031):0.00000209):0.00003912):0.00049934,((1_0_4:0.00000308,((1_0_3:0.00000040,1_0_5:0.00000039):0.00000240,((1_0_8:0.00000061,1_0_1:0.00000050):0.00000137,((1_0_2:0.00000115,1_0_6:0.00000059):0.00000023,1_0_7:0.00000107):0.00000044):0.00000088):0.00000012):0.00003416,1_0_0:0.00003908):0.00026029):0.01904315):0.01816574);
