[TYPE] NUCLEOTIDE 1 

[SETTINGS]
    [fastaextension] fasta  

[MODEL] csSim_unlinked_1
    [submodel] GTR 0.103060 0.017769 0.034390 0.025211 0.045012 
    [statefreq] 0.592872 0.328159 0.021262 0.057706 
[rates] 0 0.088784 0 

[MODEL] csSim_unlinked_2
    [submodel] GTR 0.090717 0.004715 0.008418 0.026587 0.043535 
    [statefreq] 0.382002 0.059396 0.372613 0.185989 
[rates] 0 20.705613 0 

[MODEL] csSim_unlinked_3
    [submodel] GTR 0.094058 0.015861 0.029150 0.052365 0.041263 
    [statefreq] 0.153440 0.595840 0.067618 0.183102 
[rates] 0 2.204143 0 

[MODEL] csSim_unlinked_4
    [submodel] GTR 0.079060 0.016900 0.018475 0.009220 0.071789 
    [statefreq] 0.411583 0.040977 0.259045 0.288396 
[rates] 0 2.207291 0 

[MODEL] csSim_unlinked_5
    [submodel] GTR 0.074931 0.008448 0.015545 0.039123 0.046725 
    [statefreq] 0.030969 0.113322 0.225583 0.630125 
[rates] 0 7.974983 0 

[MODEL] csSim_unlinked_6
    [submodel] GTR 0.089854 0.011607 0.030713 0.040322 0.046288 
    [statefreq] 0.138923 0.707041 0.120442 0.033593 
[rates] 0 5.923481 0 

[MODEL] csSim_unlinked_7
    [submodel] GTR 0.120039 0.011000 0.035754 0.025149 0.041464 
    [statefreq] 0.471325 0.243386 0.047246 0.238043 
[rates] 0 10.566824 0 

[MODEL] csSim_unlinked_8
    [submodel] GTR 0.112144 0.012149 0.008440 0.061576 0.043630 
    [statefreq] 0.643715 0.067489 0.052052 0.236745 
[rates] 0 1.725456 0 

[MODEL] csSim_unlinked_9
    [submodel] GTR 0.087067 0.002433 0.030485 0.023163 0.033847 
    [statefreq] 0.107334 0.003524 0.008194 0.880948 
[rates] 0 8.268701 0 

[MODEL] csSim_unlinked_10
    [submodel] GTR 0.069836 0.002910 0.027839 0.024363 0.013204 
    [statefreq] 0.244043 0.353838 0.392868 0.009251 
[rates] 0 1.145468 0 


[TREE] T01 (0_0_0:0.03227631,((((((((6_0_10:0.00000553,6_0_2:0.00000965):0.00019104,6_0_6:0.00019898):0.00003393,((6_0_3:0.00005350,6_0_0:0.00007373):0.00000944,(6_0_7:0.00005421,6_0_11:0.00007927):0.00002370):0.00024762):0.00024302,((6_0_9:0.00000375,6_0_12:0.00000531):0.00010545,((6_0_1:0.00002560,6_0_8:0.00002277):0.00002491,6_0_4:0.00008198):0.00011887):0.00031282):0.00117228,6_0_5:0.00069311):0.00355436,((4_0_8:0.00022959,((4_0_3:0.00000608,4_0_9:0.00000539):0.00021030,(4_0_1:0.00005141,((4_0_0:0.00001850,4_0_7:0.00000925):0.00006696,4_0_11:0.00019393):0.00000234):0.00000781):0.00008141):0.00012584,((((4_0_5:0.00000134,4_0_6:0.00000282):0.00000272,4_0_4:0.00000619):0.00001239,4_0_12:0.00013568):0.00014198,(4_0_10:0.00005265,4_0_2:0.00008764):0.00025943):0.00001646):0.00431538):0.01444571,((((2_0_12:0.00011458,(2_0_7:0.00003840,2_0_5:0.00008431):0.00005021):0.00075068,((2_0_6:0.00007959,((2_0_4:0.00002815,2_0_0:0.00001763):0.00006666,(2_0_9:0.00000482,2_0_2:0.00000662):0.00010814):0.00018785):0.00008171,(((2_0_10:0.00017108,2_0_8:0.00011292):0.00008423,2_0_1:0.00009147):0.00002950,(2_0_11:0.00000119,2_0_3:0.00000056):0.00056584):0.00042789):0.00010225):0.00231672,((((5_0_9:0.00000131,5_0_12:0.00000294):0.00031434,5_0_4:0.00013281):0.00016251,((5_0_8:0.00011442,5_0_3:0.00012841):0.00003506,(((((5_0_7:0.00000062,5_0_6:0.00000056):0.00001316,5_0_11:0.00000882):0.00000129,5_0_2:0.00006310):0.00001315,5_0_10:0.00005921):0.00013408,((5_0_5:0.00000372,5_0_0:0.00003972):0.00006620,5_0_1:0.00009097):0.00009222):0.00000420):0.00096242):0.00087996,(((3_0_5:0.00026567,((3_0_9:0.00000597,3_0_10:0.00000355):0.00001294,(3_0_2:0.00001136,3_0_7:0.00001724):0.00000882):0.00019616):0.00005980,(3_0_0:0.00004235,3_0_12:0.00006541):0.00023647):0.00004396,((((3_0_1:0.00008380,(3_0_8:0.00002389,3_0_11:0.00003734):0.00000104):0.00004827,3_0_6:0.00015129):0.00002279,3_0_4:0.00005148):0.00014125,3_0_3:0.00034141):0.00035375):0.00040653):0.00166921):0.00054477,((1_0_6:0.00015868,((1_0_7:0.00000472,1_0_1:0.00001570):0.00004406,(1_0_9:0.00000831,1_0_2:0.00000461):0.00003187):0.00034695):0.00085298,(1_0_10:0.00067600,(((1_0_11:0.00005221,1_0_3:0.00004547):0.00003713,(1_0_8:0.00005767,1_0_12:0.00007406):0.00001110):0.00035699,(1_0_4:0.00044139,(1_0_5:0.00018080,1_0_0:0.00006936):0.00014181):0.00002864):0.00037010):0.00099547):0.00188025):0.01197836):0.00351645,((((((17_0_8:0.00004138,(17_0_2:0.00004109,17_0_1:0.00004431):0.00003257):0.00003882,17_0_7:0.00010463):0.00004230,((17_0_3:0.00005271,(17_0_6:0.00007157,17_0_4:0.00009683):0.00003266):0.00009838,17_0_11:0.00010777):0.00002172):0.00032566,(((17_0_0:0.00000758,17_0_10:0.00004932):0.00043334,(17_0_9:0.00008090,17_0_5:0.00005396):0.00027475):0.00002168,17_0_12:0.00013670):0.00000804):0.00362346,(9_0_12:0.00084228,(((9_0_10:0.00016365,9_0_0:0.00054502):0.00004653,((9_0_4:0.00003165,9_0_9:0.00004550):0.00042053,((9_0_1:0.00004524,(9_0_8:0.00005498,(9_0_2:0.00005014,9_0_6:0.00002285):0.00000650):0.00000975):0.00000202,9_0_7:0.00011040):0.00006552):0.00003295):0.00015808,((9_0_11:0.00004553,9_0_3:0.00008229):0.00001857,9_0_5:0.00021447):0.00019919):0.00084904):0.00066990):0.00641488,((((((11_0_3:0.00016954,11_0_11:0.00027232):0.00012144,(11_0_10:0.00003395,11_0_12:0.00001841):0.00030197):0.00215853,(((11_0_7:0.00002435,(11_0_1:0.00000958,11_0_8:0.00002300):0.00006055):0.00012414,((11_0_0:0.00001707,11_0_2:0.00004821):0.00003041,(11_0_5:0.00003027,11_0_9:0.00001630):0.00002715):0.00010566):0.00026855,(11_0_4:0.00000882,11_0_6:0.00001204):0.00043247):0.00059314):0.01271610,(((((15_0_5:0.00000253,15_0_8:0.00000260):0.00005317,15_0_3:0.00002635):0.00003532,((15_0_1:0.00000154,15_0_0:0.00000267):0.00013800,(15_0_7:0.00006571,15_0_4:0.00006830):0.00005160):0.00000636):0.00028788,(15_0_12:0.00011546,15_0_2:0.00002596):0.00062509):0.00012503,(15_0_6:0.00004495,((15_0_11:0.00000595,15_0_9:0.00000687):0.00003845,15_0_10:0.00002708):0.00005606):0.00012276):0.00629772):0.00364564,(((((10_0_6:0.00002386,10_0_10:0.00004724):0.00003800,10_0_11:0.00011491):0.00027623,10_0_2:0.00017382):0.00076055,((10_0_9:0.00029259,((10_0_8:0.00000423,10_0_4:0.00000873):0.00005017,10_0_0:0.00004210):0.00008963):0.00065933,(((10_0_12:0.00005552,10_0_5:0.00004333):0.00008482,(10_0_1:0.00003675,10_0_3:0.00003736):0.00008429):0.00017331,10_0_7:0.00040083):0.00003376):0.00067115):0.00116962,(((14_0_6:0.00001733,14_0_4:0.00000644):0.00005785,((14_0_12:0.00004259,14_0_7:0.00002000):0.00000805,14_0_8:0.00007910):0.00006723):0.00047247,(((14_0_2:0.00003788,(14_0_5:0.00005106,14_0_0:0.00002057):0.00000347):0.00001420,14_0_10:0.00004068):0.00006468,((14_0_3:0.00002294,14_0_9:0.00000988):0.00005707,(14_0_1:0.00004633,14_0_11:0.00003385):0.00007902):0.00011121):0.00050534):0.00072175):0.00269651):0.00385964,((((7_0_7:0.00002262,7_0_1:0.00016389):0.00006948,((((7_0_9:0.00009715,7_0_8:0.00004431):0.00000317,7_0_6:0.00004094):0.00003341,(7_0_2:0.00016244,(7_0_3:0.00012138,(7_0_12:0.00000043,7_0_10:0.00000577):0.00003221):0.00004457):0.00000293):0.00006768,7_0_0:0.00020395):0.00002752):0.00112655,((7_0_5:0.00001256,7_0_11:0.00000989):0.00029491,7_0_4:0.00035000):0.00031407):0.00440171,(((((18_0_5:0.00004787,(18_0_3:0.00000923,18_0_11:0.00001015):0.00002690):0.00002817,18_0_4:0.00008464):0.00041904,18_0_1:0.00060513):0.00094285,((((18_0_10:0.00000923,18_0_7:0.00001339):0.00008072,((((18_0_2:0.00004470,18_0_9:0.00002485):0.00000401,(18_0_8:0.00000380,18_0_6:0.00000446):0.00005129):0.00016704,18_0_12:0.00015083):0.00000100,18_0_0:0.00011671):0.00003031):0.00072099,(13_0_4:0.00016266,(((13_0_10:0.00005156,((13_0_3:0.00006151,13_0_7:0.00007834):0.00005972,13_0_0:0.00004608):0.00001489):0.00008500,(13_0_11:0.00000772,13_0_12:0.00000815):0.00014114):0.00021695,(13_0_5:0.00050428,((((13_0_6:0.00000866,13_0_9:0.00000394):0.00000467,13_0_2:0.00002251):0.00001811,13_0_1:0.00013563):0.00012117,13_0_8:0.00014810):0.00000679):0.00015433):0.00000852):0.00032142):0.00014284,(((((8_0_7:0.00003570,8_0_6:0.00001781):0.00012771,8_0_10:0.00007301):0.00064588,(12_0_3:0.00020650,((8_0_0:0.00002305,8_0_5:0.00001831):0.00006962,((8_0_11:0.00000650,8_0_3:0.00000883):0.00005253,8_0_8:0.00005491):0.00001253):0.00022051):0.00001047):0.00027953,(((((12_0_4:0.00000835,12_0_8:0.00001300):0.00008610,12_0_6:0.00009323):0.00002302,(12_0_9:0.00004080,12_0_1:0.00024409):0.00003519):0.00006194,((12_0_11:0.00009118,((12_0_7:0.00000567,12_0_10:0.00000969):0.00000760,(12_0_12:0.00000017,12_0_0:0.00000008):0.00003267):0.00002162):0.00001475,12_0_2:0.00006463):0.00006865):0.00044866,12_0_5:0.00042334):0.00048961):0.00055863,((8_0_12:0.00028587,((8_0_1:0.00001110,8_0_2:0.00001587):0.00002011,8_0_9:0.00003492):0.00017353):0.00011136,8_0_4:0.00027303):0.00056060):0.00040158):0.00017302):0.00408579,(((16_0_11:0.00002923,(16_0_12:0.00000702,16_0_6:0.00001134):0.00000717):0.00002795,16_0_10:0.00001959):0.00387679,((16_0_8:0.00000426,16_0_1:0.00000244):0.00030848,(((16_0_0:0.00002638,16_0_7:0.00009112):0.00005929,16_0_4:0.00011805):0.00002840,((16_0_3:0.00002230,16_0_5:0.00004616):0.00014523,(16_0_9:0.00005336,16_0_2:0.00007422):0.00003783):0.00000669):0.00005009):0.00161718):0.00461654):0.00049293):0.00741539):0.00175263):0.00086456):0.01700924);
[TREE] T02 (0_0_0:0.03853736,(((((((17_0_8:0.00003117,17_0_4:0.00002207):0.00009736,(((17_0_3:0.00000680,17_0_10:0.00008887):0.00000297,17_0_11:0.00007228):0.00001061,(17_0_6:0.00000923,17_0_7:0.00000330):0.00008076):0.00003740):0.00004522,17_0_5:0.00002870):0.00053014,((17_0_0:0.00000612,17_0_2:0.00000467):0.00032798,(17_0_9:0.00002015,(17_0_12:0.00001215,17_0_1:0.00002091):0.00001443):0.00011229):0.00035139):0.00072201,(9_0_4:0.00084564,((9_0_0:0.00008670,((9_0_6:0.00000181,9_0_7:0.00000277):0.00009467,(9_0_12:0.00000681,9_0_9:0.00000633):0.00003866):0.00002671):0.00010035,((9_0_1:0.00017554,(9_0_3:0.00004446,((9_0_11:0.00001702,9_0_8:0.00001456):0.00002112,9_0_10:0.00003221):0.00003280):0.00006745):0.00004657,(9_0_2:0.00032530,9_0_5:0.00011755):0.00011644):0.00000170):0.00014604):0.00275691):0.01891441,(((((((8_0_0:0.00002034,(8_0_2:0.00001449,8_0_6:0.00003543):0.00002716):0.00002387,(8_0_9:0.00001571,(8_0_3:0.00003005,8_0_12:0.00001204):0.00003137):0.00006554):0.00312211,((((18_0_3:0.00015845,(18_0_6:0.00014487,((18_0_8:0.00015183,(18_0_0:0.00001952,(18_0_12:0.00003706,18_0_10:0.00001290):0.00004470):0.00002921):0.00002998,18_0_5:0.00009174):0.00004207):0.00006883):0.00019042,18_0_2:0.00047484):0.00003798,(18_0_11:0.00012543,(18_0_9:0.00013877,(18_0_4:0.00000687,(18_0_7:0.00000365,18_0_1:0.00000830):0.00000098):0.00008738):0.00002343):0.00032902):0.00062176,(((13_0_4:0.00010998,13_0_5:0.00003643):0.00003735,(((13_0_1:0.00002812,13_0_0:0.00007149):0.00004526,13_0_11:0.00008232):0.00005632,((13_0_12:0.00002753,13_0_2:0.00006451):0.00003349,(13_0_10:0.00000162,13_0_9:0.00000226):0.00002690):0.00014210):0.00000810):0.00012401,((13_0_3:0.00000451,13_0_6:0.00001527):0.00011190,(13_0_7:0.00002247,13_0_8:0.00003284):0.00015008):0.00013089):0.00069444):0.00111396):0.00109432,((((12_0_1:0.00002708,12_0_12:0.00000733):0.00005803,12_0_6:0.00005369):0.00028284,((12_0_0:0.00004888,(12_0_11:0.00004655,12_0_4:0.00004083):0.00001700):0.00004763,(((12_0_10:0.00002583,(12_0_8:0.00005070,12_0_9:0.00007273):0.00000181):0.00006683,(12_0_3:0.00001472,12_0_2:0.00000649):0.00010958):0.00014365,(12_0_5:0.00035306,12_0_7:0.00027550):0.00000537):0.00000285):0.00010528):0.00011703,((((8_0_1:0.00003283,8_0_5:0.00000607):0.00016687,8_0_11:0.00006607):0.00000288,8_0_10:0.00012513):0.00016144,(8_0_7:0.00024953,(8_0_8:0.00001300,8_0_4:0.00001406):0.00016608):0.00001623):0.00038199):0.00073401):0.00189445,((16_0_3:0.00016357,(((16_0_10:0.00000683,16_0_9:0.00000995):0.00006104,16_0_2:0.00013189):0.00009650,((((16_0_7:0.00000636,16_0_1:0.00000411):0.00015997,(16_0_4:0.00016414,(16_0_8:0.00002648,(16_0_0:0.00000790,16_0_6:0.00003634):0.00010481):0.00000315):0.00000050):0.00000565,16_0_11:0.00006993):0.00004479,16_0_5:0.00013172):0.00004418):0.00007842):0.00062553,16_0_12:0.00058208):0.00542377):0.00040209,(((7_0_8:0.00002533,(7_0_4:0.00001854,7_0_12:0.00000630):0.00000318):0.00009281,((7_0_5:0.00000685,7_0_11:0.00001839):0.00001230,7_0_9:0.00004443):0.00009635):0.00011849,((7_0_7:0.00001067,7_0_6:0.00002363):0.00020312,((7_0_2:0.00002882,(7_0_1:0.00000757,(7_0_10:0.00001424,7_0_0:0.00002324):0.00001092):0.00000058):0.00009517,7_0_3:0.00010565):0.00007201):0.00007450):0.00445301):0.00960730,(((((15_0_5:0.00023343,(15_0_11:0.00001383,15_0_2:0.00002237):0.00005971):0.00005862,15_0_6:0.00006563):0.00016627,((15_0_8:0.00003409,(15_0_1:0.00000856,15_0_0:0.00000446):0.00000666):0.00020860,(15_0_7:0.00019904,((15_0_3:0.00000739,15_0_12:0.00000580):0.00003669,(15_0_4:0.00004217,(15_0_9:0.00000647,15_0_10:0.00001290):0.00004436):0.00002151):0.00003169):0.00009754):0.00029020):0.00361884,(11_0_12:0.00079486,(((((11_0_2:0.00000443,11_0_9:0.00001240):0.00002752,(11_0_6:0.00001513,11_0_10:0.00002336):0.00001953):0.00004566,(((11_0_3:0.00000905,11_0_7:0.00000998):0.00000567,(11_0_5:0.00001270,11_0_0:0.00000767):0.00001175):0.00000802,11_0_11:0.00017402):0.00000734):0.00000697,(11_0_4:0.00000913,11_0_8:0.00002470):0.00006782):0.00020875,11_0_1:0.00029776):0.00044126):0.00508075):0.00369197,((((10_0_12:0.00014973,10_0_2:0.00018592):0.00003996,((10_0_10:0.00003250,(10_0_6:0.00000055,10_0_3:0.00000034):0.00002490):0.00003214,(10_0_0:0.00007268,10_0_8:0.00009014):0.00002069):0.00009814):0.00018255,(((10_0_1:0.00000424,10_0_7:0.00002454):0.00005869,(10_0_9:0.00002154,10_0_4:0.00002828):0.00009707):0.00006091,(10_0_11:0.00020945,10_0_5:0.00022515):0.00009654):0.00005365):0.00094029,((14_0_7:0.00004108,(14_0_12:0.00003053,14_0_4:0.00002664):0.00000570):0.00041527,(14_0_6:0.00011482,((14_0_3:0.00001878,(14_0_9:0.00000808,14_0_1:0.00002088):0.00007558):0.00007670,((((14_0_8:0.00000336,(14_0_5:0.00000008,14_0_11:0.00000027):0.00000186):0.00000513,14_0_2:0.00000655):0.00002265,14_0_0:0.00005791):0.00001443,14_0_10:0.00004554):0.00005850):0.00007661):0.00008885):0.00198522):0.00134922):0.00273418):0.01572180):0.00415266,((((((4_0_1:0.00011723,(4_0_6:0.00001119,4_0_12:0.00000384):0.00009025):0.00006991,((4_0_9:0.00002965,4_0_0:0.00005830):0.00002342,(4_0_3:0.00009164,4_0_10:0.00012875):0.00012000):0.00000042):0.00094915,((4_0_5:0.00002551,4_0_4:0.00001907):0.00000398,4_0_11:0.00004641):0.00159196):0.00024794,((4_0_2:0.00010842,4_0_8:0.00006559):0.00009820,4_0_7:0.00042203):0.00147848):0.00369535,(((6_0_2:0.00004683,6_0_9:0.00002602):0.00083490,(6_0_1:0.00000042,6_0_6:0.00000055):0.00029556):0.00064105,(((6_0_3:0.00002360,((6_0_11:0.00001278,6_0_4:0.00001018):0.00001677,(6_0_10:0.00006798,6_0_8:0.00002971):0.00001689):0.00011748):0.00010130,6_0_5:0.00028654):0.00007000,(6_0_0:0.00013230,(6_0_7:0.00003517,6_0_12:0.00003837):0.00005013):0.00043905):0.00050032):0.00164664):0.01660394,(((((((1_0_3:0.00000682,1_0_12:0.00000486):0.00000679,1_0_4:0.00002012):0.00015381,1_0_5:0.00006319):0.00007465,(1_0_10:0.00006389,1_0_6:0.00004434):0.00028404):0.00065204,((1_0_8:0.00004854,1_0_0:0.00007141):0.00011204,(((1_0_2:0.00000398,1_0_1:0.00001295):0.00000545,1_0_9:0.00002875):0.00010363,(1_0_11:0.00001924,1_0_7:0.00004584):0.00009072):0.00000946):0.00052369):0.00278877,((((3_0_1:0.00016275,3_0_6:0.00005273):0.00010434,((3_0_12:0.00000215,3_0_7:0.00000080):0.00002342,3_0_4:0.00003268):0.00026320):0.00005723,((3_0_0:0.00015418,3_0_5:0.00016484):0.00021191,(((3_0_10:0.00001511,3_0_9:0.00000420):0.00002127,3_0_11:0.00004586):0.00019450,(3_0_3:0.00002915,3_0_2:0.00000272):0.00031231):0.00001033):0.00008563):0.00129537,(3_0_8:0.00028043,(((5_0_2:0.00000574,5_0_7:0.00001363):0.00022529,((5_0_11:0.00005020,(5_0_12:0.00001522,5_0_6:0.00000536):0.00011093):0.00000333,(5_0_5:0.00000368,5_0_1:0.00001356):0.00010431):0.00013504):0.00049882,(((5_0_9:0.00001991,(5_0_8:0.00000457,5_0_0:0.00000614):0.00000161):0.00004936,5_0_4:0.00008909):0.00006076,(5_0_10:0.00001353,5_0_3:0.00001455):0.00008285):0.00021552):0.00011765):0.00145613):0.00113895):0.00017053,((2_0_3:0.00024852,(((2_0_11:0.00000854,2_0_8:0.00000491):0.00004088,(2_0_0:0.00005368,((2_0_6:0.00000935,2_0_7:0.00001106):0.00000048,2_0_4:0.00001628):0.00006188):0.00001371):0.00012878,2_0_10:0.00009378):0.00045717):0.00007752,((2_0_12:0.00004883,(2_0_9:0.00002699,2_0_1:0.00002104):0.00001697):0.00039186,(2_0_2:0.00001316,2_0_5:0.00001733):0.00022819):0.00009171):0.00220289):0.01618797):0.00599684):0.01704288);
[TREE] T03 (0_0_0:0.10611484,((((((1_0_7:0.00025234,(1_0_4:0.00006433,1_0_9:0.00005747):0.00021237):0.00010856,(1_0_3:0.00023417,1_0_8:0.00014794):0.00017322):0.00023526,(1_0_6:0.00031448,((1_0_2:0.00000531,1_0_12:0.00000438):0.00006930,(((1_0_5:0.00001000,1_0_1:0.00001087):0.00000608,1_0_0:0.00003688):0.00002493,(1_0_10:0.00000050,1_0_11:0.00000203):0.00005562):0.00000847):0.00013923):0.00021611):0.00399729,(((((3_0_9:0.00024599,3_0_7:0.00019102):0.00012305,(3_0_4:0.00024925,(((3_0_0:0.00001022,(3_0_5:0.00000174,3_0_2:0.00000107):0.00002315):0.00006067,((3_0_8:0.00004366,((3_0_11:0.00000124,3_0_3:0.00000087):0.00003626,(3_0_10:0.00000066,3_0_6:0.00000312):0.00004238):0.00000031):0.00001590,3_0_12:0.00005400):0.00010113):0.00000650,3_0_1:0.00009749):0.00034808):0.00008788):0.00050814,(5_0_1:0.00020499,(5_0_8:0.00034907,(5_0_10:0.00009152,5_0_0:0.00006649):0.00003915):0.00053936):0.00024239):0.00006406,((5_0_4:0.00006248,(5_0_7:0.00001398,5_0_5:0.00001184):0.00007681):0.00052559,((5_0_11:0.00000083,5_0_6:0.00000059):0.00009026,(((5_0_12:0.00001754,5_0_2:0.00001495):0.00003054,5_0_3:0.00005231):0.00005440,5_0_9:0.00010604):0.00008757):0.00017182):0.00042814):0.00131352,((2_0_3:0.00016284,(2_0_11:0.00005776,(2_0_4:0.00002415,2_0_1:0.00001690):0.00005756):0.00006548):0.00046229,(((2_0_6:0.00006312,2_0_12:0.00005743):0.00008439,2_0_2:0.00020518):0.00018634,((2_0_0:0.00000205,2_0_10:0.00000261):0.00016390,(2_0_5:0.00007115,((2_0_9:0.00002968,2_0_7:0.00000885):0.00003820,2_0_8:0.00004575):0.00005660):0.00007646):0.00041146):0.00103428):0.00221585):0.00022670):0.00353743,(((((6_0_8:0.00000006,6_0_11:0.00000019):0.00007703,(((6_0_5:0.00000415,6_0_7:0.00000145):0.00000188,6_0_6:0.00001182):0.00007035,(6_0_9:0.00002244,6_0_3:0.00005211):0.00000782):0.00000964):0.00001570,((6_0_10:0.00000640,6_0_12:0.00000362):0.00008816,(6_0_0:0.00004600,6_0_4:0.00003180):0.00000321):0.00000978):0.00116634,(6_0_1:0.00013492,6_0_2:0.00005629):0.00086683):0.00233825,(((((((4_0_5:0.00000547,4_0_0:0.00000249):0.00001656,4_0_3:0.00001945):0.00001131,(4_0_10:0.00003410,(4_0_12:0.00000447,4_0_8:0.00000694):0.00007399):0.00000141):0.00017833,(4_0_1:0.00008307,(4_0_4:0.00000674,4_0_9:0.00000130):0.00009450):0.00020459):0.00000396,(4_0_2:0.00004385,4_0_11:0.00005513):0.00030900):0.00017135,4_0_7:0.00039444):0.00030584,4_0_6:0.00027489):0.00278862):0.03887853):0.00376751,(((((7_0_0:0.00001201,(7_0_7:0.00001084,7_0_12:0.00000749):0.00000063):0.00101993,((((7_0_2:0.00002531,(7_0_5:0.00000244,7_0_10:0.00000320):0.00007245):0.00000968,7_0_8:0.00001868):0.00007770,((7_0_4:0.00001956,7_0_11:0.00005989):0.00007637,(7_0_3:0.00001880,7_0_1:0.00007033):0.00001109):0.00001913):0.00000608,(7_0_9:0.00010015,7_0_6:0.00004809):0.00002489):0.00025276):0.00526883,((((((8_0_12:0.00000666,8_0_7:0.00000137):0.00049267,((8_0_5:0.00001022,8_0_8:0.00001312):0.00028177,8_0_11:0.00038435):0.00009681):0.00011907,12_0_9:0.00112793):0.00008817,(((((8_0_0:0.00008615,8_0_6:0.00008278):0.00004960,(8_0_1:0.00000856,8_0_3:0.00000236):0.00008615):0.00012238,(8_0_2:0.00001293,8_0_9:0.00000946):0.00041572):0.00024041,(8_0_10:0.00009346,8_0_4:0.00009498):0.00039627):0.00017743,(((12_0_12:0.00003157,12_0_8:0.00001190):0.00007722,(((12_0_5:0.00005608,(12_0_10:0.00000790,12_0_11:0.00000736):0.00003464):0.00002740,(12_0_3:0.00003348,(12_0_0:0.00003014,(12_0_4:0.00000472,12_0_7:0.00000355):0.00009151):0.00005229):0.00000652):0.00000761,(12_0_1:0.00001269,12_0_6:0.00001341):0.00011963):0.00004742):0.00021919,12_0_2:0.00056852):0.00054097):0.00016113):0.00113147,((((18_0_4:0.00004256,(((18_0_5:0.00000921,18_0_10:0.00000794):0.00000905,18_0_1:0.00003127):0.00001015,18_0_3:0.00001065):0.00000750):0.00000657,((18_0_9:0.00004307,18_0_7:0.00002783):0.00000680,18_0_0:0.00000851):0.00000711):0.00080050,((13_0_7:0.00014781,(13_0_1:0.00007573,(13_0_9:0.00003128,13_0_12:0.00003032):0.00010295):0.00003362):0.00008423,(((13_0_6:0.00000266,13_0_8:0.00000131):0.00001399,13_0_11:0.00005502):0.00001249,13_0_10:0.00008170):0.00031757):0.00038616):0.00079179,(((18_0_11:0.00044737,((18_0_12:0.00012607,18_0_2:0.00018757):0.00033932,(18_0_8:0.00002458,18_0_6:0.00010185):0.00010011):0.00004548):0.00036648,13_0_0:0.00033849):0.00000350,((13_0_2:0.00000048,13_0_3:0.00000041):0.00001798,(13_0_4:0.00001876,13_0_5:0.00000704):0.00006290):0.00075604):0.00062832):0.00213253):0.00116544,((((16_0_3:0.00003723,16_0_5:0.00001376):0.00019798,(16_0_0:0.00028871,16_0_9:0.00013211):0.00011692):0.00013162,((16_0_4:0.00018778,(16_0_8:0.00009474,(16_0_6:0.00003480,16_0_10:0.00000590):0.00026495):0.00000275):0.00024666,16_0_2:0.00014170):0.00002076):0.00026608,((16_0_12:0.00000328,(16_0_7:0.00001142,16_0_11:0.00001541):0.00000667):0.00026657,16_0_1:0.00016686):0.00160605):0.00100965):0.00107362):0.00295705,(((((14_0_5:0.00000066,14_0_10:0.00000115):0.00006222,(14_0_9:0.00002458,14_0_1:0.00001920):0.00005486):0.00007109,14_0_2:0.00022822):0.00174631,((((((((10_0_0:0.00001018,10_0_4:0.00001965):0.00001516,10_0_8:0.00003971):0.00001495,10_0_10:0.00008987):0.00001826,10_0_7:0.00011132):0.00002471,10_0_6:0.00014735):0.00016165,((10_0_5:0.00005306,10_0_3:0.00001122):0.00000664,((10_0_12:0.00000319,10_0_2:0.00001315):0.00001609,10_0_9:0.00004436):0.00002128):0.00025207):0.00002709,(10_0_11:0.00004230,10_0_1:0.00010486):0.00019443):0.00231435,(((14_0_0:0.00000040,14_0_6:0.00000042):0.00018274,(14_0_3:0.00006638,14_0_7:0.00007520):0.00003462):0.00000708,((14_0_12:0.00006108,14_0_8:0.00004675):0.00003479,(14_0_11:0.00001137,14_0_4:0.00001461):0.00010863):0.00003046):0.00179727):0.00056783):0.00727690,((((11_0_10:0.00015530,((11_0_9:0.00000711,11_0_3:0.00000116):0.00001614,11_0_12:0.00004085):0.00003907):0.00006586,(((11_0_0:0.00000332,11_0_8:0.00000276):0.00003332,11_0_6:0.00004854):0.00006703,((11_0_11:0.00000055,11_0_5:0.00000029):0.00000367,11_0_1:0.00000873):0.00009559):0.00012041):0.00099345,((11_0_4:0.00015648,11_0_2:0.00012645):0.00004719,11_0_7:0.00063930):0.00120782):0.00291683,(((((15_0_8:0.00006492,15_0_4:0.00006600):0.00001076,15_0_2:0.00002467):0.00010268,15_0_6:0.00037394):0.00006618,((15_0_12:0.00004388,15_0_11:0.00007008):0.00001761,((15_0_5:0.00001572,15_0_10:0.00001840):0.00000516,(15_0_1:0.00001003,15_0_3:0.00000788):0.00001428):0.00002308):0.00014644):0.00069752,(15_0_7:0.00002740,(15_0_9:0.00000788,15_0_0:0.00000676):0.00002363):0.00073578):0.00666408):0.00529187):0.00156565):0.00892357,((17_0_9:0.00064535,((((17_0_11:0.00013295,17_0_12:0.00005769):0.00000212,17_0_3:0.00006530):0.00002698,(((17_0_0:0.00000188,17_0_8:0.00000102):0.00001376,17_0_4:0.00004484):0.00006179,(17_0_10:0.00002874,17_0_7:0.00001326):0.00014956):0.00002604):0.00023275,(((17_0_2:0.00007185,17_0_5:0.00003489):0.00011704,17_0_1:0.00021803):0.00016385,17_0_6:0.00069741):0.00008362):0.00022911):0.00658618,((9_0_3:0.00042991,(9_0_2:0.00002821,(9_0_7:0.00000828,9_0_10:0.00004361):0.00000671):0.00009693):0.00020380,((9_0_5:0.00005622,((9_0_0:0.00001275,9_0_4:0.00000700):0.00004892,9_0_6:0.00013392):0.00011042):0.00001887,((9_0_9:0.00000874,9_0_8:0.00001217):0.00015248,((9_0_12:0.00002085,9_0_1:0.00008365):0.00004343,9_0_11:0.00003145):0.00011906):0.00020068):0.00002473):0.00688547):0.01770181):0.00782520):0.02456731);
[TREE] T04 (((((((6_0_7:0.00003223,6_0_1:0.00013994):0.00026447,(6_0_9:0.00013510,((6_0_4:0.00001192,6_0_8:0.00001689):0.00002353,6_0_12:0.00004712):0.00021242):0.00016539):0.00016924,((6_0_11:0.00002446,((6_0_3:0.00000559,6_0_6:0.00000955):0.00000923,(6_0_5:0.00000637,6_0_0:0.00000371):0.00000595):0.00003458):0.00000463,(6_0_2:0.00001122,6_0_10:0.00002091):0.00002655):0.00054744):0.00241798,((4_0_0:0.00002038,4_0_6:0.00003820):0.00097829,((((4_0_12:0.00004125,(4_0_10:0.00002751,(4_0_5:0.00001893,4_0_1:0.00000880):0.00001289):0.00000731):0.00014685,4_0_9:0.00014926):0.00013637,(4_0_7:0.00008965,(4_0_3:0.00005803,(4_0_8:0.00000784,4_0_2:0.00000521):0.00003694):0.00004512):0.00007137):0.00028604,(4_0_11:0.00005114,4_0_4:0.00004393):0.00014873):0.00023173):0.00148195):0.02009915,(((1_0_9:0.00018450,((1_0_4:0.00003220,1_0_12:0.00001020):0.00000447,1_0_5:0.00003985):0.00006096):0.00004464,((1_0_8:0.00012705,(((1_0_7:0.00000393,1_0_11:0.00000716):0.00000219,1_0_1:0.00000872):0.00015406,1_0_0:0.00006431):0.00003647):0.00001352,(((1_0_6:0.00000169,1_0_10:0.00000405):0.00000022,1_0_3:0.00000273):0.00010113,1_0_2:0.00005274):0.00001548):0.00017594):0.00242447,((((5_0_7:0.00002616,(5_0_10:0.00000005,5_0_6:0.00000015):0.00001300):0.00039257,((((5_0_3:0.00006899,5_0_8:0.00001984):0.00018731,5_0_0:0.00015343):0.00000653,5_0_12:0.00008032):0.00033704,((5_0_9:0.00007025,(5_0_1:0.00008717,5_0_2:0.00011710):0.00000355):0.00033879,(5_0_5:0.00007544,(5_0_11:0.00000430,5_0_4:0.00000796):0.00001862):0.00015387):0.00020197):0.00006321):0.00026527,((((3_0_9:0.00000486,3_0_7:0.00000224):0.00005504,3_0_6:0.00002526):0.00074624,(3_0_1:0.00075441,((3_0_5:0.00009715,3_0_12:0.00007493):0.00004199,3_0_4:0.00004763):0.00036882):0.00009671):0.00012301,(((3_0_11:0.00002085,3_0_8:0.00002433):0.00002184,(3_0_0:0.00002424,(3_0_2:0.00002746,3_0_3:0.00003326):0.00001666):0.00005237):0.00003894,3_0_10:0.00020269):0.00110811):0.00026680):0.00092478,(((2_0_5:0.00005508,(2_0_10:0.00001025,2_0_9:0.00000828):0.00001180):0.00006636,2_0_3:0.00024973):0.00008284,(((2_0_12:0.00002079,2_0_6:0.00001737):0.00015696,2_0_1:0.00013242):0.00005469,(((2_0_0:0.00000499,2_0_2:0.00000777):0.00000980,2_0_4:0.00000685):0.00012072,(2_0_7:0.00002348,(2_0_11:0.00000581,2_0_8:0.00000303):0.00003238):0.00003429):0.00003626):0.00081585):0.00283465):0.00089150):0.00730582):0.00876746,((((((7_0_6:0.00031042,(7_0_1:0.00002524,(7_0_2:0.00005083,7_0_9:0.00003731):0.00006239):0.00027722):0.00025588,((7_0_10:0.00025003,7_0_4:0.00005221):0.00003649,7_0_5:0.00008535):0.00008282):0.00052722,(((7_0_8:0.00001246,(7_0_12:0.00001765,7_0_11:0.00001601):0.00000407):0.00004529,(7_0_3:0.00000191,7_0_0:0.00000334):0.00004282):0.00006383,7_0_7:0.00010791):0.00035704):0.01124750,((((16_0_0:0.00001155,(16_0_6:0.00000864,16_0_4:0.00000880):0.00000134):0.00022695,((16_0_3:0.00006732,((16_0_8:0.00000697,16_0_9:0.00000736):0.00002984,16_0_12:0.00003644):0.00001129):0.00016019,(((16_0_10:0.00002462,16_0_2:0.00004825):0.00000867,16_0_7:0.00004270):0.00001240,(16_0_1:0.00000369,16_0_11:0.00000494):0.00005706):0.00021479):0.00008261):0.00093171,16_0_5:0.00205682):0.00137214,(((((18_0_11:0.00013812,(18_0_6:0.00006022,18_0_10:0.00002163):0.00006117):0.00003421,(18_0_9:0.00014068,(((18_0_12:0.00003138,18_0_4:0.00000813):0.00001670,18_0_7:0.00005265):0.00008370,(18_0_3:0.00002295,(18_0_8:0.00001717,18_0_1:0.00002159):0.00001008):0.00006681):0.00006797):0.00005007):0.00096476,((((((13_0_9:0.00001226,13_0_10:0.00001085):0.00006832,13_0_4:0.00010881):0.00004713,13_0_7:0.00003003):0.00007532,((((13_0_5:0.00000540,13_0_8:0.00000599):0.00000114,13_0_3:0.00000574):0.00000235,13_0_12:0.00001387):0.00020403,((13_0_11:0.00003089,13_0_2:0.00004233):0.00008565,(13_0_6:0.00013142,13_0_0:0.00008157):0.00003970):0.00007579):0.00005997):0.00003400,13_0_1:0.00038570):0.00023739,(18_0_5:0.00004963,(18_0_2:0.00001546,18_0_0:0.00000699):0.00003508):0.00035364):0.00087661):0.00015348,(12_0_6:0.00146891,((8_0_11:0.00006174,(8_0_3:0.00018891,(8_0_1:0.00000807,(8_0_10:0.00000318,8_0_12:0.00000324):0.00001598):0.00010084):0.00006565):0.00021998,((((8_0_4:0.00000444,8_0_6:0.00000207):0.00006104,8_0_2:0.00004889):0.00004134,((8_0_0:0.00003209,8_0_8:0.00003156):0.00010795,8_0_5:0.00020009):0.00006392):0.00039194,((((12_0_10:0.00009153,12_0_4:0.00002314):0.00008467,((12_0_5:0.00040374,((12_0_9:0.00001505,12_0_12:0.00000778):0.00004983,(12_0_0:0.00001836,12_0_8:0.00001622):0.00003180):0.00001332):0.00002322,12_0_3:0.00004629):0.00000477):0.00000517,12_0_11:0.00014953):0.00006523,((12_0_1:0.00009298,12_0_2:0.00006343):0.00000122,12_0_7:0.00001651):0.00009872):0.00018251):0.00002090):0.00006680):0.00164660):0.00031154,(8_0_9:0.00003795,8_0_7:0.00005879):0.00099749):0.00221515):0.00337906):0.00604399,(((((10_0_9:0.00004392,10_0_10:0.00002598):0.00017676,((10_0_4:0.00023837,10_0_5:0.00009462):0.00004097,((10_0_7:0.00004186,10_0_1:0.00006713):0.00002053,(10_0_11:0.00003000,10_0_8:0.00004264):0.00001150):0.00003706):0.00002071):0.00053069,(((10_0_12:0.00017735,10_0_6:0.00008531):0.00025752,10_0_2:0.00012289):0.00001045,(10_0_0:0.00008099,10_0_3:0.00017645):0.00015794):0.00048309):0.00195742,((((14_0_4:0.00019611,((14_0_5:0.00000481,(14_0_3:0.00000600,14_0_12:0.00000362):0.00000047):0.00007415,14_0_6:0.00011048):0.00016840):0.00002188,14_0_2:0.00016908):0.00025195,(((14_0_8:0.00000962,14_0_9:0.00001607):0.00004205,14_0_0:0.00005891):0.00002946,14_0_7:0.00008680):0.00072308):0.00091247,(14_0_10:0.00010310,(14_0_11:0.00000684,14_0_1:0.00000664):0.00004087):0.00100668):0.00034940):0.00654134,(((15_0_7:0.00004508,15_0_3:0.00003599):0.00075353,(((15_0_2:0.00006346,(((15_0_4:0.00000179,15_0_6:0.00000204):0.00002592,15_0_11:0.00002145):0.00001193,15_0_8:0.00001127):0.00003288):0.00012068,(15_0_9:0.00008724,15_0_12:0.00003155):0.00015383):0.00006194,(((15_0_0:0.00001698,15_0_1:0.00001568):0.00001365,15_0_10:0.00005636):0.00002199,15_0_5:0.00004865):0.00026727):0.00020793):0.00525042,((((11_0_4:0.00002695,11_0_8:0.00001362):0.00009605,11_0_0:0.00012324):0.00022946,((11_0_7:0.00000662,11_0_3:0.00000908):0.00016838,(11_0_2:0.00007082,(11_0_11:0.00002134,11_0_5:0.00002073):0.00002833):0.00016810):0.00012599):0.00034108,(11_0_1:0.00049433,(11_0_9:0.00007294,(11_0_10:0.00003539,(11_0_12:0.00000233,11_0_6:0.00000091):0.00009854):0.00001976):0.00016157):0.00038325):0.00531270):0.00546251):0.00926262):0.00552031,(((((9_0_1:0.00010976,(9_0_9:0.00000096,9_0_0:0.00001625):0.00003436):0.00007872,((9_0_10:0.00002343,9_0_11:0.00002327):0.00000278,9_0_12:0.00003880):0.00006934):0.00004013,((9_0_5:0.00003517,(9_0_3:0.00002143,9_0_4:0.00001230):0.00004901):0.00001046,(9_0_6:0.00007050,9_0_8:0.00006475):0.00002929):0.00002147):0.00005497,(9_0_2:0.00004214,9_0_7:0.00003312):0.00016983):0.00625967,(17_0_6:0.00058452,(((17_0_10:0.00002193,17_0_11:0.00002651):0.00018808,((17_0_3:0.00003340,17_0_0:0.00001875):0.00001262,(17_0_1:0.00002243,17_0_7:0.00004998):0.00010290):0.00011286):0.00012324,((((17_0_12:0.00001583,17_0_8:0.00000668):0.00004105,17_0_2:0.00012712):0.00000466,(17_0_5:0.00000922,17_0_9:0.00003831):0.00007651):0.00004595,17_0_4:0.00027576):0.00008430):0.00110325):0.00630524):0.01227148):0.00428184):0.01456242,0_0_0:0.02737315);
[TREE] T05 (0_0_0:0.04469568,((((((((6_0_12:0.00001512,6_0_8:0.00001233):0.00002057,((6_0_10:0.00001067,6_0_0:0.00001864):0.00002255,6_0_7:0.00001412):0.00001010):0.00038639,((6_0_6:0.00000236,6_0_2:0.00000639):0.00037999,(6_0_1:0.00011214,6_0_9:0.00016846):0.00008950):0.00023784):0.00008611,6_0_4:0.00034775):0.00051920,((6_0_5:0.00013205,6_0_11:0.00004794):0.00001280,6_0_3:0.00006234):0.00051594):0.00302122,((((4_0_3:0.00005124,4_0_12:0.00008450):0.00002619,((4_0_10:0.00004019,4_0_8:0.00007402):0.00000352,4_0_5:0.00002936):0.00003500):0.00048852,((4_0_0:0.00005418,4_0_9:0.00001772):0.00050446,(4_0_1:0.00004832,4_0_11:0.00003850):0.00046009):0.00013087):0.00040571,(((4_0_6:0.00000648,4_0_2:0.00000445):0.00000189,4_0_4:0.00000412):0.00002621,4_0_7:0.00003143):0.00094629):0.00317579):0.00963680,(((((((3_0_7:0.00004890,3_0_5:0.00002534):0.00011833,(3_0_4:0.00001925,3_0_6:0.00000403):0.00014030):0.00011145,((3_0_2:0.00014688,(3_0_0:0.00003933,(3_0_3:0.00006820,3_0_9:0.00005153):0.00000088):0.00011173):0.00015757,3_0_1:0.00039960):0.00003331):0.00001638,(3_0_8:0.00000899,((3_0_11:0.00000295,3_0_12:0.00000382):0.00000601,3_0_10:0.00001033):0.00000248):0.00026593):0.00058249,((((5_0_1:0.00002139,(5_0_3:0.00002495,5_0_12:0.00003452):0.00002568):0.00015150,(5_0_6:0.00010013,(5_0_2:0.00009313,((5_0_0:0.00007324,5_0_7:0.00010032):0.00000046,5_0_10:0.00009177):0.00004818):0.00001238):0.00005455):0.00000204,5_0_9:0.00012430):0.00034374,(5_0_8:0.00076085,(5_0_11:0.00017790,(5_0_5:0.00002798,5_0_4:0.00002045):0.00005053):0.00030917):0.00022392):0.00024627):0.00314268,(((2_0_3:0.00000280,2_0_12:0.00000675):0.00041729,((2_0_2:0.00012392,2_0_8:0.00010683):0.00010982,((((2_0_11:0.00002677,2_0_7:0.00001206):0.00005558,2_0_1:0.00009980):0.00002133,2_0_5:0.00010530):0.00003041,(2_0_0:0.00004124,2_0_4:0.00002532):0.00011970):0.00002668):0.00030480):0.00012827,(2_0_9:0.00019934,(2_0_6:0.00004561,2_0_10:0.00008529):0.00023472):0.00031560):0.00245527):0.00008414,((1_0_4:0.00003276,1_0_3:0.00010689):0.00056795,((((1_0_11:0.00001775,(1_0_6:0.00000642,1_0_10:0.00000284):0.00000765):0.00004791,1_0_9:0.00004099):0.00007415,(1_0_2:0.00005392,((1_0_12:0.00003566,(1_0_5:0.00000247,1_0_0:0.00000270):0.00004325):0.00000004,1_0_7:0.00002696):0.00001580):0.00014644):0.00014386,(1_0_8:0.00002721,1_0_1:0.00002080):0.00009246):0.00064552):0.00349280):0.01167648):0.00356574,((((((((10_0_8:0.00000065,10_0_6:0.00000122):0.00013339,10_0_12:0.00004685):0.00035217,((((10_0_11:0.00000294,10_0_0:0.00000071):0.00009026,(10_0_4:0.00000481,10_0_3:0.00000761):0.00014231):0.00011960,10_0_1:0.00030052):0.00002177,(10_0_5:0.00013697,(10_0_10:0.00005607,(10_0_2:0.00002912,(10_0_9:0.00000957,10_0_7:0.00001026):0.00006911):0.00007652):0.00004573):0.00016781):0.00026558):0.00155612,(14_0_2:0.00017943,((14_0_0:0.00001639,14_0_6:0.00005234):0.00001026,14_0_5:0.00004424):0.00003301):0.00171594):0.00006786,(((14_0_12:0.00007474,14_0_10:0.00001421):0.00023617,(14_0_7:0.00000933,(((14_0_3:0.00000158,14_0_9:0.00000282):0.00000311,14_0_11:0.00000674):0.00000007,14_0_1:0.00000410):0.00000684):0.00022849):0.00004091,(14_0_8:0.00001802,14_0_4:0.00009516):0.00010353):0.00273279):0.00260507,((((15_0_3:0.00000642,15_0_0:0.00000478):0.00000534,(15_0_8:0.00000192,15_0_12:0.00000148):0.00003375):0.00046907,((((15_0_4:0.00009901,15_0_1:0.00008091):0.00001237,15_0_2:0.00003469):0.00007760,((15_0_7:0.00011312,15_0_10:0.00009845):0.00000815,(15_0_5:0.00000953,15_0_11:0.00002185):0.00003082):0.00000142):0.00008209,(15_0_9:0.00000041,15_0_6:0.00000020):0.00015562):0.00020183):0.00528327,((11_0_3:0.00008395,(11_0_1:0.00001270,11_0_5:0.00002893):0.00005244):0.00028619,(11_0_4:0.00022745,(((((11_0_7:0.00003828,11_0_10:0.00001160):0.00000671,11_0_2:0.00001943):0.00013399,((11_0_9:0.00000794,11_0_0:0.00000611):0.00000101,11_0_11:0.00000489):0.00016501):0.00005571,11_0_12:0.00035777):0.00004549,(11_0_6:0.00005313,11_0_8:0.00008251):0.00018605):0.00001899):0.00000371):0.00530160):0.00414785):0.00734535,((((((7_0_9:0.00007390,7_0_10:0.00006797):0.00000047,7_0_11:0.00006041):0.00012439,(7_0_7:0.00001488,7_0_5:0.00002284):0.00020116):0.00002086,7_0_8:0.00040274):0.00028800,((7_0_6:0.00000952,7_0_0:0.00000473):0.00016397,((7_0_3:0.00014220,((7_0_2:0.00000170,7_0_1:0.00000298):0.00000032,7_0_4:0.00000470):0.00002060):0.00002399,7_0_12:0.00005642):0.00005080):0.00068142):0.00468310,(((((12_0_4:0.00000768,12_0_10:0.00001443):0.00013877,12_0_3:0.00012041):0.00076513,((((((((8_0_10:0.00000044,8_0_5:0.00000073):0.00001989,8_0_11:0.00003391):0.00000028,8_0_7:0.00004217):0.00018050,((8_0_3:0.00000764,8_0_12:0.00001060):0.00019026,8_0_6:0.00003776):0.00009838):0.00012412,(8_0_4:0.00006414,((8_0_0:0.00002462,(8_0_2:0.00000131,8_0_1:0.00000899):0.00004308):0.00002465,8_0_9:0.00005167):0.00000119):0.00031938):0.00037336,8_0_8:0.00081606):0.00006449,((12_0_8:0.00000612,12_0_6:0.00001918):0.00011312,(12_0_9:0.00013358,12_0_0:0.00011483):0.00023887):0.00025810):0.00004882,(12_0_2:0.00016235,(12_0_5:0.00005594,((12_0_11:0.00004853,12_0_1:0.00003844):0.00014196,(12_0_7:0.00006005,12_0_12:0.00005474):0.00005014):0.00017752):0.00006756):0.00057355):0.00010063):0.00181021,(((18_0_4:0.00003981,18_0_9:0.00004699):0.00049309,(18_0_12:0.00003794,18_0_8:0.00003244):0.00060300):0.00097277,(((13_0_5:0.00002204,13_0_4:0.00002320):0.00040703,(((((13_0_12:0.00006525,13_0_7:0.00008629):0.00005799,13_0_9:0.00001391):0.00004287,(((13_0_3:0.00000421,13_0_10:0.00000215):0.00002636,13_0_11:0.00001356):0.00000911,13_0_0:0.00006244):0.00012737):0.00020781,(13_0_8:0.00040580,(13_0_2:0.00013476,(13_0_1:0.00002636,13_0_6:0.00002508):0.00004529):0.00028974):0.00000872):0.00001539,((18_0_2:0.00005087,((18_0_5:0.00000659,18_0_11:0.00001066):0.00000079,18_0_1:0.00000670):0.00004849):0.00008411,(18_0_6:0.00004170,18_0_10:0.00022112):0.00003879):0.00035563):0.00000345):0.00038119,(18_0_3:0.00015260,(18_0_7:0.00004667,18_0_0:0.00003404):0.00023259):0.00056761):0.00038440):0.00046268):0.00593191,(((((16_0_5:0.00007152,(16_0_12:0.00003370,16_0_2:0.00001797):0.00007453):0.00000049,(((16_0_9:0.00000328,16_0_0:0.00000382):0.00004037,16_0_7:0.00002339):0.00000863,(16_0_1:0.00000108,16_0_6:0.00000060):0.00005775):0.00002895):0.00011172,16_0_4:0.00034285):0.00030009,((16_0_10:0.00002415,16_0_11:0.00015428):0.00019358,16_0_3:0.00010219):0.00015636):0.00063655,16_0_8:0.00128742):0.00217629):0.00092382):0.00548933):0.00800600,(((((9_0_5:0.00030312,(9_0_3:0.00011639,((9_0_0:0.00008589,9_0_12:0.00008211):0.00001720,9_0_7:0.00011701):0.00001211):0.00018124):0.00031402,(((9_0_9:0.00000332,9_0_10:0.00001407):0.00006292,9_0_4:0.00003942):0.00001242,9_0_11:0.00003201):0.00014365):0.00013706,(9_0_1:0.00000648,9_0_2:0.00000241):0.00151247):0.00043486,(9_0_8:0.00006870,9_0_6:0.00010210):0.00030706):0.00245684,((((17_0_7:0.00000584,17_0_10:0.00000443):0.00003229,17_0_0:0.00003065):0.00012634,(17_0_4:0.00019647,((17_0_11:0.00002603,(17_0_6:0.00001716,17_0_9:0.00002731):0.00001151):0.00004152,17_0_2:0.00005140):0.00002033):0.00014335):0.00142003,((17_0_8:0.00047894,(17_0_5:0.00035247,(17_0_3:0.00005758,17_0_1:0.00004709):0.00086079):0.00010371):0.00011012,17_0_12:0.00084733):0.00099609):0.00170504):0.01128339):0.00176685):0.01384108);
[TREE] T06 (0_0_0:0.07327202,(((((((((17_0_10:0.00003948,(17_0_2:0.00000975,17_0_9:0.00000666):0.00005542):0.00003580,17_0_11:0.00016406):0.00002982,(17_0_7:0.00001418,17_0_8:0.00001716):0.00028736):0.00002072,(17_0_12:0.00008856,17_0_0:0.00023927):0.00009165):0.00013606,((17_0_4:0.00001621,17_0_6:0.00002821):0.00003382,17_0_5:0.00008694):0.00044066):0.00018933,(17_0_3:0.00002186,17_0_1:0.00003945):0.00013707):0.00508325,((((9_0_12:0.00009255,9_0_4:0.00006595):0.00002125,(9_0_9:0.00007843,(9_0_11:0.00002522,9_0_3:0.00002443):0.00009651):0.00004411):0.00018901,((9_0_10:0.00000267,9_0_1:0.00000124):0.00010525,9_0_0:0.00006449):0.00022896):0.00047360,((9_0_2:0.00004914,((9_0_5:0.00001671,9_0_6:0.00003516):0.00002724,9_0_7:0.00008482):0.00004362):0.00020681,9_0_8:0.00031348):0.00024192):0.00365398):0.01072243,(((((((11_0_3:0.00030264,11_0_5:0.00016642):0.00002077,(11_0_1:0.00002920,(11_0_2:0.00004690,11_0_6:0.00001943):0.00000236):0.00074565):0.00005152,((11_0_11:0.00003262,11_0_4:0.00003124):0.00007507,(11_0_10:0.00009616,(11_0_8:0.00002559,11_0_9:0.00002354):0.00003533):0.00006705):0.00029203):0.00016251,(11_0_0:0.00017380,(11_0_12:0.00003243,11_0_7:0.00005331):0.00005096):0.00068329):0.00512869,((15_0_2:0.00009268,15_0_8:0.00003613):0.00185696,((15_0_3:0.00013577,(15_0_11:0.00000181,15_0_5:0.00000148):0.00008699):0.00066009,((15_0_7:0.00018190,(((15_0_12:0.00000224,15_0_9:0.00000434):0.00001147,15_0_0:0.00004152):0.00000851,15_0_6:0.00002886):0.00001002):0.00034113,(15_0_10:0.00003327,(15_0_4:0.00000018,15_0_1:0.00000005):0.00002565):0.00068198):0.00036632):0.00015232):0.00124813):0.00362738,(((((10_0_1:0.00002306,10_0_7:0.00004535):0.00003720,((10_0_11:0.00000501,10_0_6:0.00000849):0.00000083,10_0_3:0.00000790):0.00007011):0.00003704,(10_0_4:0.00010329,10_0_0:0.00016637):0.00005532):0.00096964,(((10_0_8:0.00000486,10_0_5:0.00001528):0.00020846,(10_0_9:0.00000658,10_0_2:0.00000645):0.00017186):0.00005716,(10_0_12:0.00023556,10_0_10:0.00030590):0.00004070):0.00154234):0.00136917,(14_0_1:0.00048993,(((14_0_9:0.00012686,(14_0_2:0.00005207,14_0_5:0.00012698):0.00003512):0.00013798,(((14_0_7:0.00003415,(14_0_11:0.00001474,14_0_10:0.00002085):0.00001176):0.00003867,14_0_12:0.00004604):0.00006035,14_0_0:0.00009228):0.00028350):0.00000398,(14_0_6:0.00009603,(14_0_4:0.00002847,(14_0_8:0.00002175,14_0_3:0.00000822):0.00002709):0.00007996):0.00013790):0.00018935):0.00152659):0.00514246):0.00115096,((((7_0_4:0.00007694,7_0_9:0.00001664):0.00026451,((7_0_3:0.00012667,(7_0_6:0.00003072,7_0_0:0.00011623):0.00001889):0.00010436,((7_0_5:0.00009730,(7_0_10:0.00001105,7_0_2:0.00001436):0.00001959):0.00000633,(7_0_12:0.00003346,7_0_1:0.00005596):0.00001592):0.00019243):0.00024959):0.00160828,(7_0_7:0.00009411,(7_0_11:0.00006239,7_0_8:0.00002249):0.00000798):0.00189251):0.00607328,(((16_0_6:0.00030002,(16_0_0:0.00009141,(16_0_12:0.00016148,(16_0_3:0.00005023,16_0_8:0.00003459):0.00015788):0.00003428):0.00001420):0.00058522,((((16_0_2:0.00001014,16_0_5:0.00000782):0.00000858,16_0_11:0.00000707):0.00000688,16_0_10:0.00001484):0.00053476,(16_0_9:0.00008779,(16_0_7:0.00008801,(16_0_4:0.00010655,16_0_1:0.00007765):0.00004164):0.00007079):0.00138122):0.00027685):0.00544188,((((13_0_11:0.00012975,(((13_0_2:0.00000148,13_0_4:0.00000137):0.00000190,13_0_3:0.00000102):0.00005725,13_0_10:0.00012668):0.00006611):0.00050219,18_0_7:0.00087907):0.00047274,(((8_0_1:0.00002372,(8_0_2:0.00002049,(8_0_0:0.00000336,8_0_6:0.00000194):0.00002386):0.00001976):0.00018118,(((8_0_3:0.00000334,8_0_9:0.00000541):0.00000421,8_0_10:0.00002101):0.00008679,8_0_12:0.00002267):0.00005965):0.00050307,12_0_10:0.00028173):0.00256360):0.00004960,((((18_0_4:0.00014924,(((18_0_9:0.00003673,(18_0_6:0.00000822,(18_0_8:0.00000029,18_0_11:0.00000052):0.00000470):0.00003769):0.00001234,18_0_2:0.00004865):0.00000307,(18_0_5:0.00000201,18_0_0:0.00000370):0.00003453):0.00020153):0.00017303,((18_0_3:0.00000129,18_0_10:0.00000200):0.00013080,(18_0_1:0.00000861,18_0_12:0.00000546):0.00026921):0.00001979):0.00031849,(((13_0_6:0.00000827,13_0_0:0.00000866):0.00001191,(13_0_7:0.00001605,13_0_9:0.00000937):0.00003943):0.00005645,((13_0_12:0.00000908,(13_0_1:0.00001869,13_0_5:0.00000423):0.00000716):0.00003559,13_0_8:0.00003840):0.00002822):0.00043758):0.00098194,(((8_0_5:0.00002610,8_0_7:0.00000903):0.00003436,((8_0_8:0.00001101,8_0_4:0.00000633):0.00004990,8_0_11:0.00004244):0.00003745):0.00062451,(((12_0_4:0.00011091,((12_0_2:0.00001541,12_0_8:0.00002010):0.00001738,12_0_1:0.00008515):0.00001213):0.00003115,12_0_0:0.00005861):0.00006362,((12_0_3:0.00002123,(12_0_12:0.00000158,12_0_6:0.00000329):0.00000955):0.00003658,((12_0_11:0.00000685,12_0_7:0.00001005):0.00003533,(12_0_5:0.00000696,12_0_9:0.00000675):0.00003098):0.00003861):0.00011308):0.00018556):0.00069267):0.00051318):0.00307496):0.00193804):0.01228060):0.01393730):0.00272743,((((6_0_8:0.00000191,6_0_1:0.00000193):0.00265507,((6_0_10:0.00001366,6_0_4:0.00005881):0.00016645,(((6_0_3:0.00001246,6_0_5:0.00000860):0.00006190,(6_0_9:0.00005118,6_0_11:0.00013275):0.00001572):0.00000474,(6_0_0:0.00005147,(6_0_12:0.00002336,((6_0_7:0.00000816,6_0_6:0.00000203):0.00001552,6_0_2:0.00000853):0.00000342):0.00000964):0.00001757):0.00023900):0.00050798):0.00479097,((((((4_0_11:0.00003461,(4_0_7:0.00000591,4_0_8:0.00000192):0.00000896):0.00002884,4_0_1:0.00002897):0.00004024,(4_0_12:0.00003644,4_0_0:0.00001567):0.00003998):0.00005093,((4_0_9:0.00001608,4_0_10:0.00005250):0.00005930,4_0_2:0.00010573):0.00007892):0.00001017,4_0_5:0.00039176):0.00018300,((4_0_4:0.00001046,4_0_6:0.00001712):0.00010929,4_0_3:0.00010393):0.00030107):0.00366714):0.01909977,((((((((3_0_0:0.00003553,3_0_5:0.00009045):0.00000835,(((3_0_2:0.00000018,3_0_8:0.00000011):0.00000627,3_0_10:0.00001006):0.00002028,((3_0_11:0.00002713,3_0_6:0.00002225):0.00000214,3_0_3:0.00002289):0.00001232):0.00001952):0.00001190,3_0_9:0.00009416):0.00040873,(3_0_1:0.00000690,3_0_4:0.00000398):0.00076202):0.00034258,(3_0_7:0.00069467,3_0_12:0.00026122):0.00108503):0.00011986,(((5_0_11:0.00000284,5_0_4:0.00000121):0.00000362,5_0_5:0.00000293):0.00027783,(((5_0_3:0.00010753,((5_0_10:0.00000497,5_0_12:0.00002213):0.00000133,5_0_0:0.00000967):0.00001638):0.00002446,(5_0_8:0.00002145,5_0_6:0.00003978):0.00003100):0.00020000,((5_0_9:0.00000705,5_0_2:0.00000409):0.00015937,(5_0_7:0.00000044,5_0_1:0.00000522):0.00025789):0.00007641):0.00004220):0.00073847):0.00274133,(((((2_0_8:0.00008831,(2_0_9:0.00002598,2_0_5:0.00005237):0.00002327):0.00012634,((2_0_4:0.00001390,(2_0_0:0.00000377,2_0_2:0.00000827):0.00000166):0.00010472,(2_0_1:0.00000556,2_0_6:0.00001166):0.00006361):0.00004320):0.00021110,2_0_11:0.00060623):0.00010626,2_0_7:0.00035379):0.00043948,(2_0_10:0.00007359,(2_0_12:0.00004344,2_0_3:0.00001680):0.00003338):0.00033094):0.00087917):0.00149094,((((1_0_12:0.00000193,1_0_2:0.00000046):0.00003726,1_0_10:0.00006870):0.00005008,1_0_8:0.00015164):0.00115064,(((1_0_1:0.00006478,1_0_0:0.00002042):0.00006911,(1_0_4:0.00015365,1_0_7:0.00009143):0.00003191):0.00019102,(1_0_11:0.00024163,(((1_0_5:0.00000201,1_0_3:0.00000279):0.00000245,1_0_9:0.00000615):0.00014762,1_0_6:0.00009690):0.00001840):0.00002377):0.00053929):0.00575595):0.01679913):0.00830844):0.04874950);
[TREE] T07 (((((4_0_7:0.00080197,((((4_0_9:0.00000337,4_0_12:0.00000906):0.00011498,4_0_6:0.00023017):0.00005997,((4_0_5:0.00001824,4_0_11:0.00003184):0.00017246,(((4_0_3:0.00001792,4_0_8:0.00002410):0.00005170,4_0_1:0.00009456):0.00006040,4_0_2:0.00005230):0.00000368):0.00018144):0.00050586,(4_0_4:0.00031361,(4_0_10:0.00006702,4_0_0:0.00010558):0.00007603):0.00044330):0.00013003):0.00160566,(((((6_0_5:0.00000354,6_0_6:0.00000719):0.00015637,6_0_0:0.00003749):0.00005362,((6_0_9:0.00000957,6_0_11:0.00001447):0.00022131,6_0_12:0.00038416):0.00001536):0.00040368,(6_0_3:0.00014424,6_0_1:0.00012960):0.00053214):0.00000248,(((6_0_8:0.00001600,6_0_4:0.00000878):0.00001322,(6_0_7:0.00004141,6_0_10:0.00003145):0.00000841):0.00005544,6_0_2:0.00013987):0.00023097):0.00470572):0.01040562,((((2_0_3:0.00004791,((2_0_9:0.00001121,2_0_1:0.00001130):0.00000617,2_0_11:0.00002824):0.00007927):0.00012397,(2_0_2:0.00013274,((2_0_5:0.00002939,2_0_4:0.00004153):0.00000578,(2_0_8:0.00006458,2_0_0:0.00002055):0.00004908):0.00005396):0.00084302):0.00012379,((2_0_12:0.00000270,2_0_7:0.00000471):0.00040337,(2_0_6:0.00001428,2_0_10:0.00002232):0.00086238):0.00006903):0.00381382,(((((((1_0_0:0.00000005,1_0_3:0.00000002):0.00001120,(1_0_7:0.00000060,1_0_4:0.00000164):0.00000382):0.00015030,1_0_8:0.00031833):0.00003642,((1_0_1:0.00011764,1_0_5:0.00005757):0.00004501,1_0_11:0.00011711):0.00003958):0.00035601,(1_0_9:0.00001701,1_0_2:0.00005386):0.00047547):0.00001966,((1_0_12:0.00008475,1_0_10:0.00019082):0.00006449,1_0_6:0.00020741):0.00026670):0.00346940,((((3_0_7:0.00035090,((3_0_6:0.00000967,3_0_8:0.00002948):0.00007875,(3_0_9:0.00004605,(3_0_3:0.00006661,3_0_11:0.00008316):0.00000876):0.00016188):0.00008521):0.00041352,(3_0_1:0.00031662,(3_0_4:0.00004511,3_0_2:0.00003259):0.00009173):0.00023252):0.00039056,((5_0_11:0.00007955,5_0_2:0.00017966):0.00023504,(5_0_7:0.00052824,(((5_0_5:0.00004272,(5_0_0:0.00004680,5_0_1:0.00001180):0.00015269):0.00008725,((5_0_4:0.00014629,(5_0_9:0.00003462,(5_0_12:0.00001093,5_0_8:0.00002496):0.00001614):0.00001391):0.00002522,5_0_3:0.00004855):0.00010814):0.00001381,(5_0_6:0.00010307,5_0_10:0.00018812):0.00008712):0.00004790):0.00017174):0.00015901):0.00026797,(((3_0_12:0.00013585,3_0_10:0.00003936):0.00003774,3_0_5:0.00004682):0.00001469,3_0_0:0.00010733):0.00030717):0.00299317):0.00047282):0.03131176):0.00672702,((((17_0_0:0.00028480,(17_0_11:0.00011312,(17_0_9:0.00008385,17_0_2:0.00008505):0.00002794):0.00002538):0.00060741,((17_0_12:0.00017537,((17_0_6:0.00002828,(17_0_10:0.00004078,((17_0_8:0.00000136,17_0_7:0.00000397):0.00000337,17_0_3:0.00002300):0.00001243):0.00002975):0.00000879,17_0_5:0.00005332):0.00004255):0.00011644,(17_0_1:0.00004003,17_0_4:0.00004792):0.00016245):0.00122820):0.00124281,(((9_0_6:0.00001590,(9_0_11:0.00000503,9_0_9:0.00000376):0.00000612):0.00012840,(((9_0_0:0.00000288,9_0_1:0.00000563):0.00001607,(9_0_8:0.00000376,9_0_10:0.00000677):0.00000749):0.00014358,(9_0_7:0.00009637,9_0_3:0.00006287):0.00001391):0.00006408):0.00144169,((9_0_5:0.00005981,(9_0_12:0.00001869,9_0_2:0.00002389):0.00002011):0.00017916,9_0_4:0.00023911):0.00106639):0.00480431):0.01681940,(((((7_0_5:0.00021328,(7_0_10:0.00010142,(7_0_4:0.00005699,(7_0_7:0.00000107,7_0_9:0.00000119):0.00003511):0.00002222):0.00001297):0.00011371,((7_0_1:0.00008733,7_0_3:0.00010292):0.00057828,(((7_0_6:0.00003427,7_0_11:0.00003244):0.00010793,(7_0_0:0.00002580,7_0_8:0.00002213):0.00016352):0.00006171,7_0_12:0.00052410):0.00007775):0.00004069):0.00047257,7_0_2:0.00040417):0.00721132,(((((13_0_2:0.00041421,(13_0_12:0.00010174,(13_0_0:0.00006239,13_0_6:0.00008297):0.00006716):0.00034356):0.00081388,(13_0_1:0.00007275,((((13_0_4:0.00001666,13_0_11:0.00000708):0.00005775,13_0_10:0.00003129):0.00001375,((13_0_5:0.00003139,13_0_7:0.00002096):0.00001461,(13_0_3:0.00001647,13_0_8:0.00002641):0.00002118):0.00005574):0.00011210,13_0_9:0.00015665):0.00000750):0.00083099):0.00020687,((((18_0_9:0.00008791,(18_0_11:0.00005287,18_0_3:0.00004519):0.00001728):0.00004852,(((18_0_1:0.00000062,18_0_5:0.00000310):0.00001127,18_0_4:0.00001575):0.00000359,18_0_12:0.00001821):0.00021728):0.00015580,18_0_7:0.00022747):0.00008972,(18_0_8:0.00020979,(((18_0_10:0.00001444,18_0_6:0.00002117):0.00001240,18_0_0:0.00005427):0.00005748,18_0_2:0.00003176):0.00009097):0.00010178):0.00089272):0.00114363,((((12_0_5:0.00000161,12_0_4:0.00000046):0.00014939,(((12_0_3:0.00000325,12_0_0:0.00000610):0.00021498,(12_0_9:0.00002321,12_0_10:0.00001200):0.00014301):0.00003682,(12_0_2:0.00004546,(12_0_6:0.00003010,12_0_11:0.00000950):0.00002956):0.00021448):0.00007012):0.00006011,(12_0_1:0.00000736,12_0_12:0.00000660):0.00040341):0.00059352,(((8_0_4:0.00011110,(8_0_9:0.00008498,8_0_7:0.00009749):0.00000595):0.00002656,(8_0_5:0.00010849,(8_0_8:0.00004946,8_0_12:0.00003067):0.00002171):0.00005265):0.00031795,((12_0_7:0.00000076,12_0_8:0.00000052):0.00053709,((((8_0_0:0.00003828,8_0_2:0.00006196):0.00005208,(8_0_3:0.00004371,8_0_6:0.00007288):0.00018200):0.00008652,(8_0_11:0.00001364,8_0_1:0.00002632):0.00023623):0.00002208,8_0_10:0.00025236):0.00050746):0.00001133):0.00114669):0.00121837):0.00158808,(((16_0_8:0.00001047,16_0_11:0.00001468):0.00119816,((16_0_2:0.00007621,(((16_0_9:0.00002607,16_0_6:0.00001476):0.00006329,(16_0_5:0.00000089,16_0_4:0.00001259):0.00004570):0.00002786,16_0_3:0.00012354):0.00002584):0.00005529,16_0_0:0.00030523):0.00063664):0.00004680,((16_0_12:0.00000582,16_0_10:0.00000180):0.00008205,(16_0_7:0.00000708,16_0_1:0.00000773):0.00002909):0.00039448):0.00325727):0.00106665):0.00544825,(((((15_0_5:0.00003084,15_0_12:0.00005147):0.00053919,((15_0_4:0.00001266,15_0_10:0.00001609):0.00031882,((15_0_2:0.00000183,15_0_0:0.00000401):0.00012365,(15_0_11:0.00002833,15_0_8:0.00001907):0.00004314):0.00004976):0.00032491):0.00083404,((15_0_6:0.00000715,15_0_7:0.00001582):0.00003116,((15_0_1:0.00012282,15_0_3:0.00004468):0.00000673,15_0_9:0.00006768):0.00002502):0.00122066):0.00267854,(11_0_10:0.00082824,((11_0_8:0.00000254,11_0_12:0.00001009):0.00021423,((11_0_5:0.00020992,((((11_0_0:0.00001791,11_0_3:0.00001193):0.00000731,11_0_2:0.00002998):0.00005851,(11_0_7:0.00001570,11_0_1:0.00001170):0.00001684):0.00005096,11_0_9:0.00014431):0.00000189):0.00004497,(11_0_6:0.00025370,(11_0_4:0.00003785,11_0_11:0.00005716):0.00014244):0.00004830):0.00003634):0.00014716):0.00549532):0.00337125,((((((14_0_7:0.00004205,14_0_5:0.00001897):0.00001451,14_0_4:0.00005542):0.00000212,14_0_1:0.00002378):0.00048874,((14_0_2:0.00005283,14_0_3:0.00000903):0.00002333,((14_0_11:0.00000460,14_0_0:0.00000137):0.00002417,14_0_10:0.00006572):0.00006303):0.00037249):0.00003719,(((14_0_8:0.00001900,14_0_9:0.00002976):0.00000022,14_0_6:0.00001775):0.00005610,14_0_12:0.00013697):0.00087664):0.00144184,(((10_0_7:0.00007797,(10_0_5:0.00001579,10_0_0:0.00006420):0.00000947):0.00014538,(10_0_8:0.00001140,10_0_11:0.00001540):0.00009052):0.00113418,((10_0_10:0.00018341,(10_0_3:0.00004101,((10_0_12:0.00002684,(10_0_4:0.00004737,10_0_1:0.00002550):0.00000851):0.00000953,(10_0_6:0.00002527,10_0_9:0.00004026):0.00000733):0.00001274):0.00002954):0.00019010,10_0_2:0.00059071):0.00228080):0.00074378):0.01394083):0.00201562):0.00309524):0.01272018):0.01955055,0_0_0:0.05987991);
[TREE] T08 (0_0_0:0.06803651,(((((((((((16_0_5:0.00000617,16_0_8:0.00000466):0.00003822,16_0_1:0.00001910):0.00003285,(16_0_4:0.00000531,(16_0_3:0.00000311,16_0_12:0.00000842):0.00001047):0.00004497):0.00000011,(16_0_6:0.00001486,16_0_0:0.00004710):0.00000849):0.00003098,16_0_7:0.00008659):0.00007320,((16_0_2:0.00003129,16_0_9:0.00003050):0.00005120,(16_0_11:0.00005400,16_0_10:0.00004935):0.00009157):0.00014280):0.00646042,(((8_0_8:0.00007089,8_0_9:0.00010535):0.00078117,(((12_0_10:0.00014766,((12_0_7:0.00002452,(12_0_5:0.00002430,12_0_4:0.00001453):0.00000632):0.00004137,12_0_8:0.00002211):0.00009030):0.00015797,(12_0_12:0.00025069,((((12_0_0:0.00001116,12_0_3:0.00000226):0.00003152,12_0_1:0.00005820):0.00001745,12_0_9:0.00008855):0.00008635,((12_0_2:0.00001139,12_0_11:0.00002335):0.00001715,12_0_6:0.00003255):0.00019569):0.00006017):0.00004009):0.00078537,(((((8_0_10:0.00002414,(((8_0_3:0.00000096,8_0_0:0.00000663):0.00000459,8_0_12:0.00000426):0.00000350,8_0_1:0.00002000):0.00002587):0.00004003,(8_0_5:0.00000150,8_0_4:0.00000092):0.00002449):0.00005527,8_0_6:0.00007454):0.00000121,(8_0_2:0.00003971,8_0_11:0.00012031):0.00005706):0.00024444,8_0_7:0.00054881):0.00002852):0.00016886):0.00234347,((((((18_0_2:0.00002086,18_0_4:0.00001380):0.00000937,((18_0_5:0.00003110,(18_0_10:0.00001162,18_0_0:0.00000953):0.00000214):0.00003144,18_0_11:0.00002311):0.00000814):0.00018216,((18_0_12:0.00001057,18_0_8:0.00001478):0.00018958,18_0_1:0.00010541):0.00015001):0.00017269,(((((13_0_5:0.00000335,13_0_4:0.00000291):0.00008087,13_0_12:0.00007161):0.00000309,13_0_11:0.00005209):0.00003364,(13_0_8:0.00002799,13_0_2:0.00001981):0.00004798):0.00014889,(13_0_3:0.00010361,((13_0_9:0.00000054,13_0_0:0.00000130):0.00025703,(13_0_7:0.00008784,13_0_1:0.00006825):0.00005487):0.00009062):0.00003508):0.00028402):0.00004728,(13_0_10:0.00028441,13_0_6:0.00021521):0.00032774):0.00044057,(18_0_6:0.00023132,(18_0_9:0.00022213,(18_0_7:0.00005568,18_0_3:0.00004731):0.00004040):0.00009528):0.00112044):0.00093054):0.00292440):0.00016516,(((7_0_6:0.00011365,7_0_11:0.00015901):0.00079850,(7_0_2:0.00018445,(((7_0_4:0.00001312,7_0_10:0.00000296):0.00000339,7_0_0:0.00000786):0.00000349,7_0_8:0.00003095):0.00029935):0.00021985):0.00011519,(7_0_1:0.00006260,((7_0_5:0.00002281,(7_0_7:0.00000070,7_0_3:0.00000033):0.00003250):0.00001317,(7_0_9:0.00001413,7_0_12:0.00002422):0.00002960):0.00011435):0.00060012):0.00168125):0.00401313,(((((14_0_6:0.00001112,(14_0_8:0.00000207,14_0_2:0.00000085):0.00000943):0.00037346,(14_0_3:0.00028216,14_0_11:0.00006813):0.00013975):0.00233749,(14_0_1:0.00050761,(14_0_10:0.00034165,(((14_0_7:0.00011028,(14_0_12:0.00001577,14_0_5:0.00001333):0.00005970):0.00000552,(14_0_4:0.00004839,14_0_9:0.00006017):0.00000237):0.00009194,14_0_0:0.00005098):0.00005017):0.00016216):0.00061767):0.00029995,((((10_0_8:0.00016523,10_0_2:0.00013893):0.00007565,((10_0_3:0.00007403,10_0_1:0.00020432):0.00001082,(10_0_5:0.00005672,((10_0_0:0.00000193,10_0_11:0.00000098):0.00003451,((10_0_9:0.00003775,10_0_12:0.00002358):0.00000449,10_0_10:0.00001893):0.00000755):0.00001472):0.00016937):0.00002505):0.00004458,10_0_7:0.00036110):0.00114054,(10_0_6:0.00002328,10_0_4:0.00002904):0.00101237):0.00078278):0.00682902,(((15_0_2:0.00000457,15_0_10:0.00000826):0.00088586,((((15_0_9:0.00000608,15_0_4:0.00000712):0.00000598,15_0_6:0.00000637):0.00013489,((15_0_11:0.00000959,15_0_8:0.00000616):0.00040959,((15_0_7:0.00005912,(15_0_1:0.00002632,15_0_0:0.00001287):0.00001101):0.00005095,(15_0_3:0.00006826,15_0_12:0.00006455):0.00000295):0.00007900):0.00001551):0.00140152,15_0_5:0.00056286):0.00179541):0.00046644,((((11_0_1:0.00002458,11_0_0:0.00003617):0.00001392,11_0_4:0.00004349):0.00010070,((11_0_11:0.00003270,11_0_6:0.00003126):0.00002416,11_0_3:0.00012123):0.00004635):0.00096717,((((11_0_10:0.00006610,11_0_5:0.00003343):0.00000704,11_0_2:0.00001535):0.00005769,(11_0_12:0.00000652,11_0_7:0.00000422):0.00015931):0.00015733,(11_0_9:0.00006742,11_0_8:0.00010201):0.00029445):0.00042106):0.00380115):0.00386252):0.00082446):0.00764643,((((9_0_7:0.00000561,9_0_6:0.00000818):0.00006086,((9_0_10:0.00001033,9_0_3:0.00003109):0.00000061,9_0_2:0.00001931):0.00002911):0.00101393,(((9_0_12:0.00000725,9_0_1:0.00000162):0.00000931,9_0_11:0.00001193):0.00010009,(((9_0_9:0.00002300,9_0_8:0.00004084):0.00003714,(9_0_0:0.00003143,9_0_5:0.00003674):0.00002908):0.00003393,9_0_4:0.00007817):0.00004894):0.00047674):0.00610381,((((17_0_11:0.00015131,(17_0_7:0.00001998,17_0_1:0.00002830):0.00022439):0.00000128,17_0_0:0.00025055):0.00004709,((17_0_3:0.00005680,17_0_12:0.00002320):0.00033764,(17_0_8:0.00004060,((17_0_6:0.00001213,17_0_5:0.00000856):0.00006808,17_0_2:0.00002132):0.00000429):0.00011377):0.00003033):0.00002113,(17_0_4:0.00006769,(17_0_9:0.00003036,17_0_10:0.00004135):0.00000851):0.00023980):0.00683044):0.02211282):0.00557089,((((((4_0_2:0.00004260,(4_0_8:0.00003908,(4_0_4:0.00000853,4_0_9:0.00001162):0.00000679):0.00004137):0.00004614,((4_0_5:0.00000163,4_0_12:0.00000646):0.00013785,(4_0_3:0.00002524,(4_0_7:0.00002858,4_0_11:0.00000371):0.00000461):0.00011329):0.00001304):0.00015525,(4_0_1:0.00000243,4_0_10:0.00001942):0.00034505):0.00036712,(4_0_6:0.00010690,4_0_0:0.00013823):0.00045057):0.00540909,(((6_0_5:0.00018196,((6_0_0:0.00007929,((6_0_9:0.00001198,6_0_3:0.00001761):0.00000757,6_0_2:0.00000782):0.00003486):0.00000108,6_0_4:0.00008448):0.00002638):0.00015965,(6_0_1:0.00008798,((6_0_11:0.00000242,6_0_6:0.00000216):0.00001336,(6_0_12:0.00003635,6_0_7:0.00001076):0.00000533):0.00003577):0.00003532):0.00212674,(6_0_8:0.00005858,6_0_10:0.00006050):0.00164179):0.00236264):0.00655900,(((1_0_7:0.00022559,1_0_2:0.00015336):0.00006393,((1_0_10:0.00025285,1_0_9:0.00004908):0.00004921,(((1_0_4:0.00010754,1_0_12:0.00003981):0.00002788,1_0_11:0.00009590):0.00000467,(1_0_6:0.00002866,((1_0_3:0.00002045,1_0_8:0.00004364):0.00000116,((1_0_1:0.00001040,1_0_0:0.00000901):0.00001517,1_0_5:0.00003780):0.00000676):0.00000951):0.00003006):0.00004682):0.00005948):0.00573986,((((3_0_9:0.00000592,3_0_10:0.00001054):0.00076904,(5_0_10:0.00100019,(((5_0_4:0.00016158,5_0_0:0.00015737):0.00005569,(((5_0_9:0.00000797,5_0_1:0.00000679):0.00003160,5_0_3:0.00003991):0.00001174,(5_0_5:0.00004742,5_0_6:0.00014780):0.00000491):0.00014546):0.00005310,(5_0_12:0.00056579,((5_0_7:0.00005190,5_0_2:0.00004283):0.00000764,(5_0_11:0.00001795,5_0_8:0.00000618):0.00006180):0.00009013):0.00009158):0.00032553):0.00016632):0.00136226,((3_0_8:0.00012959,(((3_0_2:0.00000393,3_0_6:0.00000056):0.00015050,(3_0_11:0.00011147,(3_0_3:0.00005425,3_0_1:0.00006258):0.00001148):0.00003845):0.00001758,((3_0_7:0.00002264,3_0_12:0.00002140):0.00002017,(3_0_0:0.00004002,3_0_4:0.00003596):0.00001805):0.00006377):0.00006446):0.00006661,3_0_5:0.00029110):0.00273681):0.00367694,((2_0_4:0.00042258,2_0_7:0.00009435):0.00178854,((2_0_9:0.00012031,2_0_3:0.00023659):0.00026659,((2_0_6:0.00003433,2_0_11:0.00004398):0.00004726,((2_0_5:0.00004660,(2_0_8:0.00001232,2_0_10:0.00003156):0.00002114):0.00001410,(2_0_2:0.00001889,(2_0_0:0.00002845,(2_0_12:0.00001133,2_0_1:0.00000342):0.00000978):0.00000102):0.00001869):0.00009656):0.00040068):0.00205489):0.00206030):0.00017074):0.01442422):0.00884634):0.01198581);
[TREE] T09 ((((((((((16_0_1:0.00001142,16_0_11:0.00000314):0.00003044,(16_0_4:0.00000480,16_0_10:0.00000375):0.00003799):0.00004798,((16_0_7:0.00000611,16_0_8:0.00000209):0.00002551,16_0_2:0.00001781):0.00012664):0.00023584,(16_0_9:0.00014307,(((16_0_0:0.00000857,(16_0_3:0.00001821,16_0_5:0.00000404):0.00000487):0.00000005,16_0_6:0.00004986):0.00010175,16_0_12:0.00013614):0.00007810):0.00025968):0.00734982,((((18_0_8:0.00000202,18_0_9:0.00000571):0.00003464,18_0_1:0.00001332):0.00038456,((18_0_0:0.00001224,(18_0_4:0.00000063,18_0_5:0.00000262):0.00000777):0.00042988,(((18_0_3:0.00000940,18_0_7:0.00000497):0.00012248,(18_0_12:0.00004475,18_0_2:0.00005241):0.00014794):0.00029668,(18_0_6:0.00015176,18_0_10:0.00006917):0.00010208):0.00007106):0.00001357):0.00245077,(((((12_0_9:0.00000552,12_0_12:0.00000931):0.00013966,((12_0_2:0.00008167,12_0_6:0.00006209):0.00002583,(12_0_7:0.00002582,12_0_4:0.00004130):0.00005137):0.00006292):0.00028289,(8_0_10:0.00007529,8_0_12:0.00005517):0.00066864):0.00074052,((((12_0_11:0.00011278,((12_0_10:0.00002406,12_0_8:0.00003234):0.00003420,((12_0_1:0.00001672,12_0_3:0.00001664):0.00004516,12_0_0:0.00003951):0.00000605):0.00007994):0.00024304,12_0_5:0.00054430):0.00044024,(((8_0_2:0.00013919,8_0_4:0.00034914):0.00036090,(((((8_0_1:0.00003972,8_0_6:0.00005045):0.00003650,8_0_11:0.00011701):0.00000097,8_0_7:0.00004672):0.00000689,(8_0_0:0.00000290,8_0_5:0.00000800):0.00017314):0.00009909,8_0_9:0.00017316):0.00017352):0.00004238,(8_0_3:0.00030077,8_0_8:0.00016981):0.00016160):0.00034967):0.00055468,(((13_0_7:0.00002898,13_0_2:0.00002228):0.00003055,13_0_5:0.00003050):0.00091404,((((13_0_10:0.00001592,13_0_4:0.00001661):0.00003574,(13_0_11:0.00004654,13_0_3:0.00003535):0.00003307):0.00014334,(13_0_9:0.00005550,13_0_1:0.00008079):0.00027256):0.00012358,((13_0_6:0.00010948,(13_0_12:0.00000396,13_0_8:0.00001135):0.00008379):0.00008915,13_0_0:0.00058059):0.00003936):0.00029337):0.00075411):0.00001547):0.00006418,18_0_11:0.00206157):0.00313747):0.00263052):0.00180019,(((7_0_9:0.00000450,7_0_12:0.00000188):0.00027112,(((7_0_11:0.00002152,7_0_5:0.00002424):0.00000823,7_0_3:0.00006155):0.00014550,(((7_0_1:0.00001584,(7_0_4:0.00000298,7_0_0:0.00000466):0.00000091):0.00007046,7_0_8:0.00004630):0.00008100,(7_0_6:0.00000746,7_0_2:0.00000726):0.00008440):0.00008560):0.00008822):0.00004579,(7_0_7:0.00003275,7_0_10:0.00008537):0.00025821):0.00160645):0.00553651,((((((10_0_3:0.00000844,10_0_5:0.00000339):0.00002806,10_0_1:0.00006719):0.00002642,(10_0_4:0.00000679,10_0_0:0.00000181):0.00006677):0.00037424,(((10_0_10:0.00021332,(10_0_12:0.00002348,10_0_8:0.00000771):0.00005821):0.00002727,10_0_2:0.00006734):0.00043523,(10_0_11:0.00022388,((10_0_6:0.00000089,10_0_9:0.00000187):0.00000295,10_0_7:0.00000299):0.00002352):0.00017990):0.00017233):0.00251692,(((14_0_8:0.00024056,(14_0_3:0.00000137,14_0_1:0.00000791):0.00025790):0.00097342,((14_0_10:0.00011395,(((14_0_5:0.00000429,14_0_11:0.00001348):0.00002523,14_0_4:0.00006864):0.00002272,(14_0_0:0.00005756,((14_0_12:0.00000004,14_0_6:0.00000006):0.00000243,14_0_9:0.00000477):0.00001715):0.00006622):0.00013657):0.00008685,14_0_7:0.00020247):0.00116468):0.00009585,14_0_2:0.00074609):0.00051393):0.00488277,(((((15_0_7:0.00007457,15_0_6:0.00003469):0.00012422,15_0_0:0.00037674):0.00041503,((15_0_8:0.00000851,15_0_1:0.00001438):0.00000787,15_0_11:0.00003027):0.00066542):0.00006959,((15_0_12:0.00014963,(15_0_9:0.00008409,(15_0_10:0.00002058,(15_0_2:0.00000134,15_0_4:0.00000304):0.00002419):0.00014896):0.00001180):0.00001359,(15_0_3:0.00005523,15_0_5:0.00004495):0.00012475):0.00020443):0.00361778,(((((11_0_6:0.00001556,11_0_12:0.00001907):0.00001271,(11_0_9:0.00000372,11_0_10:0.00000909):0.00004651):0.00012945,11_0_8:0.00025376):0.00006185,((11_0_1:0.00000384,11_0_7:0.00001629):0.00001441,(11_0_3:0.00001967,11_0_2:0.00002026):0.00001642):0.00044838):0.00024131,(11_0_5:0.00009285,((11_0_11:0.00006357,11_0_0:0.00000845):0.00001248,11_0_4:0.00004024):0.00001839):0.00107913):0.00759843):0.00375331):0.00240387):0.01340384,(((17_0_11:0.00001072,17_0_6:0.00002204):0.00138253,((17_0_12:0.00006996,(((((17_0_3:0.00001985,17_0_0:0.00001695):0.00000687,17_0_5:0.00003439):0.00001427,(17_0_7:0.00003838,17_0_9:0.00013536):0.00000268):0.00002792,(17_0_4:0.00004723,17_0_8:0.00003689):0.00005618):0.00000386,17_0_1:0.00004677):0.00002238):0.00011336,(17_0_2:0.00002737,17_0_10:0.00002396):0.00012267):0.00078999):0.00430090,(((9_0_12:0.00005533,9_0_11:0.00003760):0.00003622,((((9_0_7:0.00000367,9_0_8:0.00000259):0.00010248,9_0_3:0.00005658):0.00006905,9_0_10:0.00020296):0.00000293,(9_0_5:0.00003839,(9_0_6:0.00001838,(9_0_0:0.00001176,9_0_1:0.00001338):0.00000523):0.00000023):0.00004637):0.00005089):0.00033186,(9_0_9:0.00006680,(9_0_2:0.00007126,9_0_4:0.00001378):0.00003799):0.00019729):0.00873989):0.00769786):0.00695531,(((((4_0_4:0.00001027,4_0_12:0.00000727):0.00049352,((4_0_7:0.00014493,4_0_10:0.00003863):0.00007845,(4_0_6:0.00009309,(4_0_5:0.00002408,4_0_2:0.00002467):0.00000595):0.00027690):0.00033259):0.00028208,(((4_0_3:0.00004368,4_0_8:0.00001752):0.00016069,4_0_0:0.00027616):0.00044752,(4_0_9:0.00004009,(4_0_1:0.00005354,4_0_11:0.00004189):0.00006450):0.00107661):0.00058035):0.00213634,(((6_0_2:0.00000121,6_0_7:0.00000081):0.00058212,(6_0_1:0.00006517,6_0_0:0.00023025):0.00034375):0.00097272,((6_0_10:0.00011195,(6_0_8:0.00004152,((6_0_6:0.00013371,6_0_5:0.00004706):0.00002598,(6_0_9:0.00002686,6_0_12:0.00003524):0.00001317):0.00012193):0.00009041):0.00010488,((6_0_4:0.00008504,6_0_3:0.00006051):0.00017246,6_0_11:0.00026244):0.00031351):0.00026361):0.00595903):0.01444529,((((((2_0_5:0.00001107,2_0_0:0.00001320):0.00011895,2_0_4:0.00012959):0.00019798,2_0_9:0.00041526):0.00009415,(2_0_6:0.00004287,((2_0_1:0.00005654,(2_0_8:0.00001205,2_0_2:0.00000749):0.00001880):0.00000601,2_0_3:0.00005940):0.00001466):0.00010535):0.00025936,(2_0_10:0.00014826,((2_0_7:0.00009574,2_0_11:0.00002209):0.00003063,2_0_12:0.00006092):0.00006947):0.00036268):0.00594276,(((3_0_3:0.00027341,((((3_0_0:0.00000882,(3_0_5:0.00000333,3_0_12:0.00000302):0.00000297):0.00006158,3_0_11:0.00010013):0.00005769,(3_0_8:0.00025063,(3_0_4:0.00008957,3_0_2:0.00009143):0.00007695):0.00007717):0.00004785,(3_0_9:0.00010411,(3_0_1:0.00001198,(3_0_7:0.00000165,3_0_6:0.00000051):0.00000678):0.00002612):0.00010784):0.00018509):0.00124359,(3_0_10:0.00057337,((((5_0_1:0.00001978,5_0_11:0.00003693):0.00006461,(((((5_0_2:0.00000140,5_0_7:0.00000221):0.00000177,5_0_0:0.00000693):0.00007652,5_0_8:0.00008408):0.00000766,(5_0_9:0.00003080,(5_0_4:0.00001588,5_0_10:0.00002970):0.00000560):0.00001605):0.00001939,5_0_3:0.00006746):0.00009933):0.00025376,(5_0_12:0.00005198,5_0_5:0.00001929):0.00123051):0.00003950,5_0_6:0.00072420):0.00011903):0.00075733):0.00290004,((((1_0_8:0.00000401,(1_0_7:0.00000944,1_0_11:0.00002532):0.00002067):0.00001342,1_0_5:0.00001646):0.00021490,(((1_0_12:0.00000124,1_0_9:0.00004256):0.00017566,1_0_6:0.00035090):0.00003661,(1_0_2:0.00009838,(1_0_0:0.00002705,(1_0_1:0.00000305,1_0_10:0.00000239):0.00000276):0.00005542):0.00059841):0.00006502):0.00040674,(1_0_4:0.00002022,1_0_3:0.00000759):0.00085342):0.00211636):0.00135674):0.01308119):0.00304242):0.02797361,0_0_0:0.04369104);
[TREE] T10 (((((((((16_0_2:0.00001040,16_0_3:0.00003565):0.00002217,(16_0_12:0.00015512,(16_0_5:0.00004114,(16_0_6:0.00000468,16_0_4:0.00001424):0.00001271):0.00007660):0.00008121):0.00059291,((16_0_8:0.00011710,(16_0_10:0.00009154,(16_0_9:0.00008646,(16_0_7:0.00002003,(16_0_11:0.00003589,16_0_0:0.00002193):0.00000788):0.00001594):0.00006427):0.00001601):0.00015409,16_0_1:0.00042177):0.00084700):0.00371679,((((8_0_10:0.00003742,(8_0_7:0.00000386,8_0_2:0.00000596):0.00005378):0.00011364,(8_0_5:0.00000786,8_0_12:0.00000884):0.00028194):0.00099555,((((12_0_1:0.00007220,(12_0_6:0.00001982,12_0_10:0.00002990):0.00036395):0.00006519,((12_0_4:0.00001701,12_0_0:0.00001365):0.00002686,12_0_3:0.00010280):0.00007987):0.00008770,(((12_0_5:0.00002743,12_0_8:0.00002990):0.00001331,12_0_11:0.00004814):0.00009340,(12_0_9:0.00015487,(12_0_2:0.00000724,(12_0_7:0.00000026,12_0_12:0.00000018):0.00001322):0.00021505):0.00000221):0.00015806):0.00065813,(((8_0_1:0.00001344,8_0_3:0.00000851):0.00012059,(((8_0_8:0.00000419,8_0_9:0.00000231):0.00016673,8_0_0:0.00003112):0.00001573,(8_0_11:0.00008656,8_0_4:0.00006989):0.00001015):0.00001071):0.00001825,8_0_6:0.00010516):0.00054610):0.00025475):0.00110944,((((18_0_5:0.00009480,(18_0_8:0.00001556,18_0_9:0.00001441):0.00016523):0.00003597,(18_0_7:0.00005716,(18_0_6:0.00003000,(18_0_4:0.00000395,18_0_3:0.00000298):0.00000744):0.00001580):0.00012410):0.00024030,((13_0_12:0.00006758,13_0_0:0.00002840):0.00010204,(13_0_5:0.00000647,13_0_2:0.00000367):0.00017342):0.00004846):0.00128732,(((((18_0_12:0.00001019,(18_0_2:0.00000579,18_0_1:0.00000902):0.00000791):0.00002633,18_0_10:0.00002799):0.00005841,18_0_11:0.00011658):0.00006799,18_0_0:0.00020017):0.00077606,((13_0_3:0.00009970,13_0_7:0.00007661):0.00014282,(((13_0_4:0.00003781,(13_0_1:0.00000353,13_0_11:0.00000451):0.00005252):0.00013049,13_0_10:0.00015387):0.00001629,((13_0_6:0.00001189,13_0_8:0.00002511):0.00012947,13_0_9:0.00016097):0.00000928):0.00001210):0.00024418):0.00065681):0.00055197):0.00362942):0.00234154,((((7_0_11:0.00002823,7_0_1:0.00003116):0.00006271,(7_0_6:0.00004997,(7_0_8:0.00000604,7_0_2:0.00000508):0.00001082):0.00019690):0.00003334,((7_0_5:0.00002732,(7_0_3:0.00000020,7_0_4:0.00000084):0.00001838):0.00007417,(7_0_9:0.00022005,((7_0_0:0.00000618,7_0_7:0.00000476):0.00000179,7_0_12:0.00000286):0.00024559):0.00002424):0.00005155):0.00050632,7_0_10:0.00110631):0.00801761):0.00245755,(((((15_0_11:0.00004340,(((15_0_2:0.00004076,15_0_0:0.00001106):0.00000157,15_0_8:0.00000257):0.00001711,((15_0_3:0.00001148,15_0_6:0.00001530):0.00000688,(15_0_5:0.00000886,15_0_9:0.00000457):0.00000920):0.00003353):0.00004714):0.00028791,15_0_12:0.00054320):0.00055781,(15_0_4:0.00013187,(15_0_7:0.00008282,(15_0_10:0.00008516,15_0_1:0.00019789):0.00000170):0.00004153):0.00074172):0.00912714,((11_0_9:0.00012763,(11_0_5:0.00016330,((11_0_11:0.00029057,((11_0_8:0.00001573,11_0_2:0.00004791):0.00005139,11_0_6:0.00004981):0.00006224):0.00005752,(11_0_7:0.00000557,11_0_4:0.00001133):0.00029207):0.00002639):0.00004904):0.00030022,((11_0_0:0.00000215,11_0_1:0.00000335):0.00006813,(11_0_10:0.00001029,(11_0_12:0.00001191,11_0_3:0.00001958):0.00000262):0.00004552):0.00055974):0.00619803):0.00405467,((10_0_8:0.00071174,((((10_0_6:0.00000090,10_0_7:0.00000307):0.00010725,10_0_2:0.00014858):0.00017142,(10_0_4:0.00000308,10_0_9:0.00000920):0.00020024):0.00035822,((10_0_5:0.00008013,(10_0_10:0.00006248,10_0_1:0.00006338):0.00005700):0.00010380,((10_0_12:0.00002261,(10_0_0:0.00004681,10_0_3:0.00009131):0.00001023):0.00005151,10_0_11:0.00020784):0.00029610):0.00019281):0.00015592):0.00154480,(((14_0_1:0.00000433,14_0_7:0.00000829):0.00102986,(((14_0_3:0.00001319,14_0_5:0.00002130):0.00001106,14_0_6:0.00001797):0.00019722,((14_0_11:0.00007601,(14_0_2:0.00000636,14_0_9:0.00002025):0.00005510):0.00010870,(14_0_4:0.00001138,14_0_12:0.00001262):0.00003572):0.00002801):0.00020587):0.00028397,((14_0_10:0.00000135,14_0_8:0.00000141):0.00010555,14_0_0:0.00009875):0.00026772):0.00136430):0.00815747):0.00166917):0.00743417,(((9_0_2:0.00021140,(9_0_5:0.00011271,(9_0_7:0.00002891,9_0_9:0.00004104):0.00010856):0.00011806):0.00211887,((((9_0_8:0.00005423,(9_0_0:0.00002299,((9_0_4:0.00000524,9_0_11:0.00000362):0.00000071,9_0_6:0.00001322):0.00002734):0.00000400):0.00013980,(9_0_1:0.00002652,9_0_10:0.00002057):0.00012843):0.00012132,9_0_12:0.00024025):0.00048880,9_0_3:0.00037249):0.00045873):0.00941356,(((17_0_7:0.00005381,17_0_6:0.00003919):0.00015711,((17_0_8:0.00028601,17_0_2:0.00003354):0.00005552,17_0_5:0.00029184):0.00003298):0.00061069,((17_0_10:0.00001655,17_0_4:0.00000583):0.00107500,(((17_0_9:0.00000788,17_0_1:0.00000186):0.00000435,17_0_3:0.00000335):0.00005167,((17_0_12:0.00008288,17_0_0:0.00004608):0.00000480,17_0_11:0.00003947):0.00002922):0.00020575):0.00046914):0.00663049):0.01544427):0.00499575,((((((4_0_1:0.00001217,4_0_12:0.00004003):0.00001042,4_0_3:0.00002834):0.00007399,4_0_4:0.00026999):0.00038529,(((4_0_10:0.00003071,(4_0_8:0.00000272,4_0_7:0.00000523):0.00000783):0.00044260,((4_0_11:0.00001520,4_0_2:0.00000868):0.00036511,4_0_0:0.00011811):0.00033107):0.00009482,(4_0_5:0.00025792,(4_0_6:0.00000262,4_0_9:0.00000197):0.00014783):0.00040159):0.00029834):0.00160425,((6_0_0:0.00023145,6_0_10:0.00044815):0.00029904,((6_0_12:0.00000652,6_0_6:0.00000532):0.00013364,((6_0_7:0.00003883,((6_0_8:0.00001438,6_0_2:0.00001669):0.00004081,(6_0_9:0.00001097,6_0_4:0.00001424):0.00004023):0.00004455):0.00004685,(6_0_3:0.00033304,((6_0_5:0.00000648,6_0_11:0.00000323):0.00002288,6_0_1:0.00003284):0.00003292):0.00002299):0.00016868):0.00025433):0.00118416):0.01954394,(((1_0_3:0.00011998,1_0_1:0.00016787):0.00087792,((1_0_5:0.00009676,(1_0_12:0.00002080,(1_0_7:0.00000839,1_0_2:0.00000773):0.00001646):0.00003928):0.00069435,((1_0_9:0.00000035,1_0_4:0.00000024):0.00017284,((1_0_11:0.00004538,1_0_10:0.00002882):0.00006119,((1_0_8:0.00000241,1_0_6:0.00000235):0.00000946,1_0_0:0.00002062):0.00013655):0.00003498):0.00021854):0.00051516):0.00556948,(((((5_0_7:0.00003753,(5_0_0:0.00003089,5_0_4:0.00011056):0.00001694):0.00020022,(5_0_8:0.00040680,(((5_0_5:0.00002556,(5_0_10:0.00003537,5_0_2:0.00004556):0.00002823):0.00000646,(5_0_11:0.00002792,5_0_9:0.00003094):0.00000791):0.00006779,5_0_1:0.00006067):0.00015256):0.00011614):0.00029293,(((3_0_9:0.00000994,3_0_8:0.00001800):0.00011209,3_0_2:0.00009634):0.00013108,((((3_0_10:0.00000334,3_0_12:0.00000366):0.00001951,3_0_6:0.00003724):0.00010320,3_0_4:0.00024702):0.00002980,((((3_0_5:0.00000345,3_0_11:0.00000343):0.00002249,(3_0_7:0.00000129,3_0_3:0.00000293):0.00000849):0.00000451,3_0_0:0.00001785):0.00003410,3_0_1:0.00009041):0.00003875):0.00002769):0.00044656):0.00155444,(5_0_3:0.00005840,(5_0_12:0.00001001,5_0_6:0.00000793):0.00018193):0.00075704):0.00139179,((2_0_2:0.00001549,2_0_0:0.00001026):0.00017718,(((2_0_7:0.00000929,2_0_11:0.00001254):0.00000014,2_0_4:0.00001655):0.00039179,(2_0_9:0.00011072,(2_0_10:0.00007262,((2_0_1:0.00005606,2_0_8:0.00004875):0.00001898,((2_0_12:0.00000525,(2_0_5:0.00000100,2_0_6:0.00000116):0.00000140):0.00001181,2_0_3:0.00008520):0.00002806):0.00000975):0.00007676):0.00013023):0.00019189):0.00216257):0.00210639):0.01608447):0.00780196):0.01907301,0_0_0:0.07100807);

[PARTITIONS] csSimUnlinked_01 [T01 csSim_unlinked_1 500]
[PARTITIONS] csSimUnlinked_02 [T02 csSim_unlinked_2 500]
[PARTITIONS] csSimUnlinked_03 [T03 csSim_unlinked_3 500]
[PARTITIONS] csSimUnlinked_04 [T04 csSim_unlinked_4 500]
[PARTITIONS] csSimUnlinked_05 [T05 csSim_unlinked_5 500]
[PARTITIONS] csSimUnlinked_06 [T06 csSim_unlinked_6 500]
[PARTITIONS] csSimUnlinked_07 [T07 csSim_unlinked_7 500]
[PARTITIONS] csSimUnlinked_08 [T08 csSim_unlinked_8 500]
[PARTITIONS] csSimUnlinked_09 [T09 csSim_unlinked_9 500]
[PARTITIONS] csSimUnlinked_10 [T10 csSim_unlinked_10 500]

[EVOLVE] csSimUnlinked_01 1 data_01
csSimUnlinked_02 1 data_02
csSimUnlinked_03 1 data_03
csSimUnlinked_04 1 data_04
csSimUnlinked_05 1 data_05
csSimUnlinked_06 1 data_06
csSimUnlinked_07 1 data_07
csSimUnlinked_08 1 data_08
csSimUnlinked_09 1 data_09
csSimUnlinked_10 1 data_10
