[TYPE] NUCLEOTIDE 1 

[SETTINGS]
    [fastaextension] fasta  

[MODEL] csSim_unlinked_1
    [submodel] GTR 0.088235 0.019564 0.018486 0.032349 0.028612 
    [statefreq] 0.102233 0.365834 0.521806 0.010127 
[rates] 0 6.550675 0 

[MODEL] csSim_unlinked_2
    [submodel] GTR 0.084891 0.002723 0.005734 0.019748 0.051804 
    [statefreq] 0.028368 0.507751 0.401475 0.062406 
[rates] 0 58.015771 0 

[MODEL] csSim_unlinked_3
    [submodel] GTR 0.079398 0.005876 0.011802 0.021869 0.053385 
    [statefreq] 0.024075 0.440401 0.208585 0.326939 
[rates] 0 7.920324 0 

[MODEL] csSim_unlinked_4
    [submodel] GTR 0.109529 0.004604 0.011671 0.040462 0.035628 
    [statefreq] 0.029881 0.023998 0.768257 0.177864 
[rates] 0 12.742811 0 

[MODEL] csSim_unlinked_5
    [submodel] GTR 0.113717 0.016761 0.009387 0.031537 0.034924 
    [statefreq] 0.258998 0.027876 0.544032 0.169093 
[rates] 0 18.280819 0 

[MODEL] csSim_unlinked_6
    [submodel] GTR 0.124986 0.002951 0.018924 0.020652 0.039823 
    [statefreq] 0.130032 0.750855 0.012263 0.106849 
[rates] 0 15.170358 0 

[MODEL] csSim_unlinked_7
    [submodel] GTR 0.090862 0.006853 0.019221 0.029885 0.028541 
    [statefreq] 0.171142 0.063895 0.278616 0.486347 
[rates] 0 2.058462 0 

[MODEL] csSim_unlinked_8
    [submodel] GTR 0.108564 0.025540 0.021945 0.018172 0.068317 
    [statefreq] 0.010666 0.054189 0.409027 0.526118 
[rates] 0 9.400923 0 

[MODEL] csSim_unlinked_9
    [submodel] GTR 0.100429 0.005169 0.022350 0.019400 0.039840 
    [statefreq] 0.189639 0.321209 0.205043 0.284110 
[rates] 0 41.708310 0 

[MODEL] csSim_unlinked_10
    [submodel] GTR 0.095570 0.035931 0.035882 0.020990 0.020432 
    [statefreq] 0.246047 0.063764 0.240393 0.449796 
[rates] 0 7.776352 0 


[TREE] T01 (((((((7_0_2:0.00000647,7_0_0:0.00001178):0.00000147,(7_0_1:0.00000083,7_0_3:0.00005996):0.00000654):0.00074817,((5_0_1:0.00001022,(5_0_2:0.00003507,(5_0_0:0.00000674,5_0_3:0.00000047):0.00001346):0.00002239):0.00056513,((6_0_1:0.00000222,6_0_3:0.00001421):0.00000789,(6_0_0:0.00000458,6_0_2:0.00000105):0.00001534):0.00021960):0.00050119):0.00004943,((9_0_1:0.00000089,9_0_2:0.00000072):0.00004754,(9_0_3:0.00001667,9_0_0:0.00001459):0.00001290):0.00095813):0.00046263,((3_0_2:0.00000031,3_0_3:0.00000095):0.00004017,(3_0_0:0.00000761,3_0_1:0.00000735):0.00005571):0.00229525):0.00058079,((((2_0_1:0.00000639,(2_0_0:0.00000010,2_0_2:0.00000255):0.00000181):0.00004541,2_0_3:0.00002371):0.00097421,((((1_0_1:0.00001048,1_0_0:0.00000176):0.00001609,(1_0_2:0.00000309,1_0_3:0.00000794):0.00000758):0.00088617,((4_0_0:0.00003649,(4_0_2:0.00000512,4_0_3:0.00000583):0.00004535):0.00001081,4_0_1:0.00000398):0.00067761):0.00006326,((8_0_2:0.00000096,8_0_3:0.00000214):0.00001087,(8_0_0:0.00000623,8_0_1:0.00000280):0.00007665):0.00042660):0.00023944):0.00420211,(((10_0_3:0.00000195,((10_0_0:0.00000425,10_0_2:0.00000009):0.00000039,10_0_1:0.00000303):0.00000542):0.00173286,((12_0_2:0.00000900,12_0_0:0.00001148):0.00000474,(12_0_3:0.00000130,12_0_1:0.00000562):0.00000102):0.00100693):0.00108456,((11_0_1:0.00000028,11_0_3:0.00000023):0.00005305,(11_0_2:0.00002665,11_0_0:0.00000069):0.00006200):0.00248307):0.00012105):0.00000106):0.00265308,0_0_0:0.00012028);
[TREE] T02 (0_0_0:0.02563489,(((((8_0_2:0.00003882,(8_0_3:0.00003238,(8_0_1:0.00000051,8_0_0:0.00000137):0.00007815):0.00002599):0.00013582,((4_0_3:0.00008461,(4_0_2:0.00000139,(4_0_1:0.00000010,4_0_0:0.00000119):0.00000013):0.00001677):0.00002250,((1_0_0:0.00000198,1_0_2:0.00000862):0.00000365,(1_0_3:0.00000812,1_0_1:0.00001888):0.00000110):0.00089507):0.00014160):0.00021473,(2_0_2:0.00003669,((2_0_3:0.00007084,2_0_0:0.00002545):0.00000489,2_0_1:0.00001023):0.00002094):0.00138864):0.00224380,((((12_0_1:0.00002065,12_0_3:0.00002216):0.00000222,(12_0_2:0.00000250,12_0_0:0.00000013):0.00001577):0.00232901,((10_0_3:0.00000486,10_0_2:0.00001106):0.00001370,(10_0_1:0.00000960,10_0_0:0.00000289):0.00000357):0.00570025):0.00023593,((11_0_3:0.00002310,11_0_2:0.00001937):0.00001526,(11_0_1:0.00000080,11_0_0:0.00000268):0.00001209):0.00421128):0.00001638):0.00001326,(((3_0_0:0.00000881,3_0_1:0.00000313):0.00000266,(3_0_3:0.00000004,3_0_2:0.00000001):0.00001910):0.00096355,((((7_0_0:0.00003273,(7_0_3:0.00000781,7_0_1:0.00001025):0.00005139):0.00000324,7_0_2:0.00004488):0.00045532,(((6_0_0:0.00000468,6_0_2:0.00000370):0.00001467,(6_0_1:0.00000841,6_0_3:0.00002175):0.00004351):0.00134966,(5_0_2:0.00001507,((5_0_1:0.00000353,5_0_3:0.00000506):0.00000065,5_0_0:0.00000468):0.00000410):0.00012485):0.00037198):0.00043564,(((9_0_0:0.00000132,9_0_2:0.00000351):0.00000220,9_0_3:0.00001045):0.00003152,9_0_1:0.00004205):0.00020799):0.00010802):0.00162156):0.00470841);
[TREE] T03 (0_0_0:0.00633895,(((((11_0_2:0.00000225,11_0_3:0.00000160):0.00000079,11_0_0:0.00000384):0.00011900,11_0_1:0.00001724):0.00810442,(((10_0_1:0.00000037,(10_0_0:0.00000629,10_0_3:0.00000377):0.00000338):0.00000113,10_0_2:0.00000652):0.00095554,((12_0_3:0.00000212,12_0_0:0.00000839):0.00002449,(12_0_2:0.00001174,12_0_1:0.00000772):0.00001932):0.00134544):0.00173499):0.00026020,((((8_0_3:0.00001174,((8_0_2:0.00000037,8_0_1:0.00000020):0.00000683,8_0_0:0.00001040):0.00000431):0.00053850,((4_0_1:0.00000762,((4_0_3:0.00000180,4_0_0:0.00000025):0.00000078,4_0_2:0.00000721):0.00000069):0.00060197,(((1_0_0:0.00000172,1_0_1:0.00001145):0.00000229,1_0_2:0.00000983):0.00003679,1_0_3:0.00002117):0.00046475):0.00002949):0.00048018,((2_0_1:0.00000417,2_0_2:0.00000559):0.00000554,(2_0_3:0.00000037,2_0_0:0.00000002):0.00000957):0.00030447):0.00027173,((((7_0_1:0.00002020,((7_0_0:0.00001368,7_0_3:0.00001304):0.00000887,7_0_2:0.00001873):0.00000446):0.00018760,((5_0_0:0.00000582,(5_0_1:0.00000055,(5_0_3:0.00000001,5_0_2:0.00000003):0.00000140):0.00001112):0.00035393,((6_0_0:0.00002413,6_0_2:0.00000529):0.00005589,(6_0_3:0.00003062,6_0_1:0.00007247):0.00000281):0.00078510):0.00015829):0.00008129,((9_0_3:0.00001007,(9_0_0:0.00000401,9_0_1:0.00000609):0.00000078):0.00000799,9_0_2:0.00003302):0.00041972):0.00074533,((3_0_3:0.00000850,3_0_1:0.00001070):0.00001958,(3_0_2:0.00000156,3_0_0:0.00000479):0.00014703):0.00201052):0.00293697):0.00000546):0.00404333);
[TREE] T04 (0_0_0:0.00326116,((((11_0_0:0.00000201,(11_0_1:0.00000076,11_0_2:0.00000517):0.00000167):0.00004308,11_0_3:0.00003536):0.00163798,(((12_0_1:0.00000142,12_0_2:0.00000064):0.00002453,(12_0_3:0.00002067,12_0_0:0.00001123):0.00003252):0.00197368,((10_0_2:0.00003144,10_0_1:0.00000839):0.00002990,(10_0_3:0.00001360,10_0_0:0.00003012):0.00002233):0.00070713):0.00057534):0.00027318,((((3_0_3:0.00000174,3_0_0:0.00000775):0.00002718,(3_0_1:0.00000804,3_0_2:0.00000380):0.00001622):0.00354598,((((7_0_0:0.00000955,7_0_3:0.00006793):0.00002082,(7_0_1:0.00000609,7_0_2:0.00000389):0.00010792):0.00289040,(((5_0_0:0.00001058,(5_0_3:0.00000160,5_0_1:0.00000417):0.00002025):0.00000387,5_0_2:0.00005927):0.00094238,((6_0_2:0.00000601,6_0_3:0.00000866):0.00010167,(6_0_0:0.00010942,6_0_1:0.00001621):0.00005765):0.00001841):0.00085774):0.00025330,(9_0_1:0.00012328,((9_0_3:0.00000007,9_0_2:0.00000040):0.00003697,9_0_0:0.00002001):0.00014931):0.00062707):0.00053547):0.00189176,((((8_0_2:0.00000243,(8_0_3:0.00000107,8_0_1:0.00000179):0.00000437):0.00001049,8_0_0:0.00007926):0.00024282,(((1_0_0:0.00000926,(1_0_3:0.00000111,1_0_1:0.00000132):0.00006049):0.00000737,1_0_2:0.00003085):0.00023353,((4_0_1:0.00000096,4_0_2:0.00000237):0.00000101,(4_0_0:0.00000033,4_0_3:0.00000085):0.00000696):0.00208120):0.00002224):0.00071567,(2_0_0:0.00000543,((2_0_2:0.00000015,2_0_1:0.00000053):0.00000011,2_0_3:0.00000012):0.00002402):0.00049929):0.00395716):0.00005980):0.00938112);
[TREE] T05 (0_0_0:0.00294497,((((12_0_2:0.00003910,(12_0_0:0.00000873,(12_0_3:0.00001189,12_0_1:0.00000918):0.00002155):0.00002862):0.00098114,(10_0_2:0.00010138,(10_0_1:0.00002074,(10_0_0:0.00000010,10_0_3:0.00000166):0.00004714):0.00000762):0.00442659):0.00128699,(11_0_2:0.00004446,((11_0_3:0.00000021,11_0_0:0.00000013):0.00000971,11_0_1:0.00000575):0.00001616):0.00395871):0.00011694,(((3_0_2:0.00006246,(3_0_0:0.00001072,(3_0_3:0.00001524,3_0_1:0.00000201):0.00000955):0.00002807):0.00188951,(((9_0_2:0.00002062,(9_0_0:0.00000200,9_0_3:0.00000580):0.00000460):0.00000341,9_0_1:0.00000144):0.00044687,((((6_0_1:0.00000519,6_0_2:0.00001062):0.00002875,(6_0_0:0.00000457,6_0_3:0.00000489):0.00005089):0.00172427,((5_0_3:0.00000120,5_0_0:0.00000033):0.00002248,(5_0_1:0.00002374,5_0_2:0.00000523):0.00000991):0.00081367):0.00019246,((7_0_0:0.00001586,7_0_2:0.00001420):0.00001726,(7_0_3:0.00000369,7_0_1:0.00001047):0.00004668):0.00023893):0.00040339):0.00199481):0.00186140,(((((1_0_0:0.00000142,1_0_2:0.00000564):0.00000713,(1_0_3:0.00000057,1_0_1:0.00000133):0.00003652):0.00028182,(4_0_0:0.00002698,(4_0_3:0.00000203,(4_0_2:0.00000278,4_0_1:0.00000237):0.00000054):0.00003103):0.00052081):0.00001226,((8_0_3:0.00000706,(8_0_0:0.00000078,8_0_1:0.00000718):0.00000687):0.00001601,8_0_2:0.00003901):0.00057955):0.00032829,(2_0_0:0.00002340,(2_0_2:0.00000723,(2_0_1:0.00000563,2_0_3:0.00000337):0.00000091):0.00000177):0.00025532):0.00084219):0.00001104):0.00665033);
[TREE] T06 ((((((11_0_2:0.00000999,11_0_1:0.00001438):0.00008624,(11_0_3:0.00000196,11_0_0:0.00000079):0.00002737):0.00197503,((((12_0_2:0.00000549,12_0_0:0.00000189):0.00000950,12_0_1:0.00001390):0.00001105,12_0_3:0.00005595):0.00128769,(((10_0_0:0.00000246,10_0_1:0.00000065):0.00001857,10_0_3:0.00000934):0.00007500,10_0_2:0.00002479):0.00416746):0.00058780):0.00020552,((((8_0_2:0.00000985,8_0_0:0.00000861):0.00003782,(8_0_1:0.00000058,8_0_3:0.00000096):0.00003552):0.00029229,((((4_0_3:0.00000752,4_0_0:0.00000099):0.00002374,4_0_2:0.00000966):0.00000795,4_0_1:0.00002509):0.00020801,((1_0_2:0.00006596,1_0_3:0.00002766):0.00003858,(1_0_1:0.00000562,1_0_0:0.00000613):0.00012918):0.00033115):0.00002503):0.00155742,(((2_0_0:0.00000021,2_0_1:0.00000031):0.00000117,2_0_3:0.00000566):0.00001118,2_0_2:0.00003486):0.00022827):0.00206567):0.00001066,((((3_0_2:0.00000156,3_0_1:0.00000205):0.00000704,3_0_0:0.00003488):0.00018362,3_0_3:0.00000359):0.00037379,(((((5_0_1:0.00000170,5_0_3:0.00001226):0.00000314,(5_0_0:0.00000792,5_0_2:0.00000008):0.00000635):0.00142054,(((6_0_0:0.00000146,6_0_2:0.00000075):0.00000750,6_0_1:0.00000891):0.00000038,6_0_3:0.00000688):0.00105814):0.00018225,(7_0_1:0.00000609,(7_0_3:0.00001286,(7_0_2:0.00000322,7_0_0:0.00000150):0.00000171):0.00001262):0.00280257):0.00004129,(((9_0_2:0.00000013,9_0_1:0.00000009):0.00000637,9_0_3:0.00000284):0.00009338,9_0_0:0.00009804):0.00183215):0.00079526):0.00426192):0.00503101,0_0_0:0.01015684);
[TREE] T07 (0_0_0:0.01126401,(((((8_0_0:0.00002708,((8_0_3:0.00000298,8_0_1:0.00000055):0.00008816,8_0_2:0.00011986):0.00004660):0.00014875,(((4_0_0:0.00001402,4_0_3:0.00001887):0.00004271,(4_0_1:0.00000001,4_0_2:0.00000008):0.00003436):0.00009090,(1_0_2:0.00001744,((1_0_3:0.00000059,1_0_0:0.00000032):0.00001582,1_0_1:0.00002119):0.00001594):0.00032456):0.00005113):0.00032054,((2_0_3:0.00000175,2_0_0:0.00000084):0.00013479,(2_0_1:0.00000155,2_0_2:0.00000243):0.00010634):0.00152692):0.00180115,((3_0_2:0.00000797,((3_0_0:0.00000006,3_0_1:0.00000003):0.00000101,3_0_3:0.00000128):0.00000968):0.00166360,((((7_0_1:0.00000048,(7_0_0:0.00000083,7_0_3:0.00000511):0.00000147):0.00000204,7_0_2:0.00002072):0.00094005,((6_0_1:0.00005706,((6_0_3:0.00000006,6_0_0:0.00000020):0.00000011,6_0_2:0.00000011):0.00001357):0.00021867,((5_0_0:0.00002983,5_0_1:0.00003604):0.00009825,(5_0_2:0.00000367,5_0_3:0.00000066):0.00007827):0.00188755):0.00040965):0.00014435,(((9_0_1:0.00000006,9_0_0:0.00000007):0.00005218,9_0_3:0.00000989):0.00000067,9_0_2:0.00000921):0.00653747):0.00084005):0.00142347):0.00003342,((((10_0_1:0.00000332,10_0_0:0.00000126):0.00005365,(10_0_3:0.00000099,10_0_2:0.00001012):0.00006862):0.00201900,(12_0_3:0.00008646,((12_0_1:0.00002509,12_0_0:0.00000556):0.00000817,12_0_2:0.00000924):0.00007986):0.00367555):0.00023035,((11_0_1:0.00002645,(11_0_2:0.00000090,11_0_0:0.00000140):0.00001430):0.00000235,11_0_3:0.00001588):0.00034716):0.00048986):0.00233651);
[TREE] T08 (((((3_0_2:0.00000165,(3_0_1:0.00000052,3_0_3:0.00000035):0.00000037):0.00001536,3_0_0:0.00002734):0.00637289,(((9_0_2:0.00003546,9_0_3:0.00001103):0.00000394,(9_0_0:0.00000039,9_0_1:0.00000020):0.00002937):0.00156198,(((7_0_3:0.00000203,7_0_1:0.00000520):0.00001275,(7_0_2:0.00002207,7_0_0:0.00002844):0.00017597):0.00059325,(((5_0_3:0.00002138,5_0_1:0.00001489):0.00000866,(5_0_2:0.00001223,5_0_0:0.00002223):0.00000373):0.00247712,(((6_0_0:0.00000132,6_0_1:0.00000056):0.00001437,6_0_3:0.00000473):0.00000017,6_0_2:0.00000120):0.00254244):0.00023023):0.00012904):0.00237040):0.00047435,(((2_0_1:0.00007612,((2_0_3:0.00000439,2_0_2:0.00002186):0.00004200,2_0_0:0.00004669):0.00000825):0.00049665,((((1_0_3:0.00001560,1_0_0:0.00001031):0.00000798,(1_0_2:0.00000787,1_0_1:0.00002687):0.00000217):0.00056154,((4_0_0:0.00000669,(4_0_2:0.00000080,4_0_1:0.00000611):0.00001116):0.00001061,4_0_3:0.00001076):0.00025357):0.00005429,((8_0_0:0.00000434,(8_0_1:0.00000011,8_0_2:0.00000248):0.00000236):0.00000036,8_0_3:0.00001381):0.00058166):0.00006105):0.00166547,(((12_0_2:0.00006708,((12_0_0:0.00000553,12_0_3:0.00003283):0.00000613,12_0_1:0.00003069):0.00001584):0.00162981,(((10_0_0:0.00000058,10_0_3:0.00000044):0.00000079,10_0_1:0.00000213):0.00000282,10_0_2:0.00001889):0.00558476):0.00002275,((11_0_1:0.00000756,(11_0_2:0.00000052,11_0_0:0.00000210):0.00000960):0.00001205,11_0_3:0.00000789):0.00092939):0.00009324):0.00000099):0.00471413,0_0_0:0.00572198);
[TREE] T09 (((((((2_0_3:0.00000894,2_0_0:0.00000263):0.00000493,2_0_2:0.00000623):0.00000320,2_0_1:0.00005670):0.00137342,(((8_0_0:0.00002105,(8_0_3:0.00000742,(8_0_2:0.00000055,8_0_1:0.00000213):0.00000936):0.00000055):0.00089187,((4_0_0:0.00000507,(4_0_3:0.00000642,4_0_1:0.00000758):0.00001417):0.00001195,4_0_2:0.00005055):0.00020829):0.00031983,((1_0_1:0.00000488,1_0_3:0.00000065):0.00006968,(1_0_2:0.00000894,1_0_0:0.00002102):0.00004257):0.00094555):0.00032390):0.00254338,((11_0_1:0.00001545,((11_0_2:0.00000085,11_0_3:0.00000202):0.00000820,11_0_0:0.00000439):0.00001307):0.00331773,(((12_0_0:0.00000742,12_0_1:0.00001436):0.00000127,(12_0_3:0.00000832,12_0_2:0.00000631):0.00001912):0.00064687,((10_0_2:0.00000817,10_0_1:0.00002131):0.00000867,(10_0_0:0.00000053,10_0_3:0.00000028):0.00000259):0.00252523):0.00067162):0.00012845):0.00000575,((((9_0_1:0.00001191,9_0_3:0.00000385):0.00002484,(9_0_2:0.00001313,9_0_0:0.00003877):0.00001759):0.00048440,(((5_0_0:0.00000098,((5_0_3:0.00000108,5_0_1:0.00001085):0.00000497,5_0_2:0.00000562):0.00000087):0.00069508,(6_0_2:0.00003474,(6_0_3:0.00000919,(6_0_1:0.00000694,6_0_0:0.00000331):0.00000037):0.00001921):0.00178577):0.00038364,(7_0_2:0.00007995,(7_0_0:0.00002573,(7_0_3:0.00000420,7_0_1:0.00000065):0.00002172):0.00002049):0.00031845):0.00013659):0.00032596,(3_0_0:0.00000611,((3_0_2:0.00000114,3_0_1:0.00000435):0.00000171,3_0_3:0.00000327):0.00002654):0.00125730):0.00313527):0.00018120,0_0_0:0.00973507);
[TREE] T10 ((((((((1_0_2:0.00001187,(1_0_1:0.00000129,1_0_0:0.00000061):0.00001917):0.00000653,1_0_3:0.00003508):0.00124452,((4_0_1:0.00002709,(4_0_3:0.00000588,4_0_0:0.00001768):0.00005607):0.00001813,4_0_2:0.00006059):0.00021504):0.00001420,(((8_0_1:0.00000110,8_0_2:0.00000059):0.00000019,8_0_3:0.00000798):0.00000637,8_0_0:0.00000105):0.00042588):0.00066541,(2_0_0:0.00001686,((2_0_3:0.00000008,2_0_1:0.00000008):0.00001042,2_0_2:0.00000417):0.00000114):0.00193771):0.00271391,(((12_0_2:0.00006449,((12_0_0:0.00000965,12_0_1:0.00000921):0.00000559,12_0_3:0.00001021):0.00001260):0.00089740,(((10_0_2:0.00000002,10_0_3:0.00000002):0.00001185,10_0_0:0.00000115):0.00006073,10_0_1:0.00003088):0.00033365):0.00297704,((11_0_3:0.00001082,11_0_1:0.00000139):0.00004654,(11_0_2:0.00000130,11_0_0:0.00002429):0.00002945):0.00475682):0.00017043):0.00000021,((((((5_0_3:0.00000330,(5_0_1:0.00000240,5_0_0:0.00000119):0.00000765):0.00003588,5_0_2:0.00002391):0.00029883,(6_0_2:0.00000193,(6_0_3:0.00001535,(6_0_0:0.00000025,6_0_1:0.00000005):0.00000143):0.00001135):0.00032522):0.00022392,((7_0_3:0.00000028,7_0_0:0.00000060):0.00015054,(7_0_1:0.00000317,7_0_2:0.00000625):0.00012024):0.00192757):0.00017161,((9_0_0:0.00000048,9_0_1:0.00000289):0.00004613,(9_0_2:0.00000810,9_0_3:0.00000053):0.00002357):0.00124158):0.00117345,(3_0_2:0.00005696,((3_0_3:0.00000336,3_0_0:0.00000250):0.00000596,3_0_1:0.00001612):0.00000302):0.00104431):0.00101366):0.01347602,0_0_0:0.00675942);

[PARTITIONS] csSimUnlinked_01 [T01 csSim_unlinked_1 500]
[PARTITIONS] csSimUnlinked_02 [T02 csSim_unlinked_2 500]
[PARTITIONS] csSimUnlinked_03 [T03 csSim_unlinked_3 500]
[PARTITIONS] csSimUnlinked_04 [T04 csSim_unlinked_4 500]
[PARTITIONS] csSimUnlinked_05 [T05 csSim_unlinked_5 500]
[PARTITIONS] csSimUnlinked_06 [T06 csSim_unlinked_6 500]
[PARTITIONS] csSimUnlinked_07 [T07 csSim_unlinked_7 500]
[PARTITIONS] csSimUnlinked_08 [T08 csSim_unlinked_8 500]
[PARTITIONS] csSimUnlinked_09 [T09 csSim_unlinked_9 500]
[PARTITIONS] csSimUnlinked_10 [T10 csSim_unlinked_10 500]

[EVOLVE] csSimUnlinked_01 1 data_01
csSimUnlinked_02 1 data_02
csSimUnlinked_03 1 data_03
csSimUnlinked_04 1 data_04
csSimUnlinked_05 1 data_05
csSimUnlinked_06 1 data_06
csSimUnlinked_07 1 data_07
csSimUnlinked_08 1 data_08
csSimUnlinked_09 1 data_09
csSimUnlinked_10 1 data_10
