Tree file : INDELible V1.03 (best viewed cut and paste in e.g. excel)

N.B. Simulation blocks with no random trees will have their trees printed for the first replicate only.

FILE	TREE	NTAXA	REP	PART	LENGTH	DEPTH	MAX PAIRWISE DISTANCE	TREE STRING

data_01	T01	115	1	1	0.268381	0.118408	0.206215	(0_0_0:0.08780703,(((((((3_0_12:0.00000398,((3_0_7:0.00000532,3_0_10:0.00000391):0.00000018,3_0_2:0.00000171):0.00000120):0.00001803,3_0_11:0.00001265):0.00000459,3_0_18:0.00001612):0.00006401,((((3_0_6:0.00000052,3_0_15:0.00000145):0.00000495,(3_0_5:0.00000102,3_0_17:0.00000076):0.00000367):0.00000465,((3_0_4:0.00000013,3_0_9:0.00000018):0.00000889,3_0_3:0.00000431):0.00000385):0.00003004,(3_0_1:0.00000410,(3_0_14:0.00000317,(3_0_8:0.00000173,(3_0_0:0.00000067,(3_0_13:0.00000022,3_0_16:0.00000032):0.00000096):0.00000275):0.00000034):0.00000395):0.00004909):0.00002009):0.00550747,((((2_0_4:0.00001139,(2_0_16:0.00000032,2_0_13:0.00000032):0.00000684):0.00000254,(2_0_10:0.00000580,(2_0_18:0.00000312,2_0_7:0.00000223):0.00000242):0.00000573):0.00000325,(((2_0_17:0.00000547,2_0_6:0.00000218):0.00000240,2_0_0:0.00000513):0.00000113,((2_0_11:0.00000514,2_0_5:0.00000217):0.00000368,(2_0_12:0.00000059,2_0_8:0.00000061):0.00000634):0.00000076):0.00000620):0.00028289,(2_0_15:0.00000797,(2_0_2:0.00000306,((2_0_9:0.00000278,(2_0_14:0.00000060,2_0_1:0.00000023):0.00000180):0.00000115,2_0_3:0.00000538):0.00000011):0.00002139):0.00013537):0.00216378):0.00966638,((((1_0_14:0.00000063,(1_0_7:0.00000005,1_0_16:0.00000002):0.00000082):0.00000011,1_0_12:0.00000033):0.00001221,((1_0_17:0.00000118,1_0_5:0.00000138):0.00001048,1_0_3:0.00000622):0.00001870):0.00002251,(((1_0_8:0.00000037,1_0_18:0.00000172):0.00001857,((1_0_2:0.00000433,((1_0_15:0.00000053,1_0_6:0.00000119):0.00000198,(1_0_10:0.00000001,1_0_9:0.00000000):0.00000392):0.00000001):0.00000098,1_0_13:0.00001049):0.00002627):0.00000988,(1_0_4:0.00005347,(1_0_1:0.00000316,(1_0_11:0.00000235,1_0_0:0.00000368):0.00000351):0.00004359):0.00000001):0.00001687):0.00472488):0.02076528,((((5_0_10:0.00000192,(5_0_0:0.00000069,5_0_12:0.00000080):0.00000153):0.00004766,((5_0_16:0.00000017,5_0_9:0.00000020):0.00004474,((5_0_1:0.00000766,5_0_15:0.00000283):0.00002105,(5_0_6:0.00001855,5_0_18:0.00003157):0.00000329):0.00000481):0.00000581):0.00006798,(((5_0_2:0.00000015,5_0_17:0.00000011):0.00000119,5_0_4:0.00000096):0.00001136,(((5_0_11:0.00001066,5_0_5:0.00000382):0.00000451,((5_0_3:0.00000086,5_0_7:0.00000079):0.00000062,5_0_14:0.00000257):0.00000857):0.00000040,(5_0_8:0.00001202,5_0_13:0.00001127):0.00000577):0.00000338):0.00009276):0.01855874,((((4_0_13:0.00001402,(4_0_16:0.00001550,(4_0_11:0.00000088,(4_0_9:0.00000054,4_0_6:0.00000065):0.00000030):0.00001148):0.00000558):0.00000082,(4_0_7:0.00000894,((((4_0_10:0.00000074,4_0_2:0.00000107):0.00000018,4_0_1:0.00000055):0.00000273,(4_0_8:0.00000089,4_0_5:0.00000088):0.00000572):0.00000071,4_0_3:0.00000874):0.00000128):0.00001778):0.00001202,((4_0_18:0.00000004,4_0_15:0.00000006):0.00001471,(((4_0_12:0.00000032,4_0_4:0.00000053):0.00000065,4_0_17:0.00000141):0.00000043,(4_0_14:0.00000062,4_0_0:0.00000170):0.00000030):0.00000545):0.00002544):0.00584678,(((((((6_0_3:0.00000116,(6_0_7:0.00000046,6_0_14:0.00000052):0.00000035):0.00000008,6_0_6:0.00000087):0.00000096,6_0_0:0.00000472):0.00000330,(((6_0_5:0.00000021,6_0_13:0.00000033):0.00000282,6_0_4:0.00000303):0.00000050,6_0_9:0.00000144):0.00000118):0.00000298,((6_0_8:0.00000756,6_0_10:0.00000144):0.00000016,6_0_2:0.00000410):0.00000100):0.00000982,6_0_1:0.00001556):0.00002200,(((6_0_15:0.00000891,6_0_11:0.00000844):0.00001291,6_0_12:0.00000984):0.00002501,(6_0_18:0.00000859,(6_0_16:0.00000417,6_0_17:0.00000951):0.00000602):0.00002063):0.00002479):0.00612467):0.00554998):0.06162410):0.03810647);

data_02	T02	115	1	1	0.340901	0.135334	0.266054	(0_0_0:0.13533371,((((((((((2_0_15:0.00000022,2_0_3:0.00000016):0.00000112,2_0_11:0.00000220):0.00000110,2_0_12:0.00000271):0.00000144,(2_0_10:0.00000051,2_0_17:0.00000048):0.00000112):0.00000401,(2_0_14:0.00000253,2_0_16:0.00000354):0.00000634):0.00001634,((2_0_8:0.00000417,(2_0_18:0.00000230,(2_0_1:0.00000006,2_0_2:0.00000009):0.00000056):0.00000119):0.00000020,2_0_6:0.00000331):0.00001755):0.00004257,((2_0_7:0.00001797,((2_0_0:0.00000295,2_0_4:0.00000560):0.00000562,(2_0_5:0.00000453,2_0_13:0.00000681):0.00000184):0.00001829):0.00000685,2_0_9:0.00011434):0.00000443):0.00228409,((3_0_7:0.00002368,((((3_0_9:0.00000391,3_0_2:0.00000443):0.00000273,3_0_1:0.00000604):0.00000886,(3_0_15:0.00000091,3_0_4:0.00000094):0.00001004):0.00001122,((3_0_6:0.00000269,(3_0_13:0.00000016,3_0_12:0.00000023):0.00001331):0.00001530,(3_0_8:0.00000685,(3_0_14:0.00000394,3_0_3:0.00000381):0.00000239):0.00001722):0.00000740):0.00000471):0.00001790,((3_0_10:0.00001344,(3_0_18:0.00000270,3_0_0:0.00000213):0.00000689):0.00001395,(((3_0_17:0.00000103,3_0_16:0.00000106):0.00000136,3_0_5:0.00000098):0.00000071,3_0_11:0.00000424):0.00002883):0.00006937):0.00163687):0.00461911,(1_0_14:0.00004819,((((1_0_8:0.00000303,1_0_5:0.00000334):0.00000078,1_0_9:0.00000095):0.00000992,((1_0_0:0.00000279,((1_0_2:0.00000077,1_0_1:0.00000095):0.00000017,1_0_3:0.00000119):0.00000162):0.00000423,(1_0_15:0.00001495,1_0_12:0.00000657):0.00000756):0.00000146):0.00000643,((1_0_18:0.00000683,(1_0_6:0.00000694,(1_0_16:0.00000711,((((1_0_11:0.00000018,1_0_13:0.00000013):0.00000042,1_0_10:0.00000110):0.00000003,1_0_4:0.00000069):0.00000013,1_0_7:0.00000137):0.00000237):0.00000226):0.00000224):0.00001785,1_0_17:0.00002102):0.00000625):0.00003254):0.01418674):0.04208980,((((6_0_7:0.00001170,(((6_0_17:0.00000750,6_0_5:0.00000725):0.00000254,(6_0_18:0.00000368,6_0_10:0.00000104):0.00000446):0.00000531,(((((6_0_2:0.00000173,(6_0_1:0.00000170,6_0_12:0.00000134):0.00000018):0.00000046,6_0_3:0.00000235):0.00000606,(6_0_16:0.00000036,6_0_4:0.00000033):0.00000865):0.00000044,6_0_8:0.00000330):0.00000098,((6_0_6:0.00000019,6_0_9:0.00000033):0.00001083,(6_0_11:0.00000949,6_0_0:0.00000555):0.00000371):0.00000227):0.00000271):0.00000042):0.00021416,(6_0_15:0.00000086,(6_0_14:0.00000007,6_0_13:0.00000007):0.00000069):0.00014040):0.01008272,((4_0_17:0.00003555,((4_0_4:0.00000088,4_0_0:0.00000055):0.00000391,(4_0_18:0.00000511,4_0_3:0.00000251):0.00000224):0.00001032):0.00003219,((((4_0_12:0.00000091,(4_0_16:0.00000203,4_0_13:0.00000245):0.00000031):0.00000050,4_0_2:0.00000093):0.00000187,4_0_9:0.00000173):0.00002904,(4_0_11:0.00002478,((4_0_8:0.00000168,(4_0_6:0.00000046,4_0_10:0.00000076):0.00000287):0.00000422,((4_0_5:0.00000007,4_0_1:0.00000027):0.00000412,(4_0_14:0.00000178,(4_0_15:0.00000237,4_0_7:0.00000135):0.00000222):0.00000199):0.00000042):0.00000502):0.00002113):0.00009142):0.00262906):0.01152409,((((5_0_6:0.00000019,5_0_7:0.00000024):0.00000140,5_0_4:0.00000029):0.00002085,((5_0_13:0.00000050,5_0_14:0.00000039):0.00001355,(((5_0_9:0.00000088,5_0_1:0.00000064):0.00000059,(5_0_8:0.00000153,5_0_17:0.00000097):0.00000016):0.00000334,((5_0_11:0.00000272,(5_0_16:0.00000130,(5_0_2:0.00000032,5_0_18:0.00000036):0.00000057):0.00000167):0.00000107,(5_0_12:0.00000268,5_0_5:0.00000140):0.00000055):0.00000794):0.00000160):0.00000122):0.00001060,((5_0_10:0.00005243,(5_0_15:0.00000257,5_0_3:0.00000198):0.00003336):0.00001693,5_0_0:0.00004927):0.00002254):0.00977039):0.03050281):0.07437544);

data_03	T03	115	1	1	0.320337	0.138904	0.215092	(0_0_0:0.07618865,((((1_0_6:0.00000267,1_0_4:0.00001026):0.00003698,(((1_0_1:0.00001086,((1_0_0:0.00000032,1_0_13:0.00000019):0.00000089,1_0_16:0.00000146):0.00001178):0.00000309,((((1_0_3:0.00000222,1_0_14:0.00000111):0.00000214,((1_0_15:0.00000017,1_0_2:0.00000030):0.00000022,1_0_11:0.00000024):0.00000427):0.00000088,((1_0_5:0.00000161,1_0_7:0.00000055):0.00000073,(1_0_8:0.00000085,1_0_12:0.00000074):0.00000583):0.00000103):0.00000532,((1_0_18:0.00000421,1_0_9:0.00000162):0.00000129,1_0_17:0.00000472):0.00000411):0.00001783):0.00000638,1_0_10:0.00006134):0.00007544):0.01395540,((((((3_0_12:0.00000130,((3_0_4:0.00000061,3_0_10:0.00000070):0.00000119,3_0_5:0.00000119):0.00000001):0.00000108,(3_0_18:0.00000067,3_0_7:0.00000040):0.00000222):0.00000219,(3_0_3:0.00000005,3_0_17:0.00000006):0.00000215):0.00004029,(3_0_0:0.00000097,3_0_11:0.00000164):0.00001272):0.00009050,(((3_0_2:0.00000674,(3_0_1:0.00000048,3_0_9:0.00000042):0.00000058):0.00000628,((3_0_16:0.00000282,3_0_8:0.00000655):0.00000194,(3_0_6:0.00000777,(3_0_15:0.00000349,3_0_14:0.00000784):0.00000277):0.00000027):0.00000297):0.00002173,3_0_13:0.00002994):0.00008297):0.00174963,(((((2_0_7:0.00000041,(2_0_12:0.00000078,2_0_11:0.00000068):0.00000003):0.00000952,(((2_0_10:0.00000028,2_0_9:0.00000040):0.00000102,(2_0_5:0.00000128,2_0_18:0.00000189):0.00000027):0.00000566,(2_0_17:0.00000090,(2_0_1:0.00000084,2_0_14:0.00000207):0.00000013):0.00000429):0.00000324):0.00000132,(2_0_3:0.00000663,(2_0_15:0.00000091,2_0_0:0.00000031):0.00000509):0.00000449):0.00001442,((2_0_16:0.00000860,(2_0_13:0.00000482,2_0_4:0.00001520):0.00000080):0.00000275,2_0_6:0.00001600):0.00000928):0.00006664,(2_0_2:0.00000156,2_0_8:0.00000101):0.00011653):0.00293167):0.01069462):0.05423900,((((((((5_0_7:0.00000055,5_0_11:0.00000080):0.00000047,5_0_13:0.00000078):0.00000061,5_0_12:0.00000275):0.00000322,5_0_17:0.00000439):0.00002121,(5_0_14:0.00000448,5_0_15:0.00000344):0.00002300):0.00000411,(5_0_0:0.00000336,(5_0_10:0.00000299,5_0_4:0.00000661):0.00000156):0.00001521):0.00001474,(((5_0_9:0.00000807,(5_0_5:0.00000228,(5_0_2:0.00000238,5_0_8:0.00000143):0.00000233):0.00000360):0.00000663,((5_0_16:0.00000018,5_0_3:0.00000022):0.00000044,5_0_6:0.00000017):0.00001008):0.00001158,(5_0_18:0.00000827,5_0_1:0.00000954):0.00000508):0.00002622):0.04600689,(((((4_0_15:0.00000570,4_0_4:0.00000787):0.00001890,(((4_0_5:0.00000402,4_0_2:0.00000382):0.00000255,4_0_9:0.00000428):0.00002717,((4_0_3:0.00000154,4_0_12:0.00000427):0.00002022,(4_0_7:0.00000026,4_0_0:0.00000035):0.00001451):0.00001230):0.00000020):0.00002646,(4_0_1:0.00000069,4_0_8:0.00000047):0.00003108):0.00003213,(((4_0_10:0.00000830,4_0_6:0.00000566):0.00000339,((4_0_18:0.00000410,(4_0_13:0.00000136,4_0_14:0.00000180):0.00000080):0.00000663,4_0_11:0.00001170):0.00000198):0.00004141,(4_0_17:0.00000543,4_0_16:0.00000580):0.00003533):0.00002857):0.00548645,(((6_0_16:0.00002782,6_0_13:0.00001869):0.00000147,(((6_0_5:0.00000721,6_0_8:0.00000314):0.00000306,6_0_6:0.00000823):0.00000615,((6_0_17:0.00000204,6_0_1:0.00000408):0.00000657,6_0_10:0.00000203):0.00001008):0.00001228):0.00001343,(((((6_0_3:0.00000188,6_0_12:0.00000152):0.00000510,(6_0_4:0.00001376,6_0_2:0.00000701):0.00000180):0.00000646,(6_0_9:0.00000390,6_0_18:0.00000726):0.00001531):0.00000049,(6_0_0:0.00000032,6_0_15:0.00000013):0.00001439):0.00000238,(6_0_7:0.00001037,(6_0_14:0.00000757,6_0_11:0.00000907):0.00000080):0.00000723):0.00002020):0.00969776):0.00474625):0.05974112):0.03310288);

data_04	T04	115	1	1	0.355617	0.14175	0.272345	(((((((3_0_1:0.00000044,3_0_6:0.00000113):0.00001703,((3_0_11:0.00000455,(3_0_14:0.00000162,3_0_8:0.00000116):0.00000887):0.00000554,(3_0_3:0.00000657,3_0_17:0.00001024):0.00000418):0.00001099):0.00004041,((((3_0_7:0.00000239,3_0_16:0.00000159):0.00000898,(3_0_4:0.00000320,(3_0_5:0.00000134,3_0_13:0.00000145):0.00000125):0.00000699):0.00000199,((3_0_2:0.00000177,3_0_18:0.00000494):0.00000917,(3_0_9:0.00000173,((3_0_15:0.00000051,3_0_0:0.00000055):0.00000044,3_0_12:0.00000169):0.00000043):0.00001000):0.00000318):0.00001559,3_0_10:0.00002526):0.00005276):0.00243388,(((2_0_11:0.00000023,2_0_16:0.00000029):0.00000255,(2_0_7:0.00000325,2_0_8:0.00000229):0.00000616):0.00006308,((2_0_17:0.00000316,2_0_15:0.00000221):0.00002087,(2_0_4:0.00001002,((2_0_9:0.00000263,(2_0_2:0.00000018,(2_0_0:0.00000007,2_0_10:0.00000013):0.00000018):0.00000155):0.00000459,(2_0_14:0.00000436,(((2_0_12:0.00000260,2_0_3:0.00000226):0.00000263,(2_0_13:0.00000125,(2_0_1:0.00000104,2_0_6:0.00000250):0.00000148):0.00000040):0.00000027,(2_0_18:0.00000118,2_0_5:0.00000071):0.00000348):0.00000131):0.00000111):0.00001229):0.00000211):0.00001928):0.00424569):0.01487361,((((1_0_0:0.00001992,((1_0_18:0.00000650,1_0_16:0.00000103):0.00001558,((1_0_3:0.00000898,(1_0_4:0.00000046,1_0_13:0.00000130):0.00000680):0.00000603,1_0_5:0.00001283):0.00000030):0.00000360):0.00000689,(1_0_2:0.00000198,((1_0_12:0.00000008,1_0_8:0.00000005):0.00000016,1_0_14:0.00000019):0.00000225):0.00002732):0.00005793,((((1_0_7:0.00000069,1_0_17:0.00000042):0.00000246,1_0_6:0.00000879):0.00000179,1_0_15:0.00000636):0.00001160,1_0_10:0.00002699):0.00001881):0.00007185,(1_0_11:0.00000433,(1_0_1:0.00000094,1_0_9:0.00000033):0.00000116):0.00011977):0.01137907):0.03224317,((((5_0_4:0.00000168,(5_0_7:0.00000203,5_0_14:0.00000239):0.00000084):0.00003861,(((5_0_9:0.00000146,(5_0_3:0.00000067,5_0_11:0.00000118):0.00000032):0.00000152,5_0_1:0.00000537):0.00002647,(((((5_0_2:0.00000126,5_0_6:0.00000088):0.00000003,5_0_13:0.00000038):0.00000689,(5_0_12:0.00000205,5_0_5:0.00000543):0.00000249):0.00000157,5_0_8:0.00001302):0.00000013,(5_0_0:0.00000216,(5_0_18:0.00000279,(5_0_16:0.00000050,5_0_15:0.00000032):0.00000170):0.00000136):0.00002358):0.00000187):0.00000894):0.00001327,(5_0_17:0.00000002,5_0_10:0.00000003):0.00001864):0.01333954,(((((6_0_11:0.00000367,6_0_2:0.00000403):0.00001710,((6_0_4:0.00000040,6_0_8:0.00000088):0.00000115,(6_0_12:0.00000220,6_0_18:0.00000161):0.00000184):0.00003691):0.00001666,((6_0_17:0.00000371,6_0_15:0.00000731):0.00000646,(((6_0_9:0.00000107,(6_0_6:0.00000078,6_0_1:0.00000115):0.00000025):0.00000194,(6_0_5:0.00000151,6_0_14:0.00000249):0.00000304):0.00000049,6_0_13:0.00000726):0.00000852):0.00001461):0.00012940,(((6_0_3:0.00000102,6_0_7:0.00000096):0.00000586,6_0_16:0.00000708):0.00001273,(6_0_10:0.00000387,6_0_0:0.00000206):0.00001189):0.00009313):0.00314235,((4_0_3:0.00001045,(4_0_9:0.00000517,((4_0_10:0.00000466,(4_0_18:0.00000204,(4_0_7:0.00000060,4_0_15:0.00000186):0.00000028):0.00000045):0.00000164,(4_0_6:0.00000206,(4_0_17:0.00000030,(4_0_12:0.00000036,4_0_11:0.00000027):0.00000007):0.00000160):0.00000453):0.00000609):0.00000657):0.00001936,((((4_0_4:0.00000061,4_0_5:0.00000053):0.00000679,4_0_16:0.00000752):0.00000112,(4_0_1:0.00000071,4_0_0:0.00000129):0.00000506):0.00000027,(4_0_14:0.00001480,((4_0_2:0.00000035,4_0_8:0.00000048):0.00000222,4_0_13:0.00000581):0.00000312):0.00000034):0.00001731):0.00685693):0.01700565):0.05138338):0.06646565,0_0_0:0.13059450);

data_05	T05	115	1	1	0.293984	0.116309	0.195533	(0_0_0:0.07922370,(((((((1_0_15:0.00000302,1_0_5:0.00000352):0.00000439,1_0_18:0.00001109):0.00000046,(((1_0_16:0.00000009,1_0_13:0.00000006):0.00000030,1_0_1:0.00000023):0.00000072,1_0_12:0.00000149):0.00001391):0.00002837,((((1_0_2:0.00000418,1_0_10:0.00000209):0.00000176,(1_0_11:0.00000307,1_0_6:0.00000252):0.00000088):0.00000991,(1_0_4:0.00000909,(1_0_9:0.00000015,1_0_3:0.00000010):0.00000348):0.00000632):0.00000082,(1_0_17:0.00000140,(1_0_14:0.00000057,1_0_8:0.00000066):0.00000125):0.00000354):0.00001112):0.00001331,(1_0_0:0.00001024,1_0_7:0.00001217):0.00007558):0.00736402,(((2_0_13:0.00000712,(2_0_3:0.00000171,(2_0_5:0.00000053,2_0_6:0.00000104):0.00000126):0.00000564):0.00004986,(((((((((2_0_1:0.00000018,2_0_11:0.00000017):0.00000003,2_0_16:0.00000015):0.00000070,2_0_4:0.00000144):0.00000002,(2_0_2:0.00000147,2_0_15:0.00000146):0.00000007):0.00000005,2_0_14:0.00000108):0.00000043,((2_0_9:0.00000067,2_0_18:0.00000132):0.00000016,2_0_12:0.00000123):0.00000139):0.00000047,2_0_7:0.00000335):0.00000252,2_0_17:0.00001316):0.00003967,((2_0_10:0.00000116,2_0_8:0.00000234):0.00000050,2_0_0:0.00000203):0.00007250):0.00014318):0.00286425,(3_0_16:0.00011237,((((3_0_5:0.00000428,3_0_1:0.00000665):0.00001056,3_0_9:0.00002082):0.00000218,3_0_2:0.00002586):0.00006143,(3_0_0:0.00001153,(((3_0_8:0.00000028,3_0_12:0.00000039):0.00000920,3_0_13:0.00002248):0.00000338,((((3_0_6:0.00000067,(3_0_17:0.00000190,(3_0_18:0.00000097,3_0_4:0.00000098):0.00000052):0.00000018):0.00000002,((3_0_7:0.00000012,3_0_11:0.00000023):0.00000122,3_0_15:0.00000124):0.00000157):0.00000321,3_0_10:0.00001984):0.00000427,(3_0_3:0.00000032,3_0_14:0.00000041):0.00000771):0.00000387):0.00000578):0.00003811):0.00005612):0.00513090):0.01555676):0.04780458,(((((5_0_9:0.00000251,5_0_3:0.00000079):0.00000781,5_0_17:0.00000976):0.00004163,(((5_0_11:0.00000020,5_0_6:0.00000087):0.00001468,5_0_14:0.00002551):0.00000336,((5_0_18:0.00000418,(5_0_15:0.00000592,((5_0_1:0.00000009,5_0_2:0.00000019):0.00000144,5_0_7:0.00000101):0.00001107):0.00000092):0.00000712,(5_0_16:0.00000079,(5_0_8:0.00000160,(5_0_13:0.00000128,5_0_10:0.00000120):0.00000094):0.00000012):0.00001068):0.00000376):0.00005831):0.00000146,((5_0_5:0.00001058,(5_0_12:0.00000298,5_0_0:0.00000311):0.00000268):0.00000625,5_0_4:0.00002851):0.00004952):0.01220428,((((6_0_10:0.00000197,6_0_17:0.00000145):0.00000070,6_0_7:0.00000383):0.00004087,(((6_0_9:0.00003103,(6_0_14:0.00000074,((6_0_0:0.00000004,6_0_2:0.00000001):0.00000019,6_0_15:0.00000013):0.00000048):0.00001890):0.00000412,((6_0_3:0.00000610,6_0_12:0.00000529):0.00000300,6_0_11:0.00001029):0.00002002):0.00001495,(((6_0_13:0.00000017,6_0_8:0.00000053):0.00000428,((6_0_4:0.00000025,6_0_1:0.00000039):0.00000121,6_0_16:0.00000328):0.00000614):0.00001968,(6_0_6:0.00000952,(6_0_5:0.00000003,6_0_18:0.00000003):0.00000546):0.00002332):0.00000333):0.00000475):0.00579104,((((4_0_9:0.00000467,(4_0_4:0.00000401,((4_0_17:0.00000003,4_0_6:0.00000002):0.00000026,4_0_3:0.00000058):0.00000331):0.00000245):0.00000080,(4_0_8:0.00000197,4_0_15:0.00000112):0.00000568):0.00000012,4_0_7:0.00000872):0.00001090,(((4_0_11:0.00000017,4_0_10:0.00000013):0.00000082,4_0_16:0.00000057):0.00002687,(((4_0_14:0.00000294,4_0_0:0.00000267):0.00001631,4_0_5:0.00001009):0.00000096,((4_0_2:0.00000148,4_0_13:0.00000231):0.00001347,(4_0_18:0.00000715,(4_0_1:0.00000009,4_0_12:0.00000009):0.00001203):0.00000379):0.00000386):0.00000050):0.00001438):0.00819786):0.02178441):0.04131606):0.04496872);

data_06	T06	115	1	1	0.37967	0.178298	0.285191	((((((1_0_6:0.00001086,((1_0_5:0.00000759,1_0_7:0.00000687):0.00000641,(((1_0_18:0.00000047,1_0_8:0.00000072):0.00000038,1_0_17:0.00000147):0.00000250,(1_0_11:0.00000244,1_0_0:0.00000168):0.00000127):0.00001478):0.00000456):0.00000633,(1_0_12:0.00002143,1_0_15:0.00002725):0.00000717):0.00007350,((1_0_1:0.00000226,(1_0_3:0.00000022,(1_0_2:0.00000025,1_0_13:0.00000012):0.00000008):0.00000068):0.00001905,(1_0_14:0.00001903,((1_0_10:0.00000177,1_0_4:0.00000130):0.00000239,(1_0_16:0.00000024,1_0_9:0.00000060):0.00000364):0.00001015):0.00000305):0.00004650):0.01309061,(((2_0_2:0.00000096,2_0_10:0.00000134):0.00002371,(((2_0_18:0.00000782,2_0_15:0.00000898):0.00000003,(2_0_4:0.00000237,2_0_17:0.00000327):0.00000216):0.00003300,(2_0_1:0.00002766,(((((2_0_14:0.00000010,2_0_8:0.00000035):0.00000159,2_0_7:0.00000096):0.00000562,((2_0_16:0.00000883,(2_0_3:0.00000178,2_0_0:0.00000088):0.00000276):0.00000163,2_0_13:0.00000394):0.00000181):0.00000548,((2_0_12:0.00000153,2_0_11:0.00000125):0.00000035,2_0_9:0.00000223):0.00001205):0.00000067,(2_0_6:0.00000472,2_0_5:0.00000139):0.00001375):0.00001062):0.00000057):0.00001110):0.00604085,((((3_0_17:0.00000037,3_0_4:0.00000054):0.00000145,3_0_7:0.00000089):0.00007281,(3_0_11:0.00003360,(((3_0_8:0.00000382,((3_0_16:0.00000159,3_0_9:0.00000099):0.00000441,(3_0_3:0.00000347,(3_0_12:0.00000701,(3_0_5:0.00000158,3_0_0:0.00000469):0.00000106):0.00000377):0.00000087):0.00000448):0.00000400,(3_0_13:0.00000685,3_0_18:0.00001404):0.00000887):0.00000512,3_0_10:0.00004524):0.00000809):0.00002943):0.00000112,((3_0_2:0.00000471,3_0_14:0.00000497):0.00000793,(3_0_6:0.00000378,(3_0_15:0.00000221,3_0_1:0.00000157):0.00000086):0.00000432):0.00003652):0.00505063):0.00679700):0.03595071,(((((4_0_0:0.00000947,(((4_0_5:0.00000027,4_0_9:0.00000027):0.00000069,4_0_3:0.00000141):0.00000272,(4_0_11:0.00000329,4_0_8:0.00000308):0.00000017):0.00001264):0.00005182,(4_0_17:0.00005414,4_0_6:0.00001645):0.00000207):0.00011273,((((4_0_10:0.00000036,4_0_14:0.00000013):0.00000004,4_0_12:0.00000016):0.00002620,(4_0_1:0.00001397,4_0_4:0.00001195):0.00001383):0.00002568,(((4_0_2:0.00000079,4_0_15:0.00000218):0.00000094,(4_0_7:0.00000023,4_0_18:0.00000078):0.00000161):0.00000919,(4_0_16:0.00000707,4_0_13:0.00000508):0.00000991):0.00001365):0.00007348):0.00551426,(((6_0_3:0.00000388,6_0_4:0.00000282):0.00003072,((6_0_2:0.00001138,(6_0_16:0.00000459,(6_0_12:0.00000301,((6_0_8:0.00000013,6_0_14:0.00000039):0.00000269,6_0_15:0.00000232):0.00000028):0.00000463):0.00000413):0.00000861,((6_0_13:0.00001470,6_0_11:0.00001321):0.00000729,((6_0_10:0.00000016,6_0_18:0.00000037):0.00000236,6_0_1:0.00000300):0.00000578):0.00000614):0.00000917):0.00000653,(6_0_9:0.00000800,(((6_0_6:0.00000107,6_0_7:0.00000084):0.00000104,6_0_5:0.00000173):0.00000022,(6_0_0:0.00000002,6_0_17:0.00000002):0.00000093):0.00000762):0.00003282):0.00500084):0.01587838,((5_0_5:0.00000176,5_0_0:0.00000065):0.00006043,((((5_0_2:0.00000081,5_0_9:0.00000075):0.00000760,(5_0_13:0.00001746,(5_0_1:0.00000482,5_0_17:0.00000812):0.00000546):0.00000130):0.00000232,(5_0_3:0.00000709,5_0_4:0.00001051):0.00000705):0.00000614,(((((5_0_12:0.00000203,5_0_6:0.00000103):0.00000103,(5_0_16:0.00000119,(5_0_8:0.00000278,(5_0_18:0.00000099,5_0_10:0.00000073):0.00000100):0.00000007):0.00000159):0.00000008,5_0_11:0.00000427):0.00000542,5_0_7:0.00000415):0.00000722,(5_0_15:0.00000681,5_0_14:0.00000486):0.00000679):0.00002263):0.00003123):0.02392908):0.02458273):0.05774394,0_0_0:0.17829816);

data_07	T07	115	1	1	0.270429	0.0956757	0.182255	(0_0_0:0.09567569,(((((1_0_15:0.00000070,1_0_6:0.00000018):0.00001009,1_0_11:0.00000239):0.00008969,(((1_0_1:0.00000002,1_0_4:0.00000002):0.00000319,1_0_3:0.00000322):0.00003586,(((1_0_18:0.00000140,1_0_16:0.00000094):0.00000770,(1_0_13:0.00000658,1_0_10:0.00000701):0.00000461):0.00002829,((1_0_5:0.00001347,((1_0_12:0.00000070,((1_0_0:0.00000001,1_0_8:0.00000011):0.00000050,1_0_7:0.00000051):0.00000001):0.00000686,(1_0_14:0.00000047,1_0_2:0.00000033):0.00000546):0.00000114):0.00000303,(1_0_17:0.00000247,1_0_9:0.00000464):0.00000820):0.00002253):0.00001347):0.00003264):0.01810920,(((2_0_4:0.00000625,(2_0_2:0.00000428,(2_0_5:0.00000312,2_0_0:0.00000364):0.00000127):0.00000059):0.00051423,((2_0_1:0.00000053,2_0_13:0.00000061):0.00002863,(((2_0_11:0.00000053,2_0_18:0.00000065):0.00000474,(2_0_10:0.00000020,2_0_8:0.00000016):0.00000604):0.00003214,(2_0_14:0.00003803,(((2_0_6:0.00000062,2_0_7:0.00000019):0.00000619,(2_0_16:0.00000777,(((2_0_12:0.00000027,2_0_15:0.00000024):0.00000698,2_0_17:0.00000284):0.00000184,2_0_9:0.00000777):0.00000077):0.00000270):0.00000227,2_0_3:0.00001363):0.00000648):0.00000866):0.00002773):0.00039881):0.00766609,((((((((3_0_2:0.00000041,3_0_8:0.00000029):0.00000278,(3_0_3:0.00000594,3_0_18:0.00000137):0.00000049):0.00001302,3_0_11:0.00001373):0.00000651,((3_0_12:0.00000034,3_0_16:0.00000064):0.00000118,3_0_4:0.00000038):0.00001222):0.00000026,(3_0_7:0.00000564,(3_0_9:0.00000263,3_0_17:0.00000348):0.00000123):0.00001012):0.00000775,(((3_0_10:0.00000757,3_0_5:0.00000257):0.00000024,3_0_15:0.00000496):0.00000246,3_0_13:0.00000833):0.00003487):0.00001379,3_0_14:0.00006828):0.00011581,(3_0_0:0.00000956,(3_0_1:0.00000206,3_0_6:0.00000370):0.00001094):0.00006046):0.00323758):0.00729948):0.02934109,(((((6_0_15:0.00002477,(6_0_8:0.00000594,((6_0_3:0.00000045,6_0_17:0.00000025):0.00000238,(6_0_16:0.00000013,6_0_14:0.00000015):0.00000199):0.00000095):0.00001809):0.00001058,((((6_0_7:0.00000315,(6_0_18:0.00000107,6_0_4:0.00000075):0.00000143):0.00001607,((6_0_0:0.00000238,6_0_11:0.00000244):0.00002261,6_0_12:0.00000383):0.00000260):0.00000202,(6_0_5:0.00000460,6_0_9:0.00000311):0.00001624):0.00000385,(6_0_6:0.00000183,6_0_10:0.00000173):0.00003098):0.00002368):0.00005343,(6_0_1:0.00000161,(6_0_13:0.00000084,6_0_2:0.00000062):0.00000351):0.00004061):0.00332561,(((((4_0_6:0.00000539,(4_0_18:0.00000158,((4_0_9:0.00000150,(4_0_15:0.00000041,4_0_4:0.00000059):0.00000138):0.00000076,(4_0_3:0.00000130,4_0_12:0.00000265):0.00000079):0.00000336):0.00000063):0.00000557,(4_0_13:0.00000016,4_0_17:0.00000042):0.00001024):0.00000166,((4_0_11:0.00000080,4_0_1:0.00000045):0.00000045,4_0_0:0.00000054):0.00000734):0.00000474,((4_0_8:0.00001400,4_0_10:0.00001593):0.00000024,(4_0_2:0.00000276,(4_0_14:0.00000384,(4_0_5:0.00000208,4_0_7:0.00000118):0.00000435):0.00000986):0.00000346):0.00000068):0.00001502,4_0_16:0.00001967):0.00699399):0.00964536,((5_0_8:0.00002026,5_0_16:0.00002440):0.00010259,(((5_0_17:0.00000174,5_0_1:0.00000175):0.00000176,((5_0_5:0.00000094,5_0_4:0.00000500):0.00000008,5_0_10:0.00000131):0.00000218):0.00005648,(((((5_0_6:0.00000046,5_0_7:0.00000052):0.00000164,5_0_0:0.00000145):0.00000151,(5_0_13:0.00000030,5_0_3:0.00000025):0.00000185):0.00000663,((5_0_12:0.00000110,((5_0_14:0.00000020,5_0_15:0.00000013):0.00000092,(5_0_18:0.00000024,5_0_9:0.00000031):0.00000096):0.00000031):0.00000608,5_0_2:0.00000760):0.00000176):0.00000126,5_0_11:0.00001806):0.00000847):0.00005007):0.01684255):0.03830614):0.03130321);

data_08	T08	115	1	1	0.318411	0.162281	0.244366	(0_0_0:0.16228115,((((((2_0_5:0.00000700,2_0_1:0.00001556):0.00008891,((2_0_9:0.00000186,2_0_12:0.00000210):0.00000758,2_0_17:0.00000742):0.00006029):0.00003704,(((2_0_0:0.00000579,(2_0_7:0.00000063,2_0_14:0.00000022):0.00000190):0.00001886,((2_0_3:0.00000549,2_0_16:0.00000756):0.00000734,(2_0_2:0.00000006,2_0_10:0.00000003):0.00002705):0.00001402):0.00001665,(((2_0_4:0.00000260,(2_0_11:0.00000140,2_0_18:0.00000113):0.00000006):0.00001627,2_0_8:0.00001427):0.00000473,(2_0_15:0.00000357,(2_0_13:0.00000030,2_0_6:0.00000043):0.00000230):0.00002030):0.00001026):0.00014218):0.00247519,((((3_0_9:0.00000213,((3_0_14:0.00000055,3_0_15:0.00000081):0.00000206,(3_0_10:0.00000155,3_0_11:0.00000095):0.00000172):0.00000041):0.00000094,3_0_12:0.00000278):0.00000031,3_0_8:0.00000572):0.00003354,(((3_0_1:0.00000011,3_0_5:0.00000006):0.00001088,(3_0_3:0.00000087,3_0_6:0.00000222):0.00000533):0.00000417,(3_0_17:0.00000491,(((3_0_16:0.00000297,(3_0_18:0.00000045,3_0_7:0.00000056):0.00000174):0.00000910,(3_0_2:0.00000417,3_0_0:0.00000254):0.00000856):0.00000108,(3_0_4:0.00000112,3_0_13:0.00000088):0.00001001):0.00000397):0.00000468):0.00007732):0.00265349):0.01052863,(((1_0_7:0.00000191,(1_0_12:0.00000020,1_0_16:0.00000018):0.00000109):0.00000873,(1_0_1:0.00000354,1_0_9:0.00001279):0.00002513):0.00015127,((((1_0_6:0.00001160,1_0_2:0.00000825):0.00000209,(1_0_11:0.00000095,1_0_0:0.00000082):0.00001397):0.00000261,1_0_8:0.00001484):0.00001110,((1_0_10:0.00000219,((1_0_14:0.00000331,(1_0_13:0.00000090,1_0_5:0.00000058):0.00000212):0.00000309,(1_0_17:0.00000194,1_0_18:0.00000179):0.00000103):0.00000101):0.00000042,((1_0_3:0.00000141,1_0_4:0.00000174):0.00000015,1_0_15:0.00000193):0.00000609):0.00003364):0.00025621):0.01187726):0.03234025,((((5_0_7:0.00000126,5_0_8:0.00000242):0.00001026,((5_0_5:0.00001069,(5_0_18:0.00000623,5_0_16:0.00000353):0.00001145):0.00000119,(((5_0_4:0.00000021,5_0_0:0.00000029):0.00000279,(5_0_2:0.00000024,(5_0_1:0.00000011,5_0_15:0.00000015):0.00000019):0.00000335):0.00000027,(5_0_17:0.00000359,(5_0_12:0.00000037,5_0_6:0.00000032):0.00000199):0.00000327):0.00000471):0.00000086):0.00003384,(5_0_11:0.00001049,(5_0_9:0.00000996,((5_0_10:0.00000116,5_0_3:0.00000243):0.00000214,(5_0_13:0.00000195,5_0_14:0.00000071):0.00000761):0.00000571):0.00001504):0.00003378):0.02414395,(((4_0_17:0.00000178,((4_0_16:0.00000062,(4_0_13:0.00000031,4_0_6:0.00000047):0.00000038):0.00000326,(4_0_0:0.00000201,(4_0_1:0.00000020,4_0_2:0.00000009):0.00000053):0.00000238):0.00000174):0.00005687,(((4_0_4:0.00000773,(4_0_10:0.00000146,(4_0_8:0.00000263,4_0_15:0.00000062):0.00000128):0.00000462):0.00000036,((((4_0_5:0.00000010,4_0_14:0.00000017):0.00000300,(4_0_12:0.00000225,4_0_18:0.00000118):0.00000089):0.00000216,(4_0_3:0.00000349,4_0_7:0.00000446):0.00000020):0.00000546,4_0_11:0.00001046):0.00000838):0.00001167,4_0_9:0.00001818):0.00007602):0.00145949,(((6_0_3:0.00000095,6_0_13:0.00000040):0.00000005,6_0_16:0.00000107):0.00008851,(6_0_0:0.00002447,((6_0_4:0.00000272,(6_0_7:0.00000036,6_0_2:0.00000084):0.00000279):0.00000540,(((((((6_0_17:0.00000117,(6_0_8:0.00000023,6_0_6:0.00000034):0.00000019):0.00000429,(6_0_12:0.00000011,6_0_11:0.00000013):0.00000518):0.00000050,6_0_10:0.00000295):0.00000002,6_0_1:0.00000182):0.00000327,6_0_18:0.00000725):0.00000360,(6_0_5:0.00000090,6_0_14:0.00000106):0.00001034):0.00000010,(6_0_9:0.00000070,6_0_15:0.00000051):0.00000656):0.00000038):0.00003522):0.00000163):0.00847826):0.00229393):0.03613146):0.02174541);

data_09	T09	115	1	1	0.287874	0.111992	0.193832	((((((4_0_16:0.00001354,(((4_0_4:0.00000012,4_0_6:0.00000017):0.00001334,(4_0_11:0.00000301,(4_0_9:0.00000492,(4_0_13:0.00000121,4_0_12:0.00000096):0.00000356):0.00000180):0.00000509):0.00002107,(4_0_3:0.00000018,4_0_14:0.00000012):0.00002656):0.00000264):0.00005601,((4_0_10:0.00000430,(4_0_18:0.00000003,4_0_8:0.00000001):0.00000284):0.00001760,((4_0_0:0.00001210,(4_0_7:0.00000177,4_0_17:0.00000176):0.00000466):0.00000063,(4_0_1:0.00000187,((4_0_15:0.00000396,4_0_2:0.00000391):0.00000192,4_0_5:0.00000639):0.00000189):0.00000143):0.00000473):0.00005402):0.00488260,((6_0_2:0.00002129,(6_0_3:0.00000062,6_0_10:0.00000074):0.00001812):0.00003281,((6_0_15:0.00003851,6_0_9:0.00002291):0.00002169,((((6_0_13:0.00000031,(6_0_14:0.00000085,(6_0_12:0.00000016,6_0_11:0.00000021):0.00000099):0.00000002):0.00000018,6_0_5:0.00000125):0.00001102,((6_0_6:0.00000689,(6_0_18:0.00000066,6_0_8:0.00000108):0.00000306):0.00000328,((6_0_4:0.00000149,6_0_16:0.00000129):0.00000246,(6_0_0:0.00000380,6_0_7:0.00000210):0.00000001):0.00000646):0.00000022):0.00000142,(6_0_17:0.00000176,6_0_1:0.00000634):0.00000747):0.00001221):0.00001680):0.01065853):0.01191952,(((((5_0_0:0.00000145,(5_0_13:0.00000042,5_0_12:0.00000045):0.00000039):0.00000090,5_0_3:0.00000339):0.00000739,5_0_11:0.00000770):0.00001273,5_0_4:0.00002005):0.00000094,(((5_0_6:0.00000405,((5_0_7:0.00000206,5_0_10:0.00000135):0.00000131,(5_0_2:0.00000121,5_0_8:0.00000145):0.00000242):0.00000383):0.00000027,(5_0_5:0.00000597,((((5_0_17:0.00000022,5_0_18:0.00000073):0.00000005,5_0_9:0.00000043):0.00000088,5_0_1:0.00000083):0.00000099,5_0_16:0.00000277):0.00000316):0.00000126):0.00001428,(5_0_14:0.00000111,5_0_15:0.00000064):0.00001837):0.00000336):0.02681870):0.02683462,((((1_0_3:0.00000264,1_0_18:0.00000277):0.00004450,((((1_0_1:0.00000062,1_0_7:0.00000101):0.00000076,(1_0_16:0.00000142,1_0_0:0.00000081):0.00000002):0.00000233,1_0_10:0.00000301):0.00000205,1_0_9:0.00000844):0.00002864):0.00007426,((1_0_13:0.00000898,1_0_2:0.00000504):0.00002140,(1_0_15:0.00001253,(((1_0_17:0.00000497,(1_0_11:0.00000128,1_0_5:0.00000083):0.00000088):0.00000384,(((1_0_8:0.00000002,1_0_14:0.00000006):0.00000508,1_0_12:0.00000198):0.00000306,1_0_6:0.00000291):0.00000649):0.00000112,1_0_4:0.00000977):0.00000163):0.00001143):0.00003258):0.00732838,(((((2_0_12:0.00000765,(2_0_13:0.00000046,2_0_18:0.00000170):0.00000295):0.00000576,(2_0_0:0.00000634,(((2_0_9:0.00000009,2_0_8:0.00000044):0.00000094,(2_0_10:0.00000069,2_0_4:0.00000041):0.00000080):0.00000383,2_0_17:0.00000414):0.00000214):0.00000929):0.00002106,(2_0_7:0.00000203,((2_0_1:0.00000012,2_0_16:0.00000006):0.00000351,((2_0_3:0.00000031,2_0_11:0.00000033):0.00000096,(2_0_14:0.00000016,2_0_2:0.00000008):0.00000096):0.00000353):0.00000041):0.00008064):0.00001170,(2_0_5:0.00002110,(2_0_6:0.00001006,2_0_15:0.00000378):0.00003342):0.00005437):0.00395687,((3_0_14:0.00001533,(3_0_10:0.00000135,(3_0_16:0.00000065,3_0_8:0.00000110):0.00000125):0.00002802):0.00005226,((((3_0_4:0.00000463,3_0_5:0.00000468):0.00000046,3_0_13:0.00000737):0.00008426,((((3_0_2:0.00000029,3_0_11:0.00000014):0.00000067,3_0_18:0.00000052):0.00000320,3_0_0:0.00000463):0.00004774,((3_0_12:0.00000231,3_0_15:0.00000557):0.00002603,((3_0_9:0.00000522,3_0_3:0.00000468):0.00000570,(3_0_17:0.00000049,(3_0_6:0.00000024,3_0_7:0.00000026):0.00000014):0.00000995):0.00001511):0.00001850):0.00002266):0.00000631,3_0_1:0.00009490):0.00002012):0.00564183):0.01018787):0.05919686):0.03684760,0_0_0:0.08183956);

data_10	T10	115	1	1	0.24573	0.0862954	0.160237	(0_0_0:0.07394113,((((1_0_14:0.00000270,((1_0_9:0.00000096,1_0_17:0.00000488):0.00000323,(1_0_2:0.00000092,1_0_7:0.00000086):0.00000446):0.00001498):0.00010945,(1_0_18:0.00011477,((((1_0_16:0.00001129,(1_0_1:0.00000133,1_0_10:0.00000128):0.00000226):0.00000231,(1_0_4:0.00000283,(1_0_13:0.00000151,1_0_6:0.00000316):0.00000011):0.00000348):0.00000340,((1_0_12:0.00000310,1_0_0:0.00000135):0.00000384,1_0_3:0.00000747):0.00000531):0.00000529,(1_0_11:0.00001003,((1_0_15:0.00000166,1_0_8:0.00000568):0.00000119,1_0_5:0.00000802):0.00000118):0.00001534):0.00003546):0.00004061):0.02203046,(((2_0_13:0.00000112,2_0_3:0.00000107):0.00022328,(((2_0_9:0.00008066,((2_0_2:0.00000268,2_0_0:0.00000053):0.00000209,(((2_0_1:0.00000088,2_0_16:0.00000095):0.00000179,(2_0_10:0.00000362,(2_0_7:0.00000064,2_0_15:0.00000028):0.00000277):0.00000000):0.00000033,2_0_12:0.00000217):0.00000303):0.00004588):0.00000348,(2_0_8:0.00000032,2_0_18:0.00000028):0.00003932):0.00000973,(((2_0_17:0.00000157,(2_0_11:0.00000218,2_0_4:0.00000115):0.00000063):0.00000181,2_0_14:0.00000544):0.00000110,(2_0_6:0.00000049,2_0_5:0.00000045):0.00000511):0.00002109):0.00010977):0.00054115,((3_0_7:0.00002129,((3_0_14:0.00000801,(3_0_2:0.00000326,((3_0_9:0.00000128,3_0_3:0.00000115):0.00000317,(3_0_18:0.00000039,3_0_11:0.00000059):0.00000532):0.00000024):0.00000058):0.00000400,3_0_12:0.00000596):0.00000945):0.00008057,(((3_0_1:0.00000301,(3_0_6:0.00000401,(3_0_5:0.00000005,3_0_15:0.00000007):0.00000225):0.00000088):0.00002004,(((3_0_17:0.00000694,(3_0_10:0.00000037,3_0_13:0.00000032):0.00000384):0.00000387,(3_0_0:0.00000182,3_0_8:0.00000131):0.00001030):0.00000754,3_0_4:0.00001625):0.00000194):0.00003282,3_0_16:0.00005072):0.00001611):0.00539766):0.01269076):0.02563537,((((((5_0_18:0.00000297,5_0_3:0.00000148):0.00001381,(5_0_8:0.00000275,5_0_2:0.00000309):0.00000425):0.00000229,5_0_7:0.00001488):0.00000033,(((((5_0_17:0.00000068,5_0_6:0.00000138):0.00000023,5_0_16:0.00000088):0.00000152,5_0_5:0.00000181):0.00000052,(5_0_12:0.00000122,(5_0_0:0.00000127,(5_0_1:0.00000054,5_0_11:0.00000026):0.00000046):0.00000105):0.00000217):0.00000156,(5_0_15:0.00000083,5_0_14:0.00000054):0.00001046):0.00001019):0.00002740,((5_0_13:0.00000534,(5_0_10:0.00000044,5_0_4:0.00000086):0.00000155):0.00000497,5_0_9:0.00000723):0.00003179):0.01220102,(((((4_0_2:0.00000002,4_0_12:0.00000000):0.00001909,(4_0_16:0.00000515,4_0_0:0.00000692):0.00001181):0.00003199,(((4_0_17:0.00000676,((4_0_9:0.00000162,4_0_3:0.00000137):0.00000565,(4_0_15:0.00000537,(4_0_14:0.00000190,(4_0_11:0.00000036,4_0_7:0.00000044):0.00000107):0.00000023):0.00000166):0.00000114):0.00000053,4_0_13:0.00000913):0.00002798,((4_0_1:0.00000086,4_0_8:0.00000050):0.00000468,(4_0_6:0.00000270,4_0_5:0.00000235):0.00000326):0.00006666):0.00000232):0.00004400,(4_0_10:0.00000509,(4_0_18:0.00000222,4_0_4:0.00000600):0.00000283):0.00009536):0.01338814,(((6_0_7:0.00000012,6_0_4:0.00000016):0.00000046,6_0_1:0.00000102):0.00003238,((((6_0_8:0.00000243,(6_0_15:0.00000186,6_0_16:0.00000216):0.00000154):0.00000278,(6_0_10:0.00001678,6_0_17:0.00000980):0.00000060):0.00000199,((6_0_9:0.00000715,6_0_2:0.00000215):0.00000086,6_0_14:0.00000269):0.00000575):0.00001529,((6_0_12:0.00000059,6_0_13:0.00000024):0.00000907,(6_0_0:0.00000685,((6_0_5:0.00000053,(6_0_3:0.00000027,6_0_18:0.00000018):0.00000001):0.00000212,(6_0_6:0.00000009,6_0_11:0.00000007):0.00000360):0.00000360):0.00000535):0.00000826):0.00007073):0.00501111):0.00973757):0.03774241):0.02530831);
