********************************************************************************
INDELible V1.03 by Will Fletcher : Simulation began at: Sat Dec  3 19:58:41 2016
********************************************************************************

  * Block 1 was completed in 0.27 seconds.

********************************************************************************


  * Block 2 was completed in 0.28 seconds.

********************************************************************************


  * Block 3 was completed in 0.29 seconds.

********************************************************************************


  * Block 4 was completed in 0.27 seconds.

********************************************************************************


  * Block 5 was completed in 0.28 seconds.

********************************************************************************


  * Block 6 was completed in 0.28 seconds.

********************************************************************************


  * Block 7 was completed in 0.28 seconds.

********************************************************************************


  * Block 8 was completed in 0.27 seconds.

********************************************************************************


  * Block 9 was completed in 0.28 seconds.

********************************************************************************


  * Block 10 was completed in 0.28 seconds.

********************************************************************************

  * Simulation completed. Whole batch took: 2.8 seconds.

INDELible V1.03 Simulations completed at: Sat Dec  3 19:58:44 2016

********************************************************************************


 Original Control File 

-----------------------


[TYPE] NUCLEOTIDE 1 

[SETTINGS]
    [fastaextension] fasta  

[MODEL] csSim_unlinked_1
    [submodel] GTR 0.086234 0.009456 0.027772 0.038906 0.043777 
    [statefreq] 0.170603 0.135308 0.491665 0.202424 
[rates] 0 18.866341 0 

[MODEL] csSim_unlinked_2
    [submodel] GTR 0.094310 0.007439 0.040248 0.025388 0.033920 
    [statefreq] 0.045197 0.156833 0.353182 0.444787 
[rates] 0 3.566516 0 

[MODEL] csSim_unlinked_3
    [submodel] GTR 0.111391 0.004037 0.041681 0.014080 0.034912 
    [statefreq] 0.618533 0.121353 0.232168 0.027946 
[rates] 0 1.527392 0 

[MODEL] csSim_unlinked_4
    [submodel] GTR 0.079450 0.005284 0.016347 0.049859 0.064876 
    [statefreq] 0.322306 0.000032 0.022652 0.655010 
[rates] 0 20.807098 0 

[MODEL] csSim_unlinked_5
    [submodel] GTR 0.116210 0.002992 0.016621 0.024833 0.031465 
    [statefreq] 0.683553 0.073775 0.105979 0.136693 
[rates] 0 41.297813 0 

[MODEL] csSim_unlinked_6
    [submodel] GTR 0.093549 0.009466 0.013759 0.028643 0.048200 
    [statefreq] 0.180346 0.314944 0.363190 0.141521 
[rates] 0 2.558596 0 

[MODEL] csSim_unlinked_7
    [submodel] GTR 0.058477 0.007251 0.011403 0.019520 0.022728 
    [statefreq] 0.469686 0.140718 0.256451 0.133145 
[rates] 0 67.750244 0 

[MODEL] csSim_unlinked_8
    [submodel] GTR 0.075327 0.006898 0.027138 0.037581 0.048241 
    [statefreq] 0.274312 0.010243 0.572957 0.142488 
[rates] 0 10.006334 0 

[MODEL] csSim_unlinked_9
    [submodel] GTR 0.064154 0.004198 0.024744 0.012357 0.050371 
    [statefreq] 0.316356 0.327935 0.233580 0.122129 
[rates] 0 1.949216 0 

[MODEL] csSim_unlinked_10
    [submodel] GTR 0.078291 0.027120 0.008831 0.036706 0.051101 
    [statefreq] 0.052427 0.244219 0.600288 0.103066 
[rates] 0 5.888990 0 


[TREE] T01 ((((1_0_4:0.00000334,1_0_6:0.00000898):0.00003524,(((2_0_8:0.00000471,(2_0_6:0.00002044,(2_0_2:0.00000049,(2_0_3:0.00000081,(2_0_1:0.00000011,2_0_7:0.00000055):0.00000007):0.00000019):0.00000121):0.00000228):0.00002339,((2_0_9:0.00000199,2_0_0:0.00000122):0.00001887,(2_0_4:0.00000246,2_0_5:0.00000127):0.00000287):0.00000419):0.00001520,(((1_0_8:0.00000008,(1_0_9:0.00000080,1_0_5:0.00000058):0.00000052):0.00000388,(1_0_7:0.00000041,1_0_3:0.00000003):0.00000823):0.00000270,(1_0_2:0.00000071,(1_0_1:0.00000018,1_0_0:0.00000008):0.00000158):0.00001972):0.00001416):0.00000136):0.00045593,((((((4_0_0:0.00000070,4_0_2:0.00000379):0.00000530,(4_0_5:0.00000846,(4_0_1:0.00000741,4_0_7:0.00000206):0.00000438):0.00000060):0.00001010,(4_0_3:0.00001358,(4_0_4:0.00000340,4_0_9:0.00000086):0.00000069):0.00000273):0.00006360,(4_0_8:0.00000400,4_0_6:0.00003519):0.00004037):0.00014198,(((((((3_0_3:0.00000105,3_0_5:0.00000033):0.00000008,3_0_1:0.00000028):0.00000133,(3_0_9:0.00000041,(3_0_2:0.00000059,3_0_6:0.00000059):0.00000053):0.00000044):0.00000088,(3_0_7:0.00000043,3_0_4:0.00000011):0.00000383):0.00001451,(11_0_9:0.00000031,11_0_7:0.00000151):0.00001358):0.00008971,(((8_0_7:0.00000077,8_0_6:0.00000151):0.00002783,((8_0_2:0.00000521,8_0_0:0.00000378):0.00000476,(((8_0_4:0.00000020,8_0_5:0.00000010):0.00000236,(8_0_8:0.00000034,8_0_9:0.00000087):0.00000610):0.00000364,(8_0_1:0.00000513,8_0_3:0.00000240):0.00000069):0.00000303):0.00003337):0.00001341,(((9_0_1:0.00000016,9_0_5:0.00000039):0.00000074,9_0_7:0.00001265):0.00003649,((3_0_8:0.00000183,3_0_0:0.00000154):0.00000974,((((11_0_2:0.00000402,(11_0_8:0.00000499,11_0_1:0.00000238):0.00000014):0.00000700,(((11_0_3:0.00001012,(11_0_6:0.00000039,11_0_0:0.00000047):0.00000182):0.00000040,11_0_5:0.00000066):0.00000922,11_0_4:0.00002020):0.00000063):0.00001693,(9_0_0:0.00000056,9_0_2:0.00000038):0.00000565):0.00000146,((9_0_9:0.00000321,9_0_4:0.00000535):0.00000234,(9_0_6:0.00000121,(9_0_8:0.00000083,9_0_3:0.00000205):0.00000105):0.00000176):0.00003122):0.00000002):0.00000518):0.00000631):0.00000417):0.00007115,(((((10_0_3:0.00001100,((10_0_5:0.00000228,10_0_0:0.00000128):0.00000013,(10_0_1:0.00000006,10_0_4:0.00000005):0.00000358):0.00000350):0.00000375,(10_0_8:0.00000185,10_0_7:0.00000647):0.00001064):0.00000249,(10_0_6:0.00000010,10_0_9:0.00000032):0.00000863):0.00001093,((5_0_5:0.00000161,5_0_1:0.00000917):0.00005135,(((5_0_7:0.00000285,(5_0_6:0.00000050,(5_0_0:0.00000069,5_0_3:0.00000256):0.00000047):0.00000057):0.00000315,(5_0_2:0.00000099,(5_0_8:0.00000005,5_0_4:0.00000006):0.00000102):0.00000019):0.00000454,5_0_9:0.00000637):0.00000372):0.00000051):0.00000787,(6_0_4:0.00002253,((((6_0_5:0.00000462,6_0_7:0.00000743):0.00000141,6_0_2:0.00001080):0.00000267,(10_0_2:0.00000169,(6_0_8:0.00000686,((6_0_9:0.00000023,6_0_3:0.00000009):0.00000296,6_0_0:0.00000031):0.00000616):0.00000037):0.00000102):0.00000008,(6_0_1:0.00000204,6_0_6:0.00000213):0.00000828):0.00000692):0.00000373):0.00005211):0.00003922):0.00004616,((7_0_7:0.00000280,7_0_0:0.00000059):0.00001679,(((7_0_3:0.00000018,7_0_2:0.00000022):0.00000163,7_0_8:0.00000017):0.00003622,(7_0_9:0.00002243,(7_0_4:0.00000763,(7_0_1:0.00000105,(7_0_5:0.00000745,7_0_6:0.00000320):0.00000132):0.00000064):0.00000227):0.00002282):0.00001807):0.00024302):0.00022836):0.00087995,0_0_0:0.00042610);
[TREE] T02 (((((((4_0_8:0.00000619,4_0_3:0.00000358):0.00000103,(4_0_5:0.00000028,4_0_1:0.00000151):0.00000346):0.00003551,((4_0_6:0.00000247,(4_0_4:0.00000594,4_0_7:0.00000921):0.00000051):0.00000810,((4_0_0:0.00000076,4_0_2:0.00000071):0.00000198,4_0_9:0.00000181):0.00000351):0.00000632):0.00016656,((((8_0_4:0.00002951,(((8_0_7:0.00000019,8_0_5:0.00000023):0.00001062,((8_0_3:0.00000116,8_0_0:0.00000154):0.00000940,(((8_0_1:0.00000017,8_0_6:0.00000142):0.00000050,8_0_9:0.00000144):0.00000009,8_0_2:0.00000165):0.00000646):0.00000648):0.00000921,8_0_8:0.00003317):0.00000032):0.00002704,(((((9_0_6:0.00000541,(((9_0_8:0.00000011,9_0_0:0.00000064):0.00000199,((9_0_2:0.00000230,9_0_7:0.00000165):0.00000185,9_0_9:0.00000324):0.00000079):0.00000309,9_0_5:0.00001659):0.00000184):0.00000280,(9_0_3:0.00000098,9_0_1:0.00000420):0.00000956):0.00000412,((((3_0_6:0.00000008,3_0_3:0.00000003):0.00000166,3_0_7:0.00000054):0.00000318,3_0_9:0.00000096):0.00000020,(3_0_1:0.00000006,3_0_8:0.00000006):0.00000727):0.00000097):0.00000028,9_0_4:0.00001179):0.00000025,(((11_0_7:0.00000297,11_0_0:0.00000240):0.00000486,(11_0_9:0.00000665,11_0_3:0.00000223):0.00000680):0.00000168,(((11_0_5:0.00000032,11_0_8:0.00000030):0.00000158,(11_0_6:0.00000109,(11_0_1:0.00000044,11_0_4:0.00000003):0.00000008):0.00000021):0.00000305,11_0_2:0.00000223):0.00000630):0.00000108):0.00001921):0.00000662,((3_0_4:0.00000013,3_0_0:0.00000003):0.00000134,(3_0_5:0.00000089,3_0_2:0.00000082):0.00000082):0.00004010):0.00012703,((6_0_6:0.00001271,5_0_5:0.00003011):0.00000799,((((((10_0_2:0.00000206,10_0_8:0.00000691):0.00000490,6_0_0:0.00000662):0.00001177,(((6_0_7:0.00000107,((6_0_3:0.00000007,6_0_1:0.00000022):0.00000030,6_0_5:0.00000027):0.00000110):0.00005254,(10_0_0:0.00001400,(6_0_9:0.00000071,6_0_8:0.00000090):0.00000196):0.00000366):0.00000187,10_0_5:0.00001850):0.00000003):0.00000051,((((10_0_3:0.00000084,(10_0_1:0.00000066,10_0_6:0.00000159):0.00000037):0.00000102,(10_0_7:0.00000103,10_0_4:0.00000073):0.00000481):0.00000079,10_0_9:0.00000726):0.00000262,(6_0_4:0.00000063,6_0_2:0.00000120):0.00000382):0.00001290):0.00000143,(5_0_8:0.00000325,(5_0_0:0.00000279,(5_0_9:0.00000028,(5_0_2:0.00000040,5_0_6:0.00000152):0.00000026):0.00000180):0.00000000):0.00002126):0.00000016,((5_0_3:0.00000026,5_0_7:0.00000229):0.00000016,(5_0_4:0.00000017,5_0_1:0.00000020):0.00000202):0.00002499):0.00001700):0.00007605):0.00002697):0.00000083,(((7_0_7:0.00000112,(7_0_4:0.00000031,7_0_9:0.00000252):0.00000093):0.00001531,(7_0_3:0.00000097,7_0_1:0.00000115):0.00000490):0.00005651,((7_0_0:0.00000109,7_0_2:0.00000426):0.00000358,((7_0_6:0.00000127,7_0_8:0.00000620):0.00000065,7_0_5:0.00000405):0.00000056):0.00002431):0.00028357):0.00031082,(((1_0_3:0.00000319,1_0_7:0.00000098):0.00000970,((1_0_4:0.00000607,((1_0_2:0.00000244,1_0_5:0.00000047):0.00000052,(1_0_9:0.00000227,(1_0_8:0.00000052,1_0_0:0.00000090):0.00000082):0.00000034):0.00000946):0.00000097,(1_0_6:0.00000109,1_0_1:0.00000020):0.00000498):0.00000202):0.00011373,((2_0_3:0.00000035,2_0_5:0.00000053):0.00000566,((2_0_9:0.00000053,2_0_4:0.00000073):0.00000372,(((2_0_0:0.00000126,2_0_1:0.00000047):0.00000086,(2_0_7:0.00000007,2_0_2:0.00000003):0.00000414):0.00000847,(2_0_6:0.00000179,2_0_8:0.00000209):0.00001230):0.00000086):0.00002722):0.00002784):0.00038897):0.00023206,0_0_0:0.00022674);
[TREE] T03 ((((2_0_6:0.00002674,(2_0_1:0.00000923,(((2_0_5:0.00000232,(2_0_8:0.00000029,2_0_9:0.00000022):0.00000028):0.00000013,(2_0_2:0.00000026,2_0_4:0.00000051):0.00000176):0.00000079,(2_0_0:0.00000370,(2_0_3:0.00000024,2_0_7:0.00000068):0.00000090):0.00000216):0.00000460):0.00003178):0.00000118,((1_0_3:0.00000064,1_0_2:0.00000193):0.00000963,((1_0_4:0.00000139,(1_0_5:0.00000089,1_0_0:0.00000391):0.00000028):0.00000453,(((1_0_1:0.00000046,1_0_8:0.00000083):0.00000433,(1_0_7:0.00000253,1_0_6:0.00000161):0.00000055):0.00000143,1_0_9:0.00000720):0.00000171):0.00001038):0.00007254):0.00083937,(((((((5_0_5:0.00000678,(5_0_7:0.00000016,5_0_3:0.00000039):0.00000164):0.00000115,(((5_0_0:0.00000006,5_0_4:0.00000016):0.00000115,5_0_2:0.00000075):0.00000299,5_0_8:0.00000133):0.00000125):0.00001080,(((5_0_9:0.00000032,5_0_6:0.00000115):0.00000443,5_0_1:0.00004735):0.00000004,(10_0_5:0.00000496,10_0_8:0.00000108):0.00000332):0.00000012):0.00000317,(((6_0_8:0.00000076,6_0_4:0.00000483):0.00000018,(10_0_9:0.00000171,(10_0_4:0.00000053,10_0_6:0.00000216):0.00000003):0.00000245):0.00000059,((10_0_7:0.00000193,(10_0_1:0.00000060,10_0_2:0.00000074):0.00000002):0.00000188,(10_0_3:0.00000258,10_0_0:0.00000131):0.00000281):0.00000597):0.00000808):0.00002159,((((6_0_6:0.00000024,(6_0_0:0.00000027,6_0_2:0.00000022):0.00000068):0.00000131,6_0_5:0.00000427):0.00000072,(6_0_7:0.00000023,(6_0_9:0.00000003,6_0_1:0.00000006):0.00000024):0.00000411):0.00000963,6_0_3:0.00000592):0.00004226):0.00006474,(((8_0_3:0.00000729,((8_0_8:0.00000818,8_0_5:0.00000204):0.00002907,((((8_0_0:0.00000024,8_0_7:0.00000018):0.00000115,8_0_9:0.00000360):0.00000479,(8_0_2:0.00000365,8_0_6:0.00000600):0.00000325):0.00000010,(8_0_1:0.00000106,8_0_4:0.00000066):0.00000169):0.00003775):0.00000082):0.00001192,((11_0_9:0.00004138,11_0_7:0.00002145):0.00001005,((11_0_1:0.00000067,11_0_4:0.00000069):0.00000570,(11_0_2:0.00000103,(11_0_6:0.00000279,11_0_0:0.00000393):0.00000027):0.00000426):0.00002446):0.00001847):0.00006011,(((((((3_0_7:0.00000007,3_0_9:0.00000006):0.00000898,3_0_0:0.00000122):0.00000179,(((3_0_5:0.00000013,3_0_1:0.00000028):0.00000396,3_0_2:0.00000570):0.00000025,3_0_4:0.00000646):0.00000256):0.00000687,(3_0_8:0.00000564,3_0_3:0.00000818):0.00000320):0.00000039,(11_0_3:0.00000080,(11_0_5:0.00000016,11_0_8:0.00000078):0.00000511):0.00000747):0.00000504,((9_0_2:0.00000205,9_0_8:0.00000210):0.00002019,(9_0_4:0.00001825,(9_0_3:0.00000518,(9_0_9:0.00000861,(9_0_0:0.00000546,9_0_5:0.00000425):0.00000696):0.00000066):0.00000090):0.00002047):0.00000042):0.00004113,(3_0_6:0.00005175,((9_0_6:0.00000022,9_0_1:0.00000047):0.00000297,9_0_7:0.00000231):0.00003023):0.00002822):0.00003704):0.00001677):0.00009233,(((((((4_0_0:0.00000033,4_0_4:0.00000024):0.00000223,4_0_5:0.00000947):0.00000165,(4_0_1:0.00000919,4_0_9:0.00000148):0.00000123):0.00000064,(4_0_8:0.00000372,4_0_6:0.00000155):0.00000781):0.00000057,(4_0_3:0.00000009,4_0_2:0.00000064):0.00000953):0.00001374,4_0_7:0.00002862):0.00007493,(((7_0_5:0.00000016,7_0_7:0.00000048):0.00000397,((7_0_6:0.00000139,(7_0_4:0.00000014,7_0_2:0.00000011):0.00000061):0.00000607,7_0_9:0.00000245):0.00001779):0.00000770,((7_0_0:0.00000402,(7_0_3:0.00000135,7_0_8:0.00000185):0.00000134):0.00000276,7_0_1:0.00001228):0.00001483):0.00016038):0.00000123):0.00032907):0.00030846,0_0_0:0.00149064);
[TREE] T04 (0_0_0:0.00078157,(((((1_0_5:0.00000177,1_0_3:0.00000387):0.00000395,(1_0_9:0.00000315,1_0_8:0.00000196):0.00000022):0.00002890,(((1_0_6:0.00000082,1_0_0:0.00000016):0.00000890,((1_0_7:0.00000171,1_0_4:0.00000141):0.00000185,1_0_1:0.00000469):0.00000129):0.00000212,1_0_2:0.00000519):0.00001424):0.00009373,(2_0_3:0.00000654,(((2_0_2:0.00000339,((2_0_7:0.00000107,2_0_0:0.00000108):0.00000019,(2_0_6:0.00000041,2_0_9:0.00000016):0.00000095):0.00000070):0.00000111,2_0_8:0.00000212):0.00000164,((2_0_1:0.00000145,2_0_4:0.00000143):0.00000058,2_0_5:0.00000191):0.00000060):0.00002238):0.00004804):0.00026816,((((((5_0_1:0.00000487,(5_0_3:0.00000643,((5_0_0:0.00000027,5_0_2:0.00000003):0.00000203,5_0_7:0.00001164):0.00000920):0.00001243):0.00000188,((10_0_4:0.00000206,((10_0_0:0.00000066,10_0_5:0.00000066):0.00000267,10_0_7:0.00000311):0.00000049):0.00000143,((((6_0_8:0.00000313,6_0_6:0.00000009):0.00000084,6_0_2:0.00000276):0.00000081,(6_0_9:0.00000017,6_0_7:0.00000011):0.00000858):0.00000618,(10_0_9:0.00001887,(6_0_5:0.00000913,((6_0_0:0.00000021,6_0_3:0.00000005):0.00000540,(6_0_1:0.00000875,6_0_4:0.00000428):0.00000026):0.00000150):0.00000048):0.00000037):0.00000020):0.00001459):0.00007830,((((5_0_9:0.00000070,5_0_4:0.00000255):0.00000257,((5_0_8:0.00000190,5_0_6:0.00000021):0.00000962,5_0_5:0.00000472):0.00000264):0.00000568,((10_0_8:0.00000105,10_0_3:0.00000044):0.00000016,10_0_2:0.00000067):0.00000561):0.00000147,(10_0_1:0.00000008,10_0_6:0.00000005):0.00002764):0.00001325):0.00003241,((((3_0_2:0.00000046,3_0_5:0.00000029):0.00001461,(((3_0_9:0.00000157,(3_0_6:0.00000124,3_0_7:0.00000046):0.00000033):0.00000861,3_0_8:0.00001114):0.00000539,3_0_4:0.00002353):0.00000335):0.00000759,((((11_0_0:0.00000111,11_0_5:0.00000205):0.00000994,((11_0_2:0.00000038,11_0_9:0.00000246):0.00000154,(11_0_8:0.00000545,11_0_6:0.00000248):0.00000592):0.00000293):0.00000247,((11_0_1:0.00000365,11_0_7:0.00000969):0.00001447,(11_0_4:0.00000070,11_0_3:0.00000202):0.00000769):0.00000780):0.00002391,(3_0_0:0.00000107,(3_0_1:0.00000096,3_0_3:0.00000106):0.00000037):0.00001687):0.00000707):0.00001956,((((8_0_2:0.00000074,8_0_1:0.00000273):0.00000585,(((8_0_0:0.00000047,(8_0_8:0.00000009,8_0_3:0.00000008):0.00000109):0.00000002,8_0_6:0.00000148):0.00000400,(8_0_9:0.00000107,8_0_5:0.00000911):0.00000194):0.00000267):0.00000195,(8_0_4:0.00000201,8_0_7:0.00000474):0.00000737):0.00007183,(((9_0_5:0.00000773,(9_0_2:0.00000100,((9_0_1:0.00000123,(9_0_4:0.00000132,9_0_9:0.00000057):0.00000010):0.00000009,9_0_6:0.00000055):0.00000039):0.00000455):0.00000336,(9_0_0:0.00000320,9_0_8:0.00000269):0.00000544):0.00002497,(9_0_7:0.00002902,9_0_3:0.00002679):0.00000859):0.00006949):0.00000094):0.00002057):0.00001101,(4_0_4:0.00002995,(((4_0_2:0.00000348,((4_0_1:0.00000010,4_0_8:0.00000006):0.00000159,4_0_7:0.00000046):0.00000522):0.00000040,(((4_0_9:0.00000002,4_0_0:0.00000010):0.00000078,4_0_5:0.00000143):0.00000208,4_0_3:0.00000086):0.00000149):0.00000167,4_0_6:0.00000654):0.00002112):0.00004767):0.00001259,(((((7_0_6:0.00000016,7_0_3:0.00000011):0.00000004,(7_0_4:0.00000004,7_0_2:0.00000000):0.00000048):0.00000031,(7_0_5:0.00000036,7_0_7:0.00000018):0.00000018):0.00000411,(7_0_1:0.00000232,(7_0_9:0.00000130,7_0_0:0.00000096):0.00000288):0.00000246):0.00000001,7_0_8:0.00001194):0.00015989):0.00017394):0.00022920);
[TREE] T05 (((((((((((11_0_4:0.00000058,11_0_9:0.00000018):0.00000031,11_0_2:0.00000240):0.00000639,(11_0_7:0.00000209,(11_0_1:0.00000083,(11_0_5:0.00000114,11_0_3:0.00000057):0.00000017):0.00000085):0.00000097):0.00000851,9_0_5:0.00000651):0.00000633,((((((9_0_7:0.00000197,9_0_9:0.00000229):0.00000048,9_0_2:0.00000308):0.00000171,((9_0_0:0.00000127,(9_0_1:0.00000293,9_0_8:0.00000104):0.00000037):0.00000109,(9_0_3:0.00000288,(9_0_6:0.00000055,9_0_4:0.00000060):0.00000215):0.00000233):0.00000100):0.00000241,(3_0_0:0.00000465,3_0_4:0.00000175):0.00000647):0.00000011,((11_0_0:0.00000100,11_0_8:0.00000025):0.00000214,11_0_6:0.00000286):0.00001247):0.00001079,(((3_0_3:0.00002288,3_0_6:0.00000271):0.00000004,(3_0_8:0.00000262,(3_0_2:0.00000327,(3_0_7:0.00000004,3_0_5:0.00000013):0.00000818):0.00000027):0.00000386):0.00000494,(3_0_9:0.00000748,3_0_1:0.00000285):0.00004287):0.00000185):0.00000093):0.00001853,(((8_0_5:0.00000646,(8_0_0:0.00000324,8_0_7:0.00000027):0.00000008):0.00000179,8_0_4:0.00001217):0.00006022,(8_0_2:0.00002339,(8_0_3:0.00000080,((8_0_8:0.00000069,8_0_6:0.00000028):0.00000134,(8_0_9:0.00000060,8_0_1:0.00000029):0.00000100):0.00000034):0.00000504):0.00001054):0.00001265):0.00005397,((((5_0_6:0.00000224,5_0_7:0.00000207):0.00007292,(5_0_4:0.00007288,(6_0_3:0.00000098,6_0_2:0.00000076):0.00001509):0.00000141):0.00000016,(((((6_0_0:0.00000058,(6_0_8:0.00000030,(6_0_1:0.00000154,6_0_7:0.00000128):0.00000044):0.00000021):0.00000017,6_0_9:0.00000156):0.00000043,6_0_4:0.00000206):0.00000190,((10_0_3:0.00000074,10_0_8:0.00000084):0.00000539,(10_0_5:0.00000429,(10_0_1:0.00000006,10_0_9:0.00000008):0.00000157):0.00000374):0.00000062):0.00000338,((10_0_7:0.00001467,(6_0_5:0.00000051,6_0_6:0.00000020):0.00000266):0.00000070,((10_0_6:0.00000059,(10_0_0:0.00000002,10_0_4:0.00000006):0.00000082):0.00000179,10_0_2:0.00000160):0.00002054):0.00000001):0.00002325):0.00000794,((((5_0_8:0.00000195,(5_0_3:0.00000078,5_0_1:0.00000157):0.00000027):0.00000048,5_0_2:0.00000233):0.00000031,5_0_9:0.00000386):0.00000036,(5_0_0:0.00000057,5_0_5:0.00001020):0.00000131):0.00002774):0.00009750):0.00000488,(((4_0_3:0.00001598,4_0_8:0.00001162):0.00000236,(4_0_0:0.00000244,(4_0_9:0.00000309,(4_0_6:0.00000057,(4_0_5:0.00000008,4_0_2:0.00000004):0.00000129):0.00000249):0.00000212):0.00000017):0.00001215,(4_0_7:0.00000051,(4_0_4:0.00000364,4_0_1:0.00000092):0.00000282):0.00001679):0.00013589):0.00004303,(((((7_0_7:0.00000112,(7_0_9:0.00000050,7_0_4:0.00000016):0.00000010):0.00000190,(7_0_1:0.00000049,7_0_3:0.00000079):0.00000114):0.00000022,7_0_8:0.00000103):0.00001714,7_0_5:0.00001331):0.00002475,(7_0_6:0.00001277,(7_0_0:0.00000819,7_0_2:0.00000212):0.00000112):0.00002488):0.00000929):0.00039404,((((1_0_1:0.00000412,(1_0_3:0.00000028,1_0_2:0.00000079):0.00000119):0.00001876,1_0_9:0.00001337):0.00000027,((1_0_5:0.00000195,1_0_6:0.00000048):0.00000212,(1_0_8:0.00000071,(1_0_0:0.00000042,(1_0_4:0.00000026,1_0_7:0.00000019):0.00000003):0.00000010):0.00001961):0.00001169):0.00002491,((((2_0_1:0.00000112,((2_0_9:0.00000018,2_0_5:0.00000006):0.00000114,2_0_6:0.00000088):0.00000014):0.00000720,(2_0_4:0.00000037,2_0_7:0.00000063):0.00000251):0.00000236,((2_0_0:0.00000097,2_0_8:0.00000483):0.00000141,2_0_3:0.00000560):0.00000395):0.00002092,2_0_2:0.00000619):0.00002863):0.00023432):0.00059717,0_0_0:0.00073917);
[TREE] T06 (((((1_0_3:0.00001003,((1_0_6:0.00000260,(1_0_7:0.00000019,1_0_0:0.00000222):0.00000096):0.00000048,1_0_5:0.00000133):0.00000652):0.00000459,(((1_0_8:0.00000199,1_0_2:0.00000232):0.00000310,1_0_1:0.00000702):0.00000267,(1_0_9:0.00000006,1_0_4:0.00000004):0.00001527):0.00000280):0.00024439,(((2_0_4:0.00000112,((2_0_1:0.00000020,2_0_8:0.00000027):0.00000409,(2_0_7:0.00000012,2_0_6:0.00000139):0.00000287):0.00000028):0.00000379,(2_0_2:0.00000240,2_0_9:0.00000300):0.00000371):0.00000907,((2_0_3:0.00000127,2_0_5:0.00000139):0.00000105,2_0_0:0.00000203):0.00002648):0.00020125):0.00026765,((((7_0_1:0.00000148,((7_0_0:0.00000225,7_0_2:0.00000013):0.00000060,7_0_6:0.00000160):0.00000133):0.00001417,(7_0_7:0.00000060,7_0_8:0.00000298):0.00000461):0.00002404,(((7_0_4:0.00000404,7_0_3:0.00000064):0.00000742,7_0_9:0.00000607):0.00000817,7_0_5:0.00001712):0.00001705):0.00011780,((((((4_0_6:0.00000125,4_0_2:0.00000089):0.00000060,4_0_9:0.00000402):0.00000047,4_0_8:0.00000364):0.00001971,4_0_1:0.00004705):0.00002262,(((4_0_3:0.00000514,(4_0_5:0.00000066,4_0_7:0.00000078):0.00000106):0.00000020,4_0_4:0.00000047):0.00000074,4_0_0:0.00000325):0.00001849):0.00007219,(((((8_0_5:0.00000040,8_0_2:0.00000027):0.00002153,((8_0_1:0.00000216,8_0_9:0.00000265):0.00000779,8_0_7:0.00001028):0.00001369):0.00000291,((8_0_0:0.00000330,(8_0_3:0.00000144,8_0_8:0.00000094):0.00000071):0.00000028,(8_0_6:0.00000412,8_0_4:0.00000549):0.00000095):0.00004124):0.00002923,(((((3_0_2:0.00000031,3_0_4:0.00000050):0.00000033,3_0_1:0.00000003):0.00001277,((9_0_1:0.00001515,((9_0_9:0.00000064,9_0_8:0.00000072):0.00000922,(9_0_4:0.00000215,((9_0_6:0.00000006,9_0_5:0.00000004):0.00000108,9_0_2:0.00000214):0.00000219):0.00000186):0.00000028):0.00000247,(9_0_0:0.00000033,9_0_7:0.00000184):0.00000813):0.00000906):0.00001318,(((3_0_7:0.00000399,((3_0_3:0.00000253,3_0_9:0.00000075):0.00000031,3_0_6:0.00000385):0.00001134):0.00000483,(3_0_0:0.00000064,(3_0_8:0.00000029,3_0_5:0.00000194):0.00000026):0.00001254):0.00001822,((9_0_3:0.00001328,(11_0_1:0.00000387,11_0_2:0.00000242):0.00000473):0.00000049,(11_0_4:0.00000474,11_0_7:0.00000260):0.00001286):0.00000229):0.00000600):0.00000316,(((11_0_6:0.00000292,11_0_0:0.00000253):0.00000968,((11_0_9:0.00000004,11_0_3:0.00000013):0.00000015,11_0_8:0.00000006):0.00001595):0.00000164,11_0_5:0.00000221):0.00001457):0.00004309):0.00005176,((5_0_0:0.00000212,(5_0_1:0.00000505,((5_0_9:0.00000030,5_0_4:0.00000116):0.00000023,5_0_5:0.00000158):0.00000179):0.00000070):0.00003877,((((5_0_6:0.00000636,5_0_7:0.00000512):0.00000902,((5_0_8:0.00000045,5_0_2:0.00000050):0.00000101,5_0_3:0.00001440):0.00000482):0.00000429,(10_0_9:0.00000841,(10_0_3:0.00000109,10_0_4:0.00000186):0.00000101):0.00001099):0.00000050,(((10_0_5:0.00001033,10_0_2:0.00001526):0.00000648,6_0_7:0.00000709):0.00000307,((10_0_7:0.00000206,((10_0_0:0.00000013,10_0_1:0.00000009):0.00000063,(10_0_8:0.00000012,10_0_6:0.00000036):0.00000041):0.00000053):0.00000251,((6_0_5:0.00000109,(6_0_2:0.00000054,6_0_4:0.00000110):0.00000007):0.00001239,((6_0_8:0.00000119,(6_0_1:0.00000293,6_0_9:0.00000110):0.00000146):0.00000748,((6_0_0:0.00000259,6_0_6:0.00000441):0.00000026,6_0_3:0.00000155):0.00000094):0.00000003):0.00000465):0.00000263):0.00000485):0.00000319):0.00023855):0.00010194):0.00004388):0.00014399):0.00051029,0_0_0:0.00227910);
[TREE] T07 (0_0_0:0.00063322,(((((1_0_0:0.00000436,((((1_0_4:0.00000000,1_0_5:0.00000000):0.00000042,1_0_2:0.00000015):0.00000378,(1_0_1:0.00000024,1_0_6:0.00000046):0.00000012):0.00000045,(1_0_9:0.00000001,1_0_7:0.00000004):0.00000177):0.00000221):0.00001342,1_0_8:0.00001271):0.00000199,1_0_3:0.00001273):0.00009381,((2_0_1:0.00001243,(2_0_2:0.00000325,(2_0_5:0.00000036,2_0_6:0.00000024):0.00000279):0.00000136):0.00000318,((((2_0_8:0.00000058,2_0_9:0.00000055):0.00000009,2_0_7:0.00000300):0.00000017,2_0_4:0.00000418):0.00001372,(2_0_0:0.00000023,2_0_3:0.00000031):0.00000921):0.00000448):0.00003146):0.00053665,((7_0_9:0.00000137,(((7_0_3:0.00000219,7_0_0:0.00000161):0.00000935,((7_0_4:0.00000075,7_0_6:0.00000388):0.00000311,((7_0_8:0.00000029,7_0_1:0.00000068):0.00000017,7_0_5:0.00000063):0.00000531):0.00000800):0.00000130,(7_0_7:0.00000681,7_0_2:0.00000129):0.00000483):0.00000688):0.00027335,(((((((4_0_5:0.00000017,4_0_0:0.00000008):0.00000038,4_0_2:0.00000035):0.00000181,4_0_8:0.00000241):0.00000044,4_0_1:0.00000772):0.00000951,((4_0_7:0.00002073,4_0_3:0.00001927):0.00000637,4_0_9:0.00001420):0.00000325):0.00002551,(4_0_6:0.00000166,4_0_4:0.00000029):0.00013657):0.00007662,((((((5_0_4:0.00000263,(5_0_3:0.00000001,5_0_5:0.00000003):0.00000191):0.00000094,(5_0_1:0.00002576,((5_0_9:0.00000180,5_0_2:0.00000063):0.00000250,5_0_6:0.00001025):0.00000943):0.00000780):0.00001311,((5_0_7:0.00000010,5_0_0:0.00000079):0.00000028,5_0_8:0.00000184):0.00002524):0.00002905,((6_0_3:0.00000048,6_0_1:0.00000137):0.00000422,((10_0_1:0.00000083,10_0_6:0.00000087):0.00000242,(((((6_0_9:0.00000037,6_0_8:0.00000121):0.00000053,6_0_5:0.00000225):0.00000267,6_0_2:0.00000297):0.00000239,(6_0_0:0.00000019,6_0_7:0.00000026):0.00000460):0.00000353,6_0_4:0.00000236):0.00000074):0.00000439):0.00002027):0.00000215,(6_0_6:0.00001108,((10_0_3:0.00000314,(10_0_9:0.00000231,(((10_0_2:0.00000052,10_0_7:0.00000031):0.00000002,10_0_8:0.00000042):0.00000009,10_0_0:0.00000162):0.00000100):0.00000150):0.00000385,(10_0_4:0.00000160,10_0_5:0.00000117):0.00000295):0.00000149):0.00005095):0.00002296,((((8_0_5:0.00000445,8_0_9:0.00000895):0.00003482,((8_0_1:0.00000191,8_0_2:0.00000117):0.00000106,8_0_3:0.00000128):0.00002081):0.00000375,((8_0_4:0.00000215,8_0_0:0.00000035):0.00000076,(8_0_8:0.00000326,(8_0_7:0.00000146,8_0_6:0.00000099):0.00000066):0.00000320):0.00005910):0.00003636,(((((3_0_4:0.00000036,3_0_9:0.00000068):0.00000315,((3_0_8:0.00000052,3_0_7:0.00000073):0.00000108,(3_0_0:0.00000093,3_0_3:0.00000355):0.00000172):0.00000030):0.00000365,((3_0_6:0.00000057,3_0_2:0.00000033):0.00000008,3_0_1:0.00000111):0.00000227):0.00000095,((9_0_3:0.00000573,9_0_4:0.00001431):0.00000850,((9_0_5:0.00000039,9_0_9:0.00000010):0.00000145,9_0_0:0.00000241):0.00001626):0.00000297):0.00000752,((((((11_0_2:0.00000040,11_0_4:0.00000285):0.00000244,((11_0_3:0.00000022,11_0_8:0.00000171):0.00000133,11_0_1:0.00000432):0.00000012):0.00000022,(11_0_6:0.00000137,11_0_9:0.00000114):0.00000568):0.00000422,(11_0_0:0.00000009,11_0_5:0.00000025):0.00000176):0.00000221,11_0_7:0.00003164):0.00002972,(3_0_5:0.00004947,((9_0_6:0.00000055,9_0_1:0.00000254):0.00000254,(9_0_8:0.00000778,(9_0_2:0.00000008,9_0_7:0.00000008):0.00000076):0.00000223):0.00000447):0.00003433):0.00000320):0.00001873):0.00000832):0.00000971):0.00001083):0.00001878):0.00038518);
[TREE] T08 (0_0_0:0.00138386,((((2_0_9:0.00000493,((2_0_4:0.00000143,2_0_1:0.00000097):0.00000145,2_0_8:0.00000091):0.00000046):0.00001566,((((2_0_0:0.00000015,2_0_7:0.00000021):0.00000250,2_0_5:0.00000069):0.00000214,2_0_3:0.00002300):0.00000551,(2_0_2:0.00000298,2_0_6:0.00000068):0.00001081):0.00000089):0.00005516,(((1_0_3:0.00000030,1_0_7:0.00000069):0.00001459,(1_0_8:0.00000575,((1_0_2:0.00000052,1_0_4:0.00000065):0.00000050,1_0_0:0.00000552):0.00000448):0.00001592):0.00000066,((1_0_9:0.00000018,1_0_1:0.00000020):0.00000342,(1_0_6:0.00000430,1_0_5:0.00000158):0.00000035):0.00001909):0.00004963):0.00036351,((7_0_1:0.00007725,((7_0_9:0.00002635,(7_0_6:0.00000539,(7_0_4:0.00000393,(7_0_0:0.00000060,7_0_2:0.00000024):0.00000010):0.00000100):0.00001424):0.00000747,((7_0_3:0.00000817,(7_0_7:0.00000045,7_0_5:0.00000029):0.00000344):0.00001990,7_0_8:0.00000708):0.00000297):0.00007893):0.00009603,(((4_0_6:0.00001161,((4_0_4:0.00000761,(4_0_9:0.00000104,(4_0_8:0.00000039,4_0_1:0.00000027):0.00000024):0.00000140):0.00000061,((4_0_3:0.00000138,4_0_5:0.00000126):0.00000083,4_0_2:0.00000167):0.00000122):0.00000325):0.00005062,(4_0_0:0.00000254,4_0_7:0.00000355):0.00002706):0.00001551,((8_0_0:0.00004434,(((3_0_6:0.00000618,(((9_0_2:0.00001615,9_0_7:0.00000414):0.00000662,((9_0_8:0.00000000,9_0_0:0.00000000):0.00000623,(9_0_5:0.00000125,(9_0_9:0.00000041,((9_0_1:0.00000029,9_0_6:0.00000012):0.00000015,(9_0_4:0.00000016,9_0_3:0.00000020):0.00000008):0.00000008):0.00000018):0.00000004):0.00000430):0.00000694,((3_0_5:0.00000446,3_0_0:0.00000153):0.00000832,(((3_0_8:0.00000370,3_0_2:0.00000530):0.00000242,3_0_7:0.00001595):0.00000099,((3_0_4:0.00000196,3_0_9:0.00000006):0.00000824,(3_0_3:0.00000936,3_0_1:0.00000132):0.00000038):0.00000444):0.00000395):0.00000845):0.00000249):0.00000776,(((11_0_8:0.00000093,11_0_9:0.00000051):0.00000155,11_0_5:0.00000276):0.00000600,((11_0_3:0.00001096,(11_0_7:0.00000028,11_0_4:0.00000450):0.00000101):0.00000253,(11_0_1:0.00000802,((11_0_2:0.00000004,11_0_0:0.00000017):0.00000238,11_0_6:0.00000333):0.00000191):0.00000097):0.00000268):0.00001157):0.00004790,(((8_0_8:0.00000685,8_0_5:0.00000404):0.00000262,(8_0_6:0.00000001,8_0_1:0.00000004):0.00001316):0.00000162,(8_0_2:0.00000534,(8_0_4:0.00000371,(8_0_9:0.00000064,(8_0_7:0.00000002,8_0_3:0.00000003):0.00000026):0.00000331):0.00001281):0.00000087):0.00004981):0.00000314):0.00003091,(((((10_0_3:0.00000298,10_0_2:0.00000056):0.00000675,((10_0_6:0.00000211,(10_0_8:0.00000152,10_0_5:0.00000142):0.00000014):0.00000231,10_0_1:0.00000673):0.00000080):0.00000116,(((((6_0_3:0.00000088,6_0_5:0.00000025):0.00000061,6_0_4:0.00000765):0.00000069,(6_0_6:0.00000076,(6_0_7:0.00000192,6_0_2:0.00000099):0.00000054):0.00000044):0.00000375,(6_0_9:0.00000000,6_0_0:0.00000002):0.00002560):0.00000202,(((10_0_0:0.00000102,10_0_7:0.00000012):0.00000202,10_0_9:0.00000144):0.00000120,10_0_4:0.00000223):0.00001049):0.00000068):0.00001679,5_0_1:0.00004619):0.00009590,((((((5_0_6:0.00000001,5_0_0:0.00000003):0.00000131,5_0_8:0.00000114):0.00000271,5_0_3:0.00001036):0.00000098,(5_0_4:0.00000010,((5_0_2:0.00000015,5_0_5:0.00000047):0.00000093,5_0_9:0.00000122):0.00000310):0.00000435):0.00000717,5_0_7:0.00002398):0.00000110,(6_0_8:0.00000591,6_0_1:0.00000041):0.00001467):0.00001258):0.00000339):0.00005235):0.00000512):0.00027336):0.00023893);
[TREE] T09 (0_0_0:0.00045270,(((1_0_4:0.00000428,((1_0_0:0.00000153,(1_0_7:0.00000096,(1_0_2:0.00000062,1_0_5:0.00000023):0.00000016):0.00000653):0.00000030,(((1_0_6:0.00000480,1_0_1:0.00000164):0.00000146,1_0_3:0.00000232):0.00000112,(1_0_8:0.00000061,1_0_9:0.00000127):0.00000758):0.00000286):0.00000553):0.00000566,(((2_0_6:0.00001408,2_0_0:0.00000805):0.00000284,(2_0_8:0.00000057,2_0_9:0.00000067):0.00000429):0.00000251,(((2_0_4:0.00000051,2_0_2:0.00000124):0.00000045,2_0_7:0.00000089):0.00003279,(2_0_1:0.00000312,(2_0_5:0.00000093,2_0_3:0.00000071):0.00000220):0.00001109):0.00000320):0.00014424):0.00015706,(((7_0_5:0.00001220,(((7_0_8:0.00000614,((7_0_4:0.00000082,7_0_9:0.00000032):0.00000032,(7_0_3:0.00000096,7_0_0:0.00000050):0.00000022):0.00000429):0.00000220,7_0_6:0.00000691):0.00000253,7_0_7:0.00001067):0.00000839):0.00000531,(7_0_1:0.00000050,7_0_2:0.00000035):0.00001009):0.00006921,(((((8_0_2:0.00000239,(8_0_3:0.00000545,(((8_0_0:0.00000015,8_0_5:0.00000014):0.00000009,8_0_7:0.00000136):0.00000026,((8_0_9:0.00000053,8_0_6:0.00000040):0.00000053,(8_0_4:0.00000243,8_0_8:0.00000942):0.00000017):0.00000199):0.00000189):0.00000043):0.00005954,(((((9_0_7:0.00000217,9_0_1:0.00000052):0.00000093,9_0_3:0.00000279):0.00000031,9_0_8:0.00000148):0.00000045,((9_0_5:0.00000153,(9_0_2:0.00000042,9_0_0:0.00000034):0.00000034):0.00000132,9_0_6:0.00000847):0.00000148):0.00001081,((9_0_9:0.00000413,9_0_4:0.00000220):0.00002966,(((11_0_5:0.00000112,(11_0_1:0.00000077,11_0_6:0.00000013):0.00000011):0.00000053,11_0_4:0.00000027):0.00000290,(((11_0_9:0.00000180,(11_0_2:0.00000001,11_0_3:0.00000005):0.00000026):0.00000531,(11_0_7:0.00000181,11_0_0:0.00000116):0.00000124):0.00000181,11_0_8:0.00000243):0.00000590):0.00000492):0.00000257):0.00000750):0.00000467,(8_0_1:0.00008258,(((3_0_7:0.00000014,(3_0_0:0.00000098,3_0_5:0.00000053):0.00000004):0.00000165,((3_0_3:0.00000179,3_0_4:0.00000063):0.00000042,3_0_9:0.00000032):0.00000227):0.00000153,((3_0_8:0.00000375,(3_0_1:0.00000070,3_0_6:0.00000026):0.00000250):0.00000638,3_0_2:0.00000795):0.00000935):0.00000685):0.00000175):0.00007120,((((5_0_8:0.00000001,5_0_6:0.00000001):0.00001613,((5_0_5:0.00001171,5_0_9:0.00000318):0.00001002,(5_0_7:0.00000550,((5_0_4:0.00000160,(5_0_0:0.00000364,5_0_2:0.00000222):0.00000103):0.00000766,(5_0_3:0.00000281,5_0_1:0.00000146):0.00000392):0.00001326):0.00000384):0.00000464):0.00000386,(((6_0_2:0.00000129,6_0_0:0.00000495):0.00000102,((6_0_6:0.00000262,6_0_4:0.00000395):0.00000068,6_0_3:0.00000622):0.00000001):0.00001937,(((6_0_7:0.00000049,(6_0_9:0.00000056,6_0_1:0.00000028):0.00000116):0.00000019,(6_0_8:0.00000007,6_0_5:0.00000029):0.00000030):0.00000355,((10_0_8:0.00001060,(10_0_7:0.00000022,((10_0_3:0.00000022,10_0_1:0.00000022):0.00000009,10_0_4:0.00000028):0.00000133):0.00000715):0.00000529,10_0_2:0.00001809):0.00000018):0.00000145):0.00000210):0.00002751,(10_0_0:0.00000853,((10_0_5:0.00000034,10_0_9:0.00000212):0.00000077,10_0_6:0.00000060):0.00000035):0.00001766):0.00011218):0.00000861,((4_0_1:0.00000041,(4_0_2:0.00000064,4_0_5:0.00000026):0.00000028):0.00002923,((4_0_3:0.00000092,(4_0_7:0.00000003,4_0_0:0.00000002):0.00000045):0.00000282,(((4_0_6:0.00000027,4_0_8:0.00000016):0.00000115,4_0_9:0.00000893):0.00000089,4_0_4:0.00000332):0.00000042):0.00001867):0.00014496):0.00004114):0.00021574):0.00092230);
[TREE] T10 (0_0_0:0.00072562,(((((2_0_5:0.00000130,2_0_7:0.00000045):0.00001185,((2_0_3:0.00000018,2_0_1:0.00000012):0.00000331,(2_0_4:0.00000360,(2_0_9:0.00000158,2_0_8:0.00000448):0.00000367):0.00000148):0.00000125):0.00002668,(2_0_2:0.00000170,(2_0_6:0.00000186,2_0_0:0.00000052):0.00000321):0.00002342):0.00006568,(((1_0_7:0.00000339,(1_0_8:0.00000011,(1_0_0:0.00000001,1_0_5:0.00000001):0.00000001):0.00000521):0.00000115,1_0_3:0.00000351):0.00004147,((1_0_1:0.00000279,1_0_6:0.00000413):0.00000960,((1_0_2:0.00001633,1_0_9:0.00000986):0.00000020,1_0_4:0.00000548):0.00001791):0.00001584):0.00011671):0.00020621,((((((((8_0_5:0.00000001,8_0_6:0.00000001):0.00000439,(8_0_1:0.00000245,8_0_4:0.00000203):0.00000018):0.00001561,8_0_3:0.00000250):0.00000183,(8_0_0:0.00000086,8_0_7:0.00000020):0.00000591):0.00000999,(((8_0_2:0.00000001,8_0_9:0.00000014):0.00000220,8_0_8:0.00000563):0.00007668,((11_0_3:0.00000003,11_0_4:0.00000001):0.00002372,((((9_0_9:0.00000860,((9_0_1:0.00000024,9_0_8:0.00000048):0.00001297,9_0_4:0.00001199):0.00000183):0.00000483,9_0_2:0.00001535):0.00000861,((((11_0_9:0.00000023,11_0_0:0.00000008):0.00000358,((11_0_5:0.00000063,(11_0_2:0.00000298,11_0_8:0.00000277):0.00000094):0.00000275,11_0_6:0.00000525):0.00000466):0.00000444,(11_0_7:0.00000154,11_0_1:0.00000124):0.00001790):0.00000546,((9_0_6:0.00000012,9_0_5:0.00000011):0.00000252,((9_0_0:0.00000224,9_0_3:0.00000142):0.00000009,9_0_7:0.00000110):0.00000033):0.00001598):0.00000057):0.00000871,((((3_0_4:0.00000866,(3_0_5:0.00000324,(3_0_9:0.00000047,3_0_2:0.00000078):0.00000348):0.00000379):0.00000095,(3_0_1:0.00000209,(3_0_7:0.00000014,3_0_6:0.00000115):0.00000354):0.00001291):0.00000265,(3_0_3:0.00000346,3_0_0:0.00000047):0.00001448):0.00000001,3_0_8:0.00000391):0.00000779):0.00000073):0.00000566):0.00006073):0.00006004,((4_0_7:0.00000397,4_0_8:0.00000673):0.00000172,((4_0_5:0.00000050,(4_0_0:0.00000007,4_0_3:0.00000039):0.00000029):0.00000672,((4_0_4:0.00000021,(4_0_6:0.00000000,(4_0_1:0.00000000,4_0_2:0.00000000):0.00000000):0.00000101):0.00000003,4_0_9:0.00000105):0.00000385):0.00000465):0.00033618):0.00000314,((((((10_0_2:0.00000253,10_0_1:0.00000432):0.00002669,((((10_0_8:0.00000098,10_0_5:0.00000012):0.00000133,10_0_6:0.00000266):0.00000255,10_0_7:0.00000595):0.00000923,10_0_4:0.00001096):0.00000590):0.00000307,6_0_3:0.00002539):0.00000076,(((6_0_6:0.00000111,6_0_9:0.00000183):0.00000027,6_0_1:0.00000050):0.00000414,(6_0_4:0.00000107,(((6_0_0:0.00000060,6_0_5:0.00000121):0.00000267,(6_0_8:0.00000024,6_0_7:0.00000021):0.00000387):0.00000160,6_0_2:0.00000278):0.00000034):0.00000135):0.00000631):0.00000156,(5_0_8:0.00000444,(5_0_4:0.00000685,((5_0_0:0.00000080,5_0_3:0.00000122):0.00000018,(5_0_1:0.00000129,(5_0_5:0.00000006,5_0_9:0.00000065):0.00000057):0.00000047):0.00000300):0.00000436):0.00000197):0.00000470,(((5_0_7:0.00000054,5_0_6:0.00000188):0.00000189,5_0_2:0.00000191):0.00003308,((10_0_0:0.00000345,10_0_3:0.00000147):0.00000096,10_0_9:0.00000129):0.00009426):0.00000287):0.00013411):0.00003161,((7_0_3:0.00000576,7_0_8:0.00000137):0.00004056,(((7_0_7:0.00000561,7_0_5:0.00000170):0.00000241,(7_0_6:0.00000199,(7_0_9:0.00000462,7_0_4:0.00001091):0.00000009):0.00000362):0.00000022,(7_0_0:0.00000009,(7_0_2:0.00000094,7_0_1:0.00000034):0.00000005):0.00000418):0.00003130):0.00009713):0.00039037):0.00067977);

[PARTITIONS] csSimUnlinked_01 [T01 csSim_unlinked_1 500]
[PARTITIONS] csSimUnlinked_02 [T02 csSim_unlinked_2 500]
[PARTITIONS] csSimUnlinked_03 [T03 csSim_unlinked_3 500]
[PARTITIONS] csSimUnlinked_04 [T04 csSim_unlinked_4 500]
[PARTITIONS] csSimUnlinked_05 [T05 csSim_unlinked_5 500]
[PARTITIONS] csSimUnlinked_06 [T06 csSim_unlinked_6 500]
[PARTITIONS] csSimUnlinked_07 [T07 csSim_unlinked_7 500]
[PARTITIONS] csSimUnlinked_08 [T08 csSim_unlinked_8 500]
[PARTITIONS] csSimUnlinked_09 [T09 csSim_unlinked_9 500]
[PARTITIONS] csSimUnlinked_10 [T10 csSim_unlinked_10 500]

[EVOLVE] csSimUnlinked_01 1 data_01
csSimUnlinked_02 1 data_02
csSimUnlinked_03 1 data_03
csSimUnlinked_04 1 data_04
csSimUnlinked_05 1 data_05
csSimUnlinked_06 1 data_06
csSimUnlinked_07 1 data_07
csSimUnlinked_08 1 data_08
csSimUnlinked_09 1 data_09
csSimUnlinked_10 1 data_10
