"","Description","Ind1","Ind2","Ind3","Ind4","Ind5","Ind6","Ind7","Ind8","Ind9","Ind10","Ind11","Ind12","Ind13","Ind14","Ind15","Ind16","Ind17","Ind18","Ind19","Ind20","Ind21","Ind22","Ind23","Ind24","Ind25","Ind26","Ind27","Ind28","Ind29","Ind30","Ind31","Ind32","Ind33","Ind34","Ind35","Ind36","Ind37","Ind38","Ind39","Ind40","Ind41","Ind42","Ind43","Ind44","Ind45","Ind46","Ind47","Ind48","Ind49","Ind50","Ind51","Ind52","Ind53","Ind54","Ind55","Ind56","Ind57","Ind58","Ind59","Ind60","Ind61","Ind62","Ind63","Ind64","Ind65","Ind66","Ind67","Ind68","Ind69","Ind70","Ind71","Ind72","Ind73","Ind74","Ind75","Ind76","Ind77","Ind78","Ind79","Ind80","Ind81"
"Ind1","15_0_2",-1,0,0,0,0,0,0,0,0,0,0,0,0,0,0,0,0,0,0,0,0,0,0,0,0,0,0,0,0,0,0,0,0,0,0,0,0,0,0,0,0,0,0,0,0,0,0,0,0,0,0,0,0,0,0,0,0,0,0,0,0,0,0,0,0,0,0,0,0,0,0,0,0,0,0,0,0,0,0,0,0
"Ind2","15_0_0",1,-1,0,0,0,0,0,0,0,0,0,0,0,0,0,0,0,0,0,0,0,0,0,0,0,0,0,0,0,0,0,0,0,0,0,0,0,0,0,0,0,0,0,0,0,0,0,0,0,0,0,0,0,0,0,0,0,0,0,0,0,0,0,0,0,0,0,0,0,0,0,0,0,0,0,0,0,0,0,0,0
"Ind3","15_0_1",0,1,-1,0,0,0,0,0,0,0,0,0,0,0,0,0,0,0,0,0,0,0,0,0,0,0,0,0,0,0,0,0,0,0,0,0,0,0,0,0,0,0,0,0,0,0,0,0,0,0,0,0,0,0,0,0,0,0,0,0,0,0,0,0,0,0,0,0,0,0,0,0,0,0,0,0,0,0,0,0,0
"Ind4","15_0_3",0,1,0,-1,0,0,0,0,0,0,0,0,0,0,0,0,0,0,0,0,0,0,0,0,0,0,0,0,0,0,0,0,0,0,0,0,0,0,0,0,0,0,0,0,0,0,0,0,0,0,0,0,0,0,0,0,0,0,0,0,0,0,0,0,0,0,0,0,0,0,0,0,0,0,0,0,0,0,0,0,0
"Ind5","8_0_0",4,5,4,4,-1,0,0,0,0,0,0,0,0,0,0,0,0,0,0,0,0,0,0,0,0,0,0,0,0,0,0,0,0,0,0,0,0,0,0,0,0,0,0,0,0,0,0,0,0,0,0,0,0,0,0,0,0,0,0,0,0,0,0,0,0,0,0,0,0,0,0,0,0,0,0,0,0,0,0,0,0
"Ind6","8_0_1",4,5,4,4,0,-1,0,0,0,0,0,0,0,0,0,0,0,0,0,0,0,0,0,0,0,0,0,0,0,0,0,0,0,0,0,0,0,0,0,0,0,0,0,0,0,0,0,0,0,0,0,0,0,0,0,0,0,0,0,0,0,0,0,0,0,0,0,0,0,0,0,0,0,0,0,0,0,0,0,0,0
"Ind7","8_0_3",4,5,4,4,0,0,-1,0,0,0,0,0,0,0,0,0,0,0,0,0,0,0,0,0,0,0,0,0,0,0,0,0,0,0,0,0,0,0,0,0,0,0,0,0,0,0,0,0,0,0,0,0,0,0,0,0,0,0,0,0,0,0,0,0,0,0,0,0,0,0,0,0,0,0,0,0,0,0,0,0,0
"Ind8","8_0_2",4,5,4,4,0,0,0,-1,0,0,0,0,0,0,0,0,0,0,0,0,0,0,0,0,0,0,0,0,0,0,0,0,0,0,0,0,0,0,0,0,0,0,0,0,0,0,0,0,0,0,0,0,0,0,0,0,0,0,0,0,0,0,0,0,0,0,0,0,0,0,0,0,0,0,0,0,0,0,0,0,0
"Ind9","12_0_3",5,6,5,5,1,1,1,1,-1,0,0,0,0,0,0,0,0,0,0,0,0,0,0,0,0,0,0,0,0,0,0,0,0,0,0,0,0,0,0,0,0,0,0,0,0,0,0,0,0,0,0,0,0,0,0,0,0,0,0,0,0,0,0,0,0,0,0,0,0,0,0,0,0,0,0,0,0,0,0,0,0
"Ind10","12_0_1",5,6,5,5,1,1,1,1,0,-1,0,0,0,0,0,0,0,0,0,0,0,0,0,0,0,0,0,0,0,0,0,0,0,0,0,0,0,0,0,0,0,0,0,0,0,0,0,0,0,0,0,0,0,0,0,0,0,0,0,0,0,0,0,0,0,0,0,0,0,0,0,0,0,0,0,0,0,0,0,0,0
"Ind11","12_0_2",5,6,5,5,1,1,1,1,0,0,-1,0,0,0,0,0,0,0,0,0,0,0,0,0,0,0,0,0,0,0,0,0,0,0,0,0,0,0,0,0,0,0,0,0,0,0,0,0,0,0,0,0,0,0,0,0,0,0,0,0,0,0,0,0,0,0,0,0,0,0,0,0,0,0,0,0,0,0,0,0,0
"Ind12","12_0_0",5,6,5,5,1,1,1,1,0,0,0,-1,0,0,0,0,0,0,0,0,0,0,0,0,0,0,0,0,0,0,0,0,0,0,0,0,0,0,0,0,0,0,0,0,0,0,0,0,0,0,0,0,0,0,0,0,0,0,0,0,0,0,0,0,0,0,0,0,0,0,0,0,0,0,0,0,0,0,0,0,0
"Ind13","13_0_3",8,9,8,8,10,10,10,10,11,11,11,11,-1,0,0,0,0,0,0,0,0,0,0,0,0,0,0,0,0,0,0,0,0,0,0,0,0,0,0,0,0,0,0,0,0,0,0,0,0,0,0,0,0,0,0,0,0,0,0,0,0,0,0,0,0,0,0,0,0,0,0,0,0,0,0,0,0,0,0,0,0
"Ind14","13_0_2",8,9,8,8,10,10,10,10,11,11,11,11,0,-1,0,0,0,0,0,0,0,0,0,0,0,0,0,0,0,0,0,0,0,0,0,0,0,0,0,0,0,0,0,0,0,0,0,0,0,0,0,0,0,0,0,0,0,0,0,0,0,0,0,0,0,0,0,0,0,0,0,0,0,0,0,0,0,0,0,0,0
"Ind15","13_0_1",8,9,8,8,10,10,10,10,11,11,11,11,0,0,-1,0,0,0,0,0,0,0,0,0,0,0,0,0,0,0,0,0,0,0,0,0,0,0,0,0,0,0,0,0,0,0,0,0,0,0,0,0,0,0,0,0,0,0,0,0,0,0,0,0,0,0,0,0,0,0,0,0,0,0,0,0,0,0,0,0,0
"Ind16","13_0_0",8,9,8,8,10,10,10,10,11,11,11,11,0,0,0,-1,0,0,0,0,0,0,0,0,0,0,0,0,0,0,0,0,0,0,0,0,0,0,0,0,0,0,0,0,0,0,0,0,0,0,0,0,0,0,0,0,0,0,0,0,0,0,0,0,0,0,0,0,0,0,0,0,0,0,0,0,0,0,0,0,0
"Ind17","20_0_3",7,8,7,7,9,9,9,9,10,10,10,10,1,1,1,1,-1,0,0,0,0,0,0,0,0,0,0,0,0,0,0,0,0,0,0,0,0,0,0,0,0,0,0,0,0,0,0,0,0,0,0,0,0,0,0,0,0,0,0,0,0,0,0,0,0,0,0,0,0,0,0,0,0,0,0,0,0,0,0,0,0
"Ind18","20_0_0",7,8,7,7,9,9,9,9,10,10,10,10,1,1,1,1,0,-1,0,0,0,0,0,0,0,0,0,0,0,0,0,0,0,0,0,0,0,0,0,0,0,0,0,0,0,0,0,0,0,0,0,0,0,0,0,0,0,0,0,0,0,0,0,0,0,0,0,0,0,0,0,0,0,0,0,0,0,0,0,0,0
"Ind19","20_0_2",7,8,7,7,9,9,9,9,10,10,10,10,1,1,1,1,0,0,-1,0,0,0,0,0,0,0,0,0,0,0,0,0,0,0,0,0,0,0,0,0,0,0,0,0,0,0,0,0,0,0,0,0,0,0,0,0,0,0,0,0,0,0,0,0,0,0,0,0,0,0,0,0,0,0,0,0,0,0,0,0,0
"Ind20","20_0_1",7,8,7,7,9,9,9,9,10,10,10,10,1,1,1,1,0,0,0,-1,0,0,0,0,0,0,0,0,0,0,0,0,0,0,0,0,0,0,0,0,0,0,0,0,0,0,0,0,0,0,0,0,0,0,0,0,0,0,0,0,0,0,0,0,0,0,0,0,0,0,0,0,0,0,0,0,0,0,0,0,0
"Ind21","19_0_2",8,9,8,8,10,10,10,10,11,11,11,11,2,2,2,2,1,1,1,1,-1,0,0,0,0,0,0,0,0,0,0,0,0,0,0,0,0,0,0,0,0,0,0,0,0,0,0,0,0,0,0,0,0,0,0,0,0,0,0,0,0,0,0,0,0,0,0,0,0,0,0,0,0,0,0,0,0,0,0,0,0
"Ind22","19_0_1",8,9,8,8,10,10,10,10,11,11,11,11,2,2,2,2,1,1,1,1,0,-1,0,0,0,0,0,0,0,0,0,0,0,0,0,0,0,0,0,0,0,0,0,0,0,0,0,0,0,0,0,0,0,0,0,0,0,0,0,0,0,0,0,0,0,0,0,0,0,0,0,0,0,0,0,0,0,0,0,0,0
"Ind23","19_0_3",9,10,9,9,11,11,11,11,12,12,12,12,3,3,3,3,2,2,2,2,1,1,-1,0,0,0,0,0,0,0,0,0,0,0,0,0,0,0,0,0,0,0,0,0,0,0,0,0,0,0,0,0,0,0,0,0,0,0,0,0,0,0,0,0,0,0,0,0,0,0,0,0,0,0,0,0,0,0,0,0,0
"Ind24","19_0_0",8,9,8,8,10,10,10,10,11,11,11,11,2,2,2,2,1,1,1,1,0,0,1,-1,0,0,0,0,0,0,0,0,0,0,0,0,0,0,0,0,0,0,0,0,0,0,0,0,0,0,0,0,0,0,0,0,0,0,0,0,0,0,0,0,0,0,0,0,0,0,0,0,0,0,0,0,0,0,0,0,0
"Ind25","2_0_3",10,11,10,10,12,12,12,12,13,13,13,13,4,4,4,4,3,3,3,3,4,4,5,4,-1,0,0,0,0,0,0,0,0,0,0,0,0,0,0,0,0,0,0,0,0,0,0,0,0,0,0,0,0,0,0,0,0,0,0,0,0,0,0,0,0,0,0,0,0,0,0,0,0,0,0,0,0,0,0,0,0
"Ind26","2_0_1",10,11,10,10,12,12,12,12,13,13,13,13,4,4,4,4,3,3,3,3,4,4,5,4,0,-1,0,0,0,0,0,0,0,0,0,0,0,0,0,0,0,0,0,0,0,0,0,0,0,0,0,0,0,0,0,0,0,0,0,0,0,0,0,0,0,0,0,0,0,0,0,0,0,0,0,0,0,0,0,0,0
"Ind27","2_0_2",10,11,10,10,12,12,12,12,13,13,13,13,4,4,4,4,3,3,3,3,4,4,5,4,0,0,-1,0,0,0,0,0,0,0,0,0,0,0,0,0,0,0,0,0,0,0,0,0,0,0,0,0,0,0,0,0,0,0,0,0,0,0,0,0,0,0,0,0,0,0,0,0,0,0,0,0,0,0,0,0,0
"Ind28","2_0_0",10,11,10,10,12,12,12,12,13,13,13,13,4,4,4,4,3,3,3,3,4,4,5,4,0,0,0,-1,0,0,0,0,0,0,0,0,0,0,0,0,0,0,0,0,0,0,0,0,0,0,0,0,0,0,0,0,0,0,0,0,0,0,0,0,0,0,0,0,0,0,0,0,0,0,0,0,0,0,0,0,0
"Ind29","11_0_1",10,11,10,10,12,12,12,12,13,13,13,13,4,4,4,4,3,3,3,3,4,4,5,4,2,2,2,2,-1,0,0,0,0,0,0,0,0,0,0,0,0,0,0,0,0,0,0,0,0,0,0,0,0,0,0,0,0,0,0,0,0,0,0,0,0,0,0,0,0,0,0,0,0,0,0,0,0,0,0,0,0
"Ind30","11_0_0",9,10,9,9,11,11,11,11,12,12,12,12,3,3,3,3,2,2,2,2,3,3,4,3,1,1,1,1,1,-1,0,0,0,0,0,0,0,0,0,0,0,0,0,0,0,0,0,0,0,0,0,0,0,0,0,0,0,0,0,0,0,0,0,0,0,0,0,0,0,0,0,0,0,0,0,0,0,0,0,0,0
"Ind31","11_0_2",9,10,9,9,11,11,11,11,12,12,12,12,3,3,3,3,2,2,2,2,3,3,4,3,1,1,1,1,1,0,-1,0,0,0,0,0,0,0,0,0,0,0,0,0,0,0,0,0,0,0,0,0,0,0,0,0,0,0,0,0,0,0,0,0,0,0,0,0,0,0,0,0,0,0,0,0,0,0,0,0,0
"Ind32","11_0_3",9,10,9,9,11,11,11,11,12,12,12,12,3,3,3,3,2,2,2,2,3,3,4,3,1,1,1,1,1,0,0,-1,0,0,0,0,0,0,0,0,0,0,0,0,0,0,0,0,0,0,0,0,0,0,0,0,0,0,0,0,0,0,0,0,0,0,0,0,0,0,0,0,0,0,0,0,0,0,0,0,0
"Ind33","14_0_3",9,10,9,9,11,11,11,11,12,12,12,12,3,3,3,3,2,2,2,2,3,3,4,3,1,1,1,1,1,0,0,0,-1,0,0,0,0,0,0,0,0,0,0,0,0,0,0,0,0,0,0,0,0,0,0,0,0,0,0,0,0,0,0,0,0,0,0,0,0,0,0,0,0,0,0,0,0,0,0,0,0
"Ind34","14_0_1",9,10,9,9,11,11,11,11,12,12,12,12,3,3,3,3,2,2,2,2,3,3,4,3,1,1,1,1,1,0,0,0,0,-1,0,0,0,0,0,0,0,0,0,0,0,0,0,0,0,0,0,0,0,0,0,0,0,0,0,0,0,0,0,0,0,0,0,0,0,0,0,0,0,0,0,0,0,0,0,0,0
"Ind35","14_0_2",9,10,9,9,11,11,11,11,12,12,12,12,3,3,3,3,2,2,2,2,3,3,4,3,1,1,1,1,1,0,0,0,0,0,-1,0,0,0,0,0,0,0,0,0,0,0,0,0,0,0,0,0,0,0,0,0,0,0,0,0,0,0,0,0,0,0,0,0,0,0,0,0,0,0,0,0,0,0,0,0,0
"Ind36","14_0_0",9,10,9,9,11,11,11,11,12,12,12,12,3,3,3,3,2,2,2,2,3,3,4,3,1,1,1,1,1,0,0,0,0,0,0,-1,0,0,0,0,0,0,0,0,0,0,0,0,0,0,0,0,0,0,0,0,0,0,0,0,0,0,0,0,0,0,0,0,0,0,0,0,0,0,0,0,0,0,0,0,0
"Ind37","9_0_1",10,11,10,10,12,12,12,12,13,13,13,13,4,4,4,4,3,3,3,3,4,4,5,4,2,2,2,2,2,1,1,1,1,1,1,1,-1,0,0,0,0,0,0,0,0,0,0,0,0,0,0,0,0,0,0,0,0,0,0,0,0,0,0,0,0,0,0,0,0,0,0,0,0,0,0,0,0,0,0,0,0
"Ind38","9_0_0",9,10,9,9,11,11,11,11,12,12,12,12,3,3,3,3,2,2,2,2,3,3,4,3,1,1,1,1,1,0,0,0,0,0,0,0,1,-1,0,0,0,0,0,0,0,0,0,0,0,0,0,0,0,0,0,0,0,0,0,0,0,0,0,0,0,0,0,0,0,0,0,0,0,0,0,0,0,0,0,0,0
"Ind39","9_0_2",9,10,9,9,11,11,11,11,12,12,12,12,3,3,3,3,2,2,2,2,3,3,4,3,1,1,1,1,1,0,0,0,0,0,0,0,1,0,-1,0,0,0,0,0,0,0,0,0,0,0,0,0,0,0,0,0,0,0,0,0,0,0,0,0,0,0,0,0,0,0,0,0,0,0,0,0,0,0,0,0,0
"Ind40","9_0_3",9,10,9,9,11,11,11,11,12,12,12,12,3,3,3,3,2,2,2,2,3,3,4,3,1,1,1,1,1,0,0,0,0,0,0,0,1,0,0,-1,0,0,0,0,0,0,0,0,0,0,0,0,0,0,0,0,0,0,0,0,0,0,0,0,0,0,0,0,0,0,0,0,0,0,0,0,0,0,0,0,0
"Ind41","17_0_3",10,11,10,10,12,12,12,12,13,13,13,13,4,4,4,4,3,3,3,3,4,4,5,4,2,2,2,2,2,1,1,1,1,1,1,1,2,1,1,1,-1,0,0,0,0,0,0,0,0,0,0,0,0,0,0,0,0,0,0,0,0,0,0,0,0,0,0,0,0,0,0,0,0,0,0,0,0,0,0,0,0
"Ind42","17_0_2",9,10,9,9,11,11,11,11,12,12,12,12,3,3,3,3,2,2,2,2,3,3,4,3,1,1,1,1,1,0,0,0,0,0,0,0,1,0,0,0,1,-1,0,0,0,0,0,0,0,0,0,0,0,0,0,0,0,0,0,0,0,0,0,0,0,0,0,0,0,0,0,0,0,0,0,0,0,0,0,0,0
"Ind43","17_0_0",9,10,9,9,11,11,11,11,12,12,12,12,3,3,3,3,2,2,2,2,3,3,4,3,1,1,1,1,1,0,0,0,0,0,0,0,1,0,0,0,1,0,-1,0,0,0,0,0,0,0,0,0,0,0,0,0,0,0,0,0,0,0,0,0,0,0,0,0,0,0,0,0,0,0,0,0,0,0,0,0,0
"Ind44","17_0_1",9,10,9,9,11,11,11,11,12,12,12,12,3,3,3,3,2,2,2,2,3,3,4,3,1,1,1,1,1,0,0,0,0,0,0,0,1,0,0,0,1,0,0,-1,0,0,0,0,0,0,0,0,0,0,0,0,0,0,0,0,0,0,0,0,0,0,0,0,0,0,0,0,0,0,0,0,0,0,0,0,0
"Ind45","16_0_3",9,10,9,9,11,11,11,11,12,12,12,12,3,3,3,3,2,2,2,2,3,3,4,3,1,1,1,1,1,0,0,0,0,0,0,0,1,0,0,0,1,0,0,0,-1,0,0,0,0,0,0,0,0,0,0,0,0,0,0,0,0,0,0,0,0,0,0,0,0,0,0,0,0,0,0,0,0,0,0,0,0
"Ind46","16_0_1",9,10,9,9,11,11,11,11,12,12,12,12,3,3,3,3,2,2,2,2,3,3,4,3,1,1,1,1,1,0,0,0,0,0,0,0,1,0,0,0,1,0,0,0,0,-1,0,0,0,0,0,0,0,0,0,0,0,0,0,0,0,0,0,0,0,0,0,0,0,0,0,0,0,0,0,0,0,0,0,0,0
"Ind47","16_0_0",9,10,9,9,11,11,11,11,12,12,12,12,3,3,3,3,2,2,2,2,3,3,4,3,1,1,1,1,1,0,0,0,0,0,0,0,1,0,0,0,1,0,0,0,0,0,-1,0,0,0,0,0,0,0,0,0,0,0,0,0,0,0,0,0,0,0,0,0,0,0,0,0,0,0,0,0,0,0,0,0,0
"Ind48","16_0_2",9,10,9,9,11,11,11,11,12,12,12,12,3,3,3,3,2,2,2,2,3,3,4,3,1,1,1,1,1,0,0,0,0,0,0,0,1,0,0,0,1,0,0,0,0,0,0,-1,0,0,0,0,0,0,0,0,0,0,0,0,0,0,0,0,0,0,0,0,0,0,0,0,0,0,0,0,0,0,0,0,0
"Ind49","4_0_0",9,10,9,9,11,11,11,11,12,12,12,12,3,3,3,3,2,2,2,2,3,3,4,3,5,5,5,5,5,4,4,4,4,4,4,4,5,4,4,4,5,4,4,4,4,4,4,4,-1,0,0,0,0,0,0,0,0,0,0,0,0,0,0,0,0,0,0,0,0,0,0,0,0,0,0,0,0,0,0,0,0
"Ind50","4_0_1",9,10,9,9,11,11,11,11,12,12,12,12,3,3,3,3,2,2,2,2,3,3,4,3,5,5,5,5,5,4,4,4,4,4,4,4,5,4,4,4,5,4,4,4,4,4,4,4,0,-1,0,0,0,0,0,0,0,0,0,0,0,0,0,0,0,0,0,0,0,0,0,0,0,0,0,0,0,0,0,0,0
"Ind51","4_0_2",9,10,9,9,11,11,11,11,12,12,12,12,3,3,3,3,2,2,2,2,3,3,4,3,5,5,5,5,5,4,4,4,4,4,4,4,5,4,4,4,5,4,4,4,4,4,4,4,0,0,-1,0,0,0,0,0,0,0,0,0,0,0,0,0,0,0,0,0,0,0,0,0,0,0,0,0,0,0,0,0,0
"Ind52","4_0_3",9,10,9,9,11,11,11,11,12,12,12,12,3,3,3,3,2,2,2,2,3,3,4,3,5,5,5,5,5,4,4,4,4,4,4,4,5,4,4,4,5,4,4,4,4,4,4,4,0,0,0,-1,0,0,0,0,0,0,0,0,0,0,0,0,0,0,0,0,0,0,0,0,0,0,0,0,0,0,0,0,0
"Ind53","5_0_1",9,10,9,9,11,11,11,11,12,12,12,12,3,3,3,3,2,2,2,2,3,3,4,3,5,5,5,5,5,4,4,4,4,4,4,4,5,4,4,4,5,4,4,4,4,4,4,4,2,2,2,2,-1,0,0,0,0,0,0,0,0,0,0,0,0,0,0,0,0,0,0,0,0,0,0,0,0,0,0,0,0
"Ind54","5_0_3",9,10,9,9,11,11,11,11,12,12,12,12,3,3,3,3,2,2,2,2,3,3,4,3,5,5,5,5,5,4,4,4,4,4,4,4,5,4,4,4,5,4,4,4,4,4,4,4,2,2,2,2,0,-1,0,0,0,0,0,0,0,0,0,0,0,0,0,0,0,0,0,0,0,0,0,0,0,0,0,0,0
"Ind55","5_0_0",9,10,9,9,11,11,11,11,12,12,12,12,3,3,3,3,2,2,2,2,3,3,4,3,5,5,5,5,5,4,4,4,4,4,4,4,5,4,4,4,5,4,4,4,4,4,4,4,2,2,2,2,0,0,-1,0,0,0,0,0,0,0,0,0,0,0,0,0,0,0,0,0,0,0,0,0,0,0,0,0,0
"Ind56","5_0_2",9,10,9,9,11,11,11,11,12,12,12,12,3,3,3,3,2,2,2,2,3,3,4,3,5,5,5,5,5,4,4,4,4,4,4,4,5,4,4,4,5,4,4,4,4,4,4,4,2,2,2,2,0,0,0,-1,0,0,0,0,0,0,0,0,0,0,0,0,0,0,0,0,0,0,0,0,0,0,0,0,0
"Ind57","7_0_0",11,12,11,11,13,13,13,13,14,14,14,14,5,5,5,5,4,4,4,4,5,5,6,5,7,7,7,7,7,6,6,6,6,6,6,6,7,6,6,6,7,6,6,6,6,6,6,6,6,6,6,6,6,6,6,6,-1,0,0,0,0,0,0,0,0,0,0,0,0,0,0,0,0,0,0,0,0,0,0,0,0
"Ind58","7_0_3",11,12,11,11,13,13,13,13,14,14,14,14,5,5,5,5,4,4,4,4,5,5,6,5,7,7,7,7,7,6,6,6,6,6,6,6,7,6,6,6,7,6,6,6,6,6,6,6,6,6,6,6,6,6,6,6,0,-1,0,0,0,0,0,0,0,0,0,0,0,0,0,0,0,0,0,0,0,0,0,0,0
"Ind59","7_0_1",11,12,11,11,13,13,13,13,14,14,14,14,5,5,5,5,4,4,4,4,5,5,6,5,7,7,7,7,7,6,6,6,6,6,6,6,7,6,6,6,7,6,6,6,6,6,6,6,6,6,6,6,6,6,6,6,0,0,-1,0,0,0,0,0,0,0,0,0,0,0,0,0,0,0,0,0,0,0,0,0,0
"Ind60","7_0_2",11,12,11,11,13,13,13,13,14,14,14,14,5,5,5,5,4,4,4,4,5,5,6,5,7,7,7,7,7,6,6,6,6,6,6,6,7,6,6,6,7,6,6,6,6,6,6,6,6,6,6,6,6,6,6,6,0,0,0,-1,0,0,0,0,0,0,0,0,0,0,0,0,0,0,0,0,0,0,0,0,0
"Ind61","18_0_0",11,12,11,11,13,13,13,13,14,14,14,14,5,5,5,5,4,4,4,4,5,5,6,5,7,7,7,7,7,6,6,6,6,6,6,6,7,6,6,6,7,6,6,6,6,6,6,6,6,6,6,6,6,6,6,6,0,0,0,0,-1,0,0,0,0,0,0,0,0,0,0,0,0,0,0,0,0,0,0,0,0
"Ind62","18_0_1",11,12,11,11,13,13,13,13,14,14,14,14,5,5,5,5,4,4,4,4,5,5,6,5,7,7,7,7,7,6,6,6,6,6,6,6,7,6,6,6,7,6,6,6,6,6,6,6,6,6,6,6,6,6,6,6,0,0,0,0,0,-1,0,0,0,0,0,0,0,0,0,0,0,0,0,0,0,0,0,0,0
"Ind63","18_0_3",11,12,11,11,13,13,13,13,14,14,14,14,5,5,5,5,4,4,4,4,5,5,6,5,7,7,7,7,7,6,6,6,6,6,6,6,7,6,6,6,7,6,6,6,6,6,6,6,6,6,6,6,6,6,6,6,0,0,0,0,0,0,-1,0,0,0,0,0,0,0,0,0,0,0,0,0,0,0,0,0,0
"Ind64","18_0_2",11,12,11,11,13,13,13,13,14,14,14,14,5,5,5,5,4,4,4,4,5,5,6,5,7,7,7,7,7,6,6,6,6,6,6,6,7,6,6,6,7,6,6,6,6,6,6,6,6,6,6,6,6,6,6,6,0,0,0,0,0,0,0,-1,0,0,0,0,0,0,0,0,0,0,0,0,0,0,0,0,0
"Ind65","6_0_1",6,7,6,6,8,8,8,8,9,9,9,9,2,2,2,2,1,1,1,1,2,2,3,2,4,4,4,4,4,3,3,3,3,3,3,3,4,3,3,3,4,3,3,3,3,3,3,3,3,3,3,3,3,3,3,3,5,5,5,5,5,5,5,5,-1,0,0,0,0,0,0,0,0,0,0,0,0,0,0,0,0
"Ind66","6_0_2",6,7,6,6,8,8,8,8,9,9,9,9,2,2,2,2,1,1,1,1,2,2,3,2,4,4,4,4,4,3,3,3,3,3,3,3,4,3,3,3,4,3,3,3,3,3,3,3,3,3,3,3,3,3,3,3,5,5,5,5,5,5,5,5,0,-1,0,0,0,0,0,0,0,0,0,0,0,0,0,0,0
"Ind67","6_0_3",6,7,6,6,8,8,8,8,9,9,9,9,2,2,2,2,1,1,1,1,2,2,3,2,4,4,4,4,4,3,3,3,3,3,3,3,4,3,3,3,4,3,3,3,3,3,3,3,3,3,3,3,3,3,3,3,5,5,5,5,5,5,5,5,0,0,-1,0,0,0,0,0,0,0,0,0,0,0,0,0,0
"Ind68","6_0_0",6,7,6,6,8,8,8,8,9,9,9,9,2,2,2,2,1,1,1,1,2,2,3,2,4,4,4,4,4,3,3,3,3,3,3,3,4,3,3,3,4,3,3,3,3,3,3,3,3,3,3,3,3,3,3,3,5,5,5,5,5,5,5,5,0,0,0,-1,0,0,0,0,0,0,0,0,0,0,0,0,0
"Ind69","3_0_1",8,9,8,8,10,10,10,10,11,11,11,11,4,4,4,4,3,3,3,3,4,4,5,4,6,6,6,6,6,5,5,5,5,5,5,5,6,5,5,5,6,5,5,5,5,5,5,5,5,5,5,5,5,5,5,5,7,7,7,7,7,7,7,7,2,2,2,2,-1,0,0,0,0,0,0,0,0,0,0,0,0
"Ind70","3_0_2",7,8,7,7,9,9,9,9,10,10,10,10,3,3,3,3,2,2,2,2,3,3,4,3,5,5,5,5,5,4,4,4,4,4,4,4,5,4,4,4,5,4,4,4,4,4,4,4,4,4,4,4,4,4,4,4,6,6,6,6,6,6,6,6,1,1,1,1,1,-1,0,0,0,0,0,0,0,0,0,0,0
"Ind71","3_0_3",7,8,7,7,9,9,9,9,10,10,10,10,3,3,3,3,2,2,2,2,3,3,4,3,5,5,5,5,5,4,4,4,4,4,4,4,5,4,4,4,5,4,4,4,4,4,4,4,4,4,4,4,4,4,4,4,6,6,6,6,6,6,6,6,1,1,1,1,1,0,-1,0,0,0,0,0,0,0,0,0,0
"Ind72","3_0_0",7,8,7,7,9,9,9,9,10,10,10,10,3,3,3,3,2,2,2,2,3,3,4,3,5,5,5,5,5,4,4,4,4,4,4,4,5,4,4,4,5,4,4,4,4,4,4,4,4,4,4,4,4,4,4,4,6,6,6,6,6,6,6,6,1,1,1,1,1,0,0,-1,0,0,0,0,0,0,0,0,0
"Ind73","10_0_1",7,8,7,7,9,9,9,9,10,10,10,10,3,3,3,3,2,2,2,2,3,3,4,3,5,5,5,5,5,4,4,4,4,4,4,4,5,4,4,4,5,4,4,4,4,4,4,4,4,4,4,4,4,4,4,4,6,6,6,6,6,6,6,6,1,1,1,1,3,2,2,2,-1,0,0,0,0,0,0,0,0
"Ind74","10_0_3",7,8,7,7,9,9,9,9,10,10,10,10,3,3,3,3,2,2,2,2,3,3,4,3,5,5,5,5,5,4,4,4,4,4,4,4,5,4,4,4,5,4,4,4,4,4,4,4,4,4,4,4,4,4,4,4,6,6,6,6,6,6,6,6,1,1,1,1,3,2,2,2,0,-1,0,0,0,0,0,0,0
"Ind75","10_0_0",7,8,7,7,9,9,9,9,10,10,10,10,3,3,3,3,2,2,2,2,3,3,4,3,5,5,5,5,5,4,4,4,4,4,4,4,5,4,4,4,5,4,4,4,4,4,4,4,4,4,4,4,4,4,4,4,6,6,6,6,6,6,6,6,1,1,1,1,3,2,2,2,0,0,-1,0,0,0,0,0,0
"Ind76","10_0_2",7,8,7,7,9,9,9,9,10,10,10,10,3,3,3,3,2,2,2,2,3,3,4,3,5,5,5,5,5,4,4,4,4,4,4,4,5,4,4,4,5,4,4,4,4,4,4,4,4,4,4,4,4,4,4,4,6,6,6,6,6,6,6,6,1,1,1,1,3,2,2,2,0,0,0,-1,0,0,0,0,0
"Ind77","1_0_0",16,17,16,16,18,18,18,18,19,19,19,19,12,12,12,12,11,11,11,11,12,12,13,12,14,14,14,14,14,13,13,13,13,13,13,13,14,13,13,13,14,13,13,13,13,13,13,13,13,13,13,13,13,13,13,13,15,15,15,15,15,15,15,15,10,10,10,10,12,11,11,11,11,11,11,11,-1,0,0,0,0
"Ind78","1_0_3",16,17,16,16,18,18,18,18,19,19,19,19,12,12,12,12,11,11,11,11,12,12,13,12,14,14,14,14,14,13,13,13,13,13,13,13,14,13,13,13,14,13,13,13,13,13,13,13,13,13,13,13,13,13,13,13,15,15,15,15,15,15,15,15,10,10,10,10,12,11,11,11,11,11,11,11,0,-1,0,0,0
"Ind79","1_0_2",16,17,16,16,18,18,18,18,19,19,19,19,12,12,12,12,11,11,11,11,12,12,13,12,14,14,14,14,14,13,13,13,13,13,13,13,14,13,13,13,14,13,13,13,13,13,13,13,13,13,13,13,13,13,13,13,15,15,15,15,15,15,15,15,10,10,10,10,12,11,11,11,11,11,11,11,0,0,-1,0,0
"Ind80","1_0_1",16,17,16,16,18,18,18,18,19,19,19,19,12,12,12,12,11,11,11,11,12,12,13,12,14,14,14,14,14,13,13,13,13,13,13,13,14,13,13,13,14,13,13,13,13,13,13,13,13,13,13,13,13,13,13,13,15,15,15,15,15,15,15,15,10,10,10,10,12,11,11,11,11,11,11,11,0,0,0,-1,0
"Ind81","0_0_0",26,27,26,26,28,28,28,28,28,28,28,28,22,22,22,22,21,21,21,21,22,22,23,22,24,24,24,24,24,23,23,23,23,23,23,23,24,23,23,23,24,23,23,23,23,23,23,23,23,23,23,23,23,23,23,23,25,25,25,25,25,25,25,25,20,20,20,20,22,21,21,21,21,21,21,21,27,27,27,27,-1
