"","Description","Ind1","Ind2","Ind3","Ind4","Ind5","Ind6","Ind7","Ind8","Ind9","Ind10","Ind11","Ind12","Ind13","Ind14","Ind15","Ind16","Ind17","Ind18","Ind19","Ind20","Ind21","Ind22","Ind23","Ind24","Ind25","Ind26","Ind27","Ind28","Ind29","Ind30","Ind31","Ind32","Ind33","Ind34","Ind35","Ind36","Ind37","Ind38","Ind39","Ind40","Ind41","Ind42","Ind43","Ind44","Ind45","Ind46","Ind47","Ind48","Ind49","Ind50","Ind51","Ind52","Ind53","Ind54","Ind55"
"Ind1","0_0_0",-1,0,0,0,0,0,0,0,0,0,0,0,0,0,0,0,0,0,0,0,0,0,0,0,0,0,0,0,0,0,0,0,0,0,0,0,0,0,0,0,0,0,0,0,0,0,0,0,0,0,0,0,0,0,0
"Ind2","2_0_4",62,-1,0,0,0,0,0,0,0,0,0,0,0,0,0,0,0,0,0,0,0,0,0,0,0,0,0,0,0,0,0,0,0,0,0,0,0,0,0,0,0,0,0,0,0,0,0,0,0,0,0,0,0,0,0
"Ind3","2_0_8",62,0,-1,0,0,0,0,0,0,0,0,0,0,0,0,0,0,0,0,0,0,0,0,0,0,0,0,0,0,0,0,0,0,0,0,0,0,0,0,0,0,0,0,0,0,0,0,0,0,0,0,0,0,0,0
"Ind4","2_0_2",62,0,0,-1,0,0,0,0,0,0,0,0,0,0,0,0,0,0,0,0,0,0,0,0,0,0,0,0,0,0,0,0,0,0,0,0,0,0,0,0,0,0,0,0,0,0,0,0,0,0,0,0,0,0,0
"Ind5","2_0_7",62,0,0,0,-1,0,0,0,0,0,0,0,0,0,0,0,0,0,0,0,0,0,0,0,0,0,0,0,0,0,0,0,0,0,0,0,0,0,0,0,0,0,0,0,0,0,0,0,0,0,0,0,0,0,0
"Ind6","2_0_0",62,0,0,0,0,-1,0,0,0,0,0,0,0,0,0,0,0,0,0,0,0,0,0,0,0,0,0,0,0,0,0,0,0,0,0,0,0,0,0,0,0,0,0,0,0,0,0,0,0,0,0,0,0,0,0
"Ind7","2_0_3",62,0,0,0,0,0,-1,0,0,0,0,0,0,0,0,0,0,0,0,0,0,0,0,0,0,0,0,0,0,0,0,0,0,0,0,0,0,0,0,0,0,0,0,0,0,0,0,0,0,0,0,0,0,0,0
"Ind8","2_0_1",62,0,0,0,0,0,0,-1,0,0,0,0,0,0,0,0,0,0,0,0,0,0,0,0,0,0,0,0,0,0,0,0,0,0,0,0,0,0,0,0,0,0,0,0,0,0,0,0,0,0,0,0,0,0,0
"Ind9","2_0_5",62,0,0,0,0,0,0,0,-1,0,0,0,0,0,0,0,0,0,0,0,0,0,0,0,0,0,0,0,0,0,0,0,0,0,0,0,0,0,0,0,0,0,0,0,0,0,0,0,0,0,0,0,0,0,0
"Ind10","2_0_6",62,0,0,0,0,0,0,0,0,-1,0,0,0,0,0,0,0,0,0,0,0,0,0,0,0,0,0,0,0,0,0,0,0,0,0,0,0,0,0,0,0,0,0,0,0,0,0,0,0,0,0,0,0,0,0
"Ind11","1_0_0",62,26,26,26,26,26,26,26,26,26,-1,0,0,0,0,0,0,0,0,0,0,0,0,0,0,0,0,0,0,0,0,0,0,0,0,0,0,0,0,0,0,0,0,0,0,0,0,0,0,0,0,0,0,0,0
"Ind12","1_0_2",62,26,26,26,26,26,26,26,26,26,0,-1,0,0,0,0,0,0,0,0,0,0,0,0,0,0,0,0,0,0,0,0,0,0,0,0,0,0,0,0,0,0,0,0,0,0,0,0,0,0,0,0,0,0,0
"Ind13","1_0_8",62,26,26,26,26,26,26,26,26,26,0,0,-1,0,0,0,0,0,0,0,0,0,0,0,0,0,0,0,0,0,0,0,0,0,0,0,0,0,0,0,0,0,0,0,0,0,0,0,0,0,0,0,0,0,0
"Ind14","1_0_5",62,26,26,26,26,26,26,26,26,26,0,0,0,-1,0,0,0,0,0,0,0,0,0,0,0,0,0,0,0,0,0,0,0,0,0,0,0,0,0,0,0,0,0,0,0,0,0,0,0,0,0,0,0,0,0
"Ind15","1_0_7",62,26,26,26,26,26,26,26,26,26,0,0,0,0,-1,0,0,0,0,0,0,0,0,0,0,0,0,0,0,0,0,0,0,0,0,0,0,0,0,0,0,0,0,0,0,0,0,0,0,0,0,0,0,0,0
"Ind16","1_0_6",62,26,26,26,26,26,26,26,26,26,0,0,0,0,0,-1,0,0,0,0,0,0,0,0,0,0,0,0,0,0,0,0,0,0,0,0,0,0,0,0,0,0,0,0,0,0,0,0,0,0,0,0,0,0,0
"Ind17","1_0_3",62,26,26,26,26,26,26,26,26,26,0,0,0,0,0,0,-1,0,0,0,0,0,0,0,0,0,0,0,0,0,0,0,0,0,0,0,0,0,0,0,0,0,0,0,0,0,0,0,0,0,0,0,0,0,0
"Ind18","1_0_1",62,26,26,26,26,26,26,26,26,26,0,0,0,0,0,0,0,-1,0,0,0,0,0,0,0,0,0,0,0,0,0,0,0,0,0,0,0,0,0,0,0,0,0,0,0,0,0,0,0,0,0,0,0,0,0
"Ind19","1_0_4",62,26,26,26,26,26,26,26,26,26,0,0,0,0,0,0,0,0,-1,0,0,0,0,0,0,0,0,0,0,0,0,0,0,0,0,0,0,0,0,0,0,0,0,0,0,0,0,0,0,0,0,0,0,0,0
"Ind20","5_0_7",58,26,26,26,26,26,26,26,26,26,22,22,22,22,22,22,22,22,22,-1,0,0,0,0,0,0,0,0,0,0,0,0,0,0,0,0,0,0,0,0,0,0,0,0,0,0,0,0,0,0,0,0,0,0,0
"Ind21","5_0_5",58,26,26,26,26,26,26,26,26,26,22,22,22,22,22,22,22,22,22,0,-1,0,0,0,0,0,0,0,0,0,0,0,0,0,0,0,0,0,0,0,0,0,0,0,0,0,0,0,0,0,0,0,0,0,0
"Ind22","5_0_6",58,26,26,26,26,26,26,26,26,26,22,22,22,22,22,22,22,22,22,0,0,-1,0,0,0,0,0,0,0,0,0,0,0,0,0,0,0,0,0,0,0,0,0,0,0,0,0,0,0,0,0,0,0,0,0
"Ind23","5_0_1",58,26,26,26,26,26,26,26,26,26,22,22,22,22,22,22,22,22,22,0,0,0,-1,0,0,0,0,0,0,0,0,0,0,0,0,0,0,0,0,0,0,0,0,0,0,0,0,0,0,0,0,0,0,0,0
"Ind24","5_0_3",58,26,26,26,26,26,26,26,26,26,22,22,22,22,22,22,22,22,22,0,0,0,0,-1,0,0,0,0,0,0,0,0,0,0,0,0,0,0,0,0,0,0,0,0,0,0,0,0,0,0,0,0,0,0,0
"Ind25","5_0_8",58,26,26,26,26,26,26,26,26,26,22,22,22,22,22,22,22,22,22,0,0,0,0,0,-1,0,0,0,0,0,0,0,0,0,0,0,0,0,0,0,0,0,0,0,0,0,0,0,0,0,0,0,0,0,0
"Ind26","5_0_0",58,26,26,26,26,26,26,26,26,26,22,22,22,22,22,22,22,22,22,0,0,0,0,0,0,-1,0,0,0,0,0,0,0,0,0,0,0,0,0,0,0,0,0,0,0,0,0,0,0,0,0,0,0,0,0
"Ind27","5_0_4",58,26,26,26,26,26,26,26,26,26,22,22,22,22,22,22,22,22,22,0,0,0,0,0,0,0,-1,0,0,0,0,0,0,0,0,0,0,0,0,0,0,0,0,0,0,0,0,0,0,0,0,0,0,0,0
"Ind28","5_0_2",58,26,26,26,26,26,26,26,26,26,22,22,22,22,22,22,22,22,22,0,0,0,0,0,0,0,0,-1,0,0,0,0,0,0,0,0,0,0,0,0,0,0,0,0,0,0,0,0,0,0,0,0,0,0,0
"Ind29","3_0_5",55,21,21,21,21,21,21,21,21,21,17,17,17,17,17,17,17,17,17,7,7,7,7,7,7,7,7,7,-1,0,0,0,0,0,0,0,0,0,0,0,0,0,0,0,0,0,0,0,0,0,0,0,0,0,0
"Ind30","3_0_0",55,21,21,21,21,21,21,21,21,21,17,17,17,17,17,17,17,17,17,7,7,7,7,7,7,7,7,7,0,-1,0,0,0,0,0,0,0,0,0,0,0,0,0,0,0,0,0,0,0,0,0,0,0,0,0
"Ind31","3_0_8",55,21,21,21,21,21,21,21,21,21,17,17,17,17,17,17,17,17,17,7,7,7,7,7,7,7,7,7,0,0,-1,0,0,0,0,0,0,0,0,0,0,0,0,0,0,0,0,0,0,0,0,0,0,0,0
"Ind32","3_0_4",55,21,21,21,21,21,21,21,21,21,17,17,17,17,17,17,17,17,17,7,7,7,7,7,7,7,7,7,0,0,0,-1,0,0,0,0,0,0,0,0,0,0,0,0,0,0,0,0,0,0,0,0,0,0,0
"Ind33","3_0_1",55,21,21,21,21,21,21,21,21,21,17,17,17,17,17,17,17,17,17,7,7,7,7,7,7,7,7,7,0,0,0,0,-1,0,0,0,0,0,0,0,0,0,0,0,0,0,0,0,0,0,0,0,0,0,0
"Ind34","3_0_3",55,21,21,21,21,21,21,21,21,21,17,17,17,17,17,17,17,17,17,7,7,7,7,7,7,7,7,7,0,0,0,0,0,-1,0,0,0,0,0,0,0,0,0,0,0,0,0,0,0,0,0,0,0,0,0
"Ind35","3_0_2",55,21,21,21,21,21,21,21,21,21,17,17,17,17,17,17,17,17,17,7,7,7,7,7,7,7,7,7,0,0,0,0,0,0,-1,0,0,0,0,0,0,0,0,0,0,0,0,0,0,0,0,0,0,0,0
"Ind36","3_0_7",55,21,21,21,21,21,21,21,21,21,17,17,17,17,17,17,17,17,17,7,7,7,7,7,7,7,7,7,0,0,0,0,0,0,0,-1,0,0,0,0,0,0,0,0,0,0,0,0,0,0,0,0,0,0,0
"Ind37","3_0_6",55,21,21,21,21,21,21,21,21,21,17,17,17,17,17,17,17,17,17,7,7,7,7,7,7,7,7,7,0,0,0,0,0,0,0,0,-1,0,0,0,0,0,0,0,0,0,0,0,0,0,0,0,0,0,0
"Ind38","4_0_1",56,26,26,26,26,26,26,26,26,26,22,22,22,22,22,22,22,22,22,10,10,10,10,10,10,10,10,10,7,7,7,7,7,7,7,7,7,-1,0,0,0,0,0,0,0,0,0,0,0,0,0,0,0,0,0
"Ind39","4_0_3",56,26,26,26,26,26,26,26,26,26,22,22,22,22,22,22,22,22,22,10,10,10,10,10,10,10,10,10,7,7,7,7,7,7,7,7,7,0,-1,0,0,0,0,0,0,0,0,0,0,0,0,0,0,0,0
"Ind40","4_0_8",56,26,26,26,26,26,26,26,26,26,22,22,22,22,22,22,22,22,22,10,10,10,10,10,10,10,10,10,7,7,7,7,7,7,7,7,7,0,0,-1,0,0,0,0,0,0,0,0,0,0,0,0,0,0,0
"Ind41","4_0_5",56,26,26,26,26,26,26,26,26,26,22,22,22,22,22,22,22,22,22,10,10,10,10,10,10,10,10,10,7,7,7,7,7,7,7,7,7,0,0,0,-1,0,0,0,0,0,0,0,0,0,0,0,0,0,0
"Ind42","4_0_6",56,26,26,26,26,26,26,26,26,26,22,22,22,22,22,22,22,22,22,10,10,10,10,10,10,10,10,10,7,7,7,7,7,7,7,7,7,0,0,0,0,-1,0,0,0,0,0,0,0,0,0,0,0,0,0
"Ind43","4_0_2",56,26,26,26,26,26,26,26,26,26,22,22,22,22,22,22,22,22,22,10,10,10,10,10,10,10,10,10,7,7,7,7,7,7,7,7,7,0,0,0,0,0,-1,0,0,0,0,0,0,0,0,0,0,0,0
"Ind44","4_0_7",56,26,26,26,26,26,26,26,26,26,22,22,22,22,22,22,22,22,22,10,10,10,10,10,10,10,10,10,7,7,7,7,7,7,7,7,7,0,0,0,0,0,0,-1,0,0,0,0,0,0,0,0,0,0,0
"Ind45","4_0_0",56,26,26,26,26,26,26,26,26,26,22,22,22,22,22,22,22,22,22,10,10,10,10,10,10,10,10,10,7,7,7,7,7,7,7,7,7,0,0,0,0,0,0,0,-1,0,0,0,0,0,0,0,0,0,0
"Ind46","4_0_4",56,26,26,26,26,26,26,26,26,26,22,22,22,22,22,22,22,22,22,10,10,10,10,10,10,10,10,10,7,7,7,7,7,7,7,7,7,0,0,0,0,0,0,0,0,-1,0,0,0,0,0,0,0,0,0
"Ind47","6_0_2",55,25,25,25,25,25,25,25,25,25,21,21,21,21,21,21,21,21,21,9,9,9,9,9,9,9,9,9,6,6,6,6,6,6,6,6,6,1,1,1,1,1,1,1,1,1,-1,0,0,0,0,0,0,0,0
"Ind48","6_0_8",55,25,25,25,25,25,25,25,25,25,21,21,21,21,21,21,21,21,21,9,9,9,9,9,9,9,9,9,6,6,6,6,6,6,6,6,6,1,1,1,1,1,1,1,1,1,0,-1,0,0,0,0,0,0,0
"Ind49","6_0_7",55,25,25,25,25,25,25,25,25,25,21,21,21,21,21,21,21,21,21,9,9,9,9,9,9,9,9,9,6,6,6,6,6,6,6,6,6,1,1,1,1,1,1,1,1,1,0,0,-1,0,0,0,0,0,0
"Ind50","6_0_0",55,25,25,25,25,25,25,25,25,25,21,21,21,21,21,21,21,21,21,9,9,9,9,9,9,9,9,9,6,6,6,6,6,6,6,6,6,1,1,1,1,1,1,1,1,1,0,0,0,-1,0,0,0,0,0
"Ind51","6_0_4",55,25,25,25,25,25,25,25,25,25,21,21,21,21,21,21,21,21,21,9,9,9,9,9,9,9,9,9,6,6,6,6,6,6,6,6,6,1,1,1,1,1,1,1,1,1,0,0,0,0,-1,0,0,0,0
"Ind52","6_0_1",55,25,25,25,25,25,25,25,25,25,21,21,21,21,21,21,21,21,21,9,9,9,9,9,9,9,9,9,6,6,6,6,6,6,6,6,6,1,1,1,1,1,1,1,1,1,0,0,0,0,0,-1,0,0,0
"Ind53","6_0_6",55,25,25,25,25,25,25,25,25,25,21,21,21,21,21,21,21,21,21,9,9,9,9,9,9,9,9,9,6,6,6,6,6,6,6,6,6,1,1,1,1,1,1,1,1,1,0,0,0,0,0,0,-1,0,0
"Ind54","6_0_5",55,25,25,25,25,25,25,25,25,25,21,21,21,21,21,21,21,21,21,9,9,9,9,9,9,9,9,9,6,6,6,6,6,6,6,6,6,1,1,1,1,1,1,1,1,1,0,0,0,0,0,0,0,-1,0
"Ind55","6_0_3",55,25,25,25,25,25,25,25,25,25,21,21,21,21,21,21,21,21,21,9,9,9,9,9,9,9,9,9,6,6,6,6,6,6,6,6,6,1,1,1,1,1,1,1,1,1,0,0,0,0,0,0,0,0,-1
