"","Description","Ind1","Ind2","Ind3","Ind4","Ind5","Ind6","Ind7","Ind8","Ind9","Ind10","Ind11","Ind12","Ind13","Ind14","Ind15","Ind16","Ind17","Ind18","Ind19","Ind20","Ind21","Ind22","Ind23","Ind24","Ind25","Ind26","Ind27","Ind28","Ind29","Ind30","Ind31","Ind32","Ind33","Ind34","Ind35","Ind36","Ind37","Ind38","Ind39","Ind40","Ind41","Ind42","Ind43","Ind44","Ind45","Ind46","Ind47","Ind48","Ind49","Ind50","Ind51","Ind52","Ind53","Ind54","Ind55","Ind56","Ind57","Ind58","Ind59","Ind60","Ind61","Ind62","Ind63","Ind64","Ind65","Ind66","Ind67","Ind68","Ind69","Ind70","Ind71","Ind72","Ind73"
"Ind1","0_0_0",-1,0,0,0,0,0,0,0,0,0,0,0,0,0,0,0,0,0,0,0,0,0,0,0,0,0,0,0,0,0,0,0,0,0,0,0,0,0,0,0,0,0,0,0,0,0,0,0,0,0,0,0,0,0,0,0,0,0,0,0,0,0,0,0,0,0,0,0,0,0,0,0,0
"Ind2","14_0_0",116,-1,0,0,0,0,0,0,0,0,0,0,0,0,0,0,0,0,0,0,0,0,0,0,0,0,0,0,0,0,0,0,0,0,0,0,0,0,0,0,0,0,0,0,0,0,0,0,0,0,0,0,0,0,0,0,0,0,0,0,0,0,0,0,0,0,0,0,0,0,0,0,0
"Ind3","14_0_1",116,0,-1,0,0,0,0,0,0,0,0,0,0,0,0,0,0,0,0,0,0,0,0,0,0,0,0,0,0,0,0,0,0,0,0,0,0,0,0,0,0,0,0,0,0,0,0,0,0,0,0,0,0,0,0,0,0,0,0,0,0,0,0,0,0,0,0,0,0,0,0,0,0
"Ind4","14_0_2",116,0,0,-1,0,0,0,0,0,0,0,0,0,0,0,0,0,0,0,0,0,0,0,0,0,0,0,0,0,0,0,0,0,0,0,0,0,0,0,0,0,0,0,0,0,0,0,0,0,0,0,0,0,0,0,0,0,0,0,0,0,0,0,0,0,0,0,0,0,0,0,0,0
"Ind5","14_0_3",116,0,0,0,-1,0,0,0,0,0,0,0,0,0,0,0,0,0,0,0,0,0,0,0,0,0,0,0,0,0,0,0,0,0,0,0,0,0,0,0,0,0,0,0,0,0,0,0,0,0,0,0,0,0,0,0,0,0,0,0,0,0,0,0,0,0,0,0,0,0,0,0,0
"Ind6","10_0_0",123,16,16,16,16,-1,0,0,0,0,0,0,0,0,0,0,0,0,0,0,0,0,0,0,0,0,0,0,0,0,0,0,0,0,0,0,0,0,0,0,0,0,0,0,0,0,0,0,0,0,0,0,0,0,0,0,0,0,0,0,0,0,0,0,0,0,0,0,0,0,0,0,0
"Ind7","10_0_1",123,16,16,16,16,0,-1,0,0,0,0,0,0,0,0,0,0,0,0,0,0,0,0,0,0,0,0,0,0,0,0,0,0,0,0,0,0,0,0,0,0,0,0,0,0,0,0,0,0,0,0,0,0,0,0,0,0,0,0,0,0,0,0,0,0,0,0,0,0,0,0,0,0
"Ind8","10_0_3",123,16,16,16,16,0,0,-1,0,0,0,0,0,0,0,0,0,0,0,0,0,0,0,0,0,0,0,0,0,0,0,0,0,0,0,0,0,0,0,0,0,0,0,0,0,0,0,0,0,0,0,0,0,0,0,0,0,0,0,0,0,0,0,0,0,0,0,0,0,0,0,0,0
"Ind9","10_0_2",123,16,16,16,16,0,0,0,-1,0,0,0,0,0,0,0,0,0,0,0,0,0,0,0,0,0,0,0,0,0,0,0,0,0,0,0,0,0,0,0,0,0,0,0,0,0,0,0,0,0,0,0,0,0,0,0,0,0,0,0,0,0,0,0,0,0,0,0,0,0,0,0,0
"Ind10","15_0_3",123,15,15,15,15,1,1,1,1,-1,0,0,0,0,0,0,0,0,0,0,0,0,0,0,0,0,0,0,0,0,0,0,0,0,0,0,0,0,0,0,0,0,0,0,0,0,0,0,0,0,0,0,0,0,0,0,0,0,0,0,0,0,0,0,0,0,0,0,0,0,0,0,0
"Ind11","15_0_1",123,15,15,15,15,1,1,1,1,0,-1,0,0,0,0,0,0,0,0,0,0,0,0,0,0,0,0,0,0,0,0,0,0,0,0,0,0,0,0,0,0,0,0,0,0,0,0,0,0,0,0,0,0,0,0,0,0,0,0,0,0,0,0,0,0,0,0,0,0,0,0,0,0
"Ind12","15_0_0",123,15,15,15,15,1,1,1,1,0,0,-1,0,0,0,0,0,0,0,0,0,0,0,0,0,0,0,0,0,0,0,0,0,0,0,0,0,0,0,0,0,0,0,0,0,0,0,0,0,0,0,0,0,0,0,0,0,0,0,0,0,0,0,0,0,0,0,0,0,0,0,0,0
"Ind13","15_0_2",123,15,15,15,15,1,1,1,1,0,0,0,-1,0,0,0,0,0,0,0,0,0,0,0,0,0,0,0,0,0,0,0,0,0,0,0,0,0,0,0,0,0,0,0,0,0,0,0,0,0,0,0,0,0,0,0,0,0,0,0,0,0,0,0,0,0,0,0,0,0,0,0,0
"Ind14","6_0_0",117,9,9,9,9,11,11,11,11,10,10,10,10,-1,0,0,0,0,0,0,0,0,0,0,0,0,0,0,0,0,0,0,0,0,0,0,0,0,0,0,0,0,0,0,0,0,0,0,0,0,0,0,0,0,0,0,0,0,0,0,0,0,0,0,0,0,0,0,0,0,0,0,0
"Ind15","6_0_1",117,9,9,9,9,11,11,11,11,10,10,10,10,0,-1,0,0,0,0,0,0,0,0,0,0,0,0,0,0,0,0,0,0,0,0,0,0,0,0,0,0,0,0,0,0,0,0,0,0,0,0,0,0,0,0,0,0,0,0,0,0,0,0,0,0,0,0,0,0,0,0,0,0
"Ind16","6_0_2",117,9,9,9,9,11,11,11,11,10,10,10,10,0,0,-1,0,0,0,0,0,0,0,0,0,0,0,0,0,0,0,0,0,0,0,0,0,0,0,0,0,0,0,0,0,0,0,0,0,0,0,0,0,0,0,0,0,0,0,0,0,0,0,0,0,0,0,0,0,0,0,0,0
"Ind17","6_0_3",117,9,9,9,9,11,11,11,11,10,10,10,10,0,0,0,-1,0,0,0,0,0,0,0,0,0,0,0,0,0,0,0,0,0,0,0,0,0,0,0,0,0,0,0,0,0,0,0,0,0,0,0,0,0,0,0,0,0,0,0,0,0,0,0,0,0,0,0,0,0,0,0,0
"Ind18","17_0_1",118,18,18,18,18,20,20,20,20,19,19,19,19,15,15,15,15,-1,0,0,0,0,0,0,0,0,0,0,0,0,0,0,0,0,0,0,0,0,0,0,0,0,0,0,0,0,0,0,0,0,0,0,0,0,0,0,0,0,0,0,0,0,0,0,0,0,0,0,0,0,0,0,0
"Ind19","17_0_0",118,18,18,18,18,20,20,20,20,19,19,19,19,15,15,15,15,0,-1,0,0,0,0,0,0,0,0,0,0,0,0,0,0,0,0,0,0,0,0,0,0,0,0,0,0,0,0,0,0,0,0,0,0,0,0,0,0,0,0,0,0,0,0,0,0,0,0,0,0,0,0,0,0
"Ind20","17_0_3",118,18,18,18,18,20,20,20,20,19,19,19,19,15,15,15,15,0,0,-1,0,0,0,0,0,0,0,0,0,0,0,0,0,0,0,0,0,0,0,0,0,0,0,0,0,0,0,0,0,0,0,0,0,0,0,0,0,0,0,0,0,0,0,0,0,0,0,0,0,0,0,0,0
"Ind21","17_0_2",118,18,18,18,18,20,20,20,20,19,19,19,19,15,15,15,15,0,0,0,-1,0,0,0,0,0,0,0,0,0,0,0,0,0,0,0,0,0,0,0,0,0,0,0,0,0,0,0,0,0,0,0,0,0,0,0,0,0,0,0,0,0,0,0,0,0,0,0,0,0,0,0,0
"Ind22","3_0_0",118,23,23,23,23,27,27,27,27,26,26,26,26,20,20,20,20,14,14,14,14,-1,0,0,0,0,0,0,0,0,0,0,0,0,0,0,0,0,0,0,0,0,0,0,0,0,0,0,0,0,0,0,0,0,0,0,0,0,0,0,0,0,0,0,0,0,0,0,0,0,0,0,0
"Ind23","3_0_1",118,23,23,23,23,27,27,27,27,26,26,26,26,20,20,20,20,14,14,14,14,0,-1,0,0,0,0,0,0,0,0,0,0,0,0,0,0,0,0,0,0,0,0,0,0,0,0,0,0,0,0,0,0,0,0,0,0,0,0,0,0,0,0,0,0,0,0,0,0,0,0,0,0
"Ind24","3_0_3",118,23,23,23,23,27,27,27,27,26,26,26,26,20,20,20,20,14,14,14,14,0,0,-1,0,0,0,0,0,0,0,0,0,0,0,0,0,0,0,0,0,0,0,0,0,0,0,0,0,0,0,0,0,0,0,0,0,0,0,0,0,0,0,0,0,0,0,0,0,0,0,0,0
"Ind25","3_0_2",118,23,23,23,23,27,27,27,27,26,26,26,26,20,20,20,20,14,14,14,14,0,0,0,-1,0,0,0,0,0,0,0,0,0,0,0,0,0,0,0,0,0,0,0,0,0,0,0,0,0,0,0,0,0,0,0,0,0,0,0,0,0,0,0,0,0,0,0,0,0,0,0,0
"Ind26","16_0_0",119,20,20,20,20,24,24,24,24,23,23,23,23,17,17,17,17,11,11,11,11,5,5,5,5,-1,0,0,0,0,0,0,0,0,0,0,0,0,0,0,0,0,0,0,0,0,0,0,0,0,0,0,0,0,0,0,0,0,0,0,0,0,0,0,0,0,0,0,0,0,0,0,0
"Ind27","16_0_3",119,20,20,20,20,24,24,24,24,23,23,23,23,17,17,17,17,11,11,11,11,5,5,5,5,0,-1,0,0,0,0,0,0,0,0,0,0,0,0,0,0,0,0,0,0,0,0,0,0,0,0,0,0,0,0,0,0,0,0,0,0,0,0,0,0,0,0,0,0,0,0,0,0
"Ind28","16_0_1",119,20,20,20,20,24,24,24,24,23,23,23,23,17,17,17,17,11,11,11,11,5,5,5,5,0,0,-1,0,0,0,0,0,0,0,0,0,0,0,0,0,0,0,0,0,0,0,0,0,0,0,0,0,0,0,0,0,0,0,0,0,0,0,0,0,0,0,0,0,0,0,0,0
"Ind29","16_0_2",119,20,20,20,20,24,24,24,24,23,23,23,23,17,17,17,17,11,11,11,11,5,5,5,5,0,0,0,-1,0,0,0,0,0,0,0,0,0,0,0,0,0,0,0,0,0,0,0,0,0,0,0,0,0,0,0,0,0,0,0,0,0,0,0,0,0,0,0,0,0,0,0,0
"Ind30","8_0_3",125,45,45,45,45,47,47,47,47,46,46,46,46,42,42,42,42,38,38,38,38,40,40,40,40,39,39,39,39,-1,0,0,0,0,0,0,0,0,0,0,0,0,0,0,0,0,0,0,0,0,0,0,0,0,0,0,0,0,0,0,0,0,0,0,0,0,0,0,0,0,0,0,0
"Ind31","8_0_2",125,45,45,45,45,47,47,47,47,46,46,46,46,42,42,42,42,38,38,38,38,40,40,40,40,39,39,39,39,0,-1,0,0,0,0,0,0,0,0,0,0,0,0,0,0,0,0,0,0,0,0,0,0,0,0,0,0,0,0,0,0,0,0,0,0,0,0,0,0,0,0,0,0
"Ind32","8_0_0",125,45,45,45,45,47,47,47,47,46,46,46,46,42,42,42,42,38,38,38,38,40,40,40,40,39,39,39,39,0,0,-1,0,0,0,0,0,0,0,0,0,0,0,0,0,0,0,0,0,0,0,0,0,0,0,0,0,0,0,0,0,0,0,0,0,0,0,0,0,0,0,0,0
"Ind33","8_0_1",125,45,45,45,45,47,47,47,47,46,46,46,46,42,42,42,42,38,38,38,38,40,40,40,40,39,39,39,39,0,0,0,-1,0,0,0,0,0,0,0,0,0,0,0,0,0,0,0,0,0,0,0,0,0,0,0,0,0,0,0,0,0,0,0,0,0,0,0,0,0,0,0,0
"Ind34","4_0_3",126,44,44,44,44,46,46,46,46,45,45,45,45,41,41,41,41,37,37,37,37,39,39,39,39,38,38,38,38,1,1,1,1,-1,0,0,0,0,0,0,0,0,0,0,0,0,0,0,0,0,0,0,0,0,0,0,0,0,0,0,0,0,0,0,0,0,0,0,0,0,0,0,0
"Ind35","4_0_2",126,44,44,44,44,46,46,46,46,45,45,45,45,41,41,41,41,37,37,37,37,39,39,39,39,38,38,38,38,1,1,1,1,0,-1,0,0,0,0,0,0,0,0,0,0,0,0,0,0,0,0,0,0,0,0,0,0,0,0,0,0,0,0,0,0,0,0,0,0,0,0,0,0
"Ind36","4_0_0",126,44,44,44,44,46,46,46,46,45,45,45,45,41,41,41,41,37,37,37,37,39,39,39,39,38,38,38,38,1,1,1,1,0,0,-1,0,0,0,0,0,0,0,0,0,0,0,0,0,0,0,0,0,0,0,0,0,0,0,0,0,0,0,0,0,0,0,0,0,0,0,0,0
"Ind37","4_0_1",126,44,44,44,44,46,46,46,46,45,45,45,45,41,41,41,41,37,37,37,37,39,39,39,39,38,38,38,38,1,1,1,1,0,0,0,-1,0,0,0,0,0,0,0,0,0,0,0,0,0,0,0,0,0,0,0,0,0,0,0,0,0,0,0,0,0,0,0,0,0,0,0,0
"Ind38","13_0_1",119,45,45,45,45,50,50,50,50,49,49,49,49,44,44,44,44,42,42,42,42,46,46,46,46,43,43,43,43,58,58,58,58,57,57,57,57,-1,0,0,0,0,0,0,0,0,0,0,0,0,0,0,0,0,0,0,0,0,0,0,0,0,0,0,0,0,0,0,0,0,0,0,0
"Ind39","13_0_3",119,45,45,45,45,50,50,50,50,49,49,49,49,44,44,44,44,42,42,42,42,46,46,46,46,43,43,43,43,58,58,58,58,57,57,57,57,0,-1,0,0,0,0,0,0,0,0,0,0,0,0,0,0,0,0,0,0,0,0,0,0,0,0,0,0,0,0,0,0,0,0,0,0
"Ind40","13_0_0",119,45,45,45,45,50,50,50,50,49,49,49,49,44,44,44,44,42,42,42,42,46,46,46,46,43,43,43,43,58,58,58,58,57,57,57,57,0,0,-1,0,0,0,0,0,0,0,0,0,0,0,0,0,0,0,0,0,0,0,0,0,0,0,0,0,0,0,0,0,0,0,0,0
"Ind41","13_0_2",119,45,45,45,45,50,50,50,50,49,49,49,49,44,44,44,44,42,42,42,42,46,46,46,46,43,43,43,43,58,58,58,58,57,57,57,57,0,0,0,-1,0,0,0,0,0,0,0,0,0,0,0,0,0,0,0,0,0,0,0,0,0,0,0,0,0,0,0,0,0,0,0,0
"Ind42","11_0_3",117,36,36,36,36,40,40,40,40,39,39,39,39,33,33,33,33,34,34,34,34,37,37,37,37,36,36,36,36,53,53,53,53,52,52,52,52,38,38,38,38,-1,0,0,0,0,0,0,0,0,0,0,0,0,0,0,0,0,0,0,0,0,0,0,0,0,0,0,0,0,0,0,0
"Ind43","5_0_0",117,36,36,36,36,40,40,40,40,39,39,39,39,33,33,33,33,34,34,34,34,37,37,37,37,36,36,36,36,53,53,53,53,52,52,52,52,38,38,38,38,0,-1,0,0,0,0,0,0,0,0,0,0,0,0,0,0,0,0,0,0,0,0,0,0,0,0,0,0,0,0,0,0
"Ind44","5_0_2",117,36,36,36,36,40,40,40,40,39,39,39,39,33,33,33,33,34,34,34,34,37,37,37,37,36,36,36,36,53,53,53,53,52,52,52,52,38,38,38,38,0,0,-1,0,0,0,0,0,0,0,0,0,0,0,0,0,0,0,0,0,0,0,0,0,0,0,0,0,0,0,0,0
"Ind45","5_0_3",117,36,36,36,36,40,40,40,40,39,39,39,39,33,33,33,33,34,34,34,34,37,37,37,37,36,36,36,36,53,53,53,53,52,52,52,52,38,38,38,38,0,0,0,-1,0,0,0,0,0,0,0,0,0,0,0,0,0,0,0,0,0,0,0,0,0,0,0,0,0,0,0,0
"Ind46","11_0_1",117,36,36,36,36,40,40,40,40,39,39,39,39,33,33,33,33,34,34,34,34,37,37,37,37,36,36,36,36,53,53,53,53,52,52,52,52,38,38,38,38,0,0,0,0,-1,0,0,0,0,0,0,0,0,0,0,0,0,0,0,0,0,0,0,0,0,0,0,0,0,0,0,0
"Ind47","11_0_0",117,36,36,36,36,40,40,40,40,39,39,39,39,33,33,33,33,34,34,34,34,37,37,37,37,36,36,36,36,53,53,53,53,52,52,52,52,38,38,38,38,0,0,0,0,0,-1,0,0,0,0,0,0,0,0,0,0,0,0,0,0,0,0,0,0,0,0,0,0,0,0,0,0
"Ind48","11_0_2",117,36,36,36,36,40,40,40,40,39,39,39,39,33,33,33,33,34,34,34,34,37,37,37,37,36,36,36,36,53,53,53,53,52,52,52,52,38,38,38,38,0,0,0,0,0,0,-1,0,0,0,0,0,0,0,0,0,0,0,0,0,0,0,0,0,0,0,0,0,0,0,0,0
"Ind49","5_0_1",117,36,36,36,36,40,40,40,40,39,39,39,39,33,33,33,33,34,34,34,34,37,37,37,37,36,36,36,36,53,53,53,53,52,52,52,52,38,38,38,38,0,0,0,0,0,0,0,-1,0,0,0,0,0,0,0,0,0,0,0,0,0,0,0,0,0,0,0,0,0,0,0,0
"Ind50","12_0_2",115,31,31,31,31,35,35,35,35,34,34,34,34,28,28,28,28,26,26,26,26,30,30,30,30,27,27,27,27,42,42,42,42,41,41,41,41,32,32,32,32,18,18,18,18,18,18,18,18,-1,0,0,0,0,0,0,0,0,0,0,0,0,0,0,0,0,0,0,0,0,0,0,0
"Ind51","12_0_0",114,30,30,30,30,34,34,34,34,33,33,33,33,27,27,27,27,25,25,25,25,29,29,29,29,26,26,26,26,41,41,41,41,40,40,40,40,31,31,31,31,17,17,17,17,17,17,17,17,1,-1,0,0,0,0,0,0,0,0,0,0,0,0,0,0,0,0,0,0,0,0,0,0
"Ind52","12_0_1",114,30,30,30,30,34,34,34,34,33,33,33,33,27,27,27,27,25,25,25,25,29,29,29,29,26,26,26,26,41,41,41,41,40,40,40,40,31,31,31,31,17,17,17,17,17,17,17,17,1,0,-1,0,0,0,0,0,0,0,0,0,0,0,0,0,0,0,0,0,0,0,0,0
"Ind53","12_0_3",114,30,30,30,30,34,34,34,34,33,33,33,33,27,27,27,27,25,25,25,25,29,29,29,29,26,26,26,26,41,41,41,41,40,40,40,40,31,31,31,31,17,17,17,17,17,17,17,17,1,0,0,-1,0,0,0,0,0,0,0,0,0,0,0,0,0,0,0,0,0,0,0,0
"Ind54","7_0_0",113,29,29,29,29,33,33,33,33,32,32,32,32,26,26,26,26,24,24,24,24,28,28,28,28,25,25,25,25,40,40,40,40,39,39,39,39,30,30,30,30,19,19,19,19,19,19,19,19,4,3,3,3,-1,0,0,0,0,0,0,0,0,0,0,0,0,0,0,0,0,0,0,0
"Ind55","7_0_2",113,29,29,29,29,33,33,33,33,32,32,32,32,26,26,26,26,24,24,24,24,28,28,28,28,25,25,25,25,40,40,40,40,39,39,39,39,30,30,30,30,19,19,19,19,19,19,19,19,4,3,3,3,0,-1,0,0,0,0,0,0,0,0,0,0,0,0,0,0,0,0,0,0
"Ind56","7_0_3",113,29,29,29,29,33,33,33,33,32,32,32,32,26,26,26,26,24,24,24,24,28,28,28,28,25,25,25,25,40,40,40,40,39,39,39,39,30,30,30,30,19,19,19,19,19,19,19,19,4,3,3,3,0,0,-1,0,0,0,0,0,0,0,0,0,0,0,0,0,0,0,0,0
"Ind57","7_0_1",113,29,29,29,29,33,33,33,33,32,32,32,32,26,26,26,26,24,24,24,24,28,28,28,28,25,25,25,25,40,40,40,40,39,39,39,39,30,30,30,30,19,19,19,19,19,19,19,19,4,3,3,3,0,0,0,-1,0,0,0,0,0,0,0,0,0,0,0,0,0,0,0,0
"Ind58","18_0_1",114,28,28,28,28,32,32,32,32,31,31,31,31,25,25,25,25,23,23,23,23,27,27,27,27,24,24,24,24,39,39,39,39,38,38,38,38,29,29,29,29,18,18,18,18,18,18,18,18,3,2,2,2,1,1,1,1,-1,0,0,0,0,0,0,0,0,0,0,0,0,0,0,0
"Ind59","18_0_3",114,28,28,28,28,32,32,32,32,31,31,31,31,25,25,25,25,23,23,23,23,27,27,27,27,24,24,24,24,39,39,39,39,38,38,38,38,29,29,29,29,18,18,18,18,18,18,18,18,3,2,2,2,1,1,1,1,0,-1,0,0,0,0,0,0,0,0,0,0,0,0,0,0
"Ind60","18_0_2",114,28,28,28,28,32,32,32,32,31,31,31,31,25,25,25,25,23,23,23,23,27,27,27,27,24,24,24,24,39,39,39,39,38,38,38,38,29,29,29,29,18,18,18,18,18,18,18,18,3,2,2,2,1,1,1,1,0,0,-1,0,0,0,0,0,0,0,0,0,0,0,0,0
"Ind61","18_0_0",114,28,28,28,28,32,32,32,32,31,31,31,31,25,25,25,25,23,23,23,23,27,27,27,27,24,24,24,24,39,39,39,39,38,38,38,38,29,29,29,29,18,18,18,18,18,18,18,18,3,2,2,2,1,1,1,1,0,0,0,-1,0,0,0,0,0,0,0,0,0,0,0,0
"Ind62","2_0_2",116,30,30,30,30,34,34,34,34,33,33,33,33,27,27,27,27,24,24,24,24,29,29,29,29,26,26,26,26,41,41,41,41,40,40,40,40,31,31,31,31,20,20,20,20,20,20,20,20,5,4,4,4,3,3,3,3,2,2,2,2,-1,0,0,0,0,0,0,0,0,0,0,0
"Ind63","2_0_1",116,30,30,30,30,34,34,34,34,33,33,33,33,27,27,27,27,24,24,24,24,29,29,29,29,26,26,26,26,41,41,41,41,40,40,40,40,31,31,31,31,20,20,20,20,20,20,20,20,5,4,4,4,3,3,3,3,2,2,2,2,0,-1,0,0,0,0,0,0,0,0,0,0
"Ind64","2_0_3",116,30,30,30,30,34,34,34,34,33,33,33,33,27,27,27,27,24,24,24,24,29,29,29,29,26,26,26,26,41,41,41,41,40,40,40,40,31,31,31,31,20,20,20,20,20,20,20,20,5,4,4,4,3,3,3,3,2,2,2,2,0,0,-1,0,0,0,0,0,0,0,0,0
"Ind65","2_0_0",116,30,30,30,30,34,34,34,34,33,33,33,33,27,27,27,27,24,24,24,24,29,29,29,29,26,26,26,26,41,41,41,41,40,40,40,40,31,31,31,31,20,20,20,20,20,20,20,20,5,4,4,4,3,3,3,3,2,2,2,2,0,0,0,-1,0,0,0,0,0,0,0,0
"Ind66","9_0_3",117,35,35,35,35,39,39,39,39,38,38,38,38,32,32,32,32,30,30,30,30,34,34,34,34,29,29,29,29,42,42,42,42,41,41,41,41,37,37,37,37,26,26,26,26,26,26,26,26,11,10,10,10,9,9,9,9,8,8,8,8,8,8,8,8,-1,0,0,0,0,0,0,0
"Ind67","9_0_0",117,35,35,35,35,39,39,39,39,38,38,38,38,32,32,32,32,30,30,30,30,34,34,34,34,29,29,29,29,42,42,42,42,41,41,41,41,37,37,37,37,26,26,26,26,26,26,26,26,11,10,10,10,9,9,9,9,8,8,8,8,8,8,8,8,0,-1,0,0,0,0,0,0
"Ind68","9_0_2",117,35,35,35,35,39,39,39,39,38,38,38,38,32,32,32,32,30,30,30,30,34,34,34,34,29,29,29,29,42,42,42,42,41,41,41,41,37,37,37,37,26,26,26,26,26,26,26,26,11,10,10,10,9,9,9,9,8,8,8,8,8,8,8,8,0,0,-1,0,0,0,0,0
"Ind69","9_0_1",117,35,35,35,35,39,39,39,39,38,38,38,38,32,32,32,32,30,30,30,30,34,34,34,34,29,29,29,29,42,42,42,42,41,41,41,41,37,37,37,37,26,26,26,26,26,26,26,26,11,10,10,10,9,9,9,9,8,8,8,8,8,8,8,8,0,0,0,-1,0,0,0,0
"Ind70","1_0_1",119,93,93,93,93,94,94,94,94,94,94,94,94,86,86,86,86,89,89,89,89,91,91,91,91,88,88,88,88,101,101,101,101,100,100,100,100,85,85,85,85,84,84,84,84,84,84,84,84,82,81,81,81,80,80,80,80,79,79,79,79,81,81,81,81,81,81,81,81,-1,0,0,0
"Ind71","1_0_3",119,93,93,93,93,94,94,94,94,94,94,94,94,86,86,86,86,89,89,89,89,91,91,91,91,88,88,88,88,101,101,101,101,100,100,100,100,85,85,85,85,84,84,84,84,84,84,84,84,82,81,81,81,80,80,80,80,79,79,79,79,81,81,81,81,81,81,81,81,0,-1,0,0
"Ind72","1_0_2",119,93,93,93,93,94,94,94,94,94,94,94,94,86,86,86,86,89,89,89,89,91,91,91,91,88,88,88,88,101,101,101,101,100,100,100,100,85,85,85,85,84,84,84,84,84,84,84,84,82,81,81,81,80,80,80,80,79,79,79,79,81,81,81,81,81,81,81,81,0,0,-1,0
"Ind73","1_0_0",119,93,93,93,93,94,94,94,94,94,94,94,94,86,86,86,86,89,89,89,89,91,91,91,91,88,88,88,88,101,101,101,101,100,100,100,100,85,85,85,85,84,84,84,84,84,84,84,84,82,81,81,81,80,80,80,80,79,79,79,79,81,81,81,81,81,81,81,81,0,0,0,-1
