"","Description","Ind1","Ind2","Ind3","Ind4","Ind5","Ind6","Ind7","Ind8","Ind9","Ind10","Ind11","Ind12","Ind13","Ind14","Ind15","Ind16","Ind17","Ind18","Ind19","Ind20","Ind21","Ind22","Ind23","Ind24","Ind25","Ind26","Ind27"
"Ind1","0_0_0",-1,0,0,0,0,0,0,0,0,0,0,0,0,0,0,0,0,0,0,0,0,0,0,0,0,0,0
"Ind2","7_0_0",125,-1,0,0,0,0,0,0,0,0,0,0,0,0,0,0,0,0,0,0,0,0,0,0,0,0,0
"Ind3","7_0_1",125,0,-1,0,0,0,0,0,0,0,0,0,0,0,0,0,0,0,0,0,0,0,0,0,0,0,0
"Ind4","5_0_0",134,26,26,-1,0,0,0,0,0,0,0,0,0,0,0,0,0,0,0,0,0,0,0,0,0,0,0
"Ind5","5_0_1",134,26,26,0,-1,0,0,0,0,0,0,0,0,0,0,0,0,0,0,0,0,0,0,0,0,0,0
"Ind6","8_0_1",129,24,24,31,31,-1,0,0,0,0,0,0,0,0,0,0,0,0,0,0,0,0,0,0,0,0,0
"Ind7","8_0_0",129,24,24,31,31,0,-1,0,0,0,0,0,0,0,0,0,0,0,0,0,0,0,0,0,0,0,0
"Ind8","11_0_0",128,23,23,32,32,28,28,-1,0,0,0,0,0,0,0,0,0,0,0,0,0,0,0,0,0,0,0
"Ind9","11_0_1",128,23,23,32,32,28,28,0,-1,0,0,0,0,0,0,0,0,0,0,0,0,0,0,0,0,0,0
"Ind10","6_0_0",125,20,20,28,28,25,25,5,5,-1,0,0,0,0,0,0,0,0,0,0,0,0,0,0,0,0,0
"Ind11","6_0_1",125,20,20,28,28,25,25,5,5,0,-1,0,0,0,0,0,0,0,0,0,0,0,0,0,0,0,0
"Ind12","13_0_1",124,27,27,33,33,32,32,11,11,7,7,-1,0,0,0,0,0,0,0,0,0,0,0,0,0,0,0
"Ind13","13_0_0",124,27,27,33,33,32,32,11,11,7,7,0,-1,0,0,0,0,0,0,0,0,0,0,0,0,0,0
"Ind14","12_0_0",125,21,21,27,27,24,24,14,14,9,9,16,16,-1,0,0,0,0,0,0,0,0,0,0,0,0,0
"Ind15","12_0_1",125,21,21,27,27,24,24,14,14,9,9,16,16,0,-1,0,0,0,0,0,0,0,0,0,0,0,0
"Ind16","9_0_1",124,30,30,34,34,35,35,25,25,20,20,27,27,19,19,-1,0,0,0,0,0,0,0,0,0,0,0
"Ind17","9_0_0",124,30,30,34,34,35,35,25,25,20,20,27,27,19,19,0,-1,0,0,0,0,0,0,0,0,0,0
"Ind18","10_0_1",121,20,20,28,28,25,25,15,15,10,10,17,17,9,9,12,12,-1,0,0,0,0,0,0,0,0,0
"Ind19","10_0_0",121,20,20,28,28,25,25,15,15,10,10,17,17,9,9,12,12,0,-1,0,0,0,0,0,0,0,0
"Ind20","3_0_0",153,95,95,97,97,96,96,102,102,98,98,103,103,97,97,104,104,98,98,-1,0,0,0,0,0,0,0
"Ind21","3_0_1",153,95,95,97,97,96,96,102,102,98,98,103,103,97,97,104,104,98,98,0,-1,0,0,0,0,0,0
"Ind22","1_0_1",151,89,89,93,93,89,89,93,93,90,90,97,97,91,91,98,98,92,92,23,23,-1,0,0,0,0,0
"Ind23","1_0_0",151,89,89,93,93,89,89,93,93,90,90,97,97,91,91,98,98,92,92,23,23,0,-1,0,0,0,0
"Ind24","2_0_1",151,93,93,97,97,93,93,95,95,92,92,99,99,93,93,98,98,92,92,25,25,6,6,-1,0,0,0
"Ind25","2_0_0",152,94,94,98,98,94,94,96,96,93,93,100,100,94,94,99,99,93,93,26,26,7,7,1,-1,0,0
"Ind26","4_0_0",151,89,89,93,93,89,89,93,93,90,90,97,97,91,91,98,98,92,92,21,21,2,2,4,5,-1,0
"Ind27","4_0_1",151,89,89,93,93,89,89,93,93,90,90,97,97,91,91,98,98,92,92,21,21,2,2,4,5,0,-1
