"","Description","Ind1","Ind2","Ind3","Ind4","Ind5","Ind6","Ind7","Ind8","Ind9","Ind10","Ind11","Ind12","Ind13","Ind14","Ind15","Ind16","Ind17","Ind18","Ind19","Ind20","Ind21","Ind22","Ind23","Ind24","Ind25","Ind26","Ind27","Ind28","Ind29","Ind30","Ind31","Ind32","Ind33","Ind34","Ind35","Ind36","Ind37"
"Ind1","0_0_0",-1,0,0,0,0,0,0,0,0,0,0,0,0,0,0,0,0,0,0,0,0,0,0,0,0,0,0,0,0,0,0,0,0,0,0,0,0
"Ind2","6_0_2",58,-1,0,0,0,0,0,0,0,0,0,0,0,0,0,0,0,0,0,0,0,0,0,0,0,0,0,0,0,0,0,0,0,0,0,0,0
"Ind3","6_0_1",58,0,-1,0,0,0,0,0,0,0,0,0,0,0,0,0,0,0,0,0,0,0,0,0,0,0,0,0,0,0,0,0,0,0,0,0,0
"Ind4","6_0_0",57,1,1,-1,0,0,0,0,0,0,0,0,0,0,0,0,0,0,0,0,0,0,0,0,0,0,0,0,0,0,0,0,0,0,0,0,0
"Ind5","9_0_2",57,1,1,0,-1,0,0,0,0,0,0,0,0,0,0,0,0,0,0,0,0,0,0,0,0,0,0,0,0,0,0,0,0,0,0,0,0
"Ind6","11_0_0",57,1,1,0,0,-1,0,0,0,0,0,0,0,0,0,0,0,0,0,0,0,0,0,0,0,0,0,0,0,0,0,0,0,0,0,0,0
"Ind7","11_0_1",57,1,1,0,0,0,-1,0,0,0,0,0,0,0,0,0,0,0,0,0,0,0,0,0,0,0,0,0,0,0,0,0,0,0,0,0,0
"Ind8","11_0_2",57,1,1,0,0,0,0,-1,0,0,0,0,0,0,0,0,0,0,0,0,0,0,0,0,0,0,0,0,0,0,0,0,0,0,0,0,0
"Ind9","9_0_0",57,1,1,0,0,0,0,0,-1,0,0,0,0,0,0,0,0,0,0,0,0,0,0,0,0,0,0,0,0,0,0,0,0,0,0,0,0
"Ind10","9_0_1",57,1,1,0,0,0,0,0,0,-1,0,0,0,0,0,0,0,0,0,0,0,0,0,0,0,0,0,0,0,0,0,0,0,0,0,0,0
"Ind11","5_0_1",57,2,2,1,1,1,1,1,1,1,-1,0,0,0,0,0,0,0,0,0,0,0,0,0,0,0,0,0,0,0,0,0,0,0,0,0,0
"Ind12","5_0_0",57,2,2,1,1,1,1,1,1,1,0,-1,0,0,0,0,0,0,0,0,0,0,0,0,0,0,0,0,0,0,0,0,0,0,0,0,0
"Ind13","5_0_2",57,2,2,1,1,1,1,1,1,1,0,0,-1,0,0,0,0,0,0,0,0,0,0,0,0,0,0,0,0,0,0,0,0,0,0,0,0
"Ind14","7_0_2",56,2,2,1,1,1,1,1,1,1,2,2,2,-1,0,0,0,0,0,0,0,0,0,0,0,0,0,0,0,0,0,0,0,0,0,0,0
"Ind15","7_0_0",56,2,2,1,1,1,1,1,1,1,2,2,2,0,-1,0,0,0,0,0,0,0,0,0,0,0,0,0,0,0,0,0,0,0,0,0,0
"Ind16","7_0_1",56,2,2,1,1,1,1,1,1,1,2,2,2,0,0,-1,0,0,0,0,0,0,0,0,0,0,0,0,0,0,0,0,0,0,0,0,0
"Ind17","1_0_1",57,1,1,0,0,0,0,0,0,0,1,1,1,1,1,1,-1,0,0,0,0,0,0,0,0,0,0,0,0,0,0,0,0,0,0,0,0
"Ind18","1_0_0",57,1,1,0,0,0,0,0,0,0,1,1,1,1,1,1,0,-1,0,0,0,0,0,0,0,0,0,0,0,0,0,0,0,0,0,0,0
"Ind19","1_0_2",57,1,1,0,0,0,0,0,0,0,1,1,1,1,1,1,0,0,-1,0,0,0,0,0,0,0,0,0,0,0,0,0,0,0,0,0,0
"Ind20","4_0_2",56,2,2,1,1,1,1,1,1,1,2,2,2,2,2,2,1,1,1,-1,0,0,0,0,0,0,0,0,0,0,0,0,0,0,0,0,0
"Ind21","4_0_0",56,2,2,1,1,1,1,1,1,1,2,2,2,2,2,2,1,1,1,0,-1,0,0,0,0,0,0,0,0,0,0,0,0,0,0,0,0
"Ind22","4_0_1",56,2,2,1,1,1,1,1,1,1,2,2,2,2,2,2,1,1,1,0,0,-1,0,0,0,0,0,0,0,0,0,0,0,0,0,0,0
"Ind23","3_0_0",56,3,3,2,2,2,2,2,2,2,1,1,1,3,3,3,2,2,2,3,3,3,-1,0,0,0,0,0,0,0,0,0,0,0,0,0,0
"Ind24","3_0_1",56,3,3,2,2,2,2,2,2,2,1,1,1,3,3,3,2,2,2,3,3,3,0,-1,0,0,0,0,0,0,0,0,0,0,0,0,0
"Ind25","3_0_2",56,3,3,2,2,2,2,2,2,2,1,1,1,3,3,3,2,2,2,3,3,3,0,0,-1,0,0,0,0,0,0,0,0,0,0,0,0
"Ind26","10_0_0",57,4,4,3,3,3,3,3,3,3,2,2,2,4,4,4,3,3,3,4,4,4,3,3,3,-1,0,0,0,0,0,0,0,0,0,0,0
"Ind27","10_0_2",57,4,4,3,3,3,3,3,3,3,2,2,2,4,4,4,3,3,3,4,4,4,3,3,3,0,-1,0,0,0,0,0,0,0,0,0,0
"Ind28","10_0_1",57,4,4,3,3,3,3,3,3,3,2,2,2,4,4,4,3,3,3,4,4,4,3,3,3,0,0,-1,0,0,0,0,0,0,0,0,0
"Ind29","2_0_2",55,4,4,3,3,3,3,3,3,3,2,2,2,4,4,4,3,3,3,4,4,4,3,3,3,2,2,2,-1,0,0,0,0,0,0,0,0
"Ind30","2_0_0",55,4,4,3,3,3,3,3,3,3,2,2,2,4,4,4,3,3,3,4,4,4,3,3,3,2,2,2,0,-1,0,0,0,0,0,0,0
"Ind31","2_0_1",55,4,4,3,3,3,3,3,3,3,2,2,2,4,4,4,3,3,3,4,4,4,3,3,3,2,2,2,0,0,-1,0,0,0,0,0,0
"Ind32","8_0_0",54,4,4,3,3,3,3,3,3,3,4,4,4,4,4,4,3,3,3,4,4,4,5,5,5,4,4,4,2,2,2,-1,0,0,0,0,0
"Ind33","8_0_2",54,4,4,3,3,3,3,3,3,3,4,4,4,4,4,4,3,3,3,4,4,4,5,5,5,4,4,4,2,2,2,0,-1,0,0,0,0
"Ind34","8_0_1",54,4,4,3,3,3,3,3,3,3,4,4,4,4,4,4,3,3,3,4,4,4,5,5,5,4,4,4,2,2,2,0,0,-1,0,0,0
"Ind35","12_0_2",58,42,42,41,41,41,41,41,41,41,41,41,41,40,40,40,41,41,41,40,40,40,42,42,42,41,41,41,39,39,39,38,38,38,-1,0,0
"Ind36","12_0_0",58,42,42,41,41,41,41,41,41,41,41,41,41,40,40,40,41,41,41,40,40,40,42,42,42,41,41,41,39,39,39,38,38,38,0,-1,0
"Ind37","12_0_1",58,42,42,41,41,41,41,41,41,41,41,41,41,40,40,40,41,41,41,40,40,40,42,42,42,41,41,41,39,39,39,38,38,38,0,0,-1
