"","Description","Ind1","Ind2","Ind3","Ind4","Ind5","Ind6","Ind7","Ind8","Ind9","Ind10","Ind11","Ind12","Ind13","Ind14","Ind15","Ind16","Ind17","Ind18","Ind19","Ind20","Ind21","Ind22","Ind23","Ind24","Ind25","Ind26","Ind27","Ind28","Ind29","Ind30","Ind31","Ind32","Ind33","Ind34","Ind35","Ind36","Ind37","Ind38","Ind39","Ind40","Ind41"
"Ind1","2_0_8",-1,0,0,0,0,0,0,0,0,0,0,0,0,0,0,0,0,0,0,0,0,0,0,0,0,0,0,0,0,0,0,0,0,0,0,0,0,0,0,0,0
"Ind2","2_0_3",0,-1,0,0,0,0,0,0,0,0,0,0,0,0,0,0,0,0,0,0,0,0,0,0,0,0,0,0,0,0,0,0,0,0,0,0,0,0,0,0,0
"Ind3","2_0_6",0,0,-1,0,0,0,0,0,0,0,0,0,0,0,0,0,0,0,0,0,0,0,0,0,0,0,0,0,0,0,0,0,0,0,0,0,0,0,0,0,0
"Ind4","2_0_4",0,0,0,-1,0,0,0,0,0,0,0,0,0,0,0,0,0,0,0,0,0,0,0,0,0,0,0,0,0,0,0,0,0,0,0,0,0,0,0,0,0
"Ind5","2_0_9",0,0,0,0,-1,0,0,0,0,0,0,0,0,0,0,0,0,0,0,0,0,0,0,0,0,0,0,0,0,0,0,0,0,0,0,0,0,0,0,0,0
"Ind6","2_0_2",0,0,0,0,0,-1,0,0,0,0,0,0,0,0,0,0,0,0,0,0,0,0,0,0,0,0,0,0,0,0,0,0,0,0,0,0,0,0,0,0,0
"Ind7","2_0_5",0,0,0,0,0,0,-1,0,0,0,0,0,0,0,0,0,0,0,0,0,0,0,0,0,0,0,0,0,0,0,0,0,0,0,0,0,0,0,0,0,0
"Ind8","2_0_0",0,0,0,0,0,0,0,-1,0,0,0,0,0,0,0,0,0,0,0,0,0,0,0,0,0,0,0,0,0,0,0,0,0,0,0,0,0,0,0,0,0
"Ind9","2_0_7",0,0,0,0,0,0,0,0,-1,0,0,0,0,0,0,0,0,0,0,0,0,0,0,0,0,0,0,0,0,0,0,0,0,0,0,0,0,0,0,0,0
"Ind10","2_0_1",0,0,0,0,0,0,0,0,0,-1,0,0,0,0,0,0,0,0,0,0,0,0,0,0,0,0,0,0,0,0,0,0,0,0,0,0,0,0,0,0,0
"Ind11","4_0_6",0,0,0,0,0,0,0,0,0,0,-1,0,0,0,0,0,0,0,0,0,0,0,0,0,0,0,0,0,0,0,0,0,0,0,0,0,0,0,0,0,0
"Ind12","4_0_1",0,0,0,0,0,0,0,0,0,0,0,-1,0,0,0,0,0,0,0,0,0,0,0,0,0,0,0,0,0,0,0,0,0,0,0,0,0,0,0,0,0
"Ind13","4_0_2",0,0,0,0,0,0,0,0,0,0,0,0,-1,0,0,0,0,0,0,0,0,0,0,0,0,0,0,0,0,0,0,0,0,0,0,0,0,0,0,0,0
"Ind14","4_0_7",0,0,0,0,0,0,0,0,0,0,0,0,0,-1,0,0,0,0,0,0,0,0,0,0,0,0,0,0,0,0,0,0,0,0,0,0,0,0,0,0,0
"Ind15","4_0_4",0,0,0,0,0,0,0,0,0,0,0,0,0,0,-1,0,0,0,0,0,0,0,0,0,0,0,0,0,0,0,0,0,0,0,0,0,0,0,0,0,0
"Ind16","4_0_5",0,0,0,0,0,0,0,0,0,0,0,0,0,0,0,-1,0,0,0,0,0,0,0,0,0,0,0,0,0,0,0,0,0,0,0,0,0,0,0,0,0
"Ind17","4_0_3",0,0,0,0,0,0,0,0,0,0,0,0,0,0,0,0,-1,0,0,0,0,0,0,0,0,0,0,0,0,0,0,0,0,0,0,0,0,0,0,0,0
"Ind18","4_0_9",0,0,0,0,0,0,0,0,0,0,0,0,0,0,0,0,0,-1,0,0,0,0,0,0,0,0,0,0,0,0,0,0,0,0,0,0,0,0,0,0,0
"Ind19","4_0_8",0,0,0,0,0,0,0,0,0,0,0,0,0,0,0,0,0,0,-1,0,0,0,0,0,0,0,0,0,0,0,0,0,0,0,0,0,0,0,0,0,0
"Ind20","4_0_0",0,0,0,0,0,0,0,0,0,0,0,0,0,0,0,0,0,0,0,-1,0,0,0,0,0,0,0,0,0,0,0,0,0,0,0,0,0,0,0,0,0
"Ind21","3_0_1",3,3,3,3,3,3,3,3,3,3,3,3,3,3,3,3,3,3,3,3,-1,0,0,0,0,0,0,0,0,0,0,0,0,0,0,0,0,0,0,0,0
"Ind22","3_0_6",2,2,2,2,2,2,2,2,2,2,2,2,2,2,2,2,2,2,2,2,1,-1,0,0,0,0,0,0,0,0,0,0,0,0,0,0,0,0,0,0,0
"Ind23","3_0_4",3,3,3,3,3,3,3,3,3,3,3,3,3,3,3,3,3,3,3,3,2,1,-1,0,0,0,0,0,0,0,0,0,0,0,0,0,0,0,0,0,0
"Ind24","3_0_2",3,3,3,3,3,3,3,3,3,3,3,3,3,3,3,3,3,3,3,3,2,1,0,-1,0,0,0,0,0,0,0,0,0,0,0,0,0,0,0,0,0
"Ind25","3_0_3",2,2,2,2,2,2,2,2,2,2,2,2,2,2,2,2,2,2,2,2,1,0,1,1,-1,0,0,0,0,0,0,0,0,0,0,0,0,0,0,0,0
"Ind26","3_0_8",3,3,3,3,3,3,3,3,3,3,3,3,3,3,3,3,3,3,3,3,2,1,0,0,1,-1,0,0,0,0,0,0,0,0,0,0,0,0,0,0,0
"Ind27","3_0_0",3,3,3,3,3,3,3,3,3,3,3,3,3,3,3,3,3,3,3,3,2,1,0,0,1,0,-1,0,0,0,0,0,0,0,0,0,0,0,0,0,0
"Ind28","3_0_9",3,3,3,3,3,3,3,3,3,3,3,3,3,3,3,3,3,3,3,3,2,1,0,0,1,0,0,-1,0,0,0,0,0,0,0,0,0,0,0,0,0
"Ind29","3_0_5",3,3,3,3,3,3,3,3,3,3,3,3,3,3,3,3,3,3,3,3,2,1,0,0,1,0,0,0,-1,0,0,0,0,0,0,0,0,0,0,0,0
"Ind30","3_0_7",3,3,3,3,3,3,3,3,3,3,3,3,3,3,3,3,3,3,3,3,2,1,0,0,1,0,0,0,0,-1,0,0,0,0,0,0,0,0,0,0,0
"Ind31","1_0_7",83,83,83,83,83,83,83,83,83,83,83,83,83,83,83,83,83,83,83,83,84,83,84,84,83,84,84,84,84,84,-1,0,0,0,0,0,0,0,0,0,0
"Ind32","1_0_4",83,83,83,83,83,83,83,83,83,83,83,83,83,83,83,83,83,83,83,83,84,83,84,84,83,84,84,84,84,84,0,-1,0,0,0,0,0,0,0,0,0
"Ind33","1_0_5",83,83,83,83,83,83,83,83,83,83,83,83,83,83,83,83,83,83,83,83,84,83,84,84,83,84,84,84,84,84,0,0,-1,0,0,0,0,0,0,0,0
"Ind34","1_0_6",84,84,84,84,84,84,84,84,84,84,84,84,84,84,84,84,84,84,84,84,85,84,85,85,84,85,85,85,85,85,1,1,1,-1,0,0,0,0,0,0,0
"Ind35","1_0_8",83,83,83,83,83,83,83,83,83,83,83,83,83,83,83,83,83,83,83,83,84,83,84,84,83,84,84,84,84,84,0,0,0,1,-1,0,0,0,0,0,0
"Ind36","1_0_3",83,83,83,83,83,83,83,83,83,83,83,83,83,83,83,83,83,83,83,83,84,83,84,84,83,84,84,84,84,84,0,0,0,1,0,-1,0,0,0,0,0
"Ind37","1_0_2",83,83,83,83,83,83,83,83,83,83,83,83,83,83,83,83,83,83,83,83,84,83,84,84,83,84,84,84,84,84,0,0,0,1,0,0,-1,0,0,0,0
"Ind38","1_0_1",83,83,83,83,83,83,83,83,83,83,83,83,83,83,83,83,83,83,83,83,84,83,84,84,83,84,84,84,84,84,0,0,0,1,0,0,0,-1,0,0,0
"Ind39","1_0_9",83,83,83,83,83,83,83,83,83,83,83,83,83,83,83,83,83,83,83,83,84,83,84,84,83,84,84,84,84,84,0,0,0,1,0,0,0,0,-1,0,0
"Ind40","1_0_0",83,83,83,83,83,83,83,83,83,83,83,83,83,83,83,83,83,83,83,83,84,83,84,84,83,84,84,84,84,84,0,0,0,1,0,0,0,0,0,-1,0
"Ind41","0_0_0",130,130,130,130,130,130,130,130,130,130,130,130,130,130,130,130,130,130,130,130,127,128,127,127,128,127,127,127,127,127,139,139,139,138,139,139,139,139,139,139,-1
