"","Description","Ind1","Ind2","Ind3","Ind4","Ind5","Ind6","Ind7","Ind8","Ind9","Ind10","Ind11","Ind12","Ind13","Ind14","Ind15","Ind16","Ind17","Ind18","Ind19","Ind20","Ind21","Ind22","Ind23","Ind24","Ind25","Ind26","Ind27","Ind28","Ind29","Ind30","Ind31","Ind32","Ind33"
"Ind1","6_0_2",-1,0,0,0,0,0,0,0,0,0,0,0,0,0,0,0,0,0,0,0,0,0,0,0,0,0,0,0,0,0,0,0,0
"Ind2","6_0_0",0,-1,0,0,0,0,0,0,0,0,0,0,0,0,0,0,0,0,0,0,0,0,0,0,0,0,0,0,0,0,0,0,0
"Ind3","6_0_1",0,0,-1,0,0,0,0,0,0,0,0,0,0,0,0,0,0,0,0,0,0,0,0,0,0,0,0,0,0,0,0,0,0
"Ind4","6_0_3",0,0,0,-1,0,0,0,0,0,0,0,0,0,0,0,0,0,0,0,0,0,0,0,0,0,0,0,0,0,0,0,0,0
"Ind5","2_0_3",0,0,0,0,-1,0,0,0,0,0,0,0,0,0,0,0,0,0,0,0,0,0,0,0,0,0,0,0,0,0,0,0,0
"Ind6","2_0_0",0,0,0,0,0,-1,0,0,0,0,0,0,0,0,0,0,0,0,0,0,0,0,0,0,0,0,0,0,0,0,0,0,0
"Ind7","2_0_2",0,0,0,0,0,0,-1,0,0,0,0,0,0,0,0,0,0,0,0,0,0,0,0,0,0,0,0,0,0,0,0,0,0
"Ind8","1_0_1",0,0,0,0,0,0,0,-1,0,0,0,0,0,0,0,0,0,0,0,0,0,0,0,0,0,0,0,0,0,0,0,0,0
"Ind9","1_0_3",0,0,0,0,0,0,0,0,-1,0,0,0,0,0,0,0,0,0,0,0,0,0,0,0,0,0,0,0,0,0,0,0,0
"Ind10","1_0_0",0,0,0,0,0,0,0,0,0,-1,0,0,0,0,0,0,0,0,0,0,0,0,0,0,0,0,0,0,0,0,0,0,0
"Ind11","1_0_2",0,0,0,0,0,0,0,0,0,0,-1,0,0,0,0,0,0,0,0,0,0,0,0,0,0,0,0,0,0,0,0,0,0
"Ind12","2_0_1",2,2,2,2,2,2,2,2,2,2,2,-1,0,0,0,0,0,0,0,0,0,0,0,0,0,0,0,0,0,0,0,0,0
"Ind13","3_0_2",4,4,4,4,4,4,4,4,4,4,4,6,-1,0,0,0,0,0,0,0,0,0,0,0,0,0,0,0,0,0,0,0,0
"Ind14","3_0_3",4,4,4,4,4,4,4,4,4,4,4,6,0,-1,0,0,0,0,0,0,0,0,0,0,0,0,0,0,0,0,0,0,0
"Ind15","3_0_0",4,4,4,4,4,4,4,4,4,4,4,6,0,0,-1,0,0,0,0,0,0,0,0,0,0,0,0,0,0,0,0,0,0
"Ind16","3_0_1",4,4,4,4,4,4,4,4,4,4,4,6,0,0,0,-1,0,0,0,0,0,0,0,0,0,0,0,0,0,0,0,0,0
"Ind17","4_0_3",2,2,2,2,2,2,2,2,2,2,2,4,2,2,2,2,-1,0,0,0,0,0,0,0,0,0,0,0,0,0,0,0,0
"Ind18","4_0_1",2,2,2,2,2,2,2,2,2,2,2,4,2,2,2,2,0,-1,0,0,0,0,0,0,0,0,0,0,0,0,0,0,0
"Ind19","4_0_2",2,2,2,2,2,2,2,2,2,2,2,4,2,2,2,2,0,0,-1,0,0,0,0,0,0,0,0,0,0,0,0,0,0
"Ind20","4_0_0",2,2,2,2,2,2,2,2,2,2,2,4,2,2,2,2,0,0,0,-1,0,0,0,0,0,0,0,0,0,0,0,0,0
"Ind21","5_0_3",2,2,2,2,2,2,2,2,2,2,2,4,2,2,2,2,0,0,0,0,-1,0,0,0,0,0,0,0,0,0,0,0,0
"Ind22","5_0_1",2,2,2,2,2,2,2,2,2,2,2,4,2,2,2,2,0,0,0,0,0,-1,0,0,0,0,0,0,0,0,0,0,0
"Ind23","5_0_0",2,2,2,2,2,2,2,2,2,2,2,4,2,2,2,2,0,0,0,0,0,0,-1,0,0,0,0,0,0,0,0,0,0
"Ind24","5_0_2",2,2,2,2,2,2,2,2,2,2,2,4,2,2,2,2,0,0,0,0,0,0,0,-1,0,0,0,0,0,0,0,0,0
"Ind25","8_0_0",92,92,92,92,92,92,92,92,92,92,92,93,90,90,90,90,90,90,90,90,90,90,90,90,-1,0,0,0,0,0,0,0,0
"Ind26","8_0_1",92,92,92,92,92,92,92,92,92,92,92,93,90,90,90,90,90,90,90,90,90,90,90,90,0,-1,0,0,0,0,0,0,0
"Ind27","8_0_3",92,92,92,92,92,92,92,92,92,92,92,93,90,90,90,90,90,90,90,90,90,90,90,90,0,0,-1,0,0,0,0,0,0
"Ind28","8_0_2",92,92,92,92,92,92,92,92,92,92,92,93,90,90,90,90,90,90,90,90,90,90,90,90,0,0,0,-1,0,0,0,0,0
"Ind29","7_0_3",94,94,94,94,94,94,94,94,94,94,94,95,92,92,92,92,92,92,92,92,92,92,92,92,2,2,2,2,-1,0,0,0,0
"Ind30","7_0_2",94,94,94,94,94,94,94,94,94,94,94,95,92,92,92,92,92,92,92,92,92,92,92,92,2,2,2,2,0,-1,0,0,0
"Ind31","7_0_1",94,94,94,94,94,94,94,94,94,94,94,95,92,92,92,92,92,92,92,92,92,92,92,92,2,2,2,2,0,0,-1,0,0
"Ind32","7_0_0",94,94,94,94,94,94,94,94,94,94,94,95,92,92,92,92,92,92,92,92,92,92,92,92,2,2,2,2,0,0,0,-1,0
"Ind33","0_0_0",123,123,123,123,123,123,123,123,123,123,123,123,121,121,121,121,121,121,121,121,121,121,121,121,127,127,127,127,126,126,126,126,-1
