"","Description","Ind1","Ind2","Ind3","Ind4","Ind5","Ind6","Ind7","Ind8","Ind9","Ind10","Ind11","Ind12","Ind13","Ind14","Ind15","Ind16","Ind17","Ind18","Ind19","Ind20","Ind21","Ind22","Ind23","Ind24","Ind25","Ind26","Ind27","Ind28","Ind29","Ind30","Ind31","Ind32","Ind33","Ind34","Ind35","Ind36","Ind37","Ind38","Ind39","Ind40","Ind41","Ind42","Ind43","Ind44","Ind45","Ind46","Ind47","Ind48","Ind49","Ind50","Ind51","Ind52","Ind53","Ind54","Ind55","Ind56","Ind57","Ind58","Ind59","Ind60","Ind61","Ind62","Ind63","Ind64","Ind65","Ind66","Ind67","Ind68","Ind69","Ind70","Ind71","Ind72","Ind73","Ind74","Ind75","Ind76","Ind77","Ind78","Ind79","Ind80","Ind81","Ind82","Ind83","Ind84","Ind85","Ind86","Ind87","Ind88","Ind89","Ind90","Ind91","Ind92","Ind93","Ind94","Ind95","Ind96","Ind97"
"Ind1","0_0_0",-1,0,0,0,0,0,0,0,0,0,0,0,0,0,0,0,0,0,0,0,0,0,0,0,0,0,0,0,0,0,0,0,0,0,0,0,0,0,0,0,0,0,0,0,0,0,0,0,0,0,0,0,0,0,0,0,0,0,0,0,0,0,0,0,0,0,0,0,0,0,0,0,0,0,0,0,0,0,0,0,0,0,0,0,0,0,0,0,0,0,0,0,0,0,0,0,0
"Ind2","7_0_4",71,-1,0,0,0,0,0,0,0,0,0,0,0,0,0,0,0,0,0,0,0,0,0,0,0,0,0,0,0,0,0,0,0,0,0,0,0,0,0,0,0,0,0,0,0,0,0,0,0,0,0,0,0,0,0,0,0,0,0,0,0,0,0,0,0,0,0,0,0,0,0,0,0,0,0,0,0,0,0,0,0,0,0,0,0,0,0,0,0,0,0,0,0,0,0,0,0
"Ind3","7_0_1",71,0,-1,0,0,0,0,0,0,0,0,0,0,0,0,0,0,0,0,0,0,0,0,0,0,0,0,0,0,0,0,0,0,0,0,0,0,0,0,0,0,0,0,0,0,0,0,0,0,0,0,0,0,0,0,0,0,0,0,0,0,0,0,0,0,0,0,0,0,0,0,0,0,0,0,0,0,0,0,0,0,0,0,0,0,0,0,0,0,0,0,0,0,0,0,0,0
"Ind4","7_0_10",71,0,0,-1,0,0,0,0,0,0,0,0,0,0,0,0,0,0,0,0,0,0,0,0,0,0,0,0,0,0,0,0,0,0,0,0,0,0,0,0,0,0,0,0,0,0,0,0,0,0,0,0,0,0,0,0,0,0,0,0,0,0,0,0,0,0,0,0,0,0,0,0,0,0,0,0,0,0,0,0,0,0,0,0,0,0,0,0,0,0,0,0,0,0,0,0,0
"Ind5","7_0_3",72,1,1,1,-1,0,0,0,0,0,0,0,0,0,0,0,0,0,0,0,0,0,0,0,0,0,0,0,0,0,0,0,0,0,0,0,0,0,0,0,0,0,0,0,0,0,0,0,0,0,0,0,0,0,0,0,0,0,0,0,0,0,0,0,0,0,0,0,0,0,0,0,0,0,0,0,0,0,0,0,0,0,0,0,0,0,0,0,0,0,0,0,0,0,0,0,0
"Ind6","7_0_5",72,1,1,1,0,-1,0,0,0,0,0,0,0,0,0,0,0,0,0,0,0,0,0,0,0,0,0,0,0,0,0,0,0,0,0,0,0,0,0,0,0,0,0,0,0,0,0,0,0,0,0,0,0,0,0,0,0,0,0,0,0,0,0,0,0,0,0,0,0,0,0,0,0,0,0,0,0,0,0,0,0,0,0,0,0,0,0,0,0,0,0,0,0,0,0,0,0
"Ind7","7_0_2",72,1,1,1,0,0,-1,0,0,0,0,0,0,0,0,0,0,0,0,0,0,0,0,0,0,0,0,0,0,0,0,0,0,0,0,0,0,0,0,0,0,0,0,0,0,0,0,0,0,0,0,0,0,0,0,0,0,0,0,0,0,0,0,0,0,0,0,0,0,0,0,0,0,0,0,0,0,0,0,0,0,0,0,0,0,0,0,0,0,0,0,0,0,0,0,0,0
"Ind8","7_0_7",71,0,0,0,1,1,1,-1,0,0,0,0,0,0,0,0,0,0,0,0,0,0,0,0,0,0,0,0,0,0,0,0,0,0,0,0,0,0,0,0,0,0,0,0,0,0,0,0,0,0,0,0,0,0,0,0,0,0,0,0,0,0,0,0,0,0,0,0,0,0,0,0,0,0,0,0,0,0,0,0,0,0,0,0,0,0,0,0,0,0,0,0,0,0,0,0,0
"Ind9","7_0_0",71,0,0,0,1,1,1,0,-1,0,0,0,0,0,0,0,0,0,0,0,0,0,0,0,0,0,0,0,0,0,0,0,0,0,0,0,0,0,0,0,0,0,0,0,0,0,0,0,0,0,0,0,0,0,0,0,0,0,0,0,0,0,0,0,0,0,0,0,0,0,0,0,0,0,0,0,0,0,0,0,0,0,0,0,0,0,0,0,0,0,0,0,0,0,0,0,0
"Ind10","7_0_11",72,1,1,1,2,2,2,1,1,-1,0,0,0,0,0,0,0,0,0,0,0,0,0,0,0,0,0,0,0,0,0,0,0,0,0,0,0,0,0,0,0,0,0,0,0,0,0,0,0,0,0,0,0,0,0,0,0,0,0,0,0,0,0,0,0,0,0,0,0,0,0,0,0,0,0,0,0,0,0,0,0,0,0,0,0,0,0,0,0,0,0,0,0,0,0,0,0
"Ind11","7_0_8",72,1,1,1,2,2,2,1,1,0,-1,0,0,0,0,0,0,0,0,0,0,0,0,0,0,0,0,0,0,0,0,0,0,0,0,0,0,0,0,0,0,0,0,0,0,0,0,0,0,0,0,0,0,0,0,0,0,0,0,0,0,0,0,0,0,0,0,0,0,0,0,0,0,0,0,0,0,0,0,0,0,0,0,0,0,0,0,0,0,0,0,0,0,0,0,0,0
"Ind12","7_0_6",72,1,1,1,2,2,2,1,1,0,0,-1,0,0,0,0,0,0,0,0,0,0,0,0,0,0,0,0,0,0,0,0,0,0,0,0,0,0,0,0,0,0,0,0,0,0,0,0,0,0,0,0,0,0,0,0,0,0,0,0,0,0,0,0,0,0,0,0,0,0,0,0,0,0,0,0,0,0,0,0,0,0,0,0,0,0,0,0,0,0,0,0,0,0,0,0,0
"Ind13","7_0_9",72,1,1,1,2,2,2,1,1,0,0,0,-1,0,0,0,0,0,0,0,0,0,0,0,0,0,0,0,0,0,0,0,0,0,0,0,0,0,0,0,0,0,0,0,0,0,0,0,0,0,0,0,0,0,0,0,0,0,0,0,0,0,0,0,0,0,0,0,0,0,0,0,0,0,0,0,0,0,0,0,0,0,0,0,0,0,0,0,0,0,0,0,0,0,0,0,0
"Ind14","8_0_2",71,6,6,6,7,7,7,6,6,7,7,7,7,-1,0,0,0,0,0,0,0,0,0,0,0,0,0,0,0,0,0,0,0,0,0,0,0,0,0,0,0,0,0,0,0,0,0,0,0,0,0,0,0,0,0,0,0,0,0,0,0,0,0,0,0,0,0,0,0,0,0,0,0,0,0,0,0,0,0,0,0,0,0,0,0,0,0,0,0,0,0,0,0,0,0,0,0
"Ind15","8_0_7",71,6,6,6,7,7,7,6,6,7,7,7,7,0,-1,0,0,0,0,0,0,0,0,0,0,0,0,0,0,0,0,0,0,0,0,0,0,0,0,0,0,0,0,0,0,0,0,0,0,0,0,0,0,0,0,0,0,0,0,0,0,0,0,0,0,0,0,0,0,0,0,0,0,0,0,0,0,0,0,0,0,0,0,0,0,0,0,0,0,0,0,0,0,0,0,0,0
"Ind16","8_0_8",71,6,6,6,7,7,7,6,6,7,7,7,7,0,0,-1,0,0,0,0,0,0,0,0,0,0,0,0,0,0,0,0,0,0,0,0,0,0,0,0,0,0,0,0,0,0,0,0,0,0,0,0,0,0,0,0,0,0,0,0,0,0,0,0,0,0,0,0,0,0,0,0,0,0,0,0,0,0,0,0,0,0,0,0,0,0,0,0,0,0,0,0,0,0,0,0,0
"Ind17","8_0_0",71,6,6,6,7,7,7,6,6,7,7,7,7,0,0,0,-1,0,0,0,0,0,0,0,0,0,0,0,0,0,0,0,0,0,0,0,0,0,0,0,0,0,0,0,0,0,0,0,0,0,0,0,0,0,0,0,0,0,0,0,0,0,0,0,0,0,0,0,0,0,0,0,0,0,0,0,0,0,0,0,0,0,0,0,0,0,0,0,0,0,0,0,0,0,0,0,0
"Ind18","8_0_4",70,5,5,5,6,6,6,5,5,6,6,6,6,1,1,1,1,-1,0,0,0,0,0,0,0,0,0,0,0,0,0,0,0,0,0,0,0,0,0,0,0,0,0,0,0,0,0,0,0,0,0,0,0,0,0,0,0,0,0,0,0,0,0,0,0,0,0,0,0,0,0,0,0,0,0,0,0,0,0,0,0,0,0,0,0,0,0,0,0,0,0,0,0,0,0,0,0
"Ind19","8_0_5",70,5,5,5,6,6,6,5,5,6,6,6,6,1,1,1,1,0,-1,0,0,0,0,0,0,0,0,0,0,0,0,0,0,0,0,0,0,0,0,0,0,0,0,0,0,0,0,0,0,0,0,0,0,0,0,0,0,0,0,0,0,0,0,0,0,0,0,0,0,0,0,0,0,0,0,0,0,0,0,0,0,0,0,0,0,0,0,0,0,0,0,0,0,0,0,0,0
"Ind20","8_0_11",70,5,5,5,6,6,6,5,5,6,6,6,6,1,1,1,1,0,0,-1,0,0,0,0,0,0,0,0,0,0,0,0,0,0,0,0,0,0,0,0,0,0,0,0,0,0,0,0,0,0,0,0,0,0,0,0,0,0,0,0,0,0,0,0,0,0,0,0,0,0,0,0,0,0,0,0,0,0,0,0,0,0,0,0,0,0,0,0,0,0,0,0,0,0,0,0,0
"Ind21","8_0_10",70,5,5,5,6,6,6,5,5,6,6,6,6,1,1,1,1,0,0,0,-1,0,0,0,0,0,0,0,0,0,0,0,0,0,0,0,0,0,0,0,0,0,0,0,0,0,0,0,0,0,0,0,0,0,0,0,0,0,0,0,0,0,0,0,0,0,0,0,0,0,0,0,0,0,0,0,0,0,0,0,0,0,0,0,0,0,0,0,0,0,0,0,0,0,0,0,0
"Ind22","8_0_9",70,5,5,5,6,6,6,5,5,6,6,6,6,1,1,1,1,0,0,0,0,-1,0,0,0,0,0,0,0,0,0,0,0,0,0,0,0,0,0,0,0,0,0,0,0,0,0,0,0,0,0,0,0,0,0,0,0,0,0,0,0,0,0,0,0,0,0,0,0,0,0,0,0,0,0,0,0,0,0,0,0,0,0,0,0,0,0,0,0,0,0,0,0,0,0,0,0
"Ind23","8_0_3",70,5,5,5,6,6,6,5,5,6,6,6,6,1,1,1,1,0,0,0,0,0,-1,0,0,0,0,0,0,0,0,0,0,0,0,0,0,0,0,0,0,0,0,0,0,0,0,0,0,0,0,0,0,0,0,0,0,0,0,0,0,0,0,0,0,0,0,0,0,0,0,0,0,0,0,0,0,0,0,0,0,0,0,0,0,0,0,0,0,0,0,0,0,0,0,0,0
"Ind24","8_0_6",70,5,5,5,6,6,6,5,5,6,6,6,6,1,1,1,1,0,0,0,0,0,0,-1,0,0,0,0,0,0,0,0,0,0,0,0,0,0,0,0,0,0,0,0,0,0,0,0,0,0,0,0,0,0,0,0,0,0,0,0,0,0,0,0,0,0,0,0,0,0,0,0,0,0,0,0,0,0,0,0,0,0,0,0,0,0,0,0,0,0,0,0,0,0,0,0,0
"Ind25","8_0_1",70,5,5,5,6,6,6,5,5,6,6,6,6,1,1,1,1,0,0,0,0,0,0,0,-1,0,0,0,0,0,0,0,0,0,0,0,0,0,0,0,0,0,0,0,0,0,0,0,0,0,0,0,0,0,0,0,0,0,0,0,0,0,0,0,0,0,0,0,0,0,0,0,0,0,0,0,0,0,0,0,0,0,0,0,0,0,0,0,0,0,0,0,0,0,0,0,0
"Ind26","6_0_1",69,4,4,4,5,5,5,4,4,5,5,5,5,4,4,4,4,3,3,3,3,3,3,3,3,-1,0,0,0,0,0,0,0,0,0,0,0,0,0,0,0,0,0,0,0,0,0,0,0,0,0,0,0,0,0,0,0,0,0,0,0,0,0,0,0,0,0,0,0,0,0,0,0,0,0,0,0,0,0,0,0,0,0,0,0,0,0,0,0,0,0,0,0,0,0,0,0
"Ind27","6_0_8",69,4,4,4,5,5,5,4,4,5,5,5,5,4,4,4,4,3,3,3,3,3,3,3,3,0,-1,0,0,0,0,0,0,0,0,0,0,0,0,0,0,0,0,0,0,0,0,0,0,0,0,0,0,0,0,0,0,0,0,0,0,0,0,0,0,0,0,0,0,0,0,0,0,0,0,0,0,0,0,0,0,0,0,0,0,0,0,0,0,0,0,0,0,0,0,0,0
"Ind28","6_0_4",69,4,4,4,5,5,5,4,4,5,5,5,5,4,4,4,4,3,3,3,3,3,3,3,3,0,0,-1,0,0,0,0,0,0,0,0,0,0,0,0,0,0,0,0,0,0,0,0,0,0,0,0,0,0,0,0,0,0,0,0,0,0,0,0,0,0,0,0,0,0,0,0,0,0,0,0,0,0,0,0,0,0,0,0,0,0,0,0,0,0,0,0,0,0,0,0,0
"Ind29","6_0_2",69,4,4,4,5,5,5,4,4,5,5,5,5,4,4,4,4,3,3,3,3,3,3,3,3,0,0,0,-1,0,0,0,0,0,0,0,0,0,0,0,0,0,0,0,0,0,0,0,0,0,0,0,0,0,0,0,0,0,0,0,0,0,0,0,0,0,0,0,0,0,0,0,0,0,0,0,0,0,0,0,0,0,0,0,0,0,0,0,0,0,0,0,0,0,0,0,0
"Ind30","6_0_10",69,4,4,4,5,5,5,4,4,5,5,5,5,4,4,4,4,3,3,3,3,3,3,3,3,0,0,0,0,-1,0,0,0,0,0,0,0,0,0,0,0,0,0,0,0,0,0,0,0,0,0,0,0,0,0,0,0,0,0,0,0,0,0,0,0,0,0,0,0,0,0,0,0,0,0,0,0,0,0,0,0,0,0,0,0,0,0,0,0,0,0,0,0,0,0,0,0
"Ind31","6_0_9",69,4,4,4,5,5,5,4,4,5,5,5,5,4,4,4,4,3,3,3,3,3,3,3,3,0,0,0,0,0,-1,0,0,0,0,0,0,0,0,0,0,0,0,0,0,0,0,0,0,0,0,0,0,0,0,0,0,0,0,0,0,0,0,0,0,0,0,0,0,0,0,0,0,0,0,0,0,0,0,0,0,0,0,0,0,0,0,0,0,0,0,0,0,0,0,0,0
"Ind32","6_0_0",69,4,4,4,5,5,5,4,4,5,5,5,5,4,4,4,4,3,3,3,3,3,3,3,3,0,0,0,0,0,0,-1,0,0,0,0,0,0,0,0,0,0,0,0,0,0,0,0,0,0,0,0,0,0,0,0,0,0,0,0,0,0,0,0,0,0,0,0,0,0,0,0,0,0,0,0,0,0,0,0,0,0,0,0,0,0,0,0,0,0,0,0,0,0,0,0,0
"Ind33","6_0_5",69,4,4,4,5,5,5,4,4,5,5,5,5,4,4,4,4,3,3,3,3,3,3,3,3,0,0,0,0,0,0,0,-1,0,0,0,0,0,0,0,0,0,0,0,0,0,0,0,0,0,0,0,0,0,0,0,0,0,0,0,0,0,0,0,0,0,0,0,0,0,0,0,0,0,0,0,0,0,0,0,0,0,0,0,0,0,0,0,0,0,0,0,0,0,0,0,0
"Ind34","6_0_7",69,4,4,4,5,5,5,4,4,5,5,5,5,4,4,4,4,3,3,3,3,3,3,3,3,0,0,0,0,0,0,0,0,-1,0,0,0,0,0,0,0,0,0,0,0,0,0,0,0,0,0,0,0,0,0,0,0,0,0,0,0,0,0,0,0,0,0,0,0,0,0,0,0,0,0,0,0,0,0,0,0,0,0,0,0,0,0,0,0,0,0,0,0,0,0,0,0
"Ind35","6_0_6",69,4,4,4,5,5,5,4,4,5,5,5,5,4,4,4,4,3,3,3,3,3,3,3,3,0,0,0,0,0,0,0,0,0,-1,0,0,0,0,0,0,0,0,0,0,0,0,0,0,0,0,0,0,0,0,0,0,0,0,0,0,0,0,0,0,0,0,0,0,0,0,0,0,0,0,0,0,0,0,0,0,0,0,0,0,0,0,0,0,0,0,0,0,0,0,0,0
"Ind36","6_0_11",69,4,4,4,5,5,5,4,4,5,5,5,5,4,4,4,4,3,3,3,3,3,3,3,3,0,0,0,0,0,0,0,0,0,0,-1,0,0,0,0,0,0,0,0,0,0,0,0,0,0,0,0,0,0,0,0,0,0,0,0,0,0,0,0,0,0,0,0,0,0,0,0,0,0,0,0,0,0,0,0,0,0,0,0,0,0,0,0,0,0,0,0,0,0,0,0,0
"Ind37","6_0_3",69,4,4,4,5,5,5,4,4,5,5,5,5,4,4,4,4,3,3,3,3,3,3,3,3,0,0,0,0,0,0,0,0,0,0,0,-1,0,0,0,0,0,0,0,0,0,0,0,0,0,0,0,0,0,0,0,0,0,0,0,0,0,0,0,0,0,0,0,0,0,0,0,0,0,0,0,0,0,0,0,0,0,0,0,0,0,0,0,0,0,0,0,0,0,0,0,0
"Ind38","2_0_8",70,43,43,43,44,44,44,43,43,44,44,44,44,43,43,43,43,42,42,42,42,42,42,42,42,41,41,41,41,41,41,41,41,41,41,41,41,-1,0,0,0,0,0,0,0,0,0,0,0,0,0,0,0,0,0,0,0,0,0,0,0,0,0,0,0,0,0,0,0,0,0,0,0,0,0,0,0,0,0,0,0,0,0,0,0,0,0,0,0,0,0,0,0,0,0,0,0
"Ind39","2_0_10",70,43,43,43,44,44,44,43,43,44,44,44,44,43,43,43,43,42,42,42,42,42,42,42,42,41,41,41,41,41,41,41,41,41,41,41,41,0,-1,0,0,0,0,0,0,0,0,0,0,0,0,0,0,0,0,0,0,0,0,0,0,0,0,0,0,0,0,0,0,0,0,0,0,0,0,0,0,0,0,0,0,0,0,0,0,0,0,0,0,0,0,0,0,0,0,0,0
"Ind40","2_0_7",70,43,43,43,44,44,44,43,43,44,44,44,44,43,43,43,43,42,42,42,42,42,42,42,42,41,41,41,41,41,41,41,41,41,41,41,41,0,0,-1,0,0,0,0,0,0,0,0,0,0,0,0,0,0,0,0,0,0,0,0,0,0,0,0,0,0,0,0,0,0,0,0,0,0,0,0,0,0,0,0,0,0,0,0,0,0,0,0,0,0,0,0,0,0,0,0,0
"Ind41","2_0_9",70,43,43,43,44,44,44,43,43,44,44,44,44,43,43,43,43,42,42,42,42,42,42,42,42,41,41,41,41,41,41,41,41,41,41,41,41,0,0,0,-1,0,0,0,0,0,0,0,0,0,0,0,0,0,0,0,0,0,0,0,0,0,0,0,0,0,0,0,0,0,0,0,0,0,0,0,0,0,0,0,0,0,0,0,0,0,0,0,0,0,0,0,0,0,0,0,0
"Ind42","2_0_1",70,43,43,43,44,44,44,43,43,44,44,44,44,43,43,43,43,42,42,42,42,42,42,42,42,41,41,41,41,41,41,41,41,41,41,41,41,0,0,0,0,-1,0,0,0,0,0,0,0,0,0,0,0,0,0,0,0,0,0,0,0,0,0,0,0,0,0,0,0,0,0,0,0,0,0,0,0,0,0,0,0,0,0,0,0,0,0,0,0,0,0,0,0,0,0,0,0
"Ind43","2_0_11",70,43,43,43,44,44,44,43,43,44,44,44,44,43,43,43,43,42,42,42,42,42,42,42,42,41,41,41,41,41,41,41,41,41,41,41,41,0,0,0,0,0,-1,0,0,0,0,0,0,0,0,0,0,0,0,0,0,0,0,0,0,0,0,0,0,0,0,0,0,0,0,0,0,0,0,0,0,0,0,0,0,0,0,0,0,0,0,0,0,0,0,0,0,0,0,0,0
"Ind44","2_0_5",70,43,43,43,44,44,44,43,43,44,44,44,44,43,43,43,43,42,42,42,42,42,42,42,42,41,41,41,41,41,41,41,41,41,41,41,41,0,0,0,0,0,0,-1,0,0,0,0,0,0,0,0,0,0,0,0,0,0,0,0,0,0,0,0,0,0,0,0,0,0,0,0,0,0,0,0,0,0,0,0,0,0,0,0,0,0,0,0,0,0,0,0,0,0,0,0,0
"Ind45","2_0_0",70,43,43,43,44,44,44,43,43,44,44,44,44,43,43,43,43,42,42,42,42,42,42,42,42,41,41,41,41,41,41,41,41,41,41,41,41,0,0,0,0,0,0,0,-1,0,0,0,0,0,0,0,0,0,0,0,0,0,0,0,0,0,0,0,0,0,0,0,0,0,0,0,0,0,0,0,0,0,0,0,0,0,0,0,0,0,0,0,0,0,0,0,0,0,0,0,0
"Ind46","2_0_2",70,43,43,43,44,44,44,43,43,44,44,44,44,43,43,43,43,42,42,42,42,42,42,42,42,41,41,41,41,41,41,41,41,41,41,41,41,0,0,0,0,0,0,0,0,-1,0,0,0,0,0,0,0,0,0,0,0,0,0,0,0,0,0,0,0,0,0,0,0,0,0,0,0,0,0,0,0,0,0,0,0,0,0,0,0,0,0,0,0,0,0,0,0,0,0,0,0
"Ind47","2_0_4",70,43,43,43,44,44,44,43,43,44,44,44,44,43,43,43,43,42,42,42,42,42,42,42,42,41,41,41,41,41,41,41,41,41,41,41,41,0,0,0,0,0,0,0,0,0,-1,0,0,0,0,0,0,0,0,0,0,0,0,0,0,0,0,0,0,0,0,0,0,0,0,0,0,0,0,0,0,0,0,0,0,0,0,0,0,0,0,0,0,0,0,0,0,0,0,0,0
"Ind48","2_0_6",70,43,43,43,44,44,44,43,43,44,44,44,44,43,43,43,43,42,42,42,42,42,42,42,42,41,41,41,41,41,41,41,41,41,41,41,41,0,0,0,0,0,0,0,0,0,0,-1,0,0,0,0,0,0,0,0,0,0,0,0,0,0,0,0,0,0,0,0,0,0,0,0,0,0,0,0,0,0,0,0,0,0,0,0,0,0,0,0,0,0,0,0,0,0,0,0,0
"Ind49","2_0_3",70,43,43,43,44,44,44,43,43,44,44,44,44,43,43,43,43,42,42,42,42,42,42,42,42,41,41,41,41,41,41,41,41,41,41,41,41,0,0,0,0,0,0,0,0,0,0,0,-1,0,0,0,0,0,0,0,0,0,0,0,0,0,0,0,0,0,0,0,0,0,0,0,0,0,0,0,0,0,0,0,0,0,0,0,0,0,0,0,0,0,0,0,0,0,0,0,0
"Ind50","3_0_0",71,44,44,44,45,45,45,44,44,45,45,45,45,42,42,42,42,43,43,43,43,43,43,43,43,42,42,42,42,42,42,42,42,42,42,42,42,3,3,3,3,3,3,3,3,3,3,3,3,-1,0,0,0,0,0,0,0,0,0,0,0,0,0,0,0,0,0,0,0,0,0,0,0,0,0,0,0,0,0,0,0,0,0,0,0,0,0,0,0,0,0,0,0,0,0,0,0
"Ind51","3_0_8",71,44,44,44,45,45,45,44,44,45,45,45,45,42,42,42,42,43,43,43,43,43,43,43,43,42,42,42,42,42,42,42,42,42,42,42,42,3,3,3,3,3,3,3,3,3,3,3,3,0,-1,0,0,0,0,0,0,0,0,0,0,0,0,0,0,0,0,0,0,0,0,0,0,0,0,0,0,0,0,0,0,0,0,0,0,0,0,0,0,0,0,0,0,0,0,0,0
"Ind52","3_0_2",71,44,44,44,45,45,45,44,44,45,45,45,45,42,42,42,42,43,43,43,43,43,43,43,43,42,42,42,42,42,42,42,42,42,42,42,42,3,3,3,3,3,3,3,3,3,3,3,3,0,0,-1,0,0,0,0,0,0,0,0,0,0,0,0,0,0,0,0,0,0,0,0,0,0,0,0,0,0,0,0,0,0,0,0,0,0,0,0,0,0,0,0,0,0,0,0,0
"Ind53","3_0_4",72,45,45,45,46,46,46,45,45,46,46,46,46,43,43,43,43,44,44,44,44,44,44,44,44,43,43,43,43,43,43,43,43,43,43,43,43,4,4,4,4,4,4,4,4,4,4,4,4,1,1,1,-1,0,0,0,0,0,0,0,0,0,0,0,0,0,0,0,0,0,0,0,0,0,0,0,0,0,0,0,0,0,0,0,0,0,0,0,0,0,0,0,0,0,0,0,0
"Ind54","3_0_6",72,45,45,45,46,46,46,45,45,46,46,46,46,43,43,43,43,44,44,44,44,44,44,44,44,43,43,43,43,43,43,43,43,43,43,43,43,4,4,4,4,4,4,4,4,4,4,4,4,1,1,1,0,-1,0,0,0,0,0,0,0,0,0,0,0,0,0,0,0,0,0,0,0,0,0,0,0,0,0,0,0,0,0,0,0,0,0,0,0,0,0,0,0,0,0,0,0
"Ind55","3_0_11",72,45,45,45,46,46,46,45,45,46,46,46,46,43,43,43,43,44,44,44,44,44,44,44,44,43,43,43,43,43,43,43,43,43,43,43,43,4,4,4,4,4,4,4,4,4,4,4,4,1,1,1,0,0,-1,0,0,0,0,0,0,0,0,0,0,0,0,0,0,0,0,0,0,0,0,0,0,0,0,0,0,0,0,0,0,0,0,0,0,0,0,0,0,0,0,0,0
"Ind56","3_0_5",72,45,45,45,46,46,46,45,45,46,46,46,46,43,43,43,43,44,44,44,44,44,44,44,44,43,43,43,43,43,43,43,43,43,43,43,43,4,4,4,4,4,4,4,4,4,4,4,4,1,1,1,0,0,0,-1,0,0,0,0,0,0,0,0,0,0,0,0,0,0,0,0,0,0,0,0,0,0,0,0,0,0,0,0,0,0,0,0,0,0,0,0,0,0,0,0,0
"Ind57","3_0_1",71,44,44,44,45,45,45,44,44,45,45,45,45,42,42,42,42,43,43,43,43,43,43,43,43,42,42,42,42,42,42,42,42,42,42,42,42,3,3,3,3,3,3,3,3,3,3,3,3,0,0,0,1,1,1,1,-1,0,0,0,0,0,0,0,0,0,0,0,0,0,0,0,0,0,0,0,0,0,0,0,0,0,0,0,0,0,0,0,0,0,0,0,0,0,0,0,0
"Ind58","3_0_10",71,44,44,44,45,45,45,44,44,45,45,45,45,42,42,42,42,43,43,43,43,43,43,43,43,42,42,42,42,42,42,42,42,42,42,42,42,3,3,3,3,3,3,3,3,3,3,3,3,0,0,0,1,1,1,1,0,-1,0,0,0,0,0,0,0,0,0,0,0,0,0,0,0,0,0,0,0,0,0,0,0,0,0,0,0,0,0,0,0,0,0,0,0,0,0,0,0
"Ind59","3_0_9",71,44,44,44,45,45,45,44,44,45,45,45,45,42,42,42,42,43,43,43,43,43,43,43,43,42,42,42,42,42,42,42,42,42,42,42,42,3,3,3,3,3,3,3,3,3,3,3,3,0,0,0,1,1,1,1,0,0,-1,0,0,0,0,0,0,0,0,0,0,0,0,0,0,0,0,0,0,0,0,0,0,0,0,0,0,0,0,0,0,0,0,0,0,0,0,0,0
"Ind60","3_0_7",71,44,44,44,45,45,45,44,44,45,45,45,45,42,42,42,42,43,43,43,43,43,43,43,43,42,42,42,42,42,42,42,42,42,42,42,42,3,3,3,3,3,3,3,3,3,3,3,3,0,0,0,1,1,1,1,0,0,0,-1,0,0,0,0,0,0,0,0,0,0,0,0,0,0,0,0,0,0,0,0,0,0,0,0,0,0,0,0,0,0,0,0,0,0,0,0,0
"Ind61","3_0_3",71,44,44,44,45,45,45,44,44,45,45,45,45,42,42,42,42,43,43,43,43,43,43,43,43,42,42,42,42,42,42,42,42,42,42,42,42,3,3,3,3,3,3,3,3,3,3,3,3,0,0,0,1,1,1,1,0,0,0,0,-1,0,0,0,0,0,0,0,0,0,0,0,0,0,0,0,0,0,0,0,0,0,0,0,0,0,0,0,0,0,0,0,0,0,0,0,0
"Ind62","5_0_10",69,42,42,42,43,43,43,42,42,43,43,43,43,42,42,42,42,41,41,41,41,41,41,41,41,40,40,40,40,40,40,40,40,40,40,40,40,3,3,3,3,3,3,3,3,3,3,3,3,4,4,4,5,5,5,5,4,4,4,4,4,-1,0,0,0,0,0,0,0,0,0,0,0,0,0,0,0,0,0,0,0,0,0,0,0,0,0,0,0,0,0,0,0,0,0,0,0
"Ind63","5_0_2",69,42,42,42,43,43,43,42,42,43,43,43,43,42,42,42,42,41,41,41,41,41,41,41,41,40,40,40,40,40,40,40,40,40,40,40,40,3,3,3,3,3,3,3,3,3,3,3,3,4,4,4,5,5,5,5,4,4,4,4,4,0,-1,0,0,0,0,0,0,0,0,0,0,0,0,0,0,0,0,0,0,0,0,0,0,0,0,0,0,0,0,0,0,0,0,0,0
"Ind64","5_0_4",69,42,42,42,43,43,43,42,42,43,43,43,43,42,42,42,42,41,41,41,41,41,41,41,41,40,40,40,40,40,40,40,40,40,40,40,40,3,3,3,3,3,3,3,3,3,3,3,3,4,4,4,5,5,5,5,4,4,4,4,4,0,0,-1,0,0,0,0,0,0,0,0,0,0,0,0,0,0,0,0,0,0,0,0,0,0,0,0,0,0,0,0,0,0,0,0,0
"Ind65","5_0_9",70,43,43,43,44,44,44,43,43,44,44,44,44,43,43,43,43,42,42,42,42,42,42,42,42,41,41,41,41,41,41,41,41,41,41,41,41,4,4,4,4,4,4,4,4,4,4,4,4,5,5,5,6,6,6,6,5,5,5,5,5,1,1,1,-1,0,0,0,0,0,0,0,0,0,0,0,0,0,0,0,0,0,0,0,0,0,0,0,0,0,0,0,0,0,0,0,0
"Ind66","5_0_1",69,42,42,42,43,43,43,42,42,43,43,43,43,42,42,42,42,41,41,41,41,41,41,41,41,40,40,40,40,40,40,40,40,40,40,40,40,3,3,3,3,3,3,3,3,3,3,3,3,4,4,4,5,5,5,5,4,4,4,4,4,0,0,0,1,-1,0,0,0,0,0,0,0,0,0,0,0,0,0,0,0,0,0,0,0,0,0,0,0,0,0,0,0,0,0,0,0
"Ind67","5_0_8",69,42,42,42,43,43,43,42,42,43,43,43,43,42,42,42,42,41,41,41,41,41,41,41,41,40,40,40,40,40,40,40,40,40,40,40,40,3,3,3,3,3,3,3,3,3,3,3,3,4,4,4,5,5,5,5,4,4,4,4,4,0,0,0,1,0,-1,0,0,0,0,0,0,0,0,0,0,0,0,0,0,0,0,0,0,0,0,0,0,0,0,0,0,0,0,0,0
"Ind68","5_0_5",69,42,42,42,43,43,43,42,42,43,43,43,43,42,42,42,42,41,41,41,41,41,41,41,41,40,40,40,40,40,40,40,40,40,40,40,40,3,3,3,3,3,3,3,3,3,3,3,3,4,4,4,5,5,5,5,4,4,4,4,4,0,0,0,1,0,0,-1,0,0,0,0,0,0,0,0,0,0,0,0,0,0,0,0,0,0,0,0,0,0,0,0,0,0,0,0,0
"Ind69","5_0_7",69,42,42,42,43,43,43,42,42,43,43,43,43,42,42,42,42,41,41,41,41,41,41,41,41,40,40,40,40,40,40,40,40,40,40,40,40,3,3,3,3,3,3,3,3,3,3,3,3,4,4,4,5,5,5,5,4,4,4,4,4,0,0,0,1,0,0,0,-1,0,0,0,0,0,0,0,0,0,0,0,0,0,0,0,0,0,0,0,0,0,0,0,0,0,0,0,0
"Ind70","5_0_3",69,42,42,42,43,43,43,42,42,43,43,43,43,42,42,42,42,41,41,41,41,41,41,41,41,40,40,40,40,40,40,40,40,40,40,40,40,3,3,3,3,3,3,3,3,3,3,3,3,4,4,4,5,5,5,5,4,4,4,4,4,0,0,0,1,0,0,0,0,-1,0,0,0,0,0,0,0,0,0,0,0,0,0,0,0,0,0,0,0,0,0,0,0,0,0,0,0
"Ind71","5_0_0",69,42,42,42,43,43,43,42,42,43,43,43,43,42,42,42,42,41,41,41,41,41,41,41,41,40,40,40,40,40,40,40,40,40,40,40,40,3,3,3,3,3,3,3,3,3,3,3,3,4,4,4,5,5,5,5,4,4,4,4,4,0,0,0,1,0,0,0,0,0,-1,0,0,0,0,0,0,0,0,0,0,0,0,0,0,0,0,0,0,0,0,0,0,0,0,0,0
"Ind72","5_0_11",69,42,42,42,43,43,43,42,42,43,43,43,43,42,42,42,42,41,41,41,41,41,41,41,41,40,40,40,40,40,40,40,40,40,40,40,40,3,3,3,3,3,3,3,3,3,3,3,3,4,4,4,5,5,5,5,4,4,4,4,4,0,0,0,1,0,0,0,0,0,0,-1,0,0,0,0,0,0,0,0,0,0,0,0,0,0,0,0,0,0,0,0,0,0,0,0,0
"Ind73","5_0_6",69,42,42,42,43,43,43,42,42,43,43,43,43,42,42,42,42,41,41,41,41,41,41,41,41,40,40,40,40,40,40,40,40,40,40,40,40,3,3,3,3,3,3,3,3,3,3,3,3,4,4,4,5,5,5,5,4,4,4,4,4,0,0,0,1,0,0,0,0,0,0,0,-1,0,0,0,0,0,0,0,0,0,0,0,0,0,0,0,0,0,0,0,0,0,0,0,0
"Ind74","1_0_9",68,39,39,39,40,40,40,39,39,40,40,40,40,39,39,39,39,38,38,38,38,38,38,38,38,37,37,37,37,37,37,37,37,37,37,37,37,4,4,4,4,4,4,4,4,4,4,4,4,5,5,5,6,6,6,6,5,5,5,5,5,5,5,5,6,5,5,5,5,5,5,5,5,-1,0,0,0,0,0,0,0,0,0,0,0,0,0,0,0,0,0,0,0,0,0,0,0
"Ind75","1_0_11",68,39,39,39,40,40,40,39,39,40,40,40,40,39,39,39,39,38,38,38,38,38,38,38,38,37,37,37,37,37,37,37,37,37,37,37,37,4,4,4,4,4,4,4,4,4,4,4,4,5,5,5,6,6,6,6,5,5,5,5,5,5,5,5,6,5,5,5,5,5,5,5,5,0,-1,0,0,0,0,0,0,0,0,0,0,0,0,0,0,0,0,0,0,0,0,0,0
"Ind76","1_0_6",68,39,39,39,40,40,40,39,39,40,40,40,40,39,39,39,39,38,38,38,38,38,38,38,38,37,37,37,37,37,37,37,37,37,37,37,37,4,4,4,4,4,4,4,4,4,4,4,4,5,5,5,6,6,6,6,5,5,5,5,5,5,5,5,6,5,5,5,5,5,5,5,5,0,0,-1,0,0,0,0,0,0,0,0,0,0,0,0,0,0,0,0,0,0,0,0,0
"Ind77","1_0_0",68,39,39,39,40,40,40,39,39,40,40,40,40,39,39,39,39,38,38,38,38,38,38,38,38,37,37,37,37,37,37,37,37,37,37,37,37,4,4,4,4,4,4,4,4,4,4,4,4,5,5,5,6,6,6,6,5,5,5,5,5,5,5,5,6,5,5,5,5,5,5,5,5,0,0,0,-1,0,0,0,0,0,0,0,0,0,0,0,0,0,0,0,0,0,0,0,0
"Ind78","1_0_10",68,39,39,39,40,40,40,39,39,40,40,40,40,39,39,39,39,38,38,38,38,38,38,38,38,37,37,37,37,37,37,37,37,37,37,37,37,4,4,4,4,4,4,4,4,4,4,4,4,5,5,5,6,6,6,6,5,5,5,5,5,5,5,5,6,5,5,5,5,5,5,5,5,0,0,0,0,-1,0,0,0,0,0,0,0,0,0,0,0,0,0,0,0,0,0,0,0
"Ind79","1_0_1",68,39,39,39,40,40,40,39,39,40,40,40,40,39,39,39,39,38,38,38,38,38,38,38,38,37,37,37,37,37,37,37,37,37,37,37,37,4,4,4,4,4,4,4,4,4,4,4,4,5,5,5,6,6,6,6,5,5,5,5,5,5,5,5,6,5,5,5,5,5,5,5,5,0,0,0,0,0,-1,0,0,0,0,0,0,0,0,0,0,0,0,0,0,0,0,0,0
"Ind80","1_0_8",68,39,39,39,40,40,40,39,39,40,40,40,40,39,39,39,39,38,38,38,38,38,38,38,38,37,37,37,37,37,37,37,37,37,37,37,37,4,4,4,4,4,4,4,4,4,4,4,4,5,5,5,6,6,6,6,5,5,5,5,5,5,5,5,6,5,5,5,5,5,5,5,5,0,0,0,0,0,0,-1,0,0,0,0,0,0,0,0,0,0,0,0,0,0,0,0,0
"Ind81","1_0_5",68,39,39,39,40,40,40,39,39,40,40,40,40,39,39,39,39,38,38,38,38,38,38,38,38,37,37,37,37,37,37,37,37,37,37,37,37,4,4,4,4,4,4,4,4,4,4,4,4,5,5,5,6,6,6,6,5,5,5,5,5,5,5,5,6,5,5,5,5,5,5,5,5,0,0,0,0,0,0,0,-1,0,0,0,0,0,0,0,0,0,0,0,0,0,0,0,0
"Ind82","1_0_3",68,39,39,39,40,40,40,39,39,40,40,40,40,39,39,39,39,38,38,38,38,38,38,38,38,37,37,37,37,37,37,37,37,37,37,37,37,4,4,4,4,4,4,4,4,4,4,4,4,5,5,5,6,6,6,6,5,5,5,5,5,5,5,5,6,5,5,5,5,5,5,5,5,0,0,0,0,0,0,0,0,-1,0,0,0,0,0,0,0,0,0,0,0,0,0,0,0
"Ind83","1_0_4",68,39,39,39,40,40,40,39,39,40,40,40,40,39,39,39,39,38,38,38,38,38,38,38,38,37,37,37,37,37,37,37,37,37,37,37,37,4,4,4,4,4,4,4,4,4,4,4,4,5,5,5,6,6,6,6,5,5,5,5,5,5,5,5,6,5,5,5,5,5,5,5,5,0,0,0,0,0,0,0,0,0,-1,0,0,0,0,0,0,0,0,0,0,0,0,0,0
"Ind84","1_0_7",68,39,39,39,40,40,40,39,39,40,40,40,40,39,39,39,39,38,38,38,38,38,38,38,38,37,37,37,37,37,37,37,37,37,37,37,37,4,4,4,4,4,4,4,4,4,4,4,4,5,5,5,6,6,6,6,5,5,5,5,5,5,5,5,6,5,5,5,5,5,5,5,5,0,0,0,0,0,0,0,0,0,0,-1,0,0,0,0,0,0,0,0,0,0,0,0,0
"Ind85","1_0_2",68,39,39,39,40,40,40,39,39,40,40,40,40,39,39,39,39,38,38,38,38,38,38,38,38,37,37,37,37,37,37,37,37,37,37,37,37,4,4,4,4,4,4,4,4,4,4,4,4,5,5,5,6,6,6,6,5,5,5,5,5,5,5,5,6,5,5,5,5,5,5,5,5,0,0,0,0,0,0,0,0,0,0,0,-1,0,0,0,0,0,0,0,0,0,0,0,0
"Ind86","4_0_2",69,42,42,42,43,43,43,42,42,43,43,43,43,42,42,42,42,41,41,41,41,41,41,41,41,40,40,40,40,40,40,40,40,40,40,40,40,7,7,7,7,7,7,7,7,7,7,7,7,8,8,8,9,9,9,9,8,8,8,8,8,8,8,8,9,8,8,8,8,8,8,8,8,3,3,3,3,3,3,3,3,3,3,3,3,-1,0,0,0,0,0,0,0,0,0,0,0
"Ind87","4_0_1",69,42,42,42,43,43,43,42,42,43,43,43,43,42,42,42,42,41,41,41,41,41,41,41,41,40,40,40,40,40,40,40,40,40,40,40,40,7,7,7,7,7,7,7,7,7,7,7,7,8,8,8,9,9,9,9,8,8,8,8,8,8,8,8,9,8,8,8,8,8,8,8,8,3,3,3,3,3,3,3,3,3,3,3,3,0,-1,0,0,0,0,0,0,0,0,0,0
"Ind88","4_0_4",69,42,42,42,43,43,43,42,42,43,43,43,43,42,42,42,42,41,41,41,41,41,41,41,41,40,40,40,40,40,40,40,40,40,40,40,40,7,7,7,7,7,7,7,7,7,7,7,7,8,8,8,9,9,9,9,8,8,8,8,8,8,8,8,9,8,8,8,8,8,8,8,8,3,3,3,3,3,3,3,3,3,3,3,3,0,0,-1,0,0,0,0,0,0,0,0,0
"Ind89","4_0_5",69,42,42,42,43,43,43,42,42,43,43,43,43,42,42,42,42,41,41,41,41,41,41,41,41,40,40,40,40,40,40,40,40,40,40,40,40,7,7,7,7,7,7,7,7,7,7,7,7,8,8,8,9,9,9,9,8,8,8,8,8,8,8,8,9,8,8,8,8,8,8,8,8,3,3,3,3,3,3,3,3,3,3,3,3,0,0,0,-1,0,0,0,0,0,0,0,0
"Ind90","4_0_7",69,42,42,42,43,43,43,42,42,43,43,43,43,42,42,42,42,41,41,41,41,41,41,41,41,40,40,40,40,40,40,40,40,40,40,40,40,7,7,7,7,7,7,7,7,7,7,7,7,8,8,8,9,9,9,9,8,8,8,8,8,8,8,8,9,8,8,8,8,8,8,8,8,3,3,3,3,3,3,3,3,3,3,3,3,0,0,0,0,-1,0,0,0,0,0,0,0
"Ind91","4_0_0",69,42,42,42,43,43,43,42,42,43,43,43,43,42,42,42,42,41,41,41,41,41,41,41,41,40,40,40,40,40,40,40,40,40,40,40,40,7,7,7,7,7,7,7,7,7,7,7,7,8,8,8,9,9,9,9,8,8,8,8,8,8,8,8,9,8,8,8,8,8,8,8,8,3,3,3,3,3,3,3,3,3,3,3,3,0,0,0,0,0,-1,0,0,0,0,0,0
"Ind92","4_0_8",69,42,42,42,43,43,43,42,42,43,43,43,43,42,42,42,42,41,41,41,41,41,41,41,41,40,40,40,40,40,40,40,40,40,40,40,40,7,7,7,7,7,7,7,7,7,7,7,7,8,8,8,9,9,9,9,8,8,8,8,8,8,8,8,9,8,8,8,8,8,8,8,8,3,3,3,3,3,3,3,3,3,3,3,3,0,0,0,0,0,0,-1,0,0,0,0,0
"Ind93","4_0_6",69,42,42,42,43,43,43,42,42,43,43,43,43,42,42,42,42,41,41,41,41,41,41,41,41,40,40,40,40,40,40,40,40,40,40,40,40,7,7,7,7,7,7,7,7,7,7,7,7,8,8,8,9,9,9,9,8,8,8,8,8,8,8,8,9,8,8,8,8,8,8,8,8,3,3,3,3,3,3,3,3,3,3,3,3,0,0,0,0,0,0,0,-1,0,0,0,0
"Ind94","4_0_9",69,42,42,42,43,43,43,42,42,43,43,43,43,42,42,42,42,41,41,41,41,41,41,41,41,40,40,40,40,40,40,40,40,40,40,40,40,7,7,7,7,7,7,7,7,7,7,7,7,8,8,8,9,9,9,9,8,8,8,8,8,8,8,8,9,8,8,8,8,8,8,8,8,3,3,3,3,3,3,3,3,3,3,3,3,0,0,0,0,0,0,0,0,-1,0,0,0
"Ind95","4_0_10",69,42,42,42,43,43,43,42,42,43,43,43,43,42,42,42,42,41,41,41,41,41,41,41,41,40,40,40,40,40,40,40,40,40,40,40,40,7,7,7,7,7,7,7,7,7,7,7,7,8,8,8,9,9,9,9,8,8,8,8,8,8,8,8,9,8,8,8,8,8,8,8,8,3,3,3,3,3,3,3,3,3,3,3,3,0,0,0,0,0,0,0,0,0,-1,0,0
"Ind96","4_0_3",69,42,42,42,43,43,43,42,42,43,43,43,43,42,42,42,42,41,41,41,41,41,41,41,41,40,40,40,40,40,40,40,40,40,40,40,40,7,7,7,7,7,7,7,7,7,7,7,7,8,8,8,9,9,9,9,8,8,8,8,8,8,8,8,9,8,8,8,8,8,8,8,8,3,3,3,3,3,3,3,3,3,3,3,3,0,0,0,0,0,0,0,0,0,0,-1,0
"Ind97","4_0_11",69,42,42,42,43,43,43,42,42,43,43,43,43,42,42,42,42,41,41,41,41,41,41,41,41,40,40,40,40,40,40,40,40,40,40,40,40,7,7,7,7,7,7,7,7,7,7,7,7,8,8,8,9,9,9,9,8,8,8,8,8,8,8,8,9,8,8,8,8,8,8,8,8,3,3,3,3,3,3,3,3,3,3,3,3,0,0,0,0,0,0,0,0,0,0,0,-1
