"","Description","Ind1","Ind2","Ind3","Ind4","Ind5","Ind6","Ind7","Ind8","Ind9","Ind10","Ind11","Ind12","Ind13","Ind14","Ind15","Ind16","Ind17","Ind18","Ind19","Ind20","Ind21","Ind22","Ind23","Ind24","Ind25","Ind26","Ind27","Ind28","Ind29","Ind30","Ind31","Ind32","Ind33","Ind34","Ind35","Ind36","Ind37","Ind38","Ind39","Ind40","Ind41","Ind42","Ind43","Ind44","Ind45"
"Ind1","10_0_0",-1,0,0,0,0,0,0,0,0,0,0,0,0,0,0,0,0,0,0,0,0,0,0,0,0,0,0,0,0,0,0,0,0,0,0,0,0,0,0,0,0,0,0,0,0
"Ind2","10_0_3",0,-1,0,0,0,0,0,0,0,0,0,0,0,0,0,0,0,0,0,0,0,0,0,0,0,0,0,0,0,0,0,0,0,0,0,0,0,0,0,0,0,0,0,0,0
"Ind3","10_0_1",0,0,-1,0,0,0,0,0,0,0,0,0,0,0,0,0,0,0,0,0,0,0,0,0,0,0,0,0,0,0,0,0,0,0,0,0,0,0,0,0,0,0,0,0,0
"Ind4","10_0_2",1,1,1,-1,0,0,0,0,0,0,0,0,0,0,0,0,0,0,0,0,0,0,0,0,0,0,0,0,0,0,0,0,0,0,0,0,0,0,0,0,0,0,0,0,0
"Ind5","11_0_2",2,2,2,1,-1,0,0,0,0,0,0,0,0,0,0,0,0,0,0,0,0,0,0,0,0,0,0,0,0,0,0,0,0,0,0,0,0,0,0,0,0,0,0,0,0
"Ind6","11_0_0",2,2,2,1,0,-1,0,0,0,0,0,0,0,0,0,0,0,0,0,0,0,0,0,0,0,0,0,0,0,0,0,0,0,0,0,0,0,0,0,0,0,0,0,0,0
"Ind7","11_0_3",2,2,2,1,0,0,-1,0,0,0,0,0,0,0,0,0,0,0,0,0,0,0,0,0,0,0,0,0,0,0,0,0,0,0,0,0,0,0,0,0,0,0,0,0,0
"Ind8","11_0_1",3,3,3,2,1,1,1,-1,0,0,0,0,0,0,0,0,0,0,0,0,0,0,0,0,0,0,0,0,0,0,0,0,0,0,0,0,0,0,0,0,0,0,0,0,0
"Ind9","9_0_0",2,2,2,1,0,0,0,1,-1,0,0,0,0,0,0,0,0,0,0,0,0,0,0,0,0,0,0,0,0,0,0,0,0,0,0,0,0,0,0,0,0,0,0,0,0
"Ind10","9_0_2",3,3,3,2,1,1,1,2,1,-1,0,0,0,0,0,0,0,0,0,0,0,0,0,0,0,0,0,0,0,0,0,0,0,0,0,0,0,0,0,0,0,0,0,0,0
"Ind11","9_0_3",3,3,3,2,1,1,1,2,1,0,-1,0,0,0,0,0,0,0,0,0,0,0,0,0,0,0,0,0,0,0,0,0,0,0,0,0,0,0,0,0,0,0,0,0,0
"Ind12","9_0_1",2,2,2,1,0,0,0,1,0,1,1,-1,0,0,0,0,0,0,0,0,0,0,0,0,0,0,0,0,0,0,0,0,0,0,0,0,0,0,0,0,0,0,0,0,0
"Ind13","5_0_0",108,108,108,109,108,108,108,107,108,107,107,108,-1,0,0,0,0,0,0,0,0,0,0,0,0,0,0,0,0,0,0,0,0,0,0,0,0,0,0,0,0,0,0,0,0
"Ind14","5_0_1",108,108,108,109,108,108,108,107,108,107,107,108,0,-1,0,0,0,0,0,0,0,0,0,0,0,0,0,0,0,0,0,0,0,0,0,0,0,0,0,0,0,0,0,0,0
"Ind15","5_0_3",108,108,108,109,108,108,108,107,108,107,107,108,0,0,-1,0,0,0,0,0,0,0,0,0,0,0,0,0,0,0,0,0,0,0,0,0,0,0,0,0,0,0,0,0,0
"Ind16","5_0_2",112,112,112,113,112,112,112,111,112,111,111,112,4,4,4,-1,0,0,0,0,0,0,0,0,0,0,0,0,0,0,0,0,0,0,0,0,0,0,0,0,0,0,0,0,0
"Ind17","7_0_2",108,108,108,109,108,108,108,107,108,107,107,108,0,0,0,4,-1,0,0,0,0,0,0,0,0,0,0,0,0,0,0,0,0,0,0,0,0,0,0,0,0,0,0,0,0
"Ind18","7_0_1",108,108,108,109,108,108,108,107,108,107,107,108,0,0,0,4,0,-1,0,0,0,0,0,0,0,0,0,0,0,0,0,0,0,0,0,0,0,0,0,0,0,0,0,0,0
"Ind19","7_0_0",108,108,108,109,108,108,108,107,108,107,107,108,0,0,0,4,0,0,-1,0,0,0,0,0,0,0,0,0,0,0,0,0,0,0,0,0,0,0,0,0,0,0,0,0,0
"Ind20","7_0_3",108,108,108,109,108,108,108,107,108,107,107,108,0,0,0,4,0,0,0,-1,0,0,0,0,0,0,0,0,0,0,0,0,0,0,0,0,0,0,0,0,0,0,0,0,0
"Ind21","8_0_3",108,108,108,109,108,108,108,107,108,107,107,108,0,0,0,4,0,0,0,0,-1,0,0,0,0,0,0,0,0,0,0,0,0,0,0,0,0,0,0,0,0,0,0,0,0
"Ind22","8_0_0",108,108,108,109,108,108,108,107,108,107,107,108,0,0,0,4,0,0,0,0,0,-1,0,0,0,0,0,0,0,0,0,0,0,0,0,0,0,0,0,0,0,0,0,0,0
"Ind23","3_0_1",108,108,108,109,108,108,108,107,108,107,107,108,0,0,0,4,0,0,0,0,0,0,-1,0,0,0,0,0,0,0,0,0,0,0,0,0,0,0,0,0,0,0,0,0,0
"Ind24","3_0_2",108,108,108,109,108,108,108,107,108,107,107,108,0,0,0,4,0,0,0,0,0,0,0,-1,0,0,0,0,0,0,0,0,0,0,0,0,0,0,0,0,0,0,0,0,0
"Ind25","3_0_3",109,109,109,110,109,109,109,108,109,108,108,109,1,1,1,5,1,1,1,1,1,1,1,1,-1,0,0,0,0,0,0,0,0,0,0,0,0,0,0,0,0,0,0,0,0
"Ind26","3_0_0",109,109,109,110,109,109,109,108,109,108,108,109,1,1,1,5,1,1,1,1,1,1,1,1,0,-1,0,0,0,0,0,0,0,0,0,0,0,0,0,0,0,0,0,0,0
"Ind27","8_0_2",108,108,108,109,108,108,108,107,108,107,107,108,0,0,0,4,0,0,0,0,0,0,0,0,1,1,-1,0,0,0,0,0,0,0,0,0,0,0,0,0,0,0,0,0,0
"Ind28","8_0_1",108,108,108,109,108,108,108,107,108,107,107,108,0,0,0,4,0,0,0,0,0,0,0,0,1,1,0,-1,0,0,0,0,0,0,0,0,0,0,0,0,0,0,0,0,0
"Ind29","4_0_1",108,108,108,109,108,108,108,107,108,107,107,108,0,0,0,4,0,0,0,0,0,0,0,0,1,1,0,0,-1,0,0,0,0,0,0,0,0,0,0,0,0,0,0,0,0
"Ind30","4_0_0",108,108,108,109,108,108,108,107,108,107,107,108,0,0,0,4,0,0,0,0,0,0,0,0,1,1,0,0,0,-1,0,0,0,0,0,0,0,0,0,0,0,0,0,0,0
"Ind31","4_0_2",109,109,109,110,109,109,109,108,109,108,108,109,1,1,1,5,1,1,1,1,1,1,1,1,2,2,1,1,1,1,-1,0,0,0,0,0,0,0,0,0,0,0,0,0,0
"Ind32","4_0_3",109,109,109,110,109,109,109,108,109,108,108,109,1,1,1,5,1,1,1,1,1,1,1,1,2,2,1,1,1,1,0,-1,0,0,0,0,0,0,0,0,0,0,0,0,0
"Ind33","2_0_2",112,112,112,113,112,112,112,111,112,111,111,112,8,8,8,12,8,8,8,8,8,8,8,8,9,9,8,8,8,8,9,9,-1,0,0,0,0,0,0,0,0,0,0,0,0
"Ind34","2_0_1",110,110,110,111,110,110,110,109,110,109,109,110,6,6,6,10,6,6,6,6,6,6,6,6,7,7,6,6,6,6,7,7,2,-1,0,0,0,0,0,0,0,0,0,0,0
"Ind35","2_0_3",109,109,109,110,109,109,109,108,109,108,108,109,7,7,7,11,7,7,7,7,7,7,7,7,8,8,7,7,7,7,8,8,3,1,-1,0,0,0,0,0,0,0,0,0,0
"Ind36","2_0_0",109,109,109,110,109,109,109,108,109,108,108,109,7,7,7,11,7,7,7,7,7,7,7,7,8,8,7,7,7,7,8,8,3,1,0,-1,0,0,0,0,0,0,0,0,0
"Ind37","6_0_1",108,108,108,109,108,108,108,107,108,107,107,108,4,4,4,8,4,4,4,4,4,4,4,4,5,5,4,4,4,4,5,5,6,4,5,5,-1,0,0,0,0,0,0,0,0
"Ind38","6_0_0",108,108,108,109,108,108,108,107,108,107,107,108,4,4,4,8,4,4,4,4,4,4,4,4,5,5,4,4,4,4,5,5,6,4,5,5,0,-1,0,0,0,0,0,0,0
"Ind39","6_0_3",108,108,108,109,108,108,108,107,108,107,107,108,4,4,4,8,4,4,4,4,4,4,4,4,5,5,4,4,4,4,5,5,6,4,5,5,0,0,-1,0,0,0,0,0,0
"Ind40","6_0_2",108,108,108,109,108,108,108,107,108,107,107,108,4,4,4,8,4,4,4,4,4,4,4,4,5,5,4,4,4,4,5,5,6,4,5,5,0,0,0,-1,0,0,0,0,0
"Ind41","1_0_0",108,108,108,109,108,108,108,107,108,107,107,108,4,4,4,8,4,4,4,4,4,4,4,4,5,5,4,4,4,4,5,5,6,4,5,5,0,0,0,0,-1,0,0,0,0
"Ind42","1_0_3",108,108,108,109,108,108,108,107,108,107,107,108,4,4,4,8,4,4,4,4,4,4,4,4,5,5,4,4,4,4,5,5,6,4,5,5,0,0,0,0,0,-1,0,0,0
"Ind43","1_0_2",109,109,109,110,109,109,109,108,109,108,108,109,3,3,3,7,3,3,3,3,3,3,3,3,4,4,3,3,3,3,4,4,5,3,4,4,1,1,1,1,1,1,-1,0,0
"Ind44","1_0_1",109,109,109,110,109,109,109,108,109,108,108,109,3,3,3,7,3,3,3,3,3,3,3,3,4,4,3,3,3,3,4,4,5,3,4,4,1,1,1,1,1,1,0,-1,0
"Ind45","0_0_0",135,135,135,134,133,133,133,134,133,134,134,133,152,152,152,152,152,152,152,152,152,152,152,152,153,153,152,152,152,152,153,153,154,152,153,153,150,150,150,150,150,150,151,151,-1
