"","Description","Ind1","Ind2","Ind3","Ind4","Ind5","Ind6","Ind7","Ind8","Ind9","Ind10","Ind11","Ind12","Ind13","Ind14","Ind15","Ind16","Ind17","Ind18","Ind19","Ind20","Ind21","Ind22","Ind23","Ind24","Ind25","Ind26","Ind27","Ind28","Ind29","Ind30","Ind31","Ind32","Ind33","Ind34"
"Ind1","0_0_0",-1,0,0,0,0,0,0,0,0,0,0,0,0,0,0,0,0,0,0,0,0,0,0,0,0,0,0,0,0,0,0,0,0,0
"Ind2","2_0_2",201,-1,0,0,0,0,0,0,0,0,0,0,0,0,0,0,0,0,0,0,0,0,0,0,0,0,0,0,0,0,0,0,0,0
"Ind3","7_0_0",202,1,-1,0,0,0,0,0,0,0,0,0,0,0,0,0,0,0,0,0,0,0,0,0,0,0,0,0,0,0,0,0,0,0
"Ind4","7_0_2",201,0,1,-1,0,0,0,0,0,0,0,0,0,0,0,0,0,0,0,0,0,0,0,0,0,0,0,0,0,0,0,0,0,0
"Ind5","7_0_1",201,0,1,0,-1,0,0,0,0,0,0,0,0,0,0,0,0,0,0,0,0,0,0,0,0,0,0,0,0,0,0,0,0,0
"Ind6","2_0_0",201,0,1,0,0,-1,0,0,0,0,0,0,0,0,0,0,0,0,0,0,0,0,0,0,0,0,0,0,0,0,0,0,0,0
"Ind7","1_0_2",201,0,1,0,0,0,-1,0,0,0,0,0,0,0,0,0,0,0,0,0,0,0,0,0,0,0,0,0,0,0,0,0,0,0
"Ind8","3_0_0",201,0,1,0,0,0,0,-1,0,0,0,0,0,0,0,0,0,0,0,0,0,0,0,0,0,0,0,0,0,0,0,0,0,0
"Ind9","6_0_1",201,0,1,0,0,0,0,0,-1,0,0,0,0,0,0,0,0,0,0,0,0,0,0,0,0,0,0,0,0,0,0,0,0,0
"Ind10","6_0_2",201,0,1,0,0,0,0,0,0,-1,0,0,0,0,0,0,0,0,0,0,0,0,0,0,0,0,0,0,0,0,0,0,0,0
"Ind11","6_0_0",201,0,1,0,0,0,0,0,0,0,-1,0,0,0,0,0,0,0,0,0,0,0,0,0,0,0,0,0,0,0,0,0,0,0
"Ind12","2_0_1",201,0,1,0,0,0,0,0,0,0,0,-1,0,0,0,0,0,0,0,0,0,0,0,0,0,0,0,0,0,0,0,0,0,0
"Ind13","3_0_2",201,0,1,0,0,0,0,0,0,0,0,0,-1,0,0,0,0,0,0,0,0,0,0,0,0,0,0,0,0,0,0,0,0,0
"Ind14","4_0_0",201,0,1,0,0,0,0,0,0,0,0,0,0,-1,0,0,0,0,0,0,0,0,0,0,0,0,0,0,0,0,0,0,0,0
"Ind15","1_0_1",200,1,2,1,1,1,1,1,1,1,1,1,1,1,-1,0,0,0,0,0,0,0,0,0,0,0,0,0,0,0,0,0,0,0
"Ind16","1_0_0",200,1,2,1,1,1,1,1,1,1,1,1,1,1,0,-1,0,0,0,0,0,0,0,0,0,0,0,0,0,0,0,0,0,0
"Ind17","3_0_1",200,1,2,1,1,1,1,1,1,1,1,1,1,1,0,0,-1,0,0,0,0,0,0,0,0,0,0,0,0,0,0,0,0,0
"Ind18","4_0_1",200,1,2,1,1,1,1,1,1,1,1,1,1,1,0,0,0,-1,0,0,0,0,0,0,0,0,0,0,0,0,0,0,0,0
"Ind19","4_0_2",200,1,2,1,1,1,1,1,1,1,1,1,1,1,0,0,0,0,-1,0,0,0,0,0,0,0,0,0,0,0,0,0,0,0
"Ind20","5_0_2",201,2,3,2,2,2,2,2,2,2,2,2,2,2,1,1,1,1,1,-1,0,0,0,0,0,0,0,0,0,0,0,0,0,0
"Ind21","5_0_1",201,0,1,0,0,0,0,0,0,0,0,0,0,0,1,1,1,1,1,2,-1,0,0,0,0,0,0,0,0,0,0,0,0,0
"Ind22","5_0_0",202,1,2,1,1,1,1,1,1,1,1,1,1,1,2,2,2,2,2,3,1,-1,0,0,0,0,0,0,0,0,0,0,0,0
"Ind23","11_0_1",199,78,79,78,78,78,78,78,78,78,78,78,78,78,79,79,79,79,79,80,78,79,-1,0,0,0,0,0,0,0,0,0,0,0
"Ind24","8_0_1",198,77,78,77,77,77,77,77,77,77,77,77,77,77,78,78,78,78,78,79,77,78,1,-1,0,0,0,0,0,0,0,0,0,0
"Ind25","11_0_0",197,76,77,76,76,76,76,76,76,76,76,76,76,76,77,77,77,77,77,78,76,77,2,1,-1,0,0,0,0,0,0,0,0,0
"Ind26","8_0_2",197,76,77,76,76,76,76,76,76,76,76,76,76,76,77,77,77,77,77,78,76,77,2,1,0,-1,0,0,0,0,0,0,0,0
"Ind27","9_0_1",197,76,77,76,76,76,76,76,76,76,76,76,76,76,77,77,77,77,77,78,76,77,2,1,0,0,-1,0,0,0,0,0,0,0
"Ind28","9_0_0",197,76,77,76,76,76,76,76,76,76,76,76,76,76,77,77,77,77,77,78,76,77,2,1,0,0,0,-1,0,0,0,0,0,0
"Ind29","11_0_2",197,76,77,76,76,76,76,76,76,76,76,76,76,76,77,77,77,77,77,78,76,77,2,1,0,0,0,0,-1,0,0,0,0,0
"Ind30","10_0_2",197,76,77,76,76,76,76,76,76,76,76,76,76,76,77,77,77,77,77,78,76,77,2,1,0,0,0,0,0,-1,0,0,0,0
"Ind31","10_0_0",197,76,77,76,76,76,76,76,76,76,76,76,76,76,77,77,77,77,77,78,76,77,2,1,0,0,0,0,0,0,-1,0,0,0
"Ind32","8_0_0",197,76,77,76,76,76,76,76,76,76,76,76,76,76,77,77,77,77,77,78,76,77,2,1,0,0,0,0,0,0,0,-1,0,0
"Ind33","10_0_1",197,76,77,76,76,76,76,76,76,76,76,76,76,76,77,77,77,77,77,78,76,77,2,1,0,0,0,0,0,0,0,0,-1,0
"Ind34","9_0_2",197,76,77,76,76,76,76,76,76,76,76,76,76,76,77,77,77,77,77,78,76,77,2,1,0,0,0,0,0,0,0,0,0,-1
