"","Description","Ind1","Ind2","Ind3","Ind4","Ind5","Ind6","Ind7","Ind8","Ind9","Ind10","Ind11","Ind12","Ind13","Ind14","Ind15","Ind16","Ind17","Ind18","Ind19","Ind20","Ind21","Ind22","Ind23","Ind24","Ind25","Ind26","Ind27","Ind28","Ind29","Ind30","Ind31","Ind32","Ind33","Ind34","Ind35","Ind36","Ind37","Ind38","Ind39","Ind40","Ind41","Ind42","Ind43","Ind44","Ind45","Ind46","Ind47","Ind48","Ind49","Ind50","Ind51","Ind52","Ind53","Ind54","Ind55","Ind56","Ind57","Ind58","Ind59","Ind60","Ind61","Ind62","Ind63","Ind64","Ind65","Ind66","Ind67","Ind68","Ind69","Ind70","Ind71","Ind72","Ind73"
"Ind1","9_0_7",-1,0,0,0,0,0,0,0,0,0,0,0,0,0,0,0,0,0,0,0,0,0,0,0,0,0,0,0,0,0,0,0,0,0,0,0,0,0,0,0,0,0,0,0,0,0,0,0,0,0,0,0,0,0,0,0,0,0,0,0,0,0,0,0,0,0,0,0,0,0,0,0,0
"Ind2","9_0_1",0,-1,0,0,0,0,0,0,0,0,0,0,0,0,0,0,0,0,0,0,0,0,0,0,0,0,0,0,0,0,0,0,0,0,0,0,0,0,0,0,0,0,0,0,0,0,0,0,0,0,0,0,0,0,0,0,0,0,0,0,0,0,0,0,0,0,0,0,0,0,0,0,0
"Ind3","9_0_2",0,0,-1,0,0,0,0,0,0,0,0,0,0,0,0,0,0,0,0,0,0,0,0,0,0,0,0,0,0,0,0,0,0,0,0,0,0,0,0,0,0,0,0,0,0,0,0,0,0,0,0,0,0,0,0,0,0,0,0,0,0,0,0,0,0,0,0,0,0,0,0,0,0
"Ind4","9_0_3",0,0,0,-1,0,0,0,0,0,0,0,0,0,0,0,0,0,0,0,0,0,0,0,0,0,0,0,0,0,0,0,0,0,0,0,0,0,0,0,0,0,0,0,0,0,0,0,0,0,0,0,0,0,0,0,0,0,0,0,0,0,0,0,0,0,0,0,0,0,0,0,0,0
"Ind5","9_0_0",0,0,0,0,-1,0,0,0,0,0,0,0,0,0,0,0,0,0,0,0,0,0,0,0,0,0,0,0,0,0,0,0,0,0,0,0,0,0,0,0,0,0,0,0,0,0,0,0,0,0,0,0,0,0,0,0,0,0,0,0,0,0,0,0,0,0,0,0,0,0,0,0,0
"Ind6","9_0_6",0,0,0,0,0,-1,0,0,0,0,0,0,0,0,0,0,0,0,0,0,0,0,0,0,0,0,0,0,0,0,0,0,0,0,0,0,0,0,0,0,0,0,0,0,0,0,0,0,0,0,0,0,0,0,0,0,0,0,0,0,0,0,0,0,0,0,0,0,0,0,0,0,0
"Ind7","9_0_5",0,0,0,0,0,0,-1,0,0,0,0,0,0,0,0,0,0,0,0,0,0,0,0,0,0,0,0,0,0,0,0,0,0,0,0,0,0,0,0,0,0,0,0,0,0,0,0,0,0,0,0,0,0,0,0,0,0,0,0,0,0,0,0,0,0,0,0,0,0,0,0,0,0
"Ind8","9_0_4",0,0,0,0,0,0,0,-1,0,0,0,0,0,0,0,0,0,0,0,0,0,0,0,0,0,0,0,0,0,0,0,0,0,0,0,0,0,0,0,0,0,0,0,0,0,0,0,0,0,0,0,0,0,0,0,0,0,0,0,0,0,0,0,0,0,0,0,0,0,0,0,0,0
"Ind9","8_0_5",8,8,8,8,8,8,8,8,-1,0,0,0,0,0,0,0,0,0,0,0,0,0,0,0,0,0,0,0,0,0,0,0,0,0,0,0,0,0,0,0,0,0,0,0,0,0,0,0,0,0,0,0,0,0,0,0,0,0,0,0,0,0,0,0,0,0,0,0,0,0,0,0,0
"Ind10","8_0_2",9,9,9,9,9,9,9,9,1,-1,0,0,0,0,0,0,0,0,0,0,0,0,0,0,0,0,0,0,0,0,0,0,0,0,0,0,0,0,0,0,0,0,0,0,0,0,0,0,0,0,0,0,0,0,0,0,0,0,0,0,0,0,0,0,0,0,0,0,0,0,0,0,0
"Ind11","8_0_0",9,9,9,9,9,9,9,9,1,0,-1,0,0,0,0,0,0,0,0,0,0,0,0,0,0,0,0,0,0,0,0,0,0,0,0,0,0,0,0,0,0,0,0,0,0,0,0,0,0,0,0,0,0,0,0,0,0,0,0,0,0,0,0,0,0,0,0,0,0,0,0,0,0
"Ind12","8_0_6",9,9,9,9,9,9,9,9,1,0,0,-1,0,0,0,0,0,0,0,0,0,0,0,0,0,0,0,0,0,0,0,0,0,0,0,0,0,0,0,0,0,0,0,0,0,0,0,0,0,0,0,0,0,0,0,0,0,0,0,0,0,0,0,0,0,0,0,0,0,0,0,0,0
"Ind13","8_0_4",9,9,9,9,9,9,9,9,1,0,0,0,-1,0,0,0,0,0,0,0,0,0,0,0,0,0,0,0,0,0,0,0,0,0,0,0,0,0,0,0,0,0,0,0,0,0,0,0,0,0,0,0,0,0,0,0,0,0,0,0,0,0,0,0,0,0,0,0,0,0,0,0,0
"Ind14","8_0_1",8,8,8,8,8,8,8,8,0,1,1,1,1,-1,0,0,0,0,0,0,0,0,0,0,0,0,0,0,0,0,0,0,0,0,0,0,0,0,0,0,0,0,0,0,0,0,0,0,0,0,0,0,0,0,0,0,0,0,0,0,0,0,0,0,0,0,0,0,0,0,0,0,0
"Ind15","8_0_3",8,8,8,8,8,8,8,8,0,1,1,1,1,0,-1,0,0,0,0,0,0,0,0,0,0,0,0,0,0,0,0,0,0,0,0,0,0,0,0,0,0,0,0,0,0,0,0,0,0,0,0,0,0,0,0,0,0,0,0,0,0,0,0,0,0,0,0,0,0,0,0,0,0
"Ind16","8_0_7",8,8,8,8,8,8,8,8,0,1,1,1,1,0,0,-1,0,0,0,0,0,0,0,0,0,0,0,0,0,0,0,0,0,0,0,0,0,0,0,0,0,0,0,0,0,0,0,0,0,0,0,0,0,0,0,0,0,0,0,0,0,0,0,0,0,0,0,0,0,0,0,0,0
"Ind17","1_0_0",14,14,14,14,14,14,14,14,14,15,15,15,15,14,14,14,-1,0,0,0,0,0,0,0,0,0,0,0,0,0,0,0,0,0,0,0,0,0,0,0,0,0,0,0,0,0,0,0,0,0,0,0,0,0,0,0,0,0,0,0,0,0,0,0,0,0,0,0,0,0,0,0,0
"Ind18","1_0_1",14,14,14,14,14,14,14,14,14,15,15,15,15,14,14,14,0,-1,0,0,0,0,0,0,0,0,0,0,0,0,0,0,0,0,0,0,0,0,0,0,0,0,0,0,0,0,0,0,0,0,0,0,0,0,0,0,0,0,0,0,0,0,0,0,0,0,0,0,0,0,0,0,0
"Ind19","1_0_2",14,14,14,14,14,14,14,14,14,15,15,15,15,14,14,14,0,0,-1,0,0,0,0,0,0,0,0,0,0,0,0,0,0,0,0,0,0,0,0,0,0,0,0,0,0,0,0,0,0,0,0,0,0,0,0,0,0,0,0,0,0,0,0,0,0,0,0,0,0,0,0,0,0
"Ind20","1_0_4",14,14,14,14,14,14,14,14,14,15,15,15,15,14,14,14,0,0,0,-1,0,0,0,0,0,0,0,0,0,0,0,0,0,0,0,0,0,0,0,0,0,0,0,0,0,0,0,0,0,0,0,0,0,0,0,0,0,0,0,0,0,0,0,0,0,0,0,0,0,0,0,0,0
"Ind21","1_0_5",14,14,14,14,14,14,14,14,14,15,15,15,15,14,14,14,0,0,0,0,-1,0,0,0,0,0,0,0,0,0,0,0,0,0,0,0,0,0,0,0,0,0,0,0,0,0,0,0,0,0,0,0,0,0,0,0,0,0,0,0,0,0,0,0,0,0,0,0,0,0,0,0,0
"Ind22","1_0_6",14,14,14,14,14,14,14,14,14,15,15,15,15,14,14,14,0,0,0,0,0,-1,0,0,0,0,0,0,0,0,0,0,0,0,0,0,0,0,0,0,0,0,0,0,0,0,0,0,0,0,0,0,0,0,0,0,0,0,0,0,0,0,0,0,0,0,0,0,0,0,0,0,0
"Ind23","1_0_3",14,14,14,14,14,14,14,14,14,15,15,15,15,14,14,14,0,0,0,0,0,0,-1,0,0,0,0,0,0,0,0,0,0,0,0,0,0,0,0,0,0,0,0,0,0,0,0,0,0,0,0,0,0,0,0,0,0,0,0,0,0,0,0,0,0,0,0,0,0,0,0,0,0
"Ind24","1_0_7",14,14,14,14,14,14,14,14,14,15,15,15,15,14,14,14,0,0,0,0,0,0,0,-1,0,0,0,0,0,0,0,0,0,0,0,0,0,0,0,0,0,0,0,0,0,0,0,0,0,0,0,0,0,0,0,0,0,0,0,0,0,0,0,0,0,0,0,0,0,0,0,0,0
"Ind25","6_0_0",12,12,12,12,12,12,12,12,12,13,13,13,13,12,12,12,10,10,10,10,10,10,10,10,-1,0,0,0,0,0,0,0,0,0,0,0,0,0,0,0,0,0,0,0,0,0,0,0,0,0,0,0,0,0,0,0,0,0,0,0,0,0,0,0,0,0,0,0,0,0,0,0,0
"Ind26","6_0_1",12,12,12,12,12,12,12,12,12,13,13,13,13,12,12,12,10,10,10,10,10,10,10,10,0,-1,0,0,0,0,0,0,0,0,0,0,0,0,0,0,0,0,0,0,0,0,0,0,0,0,0,0,0,0,0,0,0,0,0,0,0,0,0,0,0,0,0,0,0,0,0,0,0
"Ind27","6_0_5",12,12,12,12,12,12,12,12,12,13,13,13,13,12,12,12,10,10,10,10,10,10,10,10,0,0,-1,0,0,0,0,0,0,0,0,0,0,0,0,0,0,0,0,0,0,0,0,0,0,0,0,0,0,0,0,0,0,0,0,0,0,0,0,0,0,0,0,0,0,0,0,0,0
"Ind28","6_0_4",12,12,12,12,12,12,12,12,12,13,13,13,13,12,12,12,10,10,10,10,10,10,10,10,0,0,0,-1,0,0,0,0,0,0,0,0,0,0,0,0,0,0,0,0,0,0,0,0,0,0,0,0,0,0,0,0,0,0,0,0,0,0,0,0,0,0,0,0,0,0,0,0,0
"Ind29","6_0_6",12,12,12,12,12,12,12,12,12,13,13,13,13,12,12,12,10,10,10,10,10,10,10,10,0,0,0,0,-1,0,0,0,0,0,0,0,0,0,0,0,0,0,0,0,0,0,0,0,0,0,0,0,0,0,0,0,0,0,0,0,0,0,0,0,0,0,0,0,0,0,0,0,0
"Ind30","6_0_2",12,12,12,12,12,12,12,12,12,13,13,13,13,12,12,12,10,10,10,10,10,10,10,10,0,0,0,0,0,-1,0,0,0,0,0,0,0,0,0,0,0,0,0,0,0,0,0,0,0,0,0,0,0,0,0,0,0,0,0,0,0,0,0,0,0,0,0,0,0,0,0,0,0
"Ind31","6_0_3",12,12,12,12,12,12,12,12,12,13,13,13,13,12,12,12,10,10,10,10,10,10,10,10,0,0,0,0,0,0,-1,0,0,0,0,0,0,0,0,0,0,0,0,0,0,0,0,0,0,0,0,0,0,0,0,0,0,0,0,0,0,0,0,0,0,0,0,0,0,0,0,0,0
"Ind32","6_0_7",12,12,12,12,12,12,12,12,12,13,13,13,13,12,12,12,10,10,10,10,10,10,10,10,0,0,0,0,0,0,0,-1,0,0,0,0,0,0,0,0,0,0,0,0,0,0,0,0,0,0,0,0,0,0,0,0,0,0,0,0,0,0,0,0,0,0,0,0,0,0,0,0,0
"Ind33","4_0_5",8,8,8,8,8,8,8,8,8,9,9,9,9,8,8,8,6,6,6,6,6,6,6,6,4,4,4,4,4,4,4,4,-1,0,0,0,0,0,0,0,0,0,0,0,0,0,0,0,0,0,0,0,0,0,0,0,0,0,0,0,0,0,0,0,0,0,0,0,0,0,0,0,0
"Ind34","4_0_1",9,9,9,9,9,9,9,9,9,10,10,10,10,9,9,9,7,7,7,7,7,7,7,7,5,5,5,5,5,5,5,5,1,-1,0,0,0,0,0,0,0,0,0,0,0,0,0,0,0,0,0,0,0,0,0,0,0,0,0,0,0,0,0,0,0,0,0,0,0,0,0,0,0
"Ind35","4_0_0",9,9,9,9,9,9,9,9,9,10,10,10,10,9,9,9,7,7,7,7,7,7,7,7,5,5,5,5,5,5,5,5,1,0,-1,0,0,0,0,0,0,0,0,0,0,0,0,0,0,0,0,0,0,0,0,0,0,0,0,0,0,0,0,0,0,0,0,0,0,0,0,0,0
"Ind36","4_0_2",9,9,9,9,9,9,9,9,9,10,10,10,10,9,9,9,7,7,7,7,7,7,7,7,5,5,5,5,5,5,5,5,1,0,0,-1,0,0,0,0,0,0,0,0,0,0,0,0,0,0,0,0,0,0,0,0,0,0,0,0,0,0,0,0,0,0,0,0,0,0,0,0,0
"Ind37","4_0_4",9,9,9,9,9,9,9,9,9,10,10,10,10,9,9,9,7,7,7,7,7,7,7,7,5,5,5,5,5,5,5,5,1,0,0,0,-1,0,0,0,0,0,0,0,0,0,0,0,0,0,0,0,0,0,0,0,0,0,0,0,0,0,0,0,0,0,0,0,0,0,0,0,0
"Ind38","4_0_3",8,8,8,8,8,8,8,8,8,9,9,9,9,8,8,8,6,6,6,6,6,6,6,6,4,4,4,4,4,4,4,4,0,1,1,1,1,-1,0,0,0,0,0,0,0,0,0,0,0,0,0,0,0,0,0,0,0,0,0,0,0,0,0,0,0,0,0,0,0,0,0,0,0
"Ind39","4_0_6",8,8,8,8,8,8,8,8,8,9,9,9,9,8,8,8,6,6,6,6,6,6,6,6,4,4,4,4,4,4,4,4,0,1,1,1,1,0,-1,0,0,0,0,0,0,0,0,0,0,0,0,0,0,0,0,0,0,0,0,0,0,0,0,0,0,0,0,0,0,0,0,0,0
"Ind40","4_0_7",8,8,8,8,8,8,8,8,8,9,9,9,9,8,8,8,6,6,6,6,6,6,6,6,4,4,4,4,4,4,4,4,0,1,1,1,1,0,0,-1,0,0,0,0,0,0,0,0,0,0,0,0,0,0,0,0,0,0,0,0,0,0,0,0,0,0,0,0,0,0,0,0,0
"Ind41","5_0_6",9,9,9,9,9,9,9,9,9,10,10,10,10,9,9,9,7,7,7,7,7,7,7,7,5,5,5,5,5,5,5,5,1,2,2,2,2,1,1,1,-1,0,0,0,0,0,0,0,0,0,0,0,0,0,0,0,0,0,0,0,0,0,0,0,0,0,0,0,0,0,0,0,0
"Ind42","5_0_1",9,9,9,9,9,9,9,9,9,10,10,10,10,9,9,9,7,7,7,7,7,7,7,7,5,5,5,5,5,5,5,5,1,2,2,2,2,1,1,1,0,-1,0,0,0,0,0,0,0,0,0,0,0,0,0,0,0,0,0,0,0,0,0,0,0,0,0,0,0,0,0,0,0
"Ind43","5_0_4",9,9,9,9,9,9,9,9,9,10,10,10,10,9,9,9,7,7,7,7,7,7,7,7,5,5,5,5,5,5,5,5,1,2,2,2,2,1,1,1,0,0,-1,0,0,0,0,0,0,0,0,0,0,0,0,0,0,0,0,0,0,0,0,0,0,0,0,0,0,0,0,0,0
"Ind44","5_0_0",9,9,9,9,9,9,9,9,9,10,10,10,10,9,9,9,7,7,7,7,7,7,7,7,5,5,5,5,5,5,5,5,1,2,2,2,2,1,1,1,0,0,0,-1,0,0,0,0,0,0,0,0,0,0,0,0,0,0,0,0,0,0,0,0,0,0,0,0,0,0,0,0,0
"Ind45","5_0_3",9,9,9,9,9,9,9,9,9,10,10,10,10,9,9,9,7,7,7,7,7,7,7,7,5,5,5,5,5,5,5,5,1,2,2,2,2,1,1,1,0,0,0,0,-1,0,0,0,0,0,0,0,0,0,0,0,0,0,0,0,0,0,0,0,0,0,0,0,0,0,0,0,0
"Ind46","5_0_2",10,10,10,10,10,10,10,10,10,11,11,11,11,10,10,10,8,8,8,8,8,8,8,8,6,6,6,6,6,6,6,6,2,3,3,3,3,2,2,2,1,1,1,1,1,-1,0,0,0,0,0,0,0,0,0,0,0,0,0,0,0,0,0,0,0,0,0,0,0,0,0,0,0
"Ind47","5_0_5",9,9,9,9,9,9,9,9,9,10,10,10,10,9,9,9,7,7,7,7,7,7,7,7,5,5,5,5,5,5,5,5,1,2,2,2,2,1,1,1,0,0,0,0,0,1,-1,0,0,0,0,0,0,0,0,0,0,0,0,0,0,0,0,0,0,0,0,0,0,0,0,0,0
"Ind48","5_0_7",9,9,9,9,9,9,9,9,9,10,10,10,10,9,9,9,7,7,7,7,7,7,7,7,5,5,5,5,5,5,5,5,1,2,2,2,2,1,1,1,0,0,0,0,0,1,0,-1,0,0,0,0,0,0,0,0,0,0,0,0,0,0,0,0,0,0,0,0,0,0,0,0,0
"Ind49","7_0_1",9,9,9,9,9,9,9,9,9,10,10,10,10,9,9,9,7,7,7,7,7,7,7,7,5,5,5,5,5,5,5,5,1,2,2,2,2,1,1,1,2,2,2,2,2,3,2,2,-1,0,0,0,0,0,0,0,0,0,0,0,0,0,0,0,0,0,0,0,0,0,0,0,0
"Ind50","7_0_0",9,9,9,9,9,9,9,9,9,10,10,10,10,9,9,9,7,7,7,7,7,7,7,7,5,5,5,5,5,5,5,5,1,2,2,2,2,1,1,1,2,2,2,2,2,3,2,2,0,-1,0,0,0,0,0,0,0,0,0,0,0,0,0,0,0,0,0,0,0,0,0,0,0
"Ind51","7_0_5",9,9,9,9,9,9,9,9,9,10,10,10,10,9,9,9,7,7,7,7,7,7,7,7,5,5,5,5,5,5,5,5,1,2,2,2,2,1,1,1,2,2,2,2,2,3,2,2,0,0,-1,0,0,0,0,0,0,0,0,0,0,0,0,0,0,0,0,0,0,0,0,0,0
"Ind52","7_0_6",9,9,9,9,9,9,9,9,9,10,10,10,10,9,9,9,7,7,7,7,7,7,7,7,5,5,5,5,5,5,5,5,1,2,2,2,2,1,1,1,2,2,2,2,2,3,2,2,0,0,0,-1,0,0,0,0,0,0,0,0,0,0,0,0,0,0,0,0,0,0,0,0,0
"Ind53","7_0_7",9,9,9,9,9,9,9,9,9,10,10,10,10,9,9,9,7,7,7,7,7,7,7,7,5,5,5,5,5,5,5,5,1,2,2,2,2,1,1,1,2,2,2,2,2,3,2,2,0,0,0,0,-1,0,0,0,0,0,0,0,0,0,0,0,0,0,0,0,0,0,0,0,0
"Ind54","7_0_4",9,9,9,9,9,9,9,9,9,10,10,10,10,9,9,9,7,7,7,7,7,7,7,7,5,5,5,5,5,5,5,5,1,2,2,2,2,1,1,1,2,2,2,2,2,3,2,2,0,0,0,0,0,-1,0,0,0,0,0,0,0,0,0,0,0,0,0,0,0,0,0,0,0
"Ind55","7_0_2",9,9,9,9,9,9,9,9,9,10,10,10,10,9,9,9,7,7,7,7,7,7,7,7,5,5,5,5,5,5,5,5,1,2,2,2,2,1,1,1,2,2,2,2,2,3,2,2,0,0,0,0,0,0,-1,0,0,0,0,0,0,0,0,0,0,0,0,0,0,0,0,0,0
"Ind56","7_0_3",9,9,9,9,9,9,9,9,9,10,10,10,10,9,9,9,7,7,7,7,7,7,7,7,5,5,5,5,5,5,5,5,1,2,2,2,2,1,1,1,2,2,2,2,2,3,2,2,0,0,0,0,0,0,0,-1,0,0,0,0,0,0,0,0,0,0,0,0,0,0,0,0,0
"Ind57","3_0_7",8,8,8,8,8,8,8,8,8,9,9,9,9,8,8,8,6,6,6,6,6,6,6,6,4,4,4,4,4,4,4,4,0,1,1,1,1,0,0,0,1,1,1,1,1,2,1,1,1,1,1,1,1,1,1,1,-1,0,0,0,0,0,0,0,0,0,0,0,0,0,0,0,0
"Ind58","3_0_0",8,8,8,8,8,8,8,8,8,9,9,9,9,8,8,8,6,6,6,6,6,6,6,6,4,4,4,4,4,4,4,4,0,1,1,1,1,0,0,0,1,1,1,1,1,2,1,1,1,1,1,1,1,1,1,1,0,-1,0,0,0,0,0,0,0,0,0,0,0,0,0,0,0
"Ind59","3_0_3",8,8,8,8,8,8,8,8,8,9,9,9,9,8,8,8,6,6,6,6,6,6,6,6,4,4,4,4,4,4,4,4,0,1,1,1,1,0,0,0,1,1,1,1,1,2,1,1,1,1,1,1,1,1,1,1,0,0,-1,0,0,0,0,0,0,0,0,0,0,0,0,0,0
"Ind60","3_0_1",8,8,8,8,8,8,8,8,8,9,9,9,9,8,8,8,6,6,6,6,6,6,6,6,4,4,4,4,4,4,4,4,0,1,1,1,1,0,0,0,1,1,1,1,1,2,1,1,1,1,1,1,1,1,1,1,0,0,0,-1,0,0,0,0,0,0,0,0,0,0,0,0,0
"Ind61","3_0_2",8,8,8,8,8,8,8,8,8,9,9,9,9,8,8,8,6,6,6,6,6,6,6,6,4,4,4,4,4,4,4,4,0,1,1,1,1,0,0,0,1,1,1,1,1,2,1,1,1,1,1,1,1,1,1,1,0,0,0,0,-1,0,0,0,0,0,0,0,0,0,0,0,0
"Ind62","3_0_4",8,8,8,8,8,8,8,8,8,9,9,9,9,8,8,8,6,6,6,6,6,6,6,6,4,4,4,4,4,4,4,4,0,1,1,1,1,0,0,0,1,1,1,1,1,2,1,1,1,1,1,1,1,1,1,1,0,0,0,0,0,-1,0,0,0,0,0,0,0,0,0,0,0
"Ind63","3_0_6",8,8,8,8,8,8,8,8,8,9,9,9,9,8,8,8,6,6,6,6,6,6,6,6,4,4,4,4,4,4,4,4,0,1,1,1,1,0,0,0,1,1,1,1,1,2,1,1,1,1,1,1,1,1,1,1,0,0,0,0,0,0,-1,0,0,0,0,0,0,0,0,0,0
"Ind64","3_0_5",8,8,8,8,8,8,8,8,8,9,9,9,9,8,8,8,6,6,6,6,6,6,6,6,4,4,4,4,4,4,4,4,0,1,1,1,1,0,0,0,1,1,1,1,1,2,1,1,1,1,1,1,1,1,1,1,0,0,0,0,0,0,0,-1,0,0,0,0,0,0,0,0,0
"Ind65","2_0_4",10,10,10,10,10,10,10,10,9,10,10,10,10,9,9,9,8,8,8,8,8,8,8,8,6,6,6,6,6,6,6,6,2,3,3,3,3,2,2,2,3,3,3,3,3,4,3,3,3,3,3,3,3,3,3,3,2,2,2,2,2,2,2,2,-1,0,0,0,0,0,0,0,0
"Ind66","2_0_7",9,9,9,9,9,9,9,9,8,9,9,9,9,8,8,8,7,7,7,7,7,7,7,7,5,5,5,5,5,5,5,5,1,2,2,2,2,1,1,1,2,2,2,2,2,3,2,2,2,2,2,2,2,2,2,2,1,1,1,1,1,1,1,1,1,-1,0,0,0,0,0,0,0
"Ind67","2_0_5",9,9,9,9,9,9,9,9,8,9,9,9,9,8,8,8,7,7,7,7,7,7,7,7,5,5,5,5,5,5,5,5,1,2,2,2,2,1,1,1,2,2,2,2,2,3,2,2,2,2,2,2,2,2,2,2,1,1,1,1,1,1,1,1,1,0,-1,0,0,0,0,0,0
"Ind68","2_0_6",9,9,9,9,9,9,9,9,8,9,9,9,9,8,8,8,7,7,7,7,7,7,7,7,5,5,5,5,5,5,5,5,1,2,2,2,2,1,1,1,2,2,2,2,2,3,2,2,2,2,2,2,2,2,2,2,1,1,1,1,1,1,1,1,1,0,0,-1,0,0,0,0,0
"Ind69","2_0_2",9,9,9,9,9,9,9,9,8,9,9,9,9,8,8,8,7,7,7,7,7,7,7,7,5,5,5,5,5,5,5,5,1,2,2,2,2,1,1,1,2,2,2,2,2,3,2,2,2,2,2,2,2,2,2,2,1,1,1,1,1,1,1,1,1,0,0,0,-1,0,0,0,0
"Ind70","2_0_0",9,9,9,9,9,9,9,9,8,9,9,9,9,8,8,8,7,7,7,7,7,7,7,7,5,5,5,5,5,5,5,5,1,2,2,2,2,1,1,1,2,2,2,2,2,3,2,2,2,2,2,2,2,2,2,2,1,1,1,1,1,1,1,1,1,0,0,0,0,-1,0,0,0
"Ind71","2_0_3",9,9,9,9,9,9,9,9,8,9,9,9,9,8,8,8,7,7,7,7,7,7,7,7,5,5,5,5,5,5,5,5,1,2,2,2,2,1,1,1,2,2,2,2,2,3,2,2,2,2,2,2,2,2,2,2,1,1,1,1,1,1,1,1,1,0,0,0,0,0,-1,0,0
"Ind72","2_0_1",9,9,9,9,9,9,9,9,8,9,9,9,9,8,8,8,7,7,7,7,7,7,7,7,5,5,5,5,5,5,5,5,1,2,2,2,2,1,1,1,2,2,2,2,2,3,2,2,2,2,2,2,2,2,2,2,1,1,1,1,1,1,1,1,1,0,0,0,0,0,0,-1,0
"Ind73","0_0_0",23,23,23,23,23,23,23,23,23,24,24,24,24,23,23,23,21,21,21,21,21,21,21,21,17,17,17,17,17,17,17,17,15,16,16,16,16,15,15,15,16,16,16,16,16,17,16,16,16,16,16,16,16,16,16,16,15,15,15,15,15,15,15,15,17,16,16,16,16,16,16,16,-1
