"","Description","Ind1","Ind2","Ind3","Ind4","Ind5","Ind6","Ind7","Ind8","Ind9","Ind10","Ind11","Ind12","Ind13","Ind14","Ind15","Ind16","Ind17","Ind18","Ind19","Ind20","Ind21","Ind22","Ind23","Ind24","Ind25","Ind26","Ind27","Ind28","Ind29","Ind30","Ind31","Ind32","Ind33","Ind34","Ind35","Ind36","Ind37","Ind38","Ind39","Ind40","Ind41","Ind42","Ind43","Ind44","Ind45","Ind46","Ind47","Ind48","Ind49","Ind50","Ind51","Ind52","Ind53","Ind54","Ind55","Ind56","Ind57","Ind58","Ind59","Ind60","Ind61","Ind62","Ind63","Ind64","Ind65","Ind66","Ind67","Ind68","Ind69","Ind70","Ind71"
"Ind1","0_0_0",-1,0,0,0,0,0,0,0,0,0,0,0,0,0,0,0,0,0,0,0,0,0,0,0,0,0,0,0,0,0,0,0,0,0,0,0,0,0,0,0,0,0,0,0,0,0,0,0,0,0,0,0,0,0,0,0,0,0,0,0,0,0,0,0,0,0,0,0,0,0,0
"Ind2","11_0_4",26,-1,0,0,0,0,0,0,0,0,0,0,0,0,0,0,0,0,0,0,0,0,0,0,0,0,0,0,0,0,0,0,0,0,0,0,0,0,0,0,0,0,0,0,0,0,0,0,0,0,0,0,0,0,0,0,0,0,0,0,0,0,0,0,0,0,0,0,0,0,0
"Ind3","11_0_1",24,4,-1,0,0,0,0,0,0,0,0,0,0,0,0,0,0,0,0,0,0,0,0,0,0,0,0,0,0,0,0,0,0,0,0,0,0,0,0,0,0,0,0,0,0,0,0,0,0,0,0,0,0,0,0,0,0,0,0,0,0,0,0,0,0,0,0,0,0,0,0
"Ind4","11_0_2",24,4,0,-1,0,0,0,0,0,0,0,0,0,0,0,0,0,0,0,0,0,0,0,0,0,0,0,0,0,0,0,0,0,0,0,0,0,0,0,0,0,0,0,0,0,0,0,0,0,0,0,0,0,0,0,0,0,0,0,0,0,0,0,0,0,0,0,0,0,0,0
"Ind5","11_0_0",24,4,0,0,-1,0,0,0,0,0,0,0,0,0,0,0,0,0,0,0,0,0,0,0,0,0,0,0,0,0,0,0,0,0,0,0,0,0,0,0,0,0,0,0,0,0,0,0,0,0,0,0,0,0,0,0,0,0,0,0,0,0,0,0,0,0,0,0,0,0,0
"Ind6","11_0_3",24,4,0,0,0,-1,0,0,0,0,0,0,0,0,0,0,0,0,0,0,0,0,0,0,0,0,0,0,0,0,0,0,0,0,0,0,0,0,0,0,0,0,0,0,0,0,0,0,0,0,0,0,0,0,0,0,0,0,0,0,0,0,0,0,0,0,0,0,0,0,0
"Ind7","9_0_2",21,7,7,7,7,7,-1,0,0,0,0,0,0,0,0,0,0,0,0,0,0,0,0,0,0,0,0,0,0,0,0,0,0,0,0,0,0,0,0,0,0,0,0,0,0,0,0,0,0,0,0,0,0,0,0,0,0,0,0,0,0,0,0,0,0,0,0,0,0,0,0
"Ind8","9_0_1",21,7,7,7,7,7,0,-1,0,0,0,0,0,0,0,0,0,0,0,0,0,0,0,0,0,0,0,0,0,0,0,0,0,0,0,0,0,0,0,0,0,0,0,0,0,0,0,0,0,0,0,0,0,0,0,0,0,0,0,0,0,0,0,0,0,0,0,0,0,0,0
"Ind9","9_0_0",21,7,7,7,7,7,0,0,-1,0,0,0,0,0,0,0,0,0,0,0,0,0,0,0,0,0,0,0,0,0,0,0,0,0,0,0,0,0,0,0,0,0,0,0,0,0,0,0,0,0,0,0,0,0,0,0,0,0,0,0,0,0,0,0,0,0,0,0,0,0,0
"Ind10","9_0_3",21,7,7,7,7,7,0,0,0,-1,0,0,0,0,0,0,0,0,0,0,0,0,0,0,0,0,0,0,0,0,0,0,0,0,0,0,0,0,0,0,0,0,0,0,0,0,0,0,0,0,0,0,0,0,0,0,0,0,0,0,0,0,0,0,0,0,0,0,0,0,0
"Ind11","9_0_4",21,7,7,7,7,7,0,0,0,0,-1,0,0,0,0,0,0,0,0,0,0,0,0,0,0,0,0,0,0,0,0,0,0,0,0,0,0,0,0,0,0,0,0,0,0,0,0,0,0,0,0,0,0,0,0,0,0,0,0,0,0,0,0,0,0,0,0,0,0,0,0
"Ind12","12_0_1",22,6,8,8,8,8,1,1,1,1,1,-1,0,0,0,0,0,0,0,0,0,0,0,0,0,0,0,0,0,0,0,0,0,0,0,0,0,0,0,0,0,0,0,0,0,0,0,0,0,0,0,0,0,0,0,0,0,0,0,0,0,0,0,0,0,0,0,0,0,0,0
"Ind13","12_0_0",22,6,8,8,8,8,1,1,1,1,1,0,-1,0,0,0,0,0,0,0,0,0,0,0,0,0,0,0,0,0,0,0,0,0,0,0,0,0,0,0,0,0,0,0,0,0,0,0,0,0,0,0,0,0,0,0,0,0,0,0,0,0,0,0,0,0,0,0,0,0,0
"Ind14","12_0_2",22,6,8,8,8,8,1,1,1,1,1,0,0,-1,0,0,0,0,0,0,0,0,0,0,0,0,0,0,0,0,0,0,0,0,0,0,0,0,0,0,0,0,0,0,0,0,0,0,0,0,0,0,0,0,0,0,0,0,0,0,0,0,0,0,0,0,0,0,0,0,0
"Ind15","12_0_4",22,6,8,8,8,8,1,1,1,1,1,0,0,0,-1,0,0,0,0,0,0,0,0,0,0,0,0,0,0,0,0,0,0,0,0,0,0,0,0,0,0,0,0,0,0,0,0,0,0,0,0,0,0,0,0,0,0,0,0,0,0,0,0,0,0,0,0,0,0,0,0
"Ind16","12_0_3",22,6,8,8,8,8,1,1,1,1,1,0,0,0,0,-1,0,0,0,0,0,0,0,0,0,0,0,0,0,0,0,0,0,0,0,0,0,0,0,0,0,0,0,0,0,0,0,0,0,0,0,0,0,0,0,0,0,0,0,0,0,0,0,0,0,0,0,0,0,0,0
"Ind17","13_0_2",24,10,10,10,10,10,3,3,3,3,3,4,4,4,4,4,-1,0,0,0,0,0,0,0,0,0,0,0,0,0,0,0,0,0,0,0,0,0,0,0,0,0,0,0,0,0,0,0,0,0,0,0,0,0,0,0,0,0,0,0,0,0,0,0,0,0,0,0,0,0,0
"Ind18","13_0_4",23,9,9,9,9,9,2,2,2,2,2,3,3,3,3,3,1,-1,0,0,0,0,0,0,0,0,0,0,0,0,0,0,0,0,0,0,0,0,0,0,0,0,0,0,0,0,0,0,0,0,0,0,0,0,0,0,0,0,0,0,0,0,0,0,0,0,0,0,0,0,0
"Ind19","13_0_1",23,9,9,9,9,9,2,2,2,2,2,3,3,3,3,3,1,0,-1,0,0,0,0,0,0,0,0,0,0,0,0,0,0,0,0,0,0,0,0,0,0,0,0,0,0,0,0,0,0,0,0,0,0,0,0,0,0,0,0,0,0,0,0,0,0,0,0,0,0,0,0
"Ind20","13_0_3",23,9,9,9,9,9,2,2,2,2,2,3,3,3,3,3,1,0,0,-1,0,0,0,0,0,0,0,0,0,0,0,0,0,0,0,0,0,0,0,0,0,0,0,0,0,0,0,0,0,0,0,0,0,0,0,0,0,0,0,0,0,0,0,0,0,0,0,0,0,0,0
"Ind21","13_0_0",23,9,9,9,9,9,2,2,2,2,2,3,3,3,3,3,1,0,0,0,-1,0,0,0,0,0,0,0,0,0,0,0,0,0,0,0,0,0,0,0,0,0,0,0,0,0,0,0,0,0,0,0,0,0,0,0,0,0,0,0,0,0,0,0,0,0,0,0,0,0,0
"Ind22","14_0_2",26,12,12,12,12,12,5,5,5,5,5,6,6,6,6,6,4,3,3,3,3,-1,0,0,0,0,0,0,0,0,0,0,0,0,0,0,0,0,0,0,0,0,0,0,0,0,0,0,0,0,0,0,0,0,0,0,0,0,0,0,0,0,0,0,0,0,0,0,0,0,0
"Ind23","14_0_4",26,12,12,12,12,12,5,5,5,5,5,6,6,6,6,6,4,3,3,3,3,0,-1,0,0,0,0,0,0,0,0,0,0,0,0,0,0,0,0,0,0,0,0,0,0,0,0,0,0,0,0,0,0,0,0,0,0,0,0,0,0,0,0,0,0,0,0,0,0,0,0
"Ind24","14_0_3",24,10,10,10,10,10,3,3,3,3,3,4,4,4,4,4,2,1,1,1,1,2,2,-1,0,0,0,0,0,0,0,0,0,0,0,0,0,0,0,0,0,0,0,0,0,0,0,0,0,0,0,0,0,0,0,0,0,0,0,0,0,0,0,0,0,0,0,0,0,0,0
"Ind25","14_0_1",24,10,10,10,10,10,3,3,3,3,3,4,4,4,4,4,2,1,1,1,1,2,2,0,-1,0,0,0,0,0,0,0,0,0,0,0,0,0,0,0,0,0,0,0,0,0,0,0,0,0,0,0,0,0,0,0,0,0,0,0,0,0,0,0,0,0,0,0,0,0,0
"Ind26","14_0_0",24,10,10,10,10,10,3,3,3,3,3,4,4,4,4,4,2,1,1,1,1,2,2,0,0,-1,0,0,0,0,0,0,0,0,0,0,0,0,0,0,0,0,0,0,0,0,0,0,0,0,0,0,0,0,0,0,0,0,0,0,0,0,0,0,0,0,0,0,0,0,0
"Ind27","10_0_2",23,9,9,9,9,9,2,2,2,2,2,3,3,3,3,3,5,4,4,4,4,7,7,5,5,5,-1,0,0,0,0,0,0,0,0,0,0,0,0,0,0,0,0,0,0,0,0,0,0,0,0,0,0,0,0,0,0,0,0,0,0,0,0,0,0,0,0,0,0,0,0
"Ind28","10_0_0",23,9,9,9,9,9,2,2,2,2,2,3,3,3,3,3,5,4,4,4,4,7,7,5,5,5,0,-1,0,0,0,0,0,0,0,0,0,0,0,0,0,0,0,0,0,0,0,0,0,0,0,0,0,0,0,0,0,0,0,0,0,0,0,0,0,0,0,0,0,0,0
"Ind29","10_0_1",23,9,9,9,9,9,2,2,2,2,2,3,3,3,3,3,5,4,4,4,4,7,7,5,5,5,0,0,-1,0,0,0,0,0,0,0,0,0,0,0,0,0,0,0,0,0,0,0,0,0,0,0,0,0,0,0,0,0,0,0,0,0,0,0,0,0,0,0,0,0,0
"Ind30","10_0_4",23,9,9,9,9,9,2,2,2,2,2,3,3,3,3,3,5,4,4,4,4,7,7,5,5,5,0,0,0,-1,0,0,0,0,0,0,0,0,0,0,0,0,0,0,0,0,0,0,0,0,0,0,0,0,0,0,0,0,0,0,0,0,0,0,0,0,0,0,0,0,0
"Ind31","10_0_3",23,9,9,9,9,9,2,2,2,2,2,3,3,3,3,3,5,4,4,4,4,7,7,5,5,5,0,0,0,0,-1,0,0,0,0,0,0,0,0,0,0,0,0,0,0,0,0,0,0,0,0,0,0,0,0,0,0,0,0,0,0,0,0,0,0,0,0,0,0,0,0
"Ind32","4_0_1",19,9,7,7,7,7,2,2,2,2,2,3,3,3,3,3,5,4,4,4,4,7,7,5,5,5,4,4,4,4,4,-1,0,0,0,0,0,0,0,0,0,0,0,0,0,0,0,0,0,0,0,0,0,0,0,0,0,0,0,0,0,0,0,0,0,0,0,0,0,0,0
"Ind33","4_0_0",19,9,7,7,7,7,2,2,2,2,2,3,3,3,3,3,5,4,4,4,4,7,7,5,5,5,4,4,4,4,4,0,-1,0,0,0,0,0,0,0,0,0,0,0,0,0,0,0,0,0,0,0,0,0,0,0,0,0,0,0,0,0,0,0,0,0,0,0,0,0,0
"Ind34","4_0_3",19,9,7,7,7,7,2,2,2,2,2,3,3,3,3,3,5,4,4,4,4,7,7,5,5,5,4,4,4,4,4,0,0,-1,0,0,0,0,0,0,0,0,0,0,0,0,0,0,0,0,0,0,0,0,0,0,0,0,0,0,0,0,0,0,0,0,0,0,0,0,0
"Ind35","4_0_2",19,9,7,7,7,7,2,2,2,2,2,3,3,3,3,3,5,4,4,4,4,7,7,5,5,5,4,4,4,4,4,0,0,0,-1,0,0,0,0,0,0,0,0,0,0,0,0,0,0,0,0,0,0,0,0,0,0,0,0,0,0,0,0,0,0,0,0,0,0,0,0
"Ind36","5_0_0",20,10,8,8,8,8,3,3,3,3,3,4,4,4,4,4,6,5,5,5,5,8,8,6,6,6,5,5,5,5,5,1,1,1,1,-1,0,0,0,0,0,0,0,0,0,0,0,0,0,0,0,0,0,0,0,0,0,0,0,0,0,0,0,0,0,0,0,0,0,0,0
"Ind37","5_0_4",19,9,7,7,7,7,2,2,2,2,2,3,3,3,3,3,5,4,4,4,4,7,7,5,5,5,4,4,4,4,4,0,0,0,0,1,-1,0,0,0,0,0,0,0,0,0,0,0,0,0,0,0,0,0,0,0,0,0,0,0,0,0,0,0,0,0,0,0,0,0,0
"Ind38","5_0_1",19,9,7,7,7,7,2,2,2,2,2,3,3,3,3,3,5,4,4,4,4,7,7,5,5,5,4,4,4,4,4,0,0,0,0,1,0,-1,0,0,0,0,0,0,0,0,0,0,0,0,0,0,0,0,0,0,0,0,0,0,0,0,0,0,0,0,0,0,0,0,0
"Ind39","5_0_3",19,9,7,7,7,7,2,2,2,2,2,3,3,3,3,3,5,4,4,4,4,7,7,5,5,5,4,4,4,4,4,0,0,0,0,1,0,0,-1,0,0,0,0,0,0,0,0,0,0,0,0,0,0,0,0,0,0,0,0,0,0,0,0,0,0,0,0,0,0,0,0
"Ind40","5_0_2",19,9,7,7,7,7,2,2,2,2,2,3,3,3,3,3,5,4,4,4,4,7,7,5,5,5,4,4,4,4,4,0,0,0,0,1,0,0,0,-1,0,0,0,0,0,0,0,0,0,0,0,0,0,0,0,0,0,0,0,0,0,0,0,0,0,0,0,0,0,0,0
"Ind41","4_0_4",19,9,7,7,7,7,2,2,2,2,2,3,3,3,3,3,5,4,4,4,4,7,7,5,5,5,4,4,4,4,4,0,0,0,0,1,0,0,0,0,-1,0,0,0,0,0,0,0,0,0,0,0,0,0,0,0,0,0,0,0,0,0,0,0,0,0,0,0,0,0,0
"Ind42","8_0_1",20,10,8,8,8,8,3,3,3,3,3,4,4,4,4,4,6,5,5,5,5,8,8,6,6,6,5,5,5,5,5,1,1,1,1,2,1,1,1,1,1,-1,0,0,0,0,0,0,0,0,0,0,0,0,0,0,0,0,0,0,0,0,0,0,0,0,0,0,0,0,0
"Ind43","8_0_2",20,10,8,8,8,8,3,3,3,3,3,4,4,4,4,4,6,5,5,5,5,8,8,6,6,6,5,5,5,5,5,1,1,1,1,2,1,1,1,1,1,0,-1,0,0,0,0,0,0,0,0,0,0,0,0,0,0,0,0,0,0,0,0,0,0,0,0,0,0,0,0
"Ind44","8_0_4",20,10,8,8,8,8,3,3,3,3,3,4,4,4,4,4,6,5,5,5,5,8,8,6,6,6,5,5,5,5,5,1,1,1,1,2,1,1,1,1,1,0,0,-1,0,0,0,0,0,0,0,0,0,0,0,0,0,0,0,0,0,0,0,0,0,0,0,0,0,0,0
"Ind45","8_0_0",21,11,9,9,9,9,4,4,4,4,4,5,5,5,5,5,7,6,6,6,6,9,9,7,7,7,6,6,6,6,6,2,2,2,2,3,2,2,2,2,2,1,1,1,-1,0,0,0,0,0,0,0,0,0,0,0,0,0,0,0,0,0,0,0,0,0,0,0,0,0,0
"Ind46","8_0_3",21,11,9,9,9,9,4,4,4,4,4,5,5,5,5,5,7,6,6,6,6,9,9,7,7,7,6,6,6,6,6,2,2,2,2,3,2,2,2,2,2,1,1,1,0,-1,0,0,0,0,0,0,0,0,0,0,0,0,0,0,0,0,0,0,0,0,0,0,0,0,0
"Ind47","3_0_4",25,15,13,13,13,13,8,8,8,8,8,9,9,9,9,9,11,10,10,10,10,13,13,11,11,11,8,8,8,8,8,6,6,6,6,7,6,6,6,6,6,7,7,7,8,8,-1,0,0,0,0,0,0,0,0,0,0,0,0,0,0,0,0,0,0,0,0,0,0,0,0
"Ind48","3_0_0",25,15,13,13,13,13,8,8,8,8,8,9,9,9,9,9,11,10,10,10,10,13,13,11,11,11,8,8,8,8,8,6,6,6,6,7,6,6,6,6,6,7,7,7,8,8,0,-1,0,0,0,0,0,0,0,0,0,0,0,0,0,0,0,0,0,0,0,0,0,0,0
"Ind49","3_0_1",25,15,13,13,13,13,8,8,8,8,8,9,9,9,9,9,11,10,10,10,10,13,13,11,11,11,8,8,8,8,8,6,6,6,6,7,6,6,6,6,6,7,7,7,8,8,0,0,-1,0,0,0,0,0,0,0,0,0,0,0,0,0,0,0,0,0,0,0,0,0,0
"Ind50","3_0_3",25,15,13,13,13,13,8,8,8,8,8,9,9,9,9,9,11,10,10,10,10,13,13,11,11,11,8,8,8,8,8,6,6,6,6,7,6,6,6,6,6,7,7,7,8,8,0,0,0,-1,0,0,0,0,0,0,0,0,0,0,0,0,0,0,0,0,0,0,0,0,0
"Ind51","3_0_2",25,15,13,13,13,13,8,8,8,8,8,9,9,9,9,9,11,10,10,10,10,13,13,11,11,11,8,8,8,8,8,6,6,6,6,7,6,6,6,6,6,7,7,7,8,8,0,0,0,0,-1,0,0,0,0,0,0,0,0,0,0,0,0,0,0,0,0,0,0,0,0
"Ind52","7_0_2",25,15,13,13,13,13,8,8,8,8,8,9,9,9,9,9,11,10,10,10,10,13,13,11,11,11,8,8,8,8,8,6,6,6,6,7,6,6,6,6,6,7,7,7,8,8,0,0,0,0,0,-1,0,0,0,0,0,0,0,0,0,0,0,0,0,0,0,0,0,0,0
"Ind53","7_0_4",25,15,13,13,13,13,8,8,8,8,8,9,9,9,9,9,11,10,10,10,10,13,13,11,11,11,8,8,8,8,8,6,6,6,6,7,6,6,6,6,6,7,7,7,8,8,0,0,0,0,0,0,-1,0,0,0,0,0,0,0,0,0,0,0,0,0,0,0,0,0,0
"Ind54","7_0_1",25,15,13,13,13,13,8,8,8,8,8,9,9,9,9,9,11,10,10,10,10,13,13,11,11,11,8,8,8,8,8,6,6,6,6,7,6,6,6,6,6,7,7,7,8,8,0,0,0,0,0,0,0,-1,0,0,0,0,0,0,0,0,0,0,0,0,0,0,0,0,0
"Ind55","7_0_0",25,15,13,13,13,13,8,8,8,8,8,9,9,9,9,9,11,10,10,10,10,13,13,11,11,11,8,8,8,8,8,6,6,6,6,7,6,6,6,6,6,7,7,7,8,8,0,0,0,0,0,0,0,0,-1,0,0,0,0,0,0,0,0,0,0,0,0,0,0,0,0
"Ind56","7_0_3",25,15,13,13,13,13,8,8,8,8,8,9,9,9,9,9,11,10,10,10,10,13,13,11,11,11,8,8,8,8,8,6,6,6,6,7,6,6,6,6,6,7,7,7,8,8,0,0,0,0,0,0,0,0,0,-1,0,0,0,0,0,0,0,0,0,0,0,0,0,0,0
"Ind57","1_0_1",21,11,9,9,9,9,4,4,4,4,4,5,5,5,5,5,7,6,6,6,6,9,9,7,7,7,4,4,4,4,4,2,2,2,2,3,2,2,2,2,2,3,3,3,4,4,4,4,4,4,4,4,4,4,4,4,-1,0,0,0,0,0,0,0,0,0,0,0,0,0,0
"Ind58","1_0_4",21,11,9,9,9,9,4,4,4,4,4,5,5,5,5,5,7,6,6,6,6,9,9,7,7,7,4,4,4,4,4,2,2,2,2,3,2,2,2,2,2,3,3,3,4,4,4,4,4,4,4,4,4,4,4,4,0,-1,0,0,0,0,0,0,0,0,0,0,0,0,0
"Ind59","1_0_0",21,11,9,9,9,9,4,4,4,4,4,5,5,5,5,5,7,6,6,6,6,9,9,7,7,7,4,4,4,4,4,2,2,2,2,3,2,2,2,2,2,3,3,3,4,4,4,4,4,4,4,4,4,4,4,4,0,0,-1,0,0,0,0,0,0,0,0,0,0,0,0
"Ind60","1_0_2",21,11,9,9,9,9,4,4,4,4,4,5,5,5,5,5,7,6,6,6,6,9,9,7,7,7,4,4,4,4,4,2,2,2,2,3,2,2,2,2,2,3,3,3,4,4,4,4,4,4,4,4,4,4,4,4,0,0,0,-1,0,0,0,0,0,0,0,0,0,0,0
"Ind61","1_0_3",21,11,9,9,9,9,4,4,4,4,4,5,5,5,5,5,7,6,6,6,6,9,9,7,7,7,4,4,4,4,4,2,2,2,2,3,2,2,2,2,2,3,3,3,4,4,4,4,4,4,4,4,4,4,4,4,0,0,0,0,-1,0,0,0,0,0,0,0,0,0,0
"Ind62","2_0_2",23,13,11,11,11,11,6,6,6,6,6,7,7,7,7,7,9,8,8,8,8,11,11,9,9,9,6,6,6,6,6,4,4,4,4,5,4,4,4,4,4,5,5,5,6,6,8,8,8,8,8,8,8,8,8,8,4,4,4,4,4,-1,0,0,0,0,0,0,0,0,0
"Ind63","2_0_0",23,13,11,11,11,11,6,6,6,6,6,7,7,7,7,7,9,8,8,8,8,11,11,9,9,9,6,6,6,6,6,4,4,4,4,5,4,4,4,4,4,5,5,5,6,6,8,8,8,8,8,8,8,8,8,8,4,4,4,4,4,0,-1,0,0,0,0,0,0,0,0
"Ind64","2_0_1",23,13,11,11,11,11,6,6,6,6,6,7,7,7,7,7,9,8,8,8,8,11,11,9,9,9,6,6,6,6,6,4,4,4,4,5,4,4,4,4,4,5,5,5,6,6,8,8,8,8,8,8,8,8,8,8,4,4,4,4,4,0,0,-1,0,0,0,0,0,0,0
"Ind65","2_0_3",23,13,11,11,11,11,6,6,6,6,6,7,7,7,7,7,9,8,8,8,8,11,11,9,9,9,6,6,6,6,6,4,4,4,4,5,4,4,4,4,4,5,5,5,6,6,8,8,8,8,8,8,8,8,8,8,4,4,4,4,4,0,0,0,-1,0,0,0,0,0,0
"Ind66","2_0_4",23,13,11,11,11,11,6,6,6,6,6,7,7,7,7,7,9,8,8,8,8,11,11,9,9,9,6,6,6,6,6,4,4,4,4,5,4,4,4,4,4,5,5,5,6,6,8,8,8,8,8,8,8,8,8,8,4,4,4,4,4,0,0,0,0,-1,0,0,0,0,0
"Ind67","6_0_3",20,8,8,8,8,8,3,3,3,3,3,2,2,2,2,2,6,5,5,5,5,8,8,6,6,6,5,5,5,5,5,1,1,1,1,2,1,1,1,1,1,2,2,2,3,3,7,7,7,7,7,7,7,7,7,7,3,3,3,3,3,5,5,5,5,5,-1,0,0,0,0
"Ind68","6_0_0",20,8,8,8,8,8,3,3,3,3,3,2,2,2,2,2,6,5,5,5,5,8,8,6,6,6,5,5,5,5,5,1,1,1,1,2,1,1,1,1,1,2,2,2,3,3,7,7,7,7,7,7,7,7,7,7,3,3,3,3,3,5,5,5,5,5,0,-1,0,0,0
"Ind69","6_0_4",20,8,8,8,8,8,3,3,3,3,3,2,2,2,2,2,6,5,5,5,5,8,8,6,6,6,5,5,5,5,5,1,1,1,1,2,1,1,1,1,1,2,2,2,3,3,7,7,7,7,7,7,7,7,7,7,3,3,3,3,3,5,5,5,5,5,0,0,-1,0,0
"Ind70","6_0_2",20,8,8,8,8,8,3,3,3,3,3,2,2,2,2,2,6,5,5,5,5,8,8,6,6,6,5,5,5,5,5,1,1,1,1,2,1,1,1,1,1,2,2,2,3,3,7,7,7,7,7,7,7,7,7,7,3,3,3,3,3,5,5,5,5,5,0,0,0,-1,0
"Ind71","6_0_1",19,9,7,7,7,7,2,2,2,2,2,3,3,3,3,3,5,4,4,4,4,7,7,5,5,5,4,4,4,4,4,0,0,0,0,1,0,0,0,0,0,1,1,1,2,2,6,6,6,6,6,6,6,6,6,6,2,2,2,2,2,4,4,4,4,4,1,1,1,1,-1
