Tree file : INDELible V1.03 (best viewed cut and paste in e.g. excel)

N.B. Simulation blocks with no random trees will have their trees printed for the first replicate only.

FILE	TREE	NTAXA	REP	PART	LENGTH	DEPTH	MAX PAIRWISE DISTANCE	TREE STRING

data_01	T01	61	1	1	6.43787	2.43102	4.07636	(0_0_0:1.64534694,((((((6_0_1:0.00755940,(6_0_3:0.00249730,6_0_2:0.00081110):0.00506050):0.01756509,6_0_0:0.03004296):0.11689621,((((13_0_1:0.00390489,13_0_0:0.00650383):0.00554310,(13_0_3:0.00898976,13_0_2:0.00475171):0.00348632):0.09037357,(((7_0_1:0.00619424,(9_0_3:0.00142807,9_0_0:0.00189183):0.00238708):0.00437902,((7_0_0:0.00328523,7_0_3:0.00363272):0.00204979,9_0_2:0.00441421):0.00668809):0.01014436,(7_0_2:0.01038717,9_0_1:0.00458345):0.00711571):0.07085545):0.03729246,(((8_0_1:0.03069469,(8_0_2:0.02367825,(8_0_0:0.00111895,8_0_3:0.00079138):0.01727675):0.00400883):0.03610507,((3_0_2:0.00447045,3_0_3:0.00435359):0.03288041,2_0_2:0.03205263):0.02452677):0.00350419,((2_0_1:0.00107508,(2_0_0:0.00063618,2_0_3:0.00037106):0.00068876):0.01832110,(3_0_0:0.00414494,3_0_1:0.00276322):0.01777497):0.01621815):0.11660890):0.00437538):0.00070376,((11_0_2:0.02559998,11_0_0:0.01871524):0.00858249,(11_0_3:0.00133791,11_0_1:0.00149485):0.03336823):0.10745427):0.09244009,((((1_0_1:0.01037340,((5_0_1:0.00487389,1_0_2:0.00715766):0.00138345,(5_0_3:0.00783287,(5_0_2:0.00449597,(5_0_0:0.00442237,(1_0_3:0.00043586,1_0_0:0.00085311):0.00206651):0.00096153):0.00288549):0.00277782):0.00740351):0.07016468,((10_0_1:0.00908614,10_0_0:0.01041160):0.00216013,(10_0_3:0.00029975,10_0_2:0.00039146):0.01379486):0.02914428):0.11079354,((12_0_3:0.00140739,12_0_2:0.00100529):0.01738792,(12_0_0:0.01062647,12_0_1:0.00520738):0.02105977):0.09630524):0.05910083,((4_0_3:0.01369018,4_0_1:0.02106662):0.00014527,(4_0_2:0.00187502,4_0_0:0.00204087):0.00418203):0.21532787):0.07795166):0.78509021,(((15_0_1:0.00627858,15_0_3:0.00769052):0.06188071,(15_0_2:0.00264704,15_0_0:0.00230705):0.10861168):0.02921044,((14_0_3:0.00233675,(14_0_1:0.00105133,14_0_0:0.00213062):0.00084863):0.00797949,14_0_2:0.00842300):0.04525039):0.38991925):1.30946457);

data_02	T02	61	1	1	11.1185	4.1873	7.00356	(0_0_0:2.81625348,(((((((5_0_0:0.02121159,(1_0_3:0.01402614,5_0_1:0.00638205):0.01221678):0.04143886,10_0_0:0.08906001):0.03822994,(((1_0_1:0.00064327,1_0_0:0.00066453):0.02756548,((5_0_3:0.00294313,5_0_2:0.00331697):0.01207124,1_0_2:0.00733035):0.01779165):0.05366364,((10_0_1:0.00085412,10_0_2:0.00038218):0.00560596,10_0_3:0.00401754):0.03931656):0.03383137):0.00816466,((12_0_0:0.00617613,12_0_2:0.00725570):0.01098507,(12_0_1:0.00078638,12_0_3:0.00079745):0.01589660):0.09369529):0.08281233,(4_0_2:0.09806094,(4_0_0:0.00735885,(4_0_3:0.00176696,4_0_1:0.00077915):0.00315686):0.04329029):0.18768027):0.07667646,((11_0_3:0.02106712,((11_0_2:0.00219044,11_0_0:0.00463933):0.00799755,11_0_1:0.01368837):0.03442207):0.20240413,((((6_0_0:0.00412359,6_0_2:0.00817308):0.01917310,6_0_1:0.02564363):0.10894713,6_0_3:0.10588378):0.14013569,((((8_0_0:0.02068416,(8_0_2:0.01133809,(8_0_3:0.00388233,8_0_1:0.00540614):0.00657695):0.00301821):0.02139650,((2_0_1:0.01150445,(2_0_2:0.00291549,2_0_3:0.00159451):0.00278870):0.01769510,2_0_0:0.03417478):0.02283470):0.06342943,((3_0_1:0.00188782,3_0_0:0.00156202):0.01960205,(3_0_2:0.01582801,3_0_3:0.01170990):0.00342007):0.11592878):0.04369182,(((9_0_0:0.01400616,((7_0_2:0.01194491,7_0_0:0.00750215):0.00045185,9_0_3:0.00741282):0.01000712):0.00032799,((7_0_3:0.00143621,9_0_1:0.00104916):0.00379128,(9_0_2:0.00884793,7_0_1:0.00327309):0.00072030):0.01089124):0.09177994,(13_0_3:0.04621099,((13_0_2:0.00009527,13_0_1:0.00010462):0.00436743,13_0_0:0.00410835):0.04045609):0.06929836):0.09335449):0.01517427):0.00120865):0.09728509):1.18141774,(((14_0_1:0.00172797,(14_0_0:0.00077313,14_0_2:0.00082803):0.00146711):0.04292336,14_0_3:0.04848745):0.01995533,((15_0_0:0.03363787,15_0_3:0.02441884):0.00347054,(15_0_1:0.00946313,15_0_2:0.01073663):0.00836807):0.11094886):2.04142889):1.99781692);

data_03	T03	61	1	1	5.9352	1.88866	3.29961	(((((14_0_2:0.00044080,14_0_0:0.00067208):0.00286809,(14_0_3:0.00020126,14_0_1:0.00023299):0.00353189):0.10022074,((15_0_1:0.00002356,15_0_0:0.00001358):0.01760579,(15_0_3:0.00517187,15_0_2:0.00165991):0.01642860):0.05745502):1.05395613,((((((((13_0_2:0.00077148,13_0_1:0.00365974):0.00227208,13_0_0:0.00271933):0.00230552,13_0_3:0.00696963):0.07404438,((9_0_3:0.00264353,7_0_3:0.00515630):0.02464179,((7_0_2:0.00245862,(9_0_0:0.00035773,9_0_2:0.00097050):0.00143365):0.02023471,((7_0_0:0.00408837,7_0_1:0.00343998):0.00057836,9_0_1:0.01274266):0.01179894):0.00675423):0.05882517):0.02489391,((6_0_1:0.01993390,(6_0_2:0.00278489,6_0_3:0.00298371):0.01832126):0.03926145,6_0_0:0.06802215):0.10234282):0.00631740,(11_0_0:0.00698542,(11_0_3:0.00271925,(11_0_2:0.00117618,11_0_1:0.00194399):0.00328914):0.00100449):0.13942157):0.01548397,((((3_0_2:0.00352138,3_0_1:0.00321982):0.00505858,(3_0_0:0.00220540,3_0_3:0.00229473):0.01461811):0.02020552,((8_0_3:0.01019476,8_0_2:0.00882366):0.00214437,(8_0_0:0.01018898,8_0_1:0.00947160):0.00025857):0.01365575):0.05284417,((2_0_3:0.00659507,(2_0_1:0.00529610,2_0_0:0.00464616):0.00369832):0.00135208,2_0_2:0.01889584):0.05042063):0.08537473):0.01213775,(((((10_0_3:0.00590562,10_0_0:0.00579716):0.00239642,(10_0_2:0.00009880,10_0_1:0.00011118):0.01264945):0.03818156,((((1_0_2:0.01115357,5_0_3:0.00447783):0.00596311,5_0_2:0.01309740):0.00106490,((1_0_3:0.00302183,1_0_1:0.00334862):0.00513715,1_0_0:0.00997720):0.00603348):0.02228750,(5_0_1:0.00007879,5_0_0:0.00006747):0.02355571):0.01375053):0.02973744,((12_0_1:0.00031433,12_0_2:0.00037208):0.04214382,(12_0_0:0.00084869,12_0_3:0.00130727):0.02598849):0.05573799):0.02977009,(((4_0_3:0.00188830,4_0_1:0.00130306):0.00456091,4_0_0:0.00906131):0.04418707,4_0_2:0.08679934):0.10105865):0.05465895):0.80227979):0.73072154,0_0_0:1.41094642);

data_04	T04	61	1	1	6.21545	2.09648	3.76711	(0_0_0:1.67063236,((((((5_0_1:0.02844321,(1_0_0:0.00759921,1_0_2:0.01250015):0.03136315):0.01571068,((10_0_1:0.02173942,((10_0_2:0.00062008,10_0_3:0.00056501):0.00229663,10_0_0:0.00441823):0.01305969):0.01924552,(((5_0_3:0.00072120,5_0_0:0.00108052):0.00283201,5_0_2:0.00249087):0.00613551,(1_0_3:0.00082444,1_0_1:0.00176037):0.00809088):0.02975919):0.00959588):0.03860582,((12_0_0:0.01047846,12_0_3:0.00805411):0.00937227,(12_0_1:0.00552188,12_0_2:0.00697668):0.05083178):0.05536435):0.02052173,(((4_0_3:0.00061443,4_0_0:0.00052052):0.00249968,4_0_1:0.00294991):0.02270490,4_0_2:0.02522444):0.12683422):0.10063861,((((6_0_1:0.00016641,6_0_2:0.00028525):0.02029854,6_0_0:0.01567694):0.01631228,6_0_3:0.03399223):0.07525530,((((((2_0_3:0.00511329,(2_0_2:0.00294652,2_0_0:0.00752039):0.00033623):0.01662531,(((3_0_1:0.00139098,3_0_2:0.00079108):0.01702278,(3_0_3:0.01483230,3_0_0:0.01342673):0.00144170):0.00396614,2_0_1:0.02081309):0.00009971):0.00920393,(8_0_3:0.01411010,8_0_1:0.01588232):0.00982366):0.01627781,(8_0_0:0.00566241,8_0_2:0.00387399):0.04726588):0.05648461,((11_0_3:0.00713845,(11_0_1:0.00130256,11_0_2:0.00170026):0.00626941):0.00551365,11_0_0:0.02091566):0.17357786):0.01678131,(((13_0_2:0.00397592,13_0_1:0.00308755):0.01230367,(13_0_0:0.01892869,13_0_3:0.01520470):0.00781042):0.03577816,((((9_0_1:0.00343925,7_0_1:0.00340208):0.00166137,9_0_2:0.00517271):0.01282491,((9_0_0:0.00057048,7_0_0:0.00037386):0.00962580,(7_0_3:0.00242041,7_0_2:0.00232346):0.00539695):0.00438118):0.00683240,9_0_3:0.01415543):0.03430440):0.04930702):0.00058464):0.02671632):0.89508917,((14_0_2:0.00811054,((14_0_1:0.00114360,14_0_3:0.00059003):0.00544050,14_0_0:0.00407247):0.00491369):0.09055401,(((15_0_1:0.00687419,15_0_3:0.00532222):0.01872524,15_0_2:0.00856493):0.00442680,15_0_0:0.02246390):0.06573392):0.78545161):0.94809532);

data_05	T05	61	1	1	3.55465	1.31039	2.22011	(((((14_0_0:0.00045381,14_0_1:0.00031019):0.01424103,(14_0_2:0.00351997,14_0_3:0.00274954):0.00788868):0.02856598,(((15_0_2:0.00000986,15_0_0:0.00000819):0.00867145,15_0_1:0.00774959):0.00268827,15_0_3:0.01253627):0.03139914):0.35323919,((((((12_0_0:0.00118098,12_0_2:0.00204906):0.00255526,(12_0_3:0.00400921,12_0_1:0.00222819):0.00123826):0.04899074,(((10_0_3:0.00119177,10_0_0:0.00104895):0.00962144,10_0_2:0.01734381):0.00212590,10_0_1:0.01257528):0.02572817):0.00978134,(1_0_0:0.00398169,(((1_0_1:0.00537334,1_0_3:0.00181505):0.00642841,5_0_1:0.00618768):0.00187605,(1_0_2:0.00225977,((5_0_0:0.00049432,5_0_2:0.00034861):0.00062175,5_0_3:0.00121730):0.00383203):0.00941468):0.00217802):0.03327172):0.03379641,((4_0_0:0.00429129,(4_0_2:0.00229708,4_0_3:0.00239332):0.00374489):0.00785984,4_0_1:0.02033696):0.07225410):0.04606370,((((6_0_2:0.00159626,6_0_1:0.00293570):0.00093218,6_0_3:0.00665376):0.01229825,6_0_0:0.03377263):0.05236205,(((11_0_1:0.00773931,(11_0_3:0.00039878,11_0_2:0.00055177):0.00248314):0.00160422,11_0_0:0.01121217):0.05592408,((((7_0_2:0.00245146,9_0_1:0.00189878):0.01045434,(((9_0_2:0.00120859,7_0_0:0.00123002):0.00084040,(7_0_1:0.00113513,7_0_3:0.00076863):0.00100265):0.00586766,9_0_0:0.00782280):0.00293288):0.01466586,9_0_3:0.01635948):0.02733271,(((13_0_2:0.00775082,(13_0_1:0.01277351,13_0_3:0.01142895):0.00047751):0.00451028,13_0_0:0.02670190):0.02852869,(((3_0_3:0.00552193,(3_0_1:0.00295456,(3_0_0:0.00021592,3_0_2:0.00031728):0.00307911):0.00059329):0.02125391,(2_0_1:0.00061912,(2_0_0:0.00054015,(2_0_3:0.00041775,2_0_2:0.00034607):0.00013038):0.00014683):0.02085629):0.00545182,((8_0_1:0.00108768,8_0_2:0.00133071):0.00234182,(8_0_3:0.00075422,8_0_0:0.00069821):0.00592143):0.03315266):0.06184058):0.00108060):0.00446936):0.02012784):0.02136960):0.55699870):0.60467158,0_0_0:0.90971929);

data_06	T06	61	1	1	9.40201	3.6663	6.24248	(0_0_0:2.57617414,((((14_0_0:0.00089305,14_0_2:0.00156839):0.02937421,(14_0_1:0.00761763,14_0_3:0.00696611):0.02783068):0.06535986,((15_0_0:0.01253832,(15_0_2:0.00773296,15_0_3:0.00675106):0.01191573):0.06198626,15_0_1:0.07614511):0.01535683):0.78939219,(((((12_0_0:0.02274106,(12_0_2:0.00643883,12_0_3:0.00955486):0.02504741):0.00744410,12_0_1:0.02634473):0.05376123,((((10_0_3:0.00084214,10_0_2:0.00121785):0.01121675,10_0_0:0.00672646):0.00135351,10_0_1:0.00985223):0.05356952,(5_0_1:0.03109038,(((5_0_0:0.00080506,5_0_3:0.00089352):0.01526753,(5_0_2:0.00680182,(1_0_0:0.00322878,1_0_3:0.00283051):0.00218732):0.01050270):0.00595515,(1_0_1:0.00702903,1_0_2:0.00816299):0.01575108):0.02363943):0.03790638):0.04965487):0.06606779,(4_0_1:0.03012413,(4_0_2:0.00802300,(4_0_3:0.00126121,4_0_0:0.00123717):0.01723750):0.00943261):0.19270080):0.07530874,(((((7_0_0:0.00510975,9_0_1:0.00352354):0.06400506,(((9_0_2:0.00158044,9_0_0:0.00082565):0.00371085,((7_0_1:0.00170244,9_0_3:0.00161444):0.00062149,7_0_2:0.00306736):0.00235468):0.00174956,7_0_3:0.00409348):0.02426585):0.08456709,(13_0_3:0.00892458,13_0_1:0.00700608):0.08910906):0.08537358,(((11_0_3:0.00657043,11_0_2:0.00492191):0.00659147,(11_0_1:0.00214188,11_0_0:0.00198494):0.01659155):0.29052512,((6_0_3:0.01117520,(6_0_0:0.00696225,6_0_2:0.00994412):0.00267186):0.02779405,6_0_1:0.03980651):0.09077308):0.00275558):0.02284346,((13_0_0:0.02200049,13_0_2:0.01018640):0.10786445,(((8_0_2:0.00966265,(8_0_1:0.00202767,(8_0_0:0.00076367,8_0_3:0.00031995):0.00075857):0.01657012):0.01387673,(((2_0_0:0.02357356,3_0_1:0.02837230):0.00365608,3_0_0:0.02027709):0.00542630,((2_0_2:0.00023435,2_0_1:0.00023752):0.00409208,2_0_3:0.00679876):0.03101624):0.00152813):0.01010592,(3_0_2:0.00731890,3_0_3:0.00630023):0.07672057):0.12858217):0.03822150):0.04546927):1.71178867):1.57418705);

data_07	T07	61	1	1	8.73667	3.3643	4.73428	(0_0_0:1.36998469,(((((14_0_3:0.00528329,14_0_1:0.00371036):0.00492590,14_0_0:0.00745041):0.01006073,14_0_2:0.02078282):0.05534537,((15_0_1:0.01824555,(15_0_2:0.00730347,15_0_3:0.00490374):0.00280965):0.03963255,15_0_0:0.05625572):0.01028037):1.98428999,((((4_0_0:0.01339116,4_0_2:0.00703661):0.03038035,(4_0_3:0.04219042,4_0_1:0.03925390):0.00050757):0.14477393,((((10_0_3:0.01241982,10_0_2:0.00965584):0.01473011,(10_0_0:0.00081743,10_0_1:0.00057182):0.02023502):0.09878369,((1_0_2:0.01174240,1_0_1:0.02312646):0.00336360,(5_0_2:0.00882118,((5_0_0:0.00678405,(5_0_1:0.00305141,5_0_3:0.00191292):0.00541592):0.00572421,(1_0_3:0.00220146,1_0_0:0.00178377):0.00846629):0.01395096):0.00019078):0.05037401):0.00490948,((12_0_1:0.00689990,12_0_2:0.01377487):0.00474457,(12_0_3:0.00721843,12_0_0:0.01241096):0.00505091):0.08634301):0.04598322):0.21912139,(((6_0_3:0.02346806,6_0_1:0.02546405):0.02418736,(6_0_2:0.00756631,6_0_0:0.01161936):0.03783021):0.24548656,((((((9_0_1:0.00153518,9_0_3:0.00159284):0.00434551,(7_0_1:0.00198259,7_0_0:0.00274391):0.00240794):0.04913283,(9_0_2:0.01523848,((7_0_2:0.00341942,7_0_3:0.00267560):0.00118544,9_0_0:0.00359686):0.00220698):0.03253757):0.08356349,((13_0_1:0.01398245,(13_0_2:0.00319211,13_0_3:0.00126582):0.00833957):0.00588967,13_0_0:0.02864255):0.10505497):0.07443941,(((((8_0_2:0.00251936,8_0_1:0.00183059):0.00135872,8_0_0:0.00302069):0.00299158,8_0_3:0.00461021):0.05997011,3_0_1:0.05150998):0.01454374,((3_0_2:0.01072261,(3_0_0:0.00211731,3_0_3:0.00182100):0.00797947):0.05169750,((2_0_2:0.00503508,2_0_1:0.00454497):0.02844748,(2_0_3:0.00523952,2_0_0:0.00821948):0.03604919):0.01684514):0.02143812):0.12214001):0.02258032,(11_0_0:0.02988229,(11_0_1:0.05350160,(11_0_3:0.00102517,11_0_2:0.00334151):0.02410764):0.00601649):0.15159448):0.01371151):0.05616001):1.19224880):1.30388134);

data_08	T08	61	1	1	7.19829	2.29052	3.87459	((((14_0_0:0.03490994,((14_0_2:0.00015318,14_0_3:0.00014224):0.00516320,14_0_1:0.00512149):0.03123490):0.03919621,(((15_0_3:0.00147685,15_0_0:0.00300337):0.00106329,15_0_1:0.00275404):0.02159304,15_0_2:0.03712940):0.05397330):1.16598722,(((((((13_0_0:0.01154842,13_0_1:0.01281928):0.00110686,13_0_3:0.02062654):0.02833211,13_0_2:0.02930525):0.04418472,(((9_0_2:0.02120781,(7_0_3:0.00013742,7_0_2:0.00033563):0.02286914):0.00376589,((9_0_3:0.00385916,9_0_1:0.00497112):0.00210908,7_0_0:0.00803276):0.01222579):0.02590968,(9_0_0:0.00982778,7_0_1:0.01199113):0.03615229):0.03179895):0.13709413,((((2_0_0:0.01556253,2_0_3:0.01394198):0.04573198,((((8_0_3:0.01163416,8_0_1:0.00615288):0.00546981,8_0_0:0.01612458):0.01515696,(2_0_1:0.00314482,2_0_2:0.00187297):0.02960514):0.00063526,((3_0_3:0.00955743,3_0_0:0.00669149):0.00061144,(3_0_1:0.00729367,3_0_2:0.00337598):0.01069850):0.02587139):0.01121884):0.00204122,8_0_2:0.08580115):0.08375724,(((11_0_1:0.00288431,11_0_0:0.00328289):0.01140878,(11_0_3:0.00175542,11_0_2:0.00091074):0.01649481):0.17815295,(((6_0_3:0.00353622,6_0_0:0.00718897):0.00485722,6_0_1:0.00958132):0.00562673,6_0_2:0.01297077):0.13119243):0.01374547):0.01553009):0.04192145,((12_0_1:0.01468020,(12_0_2:0.00745510,(12_0_0:0.00071876,12_0_3:0.00077297):0.00359614):0.00620405):0.12803478,(((10_0_0:0.01267394,10_0_1:0.01049727):0.01294751,(10_0_3:0.02110235,10_0_2:0.01607701):0.03315446):0.03013452,((5_0_1:0.01099326,((1_0_2:0.00139639,1_0_3:0.00044110):0.00201174,1_0_1:0.00389851):0.00421617):0.00000729,((5_0_3:0.00075178,5_0_2:0.00060986):0.00549392,(1_0_0:0.00454773,5_0_0:0.00826912):0.00117253):0.00400240):0.03881476):0.08387933):0.14460004):0.01745310,(4_0_3:0.04984151,((4_0_1:0.00057550,4_0_0:0.00153260):0.02408692,4_0_2:0.01786111):0.02867211):0.15479259):0.91671548):1.03343421,0_0_0:1.58406120);

data_09	T09	61	1	1	7.42318	2.65574	4.56196	(((((15_0_3:0.00529137,15_0_0:0.00441663):0.03181775,(15_0_2:0.00249228,15_0_1:0.00131899):0.03155935):0.07856535,((14_0_3:0.01180350,(14_0_0:0.00438834,14_0_2:0.00414885):0.00542429):0.02197991,14_0_1:0.04633531):0.10513665):0.87926156,((((4_0_2:0.00820395,(4_0_3:0.00054045,4_0_1:0.00081942):0.01101145):0.03176856,4_0_0:0.08059208):0.04878580,((((12_0_3:0.00088489,12_0_2:0.00057926):0.00025016,12_0_0:0.00143648):0.00381423,12_0_1:0.00578905):0.02824077,(((10_0_2:0.00011812,(10_0_3:0.00006221,10_0_1:0.00009232):0.00013797):0.02084280,10_0_0:0.01512521):0.02539005,((((1_0_3:0.00453977,5_0_0:0.00370169):0.00043008,((1_0_1:0.00228703,(1_0_0:0.00024763,1_0_2:0.00023551):0.00305110):0.00387033,5_0_2:0.00331957):0.00139698):0.00787124,5_0_1:0.01820765):0.01192063,5_0_3:0.02252654):0.03466042):0.02263599):0.03035266):0.23807686,((((((9_0_2:0.00668392,9_0_0:0.00536072):0.01539622,((7_0_0:0.00197903,9_0_3:0.00194066):0.01064759,7_0_3:0.00640051):0.01185917):0.00347043,(7_0_1:0.00288233,(7_0_2:0.00185065,9_0_1:0.00169164):0.00144351):0.02409387):0.03906250,(13_0_2:0.02049773,(13_0_1:0.02420891,(13_0_0:0.01346878,13_0_3:0.01828761):0.00356845):0.01415405):0.04283349):0.08440468,(((8_0_2:0.00136386,(8_0_3:0.00014537,8_0_0:0.00020734):0.00086626):0.01695613,8_0_1:0.01102109):0.06389249,((2_0_3:0.02951323,3_0_2:0.03203543):0.00409190,(((3_0_3:0.00348549,3_0_0:0.00300603):0.00010594,3_0_1:0.00622538):0.02218004,(2_0_1:0.01711844,(2_0_0:0.00317301,2_0_2:0.00183881):0.00390281):0.02327938):0.00879189):0.07114111):0.06872556):0.02525698,((((6_0_1:0.00981114,6_0_3:0.00939276):0.01692134,6_0_2:0.02016423):0.01943668,6_0_0:0.08050641):0.10740156,((11_0_0:0.00336739,11_0_1:0.00551582):0.00990929,(11_0_3:0.00354499,11_0_2:0.00543671):0.01385642):0.12784113):0.00360513):0.08970040):1.07307853):1.21520918,0_0_0:1.90621329);

data_10	T10	61	1	1	9.25089	2.73322	5.26249	(((((4_0_3:0.00704817,((4_0_0:0.00138315,4_0_2:0.00074990):0.00178977,4_0_1:0.00204313):0.00626368):0.14853744,(((10_0_0:0.01031351,10_0_3:0.00878656):0.00922501,(10_0_2:0.01575875,10_0_1:0.01571389):0.00511829):0.13346258,(((5_0_0:0.01129163,((1_0_2:0.00328832,1_0_0:0.00116216):0.00102764,1_0_3:0.00154509):0.00776601):0.01895263,((5_0_3:0.00293884,1_0_1:0.00394521):0.00990500,(5_0_2:0.00482340,5_0_1:0.00201874):0.01157114):0.01469141):0.04699947,((12_0_2:0.00531140,12_0_0:0.00956338):0.00692997,(12_0_1:0.01056322,12_0_3:0.00791445):0.00094392):0.07058159):0.04305189):0.00847576):0.13374798,((((6_0_3:0.00522486,6_0_0:0.00897969):0.01555115,(6_0_1:0.00192673,6_0_2:0.00201443):0.03310170):0.10821050,(((3_0_3:0.08755423,(3_0_2:0.01329299,(3_0_0:0.00636115,3_0_1:0.00850035):0.01344583):0.04726156):0.00285836,(((2_0_0:0.00193726,2_0_2:0.00230583):0.00205098,(2_0_1:0.00038308,2_0_3:0.00028007):0.00354058):0.04759112,((8_0_1:0.00606692,8_0_2:0.00555219):0.01245145,(8_0_0:0.00121186,8_0_3:0.00230469):0.01633990):0.01522618):0.01560741):0.13364142,(((7_0_3:0.05597216,((((9_0_1:0.00467024,7_0_1:0.00362860):0.00032209,(9_0_2:0.00226669,9_0_3:0.00324322):0.00117619):0.01336682,7_0_2:0.01445172):0.00455161,(7_0_0:0.00600986,9_0_0:0.00651764):0.01083488):0.01106084):0.06026533,(13_0_3:0.02793712,(13_0_0:0.01895242,13_0_1:0.01278999):0.00415081):0.12607973):0.05343235,13_0_2:0.16550636):0.02934378):0.00635172):0.00407988,((11_0_2:0.00475212,(11_0_0:0.00306634,11_0_3:0.00103160):0.00217150):0.00345955,11_0_1:0.00831131):0.21428916):0.08371622):1.31800427,(((15_0_3:0.02773772,(15_0_0:0.00706144,(15_0_2:0.00518126,15_0_1:0.00468354):0.00581649):0.01964452):0.06743693,(14_0_0:0.00891044,14_0_3:0.00640230):0.10220104):0.00815873,(14_0_2:0.02351606,14_0_1:0.02193740):0.08723633):1.57947379):0.83052854,0_0_0:2.73321933);
