Tree file : INDELible V1.03 (best viewed cut and paste in e.g. excel)

N.B. Simulation blocks with no random trees will have their trees printed for the first replicate only.

FILE	TREE	NTAXA	REP	PART	LENGTH	DEPTH	MAX PAIRWISE DISTANCE	TREE STRING

data_01	T01	248	1	1	0.413931	0.18597	0.233354	((((((((((12_0_16:0.00000023,12_0_7:0.00000019):0.00002151,(12_0_12:0.00012813,(12_0_4:0.00001360,(12_0_3:0.00000738,12_0_11:0.00000163):0.00000091):0.00001014):0.00000199):0.00001115,12_0_8:0.00019768):0.00015344,((12_0_10:0.00009794,((12_0_15:0.00000407,12_0_5:0.00000295):0.00001691,12_0_6:0.00001796):0.00001763):0.00001112,((12_0_9:0.00000130,(12_0_0:0.00000388,12_0_18:0.00000351):0.00000040):0.00002559,12_0_13:0.00005570):0.00008336):0.00008163):0.00243377,((12_0_14:0.00013756,(12_0_1:0.00000140,(12_0_2:0.00000707,12_0_17:0.00000565):0.00000936):0.00005340):0.00129159,(((13_0_10:0.00002265,(13_0_0:0.00000351,13_0_12:0.00000469):0.00005856):0.00011652,((13_0_9:0.00009778,(13_0_17:0.00001635,13_0_3:0.00011559):0.00000006):0.00007339,(13_0_16:0.00036181,((13_0_14:0.00000521,(13_0_18:0.00001858,13_0_11:0.00001027):0.00001536):0.00001194,((13_0_2:0.00000226,13_0_1:0.00001416):0.00002804,(13_0_5:0.00004119,((13_0_4:0.00000117,13_0_6:0.00000582):0.00005574,13_0_8:0.00000336):0.00002171):0.00000011):0.00000769):0.00013017):0.00001221):0.00000176):0.00055668,((13_0_7:0.00001797,13_0_13:0.00000920):0.00035382,13_0_15:0.00019466):0.00026383):0.00069260):0.00079689):0.00609401,(((((((((3_0_8:0.00000109,3_0_10:0.00000239):0.00000813,3_0_4:0.00000618):0.00000964,3_0_6:0.00003204):0.00000179,3_0_5:0.00006858):0.00001807,(3_0_18:0.00001785,3_0_17:0.00005294):0.00005212):0.00004582,3_0_16:0.00030555):0.00012170,((((11_0_7:0.00005932,((11_0_6:0.00001732,11_0_3:0.00002393):0.00000385,11_0_0:0.00000088):0.00004183):0.00002216,(11_0_4:0.00005460,(((11_0_13:0.00003429,(11_0_10:0.00000186,11_0_14:0.00000163):0.00000605):0.00000900,((11_0_11:0.00000063,11_0_5:0.00000053):0.00003068,((11_0_8:0.00000366,11_0_1:0.00000109):0.00002057,11_0_12:0.00000981):0.00000515):0.00003740):0.00001775,11_0_17:0.00011225):0.00003257):0.00002331):0.00024284,11_0_2:0.00033933):0.00001947,(11_0_18:0.00014223,((11_0_9:0.00000079,11_0_15:0.00000252):0.00001815,11_0_16:0.00010192):0.00004123):0.00014460):0.00006515):0.00007339,((3_0_15:0.00000528,3_0_1:0.00002617):0.00014529,(3_0_2:0.00002223,((3_0_12:0.00000117,3_0_7:0.00000519):0.00000319,3_0_9:0.00000330):0.00025918):0.00006510):0.00025597):0.00885702,((((3_0_3:0.00003620,3_0_0:0.00005719):0.00001634,3_0_13:0.00001806):0.00001565,3_0_14:0.00012700):0.00023828,3_0_11:0.00023361):0.00333139):0.00711745):0.00760026,((10_0_7:0.00047824,((((10_0_13:0.00000317,(10_0_17:0.00002467,10_0_16:0.00002874):0.00000325):0.00006988,((10_0_4:0.00000175,10_0_18:0.00000590):0.00000550,(10_0_14:0.00000906,10_0_5:0.00000248):0.00001858):0.00003976):0.00041164,((((10_0_2:0.00000997,((10_0_1:0.00000384,10_0_11:0.00000335):0.00001702,(10_0_10:0.00000645,10_0_12:0.00000398):0.00001331):0.00001504):0.00001075,10_0_15:0.00001575):0.00003373,(10_0_3:0.00000065,10_0_9:0.00000026):0.00003944):0.00007349,(10_0_0:0.00001200,10_0_8:0.00000331):0.00061643):0.00002027):0.00004904,10_0_6:0.00007519):0.00003841):0.00529668,(((((5_0_7:0.00001343,5_0_1:0.00000394):0.00002486,(5_0_2:0.00000210,5_0_10:0.00000449):0.00000950):0.00003478,((5_0_12:0.00000510,5_0_0:0.00000279):0.00007681,5_0_6:0.00004347):0.00017836):0.00071382,((((((5_0_4:0.00000377,5_0_3:0.00000991):0.00002465,((5_0_18:0.00000013,5_0_13:0.00000024):0.00005775,5_0_14:0.00001214):0.00001471):0.00000234,5_0_8:0.00004043):0.00001988,5_0_9:0.00003557):0.00002080,5_0_16:0.00011908):0.00022774,(5_0_11:0.00039535,((5_0_17:0.00000291,5_0_5:0.00000172):0.00001798,5_0_15:0.00009321):0.00001773):0.00020583):0.00018543):0.00049614,(((((6_0_10:0.00014153,(6_0_2:0.00003347,6_0_9:0.00001634):0.00008702):0.00033151,(((6_0_14:0.00002306,6_0_12:0.00000246):0.00000285,6_0_11:0.00001578):0.00002576,6_0_16:0.00002888):0.00020738):0.00029850,(((((6_0_3:0.00000349,6_0_13:0.00000150):0.00000122,6_0_8:0.00000355):0.00002106,6_0_0:0.00000891):0.00002163,(6_0_5:0.00001996,(6_0_6:0.00000825,6_0_17:0.00001340):0.00000021):0.00000980):0.00001800,(6_0_4:0.00011748,((6_0_7:0.00002335,(6_0_1:0.00000151,6_0_18:0.00000021):0.00000932):0.00000933,6_0_15:0.00004126):0.00000853):0.00026910):0.00045278):0.00270721,(((((8_0_3:0.00001986,(8_0_17:0.00003615,8_0_16:0.00001742):0.00004182):0.00002745,8_0_13:0.00002730):0.00000126,((8_0_9:0.00000834,8_0_10:0.00002424):0.00002739,8_0_5:0.00000195):0.00001594):0.00003056,(8_0_2:0.00003796,(8_0_6:0.00001972,((8_0_8:0.00010554,8_0_11:0.00006101):0.00000225,8_0_1:0.00010438):0.00002724):0.00010473):0.00000423):0.00005209,(8_0_18:0.00003099,(8_0_0:0.00002449,((8_0_7:0.00001061,(8_0_14:0.00000405,8_0_15:0.00000754):0.00000092):0.00000102,(8_0_4:0.00000089,8_0_12:0.00000107):0.00000437):0.00000208):0.00000249):0.00035706):0.00184802):0.00882219,((((7_0_16:0.00019168,((7_0_15:0.00000903,(7_0_6:0.00000274,7_0_7:0.00001270):0.00000557):0.00000889,7_0_2:0.00001802):0.00010955):0.00001086,(((7_0_8:0.00000081,7_0_3:0.00000100):0.00004623,7_0_11:0.00001615):0.00000546,((7_0_10:0.00003396,7_0_1:0.00001301):0.00001417,7_0_9:0.00001322):0.00005316):0.00003745):0.00008146,7_0_4:0.00037775):0.00015420,(((7_0_18:0.00007308,7_0_13:0.00001338):0.00007355,7_0_14:0.00003617):0.00011351,(7_0_0:0.00008783,(7_0_12:0.00001983,(7_0_5:0.00000099,7_0_17:0.00000377):0.00000533):0.00002656):0.00017496):0.00000775):0.00698080):0.00073294):0.00007128):0.00152648):0.01086567,((((9_0_11:0.00013860,((9_0_3:0.00002678,(9_0_1:0.00000403,9_0_13:0.00000282):0.00006800):0.00000537,9_0_4:0.00003793):0.00000769):0.00008886,(9_0_9:0.00007939,((((9_0_6:0.00000132,9_0_7:0.00000759):0.00000459,9_0_5:0.00000320):0.00003233,9_0_10:0.00002848):0.00001429,9_0_15:0.00005994):0.00000092):0.00014832):0.00004259,(((9_0_12:0.00007106,9_0_8:0.00005498):0.00021144,9_0_2:0.00004155):0.00034924,(((9_0_14:0.00000098,9_0_0:0.00000087):0.00000228,(9_0_16:0.00000426,9_0_18:0.00000042):0.00002729):0.00000351,9_0_17:0.00001273):0.00017719):0.00017454):0.00111566,((((4_0_11:0.00003416,(4_0_0:0.00000868,4_0_8:0.00002147):0.00004954):0.00001578,(((((4_0_2:0.00000046,4_0_13:0.00000265):0.00000128,4_0_17:0.00000301):0.00000043,4_0_4:0.00000332):0.00002646,((4_0_12:0.00000808,4_0_16:0.00000280):0.00000655,4_0_3:0.00001411):0.00001884):0.00006015,4_0_18:0.00004710):0.00000271):0.00004343,(4_0_1:0.00001277,(4_0_6:0.00000344,4_0_14:0.00000178):0.00006657):0.00010829):0.00001660,((4_0_10:0.00001341,4_0_9:0.00000408):0.00035761,(4_0_5:0.00004497,(4_0_15:0.00002159,4_0_7:0.00000768):0.00002758):0.00005374):0.00002446):0.00464291):0.01967106):0.09856883,((((2_0_15:0.00024240,((((2_0_3:0.00000688,2_0_8:0.00001458):0.00000696,2_0_18:0.00002894):0.00002091,2_0_17:0.00001330):0.00000553,2_0_6:0.00003596):0.00008300):0.00036387,((((2_0_11:0.00001805,2_0_12:0.00000093):0.00000317,(2_0_10:0.00000773,2_0_0:0.00000000):0.00000399):0.00003659,((2_0_16:0.00001155,2_0_14:0.00001746):0.00001335,(2_0_9:0.00000455,2_0_2:0.00000222):0.00003245):0.00000825):0.00000702,2_0_4:0.00001714):0.00071009):0.00014959,((2_0_1:0.00004149,(2_0_7:0.00000943,2_0_5:0.00003130):0.00000331):0.00009592,2_0_13:0.00037723):0.00003781):0.00237940,(((((1_0_18:0.00001167,1_0_8:0.00000067):0.00008986,1_0_9:0.00003440):0.00009996,((1_0_15:0.00003453,1_0_14:0.00002757):0.00013870,1_0_10:0.00007937):0.00001737):0.00024995,(1_0_16:0.00012903,(1_0_17:0.00004986,((1_0_7:0.00000083,1_0_6:0.00000981):0.00003935,(1_0_5:0.00000276,(((1_0_13:0.00000548,1_0_11:0.00001207):0.00000240,1_0_0:0.00000150):0.00000679,1_0_1:0.00000781):0.00000010):0.00015833):0.00000105):0.00005635):0.00031583):0.00036353,((1_0_4:0.00003596,1_0_3:0.00003423):0.00005191,(1_0_12:0.00012332,1_0_2:0.00006815):0.00000040):0.00042284):0.00017441):0.09645225):0.05237216,0_0_0:0.03472627);

data_02	T02	248	1	1	0.499513	0.27246	0.372981	(((((1_0_17:0.00010686,(1_0_10:0.00001425,((((1_0_8:0.00001353,1_0_13:0.00000259):0.00003273,1_0_15:0.00001144):0.00000156,(1_0_18:0.00001205,1_0_9:0.00000215):0.00002114):0.00000868,(1_0_3:0.00001897,(1_0_2:0.00000097,1_0_12:0.00002819):0.00000452):0.00001382):0.00000452):0.00000321):0.00009772,(((1_0_16:0.00000918,(1_0_11:0.00000275,1_0_1:0.00000088):0.00002156):0.00013305,(1_0_6:0.00018794,((1_0_7:0.00000321,1_0_14:0.00000353):0.00005044,1_0_5:0.00001571):0.00001369):0.00000820):0.00022472,(1_0_0:0.00007065,1_0_4:0.00019490):0.00004300):0.00018704):0.00065536,((((2_0_12:0.00006141,(2_0_18:0.00007388,(((2_0_1:0.00000696,2_0_17:0.00000931):0.00001810,((2_0_6:0.00000433,2_0_16:0.00000194):0.00000285,2_0_8:0.00000106):0.00001086):0.00001305,2_0_0:0.00010576):0.00002830):0.00000939):0.00012747,((2_0_14:0.00000070,2_0_15:0.00001775):0.00008049,2_0_10:0.00002657):0.00005895):0.00055916,2_0_4:0.00007937):0.00000173,((2_0_13:0.00001113,2_0_7:0.00004779):0.00000049,(2_0_2:0.00002328,((2_0_11:0.00001278,2_0_3:0.00002016):0.00000460,(2_0_5:0.00000797,2_0_9:0.00000903):0.00000954):0.00004456):0.00010723):0.00018746):0.00338195):0.05843209,(((((((((((6_0_13:0.00000333,6_0_4:0.00000430):0.00000714,(6_0_9:0.00000040,6_0_0:0.00000095):0.00001947):0.00015293,6_0_7:0.00006527):0.00000304,(6_0_15:0.00003735,((6_0_2:0.00000427,(6_0_3:0.00000159,6_0_5:0.00000189):0.00000084):0.00000747,6_0_18:0.00005410):0.00000108):0.00005222):0.00003896,(((6_0_1:0.00000649,6_0_14:0.00000484):0.00001018,6_0_10:0.00001056):0.00004850,(((6_0_17:0.00000007,6_0_11:0.00000059):0.00002385,6_0_6:0.00000650):0.00001890,(6_0_8:0.00004619,(6_0_12:0.00000059,6_0_16:0.00000099):0.00004658):0.00001321):0.00002965):0.00000381):0.00198884,((8_0_4:0.00001128,(8_0_1:0.00006020,(8_0_6:0.00005779,8_0_18:0.00007614):0.00003832):0.00008159):0.00041452,(((8_0_2:0.00006662,(8_0_17:0.00008747,(8_0_10:0.00005838,(8_0_14:0.00001141,8_0_16:0.00010036):0.00000018):0.00003488):0.00000782):0.00005618,((8_0_15:0.00000030,8_0_12:0.00001385):0.00000208,8_0_9:0.00000679):0.00002184):0.00006994,((8_0_5:0.00000355,8_0_7:0.00000054):0.00013443,((8_0_13:0.00000192,(8_0_11:0.00000491,8_0_3:0.00000122):0.00000072):0.00000574,(8_0_0:0.00000235,8_0_8:0.00000021):0.00002482):0.00005329):0.00052111):0.00009320):0.00146778):0.00387346,((((7_0_12:0.00000036,7_0_1:0.00000007):0.00000982,(((7_0_0:0.00000384,7_0_8:0.00000113):0.00000178,(7_0_4:0.00000634,7_0_10:0.00000316):0.00000466):0.00000460,7_0_6:0.00001306):0.00000337):0.00001397,7_0_11:0.00018118):0.00003412,(((((7_0_17:0.00000760,7_0_5:0.00000386):0.00002044,7_0_9:0.00001594):0.00004730,7_0_15:0.00031604):0.00000485,((7_0_2:0.00001613,7_0_16:0.00009420):0.00013953,(((7_0_13:0.00000175,7_0_3:0.00000066):0.00000185,7_0_7:0.00000265):0.00011361,7_0_14:0.00000610):0.00032873):0.00003963):0.00005989,7_0_18:0.00026723):0.00003103):0.00374117):0.00193493,((((5_0_12:0.00015241,5_0_13:0.00006623):0.00002394,(((5_0_0:0.00000010,5_0_5:0.00000103):0.00000552,(5_0_10:0.00002846,(5_0_6:0.00000442,5_0_9:0.00000137):0.00000901):0.00002095):0.00017949,(5_0_17:0.00000896,5_0_18:0.00001080):0.00013736):0.00004397):0.00001949,(5_0_11:0.00023016,5_0_3:0.00024275):0.00006300):0.00072976,((((5_0_4:0.00001115,5_0_8:0.00003053):0.00001369,(5_0_7:0.00008007,5_0_14:0.00003746):0.00005974):0.00012028,(5_0_2:0.00001740,5_0_16:0.00003098):0.00007803):0.00037432,(5_0_15:0.00003439,5_0_1:0.00000870):0.00019237):0.00038015):0.00382413):0.00135993,((((10_0_18:0.00002205,((10_0_14:0.00001189,(10_0_4:0.00000061,10_0_8:0.00000727):0.00000380):0.00000820,10_0_7:0.00000962):0.00000226):0.00001574,10_0_3:0.00013162):0.00012304,(((10_0_0:0.00000712,10_0_1:0.00000965):0.00001171,10_0_16:0.00004118):0.00001021,10_0_9:0.00013380):0.00009053):0.00078698,(((10_0_11:0.00015864,10_0_2:0.00035182):0.00000014,(10_0_10:0.00006825,(10_0_15:0.00002443,(((10_0_6:0.00001185,10_0_13:0.00000666):0.00000006,10_0_17:0.00000873):0.00001081,10_0_5:0.00002042):0.00002642):0.00003607):0.00002995):0.00054870,10_0_12:0.00023820):0.00004156):0.00150017):0.00254051,((((11_0_6:0.00000222,11_0_8:0.00000169):0.00014507,(((11_0_14:0.00001140,11_0_11:0.00000481):0.00002967,(11_0_9:0.00000162,11_0_10:0.00000209):0.00001709):0.00025189,(((11_0_1:0.00001119,11_0_15:0.00000202):0.00004840,(11_0_5:0.00001552,((11_0_0:0.00000145,11_0_2:0.00000366):0.00002932,(11_0_7:0.00000651,11_0_3:0.00000517):0.00001421):0.00000734):0.00004606):0.00002923,(11_0_4:0.00000008,11_0_18:0.00000016):0.00001631):0.00022139):0.00002735):0.00079675,(((11_0_13:0.00001958,(11_0_12:0.00001947,11_0_16:0.00002221):0.00017294):0.00064990,11_0_17:0.00043855):0.00017306,(((((3_0_0:0.00001106,3_0_6:0.00000361):0.00002959,(3_0_15:0.00001107,3_0_5:0.00001778):0.00000709):0.00004572,3_0_2:0.00018962):0.00021200,(((3_0_17:0.00000241,(3_0_1:0.00000142,3_0_8:0.00000157):0.00003122):0.00002825,3_0_13:0.00014955):0.00002124,(3_0_4:0.00004636,3_0_12:0.00001724):0.00007750):0.00001240):0.00015851,(((3_0_3:0.00000181,3_0_18:0.00000086):0.00000626,3_0_16:0.00003154):0.00016899,(((3_0_7:0.00002353,3_0_10:0.00001424):0.00006018,(3_0_9:0.00000677,3_0_11:0.00000326):0.00001745):0.00002490,3_0_14:0.00010718):0.00005537):0.00018348):0.00013088):0.00023600):0.00204108,((((13_0_0:0.00001222,13_0_7:0.00001653):0.00066769,((13_0_16:0.00026989,(((13_0_9:0.00000254,(13_0_17:0.00000556,13_0_5:0.00000118):0.00000193):0.00000854,13_0_18:0.00005705):0.00000633,13_0_15:0.00021387):0.00004413):0.00024122,((13_0_1:0.00008630,(((13_0_10:0.00000245,13_0_14:0.00000280):0.00001042,13_0_13:0.00003674):0.00000856,13_0_3:0.00007542):0.00001528):0.00016763,((13_0_8:0.00000176,13_0_4:0.00000409):0.00009812,(13_0_2:0.00001873,13_0_6:0.00005108):0.00002261):0.00000246):0.00009311):0.00025705):0.00002259,(13_0_12:0.00001338,13_0_11:0.00000345):0.00064455):0.00134894,((((((12_0_8:0.00003347,(12_0_6:0.00000222,12_0_9:0.00000063):0.00001407):0.00005988,((12_0_14:0.00002716,12_0_3:0.00001399):0.00000112,(12_0_16:0.00001624,((12_0_13:0.00006111,((12_0_4:0.00001328,12_0_10:0.00001329):0.00000987,12_0_17:0.00000357):0.00000101):0.00000788,12_0_1:0.00002463):0.00000109):0.00001187):0.00000801):0.00011769,12_0_2:0.00012192):0.00002563,12_0_0:0.00022829):0.00022573,(12_0_18:0.00000622,12_0_5:0.00000177):0.00003858):0.00012119,(12_0_15:0.00026667,(12_0_11:0.00001435,(12_0_12:0.00000501,12_0_7:0.00000360):0.00000824):0.00012266):0.00004046):0.00083479):0.00074840):0.00395170):0.00373099,(((((9_0_18:0.00001589,(9_0_0:0.00000085,9_0_12:0.00000245):0.00001222):0.00000895,((9_0_4:0.00001816,9_0_1:0.00000873):0.00002997,9_0_17:0.00000883):0.00001272):0.00007143,(9_0_7:0.00000649,(9_0_14:0.00004565,(9_0_6:0.00001260,((9_0_2:0.00000055,9_0_13:0.00000152):0.00001516,9_0_10:0.00005898):0.00000572):0.00001416):0.00005157):0.00011642):0.00018558,((9_0_11:0.00004586,((9_0_8:0.00000417,9_0_5:0.00000403):0.00000115,(9_0_3:0.00001286,9_0_16:0.00000075):0.00002915):0.00013863):0.00008123,(9_0_15:0.00002376,9_0_9:0.00021420):0.00003613):0.00022313):0.00154473,(4_0_8:0.00024354,(((4_0_2:0.00020325,((4_0_16:0.00000629,4_0_18:0.00000712):0.00006332,((4_0_3:0.00001451,(4_0_10:0.00000277,4_0_6:0.00000384):0.00000927):0.00003647,4_0_12:0.00004578):0.00002163):0.00000361):0.00000005,(4_0_4:0.00001377,4_0_11:0.00002119):0.00003225):0.00049556,(((((4_0_0:0.00000177,4_0_13:0.00000067):0.00001220,4_0_5:0.00001150):0.00002431,(4_0_1:0.00000297,(4_0_14:0.00001275,4_0_7:0.00000255):0.00000211):0.00002900):0.00009284,4_0_15:0.00003320):0.00007990,(4_0_17:0.00000426,4_0_9:0.00001474):0.00036589):0.00017443):0.00009763):0.00265756):0.02732113):0.03753383):0.03221182,0_0_0:0.27246040);

data_03	T03	248	1	1	0.372743	0.166384	0.264476	(0_0_0:0.16638447,(((((4_0_17:0.00003627,4_0_3:0.00002718):0.00062291,((((((4_0_12:0.00000245,4_0_18:0.00000681):0.00004037,((4_0_2:0.00000209,4_0_1:0.00000640):0.00002650,(4_0_8:0.00000905,4_0_14:0.00000267):0.00000738):0.00006787):0.00019592,(4_0_13:0.00004349,4_0_10:0.00006040):0.00007304):0.00002187,4_0_4:0.00011233):0.00002086,((4_0_6:0.00000024,(4_0_5:0.00000722,(4_0_11:0.00003177,4_0_9:0.00002390):0.00000011):0.00000095):0.00001214,(4_0_0:0.00004823,(4_0_15:0.00000398,4_0_7:0.00001535):0.00002820):0.00001035):0.00008734):0.00011342,4_0_16:0.00003639):0.00089202):0.00568006,(((9_0_12:0.00006563,9_0_11:0.00007743):0.00005619,(((9_0_9:0.00000006,9_0_18:0.00000001):0.00005194,(((9_0_13:0.00000661,9_0_2:0.00001992):0.00001801,9_0_16:0.00000647):0.00000662,(9_0_15:0.00000222,9_0_1:0.00000257):0.00002763):0.00000055):0.00010910,9_0_0:0.00022208):0.00000942):0.00057828,((9_0_3:0.00003219,(9_0_14:0.00002877,9_0_17:0.00003312):0.00000175):0.00014296,(9_0_8:0.00027397,(((9_0_10:0.00001335,9_0_7:0.00000111):0.00000754,(9_0_6:0.00000444,9_0_5:0.00000569):0.00000040):0.00000361,9_0_4:0.00000745):0.00001146):0.00008263):0.00017376):0.00470285):0.00958599,(((((((3_0_11:0.00002696,3_0_14:0.00005883):0.00003798,((3_0_10:0.00005869,3_0_12:0.00000418):0.00000475,3_0_6:0.00002059):0.00011778):0.00008626,(((((3_0_7:0.00000271,(3_0_5:0.00000222,3_0_4:0.00002888):0.00001363):0.00000092,(3_0_18:0.00000289,3_0_17:0.00000076):0.00005373):0.00004020,3_0_16:0.00002079):0.00025995,(3_0_9:0.00003733,(3_0_1:0.00003413,(3_0_8:0.00001267,3_0_0:0.00000427):0.00000134):0.00000897):0.00018041):0.00001011,(3_0_3:0.00003275,3_0_15:0.00000541):0.00004967):0.00003956):0.00016686,(3_0_2:0.00001009,3_0_13:0.00000681):0.00073964):0.00001597,(((((11_0_10:0.00000545,(11_0_12:0.00001631,11_0_17:0.00000435):0.00000370):0.00017468,(11_0_15:0.00001635,(11_0_9:0.00001313,11_0_2:0.00003108):0.00000362):0.00010580):0.00000934,(((11_0_0:0.00001515,11_0_18:0.00000103):0.00000862,11_0_16:0.00001710):0.00000234,(11_0_3:0.00002929,(11_0_13:0.00000299,(11_0_8:0.00001005,11_0_7:0.00000739):0.00001439):0.00000297):0.00001562):0.00008700):0.00004441,11_0_5:0.00008395):0.00007249,(((11_0_1:0.00000419,11_0_4:0.00000274):0.00000227,11_0_6:0.00000140):0.00007044,(11_0_11:0.00003185,11_0_14:0.00003150):0.00007104):0.00079151):0.00035441):0.00308839,((13_0_17:0.00132728,((13_0_11:0.00001300,13_0_18:0.00000892):0.00000859,((13_0_7:0.00007100,(((((13_0_0:0.00005726,13_0_13:0.00003041):0.00004427,(((13_0_1:0.00000971,13_0_8:0.00000543):0.00005621,13_0_9:0.00002810):0.00000490,13_0_14:0.00005673):0.00006824):0.00001829,(13_0_5:0.00000433,13_0_10:0.00000452):0.00005728):0.00002821,(13_0_6:0.00004522,13_0_3:0.00010384):0.00001196):0.00011967,(13_0_15:0.00002865,(13_0_12:0.00000302,13_0_4:0.00000221):0.00003828):0.00001823):0.00000240):0.00001164,(13_0_2:0.00003187,13_0_16:0.00011913):0.00004192):0.00016224):0.00003144):0.00016891,(((12_0_3:0.00003245,12_0_17:0.00000354):0.00001279,(((12_0_15:0.00002525,(12_0_2:0.00000335,12_0_5:0.00000230):0.00003178):0.00001213,(12_0_13:0.00007425,12_0_7:0.00001623):0.00000999):0.00003937,(12_0_9:0.00003842,12_0_11:0.00002642):0.00011864):0.00005158):0.00129980,(((12_0_0:0.00000065,12_0_4:0.00000420):0.00004533,((12_0_12:0.00003062,12_0_10:0.00000400):0.00004268,(12_0_14:0.00005202,12_0_1:0.00000252):0.00002098):0.00016955):0.00013605,(((12_0_18:0.00000077,12_0_6:0.00000094):0.00000958,12_0_16:0.00001965):0.00000289,12_0_8:0.00006006):0.00028825):0.00001590):0.00027536):0.00968108):0.00170947,(((((((((7_0_12:0.00000992,7_0_2:0.00000258):0.00000016,7_0_4:0.00000915):0.00001635,7_0_18:0.00001859):0.00012118,7_0_9:0.00029839):0.00002847,((7_0_5:0.00003785,7_0_7:0.00002838):0.00004731,(7_0_15:0.00000677,7_0_1:0.00001214):0.00002589):0.00017415):0.00014301,((7_0_17:0.00000839,(7_0_14:0.00005426,((7_0_0:0.00001153,(7_0_13:0.00000023,7_0_8:0.00000893):0.00000340):0.00000490,7_0_6:0.00000330):0.00000069):0.00000487):0.00008382,((7_0_3:0.00000319,7_0_10:0.00001106):0.00009820,(7_0_16:0.00001034,7_0_11:0.00008195):0.00006200):0.00010628):0.00056917):0.00286031,(((8_0_12:0.00029262,(((8_0_15:0.00002078,(8_0_18:0.00000309,(8_0_7:0.00000611,8_0_6:0.00000323):0.00001644):0.00000698):0.00008612,(8_0_4:0.00000177,8_0_3:0.00001228):0.00004910):0.00080106,((8_0_0:0.00002974,8_0_17:0.00002150):0.00005779,8_0_13:0.00004096):0.00010812):0.00002496):0.00005253,(((8_0_16:0.00001076,8_0_1:0.00001209):0.00000423,(8_0_8:0.00011984,(8_0_11:0.00001141,8_0_2:0.00001588):0.00005181):0.00001771):0.00003866,(((8_0_9:0.00000195,8_0_14:0.00000028):0.00000014,8_0_10:0.00000116):0.00000865,8_0_5:0.00000487):0.00004666):0.00051723):0.00248884,((6_0_12:0.00007239,((6_0_15:0.00002112,(6_0_6:0.00011192,6_0_9:0.00003795):0.00000471):0.00001750,(6_0_0:0.00000165,6_0_11:0.00000093):0.00011005):0.00000849):0.00110482,(((6_0_3:0.00000782,6_0_10:0.00000394):0.00002690,(6_0_16:0.00001509,(6_0_17:0.00000133,6_0_18:0.00000278):0.00000104):0.00003517):0.00015856,((((6_0_7:0.00000874,6_0_13:0.00003895):0.00001808,(6_0_4:0.00000607,6_0_5:0.00000639):0.00000593):0.00001087,6_0_8:0.00003928):0.00001850,(6_0_2:0.00000838,(6_0_14:0.00000038,6_0_1:0.00000119):0.00002049):0.00000861):0.00022192):0.00068619):0.00196447):0.00274231):0.00046521,((((5_0_3:0.00002436,5_0_10:0.00004025):0.00003159,5_0_0:0.00002419):0.00069113,(5_0_16:0.00008327,5_0_1:0.00011797):0.00009319):0.00008986,(((((5_0_14:0.00001034,(5_0_13:0.00000075,(5_0_12:0.00000058,5_0_5:0.00000080):0.00000140):0.00000980):0.00000923,5_0_9:0.00000619):0.00001777,(5_0_7:0.00003901,(5_0_4:0.00000361,(5_0_6:0.00000027,5_0_11:0.00000024):0.00000108):0.00007528):0.00002054):0.00002182,5_0_17:0.00031665):0.00014642,((5_0_2:0.00001056,(5_0_18:0.00000280,5_0_15:0.00000216):0.00000819):0.00005464,5_0_8:0.00001259):0.00046537):0.00015574):0.00024752):0.00061809,(((10_0_5:0.00007100,((10_0_17:0.00007306,((10_0_4:0.00005192,10_0_6:0.00000895):0.00000123,10_0_1:0.00000929):0.00000523):0.00008238,(((10_0_18:0.00000184,(10_0_13:0.00000694,10_0_3:0.00003853):0.00000799):0.00001788,(10_0_16:0.00006430,10_0_9:0.00003052):0.00001432):0.00000362,(10_0_2:0.00001632,10_0_11:0.00001741):0.00002505):0.00001313):0.00000727):0.00022851,10_0_0:0.00037355):0.00038538,((((10_0_14:0.00001472,10_0_7:0.00002142):0.00000047,10_0_12:0.00001402):0.00001164,10_0_10:0.00000515):0.00026935,(10_0_15:0.00019776,10_0_8:0.00006198):0.00004300):0.00147249):0.00767122):0.00490626):0.00056933):0.01569868,((((((1_0_8:0.00000908,(1_0_1:0.00000668,1_0_0:0.00000372):0.00000384):0.00002452,(1_0_7:0.00001849,(1_0_9:0.00001217,1_0_16:0.00000395):0.00000168):0.00000865):0.00000076,1_0_15:0.00001776):0.00002523,1_0_18:0.00007283):0.00003554,(((1_0_14:0.00001327,1_0_12:0.00000681):0.00010459,1_0_17:0.00002932):0.00041083,((1_0_3:0.00089440,(1_0_5:0.00007547,(1_0_13:0.00008148,(1_0_2:0.00007439,(1_0_11:0.00000361,1_0_10:0.00000494):0.00005912):0.00000252):0.00013684):0.00014958):0.00006392,(1_0_4:0.00000181,1_0_6:0.00000091):0.00009939):0.00000848):0.00003505):0.00243598,(((2_0_1:0.00000220,2_0_3:0.00000100):0.00015108,((2_0_17:0.00003995,(2_0_8:0.00001880,(2_0_13:0.00000881,2_0_2:0.00000343):0.00000444):0.00004050):0.00000313,(((2_0_18:0.00005544,2_0_7:0.00013703):0.00001681,(2_0_0:0.00002870,((2_0_15:0.00001850,(2_0_12:0.00000197,(2_0_9:0.00000518,2_0_10:0.00000229):0.00000044):0.00001433):0.00000151,2_0_11:0.00002164):0.00000760):0.00003894):0.00000107,2_0_4:0.00004010):0.00000401):0.00013326):0.00051095,(((2_0_6:0.00000176,2_0_5:0.00000184):0.00005049,2_0_14:0.00003545):0.00025229,2_0_16:0.00006593):0.00077054):0.00092390):0.07185556):0.02279846);

data_04	T04	248	1	1	0.347246	0.182919	0.26043	(0_0_0:0.18291857,(((((10_0_8:0.00111094,(((10_0_10:0.00002038,(((10_0_15:0.00000918,10_0_9:0.00000989):0.00003984,10_0_12:0.00001412):0.00000144,10_0_7:0.00001511):0.00000011):0.00001779,((10_0_3:0.00000337,10_0_16:0.00000532):0.00000199,10_0_4:0.00000826):0.00004881):0.00011900,(((10_0_5:0.00001163,(10_0_6:0.00001202,10_0_0:0.00001162):0.00000755):0.00004933,((10_0_2:0.00006793,((10_0_11:0.00000141,10_0_14:0.00000196):0.00001789,10_0_13:0.00002421):0.00000987):0.00003589,10_0_18:0.00009625):0.00006020):0.00016699,(10_0_17:0.00016187,10_0_1:0.00007326):0.00002907):0.00001729):0.00065843):0.00064067,((((5_0_1:0.00009863,(((5_0_14:0.00000120,5_0_9:0.00000174):0.00000015,5_0_2:0.00000041):0.00001200,(5_0_4:0.00000116,5_0_5:0.00001485):0.00000141):0.00006872):0.00099415,(5_0_15:0.00002130,5_0_3:0.00001175):0.00062235):0.00066531,((((5_0_18:0.00000146,5_0_11:0.00000164):0.00001805,5_0_13:0.00004005):0.00008326,((5_0_0:0.00001274,5_0_8:0.00002678):0.00000292,5_0_7:0.00001099):0.00002244):0.00016857,(5_0_10:0.00001265,((5_0_16:0.00001863,5_0_17:0.00001146):0.00000219,(5_0_6:0.00001076,5_0_12:0.00001636):0.00000137):0.00001718):0.00010110):0.00004499):0.00938694,((((7_0_11:0.00001739,7_0_17:0.00001500):0.00000795,7_0_18:0.00001616):0.00049801,((7_0_6:0.00018264,(7_0_5:0.00002417,((7_0_12:0.00000100,7_0_7:0.00000830):0.00000960,7_0_3:0.00001282):0.00001407):0.00003245):0.00011154,((7_0_2:0.00019130,((7_0_8:0.00004976,(7_0_0:0.00000729,7_0_13:0.00002577):0.00000273):0.00007725,(7_0_4:0.00001547,7_0_10:0.00000942):0.00001144):0.00000249):0.00012634,((7_0_9:0.00000698,(7_0_14:0.00000370,7_0_1:0.00000086):0.00000320):0.00001753,(7_0_16:0.00002315,7_0_15:0.00000656):0.00001090):0.00018027):0.00001107):0.00012299):0.00038396,((((8_0_13:0.00012591,8_0_1:0.00007136):0.00000163,((8_0_15:0.00004124,(8_0_10:0.00000506,8_0_8:0.00000537):0.00022839):0.00000788,8_0_3:0.00000943):0.00001371):0.00008415,((((8_0_7:0.00000325,8_0_11:0.00000512):0.00000034,8_0_12:0.00000273):0.00013325,((8_0_0:0.00001227,(((8_0_16:0.00000523,8_0_2:0.00000339):0.00000034,8_0_18:0.00001290):0.00000317,8_0_17:0.00000064):0.00000709):0.00000412,8_0_14:0.00000782):0.00016161):0.00003538,((8_0_9:0.00008913,(8_0_5:0.00000638,8_0_4:0.00002325):0.00004266):0.00009171,8_0_6:0.00001341):0.00014872):0.00009758):0.00303775,(((6_0_17:0.00000172,6_0_14:0.00000221):0.00004657,(6_0_5:0.00004423,((((6_0_3:0.00000162,((6_0_10:0.00000168,6_0_12:0.00000005):0.00000144,6_0_13:0.00000129):0.00000094):0.00000824,(6_0_16:0.00000880,6_0_1:0.00000600):0.00000410):0.00000188,((6_0_11:0.00000696,6_0_0:0.00000045):0.00001848,6_0_8:0.00000876):0.00000495):0.00003785,6_0_2:0.00006165):0.00000849):0.00001735):0.00177736,((6_0_4:0.00000331,6_0_6:0.00000610):0.00033400,((6_0_18:0.00002535,6_0_7:0.00002766):0.00013631,(6_0_15:0.00000628,6_0_9:0.00000764):0.00002300):0.00011311):0.00011228):0.00152418):0.00424577):0.00246954):0.00073219):0.00766169,((((((11_0_10:0.00003096,(11_0_3:0.00000098,11_0_4:0.00000231):0.00000622):0.00001828,(11_0_16:0.00000835,11_0_5:0.00000081):0.00000696):0.00009081,((11_0_17:0.00007867,(11_0_1:0.00008954,(11_0_11:0.00001428,11_0_2:0.00002442):0.00011397):0.00001894):0.00003209,(11_0_9:0.00000042,11_0_6:0.00000050):0.00019845):0.00002206):0.00001077,((((11_0_13:0.00000329,11_0_14:0.00000412):0.00000956,11_0_12:0.00000889):0.00000859,(11_0_8:0.00000279,11_0_18:0.00011126):0.00000003):0.00004075,((11_0_15:0.00000948,11_0_7:0.00000309):0.00008403,11_0_0:0.00002465):0.00006494):0.00021206):0.00024414,(((3_0_5:0.00000778,(3_0_15:0.00000864,(3_0_17:0.00000594,3_0_9:0.00000810):0.00000833):0.00000215):0.00012583,((((3_0_1:0.00000151,3_0_13:0.00001505):0.00004272,3_0_0:0.00007728):0.00006374,3_0_8:0.00024458):0.00011607,(3_0_3:0.00011493,((3_0_10:0.00001570,3_0_4:0.00001273):0.00002476,3_0_6:0.00003021):0.00022202):0.00010816):0.00003674):0.00001777,(((3_0_12:0.00000361,3_0_16:0.00000307):0.00002982,(3_0_2:0.00000367,((3_0_14:0.00001127,3_0_18:0.00001282):0.00000414,3_0_7:0.00001468):0.00002703):0.00003308):0.00018590,3_0_11:0.00011266):0.00005577):0.00060343):0.00350818,(((((13_0_18:0.00014915,13_0_4:0.00007885):0.00001786,13_0_6:0.00026106):0.00011870,((13_0_8:0.00002503,13_0_16:0.00005183):0.00035508,(13_0_7:0.00013483,13_0_14:0.00008787):0.00001483):0.00026372):0.00060725,((12_0_2:0.00024874,((12_0_11:0.00000455,12_0_18:0.00000916):0.00002146,12_0_15:0.00002027):0.00008850):0.00004535,(((12_0_16:0.00000182,(12_0_3:0.00000051,12_0_8:0.00000296):0.00000190):0.00001704,((12_0_7:0.00001164,12_0_14:0.00002504):0.00000715,12_0_6:0.00002906):0.00002623):0.00005800,(((12_0_4:0.00005967,(((12_0_13:0.00000064,12_0_5:0.00000037):0.00000344,12_0_0:0.00000082):0.00011280,12_0_9:0.00002717):0.00007381):0.00005154,12_0_12:0.00033969):0.00002664,(12_0_10:0.00003576,(12_0_1:0.00010971,12_0_17:0.00002026):0.00000606):0.00004569):0.00011654):0.00005704):0.00120384):0.00025308,(13_0_17:0.00018417,(((((13_0_0:0.00004451,13_0_15:0.00001008):0.00000124,13_0_3:0.00000300):0.00003160,(13_0_1:0.00003352,(13_0_2:0.00000341,(13_0_11:0.00000332,13_0_9:0.00000413):0.00000343):0.00001020):0.00004465):0.00004470,((13_0_5:0.00001782,13_0_12:0.00001137):0.00001870,13_0_10:0.00007704):0.00000812):0.00000171,13_0_13:0.00001640):0.00003916):0.00189031):0.01761923):0.00223345):0.01769629,(((((9_0_4:0.00002217,9_0_3:0.00002996):0.00003316,9_0_16:0.00007395):0.00013943,(9_0_6:0.00002126,(((9_0_18:0.00001787,9_0_10:0.00000370):0.00000166,9_0_1:0.00002330):0.00011288,(9_0_8:0.00000013,9_0_17:0.00000088):0.00001816):0.00000621):0.00005558):0.00092153,((9_0_12:0.00002220,(9_0_11:0.00011702,((9_0_5:0.00000476,9_0_9:0.00000404):0.00001164,9_0_7:0.00003372):0.00005196):0.00005312):0.00004556,((9_0_13:0.00002360,(9_0_14:0.00000420,9_0_15:0.00000097):0.00000797):0.00000064,(9_0_0:0.00003279,9_0_2:0.00001261):0.00000760):0.00032472):0.00022442):0.00691341,((((4_0_15:0.00005515,4_0_1:0.00002065):0.00008457,4_0_12:0.00008862):0.00002470,((((4_0_0:0.00000039,4_0_6:0.00000186):0.00002020,((4_0_3:0.00000032,4_0_2:0.00000318):0.00002287,4_0_13:0.00000773):0.00002992):0.00004128,(((4_0_5:0.00002302,(4_0_16:0.00001449,4_0_7:0.00001053):0.00000902):0.00006323,4_0_11:0.00000607):0.00000541,(4_0_18:0.00000624,4_0_8:0.00000374):0.00004880):0.00000170):0.00000403,((4_0_4:0.00000297,4_0_9:0.00000424):0.00000844,4_0_10:0.00000139):0.00007829):0.00004220):0.00018594,(4_0_14:0.00000032,4_0_17:0.00000025):0.00071865):0.00019292):0.00072537):0.02403268,((((((2_0_10:0.00001963,2_0_18:0.00001601):0.00001014,2_0_14:0.00001691):0.00001356,(((2_0_13:0.00000858,2_0_3:0.00000864):0.00000247,2_0_0:0.00003008):0.00000992,(2_0_1:0.00004746,2_0_11:0.00002956):0.00000836):0.00000262):0.00018651,((2_0_12:0.00000116,2_0_8:0.00000186):0.00000467,2_0_9:0.00000907):0.00007240):0.00032692,((2_0_15:0.00000588,2_0_6:0.00004347):0.00004572,(((2_0_4:0.00002495,(2_0_2:0.00001155,2_0_17:0.00001637):0.00000025):0.00000279,(2_0_5:0.00001181,2_0_7:0.00001068):0.00001215):0.00000086,2_0_16:0.00002218):0.00001222):0.00076080):0.00040892,((1_0_17:0.00077908,((1_0_9:0.00007254,((1_0_3:0.00013522,(1_0_1:0.00008225,1_0_2:0.00004757):0.00000156):0.00000052,1_0_14:0.00002192):0.00003190):0.00001581,(((1_0_8:0.00000051,1_0_6:0.00000015):0.00000247,1_0_13:0.00000082):0.00000535,(((1_0_7:0.00000681,1_0_12:0.00000373):0.00000143,(1_0_10:0.00000899,(1_0_5:0.00000222,1_0_0:0.00000320):0.00000437):0.00000047):0.00007328,(1_0_18:0.00002270,1_0_11:0.00004263):0.00004418):0.00000818):0.00006591):0.00003702):0.00171946,(1_0_15:0.00005708,(1_0_16:0.00006285,1_0_4:0.00000573):0.00001975):0.00250938):0.00055448):0.01053568):0.01385538);

data_05	T05	248	1	1	0.467296	0.16283	0.307492	(((((((1_0_6:0.00000352,1_0_11:0.00002836):0.00005791,(((1_0_2:0.00001799,((1_0_7:0.00001101,(1_0_13:0.00000294,1_0_18:0.00000376):0.00001305):0.00001450,(1_0_12:0.00001086,(1_0_16:0.00000180,1_0_9:0.00001302):0.00000529):0.00004189):0.00000062):0.00002770,1_0_8:0.00001304):0.00002154,(1_0_0:0.00001658,1_0_1:0.00001228):0.00003297):0.00008649):0.00011694,((1_0_17:0.00003896,1_0_15:0.00004502):0.00003655,((1_0_10:0.00002917,1_0_5:0.00000415):0.00001905,1_0_4:0.00000722):0.00000670):0.00008658):0.00016708,(1_0_14:0.00028505,1_0_3:0.00019442):0.00037531):0.00022625,((2_0_5:0.00010109,2_0_3:0.00009893):0.00024574,(((2_0_10:0.00005471,2_0_6:0.00002506):0.00006122,((2_0_1:0.00000752,2_0_11:0.00000230):0.00013709,((2_0_13:0.00004647,2_0_15:0.00005388):0.00002397,((2_0_14:0.00001624,2_0_12:0.00004479):0.00000134,(2_0_7:0.00000568,2_0_2:0.00000103):0.00003610):0.00000594):0.00003644):0.00000757):0.00007378,(2_0_0:0.00013349,(2_0_8:0.00007870,((2_0_18:0.00003289,(2_0_16:0.00001031,2_0_17:0.00001084):0.00000110):0.00010348,(2_0_4:0.00008299,2_0_9:0.00016084):0.00006105):0.00000322):0.00006579):0.00005802):0.00003406):0.00102159):0.09393671,(((((((10_0_17:0.00019092,(10_0_18:0.00000177,10_0_6:0.00000525):0.00016043):0.00009826,(((10_0_0:0.00002843,10_0_15:0.00002225):0.00003640,((10_0_12:0.00003779,10_0_2:0.00000243):0.00001743,((10_0_1:0.00000630,10_0_7:0.00002132):0.00000422,10_0_14:0.00000890):0.00001009):0.00000805):0.00001714,(10_0_5:0.00006274,10_0_13:0.00000805):0.00003283):0.00020546):0.00006460,(10_0_3:0.00000942,10_0_9:0.00003270):0.00046329):0.00048102,(10_0_4:0.00009884,((10_0_8:0.00001218,(10_0_10:0.00000225,10_0_11:0.00000168):0.00001043):0.00003395,10_0_16:0.00002375):0.00000182):0.00071301):0.00426558,((((((7_0_11:0.00000267,7_0_5:0.00000297):0.00001036,(7_0_6:0.00005003,((7_0_15:0.00000266,7_0_4:0.00000089):0.00000128,7_0_0:0.00004510):0.00001779):0.00002319):0.00000279,(7_0_16:0.00000778,(7_0_12:0.00000688,7_0_13:0.00001308):0.00000243):0.00001741):0.00100431,(((7_0_1:0.00000683,(7_0_17:0.00000024,7_0_10:0.00000005):0.00000300):0.00000620,7_0_2:0.00030217):0.00004451,(((7_0_9:0.00003796,(7_0_7:0.00006013,7_0_14:0.00001795):0.00000073):0.00004541,(7_0_3:0.00000051,7_0_8:0.00001248):0.00003965):0.00004983,7_0_18:0.00015844):0.00008037):0.00028062):0.00531020,(((((8_0_1:0.00000588,8_0_10:0.00001487):0.00000345,8_0_7:0.00003317):0.00025194,8_0_12:0.00017018):0.00039057,(((8_0_14:0.00000389,8_0_13:0.00000696):0.00003355,(8_0_6:0.00004001,(8_0_11:0.00002393,8_0_18:0.00000709):0.00002277):0.00000080):0.00013428,((8_0_15:0.00034713,(((8_0_0:0.00001351,8_0_5:0.00002657):0.00000231,8_0_2:0.00004094):0.00009177,(((8_0_17:0.00000123,8_0_9:0.00000177):0.00002043,8_0_3:0.00002768):0.00004564,(8_0_16:0.00002714,8_0_8:0.00000794):0.00002265):0.00002087):0.00001722):0.00000068,8_0_4:0.00008629):0.00001049):0.00128413):0.00628525,((((6_0_4:0.00000507,6_0_18:0.00000272):0.00007735,((6_0_16:0.00000174,6_0_5:0.00000007):0.00002824,(((6_0_2:0.00000728,6_0_9:0.00000806):0.00000913,(6_0_3:0.00000998,(6_0_14:0.00000260,6_0_12:0.00000142):0.00001126):0.00000386):0.00000057,6_0_0:0.00001504):0.00001586):0.00011265):0.00016110,((6_0_11:0.00002802,(6_0_6:0.00001482,6_0_7:0.00001329):0.00006597):0.00000166,6_0_10:0.00010514):0.00017715):0.00029283,(6_0_13:0.00017881,(((6_0_15:0.00010786,6_0_8:0.00005429):0.00000638,6_0_17:0.00012387):0.00005951,6_0_1:0.00014048):0.00018065):0.00009745):0.00161806):0.00417284):0.00043187,((5_0_17:0.00001367,5_0_14:0.00000450):0.00044210,((5_0_16:0.00008522,5_0_0:0.00004055):0.00011052,(((5_0_12:0.00000582,((5_0_1:0.00000910,5_0_3:0.00002138):0.00001051,5_0_7:0.00005645):0.00004246):0.00000093,((5_0_6:0.00000083,(5_0_5:0.00000095,5_0_11:0.00000098):0.00000337):0.00004361,5_0_13:0.00013773):0.00000985):0.00001009,((5_0_10:0.00004135,(5_0_4:0.00003416,5_0_2:0.00000784):0.00002368):0.00003292,((5_0_15:0.00001274,5_0_9:0.00000767):0.00011324,(5_0_18:0.00001684,5_0_8:0.00002934):0.00007438):0.00000224):0.00000697):0.00003773):0.00042562):0.00308224):0.00084197):0.00505765,(((((((13_0_17:0.00000638,(13_0_3:0.00002425,(13_0_18:0.00001310,13_0_11:0.00000361):0.00002773):0.00000262):0.00008796,13_0_5:0.00000516):0.00028872,(13_0_9:0.00003267,13_0_0:0.00005197):0.00047596):0.00007766,((13_0_10:0.00017946,((((13_0_13:0.00001010,(13_0_8:0.00000473,13_0_15:0.00000666):0.00001046):0.00001978,(13_0_12:0.00001694,(13_0_2:0.00000247,13_0_14:0.00000102):0.00004312):0.00001906):0.00004667,(13_0_1:0.00003766,13_0_4:0.00000931):0.00000240):0.00000536,(13_0_7:0.00003413,13_0_16:0.00000838):0.00000595):0.00000641):0.00006673,13_0_6:0.00036463):0.00046714):0.00079694,(12_0_12:0.00000413,12_0_11:0.00003711):0.00300722):0.00002636,(((12_0_10:0.00003194,(12_0_15:0.00000201,12_0_1:0.00000068):0.00003289):0.00003171,(((12_0_6:0.00000180,(12_0_5:0.00000041,12_0_0:0.00000108):0.00000522):0.00000157,12_0_2:0.00000346):0.00001422,12_0_14:0.00002361):0.00011179):0.00000801,((((12_0_9:0.00000222,12_0_17:0.00000359):0.00005942,((12_0_3:0.00000268,(12_0_7:0.00000018,12_0_8:0.00000041):0.00000690):0.00000631,12_0_16:0.00001181):0.00006649):0.00003379,12_0_13:0.00014556):0.00000715,(12_0_4:0.00008696,12_0_18:0.00005816):0.00000147):0.00002250):0.00007327):0.00043738,(((3_0_6:0.00022030,(3_0_12:0.00001273,(3_0_4:0.00000791,(3_0_18:0.00000138,3_0_8:0.00000243):0.00000035):0.00000357):0.00029540):0.00005780,((3_0_13:0.00000695,(3_0_10:0.00000045,3_0_5:0.00000579):0.00002998):0.00004294,(((3_0_7:0.00000327,3_0_15:0.00000124):0.00010729,3_0_11:0.00019679):0.00000601,((3_0_0:0.00003101,3_0_16:0.00000189):0.00004971,3_0_14:0.00005528):0.00000334):0.00002808):0.00006055):0.00029079,(((3_0_17:0.00012922,(3_0_1:0.00001411,3_0_9:0.00000476):0.00001324):0.00013927,(3_0_3:0.00005219,3_0_2:0.00012468):0.00023265):0.00003036,((((11_0_5:0.00000250,11_0_10:0.00000128):0.00016384,(11_0_13:0.00016015,11_0_9:0.00008701):0.00001420):0.00001435,((11_0_15:0.00005652,(11_0_18:0.00005971,11_0_1:0.00008209):0.00002755):0.00020072,(((11_0_11:0.00001430,(11_0_17:0.00000368,11_0_14:0.00000062):0.00000545):0.00000117,11_0_2:0.00000274):0.00002544,11_0_4:0.00001339):0.00010527):0.00000247):0.00005513,((((11_0_7:0.00000368,11_0_6:0.00000546):0.00019810,(11_0_16:0.00002470,11_0_12:0.00000795):0.00000499):0.00001529,11_0_3:0.00007025):0.00004121,(11_0_8:0.00000625,11_0_0:0.00000290):0.00017902):0.00006677):0.00008472):0.00004369):0.01745162):0.00070080):0.00420834,(((((4_0_11:0.00000251,4_0_0:0.00000590):0.00002407,4_0_3:0.00019155):0.00005649,((4_0_1:0.00004285,4_0_15:0.00003714):0.00000793,((4_0_18:0.00000590,(4_0_16:0.00000007,4_0_6:0.00000169):0.00000589):0.00004196,4_0_13:0.00003967):0.00000282):0.00003039):0.00037444,(4_0_12:0.00010934,((4_0_2:0.00000197,4_0_17:0.00000689):0.00007139,((4_0_5:0.00002423,4_0_9:0.00000904):0.00005733,(((4_0_7:0.00000071,4_0_10:0.00000348):0.00001870,4_0_8:0.00003894):0.00001069,(4_0_4:0.00000077,4_0_14:0.00000047):0.00001612):0.00000062):0.00021520):0.00021756):0.00003174):0.00592296,((((9_0_2:0.00003059,((9_0_15:0.00011026,((9_0_12:0.00002044,9_0_16:0.00000809):0.00000165,(9_0_1:0.00000014,9_0_8:0.00000660):0.00006673):0.00000394):0.00000128,9_0_7:0.00017879):0.00006077):0.00031528,(9_0_4:0.00005062,(((9_0_10:0.00000275,9_0_17:0.00000192):0.00000351,9_0_5:0.00000487):0.00001786,(9_0_11:0.00005497,9_0_18:0.00006212):0.00000868):0.00000151):0.00084268):0.00218916,(9_0_0:0.00000398,9_0_13:0.00000166):0.00014376):0.00032155,((9_0_9:0.00002794,9_0_14:0.00001156):0.00005510,(9_0_6:0.00000211,9_0_3:0.00000359):0.00011107):0.00157353):0.00138391):0.01170816):0.05141176):0.04932086,0_0_0:0.16283021);

data_06	T06	248	1	1	0.318407	0.131672	0.188339	(0_0_0:0.05666737,((((((1_0_14:0.00000076,1_0_16:0.00004860):0.00003708,((1_0_8:0.00001568,((1_0_17:0.00000535,1_0_5:0.00001444):0.00000223,1_0_3:0.00000316):0.00000260):0.00001838,(1_0_11:0.00001318,1_0_1:0.00001920):0.00001601):0.00000474):0.00003988,(1_0_9:0.00014849,(1_0_15:0.00002417,1_0_13:0.00001690):0.00004473):0.00016492):0.00090203,((1_0_12:0.00012708,((1_0_18:0.00003150,1_0_7:0.00000744):0.00001240,(1_0_0:0.00001090,1_0_4:0.00001333):0.00000864):0.00010215):0.00008745,((1_0_2:0.00000731,1_0_10:0.00001474):0.00002696,1_0_6:0.00002326):0.00010016):0.00188292):0.00112303,(((2_0_2:0.00002537,2_0_11:0.00000970):0.00043179,(((((2_0_12:0.00000287,2_0_15:0.00002144):0.00003023,(2_0_16:0.00003037,(2_0_3:0.00003818,2_0_13:0.00003364):0.00000601):0.00000047):0.00002608,(((2_0_5:0.00000574,2_0_10:0.00000281):0.00001273,2_0_14:0.00001620):0.00001061,2_0_0:0.00006087):0.00003110):0.00002114,(2_0_1:0.00021261,((2_0_17:0.00000057,2_0_4:0.00000052):0.00000174,2_0_6:0.00000514):0.00010679):0.00000643):0.00000209,2_0_9:0.00020683):0.00000548):0.00062835,((2_0_7:0.00001283,2_0_8:0.00008046):0.00016108,2_0_18:0.00040418):0.00049209):0.00080279):0.09452822,((((((4_0_2:0.00002923,4_0_16:0.00029107):0.00001264,(4_0_4:0.00009486,(4_0_12:0.00001145,4_0_15:0.00002024):0.00002670):0.00007779):0.00004279,(((4_0_6:0.00000263,4_0_5:0.00000420):0.00000369,(4_0_11:0.00000468,4_0_18:0.00000012):0.00000374):0.00003834,(4_0_0:0.00007410,4_0_13:0.00007290):0.00002221):0.00005432):0.00004887,(((((4_0_7:0.00000177,4_0_17:0.00000159):0.00000620,4_0_9:0.00001988):0.00000888,4_0_1:0.00002294):0.00000011,(4_0_10:0.00002236,4_0_8:0.00001162):0.00000714):0.00018721,(4_0_14:0.00011629,4_0_3:0.00006074):0.00001311):0.00085237):0.00314301,(((((9_0_2:0.00000829,9_0_7:0.00000548):0.00000418,9_0_11:0.00003822):0.00077629,((9_0_8:0.00002161,9_0_1:0.00001122):0.00003156,(9_0_12:0.00000093,9_0_10:0.00000047):0.00003497):0.00008499):0.00012238,((((9_0_13:0.00000454,9_0_4:0.00000496):0.00000364,9_0_15:0.00000343):0.00000071,9_0_14:0.00002025):0.00003616,((9_0_16:0.00001037,(9_0_5:0.00000739,((9_0_17:0.00000207,9_0_0:0.00000251):0.00000089,9_0_18:0.00000279):0.00000647):0.00000040):0.00001313,(9_0_9:0.00000648,9_0_6:0.00007420):0.00000626):0.00000101):0.00045007):0.00082396,9_0_3:0.00051690):0.00113437):0.02076609,(((((11_0_15:0.00000547,(11_0_1:0.00000035,11_0_4:0.00000169):0.00001240):0.00005938,((((3_0_2:0.00000002,3_0_6:0.00000018):0.00000143,3_0_15:0.00000073):0.00006547,(((3_0_11:0.00000100,3_0_1:0.00000043):0.00005143,(3_0_18:0.00001815,(3_0_9:0.00000265,3_0_13:0.00000554):0.00000426):0.00002072):0.00002122,(3_0_12:0.00003958,(3_0_0:0.00001518,3_0_5:0.00000389):0.00003418):0.00003744):0.00012511):0.00048611,((11_0_2:0.00001022,(11_0_3:0.00000842,11_0_16:0.00008121):0.00020958):0.00001978,((11_0_9:0.00000895,(11_0_10:0.00000781,11_0_6:0.00000491):0.00001123):0.00015201,((((11_0_0:0.00001325,(11_0_7:0.00000435,11_0_14:0.00000047):0.00000037):0.00000149,11_0_13:0.00000440):0.00002683,(11_0_11:0.00006635,(11_0_18:0.00000003,11_0_17:0.00000018):0.00004592):0.00000090):0.00000951,(11_0_5:0.00004161,(11_0_12:0.00000762,11_0_8:0.00001558):0.00004491):0.00002327):0.00000450):0.00003600):0.00024649):0.00003061):0.00096865,((3_0_17:0.00008878,3_0_3:0.00007741):0.00048927,(((3_0_4:0.00001572,3_0_8:0.00001588):0.00001644,3_0_7:0.00006227):0.00000797,(3_0_16:0.00003044,(3_0_14:0.00000005,3_0_10:0.00000010):0.00007210):0.00000031):0.00020807):0.00024531):0.00379712,(((((13_0_11:0.00005832,13_0_3:0.00004294):0.00005039,((13_0_12:0.00003004,(13_0_4:0.00003273,13_0_9:0.00000650):0.00000736):0.00005101,13_0_2:0.00009902):0.00013579):0.00023190,(((((13_0_6:0.00004013,(13_0_13:0.00001727,13_0_8:0.00000301):0.00000895):0.00002126,13_0_5:0.00002420):0.00000590,13_0_18:0.00002812):0.00006815,13_0_16:0.00005120):0.00024004,((((13_0_10:0.00000637,13_0_14:0.00001113):0.00001930,13_0_17:0.00002623):0.00000335,13_0_15:0.00001822):0.00002323,((13_0_0:0.00000632,13_0_7:0.00002987):0.00000705,13_0_1:0.00002221):0.00000550):0.00009305):0.00042264):0.00013751,(12_0_11:0.00002974,((12_0_6:0.00000017,12_0_12:0.00000159):0.00006732,(12_0_2:0.00000047,(12_0_10:0.00000148,12_0_17:0.00000120):0.00000112):0.00006019):0.00002060):0.00303955):0.00056706,(12_0_18:0.00011436,(((12_0_4:0.00007235,((12_0_16:0.00001257,12_0_7:0.00003929):0.00005731,12_0_8:0.00003531):0.00003153):0.00003038,((12_0_0:0.00001305,(12_0_13:0.00000430,12_0_3:0.00000205):0.00004202):0.00001635,((12_0_5:0.00003002,12_0_14:0.00002700):0.00000612,12_0_9:0.00009428):0.00000318):0.00000683):0.00020259,(12_0_1:0.00000126,12_0_15:0.00002183):0.00037738):0.00023964):0.00045497):0.00575064):0.00234349,(((((5_0_14:0.00001312,5_0_15:0.00000580):0.00037896,(5_0_0:0.00008096,(5_0_12:0.00000340,5_0_17:0.00000296):0.00022332):0.00024824):0.00004339,(((5_0_13:0.00003175,5_0_18:0.00002497):0.00000678,(5_0_3:0.00000119,5_0_4:0.00000056):0.00000947):0.00025617,(((5_0_10:0.00035358,(((5_0_1:0.00000142,5_0_9:0.00000226):0.00000334,5_0_2:0.00000283):0.00000013,5_0_5:0.00000446):0.00003200):0.00000127,5_0_16:0.00002345):0.00011473,((5_0_7:0.00001984,5_0_11:0.00000563):0.00000967,(5_0_8:0.00000048,5_0_6:0.00000399):0.00000161):0.00025883):0.00003874):0.00007943):0.01264875,((((((((6_0_10:0.00001148,6_0_1:0.00000468):0.00002971,6_0_0:0.00001327):0.00000310,6_0_2:0.00002864):0.00016592,(((6_0_15:0.00012716,6_0_12:0.00008750):0.00005350,((6_0_9:0.00001781,(6_0_13:0.00000003,6_0_6:0.00000005):0.00000617):0.00000177,6_0_18:0.00005620):0.00021987):0.00000798,((6_0_17:0.00000877,6_0_7:0.00003291):0.00010370,((6_0_16:0.00001941,6_0_8:0.00000481):0.00000249,(6_0_5:0.00002043,6_0_11:0.00003859):0.00000346):0.00027849):0.00004365):0.00003538):0.00029802,6_0_3:0.00028257):0.00018234,(6_0_14:0.00005015,6_0_4:0.00005213):0.00024733):0.00432473,((8_0_17:0.00042315,(((8_0_8:0.00000585,8_0_13:0.00000940):0.00001484,(((8_0_15:0.00005374,(8_0_7:0.00001464,8_0_5:0.00001190):0.00000401):0.00000180,(8_0_3:0.00000655,8_0_10:0.00001545):0.00001741):0.00000763,(8_0_4:0.00000315,(8_0_1:0.00000110,8_0_16:0.00000018):0.00001029):0.00003550):0.00003975):0.00001923,((8_0_18:0.00002518,8_0_2:0.00001320):0.00000159,(8_0_9:0.00000048,8_0_0:0.00000082):0.00000266):0.00008391):0.00017454):0.00000660,(((8_0_14:0.00000476,8_0_6:0.00000299):0.00002055,8_0_12:0.00001085):0.00000134,8_0_11:0.00002103):0.00030514):0.00592041):0.00404836,(((7_0_9:0.00004469,(7_0_6:0.00002794,7_0_8:0.00000228):0.00002673):0.00032408,(7_0_14:0.00003618,((7_0_3:0.00000933,7_0_10:0.00001829):0.00003663,(7_0_2:0.00001773,(7_0_17:0.00001037,(7_0_13:0.00001010,7_0_7:0.00000189):0.00000860):0.00001954):0.00003350):0.00000740):0.00084215):0.00050370,(((7_0_16:0.00005136,(7_0_1:0.00001374,(7_0_5:0.00002090,7_0_4:0.00001184):0.00000123):0.00000222):0.00006773,7_0_12:0.00007904):0.00008013,((7_0_0:0.00004695,(7_0_15:0.00000440,7_0_11:0.00000279):0.00001077):0.00004203,7_0_18:0.00006224):0.00025314):0.00109069):0.00469433):0.00497520):0.00449548,(((((((10_0_10:0.00002204,10_0_18:0.00001052):0.00002531,10_0_11:0.00002890):0.00000094,(((10_0_6:0.00000133,10_0_9:0.00000122):0.00000548,10_0_17:0.00002306):0.00001460,10_0_14:0.00001475):0.00003066):0.00001456,((10_0_3:0.00000408,10_0_1:0.00000855):0.00000821,((10_0_13:0.00000141,10_0_16:0.00000103):0.00000298,10_0_0:0.00000786):0.00001735):0.00000287):0.00000246,10_0_12:0.00003355):0.00006262,(10_0_7:0.00000492,10_0_15:0.00000616):0.00002537):0.00002379,((10_0_8:0.00008556,(10_0_5:0.00000787,10_0_2:0.00000256):0.00003011):0.00006556,10_0_4:0.00046036):0.00000247):0.00361719):0.00374754):0.00282701):0.00724990):0.03390406);

data_07	T07	248	1	1	0.351658	0.136922	0.253107	(((((((((2_0_10:0.00000461,2_0_1:0.00000037):0.00008859,((2_0_15:0.00000343,(2_0_7:0.00000098,2_0_17:0.00000311):0.00001196):0.00000656,2_0_11:0.00000332):0.00000319):0.00018328,(((2_0_5:0.00006864,(2_0_8:0.00005426,2_0_4:0.00000546):0.00000413):0.00000367,(2_0_6:0.00008289,2_0_9:0.00007562):0.00005165):0.00001933,(2_0_0:0.00003873,2_0_13:0.00002594):0.00016369):0.00011164):0.00009475,2_0_18:0.00003622):0.00002451,(2_0_14:0.00004348,2_0_2:0.00011236):0.00033708):0.00076596,((2_0_3:0.00000692,2_0_12:0.00001841):0.00045189,2_0_16:0.00029671):0.00012314):0.00200125,((1_0_16:0.00013413,(((1_0_12:0.00000095,1_0_15:0.00000085):0.00003785,(1_0_2:0.00001996,(1_0_17:0.00000247,1_0_18:0.00000067):0.00001887):0.00000216):0.00000589,((1_0_5:0.00000494,1_0_1:0.00001014):0.00000454,(1_0_9:0.00001055,1_0_3:0.00001594):0.00000355):0.00001643):0.00029999):0.00019133,((((1_0_6:0.00001909,1_0_10:0.00000210):0.00009933,(1_0_11:0.00005697,1_0_14:0.00012510):0.00001187):0.00003179,(1_0_0:0.00004705,1_0_8:0.00001960):0.00014182):0.00004489,(1_0_4:0.00047034,(1_0_13:0.00000211,1_0_7:0.00000061):0.00019008):0.00006275):0.00070840):0.00022617):0.01107067,((((((((4_0_7:0.00006306,4_0_16:0.00000241):0.00000431,((4_0_8:0.00000466,4_0_2:0.00000123):0.00001650,4_0_18:0.00003547):0.00000159):0.00003708,((4_0_15:0.00000203,4_0_13:0.00000746):0.00002978,4_0_1:0.00002614):0.00015511):0.00003742,((4_0_10:0.00003803,4_0_12:0.00011841):0.00000364,4_0_11:0.00003239):0.00001890):0.00002851,((4_0_14:0.00001631,4_0_9:0.00000366):0.00010386,(4_0_3:0.00001475,4_0_5:0.00007373):0.00009677):0.00000986):0.00009962,(4_0_6:0.00024933,(4_0_17:0.00008155,(4_0_0:0.00001290,4_0_4:0.00001646):0.00001050):0.00010885):0.00000865):0.00444112,(((9_0_2:0.00012469,9_0_11:0.00006402):0.00016212,(((9_0_1:0.00001286,9_0_7:0.00001436):0.00000445,(9_0_18:0.00000629,9_0_4:0.00000667):0.00000981):0.00004863,(9_0_14:0.00008432,9_0_5:0.00004357):0.00012685):0.00010729):0.00007559,(((9_0_15:0.00001962,(9_0_9:0.00002003,9_0_17:0.00000746):0.00000159):0.00002164,((9_0_0:0.00000119,9_0_8:0.00000076):0.00004448,(9_0_16:0.00000001,9_0_3:0.00000025):0.00007406):0.00001505):0.00002279,((9_0_13:0.00001023,9_0_12:0.00002143):0.00001619,(9_0_10:0.00001498,9_0_6:0.00000278):0.00001536):0.00013335):0.00001295):0.00129483):0.04111395,((((((3_0_13:0.00000021,3_0_3:0.00000019):0.00000586,(3_0_18:0.00000000,3_0_8:0.00000022):0.00002316):0.00000272,3_0_2:0.00006816):0.00043633,(((11_0_16:0.00010323,((11_0_0:0.00000271,11_0_6:0.00000098):0.00002969,(((11_0_17:0.00001811,(11_0_10:0.00000527,11_0_5:0.00000616):0.00000059):0.00003482,11_0_13:0.00002992):0.00004248,(((11_0_3:0.00001183,11_0_14:0.00001537):0.00000345,(11_0_1:0.00000310,11_0_8:0.00000754):0.00000166):0.00000652,11_0_11:0.00001848):0.00000928):0.00000985):0.00000303):0.00051432,(((11_0_7:0.00058662,(11_0_9:0.00000525,11_0_2:0.00000494):0.00021576):0.00013299,(11_0_18:0.00004905,(11_0_12:0.00003496,11_0_15:0.00003220):0.00003147):0.00035284):0.00009804,11_0_4:0.00024707):0.00004790):0.00060916,((3_0_17:0.00000232,3_0_10:0.00000187):0.00036346,(((((3_0_11:0.00001287,3_0_4:0.00002869):0.00006686,(3_0_9:0.00000158,3_0_14:0.00000175):0.00002498):0.00009961,(3_0_6:0.00002215,((3_0_5:0.00000583,3_0_1:0.00000680):0.00000438,3_0_12:0.00000899):0.00002604):0.00001834):0.00000097,3_0_15:0.00005274):0.00005147,((3_0_7:0.00000097,3_0_0:0.00000081):0.00036422,3_0_16:0.00005379):0.00000418):0.00009279):0.00197233):0.00068460):0.00401883,(((((13_0_11:0.00000524,13_0_7:0.00000945):0.00000811,13_0_15:0.00001273):0.00026947,((((13_0_4:0.00001076,13_0_3:0.00000809):0.00000282,13_0_2:0.00001001):0.00000418,13_0_0:0.00000240):0.00004756,(13_0_18:0.00010926,13_0_17:0.00002534):0.00000336):0.00019398):0.00009672,(((13_0_9:0.00001109,((13_0_5:0.00000077,13_0_13:0.00000073):0.00001864,(13_0_14:0.00000222,13_0_6:0.00000463):0.00001954):0.00000681):0.00014827,13_0_16:0.00005243):0.00003130,(13_0_10:0.00004552,((13_0_1:0.00000146,13_0_12:0.00000480):0.00002255,13_0_8:0.00003388):0.00004055):0.00005591):0.00037815):0.00025477,(((12_0_1:0.00004873,(12_0_2:0.00003583,((12_0_11:0.00004558,12_0_12:0.00000357):0.00000573,(12_0_8:0.00000785,12_0_10:0.00000915):0.00000827):0.00000073):0.00001788):0.00025051,(12_0_14:0.00002854,12_0_17:0.00002541):0.00003608):0.00058368,((((12_0_6:0.00008019,12_0_18:0.00000442):0.00004783,(12_0_9:0.00006649,12_0_0:0.00009161):0.00007877):0.00000661,(((12_0_3:0.00000579,12_0_7:0.00000761):0.00002355,(12_0_5:0.00000274,12_0_13:0.00000593):0.00002442):0.00009547,12_0_15:0.00004235):0.00001194):0.00007410,(12_0_16:0.00001301,12_0_4:0.00000559):0.00061467):0.00049659):0.00039507):0.00087216):0.00585518,((((10_0_2:0.00001229,10_0_1:0.00000999):0.00001361,10_0_8:0.00000747):0.00026855,(10_0_11:0.00022922,((10_0_12:0.00020203,(10_0_14:0.00002064,(((10_0_5:0.00006082,10_0_17:0.00001855):0.00001499,((10_0_0:0.00004062,(10_0_10:0.00004615,10_0_18:0.00001150):0.00001343):0.00000804,((10_0_6:0.00000755,10_0_7:0.00001491):0.00000079,10_0_9:0.00000769):0.00001405):0.00000124):0.00000239,(10_0_15:0.00005306,10_0_16:0.00005474):0.00004167):0.00000051):0.00008771):0.00000490,(10_0_13:0.00001106,(10_0_4:0.00001264,10_0_3:0.00001412):0.00003508):0.00018178):0.00020336):0.00022364):0.01117604,((((((5_0_16:0.00004442,(5_0_9:0.00000686,(5_0_6:0.00000574,(5_0_2:0.00000395,5_0_14:0.00000224):0.00000056):0.00000401):0.00002601):0.00000256,((5_0_17:0.00000175,5_0_0:0.00000404):0.00000495,(5_0_5:0.00001026,5_0_11:0.00004192):0.00000378):0.00009112):0.00000294,(5_0_12:0.00003290,(5_0_7:0.00019444,(5_0_1:0.00005441,((5_0_4:0.00001085,5_0_18:0.00000325):0.00001692,5_0_8:0.00000745):0.00002160):0.00004587):0.00000097):0.00004984):0.00002859,5_0_3:0.00007639):0.00031465,(5_0_15:0.00069538,(5_0_10:0.00007073,5_0_13:0.00001761):0.00023264):0.00061517):0.01017303,((((((8_0_9:0.00000099,8_0_11:0.00000779):0.00000458,(8_0_0:0.00000264,8_0_16:0.00000249):0.00006558):0.00007674,(8_0_12:0.00000745,(8_0_5:0.00006465,8_0_2:0.00007931):0.00000644):0.00007851):0.00087654,(((8_0_8:0.00000625,8_0_18:0.00000270):0.00000499,(8_0_1:0.00000537,8_0_14:0.00001327):0.00000455):0.00003643,(((((8_0_13:0.00000033,8_0_3:0.00000121):0.00014173,(8_0_7:0.00000599,8_0_4:0.00000696):0.00010040):0.00002631,(8_0_17:0.00000096,8_0_10:0.00000024):0.00008118):0.00018359,8_0_6:0.00015480):0.00016669,8_0_15:0.00024031):0.00000918):0.00118648):0.00045067,((((6_0_8:0.00004984,(6_0_10:0.00001319,6_0_11:0.00001674):0.00001431):0.00000145,6_0_7:0.00003349):0.00002316,(6_0_15:0.00018229,(6_0_5:0.00001203,(6_0_12:0.00000058,6_0_2:0.00000271):0.00000490):0.00007162):0.00001578):0.00049394,(((6_0_18:0.00001441,(6_0_3:0.00000497,6_0_17:0.00000336):0.00000611):0.00035394,6_0_9:0.00004993):0.00080421,((6_0_1:0.00000489,6_0_13:0.00000539):0.00004510,(((6_0_16:0.00000896,6_0_14:0.00000414):0.00000401,6_0_4:0.00001046):0.00001377,(6_0_0:0.00002767,6_0_6:0.00001371):0.00021540):0.00005506):0.00041504):0.00026561):0.00057584):0.00252572,((7_0_6:0.00004255,(7_0_18:0.00000239,(7_0_12:0.00000649,7_0_16:0.00000114):0.00000045):0.00000446):0.00090016,((7_0_11:0.00016012,((7_0_14:0.00000352,(7_0_13:0.00000211,7_0_15:0.00000463):0.00000087):0.00005016,((((7_0_9:0.00003795,(7_0_10:0.00006080,7_0_7:0.00001847):0.00000158):0.00000116,7_0_5:0.00003714):0.00004622,(7_0_4:0.00012408,(7_0_2:0.00004875,7_0_8:0.00005866):0.00000327):0.00002043):0.00000864,(7_0_1:0.00000098,7_0_17:0.00000302):0.00018453):0.00000674):0.00006539):0.00003561,(7_0_3:0.00001887,7_0_0:0.00006839):0.00000731):0.00006866):0.00592067):0.00044609):0.00013719):0.00116998):0.00512074):0.03984683):0.03042507,0_0_0:0.13692168);

data_08	T08	248	1	1	0.465649	0.176131	0.343863	((((((((((3_0_5:0.00004606,(3_0_14:0.00000512,3_0_9:0.00001575):0.00002110):0.00000277,(3_0_3:0.00000579,3_0_8:0.00000409):0.00007429):0.00012159,((3_0_16:0.00001612,(3_0_13:0.00005532,3_0_12:0.00000902):0.00000071):0.00005199,(((3_0_6:0.00000513,3_0_2:0.00000300):0.00002269,3_0_4:0.00000272):0.00000932,3_0_17:0.00000890):0.00001696):0.00016541):0.00015324,((11_0_7:0.00002239,11_0_8:0.00003868):0.00003472,(11_0_5:0.00001889,11_0_4:0.00000985):0.00009600):0.00078745):0.00019512,((3_0_7:0.00049757,(((3_0_10:0.00000234,3_0_1:0.00000054):0.00001063,((3_0_15:0.00002150,3_0_0:0.00001659):0.00000998,(3_0_11:0.00000586,3_0_18:0.00000264):0.00001856):0.00002573):0.00021655,(((11_0_12:0.00001355,11_0_9:0.00005868):0.00002073,((11_0_1:0.00002400,11_0_15:0.00002243):0.00000641,11_0_6:0.00001491):0.00008087):0.00005697,(((11_0_11:0.00000979,11_0_3:0.00001192):0.00005381,11_0_2:0.00002629):0.00000646,((11_0_16:0.00000739,11_0_13:0.00000168):0.00000109,(11_0_17:0.00000119,11_0_18:0.00000688):0.00002538):0.00012692):0.00010587):0.00004337):0.00000501):0.00047895,(11_0_0:0.00000629,(11_0_10:0.00000516,11_0_14:0.00000365):0.00000030):0.00050298):0.00005178):0.00779925,((((((13_0_5:0.00002158,(13_0_13:0.00004074,13_0_15:0.00001589):0.00006155):0.00000384,(13_0_1:0.00004352,(13_0_0:0.00001456,13_0_4:0.00000102):0.00001128):0.00008692):0.00000657,((13_0_8:0.00000005,13_0_14:0.00000164):0.00000083,13_0_3:0.00000611):0.00044009):0.00038041,((13_0_10:0.00002312,(13_0_12:0.00000358,(13_0_11:0.00000150,(13_0_18:0.00000283,13_0_17:0.00000112):0.00000042):0.00000249):0.00004490):0.00012500,(13_0_6:0.00000025,13_0_7:0.00000733):0.00021775):0.00001881):0.00013106,(13_0_16:0.00003295,(13_0_9:0.00001075,13_0_2:0.00000550):0.00016838):0.00026631):0.00234375,(12_0_2:0.00059196,(((12_0_0:0.00102067,((12_0_5:0.00017059,12_0_17:0.00004997):0.00001600,(12_0_15:0.00000223,12_0_8:0.00000732):0.00016111):0.00005889):0.00000628,(12_0_16:0.00008346,((12_0_4:0.00001444,12_0_18:0.00000746):0.00003483,((((12_0_13:0.00000015,12_0_12:0.00000100):0.00000869,12_0_1:0.00001658):0.00002272,(12_0_3:0.00003728,(12_0_7:0.00001145,12_0_6:0.00000549):0.00000764):0.00002551):0.00000326,12_0_9:0.00002586):0.00000856):0.00002418):0.00004761):0.00000643,((12_0_14:0.00001732,12_0_10:0.00000385):0.00021304,12_0_11:0.00007607):0.00005992):0.00074444):0.00020747):0.00538125):0.00079426,((((((10_0_9:0.00003509,10_0_11:0.00000540):0.00001855,(10_0_17:0.00000674,(10_0_6:0.00003301,10_0_1:0.00000083):0.00003433):0.00003707):0.00000752,(((10_0_3:0.00000140,10_0_4:0.00000145):0.00004952,(10_0_10:0.00000033,10_0_18:0.00000035):0.00004860):0.00001766,(10_0_15:0.00001067,(10_0_12:0.00000198,10_0_13:0.00000446):0.00003707):0.00006739):0.00004212):0.00049376,(10_0_8:0.00000305,(10_0_0:0.00000063,10_0_5:0.00000046):0.00000759):0.00055498):0.00001761,((10_0_7:0.00001976,10_0_14:0.00003108):0.00036965,(10_0_2:0.00000746,10_0_16:0.00000201):0.00013713):0.00010005):0.01029338,((((((5_0_14:0.00002896,5_0_17:0.00001936):0.00007373,5_0_15:0.00006911):0.00004893,((5_0_8:0.00002444,(5_0_5:0.00000576,5_0_12:0.00000603):0.00001614):0.00005469,(5_0_1:0.00000515,5_0_9:0.00001597):0.00002037):0.00001848):0.00070971,(5_0_16:0.00065808,(((5_0_7:0.00001702,5_0_6:0.00000747):0.00000262,5_0_2:0.00000373):0.00000565,(5_0_3:0.00000104,5_0_10:0.00000287):0.00003563):0.00002782):0.00056763):0.00005239,((5_0_18:0.00017009,5_0_4:0.00002942):0.00002513,((5_0_11:0.00000557,5_0_0:0.00000116):0.00000008,5_0_13:0.00001743):0.00000175):0.00041390):0.00605519,(((((8_0_3:0.00000766,8_0_15:0.00000581):0.00009550,(8_0_16:0.00009459,(8_0_10:0.00000665,8_0_4:0.00002717):0.00000456):0.00001886):0.00082868,((8_0_6:0.00022617,(8_0_17:0.00001545,(8_0_5:0.00002349,8_0_14:0.00004993):0.00000080):0.00015916):0.00010063,(((((8_0_9:0.00000235,8_0_7:0.00000202):0.00001282,((8_0_1:0.00000444,8_0_11:0.00000457):0.00000661,8_0_8:0.00000483):0.00000884):0.00000009,8_0_12:0.00000750):0.00001340,(8_0_13:0.00000971,8_0_2:0.00002096):0.00004204):0.00000125,(8_0_18:0.00005142,8_0_0:0.00003210):0.00005046):0.00010601):0.00007353):0.00437676,(((6_0_11:0.00001798,(6_0_2:0.00003676,(((6_0_1:0.00000015,6_0_10:0.00000179):0.00002074,(6_0_8:0.00000793,6_0_9:0.00003393):0.00000590):0.00000963,6_0_16:0.00000309):0.00002857):0.00001309):0.00009121,(((6_0_12:0.00000659,6_0_13:0.00001606):0.00000971,(6_0_0:0.00000153,6_0_5:0.00000053):0.00001588):0.00001987,6_0_15:0.00001138):0.00010500):0.00025979,(6_0_17:0.00022664,((((6_0_3:0.00003327,6_0_18:0.00001316):0.00000088,6_0_14:0.00003222):0.00001538,(6_0_4:0.00000091,6_0_6:0.00000431):0.00008805):0.00002200,6_0_7:0.00035142):0.00014941):0.00001209):0.00798980):0.00216883,(((((7_0_14:0.00006456,7_0_9:0.00002109):0.00000291,(((7_0_8:0.00000367,7_0_10:0.00000247):0.00001549,7_0_4:0.00004395):0.00000399,7_0_12:0.00005304):0.00000284):0.00002101,(7_0_1:0.00001095,(((7_0_16:0.00000017,7_0_13:0.00000153):0.00000200,(7_0_11:0.00000219,7_0_0:0.00000081):0.00000078):0.00000425,(((7_0_6:0.00000341,7_0_18:0.00000501):0.00000224,7_0_7:0.00000042):0.00000643,7_0_3:0.00001195):0.00000135):0.00002111):0.00004052):0.00000996,7_0_15:0.00009738):0.00007776,(7_0_5:0.00007567,(7_0_17:0.00005541,7_0_2:0.00010179):0.00001615):0.00002887):0.01112646):0.00042927):0.00076848):0.00029439):0.01097953,((((((9_0_15:0.00000890,9_0_16:0.00003926):0.00000687,9_0_7:0.00001036):0.00018237,(9_0_11:0.00053047,(9_0_5:0.00000352,9_0_13:0.00000601):0.00004681):0.00001718):0.00061204,((9_0_9:0.00000100,9_0_3:0.00000480):0.00017186,9_0_4:0.00013273):0.00047068):0.00014821,((9_0_14:0.00007653,9_0_0:0.00004507):0.00035904,(9_0_12:0.00018912,(9_0_10:0.00001917,(((9_0_8:0.00000056,9_0_6:0.00000311):0.00001421,(9_0_18:0.00000086,9_0_2:0.00000080):0.00000876):0.00000624,(9_0_17:0.00000168,9_0_1:0.00000249):0.00002006):0.00001620):0.00005093):0.00012317):0.00007943):0.00127466,(((((((4_0_10:0.00000240,4_0_11:0.00000162):0.00002400,4_0_6:0.00001256):0.00000600,(4_0_17:0.00000730,(4_0_18:0.00000151,4_0_1:0.00000413):0.00000479):0.00000508):0.00009971,4_0_3:0.00001012):0.00001332,4_0_15:0.00011931):0.00002096,4_0_8:0.00035227):0.00082906,(((4_0_4:0.00001806,4_0_13:0.00000226):0.00001178,4_0_5:0.00000865):0.00006042,(((4_0_0:0.00002694,4_0_2:0.00000854):0.00000349,(4_0_14:0.00001105,4_0_16:0.00000430):0.00001241):0.00007152,((4_0_9:0.00000973,4_0_12:0.00000771):0.00004313,4_0_7:0.00003872):0.00005778):0.00002513):0.00291051):0.00169387):0.00561003):0.10202112,((1_0_5:0.00132693,(((((1_0_13:0.00002120,1_0_1:0.00000417):0.00004132,((1_0_3:0.00000627,(1_0_12:0.00000563,1_0_15:0.00000127):0.00000844):0.00000040,1_0_14:0.00000096):0.00001650):0.00011096,(1_0_2:0.00004323,1_0_4:0.00002034):0.00005349):0.00015257,((1_0_18:0.00013442,1_0_9:0.00002912):0.00003808,(((1_0_7:0.00000539,(1_0_11:0.00000550,1_0_0:0.00000224):0.00000111):0.00002045,1_0_16:0.00002487):0.00000359,(1_0_6:0.00000154,1_0_17:0.00000525):0.00002279):0.00002281):0.00001741):0.00001053,(1_0_8:0.00003191,1_0_10:0.00004767):0.00048918):0.00073143):0.00110356,(((2_0_6:0.00007234,(2_0_13:0.00008807,((2_0_16:0.00000437,(2_0_11:0.00001530,(2_0_1:0.00000811,2_0_8:0.00002193):0.00000814):0.00001612):0.00002773,((2_0_9:0.00001462,2_0_12:0.00002399):0.00000305,2_0_14:0.00000684):0.00002961):0.00002739):0.00000245):0.00010919,(2_0_4:0.00007818,((2_0_3:0.00005366,((2_0_5:0.00000397,2_0_0:0.00012926):0.00000611,2_0_15:0.00001495):0.00000349):0.00000960,(2_0_2:0.00000374,2_0_10:0.00001849):0.00012981):0.00000044):0.00041700):0.00000504,((2_0_17:0.00000100,2_0_7:0.00000402):0.00001068,2_0_18:0.00005171):0.00020922):0.00039647):0.03073577):0.04193700,0_0_0:0.17613095);

data_09	T09	248	1	1	0.240575	0.085156	0.135147	((((((((((5_0_3:0.00001413,5_0_13:0.00001842):0.00005924,5_0_18:0.00022653):0.00007327,((((5_0_16:0.00000312,5_0_12:0.00000212):0.00000640,(5_0_1:0.00001755,5_0_7:0.00000833):0.00001309):0.00007635,(5_0_4:0.00000232,5_0_0:0.00000264):0.00002937):0.00000604,(((5_0_5:0.00001175,5_0_2:0.00000367):0.00000145,5_0_8:0.00003088):0.00000369,5_0_10:0.00005916):0.00004560):0.00009286):0.00009495,(((5_0_15:0.00000868,(5_0_6:0.00000760,5_0_14:0.00001082):0.00000293):0.00002152,5_0_11:0.00011890):0.00000143,(5_0_9:0.00002169,5_0_17:0.00001236):0.00001005):0.00057643):0.00199737,((7_0_11:0.00012542,(((7_0_3:0.00002160,7_0_17:0.00003858):0.00021389,(((7_0_13:0.00000765,7_0_0:0.00000866):0.00000870,7_0_14:0.00002899):0.00000121,(7_0_5:0.00000737,(7_0_12:0.00000333,7_0_15:0.00000137):0.00000736):0.00000065):0.00045051):0.00021637,(((7_0_9:0.00000214,(7_0_16:0.00000301,7_0_7:0.00000480):0.00000051):0.00004675,(((7_0_1:0.00003457,7_0_18:0.00001191):0.00006738,7_0_10:0.00012363):0.00000817,(7_0_6:0.00000270,7_0_8:0.00004863):0.00001467):0.00001883):0.00010605,(7_0_4:0.00003151,7_0_2:0.00006100):0.00016250):0.00005505):0.00052731):0.00257561,((((8_0_15:0.00025334,(8_0_14:0.00000541,8_0_5:0.00002962):0.00009919):0.00004070,((8_0_16:0.00000642,8_0_3:0.00000341):0.00013155,(((8_0_8:0.00001190,8_0_13:0.00001100):0.00000378,8_0_4:0.00000529):0.00002386,8_0_1:0.00001842):0.00009333):0.00004610):0.00074994,(((8_0_18:0.00030931,(((8_0_6:0.00000651,8_0_12:0.00000112):0.00000795,8_0_11:0.00001388):0.00010558,8_0_10:0.00004241):0.00006247):0.00001684,8_0_7:0.00005626):0.00020977,(8_0_2:0.00001288,(8_0_17:0.00001075,(8_0_9:0.00000273,8_0_0:0.00000932):0.00001439):0.00000640):0.00181181):0.00009862):0.00048781,(((6_0_0:0.00002079,(6_0_12:0.00000527,(6_0_9:0.00000138,6_0_5:0.00000054):0.00000089):0.00001260):0.00009828,(6_0_15:0.00026999,(((6_0_6:0.00000669,(6_0_17:0.00000108,6_0_4:0.00000035):0.00000802):0.00000142,6_0_2:0.00001656):0.00020366,6_0_13:0.00008071):0.00007784):0.00000169):0.00016119,(((6_0_7:0.00001185,(6_0_11:0.00000087,6_0_16:0.00000166):0.00001357):0.00002982,((6_0_1:0.00000489,6_0_14:0.00000227):0.00000426,6_0_18:0.00002265):0.00000427):0.00016093,(6_0_10:0.00001555,(6_0_3:0.00000785,6_0_8:0.00000149):0.00004331):0.00003996):0.00062272):0.00096780):0.00126668):0.00028064):0.00042890,(((10_0_14:0.00003914,(10_0_18:0.00002414,10_0_10:0.00003696):0.00002532):0.00003108,((10_0_15:0.00002391,(10_0_9:0.00000369,10_0_13:0.00000676):0.00003913):0.00001940,10_0_7:0.00001626):0.00003161):0.00064643,(10_0_12:0.00004490,(((((10_0_1:0.00003078,(10_0_5:0.00002953,10_0_16:0.00000079):0.00000143):0.00000044,(10_0_11:0.00003520,(10_0_4:0.00002110,10_0_3:0.00000229):0.00001427):0.00000963):0.00001125,10_0_2:0.00000648):0.00000330,(10_0_0:0.00000788,10_0_8:0.00009329):0.00002115):0.00001708,(10_0_6:0.00005152,10_0_17:0.00010569):0.00000981):0.00003287):0.00043129):0.01170547):0.00233312,((((12_0_15:0.00003817,12_0_16:0.00001513):0.00004971,12_0_2:0.00000853):0.00178711,((((((13_0_4:0.00005360,13_0_8:0.00006547):0.00000763,((13_0_3:0.00001318,(13_0_0:0.00000798,13_0_9:0.00000578):0.00001082):0.00000312,(13_0_7:0.00000465,13_0_16:0.00002815):0.00000001):0.00001907):0.00024862,(13_0_13:0.00013535,((13_0_17:0.00011922,((13_0_5:0.00000296,13_0_1:0.00000234):0.00010175,13_0_2:0.00006744):0.00001233):0.00000155,(13_0_12:0.00003287,13_0_10:0.00001326):0.00010073):0.00000419):0.00001327):0.00002611,((13_0_18:0.00001211,13_0_11:0.00002379):0.00000234,(13_0_15:0.00001464,13_0_14:0.00002136):0.00001011):0.00008397):0.00026006,13_0_6:0.00046400):0.00095347,((((12_0_3:0.00000423,12_0_5:0.00003813):0.00004021,12_0_17:0.00004827):0.00009935,(12_0_11:0.00001366,(12_0_0:0.00001219,(12_0_10:0.00001028,12_0_6:0.00002595):0.00000158):0.00010811):0.00004579):0.00005647,(((12_0_12:0.00000365,12_0_18:0.00001162):0.00002542,12_0_4:0.00007674):0.00010537,(12_0_9:0.00002493,((12_0_7:0.00002642,12_0_8:0.00002256):0.00000481,((12_0_1:0.00002472,12_0_14:0.00001753):0.00000364,12_0_13:0.00000165):0.00000737):0.00001276):0.00000554):0.00024126):0.00079250):0.00138629):0.00286884,((((((11_0_18:0.00015598,11_0_0:0.00005419):0.00003694,(((11_0_16:0.00002800,11_0_13:0.00003407):0.00000109,(11_0_8:0.00000611,(11_0_12:0.00000144,11_0_5:0.00000353):0.00002955):0.00004667):0.00005659,11_0_2:0.00005043):0.00003328):0.00001081,((((11_0_11:0.00000183,11_0_17:0.00000012):0.00000435,(11_0_9:0.00000842,11_0_10:0.00000664):0.00000017):0.00001857,(11_0_6:0.00008701,((11_0_15:0.00001468,((11_0_4:0.00002859,11_0_7:0.00000491):0.00001564,11_0_14:0.00002616):0.00000160):0.00001251,11_0_1:0.00001843):0.00000180):0.00000819):0.00002299,11_0_3:0.00001014):0.00006673):0.00042485,(((((3_0_14:0.00000218,3_0_8:0.00001002):0.00002784,3_0_15:0.00003077):0.00003782,3_0_3:0.00003084):0.00011218,((3_0_10:0.00002035,3_0_0:0.00003898):0.00001299,3_0_5:0.00002610):0.00010894):0.00042112,3_0_9:0.00058522):0.00000548):0.00006421,(3_0_1:0.00002501,(3_0_11:0.00000069,3_0_2:0.00000059):0.00002241):0.00036125):0.00006470,(3_0_13:0.00056373,((3_0_6:0.00001092,3_0_4:0.00004145):0.00005120,((3_0_16:0.00001448,3_0_18:0.00002191):0.00001174,((3_0_7:0.00000130,3_0_12:0.00000074):0.00003271,3_0_17:0.00001012):0.00001073):0.00000015):0.00012961):0.00143695):0.00919351):0.00256249):0.01570694,((((4_0_17:0.00005555,4_0_2:0.00004664):0.00032625,(((4_0_7:0.00001487,4_0_13:0.00000036):0.00000291,4_0_18:0.00000318):0.00009712,(((4_0_4:0.00001685,(4_0_9:0.00000222,4_0_6:0.00000286):0.00000326):0.00003184,((4_0_11:0.00001592,4_0_15:0.00000776):0.00005142,4_0_14:0.00002622):0.00000439):0.00003752,(4_0_16:0.00001080,4_0_8:0.00008855):0.00007217):0.00006499):0.00051736):0.00002352,(((4_0_3:0.00003645,(4_0_0:0.00001561,4_0_12:0.00000790):0.00001285):0.00000236,4_0_1:0.00004892):0.00001245,(4_0_10:0.00002995,4_0_5:0.00000393):0.00002864):0.00053884):0.00091799,(((9_0_8:0.00000302,(((9_0_1:0.00001518,9_0_6:0.00000656):0.00004536,9_0_12:0.00002410):0.00000544,((9_0_18:0.00001660,9_0_16:0.00000130):0.00007252,(9_0_13:0.00001166,9_0_15:0.00000085):0.00002054):0.00000006):0.00003248):0.00001765,(9_0_0:0.00007400,((9_0_9:0.00000774,9_0_5:0.00000521):0.00002889,((9_0_2:0.00000012,9_0_17:0.00000026):0.00002061,(9_0_4:0.00000378,9_0_7:0.00000812):0.00001376):0.00002720):0.00003622):0.00006903):0.00011830,(((9_0_14:0.00000031,9_0_3:0.00000072):0.00003999,9_0_11:0.00002623):0.00001711,9_0_10:0.00003487):0.00023441):0.00118678):0.00324130):0.01425791,((1_0_11:0.00022823,(((1_0_9:0.00009076,1_0_4:0.00000283):0.00013977,((1_0_18:0.00009154,(1_0_16:0.00007234,(1_0_13:0.00000570,1_0_7:0.00001565):0.00004501):0.00000416):0.00004921,((1_0_1:0.00000226,1_0_2:0.00000046):0.00006379,((1_0_6:0.00000695,1_0_17:0.00000360):0.00001126,1_0_10:0.00003653):0.00013055):0.00003145):0.00006262):0.00023651,((((1_0_15:0.00002057,1_0_8:0.00001181):0.00000585,((1_0_3:0.00001503,1_0_14:0.00001191):0.00001629,1_0_5:0.00001272):0.00002228):0.00000009,1_0_0:0.00002792):0.00003197,1_0_12:0.00007408):0.00026107):0.00001080):0.00226096,(((2_0_8:0.00019400,2_0_7:0.00019184):0.00016155,((2_0_12:0.00002369,(2_0_4:0.00000368,2_0_10:0.00005943):0.00002799):0.00012068,((2_0_6:0.00000858,2_0_0:0.00000418):0.00001557,((2_0_15:0.00000227,2_0_18:0.00001288):0.00000916,(2_0_16:0.00001788,2_0_11:0.00001350):0.00000531):0.00003053):0.00014490):0.00000439):0.00003158,(((2_0_2:0.00013401,2_0_17:0.00008319):0.00000390,(2_0_9:0.00006192,2_0_5:0.00002286):0.00000473):0.00007375,((2_0_1:0.00000940,2_0_13:0.00003579):0.00005840,(2_0_14:0.00000841,2_0_3:0.00001202):0.00005989):0.00001901):0.00046461):0.00045784):0.07404576):0.00834086,0_0_0:0.04999069);

data_10	T10	248	1	1	0.367937	0.23448	0.24607	((((((4_0_8:0.00018056,((4_0_10:0.00008358,4_0_16:0.00007085):0.00000215,((4_0_2:0.00000256,4_0_4:0.00000290):0.00000507,((4_0_17:0.00000040,4_0_5:0.00000077):0.00001248,4_0_3:0.00003822):0.00002021):0.00000894):0.00000221):0.00306594,(((((4_0_18:0.00003072,(4_0_9:0.00000623,4_0_12:0.00000145):0.00002895):0.00000259,4_0_7:0.00000467):0.00000328,((4_0_14:0.00001037,4_0_13:0.00001780):0.00000794,4_0_11:0.00002642):0.00000372):0.00008360,(4_0_6:0.00000575,4_0_15:0.00004151):0.00005611):0.00023322,(4_0_0:0.00000900,4_0_1:0.00010685):0.00003625):0.00395828):0.00069918,(((9_0_1:0.00000124,9_0_10:0.00000272):0.00036188,9_0_7:0.00000644):0.00071494,((9_0_0:0.00000991,((9_0_15:0.00000646,(9_0_11:0.00000611,9_0_4:0.00000860):0.00000168):0.00000086,9_0_8:0.00002397):0.00001635):0.00005144,((9_0_12:0.00000334,9_0_5:0.00000458):0.00001631,(9_0_6:0.00002276,((9_0_17:0.00000652,9_0_9:0.00001521):0.00001527,((9_0_2:0.00001631,((9_0_14:0.00001065,9_0_13:0.00000596):0.00000642,9_0_18:0.00001744):0.00002231):0.00000277,(9_0_3:0.00000824,9_0_16:0.00000564):0.00000748):0.00000062):0.00001654):0.00002042):0.00004294):0.00145314):0.00104058):0.04363485,((((((((5_0_15:0.00002229,5_0_7:0.00003480):0.00003006,((5_0_5:0.00002270,(5_0_10:0.00004145,(5_0_11:0.00000329,5_0_2:0.00000464):0.00001922):0.00000001):0.00000199,5_0_8:0.00001079):0.00000702):0.00003536,(5_0_6:0.00001862,((5_0_16:0.00000013,5_0_14:0.00000017):0.00001080,5_0_1:0.00000260):0.00000196):0.00013278):0.00026952,(((5_0_0:0.00000071,5_0_12:0.00000153):0.00001270,(5_0_17:0.00000435,5_0_13:0.00000269):0.00003176):0.00004979,(5_0_18:0.00000000,5_0_3:0.00000000):0.00025467):0.00032214):0.00012273,(5_0_9:0.00005878,5_0_4:0.00003403):0.00026439):0.00691507,(((((7_0_3:0.00003505,((7_0_18:0.00000171,7_0_7:0.00000330):0.00000547,(7_0_16:0.00000497,7_0_17:0.00000328):0.00000339):0.00004752):0.00001765,(7_0_1:0.00000854,(7_0_6:0.00000004,7_0_14:0.00000047):0.00001871):0.00027802):0.00016845,(((7_0_11:0.00028522,7_0_2:0.00007394):0.00000133,(7_0_12:0.00001690,(7_0_8:0.00002936,7_0_15:0.00007197):0.00001825):0.00003612):0.00014249,(7_0_10:0.00000894,7_0_5:0.00002817):0.00029616):0.00011277):0.00043996,((7_0_13:0.00007513,7_0_9:0.00004838):0.00016757,(7_0_0:0.00005864,7_0_4:0.00000240):0.00012870):0.00166490):0.00269966,((((((8_0_1:0.00002012,8_0_17:0.00000257):0.00001201,8_0_6:0.00005776):0.00008210,8_0_15:0.00078957):0.00001376,(8_0_14:0.00003212,(8_0_7:0.00000349,8_0_4:0.00000479):0.00001024):0.00001842):0.00020203,((((8_0_10:0.00002626,8_0_12:0.00002272):0.00000715,8_0_5:0.00008710):0.00008504,8_0_0:0.00032851):0.00000705,((((8_0_13:0.00000491,8_0_16:0.00000118):0.00000210,8_0_18:0.00000767):0.00002098,((8_0_2:0.00000842,8_0_9:0.00001902):0.00002189,(8_0_3:0.00000627,8_0_8:0.00001200):0.00003904):0.00000802):0.00009543,8_0_11:0.00006207):0.00008159):0.00020948):0.00211419,((6_0_13:0.00016015,((6_0_12:0.00019609,(6_0_9:0.00003156,6_0_18:0.00001575):0.00002407):0.00007708,(((6_0_0:0.00004858,(6_0_5:0.00004809,(((6_0_10:0.00000410,(6_0_15:0.00000267,6_0_11:0.00000411):0.00000498):0.00000852,6_0_4:0.00000509):0.00004965,(6_0_14:0.00002079,6_0_1:0.00000563):0.00004844):0.00002851):0.00004055):0.00005586,6_0_3:0.00001680):0.00000649,((6_0_2:0.00004676,6_0_7:0.00002648):0.00001482,(6_0_16:0.00004876,(6_0_8:0.00000768,6_0_6:0.00000645):0.00002780):0.00002248):0.00003703):0.00001232):0.00002335):0.00029994,6_0_17:0.00144257):0.00175619):0.00277684):0.00063960):0.00130147,((((10_0_8:0.00000638,(10_0_3:0.00003582,(10_0_16:0.00000703,10_0_15:0.00000537):0.00000607):0.00000233):0.00013916,(10_0_17:0.00022127,(10_0_0:0.00001015,10_0_11:0.00000455):0.00001463):0.00000970):0.00005143,(((10_0_12:0.00003185,(10_0_4:0.00001387,10_0_1:0.00000895):0.00001528):0.00001840,10_0_10:0.00007714):0.00009916,(10_0_2:0.00006063,((10_0_13:0.00000464,10_0_14:0.00001295):0.00002227,10_0_5:0.00001288):0.00007007):0.00011517):0.00000058):0.00001888,(((10_0_18:0.00000209,10_0_9:0.00000449):0.00004380,10_0_6:0.00007436):0.00015431,10_0_7:0.00023157):0.00000075):0.00778366):0.00816602,(((((((3_0_0:0.00000714,3_0_15:0.00000213):0.00002447,((3_0_7:0.00000153,3_0_8:0.00000329):0.00001731,3_0_14:0.00001996):0.00001218):0.00000409,3_0_13:0.00003250):0.00015274,(((11_0_5:0.00000055,11_0_12:0.00000015):0.00006427,((11_0_4:0.00000617,(11_0_10:0.00001794,11_0_13:0.00001028):0.00001477):0.00002214,11_0_11:0.00001548):0.00005133):0.00102048,((3_0_9:0.00005397,((3_0_4:0.00002175,3_0_11:0.00001332):0.00003321,(3_0_6:0.00001908,3_0_18:0.00001921):0.00002228):0.00000153):0.00024784,(((3_0_12:0.00000614,3_0_3:0.00000684):0.00004548,3_0_16:0.00002331):0.00001177,((3_0_17:0.00006233,(3_0_2:0.00004750,3_0_10:0.00006004):0.00002839):0.00003184,3_0_5:0.00009652):0.00001750):0.00007157):0.00004349):0.00000269):0.00000544,3_0_1:0.00046218):0.00071217,(11_0_0:0.00018530,((11_0_6:0.00004525,((((11_0_15:0.00001396,11_0_17:0.00000630):0.00017153,(11_0_7:0.00001088,11_0_14:0.00002614):0.00000405):0.00003587,(11_0_8:0.00001393,((11_0_18:0.00000223,11_0_1:0.00000098):0.00000201,11_0_16:0.00001095):0.00001742):0.00010544):0.00000527,11_0_3:0.00008506):0.00004002):0.00001813,(11_0_9:0.00002748,11_0_2:0.00007437):0.00000133):0.00008317):0.00046398):0.00127476,((((((13_0_14:0.00000885,13_0_4:0.00002506):0.00000829,13_0_2:0.00010909):0.00001535,13_0_7:0.00007941):0.00003158,((13_0_13:0.00008255,(13_0_18:0.00015129,(13_0_12:0.00000005,13_0_8:0.00000151):0.00007973):0.00000768):0.00003790,((13_0_5:0.00000515,((13_0_10:0.00000956,13_0_0:0.00000291):0.00000126,13_0_16:0.00000979):0.00000631):0.00014869,(((13_0_1:0.00000015,13_0_15:0.00000006):0.00001981,13_0_11:0.00002808):0.00001054,13_0_3:0.00001686):0.00005827):0.00001169):0.00014176):0.00029678,(((12_0_14:0.00009471,(12_0_0:0.00009457,(12_0_7:0.00010413,(12_0_9:0.00003254,12_0_6:0.00009039):0.00001024):0.00007931):0.00006312):0.00040301,((12_0_10:0.00000900,12_0_1:0.00000238):0.00034023,(12_0_5:0.00028092,(12_0_15:0.00001473,12_0_18:0.00001474):0.00010617):0.00000736):0.00009416):0.00012293,((12_0_3:0.00001912,((12_0_17:0.00000125,(12_0_16:0.00000020,(12_0_12:0.00000045,12_0_4:0.00000033):0.00000033):0.00000858):0.00000904,(12_0_2:0.00000799,12_0_11:0.00000255):0.00000195):0.00002178):0.00001509,(12_0_8:0.00000177,12_0_13:0.00000099):0.00003708):0.00054534):0.00011122):0.00150271,(13_0_9:0.00087283,(13_0_17:0.00003560,13_0_6:0.00010088):0.00008646):0.00159821):0.00222041):0.00178929):0.01034053):0.03095744,(((1_0_5:0.00000652,1_0_10:0.00002257):0.00026574,(((1_0_2:0.00004041,((1_0_18:0.00000716,1_0_3:0.00000035):0.00000139,1_0_13:0.00000679):0.00005905):0.00005343,(1_0_8:0.00022361,(1_0_17:0.00004945,(1_0_14:0.00001663,(1_0_11:0.00000048,1_0_12:0.00000125):0.00000433):0.00000886):0.00001492):0.00005542):0.00000927,(((1_0_16:0.00000863,(1_0_6:0.00000190,(1_0_0:0.00002457,1_0_9:0.00000200):0.00001315):0.00007631):0.00001245,(1_0_1:0.00008242,(1_0_15:0.00000936,1_0_4:0.00000697):0.00000199):0.00003418):0.00007075,1_0_7:0.00007886):0.00001421):0.00004666):0.00175196,((2_0_14:0.00034009,(((((2_0_6:0.00001491,((2_0_3:0.00000023,2_0_9:0.00000025):0.00000224,2_0_16:0.00000265):0.00000106):0.00004215,2_0_13:0.00001851):0.00000815,((((2_0_12:0.00001345,2_0_18:0.00000656):0.00001316,2_0_2:0.00000188):0.00001902,2_0_5:0.00004933):0.00004647,2_0_4:0.00002424):0.00014735):0.00001946,(2_0_17:0.00000247,2_0_1:0.00000383):0.00039534):0.00000694,((2_0_15:0.00001087,2_0_7:0.00000420):0.00000559,(2_0_8:0.00002040,2_0_0:0.00001471):0.00002022):0.00025747):0.00000142):0.00069412,(2_0_11:0.00000095,2_0_10:0.00002471):0.00140525):0.00226395):0.02872494):0.15487236,0_0_0:0.01159037);
