Tree file : INDELible V1.03 (best viewed cut and paste in e.g. excel)

N.B. Simulation blocks with no random trees will have their trees printed for the first replicate only.

FILE	TREE	NTAXA	REP	PART	LENGTH	DEPTH	MAX PAIRWISE DISTANCE	TREE STRING

data_01	T01	210	1	1	0.783313	0.394426	0.657907	(((((4_0_8:0.00018367,(((4_0_3:0.00001514,4_0_10:0.00001026):0.00000229,4_0_4:0.00002566):0.00001362,((4_0_6:0.00000206,4_0_2:0.00001231):0.00000051,4_0_9:0.00000533):0.00004740):0.00016779):0.00005030,(((4_0_5:0.00000783,4_0_1:0.00000437):0.00000839,4_0_7:0.00001453):0.00006307,4_0_0:0.00010696):0.00015803):0.00042847,(((3_0_1:0.00001979,3_0_9:0.00001005):0.00004678,(3_0_5:0.00003025,((((3_0_7:0.00000566,(3_0_4:0.00000041,3_0_10:0.00000059):0.00000064):0.00001461,3_0_8:0.00000996):0.00000915,(3_0_3:0.00000202,3_0_6:0.00000170):0.00002474):0.00000363,(3_0_0:0.00000238,3_0_2:0.00000320):0.00001273):0.00001977):0.00002583):0.00221885,(((((2_0_5:0.00002463,2_0_1:0.00001330):0.00004877,(2_0_7:0.00000333,2_0_9:0.00000342):0.00002331):0.00006510,((2_0_2:0.00001094,2_0_0:0.00001816):0.00008737,(((2_0_10:0.00001888,(2_0_3:0.00000498,2_0_6:0.00000621):0.00000207):0.00000142,2_0_8:0.00001029):0.00002364,2_0_4:0.00005087):0.00001100):0.00001300):0.00031948,((((1_0_5:0.00001093,1_0_10:0.00002180):0.00001625,(1_0_2:0.00002542,1_0_7:0.00001840):0.00000960):0.00000848,(1_0_8:0.00003558,1_0_0:0.00000573):0.00003362):0.00008276,(((1_0_4:0.00003437,(1_0_9:0.00000784,1_0_3:0.00000903):0.00003110):0.00001014,1_0_1:0.00003836):0.00000068,1_0_6:0.00004833):0.00015763):0.00106811):0.00045711,((5_0_5:0.00000692,5_0_7:0.00000914):0.00003015,((5_0_8:0.00003637,((5_0_1:0.00000508,5_0_0:0.00000900):0.00003627,5_0_3:0.00004861):0.00004445):0.00000610,((5_0_2:0.00002493,((5_0_9:0.00000035,5_0_6:0.00000011):0.00000994,5_0_10:0.00000835):0.00001779):0.00000098,5_0_4:0.00001033):0.00004086):0.00000413):0.00232104):0.00009840):0.00247695):0.15613113,(((((18_0_9:0.00022970,((((18_0_3:0.00001725,18_0_7:0.00000808):0.00001165,18_0_2:0.00001983):0.00000071,18_0_10:0.00001489):0.00001846,((18_0_0:0.00003661,(18_0_4:0.00000167,18_0_6:0.00000338):0.00001529):0.00002277,(18_0_1:0.00000786,(18_0_5:0.00000011,18_0_8:0.00000004):0.00000957):0.00003310):0.00004797):0.00001362):0.00334658,((8_0_8:0.00002577,8_0_2:0.00004890):0.00011158,((8_0_5:0.00000350,8_0_7:0.00000295):0.00002679,(((8_0_3:0.00000048,8_0_1:0.00000147):0.00000502,(8_0_4:0.00000279,(8_0_6:0.00000442,8_0_10:0.00000327):0.00000121):0.00000507):0.00000918,(8_0_0:0.00000071,8_0_9:0.00000076):0.00003180):0.00000966):0.00025957):0.00328827):0.00081451,(((((19_0_9:0.00005966,(19_0_1:0.00012577,(((19_0_10:0.00000122,19_0_4:0.00000197):0.00000384,((19_0_5:0.00000111,19_0_3:0.00000187):0.00000145,19_0_6:0.00000582):0.00000105):0.00005285,(19_0_8:0.00001138,19_0_0:0.00000939):0.00003358):0.00004130):0.00000303):0.00004561,(19_0_7:0.00000001,19_0_2:0.00000002):0.00003976):0.00033084,((15_0_4:0.00004354,(((15_0_7:0.00001420,(15_0_6:0.00001304,15_0_8:0.00001149):0.00000377):0.00000146,15_0_3:0.00003466):0.00000407,15_0_10:0.00002385):0.00002116):0.00008969,(15_0_2:0.00029363,((15_0_1:0.00000045,15_0_0:0.00000040):0.00001669,(15_0_9:0.00000583,15_0_5:0.00000963):0.00000122):0.00004313):0.00006083):0.00019804):0.00249430,(((10_0_10:0.00000993,10_0_7:0.00001315):0.00000406,(10_0_0:0.00001776,10_0_2:0.00002517):0.00000259):0.00017524,((10_0_6:0.00000331,(10_0_5:0.00000136,(10_0_8:0.00000050,10_0_4:0.00000165):0.00000129):0.00000142):0.00004367,((10_0_1:0.00000366,10_0_9:0.00000737):0.00000694,10_0_3:0.00000577):0.00004003):0.00005984):0.00246866):0.00116457,(((14_0_6:0.00000081,14_0_0:0.00000352):0.00003118,14_0_4:0.00002962):0.00004399,(((14_0_7:0.00000177,14_0_5:0.00000166):0.00009694,((14_0_9:0.00000155,(14_0_10:0.00000091,14_0_1:0.00000134):0.00000037):0.00000580,14_0_3:0.00000515):0.00001791):0.00002417,(14_0_2:0.00001510,14_0_8:0.00000469):0.00004173):0.00005122):0.00410445):0.00008398):0.00029700,(((((11_0_9:0.00000720,((11_0_0:0.00000087,11_0_3:0.00000115):0.00000004,11_0_4:0.00000148):0.00000218):0.00003044,11_0_7:0.00005684):0.00016188,((((11_0_10:0.00000454,11_0_1:0.00000571):0.00000205,11_0_2:0.00000412):0.00000714,(11_0_8:0.00000379,11_0_6:0.00000764):0.00000405):0.00006896,11_0_5:0.00004799):0.00005875):0.00321793,(((((6_0_8:0.00006320,(6_0_6:0.00000284,6_0_5:0.00000682):0.00002684):0.00000091,((6_0_10:0.00002289,6_0_4:0.00003487):0.00000778,6_0_3:0.00002551):0.00002532):0.00002376,((6_0_7:0.00000272,6_0_2:0.00000564):0.00003356,(6_0_1:0.00000842,6_0_0:0.00000577):0.00003231):0.00001739):0.00021993,6_0_9:0.00031803):0.00104108,(((13_0_8:0.00001401,13_0_6:0.00001524):0.00000258,((13_0_0:0.00000734,(13_0_4:0.00000628,13_0_1:0.00000532):0.00000082):0.00001024,13_0_5:0.00005668):0.00000006):0.00011211,(((13_0_2:0.00002450,13_0_10:0.00005444):0.00004042,(13_0_7:0.00003450,13_0_9:0.00001704):0.00002102):0.00004085,13_0_3:0.00004091):0.00004253):0.00121277):0.00025861):0.00189711,(((((17_0_1:0.00000204,17_0_6:0.00000187):0.00001604,(17_0_2:0.00000839,(17_0_4:0.00000335,17_0_10:0.00000506):0.00000293):0.00000237):0.00000358,17_0_0:0.00002772):0.00002493,(17_0_9:0.00004770,(17_0_7:0.00002651,((17_0_5:0.00000076,17_0_3:0.00000279):0.00000612,17_0_8:0.00000342):0.00001751):0.00001580):0.00000600):0.00066473,((16_0_5:0.00022814,((16_0_10:0.00002081,((16_0_9:0.00001738,16_0_3:0.00000274):0.00000321,(16_0_4:0.00000262,16_0_2:0.00000339):0.00001304):0.00000760):0.00000548,(16_0_7:0.00002461,(16_0_0:0.00001636,((16_0_1:0.00000805,16_0_8:0.00000257):0.00000683,16_0_6:0.00001877):0.00000101):0.00001272):0.00000454):0.00015465):0.00048365,((((9_0_2:0.00002063,9_0_5:0.00000551):0.00005416,((9_0_1:0.00000281,9_0_9:0.00001026):0.00000674,(9_0_0:0.00000109,9_0_3:0.00000186):0.00001235):0.00005393):0.00000047,9_0_6:0.00005791):0.00003195,(9_0_4:0.00000573,(9_0_8:0.00000375,(9_0_7:0.00000131,9_0_10:0.00000109):0.00000362):0.00000146):0.00004187):0.00081689):0.00002791):0.00229464):0.00099527):0.01023476,((((7_0_0:0.00000015,7_0_5:0.00000014):0.00001446,7_0_10:0.00005101):0.00007776,((((7_0_8:0.00001486,((7_0_9:0.00000624,7_0_6:0.00000385):0.00000183,7_0_1:0.00000706):0.00000552):0.00000039,(7_0_7:0.00000678,7_0_2:0.00001120):0.00000113):0.00008251,7_0_3:0.00007129):0.00000693,7_0_4:0.00004551):0.00009058):0.00118391,((12_0_1:0.00008445,((12_0_0:0.00001889,12_0_7:0.00001745):0.00004204,((12_0_3:0.00000490,(12_0_2:0.00000179,12_0_10:0.00000233):0.00000367):0.00004867,((12_0_4:0.00000398,12_0_6:0.00000265):0.00000150,(12_0_9:0.00000340,12_0_8:0.00000541):0.00000182):0.00000763):0.00001073):0.00000349):0.00002122,12_0_5:0.00007428):0.00123495):0.01326399):0.05418774):0.23329555,0_0_0:0.26348034);

data_02	T02	210	1	1	0.704742	0.431537	0.557639	((((((((((18_0_5:0.00000599,18_0_8:0.00000349):0.00002021,18_0_0:0.00000910):0.00004344,(((18_0_6:0.00000310,18_0_2:0.00000508):0.00004264,((18_0_10:0.00001553,18_0_9:0.00000796):0.00000072,18_0_4:0.00001339):0.00001281):0.00000445,18_0_1:0.00001444):0.00001336):0.00004259,(18_0_7:0.00003456,18_0_3:0.00006981):0.00008866):0.00289008,(((8_0_3:0.00000382,8_0_5:0.00000134):0.00000600,8_0_8:0.00001332):0.00002021,(((8_0_10:0.00000190,8_0_9:0.00000534):0.00001626,((8_0_6:0.00001298,8_0_1:0.00001143):0.00000220,((8_0_4:0.00000887,8_0_7:0.00000657):0.00000096,8_0_0:0.00000470):0.00000289):0.00001486):0.00001016,8_0_2:0.00003844):0.00000338):0.00090368):0.00185125,(((((14_0_5:0.00000227,14_0_10:0.00000819):0.00004991,((14_0_2:0.00004817,(14_0_4:0.00001611,(14_0_7:0.00000775,14_0_3:0.00000377):0.00000118):0.00006271):0.00000174,(14_0_1:0.00003178,14_0_8:0.00001474):0.00001076):0.00000969):0.00001075,14_0_0:0.00007576):0.00005523,(14_0_9:0.00001434,14_0_6:0.00000739):0.00003389):0.00565796,((((((15_0_8:0.00000310,15_0_2:0.00000735):0.00000425,15_0_4:0.00000537):0.00000112,(15_0_0:0.00000569,15_0_5:0.00001219):0.00000389):0.00011380,((15_0_9:0.00000199,15_0_6:0.00000126):0.00002767,(((15_0_10:0.00001264,15_0_7:0.00000847):0.00000052,15_0_1:0.00002999):0.00002829,15_0_3:0.00002629):0.00001938):0.00002873):0.00037078,(((((19_0_7:0.00000387,19_0_8:0.00000538):0.00002710,(19_0_5:0.00000477,19_0_6:0.00001883):0.00011378):0.00003832,19_0_10:0.00009394):0.00003086,(19_0_2:0.00000697,19_0_9:0.00002436):0.00004343):0.00001151,(((19_0_1:0.00000360,19_0_0:0.00000166):0.00000376,19_0_3:0.00000990):0.00000328,19_0_4:0.00000789):0.00007860):0.00040099):0.00194336,(((10_0_3:0.00004465,10_0_0:0.00002531):0.00001023,(10_0_5:0.00000537,10_0_7:0.00000441):0.00003010):0.00002718,((10_0_2:0.00002224,(10_0_6:0.00000874,(10_0_8:0.00000364,10_0_10:0.00000757):0.00000364):0.00000636):0.00005623,(10_0_1:0.00002700,(10_0_9:0.00000969,10_0_4:0.00000455):0.00002158):0.00005958):0.00000414):0.00191184):0.00082589):0.00013747):0.00040970,((((((13_0_10:0.00001292,(13_0_2:0.00001283,((13_0_8:0.00000391,13_0_4:0.00000210):0.00000028,13_0_5:0.00000789):0.00000248):0.00000877):0.00000066,13_0_7:0.00002141):0.00061845,(13_0_9:0.00005841,((13_0_1:0.00001707,13_0_3:0.00001725):0.00003374,(13_0_6:0.00000047,13_0_0:0.00000026):0.00002589):0.00000665):0.00040276):0.00083640,((6_0_4:0.00008661,((((6_0_9:0.00000310,6_0_8:0.00000828):0.00000058,6_0_7:0.00000914):0.00000555,6_0_10:0.00000702):0.00005457,(6_0_2:0.00000877,6_0_0:0.00001196):0.00002621):0.00003739):0.00003320,((6_0_1:0.00000143,6_0_5:0.00000319):0.00001882,(6_0_3:0.00000934,6_0_6:0.00000590):0.00001947):0.00003235):0.00198272):0.00014767,((11_0_1:0.00001881,11_0_3:0.00002100):0.00023420,(((11_0_0:0.00002702,11_0_8:0.00003248):0.00004280,((11_0_9:0.00000577,(11_0_4:0.00000099,11_0_7:0.00000208):0.00000242):0.00000604,11_0_2:0.00000643):0.00011630):0.00004783,(11_0_6:0.00000968,(11_0_5:0.00000547,11_0_10:0.00000874):0.00000402):0.00017527):0.00014861):0.00196753):0.00065167,(((((17_0_4:0.00001296,17_0_9:0.00002389):0.00000694,((17_0_10:0.00000884,(17_0_2:0.00001203,(17_0_1:0.00000326,17_0_7:0.00000095):0.00000386):0.00000499):0.00000594,(17_0_5:0.00000750,(17_0_0:0.00000143,17_0_3:0.00000189):0.00000393):0.00000943):0.00001051):0.00016067,(17_0_6:0.00000322,17_0_8:0.00000131):0.00021016):0.00032548,(((16_0_6:0.00001224,16_0_1:0.00002186):0.00020381,(16_0_10:0.00001606,16_0_4:0.00001770):0.00008397):0.00000485,((16_0_0:0.00000716,(16_0_5:0.00000461,(((16_0_8:0.00000185,16_0_3:0.00000255):0.00000095,16_0_9:0.00000242):0.00000049,16_0_2:0.00000286):0.00000249):0.00000687):0.00000539,16_0_7:0.00002058):0.00017277):0.00024694):0.00035305,(((9_0_0:0.00000664,(9_0_10:0.00000225,9_0_1:0.00000209):0.00000223):0.00005454,((9_0_8:0.00000540,(9_0_9:0.00000265,9_0_2:0.00000360):0.00000136):0.00000153,9_0_3:0.00000556):0.00009892):0.00005555,((9_0_4:0.00000565,(9_0_7:0.00000189,9_0_5:0.00000202):0.00000124):0.00003094,9_0_6:0.00004523):0.00004223):0.00092826):0.00069408):0.00059868):0.01815564,((((12_0_2:0.00000178,12_0_0:0.00000185):0.00001239,(12_0_7:0.00000407,12_0_3:0.00000326):0.00001362):0.00018548,(12_0_10:0.00011138,((((12_0_1:0.00000668,12_0_4:0.00000262):0.00000248,12_0_8:0.00000404):0.00000017,12_0_5:0.00000864):0.00000726,(12_0_9:0.00001402,12_0_6:0.00000372):0.00000848):0.00003795):0.00007508):0.00121827,((7_0_9:0.00000957,((7_0_4:0.00000756,(((7_0_1:0.00000158,7_0_6:0.00000354):0.00000067,(7_0_2:0.00000177,(7_0_0:0.00000356,7_0_5:0.00000281):0.00000111):0.00000002):0.00000463,(7_0_10:0.00000098,7_0_8:0.00000053):0.00000917):0.00001398):0.00001381,7_0_3:0.00004485):0.00000491):0.00081943,7_0_7:0.00040731):0.00161754):0.00540249):0.30027104,((((4_0_5:0.00000273,4_0_3:0.00000139):0.00010480,((4_0_6:0.00000123,4_0_10:0.00000283):0.00004815,((4_0_0:0.00000175,4_0_9:0.00000296):0.00000094,(4_0_2:0.00000186,4_0_4:0.00000240):0.00000172):0.00002345):0.00003635):0.00005151,((4_0_1:0.00003576,4_0_8:0.00004379):0.00006311,4_0_7:0.00007006):0.00002387):0.00230214,((((((2_0_2:0.00000272,(2_0_6:0.00000097,2_0_5:0.00000104):0.00000069):0.00004985,((2_0_3:0.00000218,(2_0_7:0.00000018,(2_0_8:0.00000015,2_0_9:0.00000020):0.00000012):0.00000668):0.00002738,2_0_0:0.00001554):0.00000742):0.00008553,(2_0_1:0.00001026,(2_0_10:0.00000416,2_0_4:0.00000377):0.00000922):0.00003825):0.00076280,((((((1_0_3:0.00000347,1_0_10:0.00000458):0.00000147,1_0_7:0.00000270):0.00000185,(1_0_5:0.00000447,1_0_2:0.00000330):0.00000758):0.00000202,(1_0_4:0.00000404,1_0_1:0.00001106):0.00001192):0.00002997,1_0_0:0.00003291):0.00008822,((1_0_8:0.00001851,1_0_9:0.00003903):0.00002597,1_0_6:0.00004083):0.00006305):0.00090282):0.00058973,(((3_0_4:0.00002052,((3_0_10:0.00001005,3_0_8:0.00001217):0.00000037,3_0_3:0.00001018):0.00001571):0.00005444,(3_0_1:0.00004081,(3_0_6:0.00002103,(3_0_0:0.00002684,(3_0_5:0.00000672,3_0_9:0.00000368):0.00001012):0.00000006):0.00000846):0.00001611):0.00002736,(3_0_2:0.00001460,3_0_7:0.00004525):0.00004051):0.00309539):0.00006119,((5_0_10:0.00000193,5_0_6:0.00000214):0.00009420,(((5_0_0:0.00000340,(5_0_4:0.00000071,5_0_2:0.00000095):0.00001381):0.00000414,(5_0_3:0.00000398,5_0_5:0.00000329):0.00000420):0.00001751,((5_0_1:0.00004522,(5_0_9:0.00000625,5_0_8:0.00000741):0.00001520):0.00000028,5_0_7:0.00001937):0.00000559):0.00014708):0.00190996):0.00356708):0.09580823):0.10674921,0_0_0:0.12610216);

data_03	T03	210	1	1	0.712838	0.397443	0.621612	(((((((9_0_10:0.00011143,(((9_0_7:0.00001072,9_0_4:0.00000252):0.00001929,((9_0_2:0.00001095,(9_0_6:0.00001000,9_0_9:0.00000565):0.00001145):0.00001340,((9_0_1:0.00000165,9_0_0:0.00000091):0.00000317,9_0_3:0.00000756):0.00005972):0.00000117):0.00000239,(9_0_8:0.00000085,9_0_5:0.00000166):0.00002514):0.00001406):0.00119279,(((((16_0_3:0.00005021,((16_0_8:0.00000622,16_0_10:0.00001755):0.00000741,(16_0_1:0.00004359,16_0_2:0.00005674):0.00000145):0.00000133):0.00002076,(16_0_4:0.00006190,16_0_9:0.00003684):0.00002900):0.00017199,(16_0_0:0.00006287,(16_0_7:0.00000606,16_0_5:0.00001177):0.00001167):0.00014887):0.00003774,16_0_6:0.00017538):0.00016475,((17_0_6:0.00001179,(17_0_4:0.00000086,17_0_3:0.00000447):0.00000874):0.00011303,(17_0_7:0.00002023,(((17_0_9:0.00000185,17_0_10:0.00000039):0.00000899,17_0_2:0.00001917):0.00000329,(((17_0_1:0.00000426,17_0_0:0.00000148):0.00001098,17_0_5:0.00002778):0.00000037,17_0_8:0.00004567):0.00001047):0.00000236):0.00004015):0.00060221):0.00025037):0.00413926,((((((6_0_8:0.00000028,6_0_10:0.00000121):0.00003747,(6_0_7:0.00000384,6_0_9:0.00000174):0.00004184):0.00003056,(6_0_6:0.00001833,(6_0_0:0.00000488,6_0_1:0.00000390):0.00003110):0.00011742):0.00017936,(6_0_5:0.00006473,((6_0_2:0.00000308,6_0_3:0.00000129):0.00000030,6_0_4:0.00000382):0.00005935):0.00012857):0.00024855,((13_0_7:0.00000206,13_0_3:0.00000053):0.00008897,((13_0_5:0.00001588,(((13_0_9:0.00000006,13_0_2:0.00000020):0.00000058,13_0_0:0.00000105):0.00000157,(13_0_6:0.00000071,13_0_1:0.00000064):0.00000366):0.00000386):0.00001974,((13_0_8:0.00001881,13_0_10:0.00001222):0.00003949,13_0_4:0.00006012):0.00000506):0.00003118):0.00098524):0.00057178,(((11_0_5:0.00000773,11_0_0:0.00000588):0.00009909,((((11_0_4:0.00000150,((11_0_3:0.00000059,11_0_10:0.00000076):0.00000123,11_0_9:0.00000225):0.00000003):0.00000012,11_0_7:0.00000106):0.00001572,(11_0_6:0.00000168,11_0_2:0.00000061):0.00002729):0.00000846,11_0_1:0.00002909):0.00001906):0.00003826,11_0_8:0.00013114):0.00221482):0.00144027):0.00086467,(((14_0_1:0.00004322,(14_0_8:0.00000570,(14_0_3:0.00000816,(14_0_9:0.00000490,14_0_7:0.00000122):0.00000265):0.00000377):0.00002451):0.00011343,((14_0_4:0.00000558,(14_0_0:0.00000700,14_0_2:0.00001517):0.00000084):0.00000218,((14_0_6:0.00000222,14_0_10:0.00000135):0.00000152,14_0_5:0.00000526):0.00001679):0.00012110):0.00275569,(((((18_0_5:0.00001028,((18_0_3:0.00000597,(18_0_1:0.00000788,(18_0_7:0.00000186,18_0_2:0.00000186):0.00000239):0.00000191):0.00000197,18_0_0:0.00000856):0.00000021):0.00017266,(18_0_6:0.00003009,(18_0_10:0.00001017,18_0_8:0.00001552):0.00003632):0.00006548):0.00004315,(18_0_4:0.00008903,18_0_9:0.00006385):0.00005354):0.00154997,((((8_0_3:0.00000390,8_0_6:0.00000375):0.00000470,8_0_4:0.00000434):0.00001295,((8_0_7:0.00001397,8_0_8:0.00000558):0.00000675,8_0_2:0.00001730):0.00007506):0.00001057,(((8_0_1:0.00000362,8_0_10:0.00000331):0.00002144,8_0_0:0.00004091):0.00001685,(8_0_5:0.00001583,8_0_9:0.00001536):0.00002206):0.00004901):0.00200908):0.00081415,((((((((15_0_4:0.00000007,15_0_0:0.00000016):0.00000985,15_0_9:0.00001143):0.00000193,15_0_8:0.00001082):0.00000498,15_0_3:0.00000336):0.00001788,(15_0_1:0.00001251,15_0_7:0.00001790):0.00009791):0.00001681,(((15_0_10:0.00000103,15_0_5:0.00000060):0.00000729,15_0_6:0.00002260):0.00002370,15_0_2:0.00009196):0.00000288):0.00026727,((((19_0_0:0.00000188,19_0_2:0.00000279):0.00001330,19_0_4:0.00000493):0.00000746,19_0_10:0.00002157):0.00020320,(((19_0_7:0.00001107,(19_0_8:0.00000056,19_0_1:0.00000077):0.00000744):0.00001143,(19_0_3:0.00001328,19_0_9:0.00000263):0.00001505):0.00007408,(19_0_6:0.00004536,19_0_5:0.00007453):0.00000530):0.00010601):0.00030475):0.00125702,(10_0_6:0.00036265,(10_0_8:0.00025193,(((10_0_5:0.00000057,10_0_0:0.00000226):0.00001069,10_0_10:0.00001833):0.00000113,((10_0_3:0.00000360,(10_0_1:0.00000226,10_0_4:0.00000353):0.00000001):0.00000213,((10_0_9:0.00000250,10_0_7:0.00000119):0.00000148,10_0_2:0.00000474):0.00000992):0.00000795):0.00006078):0.00003345):0.00193426):0.00177025):0.00000062):0.00146550):0.00291716,((((12_0_2:0.00004583,12_0_5:0.00006198):0.00003236,((((12_0_7:0.00000593,12_0_3:0.00000286):0.00002071,12_0_6:0.00001388):0.00000224,12_0_0:0.00000978):0.00000518,((12_0_4:0.00001586,12_0_10:0.00005822):0.00000025,12_0_1:0.00001229):0.00000778):0.00001979):0.00002942,(12_0_9:0.00000690,12_0_8:0.00000817):0.00008615):0.00037526,((7_0_2:0.00001930,(7_0_1:0.00001794,7_0_5:0.00000436):0.00004371):0.00000898,(((7_0_3:0.00000821,7_0_4:0.00000989):0.00000395,(7_0_6:0.00000075,7_0_9:0.00000211):0.00000522):0.00003538,((7_0_0:0.00000317,7_0_7:0.00000510):0.00002333,(7_0_10:0.00001852,7_0_8:0.00000914):0.00000413):0.00000762):0.00001238):0.00099950):0.00887366):0.20933001,((((((((((3_0_3:0.00000011,3_0_5:0.00000010):0.00001488,(3_0_0:0.00001976,3_0_4:0.00001429):0.00000110):0.00000153,3_0_2:0.00001154):0.00002671,3_0_10:0.00007243):0.00000365,((3_0_8:0.00000044,3_0_7:0.00000022):0.00001998,3_0_6:0.00001784):0.00004438):0.00004512,3_0_9:0.00020930):0.00001280,3_0_1:0.00019393):0.00146637,(((((2_0_4:0.00001486,2_0_9:0.00000469):0.00002171,2_0_8:0.00001491):0.00002805,2_0_7:0.00006936):0.00036198,(((2_0_6:0.00001949,(2_0_10:0.00001202,2_0_3:0.00000576):0.00001229):0.00000376,2_0_2:0.00003705):0.00000054,(2_0_5:0.00000751,(2_0_1:0.00000091,2_0_0:0.00000256):0.00000528):0.00003106):0.00045495):0.00208425,(((1_0_8:0.00001428,(((1_0_7:0.00000067,1_0_6:0.00000241):0.00000213,1_0_1:0.00000133):0.00000250,1_0_4:0.00001430):0.00001076):0.00001341,1_0_5:0.00001623):0.00012333,(((1_0_3:0.00000035,1_0_10:0.00000055):0.00000151,1_0_0:0.00000144):0.00006915,(1_0_2:0.00000087,1_0_9:0.00000120):0.00005002):0.00002551):0.00177260):0.00046329):0.00000281,(((((5_0_1:0.00001535,5_0_8:0.00000622):0.00002255,5_0_6:0.00003161):0.00000849,5_0_9:0.00003638):0.00004178,(5_0_3:0.00000954,(5_0_2:0.00001627,((5_0_7:0.00000069,5_0_0:0.00000158):0.00000567,(5_0_4:0.00000374,5_0_5:0.00000234):0.00000238):0.00001223):0.00000840):0.00000942):0.00005351,5_0_10:0.00007888):0.00186243):0.00244065,(((4_0_10:0.00000150,4_0_5:0.00000226):0.00002490,((4_0_8:0.00001348,4_0_4:0.00000861):0.00000518,4_0_3:0.00001205):0.00000410):0.00001368,((((4_0_7:0.00000435,4_0_2:0.00000844):0.00000507,(4_0_9:0.00001525,4_0_6:0.00001164):0.00001579):0.00000513,4_0_1:0.00002479):0.00002389,4_0_0:0.00003917):0.00000088):0.00655986):0.03492644):0.17816878,0_0_0:0.22416899);

data_04	T04	210	1	1	0.83455	0.377505	0.736586	(0_0_0:0.35908183,(((((((14_0_0:0.00002272,14_0_8:0.00001896):0.00007172,(((14_0_4:0.00000399,14_0_1:0.00000487):0.00000607,(14_0_6:0.00000571,14_0_5:0.00002248):0.00000326):0.00005857,((14_0_10:0.00002722,14_0_9:0.00005468):0.00000218,((14_0_7:0.00000805,14_0_3:0.00000741):0.00000051,14_0_2:0.00000979):0.00001530):0.00001385):0.00005591):0.00093471,((((19_0_2:0.00001028,(19_0_10:0.00000467,19_0_0:0.00000316):0.00001487):0.00028583,(((19_0_3:0.00001254,(19_0_1:0.00000253,19_0_7:0.00000231):0.00001813):0.00003947,19_0_4:0.00003298):0.00013808,(((19_0_9:0.00000286,19_0_6:0.00000332):0.00001237,19_0_5:0.00001300):0.00007222,19_0_8:0.00007098):0.00014276):0.00000458):0.00060026,((15_0_4:0.00006257,((15_0_1:0.00000867,(15_0_7:0.00000354,15_0_5:0.00000087):0.00000025):0.00001050,((15_0_2:0.00000450,(15_0_8:0.00000141,15_0_3:0.00000323):0.00000774):0.00000857,15_0_9:0.00001995):0.00001223):0.00003494):0.00008969,(15_0_6:0.00001342,(15_0_0:0.00000557,15_0_10:0.00000307):0.00000386):0.00006635):0.00023691):0.00127420,((10_0_5:0.00008608,((10_0_7:0.00002321,10_0_2:0.00004821):0.00002365,((10_0_10:0.00000245,10_0_8:0.00001928):0.00000094,10_0_3:0.00002026):0.00008558):0.00000991):0.00005169,((10_0_4:0.00000666,10_0_9:0.00000508):0.00000482,(10_0_6:0.00000725,(10_0_0:0.00000179,10_0_1:0.00000215):0.00000885):0.00001155):0.00014648):0.00280104):0.00053064):0.00040947,(((((((18_0_7:0.00000533,18_0_6:0.00000257):0.00000495,(18_0_4:0.00000312,18_0_8:0.00000415):0.00001640):0.00002281,18_0_1:0.00003249):0.00001382,((18_0_9:0.00000046,18_0_2:0.00000062):0.00000586,18_0_10:0.00000640):0.00005603):0.00004387,(18_0_3:0.00010130,18_0_0:0.00009461):0.00001259):0.00039219,18_0_5:0.00038563):0.00066589,((8_0_9:0.00004631,(((8_0_1:0.00000135,8_0_8:0.00000230):0.00000119,8_0_10:0.00000269):0.00001396,8_0_0:0.00005081):0.00004269):0.00000103,((8_0_4:0.00000327,(8_0_7:0.00000336,8_0_3:0.00000141):0.00000208):0.00001869,((8_0_5:0.00000188,8_0_2:0.00000137):0.00001569,8_0_6:0.00000842):0.00002854):0.00000903):0.00214330):0.00147017):0.00145904,((((9_0_1:0.00006365,9_0_5:0.00002491):0.00001586,(((((9_0_2:0.00000961,9_0_3:0.00000742):0.00000047,9_0_6:0.00000958):0.00003934,((9_0_7:0.00001011,9_0_9:0.00001338):0.00000793,9_0_4:0.00001734):0.00002760):0.00002200,9_0_0:0.00004400):0.00002938,(9_0_10:0.00002960,9_0_8:0.00002721):0.00006235):0.00000512):0.00097198,((16_0_2:0.00021412,(16_0_4:0.00007973,(((16_0_5:0.00000256,16_0_10:0.00000211):0.00002105,(16_0_8:0.00000162,16_0_0:0.00000191):0.00000992):0.00000268,(((16_0_6:0.00000118,16_0_3:0.00001357):0.00000122,(16_0_1:0.00000932,16_0_7:0.00000735):0.00000098):0.00000176,16_0_9:0.00000698):0.00000763):0.00000930):0.00012663):0.00055708,(((17_0_0:0.00001833,(17_0_8:0.00001015,17_0_1:0.00000235):0.00001741):0.00005795,((17_0_5:0.00000016,(17_0_9:0.00000000,17_0_2:0.00000000):0.00000026):0.00003747,17_0_3:0.00004642):0.00002946):0.00012711,(((17_0_7:0.00002821,17_0_6:0.00002359):0.00000557,17_0_4:0.00004448):0.00001730,17_0_10:0.00005795):0.00014414):0.00047030):0.00065070):0.00280357,((((6_0_8:0.00000773,(6_0_2:0.00000102,6_0_7:0.00000325):0.00006098):0.00029461,((6_0_5:0.00004264,((6_0_1:0.00000266,6_0_3:0.00000934):0.00001561,(6_0_6:0.00001013,((6_0_9:0.00000032,6_0_4:0.00000016):0.00000044,6_0_10:0.00000246):0.00000387):0.00000815):0.00000674):0.00001700,6_0_0:0.00002071):0.00007561):0.00190254,((13_0_3:0.00002671,(13_0_9:0.00001902,13_0_6:0.00002120):0.00000673):0.00003456,((((13_0_4:0.00000558,13_0_2:0.00001467):0.00000531,13_0_8:0.00000748):0.00001193,((13_0_0:0.00000044,13_0_7:0.00000044):0.00000189,13_0_1:0.00000289):0.00001420):0.00005478,(13_0_5:0.00005417,13_0_10:0.00001427):0.00001637):0.00000431):0.00150508):0.00027303,(((11_0_0:0.00000472,(11_0_2:0.00000607,(11_0_9:0.00000156,(11_0_7:0.00000115,11_0_6:0.00000159):0.00000095):0.00000337):0.00000125):0.00000580,11_0_4:0.00001242):0.00017879,(((11_0_5:0.00000008,11_0_3:0.00000008):0.00004427,(11_0_1:0.00000038,11_0_8:0.00000018):0.00003480):0.00003511,11_0_10:0.00003113):0.00003543):0.00159961):0.00123634):0.00085017):0.01574612,((((((12_0_6:0.00000160,12_0_0:0.00000327):0.00001248,((12_0_3:0.00000437,(12_0_5:0.00000095,12_0_1:0.00000320):0.00000042):0.00000007,12_0_10:0.00000179):0.00000204):0.00001217,(12_0_8:0.00000612,12_0_7:0.00000884):0.00001519):0.00004535,12_0_2:0.00015062):0.00005750,(12_0_9:0.00000563,12_0_4:0.00000936):0.00008611):0.00066518,(((7_0_4:0.00001635,(7_0_8:0.00001684,7_0_9:0.00000611):0.00000552):0.00002386,(7_0_6:0.00004507,(7_0_0:0.00002130,((7_0_1:0.00003793,(7_0_10:0.00000489,7_0_7:0.00000360):0.00001400):0.00000240,7_0_5:0.00000814):0.00000768):0.00000483):0.00000266):0.00004029,(7_0_2:0.00000318,7_0_3:0.00000252):0.00009319):0.00184176):0.00813062):0.17255890,((((4_0_1:0.00000966,(4_0_5:0.00000216,4_0_7:0.00000237):0.00000182):0.00002361,(4_0_4:0.00003514,4_0_0:0.00006977):0.00001115):0.00008028,((4_0_3:0.00000557,4_0_9:0.00000343):0.00002384,((4_0_6:0.00001738,4_0_10:0.00001453):0.00000237,(4_0_8:0.00000428,4_0_2:0.00000418):0.00000846):0.00000216):0.00019190):0.00296443,((((((((((2_0_0:0.00000411,2_0_10:0.00000280):0.00000101,(2_0_1:0.00000565,2_0_6:0.00001008):0.00000042):0.00001435,2_0_8:0.00002688):0.00004857,(2_0_3:0.00000101,2_0_2:0.00000550):0.00002751):0.00000587,(2_0_5:0.00002593,2_0_9:0.00002412):0.00002884):0.00002751,2_0_4:0.00009042):0.00006859,2_0_7:0.00021407):0.00112391,((1_0_6:0.00003751,(((1_0_1:0.00000044,1_0_3:0.00000068):0.00000984,1_0_10:0.00001296):0.00000125,(1_0_0:0.00000078,1_0_7:0.00000062):0.00001911):0.00000586):0.00020511,(1_0_9:0.00024295,(1_0_2:0.00002109,((1_0_5:0.00000031,1_0_8:0.00000039):0.00000278,1_0_4:0.00000639):0.00001955):0.00014637):0.00016231):0.00195903):0.00033045,((((5_0_6:0.00005843,(5_0_3:0.00001367,5_0_5:0.00002412):0.00002804):0.00000362,5_0_7:0.00006163):0.00000052,5_0_4:0.00001642):0.00023486,(5_0_10:0.00004537,((5_0_1:0.00001518,5_0_9:0.00001216):0.00001334,((5_0_8:0.00000142,5_0_0:0.00000054):0.00000162,5_0_2:0.00000131):0.00003214):0.00001115):0.00012391):0.00205073):0.00015084,(((3_0_9:0.00000107,3_0_2:0.00000528):0.00006750,(((3_0_10:0.00000682,3_0_1:0.00001614):0.00000624,((3_0_6:0.00000814,3_0_8:0.00000773):0.00000381,3_0_5:0.00001766):0.00000501):0.00007015,3_0_4:0.00006430):0.00000136):0.00003942,((3_0_3:0.00002202,3_0_7:0.00001402):0.00000298,3_0_0:0.00002542):0.00010855):0.00078853):0.00165117):0.04566184):0.18383030);

data_05	T05	210	1	1	0.917096	0.393765	0.6974	(0_0_0:0.30363518,(((((((5_0_0:0.00001130,5_0_9:0.00000795):0.00000591,5_0_3:0.00003385):0.00017420,((5_0_7:0.00002617,(5_0_10:0.00000438,(5_0_1:0.00000045,5_0_2:0.00000076):0.00000353):0.00003399):0.00003168,((5_0_5:0.00001295,(5_0_8:0.00000079,5_0_6:0.00000014):0.00002590):0.00001104,5_0_4:0.00003852):0.00002926):0.00003107):0.00139326,(3_0_3:0.00006994,((3_0_6:0.00006183,((3_0_7:0.00000076,3_0_4:0.00000051):0.00001908,((3_0_5:0.00000074,3_0_0:0.00000120):0.00000958,3_0_8:0.00001151):0.00000316):0.00005099):0.00001206,((3_0_1:0.00000391,(3_0_2:0.00000179,3_0_9:0.00000293):0.00000357):0.00004338,3_0_10:0.00001683):0.00003984):0.00001015):0.00287387):0.00003758,((2_0_0:0.00006171,(((2_0_2:0.00000200,2_0_4:0.00000307):0.00001538,((2_0_5:0.00000178,2_0_6:0.00000607):0.00000475,2_0_8:0.00001138):0.00001348):0.00008614,((2_0_3:0.00003619,((2_0_7:0.00000265,2_0_10:0.00000148):0.00000245,2_0_9:0.00000921):0.00001229):0.00000595,2_0_1:0.00001588):0.00006051):0.00000863):0.00152871,((1_0_2:0.00001580,1_0_5:0.00002566):0.00005964,((1_0_3:0.00002325,(1_0_4:0.00000791,(1_0_6:0.00000186,1_0_10:0.00000136):0.00003261):0.00001364):0.00004932,((1_0_1:0.00002050,1_0_8:0.00001064):0.00001555,((1_0_0:0.00000068,1_0_9:0.00000048):0.00000561,1_0_7:0.00001001):0.00001158):0.00014121):0.00004077):0.00332207):0.00019665):0.00227706,((4_0_5:0.00001146,4_0_1:0.00001699):0.00016729,((4_0_7:0.00000368,4_0_8:0.00000348):0.00005472,((((4_0_3:0.00000449,4_0_10:0.00000549):0.00000090,4_0_4:0.00000326):0.00000195,(4_0_0:0.00000714,(4_0_6:0.00000350,4_0_2:0.00000265):0.00000219):0.00000061):0.00000050,4_0_9:0.00001352):0.00005934):0.00019626):0.00362267):0.25052005,((((((14_0_10:0.00001675,14_0_2:0.00004600):0.00008581,((14_0_1:0.00004315,14_0_7:0.00005761):0.00000275,((14_0_3:0.00000322,(14_0_9:0.00000215,14_0_5:0.00000208):0.00000052):0.00001466,(((14_0_8:0.00000078,14_0_4:0.00000103):0.00001092,14_0_0:0.00000914):0.00000179,14_0_6:0.00002130):0.00000163):0.00002809):0.00003101):0.00130351,(((((10_0_7:0.00000332,10_0_5:0.00000828):0.00000351,10_0_4:0.00000652):0.00004252,(10_0_6:0.00000259,10_0_10:0.00000512):0.00002802):0.00009817,((10_0_9:0.00001400,(10_0_3:0.00000540,(10_0_8:0.00000066,10_0_1:0.00000100):0.00000380):0.00000261):0.00005832,(10_0_2:0.00000159,10_0_0:0.00000169):0.00009225):0.00004117):0.00397181,(((15_0_6:0.00002432,((15_0_8:0.00001211,(15_0_3:0.00000333,(15_0_0:0.00000288,15_0_2:0.00000338):0.00000383):0.00000548):0.00000598,15_0_7:0.00002881):0.00000146):0.00002307,((((15_0_1:0.00000043,15_0_5:0.00000017):0.00000376,15_0_10:0.00000660):0.00000010,15_0_4:0.00000332):0.00001715,15_0_9:0.00006112):0.00006390):0.00082418,(((19_0_10:0.00000271,(19_0_5:0.00000061,19_0_4:0.00000140):0.00000091):0.00000007,19_0_8:0.00000361):0.00012434,((19_0_2:0.00001530,(19_0_6:0.00003520,19_0_1:0.00001715):0.00000181):0.00000899,((19_0_3:0.00000394,(19_0_0:0.00000199,19_0_9:0.00000385):0.00000236):0.00000405,19_0_7:0.00001220):0.00003841):0.00017432):0.00061002):0.00152864):0.00065061):0.00020906,(((((8_0_9:0.00000530,8_0_0:0.00000508):0.00000836,8_0_1:0.00003693):0.00005558,(8_0_5:0.00004623,8_0_8:0.00002634):0.00005126):0.00003466,(((8_0_7:0.00001195,(8_0_3:0.00000836,8_0_10:0.00000154):0.00002045):0.00003727,(8_0_2:0.00000307,8_0_6:0.00000911):0.00001623):0.00004887,8_0_4:0.00007082):0.00005934):0.00216749,((18_0_9:0.00001710,(((18_0_7:0.00000240,18_0_1:0.00000331):0.00000225,18_0_2:0.00000790):0.00000450,(18_0_3:0.00000628,18_0_5:0.00000398):0.00000991):0.00002683):0.00000978,((18_0_10:0.00000990,18_0_6:0.00001571):0.00004084,(18_0_0:0.00004152,(18_0_4:0.00001826,18_0_8:0.00001455):0.00003489):0.00002225):0.00000150):0.00105004):0.00154996):0.00094872,((((11_0_4:0.00005783,11_0_7:0.00009082):0.00030241,(((11_0_8:0.00001249,((11_0_9:0.00000172,11_0_5:0.00000060):0.00000188,(11_0_6:0.00000126,(11_0_3:0.00000115,11_0_0:0.00000105):0.00000109):0.00000196):0.00001860):0.00000232,11_0_1:0.00001008):0.00006160,(11_0_10:0.00000745,11_0_2:0.00000442):0.00009086):0.00033282):0.00089190,(((((13_0_4:0.00001768,(((13_0_9:0.00000177,13_0_0:0.00000317):0.00000280,13_0_1:0.00000626):0.00000333,13_0_7:0.00000187):0.00000588):0.00000939,13_0_8:0.00002404):0.00002579,13_0_2:0.00005927):0.00000399,((13_0_10:0.00002003,(13_0_6:0.00000028,13_0_5:0.00000053):0.00003954):0.00001759,13_0_3:0.00004682):0.00001503):0.00196426,((((6_0_4:0.00000223,(6_0_9:0.00000579,6_0_6:0.00000254):0.00000024):0.00001481,(6_0_7:0.00000748,6_0_1:0.00000276):0.00001061):0.00001612,(6_0_8:0.00000071,6_0_0:0.00000119):0.00008093):0.00006710,(6_0_10:0.00002547,((6_0_2:0.00000548,6_0_3:0.00001006):0.00002167,6_0_5:0.00003258):0.00000995):0.00002559):0.00113743):0.00026048):0.00058894,(((9_0_10:0.00000317,9_0_9:0.00000588):0.00006248,(9_0_4:0.00002192,(((9_0_2:0.00004202,(9_0_3:0.00000184,9_0_5:0.00000550):0.00002559):0.00000852,(9_0_1:0.00000143,9_0_6:0.00000213):0.00003928):0.00000214,(9_0_7:0.00000098,(9_0_8:0.00000021,9_0_0:0.00000032):0.00000103):0.00001746):0.00000116):0.00000554):0.00061020,((((16_0_0:0.00005941,16_0_5:0.00000605):0.00000990,(((((16_0_6:0.00000039,16_0_3:0.00000103):0.00000007,16_0_8:0.00000122):0.00002302,16_0_1:0.00001609):0.00001003,(16_0_7:0.00000738,16_0_4:0.00001461):0.00002090):0.00000702,16_0_2:0.00001994):0.00002634):0.00024488,(16_0_9:0.00002864,16_0_10:0.00000970):0.00011453):0.00007428,(((((17_0_8:0.00000391,17_0_0:0.00000913):0.00000133,17_0_9:0.00000606):0.00000136,17_0_5:0.00000885):0.00001002,((17_0_7:0.00000795,(17_0_10:0.00000056,(17_0_6:0.00000057,17_0_2:0.00000038):0.00000042):0.00003335):0.00001398,17_0_4:0.00002749):0.00000937):0.00007626,(17_0_1:0.00000462,17_0_3:0.00001569):0.00007109):0.00022825):0.00016520):0.00383809):0.00098117):0.00588108,(((7_0_1:0.00007271,(((7_0_3:0.00000103,7_0_6:0.00000339):0.00000908,7_0_9:0.00000856):0.00001492,(7_0_7:0.00000906,(((7_0_5:0.00000382,7_0_0:0.00000187):0.00000338,7_0_4:0.00000512):0.00001066,(7_0_8:0.00001013,7_0_10:0.00000762):0.00000291):0.00000190):0.00001224):0.00003723):0.00000258,7_0_2:0.00010878):0.00153072,((12_0_7:0.00005977,(12_0_10:0.00000453,12_0_5:0.00000394):0.00003407):0.00008989,(12_0_9:0.00005739,(((12_0_4:0.00000245,12_0_2:0.00000147):0.00000881,12_0_1:0.00001594):0.00002162,((12_0_0:0.00001398,(12_0_3:0.00000499,12_0_8:0.00000438):0.00000702):0.00000286,12_0_6:0.00002160):0.00001268):0.00003278):0.00018437):0.00175981):0.00847056):0.15889470):0.13723115);

data_06	T06	210	1	1	0.90691	0.391933	0.705679	(0_0_0:0.39193332,(((((4_0_2:0.00004962,(4_0_10:0.00001777,4_0_9:0.00000759):0.00001041):0.00000224,((4_0_0:0.00002593,((4_0_5:0.00000287,4_0_6:0.00000388):0.00001337,(4_0_1:0.00000862,(4_0_4:0.00000331,4_0_7:0.00000521):0.00000603):0.00000276):0.00000342):0.00001618,4_0_8:0.00002476):0.00001587):0.00010305,4_0_3:0.00011311):0.00775167,((((((1_0_0:0.00000811,1_0_8:0.00001511):0.00000957,1_0_7:0.00001771):0.00000642,(((1_0_6:0.00000320,(1_0_4:0.00000104,1_0_3:0.00000304):0.00000656):0.00000354,(1_0_10:0.00000024,1_0_5:0.00000013):0.00000999):0.00001891,1_0_1:0.00003582):0.00000974):0.00011160,(1_0_2:0.00000345,1_0_9:0.00000320):0.00007828):0.00176449,(((2_0_3:0.00001626,2_0_2:0.00001230):0.00000680,(2_0_8:0.00002915,(((2_0_1:0.00000393,2_0_4:0.00000353):0.00000035,2_0_7:0.00000199):0.00000520,2_0_10:0.00000903):0.00001708):0.00001239):0.00007582,(2_0_5:0.00010194,(2_0_9:0.00000863,(2_0_6:0.00000646,2_0_0:0.00001123):0.00000420):0.00007424):0.00016669):0.00112445):0.00051391,((((5_0_2:0.00001371,5_0_8:0.00004125):0.00000942,((5_0_10:0.00000170,5_0_7:0.00000186):0.00000000,5_0_9:0.00000207):0.00002618):0.00001782,(((5_0_1:0.00000035,5_0_3:0.00000057):0.00003345,(5_0_4:0.00000129,(5_0_0:0.00000125,5_0_5:0.00000051):0.00000257):0.00001024):0.00002956,5_0_6:0.00003448):0.00004557):0.00117360,(((((3_0_5:0.00000074,3_0_9:0.00000306):0.00000009,3_0_10:0.00000172):0.00001431,3_0_6:0.00001224):0.00001615,((3_0_2:0.00000217,3_0_4:0.00000184):0.00002303,3_0_3:0.00003993):0.00003958):0.00007184,(((3_0_0:0.00000610,3_0_7:0.00000259):0.00000641,3_0_8:0.00000912):0.00000686,3_0_1:0.00004358):0.00012239):0.00147326):0.00037101):0.00229035):0.14827390,((((((((((10_0_3:0.00001015,10_0_5:0.00000217):0.00001070,(10_0_7:0.00000431,10_0_4:0.00000356):0.00001234):0.00003844,(10_0_9:0.00001961,10_0_2:0.00001294):0.00003948):0.00001615,(((10_0_0:0.00000689,10_0_10:0.00000704):0.00000742,10_0_8:0.00000526):0.00002908,10_0_1:0.00002688):0.00014571):0.00000585,10_0_6:0.00020060):0.00163175,((((19_0_1:0.00001408,19_0_10:0.00000963):0.00007403,(19_0_3:0.00003129,(19_0_7:0.00000254,19_0_8:0.00000278):0.00003620):0.00004415):0.00021069,(((19_0_5:0.00002357,19_0_2:0.00002491):0.00000236,(19_0_0:0.00001579,19_0_4:0.00002169):0.00000730):0.00014532,(19_0_9:0.00001707,19_0_6:0.00001153):0.00016731):0.00001031):0.00018809,((15_0_10:0.00009545,((((15_0_3:0.00000662,15_0_9:0.00001007):0.00001504,(15_0_2:0.00000597,15_0_7:0.00001385):0.00001015):0.00000240,15_0_4:0.00003128):0.00005294,(15_0_5:0.00003364,((15_0_0:0.00002057,15_0_1:0.00002201):0.00001500,15_0_8:0.00002549):0.00001027):0.00003471):0.00000163):0.00000360,15_0_6:0.00005988):0.00059225):0.00170865):0.00035785,((((14_0_8:0.00000955,14_0_6:0.00001734):0.00002307,(14_0_2:0.00002628,14_0_3:0.00006336):0.00000818):0.00007086,((14_0_5:0.00002218,(14_0_10:0.00000699,14_0_9:0.00000736):0.00002103):0.00004486,(14_0_4:0.00000073,14_0_7:0.00000039):0.00008814):0.00002242):0.00000178,(14_0_0:0.00007788,14_0_1:0.00009076):0.00004934):0.00234783):0.00020891,(((8_0_3:0.00005009,8_0_0:0.00005018):0.00005487,((8_0_10:0.00001385,(8_0_9:0.00002608,(8_0_2:0.00001829,(8_0_6:0.00000083,8_0_8:0.00000309):0.00001007):0.00000540):0.00000627):0.00001154,(((8_0_5:0.00000121,8_0_7:0.00000190):0.00000483,8_0_1:0.00001749):0.00000659,8_0_4:0.00001491):0.00001366):0.00003125):0.00235754,((((18_0_0:0.00001819,(18_0_6:0.00000354,18_0_8:0.00000157):0.00003349):0.00001026,18_0_4:0.00002556):0.00003907,(18_0_9:0.00000119,18_0_7:0.00000059):0.00006585):0.00013807,((18_0_2:0.00002213,18_0_3:0.00001383):0.00003561,(18_0_1:0.00004023,(18_0_10:0.00000504,18_0_5:0.00000870):0.00002746):0.00006837):0.00005229):0.00079811):0.00114321):0.00112451,((((11_0_2:0.00000300,(11_0_1:0.00000165,11_0_10:0.00000201):0.00000073):0.00019028,((11_0_5:0.00000718,((11_0_8:0.00000908,11_0_0:0.00000393):0.00002355,11_0_6:0.00002572):0.00000075):0.00008691,((11_0_7:0.00000159,(11_0_4:0.00000353,11_0_9:0.00000191):0.00000576):0.00001367,11_0_3:0.00003651):0.00003751):0.00001195):0.00125207,((((13_0_2:0.00002872,((13_0_5:0.00000624,(13_0_10:0.00000241,13_0_0:0.00000708):0.00000075):0.00000815,((13_0_3:0.00001026,(13_0_1:0.00000003,13_0_8:0.00000009):0.00000586):0.00000270,13_0_7:0.00001006):0.00001086):0.00001908):0.00005550,13_0_6:0.00005111):0.00001002,(13_0_4:0.00003163,13_0_9:0.00000929):0.00007081):0.00100438,((6_0_9:0.00026873,6_0_5:0.00005515):0.00021683,((6_0_10:0.00000467,6_0_6:0.00000154):0.00003354,(6_0_3:0.00004697,((((6_0_7:0.00000177,6_0_0:0.00000229):0.00000591,6_0_2:0.00000512):0.00000645,(6_0_1:0.00000263,6_0_8:0.00000794):0.00001237):0.00002267,6_0_4:0.00005177):0.00000241):0.00000164):0.00041803):0.00052737):0.00029415):0.00035272,((((9_0_3:0.00000418,9_0_4:0.00000305):0.00002150,(9_0_9:0.00003000,9_0_0:0.00002927):0.00001363):0.00012971,((9_0_6:0.00008093,(9_0_8:0.00000029,9_0_5:0.00000054):0.00005870):0.00006072,(9_0_7:0.00000582,((9_0_2:0.00000321,9_0_1:0.00000235):0.00000328,9_0_10:0.00000616):0.00000001):0.00022114):0.00013671):0.00017517,((((16_0_5:0.00000192,16_0_1:0.00000218):0.00000194,16_0_7:0.00000829):0.00004619,((16_0_2:0.00005840,(16_0_0:0.00003098,16_0_9:0.00001408):0.00000127):0.00002439,(16_0_10:0.00002411,(16_0_8:0.00001958,(16_0_3:0.00000345,(16_0_6:0.00000480,16_0_4:0.00000483):0.00000076):0.00001728):0.00000743):0.00001378):0.00000717):0.00037602,((17_0_7:0.00004660,((17_0_0:0.00000113,17_0_3:0.00000061):0.00007265,(17_0_5:0.00000260,(17_0_1:0.00000111,17_0_4:0.00000192):0.00000295):0.00002365):0.00001285):0.00007414,((17_0_6:0.00001874,(17_0_9:0.00000839,(17_0_8:0.00000204,17_0_2:0.00000159):0.00000363):0.00000971):0.00017404,17_0_10:0.00008187):0.00007215):0.00045845):0.00032139):0.00118261):0.00134818):0.00582371,(((12_0_8:0.00003996,(((12_0_10:0.00000501,(12_0_9:0.00000045,12_0_0:0.00000122):0.00001393):0.00001453,12_0_6:0.00000767):0.00000347,12_0_7:0.00004371):0.00002106):0.00000526,((12_0_4:0.00000167,12_0_3:0.00000118):0.00003652,((12_0_1:0.00002072,12_0_5:0.00000772):0.00002239,12_0_2:0.00007257):0.00000818):0.00000822):0.00166785,((((7_0_0:0.00000064,7_0_3:0.00000110):0.00000598,((7_0_8:0.00000682,7_0_7:0.00000524):0.00000022,7_0_1:0.00000524):0.00000050):0.00000367,7_0_2:0.00002112):0.00037363,(((7_0_10:0.00003411,7_0_6:0.00001903):0.00003103,(7_0_4:0.00000890,7_0_9:0.00000449):0.00007190):0.00006290,7_0_5:0.00004211):0.00004788):0.00063339):0.01515446):0.18309118):0.11374367);

data_07	T07	210	1	1	0.618046	0.269174	0.455877	((((((((8_0_4:0.00004563,(8_0_0:0.00003255,8_0_8:0.00001710):0.00001130):0.00003835,(((8_0_7:0.00003400,((8_0_3:0.00000216,8_0_10:0.00001092):0.00001301,8_0_6:0.00000505):0.00000028):0.00000273,8_0_9:0.00001673):0.00000580,(8_0_2:0.00000658,(8_0_1:0.00000155,8_0_5:0.00000096):0.00000779):0.00001971):0.00002227):0.00182610,((18_0_8:0.00002497,18_0_2:0.00002402):0.00080833,((18_0_4:0.00000078,18_0_1:0.00000130):0.00012808,((18_0_5:0.00000807,((18_0_3:0.00000094,18_0_0:0.00000051):0.00000674,18_0_10:0.00000292):0.00000077):0.00004497,((18_0_9:0.00001240,18_0_6:0.00001318):0.00003843,18_0_7:0.00002670):0.00000419):0.00018178):0.00028726):0.00127416):0.00108445,(((14_0_1:0.00007261,(14_0_10:0.00000659,14_0_0:0.00002789):0.00003939):0.00000473,(14_0_9:0.00004935,((14_0_2:0.00000123,14_0_7:0.00000698):0.00006318,((14_0_8:0.00001588,(14_0_4:0.00000271,(14_0_6:0.00000137,14_0_5:0.00000133):0.00000197):0.00001482):0.00000900,14_0_3:0.00001050):0.00000642):0.00001612):0.00005822):0.00297338,((((10_0_6:0.00000612,(10_0_0:0.00000168,(10_0_2:0.00000257,10_0_8:0.00000271):0.00000559):0.00000197):0.00005452,(10_0_10:0.00005125,10_0_3:0.00002740):0.00002769):0.00000472,((10_0_7:0.00000085,10_0_9:0.00000194):0.00002765,((10_0_5:0.00000065,10_0_1:0.00000078):0.00000123,10_0_4:0.00000060):0.00002815):0.00007785):0.00119229,(((15_0_2:0.00003344,((15_0_1:0.00000119,15_0_5:0.00000357):0.00000723,(15_0_9:0.00000197,15_0_3:0.00000392):0.00000354):0.00000180):0.00014066,(((15_0_7:0.00002212,15_0_6:0.00003171):0.00000218,15_0_0:0.00002123):0.00001112,(15_0_4:0.00005315,(15_0_8:0.00000227,15_0_10:0.00000341):0.00002249):0.00000502):0.00017550):0.00040301,(((19_0_5:0.00000870,19_0_1:0.00001392):0.00000139,19_0_10:0.00001598):0.00008851,(((19_0_0:0.00001303,19_0_6:0.00000884):0.00002719,(19_0_9:0.00003579,(19_0_2:0.00000966,19_0_7:0.00001613):0.00003788):0.00001568):0.00002527,((19_0_8:0.00000155,19_0_3:0.00000048):0.00002285,19_0_4:0.00006743):0.00002929):0.00006124):0.00044550):0.00119482):0.00142628):0.00052644):0.00112725,((((11_0_7:0.00014435,((11_0_5:0.00001033,11_0_10:0.00001408):0.00000359,11_0_8:0.00001597):0.00007981):0.00003700,(((11_0_3:0.00000094,11_0_9:0.00000441):0.00000118,11_0_0:0.00000191):0.00001938,((11_0_4:0.00000064,11_0_2:0.00000033):0.00001632,(11_0_6:0.00000101,11_0_1:0.00000078):0.00003353):0.00002286):0.00003185):0.00092963,(((((6_0_6:0.00000063,(6_0_10:0.00000088,6_0_0:0.00000121):0.00000069):0.00000073,6_0_4:0.00000108):0.00001493,6_0_8:0.00004703):0.00003903,(((((6_0_1:0.00000666,6_0_9:0.00001488):0.00000172,6_0_7:0.00000836):0.00000090,6_0_3:0.00001058):0.00004044,6_0_5:0.00002865):0.00001693,6_0_2:0.00004686):0.00000562):0.00105078,(((13_0_4:0.00000692,(13_0_10:0.00000312,13_0_3:0.00000421):0.00000243):0.00002694,13_0_5:0.00011542):0.00001096,((((13_0_9:0.00000498,13_0_6:0.00000740):0.00000762,(13_0_1:0.00000701,13_0_0:0.00000794):0.00000519):0.00000625,13_0_2:0.00002052):0.00004576,(13_0_7:0.00000407,13_0_8:0.00001340):0.00005429):0.00001948):0.00147061):0.00023698):0.00064541,((((17_0_9:0.00010156,((17_0_2:0.00000005,17_0_10:0.00000006):0.00002127,17_0_8:0.00001039):0.00013862):0.00002350,((((17_0_0:0.00000143,17_0_3:0.00000062):0.00000199,(17_0_4:0.00000152,17_0_1:0.00000051):0.00000339):0.00000861,(17_0_7:0.00000158,17_0_6:0.00000227):0.00000639):0.00000819,17_0_5:0.00002443):0.00027204):0.00015958,((((((16_0_3:0.00000201,16_0_10:0.00000237):0.00000239,16_0_5:0.00000587):0.00001096,(16_0_1:0.00001192,16_0_6:0.00001867):0.00000832):0.00000602,(16_0_7:0.00000015,16_0_2:0.00000012):0.00008197):0.00004095,(16_0_0:0.00006216,(16_0_8:0.00004191,16_0_9:0.00001650):0.00001433):0.00000072):0.00001404,16_0_4:0.00013812):0.00015832):0.00016448,(((9_0_1:0.00000642,9_0_8:0.00001184):0.00003840,((9_0_7:0.00001872,9_0_4:0.00001448):0.00000145,(((9_0_3:0.00000338,9_0_2:0.00000278):0.00000057,(9_0_9:0.00000418,9_0_0:0.00000644):0.00000076):0.00000076,9_0_6:0.00000566):0.00001335):0.00001897):0.00031800,(9_0_10:0.00003080,9_0_5:0.00008868):0.00016251):0.00047292):0.00270185):0.00135265):0.01035066,(((((12_0_9:0.00000378,12_0_7:0.00000176):0.00000841,12_0_2:0.00000542):0.00001044,((12_0_10:0.00001058,12_0_4:0.00000480):0.00001829,(12_0_1:0.00001615,(12_0_0:0.00001291,12_0_6:0.00001496):0.00000302):0.00001711):0.00000123):0.00000267,((12_0_5:0.00001208,12_0_8:0.00001612):0.00002285,12_0_3:0.00002017):0.00000099):0.00086296,(((7_0_2:0.00001362,7_0_6:0.00000692):0.00001173,(7_0_1:0.00002530,7_0_10:0.00002455):0.00000878):0.00016559,(7_0_5:0.00010093,(7_0_7:0.00005370,(7_0_0:0.00001095,((7_0_9:0.00002167,(7_0_4:0.00000478,7_0_8:0.00001088):0.00001306):0.00000254,7_0_3:0.00000836):0.00000988):0.00000198):0.00014267):0.00004147):0.00283444):0.00944005):0.09813758,((((((1_0_3:0.00000155,1_0_5:0.00000239):0.00000371,1_0_4:0.00000780):0.00009434,(((((1_0_8:0.00000028,1_0_10:0.00000013):0.00000383,(1_0_1:0.00000057,1_0_6:0.00000045):0.00000314):0.00000188,1_0_9:0.00001587):0.00000070,1_0_7:0.00001291):0.00001527,(1_0_0:0.00001110,1_0_2:0.00001609):0.00000215):0.00004747):0.00134740,((2_0_2:0.00000200,2_0_8:0.00000119):0.00013245,((2_0_9:0.00000254,2_0_0:0.00000534):0.00002522,(2_0_7:0.00002486,((((2_0_1:0.00000023,2_0_3:0.00000027):0.00000124,(2_0_6:0.00000003,2_0_10:0.00000001):0.00000102):0.00000037,2_0_5:0.00000251):0.00000133,2_0_4:0.00000217):0.00000899):0.00002007):0.00008461):0.00067124):0.00027842,((((5_0_0:0.00000276,5_0_7:0.00000207):0.00006746,(((5_0_10:0.00000004,5_0_6:0.00000002):0.00000416,5_0_9:0.00000313):0.00002549,5_0_3:0.00007760):0.00007168):0.00004668,((5_0_5:0.00003325,(5_0_4:0.00000428,5_0_1:0.00000504):0.00001107):0.00008725,(5_0_2:0.00000112,5_0_8:0.00000051):0.00003740):0.00004713):0.00064816,(((3_0_6:0.00000377,3_0_9:0.00000437):0.00002410,3_0_7:0.00001347):0.00015173,(((3_0_4:0.00000475,3_0_8:0.00000979):0.00000279,(3_0_2:0.00000587,3_0_3:0.00000437):0.00000055):0.00003386,((3_0_10:0.00000387,3_0_1:0.00000340):0.00000127,(3_0_5:0.00000450,3_0_0:0.00000397):0.00000044):0.00012175):0.00013343):0.00217664):0.00008699):0.00321950,(((4_0_9:0.00000346,4_0_0:0.00000227):0.00000573,(4_0_7:0.00002857,4_0_3:0.00000987):0.00000228):0.00003989,((4_0_2:0.00000132,4_0_8:0.00000277):0.00002685,(4_0_10:0.00001267,((4_0_1:0.00000722,4_0_6:0.00000270):0.00000152,(4_0_4:0.00000070,4_0_5:0.00000155):0.00000479):0.00001852):0.00000652):0.00003462):0.00855897):0.10758411):0.15296059,0_0_0:0.18670294);

data_08	T08	210	1	1	1.13271	0.567332	0.927052	(0_0_0:0.56733195,(((((((3_0_0:0.00000059,3_0_9:0.00000018):0.00007613,((3_0_5:0.00000178,3_0_3:0.00000128):0.00007411,((3_0_7:0.00002407,(3_0_10:0.00000827,3_0_8:0.00001939):0.00000159):0.00001720,3_0_6:0.00004034):0.00000442):0.00004383):0.00030378,((3_0_4:0.00000132,3_0_2:0.00000280):0.00002460,3_0_1:0.00003874):0.00020887):0.00237745,((((5_0_6:0.00001078,5_0_10:0.00000445):0.00000160,5_0_4:0.00001534):0.00002962,5_0_2:0.00004611):0.00004161,(((5_0_3:0.00000505,(5_0_8:0.00000386,5_0_5:0.00000427):0.00000249):0.00001196,((5_0_7:0.00000380,5_0_0:0.00000056):0.00000635,5_0_9:0.00001186):0.00000261):0.00008240,5_0_1:0.00015298):0.00000726):0.00247500):0.00009335,((((1_0_8:0.00001779,1_0_10:0.00001988):0.00000850,1_0_4:0.00003902):0.00011594,((((1_0_1:0.00000545,1_0_9:0.00001006):0.00002159,(1_0_5:0.00001044,((1_0_0:0.00001081,1_0_6:0.00000796):0.00000094,1_0_3:0.00000673):0.00000070):0.00002347):0.00000140,1_0_2:0.00002788):0.00002108,1_0_7:0.00009441):0.00013422):0.00191526,((((2_0_9:0.00001391,2_0_4:0.00000858):0.00004674,(2_0_10:0.00004625,((2_0_0:0.00000573,2_0_6:0.00001036):0.00000112,2_0_8:0.00000679):0.00004370):0.00001925):0.00005176,(2_0_2:0.00001749,2_0_3:0.00002076):0.00027361):0.00000748,(2_0_7:0.00005773,(2_0_1:0.00001068,2_0_5:0.00000657):0.00000932):0.00017190):0.00170715):0.00012602):0.00258233,(((4_0_8:0.00000651,4_0_10:0.00002015):0.00000224,((4_0_3:0.00003373,(((4_0_7:0.00000552,4_0_5:0.00000206):0.00000235,4_0_2:0.00000516):0.00000812,4_0_9:0.00002885):0.00000126):0.00000544,4_0_1:0.00001575):0.00001527):0.00007296,((4_0_6:0.00001621,4_0_0:0.00001438):0.00001313,4_0_4:0.00003028):0.00016377):0.00346852):0.15533474,((((12_0_5:0.00013316,((((12_0_7:0.00001022,12_0_4:0.00000719):0.00001806,(12_0_6:0.00002077,12_0_8:0.00000748):0.00000818):0.00000824,12_0_2:0.00009147):0.00000730,12_0_10:0.00006848):0.00000848):0.00002963,(12_0_1:0.00016688,(12_0_9:0.00000720,(12_0_0:0.00000619,12_0_3:0.00000600):0.00000648):0.00011062):0.00003579):0.00145656,(7_0_3:0.00013922,((7_0_7:0.00002846,(7_0_10:0.00000849,7_0_5:0.00000369):0.00002837):0.00000666,((7_0_2:0.00001944,((7_0_4:0.00000041,7_0_9:0.00000170):0.00002022,(7_0_6:0.00000603,(7_0_1:0.00000080,7_0_0:0.00000125):0.00001124):0.00000990):0.00000352):0.00001228,7_0_8:0.00003078):0.00000779):0.00002503):0.00186523):0.00623456,((((((((10_0_7:0.00000305,10_0_5:0.00000242):0.00005630,((10_0_4:0.00000585,10_0_0:0.00000841):0.00002350,10_0_2:0.00004124):0.00000006):0.00009456,(10_0_6:0.00001485,(10_0_8:0.00001039,((10_0_9:0.00000591,10_0_3:0.00000458):0.00000078,10_0_1:0.00000367):0.00000806):0.00000034):0.00002757):0.00005198,10_0_10:0.00014624):0.00158553,((((19_0_2:0.00001279,19_0_5:0.00001539):0.00000975,(((19_0_1:0.00000028,19_0_10:0.00000036):0.00000947,19_0_7:0.00000487):0.00000262,19_0_3:0.00001955):0.00001218):0.00016823,(((19_0_6:0.00000157,19_0_4:0.00000598):0.00003397,(19_0_8:0.00001643,19_0_0:0.00005127):0.00004870):0.00001281,19_0_9:0.00007307):0.00017697):0.00037257,((15_0_10:0.00001884,15_0_5:0.00000636):0.00030166,((15_0_1:0.00001307,(15_0_4:0.00000926,(15_0_8:0.00000155,15_0_3:0.00000209):0.00001422):0.00002327):0.00007518,(15_0_9:0.00004240,((15_0_2:0.00000508,(15_0_6:0.00000511,15_0_0:0.00001342):0.00000109):0.00000032,15_0_7:0.00000474):0.00005707):0.00006310):0.00030781):0.00018344):0.00079655):0.00029184,(((14_0_6:0.00001609,14_0_1:0.00001545):0.00001585,14_0_7:0.00001201):0.00009448,(14_0_3:0.00005983,(((14_0_5:0.00000115,(14_0_9:0.00000044,14_0_0:0.00000048):0.00000012):0.00000606,14_0_2:0.00000572):0.00000160,((14_0_10:0.00000129,14_0_4:0.00000091):0.00001316,14_0_8:0.00000275):0.00000396):0.00002467):0.00029792):0.00515323):0.00012807,(((((18_0_5:0.00000430,18_0_3:0.00000310):0.00002479,((18_0_4:0.00000676,18_0_8:0.00000162):0.00000750,18_0_6:0.00000677):0.00003095):0.00000299,((((18_0_9:0.00000043,18_0_0:0.00000031):0.00000654,18_0_1:0.00001267):0.00000633,18_0_7:0.00003880):0.00000897,18_0_10:0.00006116):0.00000188):0.00004385,18_0_2:0.00005774):0.00318771,(((8_0_7:0.00000241,8_0_2:0.00000372):0.00005618,8_0_9:0.00007436):0.00002698,((((8_0_0:0.00000319,8_0_5:0.00000902):0.00000620,(8_0_8:0.00000476,(8_0_1:0.00000234,8_0_3:0.00000129):0.00000231):0.00000348):0.00003161,8_0_10:0.00001286):0.00001218,(8_0_6:0.00003928,8_0_4:0.00002117):0.00002117):0.00001529):0.00030843):0.00156260):0.00074790,((((((11_0_3:0.00000285,11_0_9:0.00000184):0.00003849,(11_0_8:0.00001243,11_0_6:0.00001184):0.00001999):0.00000570,(11_0_7:0.00000031,11_0_0:0.00000076):0.00003579):0.00012615,(11_0_1:0.00001182,(((11_0_10:0.00000256,11_0_5:0.00000248):0.00000327,11_0_2:0.00000337):0.00000099,11_0_4:0.00000302):0.00000803):0.00017916):0.00092880,(((((13_0_0:0.00000021,13_0_5:0.00000012):0.00001123,(13_0_7:0.00000328,13_0_8:0.00000375):0.00000377):0.00002716,((13_0_6:0.00000249,(13_0_3:0.00000774,(13_0_9:0.00000006,13_0_10:0.00000001):0.00000461):0.00000020):0.00000063,13_0_2:0.00000501):0.00001549):0.00012867,(13_0_1:0.00000126,13_0_4:0.00000389):0.00027606):0.00093204,(((6_0_7:0.00000247,6_0_9:0.00000623):0.00005025,(((6_0_1:0.00000307,(6_0_4:0.00000046,6_0_5:0.00000026):0.00000399):0.00002034,(6_0_2:0.00000667,6_0_3:0.00000455):0.00010627):0.00003066,(6_0_8:0.00000446,6_0_10:0.00000678):0.00004417):0.00003208):0.00011611,(6_0_6:0.00001919,6_0_0:0.00000594):0.00017979):0.00084605):0.00024127):0.00055985,((9_0_10:0.00005327,(((9_0_5:0.00001934,((9_0_7:0.00000119,9_0_4:0.00000121):0.00000240,9_0_8:0.00000637):0.00002226):0.00002457,(9_0_1:0.00001658,9_0_3:0.00001222):0.00002992):0.00002766,((9_0_0:0.00000440,(9_0_6:0.00000441,9_0_9:0.00000854):0.00000458):0.00001582,9_0_2:0.00003097):0.00002211):0.00002319):0.00092132,((((17_0_0:0.00000891,(17_0_8:0.00000736,(17_0_3:0.00000747,((17_0_6:0.00000534,17_0_5:0.00000459):0.00000073,17_0_2:0.00000488):0.00000046):0.00000210):0.00000519):0.00000895,17_0_9:0.00002558):0.00011820,((17_0_1:0.00002897,(17_0_10:0.00001635,17_0_4:0.00000741):0.00001524):0.00000429,17_0_7:0.00003437):0.00002759):0.00042748,(16_0_7:0.00018121,((((16_0_6:0.00002363,16_0_8:0.00001171):0.00002096,(16_0_1:0.00000101,(16_0_9:0.00000105,16_0_4:0.00000156):0.00000008):0.00003655):0.00000674,(16_0_10:0.00000925,16_0_2:0.00000347):0.00015769):0.00002011,(16_0_0:0.00000277,(16_0_5:0.00000074,16_0_3:0.00000126):0.00000255):0.00007351):0.00002702):0.00033478):0.00016369):0.00107720):0.00106340):0.01491783):0.27675274):0.06166251);

data_09	T09	210	1	1	0.970208	0.439472	0.769028	(0_0_0:0.32955596,(((((4_0_4:0.00001816,(4_0_3:0.00000356,((4_0_5:0.00000271,4_0_2:0.00000422):0.00000204,4_0_8:0.00000790):0.00000722):0.00001375):0.00000109,(4_0_7:0.00000726,((4_0_1:0.00000025,4_0_10:0.00000072):0.00000362,4_0_0:0.00000702):0.00000040):0.00002303):0.00007212,(4_0_6:0.00000393,4_0_9:0.00000259):0.00022505):0.00295507,((((2_0_4:0.00001285,2_0_10:0.00000270):0.00000859,2_0_6:0.00002226):0.00066705,((2_0_2:0.00010689,((2_0_3:0.00001397,2_0_5:0.00001516):0.00000746,(((2_0_8:0.00000021,2_0_9:0.00000104):0.00000000,2_0_7:0.00000085):0.00002048,2_0_1:0.00000739):0.00002904):0.00003096):0.00001375,2_0_0:0.00014983):0.00031698):0.00143389,((((((3_0_5:0.00000950,3_0_6:0.00000267):0.00002614,(3_0_3:0.00001476,3_0_4:0.00001710):0.00001077):0.00000877,((3_0_1:0.00000365,3_0_0:0.00001267):0.00000639,3_0_8:0.00002125):0.00002758):0.00015174,(((3_0_2:0.00000435,3_0_9:0.00000720):0.00001371,3_0_10:0.00000669):0.00000324,3_0_7:0.00001523):0.00005145):0.00310757,((((1_0_3:0.00001058,1_0_0:0.00001649):0.00005871,(1_0_9:0.00002871,(1_0_1:0.00001050,(1_0_5:0.00002034,1_0_8:0.00001639):0.00000068):0.00000571):0.00004312):0.00000009,1_0_2:0.00004039):0.00004542,((1_0_10:0.00000370,1_0_4:0.00000445):0.00004457,(1_0_7:0.00000583,1_0_6:0.00001046):0.00004513):0.00004476):0.00139753):0.00009649,(((5_0_1:0.00001465,(5_0_7:0.00000570,(5_0_3:0.00001124,(5_0_9:0.00000119,5_0_10:0.00000308):0.00000467):0.00000002):0.00000437):0.00002623,(5_0_6:0.00004909,((5_0_8:0.00001577,5_0_4:0.00001008):0.00001622,5_0_2:0.00002263):0.00003571):0.00001368):0.00009041,(5_0_0:0.00000280,5_0_5:0.00000195):0.00018158):0.00304637):0.00030575):0.00147976):0.16676149,(((((((7_0_9:0.00000111,7_0_5:0.00000182):0.00001002,7_0_3:0.00000558):0.00000671,(7_0_1:0.00000858,7_0_6:0.00000316):0.00001286):0.00016488,7_0_8:0.00008742):0.00027758,(((7_0_0:0.00001443,7_0_7:0.00001129):0.00001695,7_0_10:0.00002653):0.00015844,(7_0_2:0.00001591,7_0_4:0.00000851):0.00015206):0.00010170):0.00069186,((12_0_4:0.00013992,(12_0_7:0.00018125,((12_0_6:0.00004027,12_0_0:0.00003100):0.00000596,(((12_0_2:0.00000008,12_0_3:0.00000005):0.00000054,12_0_1:0.00000106):0.00000482,12_0_8:0.00000938):0.00001121):0.00009330):0.00007230):0.00000823,(12_0_5:0.00001953,(12_0_10:0.00001635,12_0_9:0.00001305):0.00000121):0.00009795):0.00102868):0.01621001,(((((((17_0_4:0.00000206,17_0_5:0.00000604):0.00007495,(17_0_8:0.00000883,17_0_7:0.00001957):0.00025206):0.00001388,((17_0_6:0.00000408,(17_0_3:0.00000488,17_0_9:0.00000273):0.00000034):0.00010611,(17_0_10:0.00007904,((17_0_1:0.00000085,17_0_2:0.00000100):0.00005818,17_0_0:0.00001743):0.00001252):0.00011212):0.00000803):0.00031744,((((16_0_1:0.00000363,(16_0_0:0.00000291,16_0_7:0.00000169):0.00000313):0.00001574,16_0_6:0.00003219):0.00005055,16_0_4:0.00007432):0.00006820,(16_0_8:0.00005065,(16_0_10:0.00001536,(16_0_3:0.00000669,((16_0_5:0.00000417,16_0_2:0.00001658):0.00000461,16_0_9:0.00000907):0.00000579):0.00000364):0.00000923):0.00013422):0.00027589):0.00034234,((9_0_1:0.00002083,(9_0_6:0.00000838,9_0_8:0.00000990):0.00000663):0.00019951,((((9_0_3:0.00000549,(9_0_10:0.00000132,9_0_9:0.00000092):0.00000208):0.00002076,9_0_2:0.00001278):0.00001260,((9_0_4:0.00000172,9_0_0:0.00000107):0.00000220,9_0_5:0.00000484):0.00003520):0.00007784,9_0_7:0.00008378):0.00021839):0.00025314):0.00082672,(((((13_0_7:0.00002225,(((13_0_4:0.00001755,13_0_6:0.00000563):0.00001392,13_0_8:0.00001553):0.00000904,(13_0_10:0.00000767,(13_0_1:0.00000119,13_0_9:0.00000108):0.00000657):0.00001456):0.00000132):0.00001104,((13_0_3:0.00001258,13_0_5:0.00003772):0.00000040,13_0_2:0.00001091):0.00000776):0.00014633,13_0_0:0.00012022):0.00163110,(((6_0_5:0.00000191,6_0_8:0.00000813):0.00000186,(6_0_3:0.00001003,6_0_6:0.00000655):0.00000402):0.00008798,((6_0_9:0.00004262,(6_0_4:0.00000982,(6_0_7:0.00000361,((6_0_10:0.00000072,6_0_2:0.00000061):0.00000483,6_0_0:0.00000740):0.00000148):0.00000053):0.00000418):0.00001735,6_0_1:0.00007467):0.00005513):0.00163856):0.00026280,((((11_0_8:0.00001593,((11_0_0:0.00000166,11_0_1:0.00000071):0.00001008,(11_0_6:0.00001344,11_0_9:0.00000495):0.00000102):0.00000137):0.00003108,11_0_7:0.00003123):0.00003469,11_0_4:0.00007803):0.00006269,((11_0_2:0.00000328,11_0_5:0.00000215):0.00003724,(11_0_10:0.00000545,11_0_3:0.00000711):0.00003121):0.00011695):0.00107348):0.00208935):0.00123744,((((10_0_10:0.00015870,((((10_0_5:0.00004867,10_0_2:0.00003813):0.00002213,((10_0_4:0.00000173,10_0_3:0.00000106):0.00000476,10_0_1:0.00003432):0.00000521):0.00001246,(10_0_9:0.00000181,10_0_6:0.00000210):0.00004176):0.00000133,(10_0_0:0.00000769,(10_0_8:0.00000306,10_0_7:0.00000315):0.00000612):0.00003054):0.00011796):0.00211614,((((15_0_9:0.00001103,(15_0_10:0.00000499,15_0_2:0.00000489):0.00000554):0.00004942,((((15_0_0:0.00000002,15_0_5:0.00000001):0.00001025,15_0_8:0.00000721):0.00000204,15_0_4:0.00001087):0.00000444,((15_0_3:0.00000372,15_0_6:0.00000723):0.00000757,15_0_7:0.00002012):0.00000311):0.00006489):0.00001961,15_0_1:0.00004972):0.00044089,(((((19_0_3:0.00000036,19_0_4:0.00000098):0.00000284,19_0_6:0.00000843):0.00001748,19_0_1:0.00001519):0.00001855,19_0_9:0.00003368):0.00030541,(19_0_0:0.00005629,(((19_0_5:0.00000032,19_0_10:0.00000018):0.00000763,19_0_8:0.00001179):0.00003197,(19_0_2:0.00000472,19_0_7:0.00001035):0.00003876):0.00001422):0.00014509):0.00008281):0.00344043):0.00073674,(((((14_0_2:0.00000358,14_0_3:0.00000544):0.00000434,14_0_0:0.00001034):0.00004170,(14_0_8:0.00000844,((14_0_1:0.00000071,14_0_7:0.00000035):0.00000294,14_0_5:0.00000537):0.00000673):0.00001170):0.00001222,(14_0_9:0.00000566,14_0_6:0.00000232):0.00009145):0.00023575,(14_0_4:0.00000203,14_0_10:0.00000663):0.00021750):0.00122338):0.00008887,(((18_0_10:0.00000474,18_0_9:0.00000092):0.00003871,((18_0_8:0.00001100,((18_0_6:0.00000675,18_0_0:0.00000281):0.00000975,(18_0_2:0.00001912,(18_0_3:0.00000446,(18_0_1:0.00000051,18_0_5:0.00000078):0.00000465):0.00001807):0.00000546):0.00000328):0.00001702,(18_0_7:0.00002757,18_0_4:0.00000761):0.00005000):0.00001145):0.00219406,((8_0_10:0.00000069,8_0_0:0.00000133):0.00016009,(((8_0_7:0.00001204,(8_0_2:0.00001342,(8_0_5:0.00001732,(8_0_4:0.00000336,8_0_3:0.00000313):0.00000300):0.00000109):0.00001591):0.00001674,(8_0_6:0.00002756,8_0_9:0.00001436):0.00000665):0.00001437,(8_0_8:0.00000751,8_0_1:0.00000356):0.00005740):0.00003949):0.00198615):0.00206293):0.00121473):0.00790172):0.12991837):0.26752020);

data_10	T10	210	1	1	0.746293	0.337152	0.587834	(0_0_0:0.33715198,((((((3_0_6:0.00000589,(3_0_10:0.00000556,3_0_3:0.00000631):0.00000635):0.00004390,3_0_4:0.00008173):0.00003025,((3_0_2:0.00004232,3_0_8:0.00003081):0.00000623,(((3_0_5:0.00000021,3_0_0:0.00000022):0.00000624,3_0_7:0.00000862):0.00002092,(3_0_9:0.00000072,3_0_1:0.00000027):0.00002065):0.00004046):0.00005702):0.00192132,((((2_0_0:0.00012283,((2_0_6:0.00000152,2_0_1:0.00000074):0.00000524,2_0_3:0.00002626):0.00004743):0.00001787,((2_0_4:0.00001825,2_0_10:0.00001505):0.00004254,(((2_0_8:0.00001396,2_0_9:0.00001304):0.00001454,2_0_5:0.00001052):0.00000427,(2_0_7:0.00000169,2_0_2:0.00000340):0.00002188):0.00001861):0.00012698):0.00151037,((((1_0_8:0.00000800,1_0_10:0.00000866):0.00002262,((1_0_5:0.00000067,1_0_7:0.00000062):0.00000804,(1_0_2:0.00000313,1_0_3:0.00000386):0.00000886):0.00003546):0.00005278,((1_0_9:0.00000531,1_0_4:0.00000785):0.00001471,(1_0_0:0.00001126,1_0_1:0.00001297):0.00000549):0.00010471):0.00011955,1_0_6:0.00014794):0.00172664):0.00023933,((5_0_6:0.00001408,(5_0_5:0.00000475,(5_0_7:0.00000064,5_0_2:0.00000024):0.00000438):0.00000819):0.00008533,((5_0_4:0.00000593,5_0_10:0.00001035):0.00009387,(((5_0_3:0.00001333,5_0_0:0.00000931):0.00000111,5_0_1:0.00000524):0.00007700,(5_0_8:0.00000288,5_0_9:0.00000148):0.00003872):0.00000828):0.00001447):0.00183483):0.00002259):0.00418620,(((((4_0_9:0.00000080,4_0_0:0.00000029):0.00000317,4_0_7:0.00000168):0.00002135,4_0_4:0.00000763):0.00004579,(4_0_1:0.00000878,(((4_0_5:0.00000007,4_0_10:0.00000004):0.00000420,(4_0_8:0.00000128,4_0_2:0.00000119):0.00000397):0.00000145,4_0_3:0.00000865):0.00000059):0.00006667):0.00002989,4_0_6:0.00014104):0.00384086):0.16058590,(((7_0_7:0.00009199,((((((7_0_4:0.00000282,7_0_10:0.00000115):0.00000102,7_0_2:0.00000489):0.00000241,7_0_8:0.00001445):0.00000608,(7_0_9:0.00000466,7_0_3:0.00000304):0.00001670):0.00001914,(7_0_5:0.00000126,7_0_0:0.00000192):0.00007182):0.00000300,(7_0_6:0.00000008,7_0_1:0.00000021):0.00002906):0.00001525):0.00056383,(((12_0_10:0.00002789,12_0_4:0.00001774):0.00000525,((((12_0_9:0.00000256,12_0_1:0.00000380):0.00000760,(12_0_5:0.00000223,12_0_3:0.00000188):0.00000935):0.00000875,(12_0_8:0.00001756,12_0_0:0.00000973):0.00002137):0.00000432,(12_0_2:0.00000258,12_0_6:0.00000192):0.00004906):0.00000251):0.00001276,12_0_7:0.00002211):0.00051449):0.01197876,(((((((13_0_10:0.00003565,((13_0_2:0.00000044,13_0_6:0.00000083):0.00000079,(13_0_4:0.00000487,(13_0_5:0.00000067,13_0_1:0.00000131):0.00000485):0.00000007):0.00004054):0.00001812,(13_0_7:0.00003314,(13_0_8:0.00000878,(13_0_9:0.00001067,13_0_3:0.00000826):0.00000033):0.00000162):0.00010665):0.00001123,13_0_0:0.00018361):0.00246899,((((6_0_8:0.00001499,6_0_4:0.00000492):0.00001026,6_0_2:0.00000481):0.00002092,6_0_10:0.00007646):0.00005856,(6_0_3:0.00006094,(((6_0_9:0.00002492,6_0_7:0.00000603):0.00003465,6_0_5:0.00006705):0.00000675,((6_0_1:0.00000070,6_0_6:0.00000170):0.00000522,6_0_0:0.00002120):0.00005870):0.00001649):0.00002726):0.00164018):0.00061354,((((11_0_7:0.00002993,(11_0_4:0.00000298,11_0_1:0.00000080):0.00002001):0.00000522,(11_0_0:0.00000706,11_0_5:0.00000368):0.00003719):0.00000732,(11_0_2:0.00001955,((11_0_8:0.00000049,11_0_9:0.00000025):0.00002062,11_0_6:0.00001491):0.00000518):0.00003643):0.00011865,(11_0_10:0.00016279,11_0_3:0.00013050):0.00005499):0.00130008):0.00106514,((((16_0_2:0.00003548,(16_0_3:0.00001727,((16_0_5:0.00000192,16_0_9:0.00000103):0.00001743,16_0_8:0.00002497):0.00000156):0.00001430):0.00003306,((16_0_1:0.00001759,(16_0_6:0.00001021,16_0_0:0.00000786):0.00001661):0.00003095,(16_0_10:0.00003391,(16_0_7:0.00000124,16_0_4:0.00000316):0.00001855):0.00000064):0.00011042):0.00012444,(((((17_0_9:0.00000385,17_0_0:0.00000611):0.00000134,17_0_6:0.00001260):0.00001447,17_0_7:0.00002702):0.00001864,(17_0_3:0.00001487,17_0_8:0.00000640):0.00003746):0.00003506,((17_0_2:0.00000616,(17_0_5:0.00000571,17_0_1:0.00000646):0.00000226):0.00001083,(17_0_4:0.00001131,17_0_10:0.00001911):0.00002953):0.00006553):0.00039326):0.00023915,((9_0_9:0.00015092,((9_0_2:0.00002120,9_0_0:0.00001165):0.00002443,9_0_3:0.00005943):0.00008003):0.00025630,((9_0_5:0.00000816,(9_0_8:0.00000053,9_0_1:0.00000100):0.00000251):0.00004606,((9_0_6:0.00000356,9_0_7:0.00000357):0.00001618,(9_0_4:0.00000460,9_0_10:0.00001073):0.00001649):0.00005077):0.00015197):0.00079893):0.00134684):0.00144384,((((((10_0_2:0.00005571,((10_0_8:0.00001108,10_0_1:0.00000918):0.00001029,10_0_4:0.00002509):0.00001314):0.00007399,10_0_10:0.00013219):0.00000110,((((10_0_5:0.00000475,10_0_9:0.00000315):0.00000197,10_0_0:0.00000820):0.00001072,(10_0_7:0.00000662,10_0_3:0.00000683):0.00001756):0.00000195,10_0_6:0.00004724):0.00007883):0.00109400,((((15_0_2:0.00000235,15_0_5:0.00000142):0.00000434,15_0_7:0.00000357):0.00053847,(((15_0_6:0.00000147,15_0_8:0.00000195):0.00001291,15_0_1:0.00001538):0.00005737,((15_0_0:0.00000267,15_0_9:0.00000348):0.00000706,((15_0_4:0.00000084,15_0_10:0.00000074):0.00000631,15_0_3:0.00000714):0.00000659):0.00008552):0.00041912):0.00020737,((19_0_8:0.00005468,(((19_0_4:0.00000140,19_0_1:0.00000166):0.00002828,19_0_6:0.00002820):0.00000804,(19_0_10:0.00000039,19_0_7:0.00000055):0.00004941):0.00001259):0.00000899,(19_0_2:0.00012609,(19_0_9:0.00003813,((19_0_3:0.00000898,19_0_5:0.00001032):0.00000079,19_0_0:0.00000813):0.00002402):0.00001779):0.00000462):0.00040523):0.00240452):0.00055201,(((14_0_4:0.00001376,(14_0_7:0.00001227,14_0_0:0.00001603):0.00000113):0.00004580,14_0_1:0.00002661):0.00010189,(14_0_9:0.00002015,((((14_0_10:0.00000376,14_0_2:0.00000889):0.00000364,14_0_8:0.00000388):0.00000110,14_0_3:0.00001534):0.00000004,(14_0_5:0.00000609,14_0_6:0.00000574):0.00000559):0.00000748):0.00012324):0.00314954):0.00018452,(((8_0_0:0.00002632,(8_0_3:0.00000542,8_0_1:0.00000281):0.00000876):0.00008241,(((8_0_6:0.00001618,(8_0_2:0.00000031,8_0_4:0.00000010):0.00001763):0.00004710,8_0_5:0.00005490):0.00009467,(8_0_9:0.00006372,(8_0_10:0.00000495,(8_0_8:0.00000763,8_0_7:0.00002642):0.00000282):0.00001711):0.00004238):0.00002127):0.00266161,(18_0_6:0.00006796,((18_0_5:0.00002312,(((18_0_0:0.00000603,18_0_1:0.00000699):0.00001490,(18_0_2:0.00000326,18_0_4:0.00000409):0.00001881):0.00001793,(18_0_3:0.00001936,(18_0_10:0.00000942,(18_0_8:0.00001296,18_0_7:0.00000679):0.00000455):0.00000051):0.00001600):0.00000123):0.00000779,18_0_9:0.00003575):0.00007862):0.00162420):0.00111503):0.00099405):0.00541745):0.09572471):0.08367449);
