********************************************************************************
INDELible V1.03 by Will Fletcher : Simulation began at: Sat Dec  3 19:55:53 2016
********************************************************************************

  * Block 1 was completed in 0.35 seconds.

********************************************************************************


  * Block 2 was completed in 0.33 seconds.

********************************************************************************


  * Block 3 was completed in 0.35 seconds.

********************************************************************************


  * Block 4 was completed in 0.33 seconds.

********************************************************************************


  * Block 5 was completed in 0.35 seconds.

********************************************************************************


  * Block 6 was completed in 0.33 seconds.

********************************************************************************


  * Block 7 was completed in 0.35 seconds.

********************************************************************************


  * Block 8 was completed in 0.35 seconds.

********************************************************************************


  * Block 9 was completed in 0.34 seconds.

********************************************************************************


  * Block 10 was completed in 0.33 seconds.

********************************************************************************

  * Simulation completed. Whole batch took: 3.43 seconds.

INDELible V1.03 Simulations completed at: Sat Dec  3 19:55:56 2016

********************************************************************************


 Original Control File 

-----------------------


[TYPE] NUCLEOTIDE 1 

[SETTINGS]
    [fastaextension] fasta  

[MODEL] csSim_unlinked_1
    [submodel] GTR 0.122724 0.014933 0.023449 0.013232 0.021271 
    [statefreq] 0.165547 0.669867 0.050815 0.113771 
[rates] 0 13.507031 0 

[MODEL] csSim_unlinked_2
    [submodel] GTR 0.116271 0.005796 0.017563 0.058738 0.014973 
    [statefreq] 0.010871 0.050908 0.357419 0.580802 
[rates] 0 0.392498 0 

[MODEL] csSim_unlinked_3
    [submodel] GTR 0.093526 0.009176 0.026965 0.024648 0.031257 
    [statefreq] 0.291948 0.538744 0.098804 0.070504 
[rates] 0 0.051838 0 

[MODEL] csSim_unlinked_4
    [submodel] GTR 0.123643 0.043156 0.013701 0.016253 0.046210 
    [statefreq] 0.243378 0.342160 0.231454 0.183009 
[rates] 0 24.713873 0 

[MODEL] csSim_unlinked_5
    [submodel] GTR 0.138128 0.022403 0.013457 0.008578 0.060308 
    [statefreq] 0.556496 0.221388 0.203374 0.018742 
[rates] 0 32.111469 0 

[MODEL] csSim_unlinked_6
    [submodel] GTR 0.065780 0.004792 0.017366 0.018116 0.030478 
    [statefreq] 0.148070 0.452658 0.265034 0.134239 
[rates] 0 6.107602 0 

[MODEL] csSim_unlinked_7
    [submodel] GTR 0.102883 0.007097 0.014646 0.073331 0.030853 
    [statefreq] 0.648882 0.021338 0.055576 0.274204 
[rates] 0 4.481569 0 

[MODEL] csSim_unlinked_8
    [submodel] GTR 0.082967 0.003824 0.017647 0.027032 0.021245 
    [statefreq] 0.429944 0.331471 0.190560 0.048025 
[rates] 0 12.860584 0 

[MODEL] csSim_unlinked_9
    [submodel] GTR 0.095788 0.009651 0.017944 0.028849 0.051086 
    [statefreq] 0.225150 0.151418 0.455652 0.167780 
[rates] 0 1.325998 0 

[MODEL] csSim_unlinked_10
    [submodel] GTR 0.101390 0.001430 0.012795 0.017018 0.025708 
    [statefreq] 0.006514 0.548566 0.028888 0.416031 
[rates] 0 0.053355 0 


[TREE] T01 (((((7_0_1:0.00000453,((7_0_13:0.00000130,7_0_5:0.00000192):0.00000518,7_0_9:0.00000498):0.00000001):0.00001215,((7_0_0:0.00000216,7_0_7:0.00000425):0.00002391,(((7_0_2:0.00000230,7_0_8:0.00000251):0.00001826,((7_0_4:0.00000167,7_0_11:0.00000113):0.00000534,7_0_14:0.00000304):0.00001404):0.00000162,(7_0_3:0.00001799,7_0_18:0.00001851):0.00000044):0.00000574):0.00001137):0.00007173,(7_0_6:0.00000952,(((7_0_12:0.00000570,7_0_17:0.00000733):0.00000058,7_0_16:0.00000634):0.00000319,(7_0_10:0.00000149,7_0_15:0.00000068):0.00000729):0.00000245):0.00012546):0.00059376,((6_0_13:0.00009686,(((6_0_8:0.00001997,6_0_18:0.00002569):0.00001005,(((6_0_12:0.00000509,6_0_0:0.00000905):0.00000437,6_0_4:0.00001031):0.00000806,((6_0_10:0.00000027,6_0_17:0.00000030):0.00001087,6_0_6:0.00001012):0.00000892):0.00003120):0.00001906,(((6_0_7:0.00000033,6_0_9:0.00000020):0.00002541,((6_0_16:0.00000476,(6_0_5:0.00000177,(6_0_11:0.00000008,6_0_1:0.00000015):0.00000304):0.00000500):0.00000644,(6_0_2:0.00000553,6_0_15:0.00000412):0.00001394):0.00000221):0.00001458,(6_0_14:0.00001465,6_0_3:0.00000892):0.00002317):0.00003050):0.00001065):0.00043196,(((5_0_15:0.00000909,(((5_0_12:0.00000595,5_0_16:0.00000347):0.00000000,((5_0_8:0.00000122,5_0_18:0.00000059):0.00000278,5_0_9:0.00000391):0.00000083):0.00000569,(5_0_11:0.00000868,(5_0_14:0.00000127,5_0_0:0.00000230):0.00000733):0.00000104):0.00000038):0.00021484,(5_0_5:0.00002373,(5_0_13:0.00002431,5_0_1:0.00002416):0.00000553):0.00016632):0.00009282,(((((1_0_11:0.00001003,(1_0_2:0.00000176,1_0_9:0.00000215):0.00000756):0.00005949,(((1_0_0:0.00000458,(1_0_1:0.00000866,1_0_15:0.00000358):0.00000150):0.00003453,1_0_16:0.00004196):0.00002403,((1_0_3:0.00001942,(1_0_8:0.00000353,1_0_13:0.00000244):0.00001737):0.00000717,(((1_0_7:0.00000143,1_0_4:0.00000089):0.00002111,((1_0_17:0.00000036,1_0_10:0.00000025):0.00000378,((1_0_5:0.00000017,1_0_18:0.00000016):0.00000222,1_0_6:0.00000188):0.00000114):0.00001485):0.00000430,1_0_14:0.00002340):0.00000188):0.00003326):0.00000734):0.00014311,1_0_12:0.00024132):0.00008880,(((((3_0_10:0.00004258,(((3_0_18:0.00000053,3_0_2:0.00000050):0.00000985,(3_0_17:0.00000341,(3_0_5:0.00000012,3_0_13:0.00000023):0.00000214):0.00001195):0.00000501,3_0_15:0.00002366):0.00001021):0.00000985,(((3_0_0:0.00000008,3_0_14:0.00000007):0.00000075,3_0_11:0.00000085):0.00002137,(3_0_6:0.00000041,3_0_12:0.00000029):0.00003059):0.00001580):0.00000144,((((3_0_16:0.00000225,3_0_4:0.00000365):0.00000160,3_0_1:0.00000470):0.00000671,((3_0_9:0.00000372,3_0_3:0.00000334):0.00000785,3_0_8:0.00001197):0.00000163):0.00000221,3_0_7:0.00001328):0.00002159):0.00011631,((((4_0_1:0.00000510,4_0_18:0.00000845):0.00000339,4_0_2:0.00001263):0.00000004,4_0_8:0.00000885):0.00015666,(((((4_0_0:0.00000423,4_0_13:0.00000419):0.00000448,4_0_17:0.00000914):0.00000216,4_0_12:0.00000887):0.00001961,(4_0_7:0.00000808,(4_0_10:0.00000641,(4_0_14:0.00000176,4_0_6:0.00000167):0.00000463):0.00000253):0.00003343):0.00000548,(((4_0_3:0.00000024,4_0_5:0.00000034):0.00000159,4_0_4:0.00000112):0.00002416,((4_0_9:0.00000784,(4_0_15:0.00000399,4_0_11:0.00000234):0.00000702):0.00001781,4_0_16:0.00002618):0.00000445):0.00002513):0.00006612):0.00002987):0.00002934,((5_0_3:0.00002635,5_0_2:0.00002727):0.00002032,(((5_0_10:0.00000041,5_0_6:0.00000023):0.00002007,5_0_4:0.00001996):0.00000392,(5_0_7:0.00000888,5_0_17:0.00000937):0.00001181):0.00002384):0.00014358):0.00013361):0.00000604,(((2_0_12:0.00001733,((2_0_3:0.00000618,2_0_7:0.00000746):0.00000131,2_0_2:0.00000752):0.00001248):0.00002708,(2_0_13:0.00001335,(((2_0_0:0.00000159,2_0_5:0.00000262):0.00000300,2_0_17:0.00000885):0.00001335,2_0_1:0.00001209):0.00000117):0.00002573):0.00003624,((((2_0_16:0.00000157,(2_0_14:0.00000080,2_0_6:0.00000070):0.00000096):0.00001522,(2_0_15:0.00000573,2_0_10:0.00000456):0.00000857):0.00001194,(2_0_9:0.00000747,((2_0_8:0.00000028,2_0_18:0.00000026):0.00000473,2_0_11:0.00000655):0.00000467):0.00001590):0.00000359,2_0_4:0.00003326):0.00002531):0.00042022):0.00002234):0.00008404):0.00025097):0.00021161,0_0_0:0.00076863);
[TREE] T02 (0_0_0:0.00077047,(((((((7_0_5:0.00001171,7_0_12:0.00000909):0.00002091,((((7_0_4:0.00000032,7_0_14:0.00000035):0.00000336,(7_0_10:0.00000099,7_0_17:0.00000072):0.00000307):0.00000490,(7_0_7:0.00000921,7_0_9:0.00000886):0.00000005):0.00001977,(7_0_13:0.00000088,7_0_8:0.00000216):0.00001655):0.00000298):0.00001235,(7_0_2:0.00000330,7_0_16:0.00000801):0.00003797):0.00000070,((7_0_11:0.00000906,(7_0_18:0.00000172,7_0_3:0.00000109):0.00000467):0.00001688,7_0_0:0.00003473):0.00001419):0.00007311,(7_0_15:0.00000857,(7_0_1:0.00000303,7_0_6:0.00000860):0.00000594):0.00007313):0.00034289,(((6_0_12:0.00001130,6_0_5:0.00002464):0.00000141,6_0_16:0.00002318):0.00004513,(((6_0_11:0.00001796,((6_0_13:0.00000650,6_0_2:0.00000596):0.00000135,6_0_17:0.00000582):0.00002452):0.00000960,6_0_1:0.00002573):0.00001545,((6_0_0:0.00001879,(6_0_8:0.00000717,(6_0_4:0.00000481,6_0_18:0.00000540):0.00000133):0.00000638):0.00000897,(6_0_9:0.00001252,(6_0_10:0.00001156,((6_0_14:0.00000091,(6_0_7:0.00000057,(6_0_3:0.00000024,6_0_6:0.00000034):0.00000027):0.00000016):0.00000845,6_0_15:0.00001010):0.00000184):0.00000597):0.00000694):0.00003352):0.00000303):0.00048664):0.00008280,(((((1_0_18:0.00002990,(1_0_3:0.00000684,(1_0_2:0.00000320,(1_0_6:0.00000124,1_0_16:0.00000315):0.00000139):0.00000858):0.00001351):0.00006934,(((1_0_14:0.00000490,1_0_5:0.00000365):0.00000168,(1_0_13:0.00000469,1_0_15:0.00000484):0.00000123):0.00000037,(1_0_10:0.00000297,1_0_0:0.00000401):0.00000376):0.00014647):0.00000304,((1_0_12:0.00001955,((1_0_1:0.00000216,1_0_8:0.00000151):0.00000452,1_0_7:0.00001102):0.00000312):0.00002553,((1_0_9:0.00001254,1_0_11:0.00000972):0.00002712,(1_0_17:0.00002570,1_0_4:0.00001695):0.00001739):0.00000447):0.00007506):0.00023055,((((2_0_0:0.00000587,(2_0_4:0.00000039,2_0_17:0.00000027):0.00000610):0.00001880,2_0_9:0.00002879):0.00015481,2_0_1:0.00012506):0.00000182,((((2_0_13:0.00000700,2_0_6:0.00000826):0.00000516,(2_0_5:0.00000075,2_0_12:0.00000070):0.00001711):0.00000246,(2_0_16:0.00000235,2_0_11:0.00000252):0.00001214):0.00004235,(2_0_14:0.00002893,(2_0_8:0.00001227,((2_0_10:0.00000747,(2_0_15:0.00000344,2_0_2:0.00000165):0.00000507):0.00000136,(2_0_3:0.00000358,(2_0_7:0.00000109,2_0_18:0.00000126):0.00000152):0.00000910):0.00000435):0.00000987):0.00006131):0.00003087):0.00011809):0.00002929,(((4_0_4:0.00000140,4_0_5:0.00000144):0.00007796,((4_0_2:0.00000753,4_0_11:0.00001320):0.00004148,(((4_0_13:0.00000933,((4_0_3:0.00000214,4_0_8:0.00000291):0.00000031,(4_0_16:0.00000060,4_0_15:0.00000043):0.00000206):0.00000293):0.00001768,4_0_12:0.00002316):0.00000585,((4_0_9:0.00000798,((4_0_1:0.00000193,4_0_10:0.00000199):0.00000138,(4_0_17:0.00000015,4_0_6:0.00000010):0.00000314):0.00000402):0.00001952,(4_0_7:0.00000844,((4_0_14:0.00000068,4_0_18:0.00000058):0.00000417,4_0_0:0.00000498):0.00000111):0.00002354):0.00000511):0.00001028):0.00002426):0.00008135,(((((3_0_15:0.00001503,(3_0_17:0.00000235,3_0_8:0.00000356):0.00001782):0.00001049,(3_0_1:0.00000452,3_0_14:0.00000418):0.00001852):0.00001697,(3_0_9:0.00000617,3_0_6:0.00000615):0.00005909):0.00005885,(((3_0_12:0.00000486,3_0_16:0.00000698):0.00000576,(3_0_0:0.00000220,3_0_10:0.00000400):0.00001512):0.00003639,((((3_0_3:0.00000165,3_0_7:0.00000092):0.00000372,3_0_18:0.00000732):0.00000016,3_0_5:0.00000610):0.00000279,(3_0_11:0.00000772,(3_0_4:0.00000398,(3_0_13:0.00000076,3_0_2:0.00000048):0.00000413):0.00000228):0.00000220):0.00004500):0.00005069):0.00002685,((5_0_16:0.00009006,(5_0_0:0.00002140,((5_0_9:0.00000932,(5_0_10:0.00000017,5_0_17:0.00000031):0.00000773):0.00000580,(5_0_18:0.00001212,((5_0_1:0.00000080,5_0_6:0.00000092):0.00000136,(5_0_5:0.00000079,5_0_8:0.00000255):0.00000083):0.00001120):0.00000176):0.00000693):0.00003759):0.00006528,((5_0_4:0.00001852,(5_0_3:0.00002700,(5_0_2:0.00000226,5_0_15:0.00000217):0.00002139):0.00000363):0.00003097,((5_0_7:0.00000463,(5_0_12:0.00000239,5_0_13:0.00000404):0.00000219):0.00000289,(5_0_14:0.00000454,5_0_11:0.00000454):0.00000619):0.00003534):0.00009024):0.00001596):0.00000161):0.00017505):0.00013934):0.00050342);
[TREE] T03 (((((((6_0_3:0.00000037,6_0_8:0.00000054):0.00000560,(6_0_10:0.00000120,6_0_9:0.00000126):0.00000568):0.00003303,(((6_0_17:0.00000217,((6_0_13:0.00000049,6_0_0:0.00000023):0.00000034,6_0_11:0.00000089):0.00000059):0.00000168,(6_0_1:0.00000001,6_0_2:0.00000002):0.00000378):0.00001156,6_0_12:0.00001227):0.00002571):0.00000395,(6_0_16:0.00002579,((6_0_15:0.00000945,((6_0_5:0.00000342,6_0_18:0.00000351):0.00000066,6_0_6:0.00000420):0.00000205):0.00000870,(6_0_4:0.00000463,(6_0_7:0.00000202,6_0_14:0.00000118):0.00000245):0.00001284):0.00000321):0.00002053):0.00037632,(((7_0_15:0.00000066,7_0_16:0.00000035):0.00005434,((7_0_3:0.00000239,(7_0_6:0.00000139,7_0_5:0.00000168):0.00000055):0.00006130,(7_0_11:0.00003916,(7_0_2:0.00001442,(7_0_14:0.00000604,7_0_9:0.00000521):0.00000576):0.00003631):0.00000598):0.00000361):0.00019404,(((7_0_1:0.00000078,7_0_7:0.00000071):0.00000355,7_0_13:0.00000172):0.00003387,(((7_0_0:0.00000416,7_0_10:0.00000756):0.00000566,(7_0_8:0.00000903,7_0_4:0.00000375):0.00000383):0.00000909,(7_0_17:0.00000151,(7_0_12:0.00000138,7_0_18:0.00000102):0.00000033):0.00003167):0.00001563):0.00010552):0.00013203):0.00028546,(((((((2_0_15:0.00000319,(2_0_13:0.00000047,2_0_0:0.00000103):0.00000191):0.00001393,((2_0_17:0.00000044,2_0_11:0.00000018):0.00000961,2_0_16:0.00001361):0.00001228):0.00003126,((2_0_5:0.00000680,2_0_3:0.00000415):0.00000779,((2_0_12:0.00000252,(2_0_7:0.00000129,2_0_4:0.00000103):0.00000064):0.00000401,2_0_2:0.00001408):0.00000289):0.00003023):0.00001184,((2_0_9:0.00000012,2_0_14:0.00000021):0.00001413,2_0_10:0.00000985):0.00004644):0.00009993,(((2_0_6:0.00000023,2_0_1:0.00000019):0.00000520,2_0_8:0.00000574):0.00002492,2_0_18:0.00002168):0.00009851):0.00004596,(((((1_0_14:0.00001317,((1_0_8:0.00000951,1_0_0:0.00000790):0.00000171,((1_0_1:0.00000017,1_0_10:0.00000032):0.00000726,(((1_0_4:0.00000154,1_0_13:0.00000084):0.00000120,1_0_15:0.00000207):0.00000000,1_0_2:0.00000532):0.00000792):0.00000324):0.00000446):0.00000028,(1_0_5:0.00000026,1_0_18:0.00000026):0.00001644):0.00000819,1_0_16:0.00002621):0.00003979,((1_0_9:0.00003119,(1_0_11:0.00000946,1_0_6:0.00000711):0.00005219):0.00000874,1_0_17:0.00005945):0.00002498):0.00004358,(1_0_7:0.00001547,(1_0_3:0.00000399,1_0_12:0.00000294):0.00001600):0.00008427):0.00005276):0.00012792,(((((5_0_9:0.00000139,5_0_14:0.00000094):0.00002583,((5_0_18:0.00000040,5_0_5:0.00000084):0.00000529,5_0_13:0.00000511):0.00001618):0.00001883,(((5_0_16:0.00000522,5_0_6:0.00000184):0.00000808,(5_0_4:0.00000444,5_0_0:0.00000200):0.00000365):0.00000363,5_0_3:0.00001426):0.00002428):0.00001864,(5_0_17:0.00004440,(((5_0_10:0.00000436,(5_0_12:0.00000137,5_0_8:0.00000126):0.00000398):0.00002500,(5_0_1:0.00001826,(5_0_11:0.00000999,(5_0_2:0.00000086,5_0_15:0.00000044):0.00001157):0.00000326):0.00000985):0.00001702,5_0_7:0.00004904):0.00000272):0.00001415):0.00006832,(((((((4_0_8:0.00000119,4_0_3:0.00000167):0.00000020,4_0_4:0.00000143):0.00000609,4_0_13:0.00000621):0.00000170,(4_0_16:0.00000040,4_0_17:0.00000029):0.00001002):0.00006197,((((4_0_15:0.00001609,((4_0_5:0.00000512,4_0_1:0.00001143):0.00000057,4_0_12:0.00000748):0.00000365):0.00000342,((4_0_0:0.00000147,4_0_2:0.00000147):0.00000493,4_0_11:0.00000535):0.00001498):0.00000418,(4_0_14:0.00000238,((4_0_18:0.00000173,4_0_7:0.00000143):0.00000002,4_0_10:0.00000060):0.00000108):0.00002236):0.00000679,(4_0_6:0.00000528,4_0_9:0.00000333):0.00002379):0.00003958):0.00007622,(((((3_0_1:0.00000096,3_0_12:0.00000092):0.00000725,(3_0_13:0.00001056,3_0_17:0.00000804):0.00000069):0.00001592,((((3_0_7:0.00000543,3_0_2:0.00000433):0.00000420,(3_0_14:0.00000542,3_0_11:0.00000340):0.00000182):0.00000187,3_0_0:0.00000783):0.00000180,3_0_16:0.00001391):0.00002221):0.00000524,(3_0_3:0.00000123,(3_0_10:0.00000028,3_0_6:0.00000021):0.00000158):0.00002843):0.00011337,(3_0_9:0.00001082,((3_0_18:0.00000039,3_0_4:0.00000075):0.00000256,3_0_5:0.00000305):0.00000609):0.00011806):0.00002114):0.00000215,(3_0_15:0.00001934,3_0_8:0.00000833):0.00010271):0.00000255):0.00021101):0.00049093):0.00001414,0_0_0:0.00123024);
[TREE] T04 (0_0_0:0.00092662,(((((((7_0_2:0.00000185,7_0_13:0.00000146):0.00000652,(7_0_10:0.00000364,7_0_8:0.00000444):0.00000364):0.00000601,(7_0_14:0.00000689,(((7_0_18:0.00000434,(7_0_7:0.00000170,7_0_4:0.00000233):0.00000023):0.00000078,7_0_17:0.00000345):0.00000173,(7_0_11:0.00000269,7_0_15:0.00000381):0.00000269):0.00000338):0.00000653):0.00016301,((((7_0_9:0.00000096,7_0_16:0.00000058):0.00000197,(7_0_1:0.00000370,7_0_5:0.00000536):0.00000207):0.00001326,7_0_0:0.00001656):0.00005217,(7_0_6:0.00001698,(7_0_12:0.00000024,7_0_3:0.00000022):0.00001303):0.00003989):0.00008906):0.00031345,(((6_0_15:0.00000072,6_0_0:0.00000088):0.00009255,6_0_12:0.00005584):0.00012193,(6_0_5:0.00002485,((((6_0_8:0.00000093,6_0_17:0.00000074):0.00000851,6_0_16:0.00001008):0.00001578,(6_0_7:0.00000473,(6_0_3:0.00000143,6_0_11:0.00000153):0.00000374):0.00001119):0.00001451,((((6_0_4:0.00000004,6_0_9:0.00000004):0.00000026,6_0_18:0.00000023):0.00000502,(6_0_1:0.00000413,6_0_14:0.00000464):0.00000269):0.00002415,(((6_0_2:0.00000227,6_0_6:0.00000118):0.00000234,6_0_13:0.00000293):0.00000001,6_0_10:0.00000341):0.00002185):0.00001169):0.00000127):0.00021059):0.00016777):0.00006348,((((2_0_2:0.00002758,(2_0_9:0.00000868,((2_0_17:0.00000349,(2_0_0:0.00000102,2_0_7:0.00000129):0.00000562):0.00000074,2_0_6:0.00000804):0.00000168):0.00003327):0.00004111,((((2_0_10:0.00000135,2_0_1:0.00000357):0.00000503,2_0_5:0.00000625):0.00000820,(2_0_13:0.00000520,(2_0_8:0.00000261,2_0_4:0.00000227):0.00000086):0.00001061):0.00001729,((2_0_16:0.00002540,2_0_11:0.00001792):0.00000181,2_0_12:0.00002417):0.00000945):0.00005299):0.00003654,(2_0_3:0.00001573,((2_0_14:0.00000016,2_0_18:0.00000023):0.00000391,2_0_15:0.00000436):0.00001232):0.00006590):0.00003802,((((1_0_3:0.00001422,1_0_10:0.00001748):0.00000107,1_0_11:0.00001871):0.00008114,(((1_0_9:0.00000644,((1_0_13:0.00000092,(1_0_0:0.00000034,1_0_15:0.00000034):0.00000039):0.00000265,1_0_5:0.00000207):0.00000219):0.00001786,((1_0_17:0.00001008,(1_0_2:0.00000122,1_0_8:0.00000078):0.00000595):0.00000674,1_0_14:0.00001122):0.00000319):0.00003367,(1_0_18:0.00000814,(1_0_7:0.00000576,1_0_1:0.00000319):0.00000377):0.00001691):0.00003380):0.00002115,(((1_0_12:0.00000111,1_0_4:0.00000082):0.00000441,1_0_16:0.00000473):0.00000468,1_0_6:0.00000829):0.00006360):0.00002509):0.00058725):0.00000394,(((((((5_0_2:0.00000120,(5_0_0:0.00000126,5_0_6:0.00000093):0.00000013):0.00000093,5_0_16:0.00000254):0.00000586,(5_0_10:0.00000857,(5_0_15:0.00000003,5_0_11:0.00000002):0.00001195):0.00000006):0.00003124,5_0_9:0.00004194):0.00001369,((5_0_13:0.00009041,5_0_1:0.00006485):0.00001351,(((5_0_4:0.00000224,5_0_17:0.00000103):0.00000693,5_0_8:0.00000984):0.00001966,(((5_0_3:0.00000079,5_0_14:0.00000081):0.00000210,5_0_5:0.00000302):0.00001524,((5_0_12:0.00000081,5_0_7:0.00000059):0.00000127,5_0_18:0.00000210):0.00001437):0.00001471):0.00002094):0.00000090):0.00005692,((3_0_12:0.00001354,((3_0_14:0.00000178,3_0_11:0.00000304):0.00000255,(((3_0_1:0.00000193,3_0_13:0.00000324):0.00000082,3_0_8:0.00000307):0.00000065,(3_0_16:0.00000219,3_0_3:0.00000275):0.00000201):0.00000040):0.00001195):0.00008248,(((3_0_2:0.00000605,(3_0_17:0.00000201,(3_0_18:0.00000186,3_0_9:0.00000119):0.00000035):0.00000287):0.00001242,(3_0_7:0.00001844,3_0_10:0.00000970):0.00000917):0.00003501,((3_0_4:0.00000075,3_0_5:0.00000052):0.00006967,(3_0_6:0.00003408,(3_0_15:0.00000516,3_0_0:0.00000510):0.00006521):0.00000438):0.00001313):0.00000597):0.00009661):0.00007148,(((((4_0_1:0.00000616,(4_0_0:0.00000551,(4_0_5:0.00000055,4_0_9:0.00000108):0.00000292):0.00000621):0.00001109,4_0_6:0.00002946):0.00000249,(4_0_13:0.00001426,4_0_7:0.00001424):0.00001695):0.00007208,(4_0_18:0.00000235,(4_0_4:0.00000230,4_0_10:0.00000073):0.00000073):0.00007794):0.00005985,(((4_0_8:0.00000632,(4_0_17:0.00000248,4_0_3:0.00000129):0.00000571):0.00000196,(((4_0_2:0.00000254,4_0_14:0.00000108):0.00000085,4_0_15:0.00000196):0.00000697,(4_0_12:0.00000458,4_0_16:0.00000543):0.00000018):0.00000217):0.00005084,4_0_11:0.00007292):0.00004834):0.00002505):0.00025783):0.00051871);
[TREE] T05 ((((((((5_0_1:0.00000749,(5_0_13:0.00000418,5_0_10:0.00000453):0.00000629):0.00004772,((5_0_15:0.00000115,5_0_5:0.00000160):0.00001481,(5_0_7:0.00001609,((5_0_11:0.00000327,5_0_3:0.00000487):0.00000276,5_0_9:0.00000743):0.00000627):0.00001713):0.00002291):0.00010455,(((((3_0_1:0.00000204,3_0_4:0.00000239):0.00000659,((3_0_14:0.00000164,3_0_18:0.00000083):0.00000018,3_0_15:0.00000370):0.00000430):0.00001368,(3_0_8:0.00000028,3_0_6:0.00000030):0.00003941):0.00004004,(3_0_13:0.00001938,(3_0_3:0.00000245,3_0_10:0.00000179):0.00001398):0.00005369):0.00001250,((3_0_7:0.00001100,((3_0_9:0.00000011,3_0_11:0.00000026):0.00000735,3_0_2:0.00000762):0.00000169):0.00000798,(((3_0_16:0.00000104,3_0_12:0.00000171):0.00000235,3_0_0:0.00000432):0.00000451,3_0_5:0.00000849):0.00001376):0.00004331):0.00006743):0.00005375,(((4_0_1:0.00000667,(4_0_18:0.00000731,4_0_16:0.00000865):0.00000128):0.00001410,4_0_0:0.00002030):0.00011037,(((4_0_8:0.00000513,(4_0_6:0.00000054,4_0_4:0.00000058):0.00000623):0.00001515,(((4_0_3:0.00000165,4_0_14:0.00000142):0.00000641,4_0_13:0.00001036):0.00000819,(((4_0_17:0.00000075,(4_0_11:0.00000039,4_0_2:0.00000047):0.00000069):0.00000181,(4_0_9:0.00000091,4_0_12:0.00000074):0.00000214):0.00000593,(4_0_7:0.00000696,(4_0_15:0.00000337,4_0_5:0.00000234):0.00000715):0.00000031):0.00000495):0.00000380):0.00000677,4_0_10:0.00003590):0.00006714):0.00006706):0.00008864,((((5_0_8:0.00003030,(5_0_2:0.00001144,((5_0_4:0.00000789,(5_0_6:0.00000521,5_0_16:0.00000535):0.00000307):0.00000184,5_0_17:0.00000896):0.00000146):0.00002180):0.00000583,(5_0_0:0.00002120,(5_0_12:0.00000415,5_0_18:0.00000355):0.00001267):0.00001939):0.00005283,5_0_14:0.00005905):0.00004262,3_0_17:0.00012512):0.00025131):0.00002682,(((((1_0_16:0.00001972,(((1_0_7:0.00000522,((1_0_5:0.00000058,1_0_13:0.00000069):0.00000072,(1_0_11:0.00000011,1_0_0:0.00000016):0.00000147):0.00000327):0.00000209,(1_0_4:0.00000818,(1_0_2:0.00000641,1_0_1:0.00000733):0.00000198):0.00000185):0.00000182,1_0_9:0.00001519):0.00001529):0.00000279,((1_0_18:0.00001502,1_0_12:0.00000954):0.00000879,1_0_14:0.00002669):0.00000186):0.00011578,((((1_0_10:0.00000057,1_0_17:0.00000058):0.00001017,1_0_15:0.00001781):0.00003517,1_0_3:0.00003125):0.00002455,(1_0_8:0.00000695,1_0_6:0.00000826):0.00006537):0.00011267):0.00004738,(2_0_5:0.00001911,((((2_0_17:0.00000097,2_0_15:0.00000119):0.00000115,((2_0_7:0.00000079,2_0_4:0.00000156):0.00000072,(2_0_10:0.00000037,2_0_9:0.00000025):0.00000166):0.00000024):0.00000251,(2_0_12:0.00000649,2_0_3:0.00000362):0.00000090):0.00000404,((2_0_8:0.00000085,2_0_18:0.00000067):0.00000135,2_0_2:0.00000327):0.00000770):0.00001677):0.00014090):0.00003159,(((2_0_1:0.00000189,2_0_0:0.00000191):0.00002831,2_0_6:0.00003877):0.00004040,(2_0_16:0.00003876,(2_0_11:0.00002168,(2_0_13:0.00000500,2_0_14:0.00000276):0.00001316):0.00001296):0.00003421):0.00007345):0.00014923):0.00010579,(((((6_0_10:0.00000258,6_0_3:0.00000207):0.00001415,((((((6_0_11:0.00000709,(6_0_7:0.00000560,6_0_9:0.00000329):0.00000146):0.00000205,(6_0_2:0.00000168,6_0_17:0.00000175):0.00000580):0.00000090,(6_0_12:0.00000295,6_0_18:0.00000346):0.00000628):0.00000219,(6_0_0:0.00000153,6_0_15:0.00000179):0.00000572):0.00000183,(6_0_13:0.00000550,6_0_4:0.00000789):0.00000744):0.00000347,6_0_8:0.00002746):0.00000180):0.00000925,(6_0_1:0.00000187,6_0_5:0.00000136):0.00001982):0.00003055,(6_0_14:0.00000491,(6_0_16:0.00000520,6_0_6:0.00000521):0.00000169):0.00010151):0.00047803,((((7_0_11:0.00000603,(((7_0_9:0.00000004,7_0_18:0.00000005):0.00000292,((7_0_15:0.00000141,7_0_2:0.00000052):0.00000060,(7_0_4:0.00000116,7_0_13:0.00000195):0.00000069):0.00000092):0.00000386,7_0_10:0.00000436):0.00000231):0.00000568,(7_0_3:0.00000307,(7_0_12:0.00000131,7_0_8:0.00000185):0.00000087):0.00001001):0.00000980,(7_0_16:0.00000498,7_0_0:0.00000526):0.00002665):0.00012033,((7_0_7:0.00000620,7_0_1:0.00000434):0.00008021,((7_0_14:0.00000060,(7_0_6:0.00000029,7_0_17:0.00000027):0.00000047):0.00000372,7_0_5:0.00000397):0.00005657):0.00007243):0.00020746):0.00003807):0.00071626,0_0_0:0.00079182);
[TREE] T06 (((((((6_0_6:0.00000272,6_0_1:0.00000396):0.00001550,((6_0_17:0.00000145,6_0_10:0.00000264):0.00000846,(6_0_7:0.00000102,6_0_18:0.00000097):0.00001014):0.00000282):0.00006259,(((((6_0_4:0.00000019,6_0_14:0.00000018):0.00000155,6_0_11:0.00000176):0.00000676,6_0_5:0.00000593):0.00000673,(6_0_15:0.00001191,(((6_0_8:0.00000038,6_0_13:0.00000035):0.00000592,6_0_12:0.00000514):0.00000506,6_0_2:0.00001046):0.00000002):0.00000078):0.00001962,((6_0_16:0.00001013,6_0_9:0.00000767):0.00000635,6_0_3:0.00001288):0.00002033):0.00005219):0.00001128,6_0_0:0.00016172):0.00031292,((((2_0_2:0.00000844,(((2_0_7:0.00000781,2_0_1:0.00000716):0.00000444,((2_0_18:0.00000146,2_0_15:0.00000165):0.00000481,2_0_10:0.00000570):0.00000452):0.00000043,((2_0_0:0.00000060,2_0_14:0.00000083):0.00000135,2_0_9:0.00000139):0.00001050):0.00000009):0.00001609,(2_0_6:0.00000119,2_0_3:0.00000117):0.00003758):0.00018282,(((((2_0_5:0.00000235,2_0_8:0.00000137):0.00000025,2_0_17:0.00000476):0.00001079,((2_0_12:0.00000300,(2_0_4:0.00000293,2_0_13:0.00000393):0.00000093):0.00000133,2_0_16:0.00000574):0.00000528):0.00004880,2_0_11:0.00004125):0.00009157,(((1_0_5:0.00001550,1_0_3:0.00002089):0.00000015,(((1_0_18:0.00000361,((1_0_7:0.00000011,1_0_2:0.00000017):0.00000143,1_0_17:0.00000166):0.00000281):0.00000515,(1_0_10:0.00000138,1_0_9:0.00000253):0.00000891):0.00000066,(1_0_8:0.00001247,(1_0_14:0.00000432,(1_0_4:0.00000024,1_0_12:0.00000017):0.00000386):0.00000400):0.00000047):0.00000922):0.00003511,((1_0_0:0.00001134,(((1_0_13:0.00000012,1_0_1:0.00000011):0.00000719,1_0_15:0.00000725):0.00001179,(1_0_16:0.00000638,1_0_6:0.00000568):0.00000787):0.00000151):0.00001792,1_0_11:0.00005036):0.00000498):0.00007653):0.00009875):0.00015132,(((((((4_0_5:0.00000019,4_0_8:0.00000028):0.00000166,4_0_2:0.00000205):0.00000353,(4_0_12:0.00000256,4_0_17:0.00000249):0.00000318):0.00000066,4_0_13:0.00000666):0.00004514,((4_0_1:0.00001264,((4_0_18:0.00000035,4_0_14:0.00000039):0.00000189,(4_0_11:0.00000023,4_0_7:0.00000025):0.00000151):0.00001363):0.00001966,4_0_3:0.00004617):0.00000527):0.00011932,((((((3_0_14:0.00000456,3_0_10:0.00000928):0.00000020,3_0_9:0.00000636):0.00002666,(((3_0_12:0.00000465,((3_0_7:0.00000118,3_0_4:0.00000163):0.00000462,3_0_3:0.00000779):0.00000051):0.00000046,3_0_15:0.00000490):0.00001638,3_0_0:0.00002203):0.00000620):0.00003552,(((3_0_6:0.00000426,3_0_1:0.00000377):0.00000351,3_0_18:0.00000918):0.00000691,(3_0_2:0.00000107,3_0_16:0.00000131):0.00001173):0.00006386):0.00004815,(3_0_17:0.00000309,((3_0_8:0.00000109,(3_0_5:0.00000032,3_0_11:0.00000024):0.00000103):0.00000156,3_0_13:0.00000332):0.00000028):0.00011264):0.00002316,(5_0_14:0.00007875,(((((5_0_15:0.00000105,(5_0_4:0.00000136,5_0_17:0.00000070):0.00000006):0.00000193,5_0_6:0.00000240):0.00000180,5_0_12:0.00000397):0.00000591,5_0_10:0.00001098):0.00005931,((((((5_0_13:0.00000031,5_0_3:0.00000021):0.00000038,5_0_11:0.00000070):0.00000659,5_0_8:0.00000483):0.00000587,(5_0_16:0.00000057,5_0_7:0.00000055):0.00000931):0.00001315,(5_0_18:0.00002287,(5_0_1:0.00000498,5_0_5:0.00000659):0.00002139):0.00000172):0.00003004,((5_0_0:0.00000037,5_0_2:0.00000050):0.00004226,5_0_9:0.00005129):0.00001614):0.00001736):0.00003688):0.00005811):0.00001384):0.00007128,((4_0_0:0.00000757,(4_0_15:0.00000064,4_0_16:0.00000047):0.00000650):0.00003775,(4_0_6:0.00006187,((4_0_9:0.00000227,4_0_10:0.00000279):0.00002975,4_0_4:0.00002357):0.00000731):0.00002686):0.00015381):0.00011158):0.00017188):0.00012053,(((7_0_16:0.00003038,((7_0_3:0.00000104,(7_0_12:0.00000027,7_0_14:0.00000037):0.00000073):0.00002719,(7_0_18:0.00000335,7_0_0:0.00000367):0.00002117):0.00000402):0.00000175,(7_0_11:0.00000252,7_0_15:0.00000382):0.00001929):0.00006416,((7_0_6:0.00004704,7_0_8:0.00002918):0.00001057,((((7_0_13:0.00000580,7_0_17:0.00000624):0.00000332,(7_0_7:0.00000205,7_0_2:0.00000296):0.00000411):0.00002366,7_0_9:0.00003456):0.00000489,((7_0_5:0.00000006,7_0_10:0.00000003):0.00003189,(7_0_4:0.00000378,7_0_1:0.00000162):0.00004446):0.00000703):0.00000896):0.00005308):0.00030354):0.00032846,0_0_0:0.00099755);
[TREE] T07 (0_0_0:0.00097492,((((2_0_9:0.00001377,((2_0_16:0.00000516,2_0_5:0.00000528):0.00001063,2_0_12:0.00001258):0.00000241):0.00001000,(2_0_2:0.00001987,(2_0_1:0.00000284,2_0_18:0.00000176):0.00001489):0.00000548):0.00035024,((((4_0_10:0.00000075,4_0_1:0.00000114):0.00008079,4_0_14:0.00004565):0.00016345,((((((5_0_3:0.00000959,(5_0_2:0.00000473,((5_0_0:0.00000162,5_0_16:0.00000089):0.00000199,5_0_1:0.00000491):0.00000253):0.00000060):0.00000106,((5_0_8:0.00000306,5_0_17:0.00000277):0.00000033,5_0_18:0.00000227):0.00000367):0.00004998,((5_0_6:0.00002216,(5_0_9:0.00000408,5_0_15:0.00000537):0.00001543):0.00000924,(5_0_7:0.00000744,5_0_11:0.00000620):0.00001433):0.00001443):0.00000226,(((5_0_5:0.00001237,5_0_13:0.00001189):0.00000171,(5_0_12:0.00000307,(5_0_14:0.00000066,5_0_10:0.00000113):0.00000288):0.00001463):0.00000621,5_0_4:0.00002419):0.00002568):0.00009018,(4_0_13:0.00004979,((((4_0_16:0.00000793,((4_0_8:0.00000083,4_0_11:0.00000152):0.00000367,4_0_18:0.00000429):0.00000321):0.00001099,((4_0_3:0.00000005,4_0_5:0.00000006):0.00000450,4_0_17:0.00000725):0.00001272):0.00000837,((4_0_4:0.00001292,(4_0_12:0.00000234,(4_0_15:0.00000152,4_0_2:0.00000176):0.00000044):0.00000786):0.00000052,4_0_9:0.00001355):0.00001552):0.00001145,((4_0_7:0.00000101,4_0_6:0.00000115):0.00000056,4_0_0:0.00000202):0.00005950):0.00001157):0.00009942):0.00000570,((((3_0_5:0.00000720,(3_0_1:0.00000024,3_0_12:0.00000038):0.00001088):0.00003211,(3_0_4:0.00001953,(3_0_10:0.00000617,3_0_11:0.00001416):0.00000434):0.00001327):0.00001193,3_0_7:0.00003834):0.00004719,((3_0_0:0.00000053,(3_0_8:0.00000004,3_0_13:0.00000002):0.00000038):0.00003929,((3_0_2:0.00001082,(3_0_9:0.00000375,3_0_16:0.00000492):0.00001629):0.00000942,((3_0_3:0.00000446,3_0_14:0.00000745):0.00002113,(3_0_17:0.00001395,(3_0_15:0.00000505,(3_0_6:0.00000234,3_0_18:0.00000207):0.00000157):0.00000366):0.00000575):0.00000524):0.00001912):0.00002043):0.00006938):0.00016947):0.00007476,(((2_0_4:0.00000236,2_0_10:0.00000158):0.00010934,(((1_0_5:0.00001081,(((1_0_4:0.00000575,(1_0_11:0.00000161,(1_0_18:0.00000051,1_0_6:0.00000023):0.00000146):0.00000204):0.00000116,1_0_3:0.00000333):0.00000967,(1_0_8:0.00000014,1_0_15:0.00000015):0.00001226):0.00000084):0.00000357,1_0_17:0.00001920):0.00009145,(((2_0_3:0.00001491,(2_0_7:0.00000755,2_0_6:0.00001159):0.00000579):0.00000976,((2_0_11:0.00000111,2_0_13:0.00000200):0.00000373,(2_0_15:0.00000236,2_0_8:0.00000261):0.00000359):0.00001773):0.00005203,(2_0_17:0.00007028,(2_0_14:0.00002717,2_0_0:0.00003583):0.00002416):0.00003029):0.00006765):0.00002516):0.00003506,((1_0_13:0.00002800,1_0_12:0.00004305):0.00001028,((1_0_0:0.00000027,1_0_1:0.00000028):0.00003073,(((1_0_9:0.00000172,1_0_7:0.00000174):0.00001071,(1_0_2:0.00000455,1_0_14:0.00000585):0.00000705):0.00001006,(1_0_16:0.00000912,1_0_10:0.00000726):0.00001533):0.00000042):0.00002722):0.00016806):0.00010567):0.00011039):0.00002295,((((((6_0_4:0.00000375,(6_0_9:0.00000134,6_0_10:0.00000112):0.00000469):0.00000002,(6_0_13:0.00000135,(6_0_16:0.00000335,(6_0_11:0.00000056,(6_0_17:0.00000011,6_0_5:0.00000018):0.00000021):0.00000326):0.00000069):0.00000172):0.00001604,(((6_0_7:0.00000871,6_0_3:0.00000665):0.00000295,(((6_0_14:0.00000232,6_0_18:0.00000280):0.00000879,6_0_6:0.00000820):0.00000181,6_0_12:0.00000921):0.00000046):0.00000840,(6_0_8:0.00000875,6_0_2:0.00000548):0.00000952):0.00000295):0.00002389,(6_0_0:0.00000017,6_0_1:0.00000015):0.00005991):0.00001375,6_0_15:0.00011627):0.00045857,((((7_0_13:0.00001108,(7_0_7:0.00000649,7_0_18:0.00000408):0.00000440):0.00001261,((7_0_0:0.00000315,7_0_6:0.00000312):0.00002829,((7_0_15:0.00000098,(7_0_8:0.00000097,7_0_4:0.00000098):0.00000010):0.00000113,7_0_1:0.00000123):0.00002595):0.00000227):0.00001109,(7_0_3:0.00000070,7_0_17:0.00000060):0.00004756):0.00011826,((7_0_10:0.00002008,(7_0_12:0.00000168,(7_0_16:0.00000044,7_0_14:0.00000074):0.00000155):0.00001566):0.00009460,((7_0_9:0.00000161,7_0_2:0.00000175):0.00002465,(7_0_5:0.00001790,7_0_11:0.00001237):0.00001428):0.00008202):0.00015255):0.00016147):0.00004366):0.00038512);
[TREE] T08 (0_0_0:0.00117882,((((((((((3_0_15:0.00000365,3_0_3:0.00000360):0.00000552,3_0_11:0.00000920):0.00000391,((3_0_1:0.00000174,3_0_17:0.00000152):0.00000355,3_0_18:0.00000511):0.00000590):0.00001025,(((3_0_12:0.00000246,3_0_13:0.00000202):0.00001180,(3_0_2:0.00000646,((3_0_4:0.00000061,3_0_8:0.00000061):0.00000094,(3_0_6:0.00000031,3_0_9:0.00000047):0.00000117):0.00000509):0.00001205):0.00000635,((3_0_7:0.00000248,3_0_0:0.00000690):0.00000488,(3_0_14:0.00000381,(3_0_5:0.00000756,3_0_10:0.00000443):0.00000057):0.00000592):0.00001647):0.00000131):0.00000532,3_0_16:0.00002624):0.00005394,(((((4_0_0:0.00000803,(4_0_1:0.00000058,4_0_2:0.00000071):0.00000726):0.00000693,4_0_14:0.00001512):0.00000237,4_0_3:0.00000847):0.00000561,(((4_0_10:0.00000533,4_0_16:0.00000312):0.00000147,4_0_11:0.00000372):0.00000862,((4_0_8:0.00000106,(4_0_13:0.00000169,4_0_15:0.00000145):0.00000054):0.00001167,4_0_6:0.00000835):0.00000122):0.00001017):0.00007692,(((4_0_7:0.00002486,(4_0_5:0.00000078,4_0_4:0.00000067):0.00001298):0.00000773,(4_0_12:0.00000113,4_0_18:0.00000114):0.00002823):0.00000335,(4_0_9:0.00000621,4_0_17:0.00000701):0.00002117):0.00003072):0.00001853):0.00010741,((((5_0_6:0.00001079,5_0_16:0.00000828):0.00000442,5_0_7:0.00001677):0.00002144,5_0_18:0.00004012):0.00000310,((5_0_17:0.00001038,5_0_12:0.00001685):0.00003482,((((5_0_11:0.00000155,5_0_14:0.00000143):0.00000370,5_0_5:0.00000479):0.00000118,5_0_4:0.00000824):0.00002158,(((5_0_10:0.00000241,5_0_9:0.00000308):0.00000908,((5_0_13:0.00000123,5_0_8:0.00000093):0.00000359,(5_0_3:0.00000137,(5_0_2:0.00000060,5_0_0:0.00000089):0.00000074):0.00000328):0.00000644):0.00001278,(5_0_1:0.00001446,5_0_15:0.00002056):0.00000889):0.00000303):0.00001970):0.00000362):0.00015250):0.00006303,((((((2_0_17:0.00000099,2_0_5:0.00000136):0.00000801,2_0_8:0.00001050):0.00003590,(2_0_4:0.00002492,2_0_15:0.00003871):0.00001959):0.00001268,2_0_13:0.00007914):0.00007302,(((((2_0_3:0.00000082,2_0_0:0.00000057):0.00000232,2_0_14:0.00000264):0.00000347,2_0_11:0.00000836):0.00000756,((2_0_18:0.00000096,2_0_7:0.00000093):0.00001397,2_0_1:0.00001407):0.00000115):0.00002364,(((2_0_9:0.00000127,2_0_16:0.00000109):0.00000450,((2_0_12:0.00000077,2_0_2:0.00000100):0.00000032,2_0_10:0.00000114):0.00000292):0.00000656,2_0_6:0.00000922):0.00003159):0.00005397):0.00004531,(((((1_0_14:0.00000120,1_0_16:0.00000151):0.00000568,(1_0_8:0.00001194,(1_0_13:0.00000040,1_0_7:0.00000067):0.00000612):0.00000036):0.00000028,1_0_10:0.00000658):0.00007638,(1_0_5:0.00003045,(1_0_1:0.00000229,1_0_15:0.00000186):0.00003247):0.00006917):0.00004798,(((1_0_9:0.00000071,1_0_2:0.00000043):0.00000819,1_0_17:0.00000960):0.00006531,((1_0_0:0.00001603,((1_0_18:0.00001976,1_0_12:0.00000808):0.00000063,1_0_6:0.00001845):0.00000299):0.00002640,(1_0_4:0.00000370,(1_0_11:0.00000097,1_0_3:0.00000100):0.00000800):0.00002935):0.00000935):0.00004626):0.00004318):0.00011212):0.00012772,((((6_0_18:0.00001416,6_0_12:0.00001508):0.00009702,(6_0_15:0.00001264,6_0_1:0.00001661):0.00006083):0.00002487,((6_0_8:0.00001204,((6_0_5:0.00000483,6_0_3:0.00000312):0.00000032,6_0_2:0.00000544):0.00002285):0.00007207,6_0_11:0.00009865):0.00001520):0.00001747,(6_0_4:0.00003361,((6_0_17:0.00000506,(6_0_14:0.00000353,6_0_7:0.00000368):0.00000291):0.00001950,(((6_0_0:0.00000191,6_0_10:0.00000267):0.00000270,6_0_6:0.00000799):0.00001082,(6_0_13:0.00000282,(6_0_9:0.00000253,6_0_16:0.00000233):0.00000035):0.00001037):0.00000161):0.00002098):0.00007593):0.00030502):0.00000276,((7_0_0:0.00018273,((7_0_14:0.00000485,7_0_9:0.00000787):0.00000042,((7_0_11:0.00000480,7_0_16:0.00000643):0.00000102,(7_0_5:0.00000143,(7_0_8:0.00000023,7_0_10:0.00000044):0.00000134):0.00000523):0.00000041):0.00010605):0.00009070,((7_0_3:0.00002222,((7_0_6:0.00000336,(7_0_4:0.00000083,(7_0_18:0.00000043,7_0_13:0.00000026):0.00000040):0.00000304):0.00001686,((((7_0_1:0.00000007,7_0_2:0.00000009):0.00000041,7_0_12:0.00000043):0.00000184,7_0_17:0.00000247):0.00000506,7_0_7:0.00000494):0.00000857):0.00000739):0.00000483,7_0_15:0.00002984):0.00012591):0.00038753):0.00040380);
[TREE] T09 (0_0_0:0.00059719,(((((((6_0_7:0.00000227,6_0_4:0.00000182):0.00000010,((6_0_1:0.00000069,6_0_9:0.00000055):0.00000016,6_0_11:0.00000070):0.00000071):0.00000330,((6_0_18:0.00000119,6_0_14:0.00000103):0.00000382,6_0_8:0.00000500):0.00000117):0.00000354,(6_0_16:0.00000058,6_0_12:0.00000051):0.00000926):0.00027929,((((6_0_0:0.00000335,6_0_2:0.00000510):0.00000934,6_0_10:0.00002323):0.00001383,((6_0_17:0.00000017,6_0_6:0.00000038):0.00000663,6_0_5:0.00000841):0.00002165):0.00004849,(6_0_3:0.00002210,(6_0_13:0.00000528,6_0_15:0.00000482):0.00000993):0.00006786):0.00011454):0.00016459,((5_0_15:0.00009691,((((5_0_17:0.00000090,5_0_16:0.00000072):0.00001460,(5_0_6:0.00001076,(5_0_3:0.00000382,5_0_4:0.00000437):0.00000777):0.00000737):0.00001214,(5_0_5:0.00000175,5_0_12:0.00000277):0.00003472):0.00000944,((((5_0_8:0.00000109,5_0_9:0.00000094):0.00000194,5_0_10:0.00000320):0.00001297,((5_0_11:0.00000020,5_0_18:0.00000025):0.00000416,5_0_0:0.00000454):0.00000611):0.00002341,(((5_0_14:0.00000025,5_0_1:0.00000018):0.00000570,(5_0_13:0.00000210,5_0_7:0.00000346):0.00000585):0.00001929,5_0_2:0.00002225):0.00001168):0.00000439):0.00010828):0.00005128,((((((4_0_15:0.00000298,4_0_12:0.00000244):0.00000553,(4_0_11:0.00000158,4_0_13:0.00000303):0.00000405):0.00001113,(((4_0_18:0.00000051,4_0_8:0.00000045):0.00000159,4_0_4:0.00000282):0.00000249,(4_0_14:0.00000151,4_0_3:0.00000082):0.00000255):0.00000678):0.00001754,4_0_9:0.00002663):0.00002361,4_0_7:0.00006621):0.00012819,((((3_0_18:0.00000095,3_0_2:0.00000061):0.00005455,(((3_0_3:0.00000749,3_0_7:0.00000704):0.00000260,3_0_10:0.00000944):0.00000288,3_0_15:0.00001745):0.00002101):0.00001909,(((((3_0_6:0.00000587,(3_0_12:0.00000113,3_0_0:0.00000148):0.00000503):0.00000264,(((3_0_17:0.00000812,(3_0_4:0.00000054,3_0_14:0.00000047):0.00000727):0.00000198,(3_0_16:0.00000527,3_0_11:0.00000563):0.00000552):0.00000132,3_0_13:0.00000879):0.00000150):0.00001325,3_0_9:0.00003017):0.00000053,3_0_8:0.00002944):0.00005765,(3_0_5:0.00001215,3_0_1:0.00001343):0.00004158):0.00000112):0.00007869,((4_0_17:0.00002365,4_0_2:0.00003171):0.00001229,(((4_0_6:0.00000689,(4_0_16:0.00000437,4_0_5:0.00000352):0.00000400):0.00001411,(4_0_0:0.00000441,4_0_1:0.00000357):0.00002254):0.00000422,4_0_10:0.00002440):0.00001124):0.00011934):0.00001404):0.00003212):0.00029753):0.00005748,(((7_0_3:0.00004253,(((7_0_12:0.00000090,7_0_1:0.00000091):0.00001994,(((7_0_9:0.00000906,(7_0_11:0.00000096,7_0_17:0.00000162):0.00000788):0.00000089,(7_0_7:0.00000522,7_0_6:0.00000687):0.00000002):0.00000794,7_0_8:0.00002390):0.00000046):0.00000386,(7_0_16:0.00000616,7_0_2:0.00000381):0.00001695):0.00001949):0.00000365,(((7_0_5:0.00000057,7_0_0:0.00000081):0.00001371,(7_0_13:0.00000726,(7_0_18:0.00000077,(7_0_15:0.00000013,7_0_14:0.00000014):0.00000105):0.00000732):0.00001416):0.00003359,(7_0_10:0.00000043,7_0_4:0.00000062):0.00003155):0.00000094):0.00030903,(((((1_0_6:0.00000346,1_0_2:0.00000380):0.00000193,1_0_7:0.00000567):0.00002989,1_0_17:0.00004449):0.00007858,(((1_0_9:0.00001224,1_0_13:0.00000718):0.00002537,(1_0_16:0.00000724,((1_0_4:0.00000419,1_0_15:0.00000390):0.00000823,(1_0_8:0.00000474,1_0_0:0.00000239):0.00001094):0.00000068):0.00002939):0.00001529,(((1_0_10:0.00001550,(1_0_11:0.00001003,1_0_14:0.00000987):0.00000531):0.00000538,1_0_5:0.00002157):0.00003018,(((1_0_18:0.00000080,1_0_12:0.00000061):0.00000187,1_0_3:0.00000271):0.00000470,1_0_1:0.00000707):0.00003672):0.00002060):0.00004093):0.00017979,(((((2_0_17:0.00000475,2_0_7:0.00000214):0.00000007,2_0_6:0.00000255):0.00000748,(2_0_14:0.00000365,2_0_0:0.00000560):0.00000614):0.00002136,((((2_0_10:0.00000103,2_0_16:0.00000241):0.00000075,(2_0_3:0.00000137,2_0_8:0.00000144):0.00000102):0.00001589,(2_0_4:0.00000228,2_0_13:0.00000285):0.00002024):0.00000116,((2_0_1:0.00000258,2_0_2:0.00000335):0.00001168,((2_0_18:0.00000495,((2_0_9:0.00000027,2_0_15:0.00000027):0.00000450,2_0_5:0.00000283):0.00000269):0.00000337,2_0_12:0.00001497):0.00000098):0.00000788):0.00001832):0.00008125,2_0_11:0.00013392):0.00018919):0.00008423):0.00010190):0.00040186);
[TREE] T10 ((((((((5_0_4:0.00000011,5_0_6:0.00000006):0.00003607,5_0_2:0.00003638):0.00010458,((((((4_0_8:0.00000354,((4_0_1:0.00000121,4_0_3:0.00000100):0.00000207,4_0_10:0.00000245):0.00000073):0.00000485,(4_0_11:0.00000047,(4_0_16:0.00000009,4_0_13:0.00000005):0.00000052):0.00001074):0.00000533,(4_0_7:0.00000696,4_0_14:0.00000722):0.00000617):0.00000105,((4_0_12:0.00000724,4_0_2:0.00000507):0.00000845,(4_0_17:0.00000279,4_0_4:0.00000307):0.00000963):0.00000629):0.00004189,4_0_6:0.00005780):0.00008219,(((4_0_18:0.00000088,4_0_9:0.00000065):0.00000057,4_0_0:0.00000148):0.00000038,(4_0_5:0.00000046,4_0_15:0.00000042):0.00000089):0.00007677):0.00009417):0.00000838,((((3_0_6:0.00000337,(3_0_18:0.00000096,3_0_7:0.00000091):0.00000239):0.00001862,(3_0_10:0.00001640,3_0_11:0.00000855):0.00001319):0.00006012,(((3_0_14:0.00000042,3_0_16:0.00000056):0.00000706,(3_0_8:0.00000190,3_0_17:0.00000184):0.00000393):0.00001041,((3_0_2:0.00000768,3_0_4:0.00000791):0.00000304,(3_0_3:0.00000588,3_0_1:0.00000767):0.00000142):0.00000538):0.00006454):0.00001315,(3_0_12:0.00009940,(3_0_0:0.00002055,((3_0_13:0.00000088,3_0_15:0.00000098):0.00000874,(3_0_5:0.00000142,3_0_9:0.00000382):0.00001195):0.00001120):0.00005826):0.00002798):0.00005110):0.00000843,((((((5_0_10:0.00000358,5_0_18:0.00000674):0.00000207,5_0_1:0.00000358):0.00001412,(5_0_14:0.00001023,5_0_15:0.00000861):0.00000809):0.00002030,((5_0_3:0.00000357,5_0_12:0.00000339):0.00000468,5_0_7:0.00000915):0.00002015):0.00007061,((5_0_0:0.00000257,(5_0_9:0.00000021,5_0_5:0.00000025):0.00000141):0.00001847,5_0_17:0.00001454):0.00005232):0.00000279,((5_0_11:0.00000562,(5_0_16:0.00000505,5_0_13:0.00000508):0.00000242):0.00001689,5_0_8:0.00002048):0.00006296):0.00009554):0.00019910,(((2_0_16:0.00000187,(2_0_8:0.00000058,2_0_6:0.00000043):0.00000148):0.00007462,((((2_0_11:0.00000513,(2_0_14:0.00000074,2_0_17:0.00000058):0.00000457):0.00001069,((2_0_1:0.00000047,2_0_12:0.00000029):0.00000149,(2_0_9:0.00000001,2_0_5:0.00000001):0.00000221):0.00002626):0.00000651,((2_0_18:0.00000545,(2_0_7:0.00000237,(2_0_2:0.00000114,2_0_4:0.00000215):0.00000117):0.00000591):0.00001422,2_0_3:0.00001444):0.00000767):0.00001070,((2_0_10:0.00000528,(2_0_15:0.00000250,2_0_13:0.00000178):0.00000443):0.00000314,2_0_0:0.00001595):0.00001275):0.00001353):0.00017637,((((1_0_16:0.00000223,(1_0_2:0.00000248,1_0_13:0.00000252):0.00000051):0.00002201,((1_0_15:0.00000021,1_0_1:0.00000030):0.00000274,1_0_18:0.00000323):0.00001611):0.00002088,1_0_17:0.00004558):0.00005785,(((1_0_9:0.00000828,1_0_0:0.00000845):0.00000886,(1_0_10:0.00000604,(1_0_3:0.00000281,(1_0_5:0.00000071,1_0_7:0.00000060):0.00000180):0.00000405):0.00001375):0.00001053,((((1_0_12:0.00000007,1_0_4:0.00000005):0.00000204,1_0_6:0.00000343):0.00000345,1_0_8:0.00000547):0.00001355,(1_0_11:0.00000250,1_0_14:0.00000187):0.00001704):0.00001223):0.00009532):0.00019220):0.00018249):0.00001225,((((6_0_9:0.00000602,((6_0_0:0.00000025,6_0_10:0.00000042):0.00000025,6_0_15:0.00000073):0.00000618):0.00008893,(6_0_16:0.00003353,((6_0_5:0.00000086,6_0_4:0.00000100):0.00001381,6_0_12:0.00001020):0.00001566):0.00003257):0.00001071,((((6_0_7:0.00000490,(6_0_18:0.00000169,6_0_2:0.00000168):0.00000132):0.00000536,6_0_1:0.00000724):0.00000782,((6_0_13:0.00000790,6_0_6:0.00000265):0.00000155,((6_0_3:0.00000002,6_0_8:0.00000003):0.00000055,6_0_17:0.00000103):0.00000582):0.00001062):0.00000408,(6_0_11:0.00001135,6_0_14:0.00000538):0.00001406):0.00004127):0.00032336,(((7_0_4:0.00000012,(7_0_11:0.00000007,7_0_14:0.00000006):0.00000004):0.00001497,7_0_6:0.00001486):0.00005802,(7_0_17:0.00008194,((((7_0_1:0.00000221,7_0_15:0.00000231):0.00000434,(7_0_3:0.00000055,7_0_18:0.00000073):0.00000892):0.00000201,((7_0_9:0.00000056,7_0_0:0.00000078):0.00000065,(7_0_5:0.00000174,7_0_13:0.00000091):0.00000011):0.00000536):0.00001445,((7_0_10:0.00000041,7_0_7:0.00000048):0.00000951,(7_0_8:0.00000374,(7_0_16:0.00000099,(7_0_12:0.00000144,7_0_2:0.00000130):0.00000010):0.00000119):0.00001311):0.00001295):0.00003240):0.00001650):0.00028761):0.00003270):0.00042589,0_0_0:0.00088385);

[PARTITIONS] csSimUnlinked_01 [T01 csSim_unlinked_1 500]
[PARTITIONS] csSimUnlinked_02 [T02 csSim_unlinked_2 500]
[PARTITIONS] csSimUnlinked_03 [T03 csSim_unlinked_3 500]
[PARTITIONS] csSimUnlinked_04 [T04 csSim_unlinked_4 500]
[PARTITIONS] csSimUnlinked_05 [T05 csSim_unlinked_5 500]
[PARTITIONS] csSimUnlinked_06 [T06 csSim_unlinked_6 500]
[PARTITIONS] csSimUnlinked_07 [T07 csSim_unlinked_7 500]
[PARTITIONS] csSimUnlinked_08 [T08 csSim_unlinked_8 500]
[PARTITIONS] csSimUnlinked_09 [T09 csSim_unlinked_9 500]
[PARTITIONS] csSimUnlinked_10 [T10 csSim_unlinked_10 500]

[EVOLVE] csSimUnlinked_01 1 data_01
csSimUnlinked_02 1 data_02
csSimUnlinked_03 1 data_03
csSimUnlinked_04 1 data_04
csSimUnlinked_05 1 data_05
csSimUnlinked_06 1 data_06
csSimUnlinked_07 1 data_07
csSimUnlinked_08 1 data_08
csSimUnlinked_09 1 data_09
csSimUnlinked_10 1 data_10
