
            set terminal png size 600,400 truecolor
            set output "../bam/seqS1S2.stats/acgt-cycles.png"
            set grid xtics ytics y2tics back lc rgb "#cccccc"
            set style line 1 linecolor rgb "green"
            set style line 2 linecolor rgb "red"
            set style line 3 linecolor rgb "black"
            set style line 4 linecolor rgb "blue"
            set style increment user
            set ylabel "Base content [%]"
            set xlabel "Read Cycle"
            set yrange [0:100]
            set title "seqS1S2.sorted.bam.stats"
            plot '-' w l ti 'A', '-' w l ti 'C', '-' w l ti 'G', '-' w l ti 'T'
        2	12.17
3	11.67
4	12.83
5	14.33
6	12.83
7	11.83
8	11.00
9	8.17
10	12.67
11	13.50
12	11.50
13	12.50
14	12.00
15	13.67
16	12.50
17	10.83
18	12.50
19	11.67
20	10.00
21	10.50
22	11.00
23	11.67
24	11.00
25	11.33
26	10.83
27	13.17
28	12.83
29	13.17
30	12.17
31	11.83
32	11.50
33	10.50
34	10.50
35	11.00
36	13.33
37	11.50
38	12.00
39	10.83
40	13.17
41	12.50
42	11.83
43	13.50
44	9.67
45	10.83
46	12.00
47	10.33
48	12.33
49	11.33
50	10.67
51	11.50
52	11.50
53	12.67
54	11.67
55	10.50
56	11.00
57	11.00
58	10.33
59	8.83
60	13.50
61	12.50
62	11.83
63	11.00
64	10.33
65	12.50
66	10.83
67	12.50
68	12.00
69	10.67
70	12.67
71	13.00
72	12.83
73	10.17
74	8.50
75	14.17
76	9.50
77	10.00
78	10.33
79	9.67
80	10.50
81	10.67
82	10.00
83	10.83
84	7.83
85	10.67
86	13.17
87	11.83
88	10.00
89	11.33
90	10.67
91	10.50
92	12.83
93	10.50
94	11.67
95	9.83
96	11.67
97	11.33
98	10.83
99	10.33
100	10.33
101	12.83
102	8.83
103	9.83
104	12.50
105	8.67
106	11.00
107	12.50
108	9.50
109	10.17
110	10.33
111	12.33
112	11.83
113	10.83
114	10.67
115	10.17
116	9.67
117	10.83
118	9.67
119	8.50
120	10.83
121	9.67
122	11.33
123	8.83
124	10.83
125	13.67
126	10.17
127	13.50
128	11.33
129	10.00
130	10.17
131	11.17
132	12.00
133	8.67
134	9.17
135	12.33
136	10.17
137	12.17
138	11.17
139	10.17
140	9.67
141	10.83
142	12.17
143	11.17
144	10.00
145	11.17
146	12.83
147	12.00
148	9.33
149	11.83
150	10.67
151	11.17
end
2	28.17
3	24.67
4	23.00
5	24.00
6	26.67
7	27.33
8	26.17
9	25.50
10	27.50
11	21.33
12	25.50
13	23.50
14	25.83
15	23.50
16	22.67
17	26.33
18	26.83
19	29.17
20	24.17
21	27.00
22	25.33
23	27.67
24	25.50
25	26.17
26	27.00
27	24.33
28	25.67
29	26.17
30	27.67
31	27.67
32	25.33
33	26.17
34	24.50
35	24.83
36	26.17
37	26.17
38	27.33
39	25.67
40	25.17
41	27.33
42	25.50
43	27.33
44	26.83
45	23.50
46	23.00
47	23.33
48	27.50
49	23.00
50	28.00
51	24.17
52	24.67
53	22.50
54	25.50
55	26.17
56	28.17
57	25.67
58	24.17
59	22.50
60	25.83
61	22.67
62	27.00
63	25.17
64	24.33
65	25.00
66	25.33
67	24.00
68	24.17
69	25.67
70	28.33
71	24.83
72	24.83
73	26.00
74	26.33
75	24.50
76	22.17
77	23.83
78	25.67
79	23.83
80	24.67
81	24.83
82	28.50
83	22.33
84	24.17
85	24.17
86	25.17
87	25.83
88	22.67
89	24.00
90	24.50
91	26.67
92	24.50
93	23.67
94	28.17
95	24.50
96	27.17
97	24.83
98	28.17
99	25.33
100	24.67
101	24.33
102	26.17
103	24.00
104	26.83
105	26.33
106	27.83
107	25.83
108	24.17
109	26.83
110	25.50
111	26.00
112	25.00
113	26.17
114	25.67
115	25.00
116	26.17
117	27.83
118	27.00
119	26.17
120	25.33
121	25.83
122	25.50
123	27.33
124	23.50
125	26.33
126	24.67
127	28.00
128	28.67
129	26.67
130	28.00
131	23.17
132	25.67
133	26.17
134	25.33
135	25.83
136	24.67
137	26.00
138	22.83
139	25.67
140	25.33
141	23.67
142	25.33
143	25.50
144	29.50
145	24.67
146	22.67
147	24.17
148	25.50
149	25.00
150	24.33
151	24.67
end
2	49.50
3	51.83
4	55.67
5	52.17
6	51.00
7	50.00
8	54.33
9	57.17
10	50.00
11	55.33
12	52.83
13	54.33
14	53.33
15	54.83
16	55.00
17	53.33
18	51.17
19	49.50
20	57.33
21	54.17
22	54.17
23	52.17
24	53.83
25	52.67
26	52.50
27	53.17
28	51.00
29	51.17
30	50.83
31	52.83
32	55.17
33	53.83
34	54.67
35	52.67
36	51.50
37	54.33
38	52.50
39	54.83
40	51.17
41	53.17
42	51.83
43	50.67
44	52.33
45	57.83
46	54.33
47	56.67
48	52.67
49	56.50
50	53.00
51	54.67
52	54.50
53	54.50
54	53.17
55	54.33
56	51.67
57	54.83
58	56.50
59	57.67
60	50.83
61	54.67
62	53.83
63	55.00
64	57.33
65	52.50
66	55.67
67	53.33
68	54.83
69	55.50
70	49.67
71	53.83
72	51.00
73	55.17
74	57.50
75	53.33
76	57.67
77	55.83
78	54.33
79	56.83
80	53.17
81	55.17
82	52.83
83	57.83
84	57.00
85	55.67
86	53.00
87	52.33
88	56.17
89	55.67
90	56.17
91	53.83
92	52.67
93	57.00
94	51.67
95	54.83
96	52.00
97	52.67
98	54.33
99	56.67
100	53.50
101	52.83
102	55.00
103	56.67
104	51.67
105	56.17
106	52.00
107	51.33
108	54.33
109	56.67
110	56.50
111	52.17
112	52.67
113	54.17
114	56.00
115	54.50
116	55.17
117	52.17
118	52.67
119	56.17
120	56.33
121	55.00
122	55.67
123	54.67
124	57.50
125	50.83
126	55.33
127	50.00
128	51.50
129	53.50
130	53.17
131	57.83
132	52.17
133	56.17
134	55.83
135	53.33
136	55.67
137	52.83
138	57.50
139	55.33
140	55.50
141	53.33
142	54.00
143	55.17
144	54.00
145	53.33
146	56.33
147	55.67
148	58.50
149	52.17
150	57.17
151	55.67
end
2	10.17
3	11.83
4	8.50
5	9.50
6	9.50
7	10.83
8	8.50
9	9.17
10	9.83
11	9.83
12	10.17
13	9.67
14	8.83
15	8.00
16	9.83
17	9.50
18	9.50
19	9.67
20	8.50
21	8.33
22	9.50
23	8.50
24	9.67
25	9.83
26	9.67
27	9.33
28	10.50
29	9.50
30	9.33
31	7.67
32	8.00
33	9.50
34	10.33
35	11.50
36	9.00
37	8.00
38	8.17
39	8.67
40	10.50
41	7.00
42	10.83
43	8.50
44	11.17
45	7.83
46	10.67
47	9.67
48	7.50
49	9.17
50	8.33
51	9.67
52	9.33
53	10.33
54	9.67
55	9.00
56	9.17
57	8.50
58	9.00
59	11.00
60	9.83
61	10.17
62	7.33
63	8.83
64	8.00
65	10.00
66	8.17
67	10.17
68	9.00
69	8.17
70	9.33
71	8.33
72	11.33
73	8.67
74	7.67
75	8.00
76	10.67
77	10.33
78	9.67
79	9.67
80	11.67
81	9.33
82	8.67
83	9.00
84	11.00
85	9.50
86	8.67
87	10.00
88	11.17
89	9.00
90	8.67
91	9.00
92	10.00
93	8.83
94	8.50
95	10.83
96	9.17
97	11.17
98	6.67
99	7.67
100	11.50
101	10.00
102	10.00
103	9.50
104	9.00
105	8.83
106	9.17
107	10.33
108	12.00
109	6.33
110	7.67
111	9.50
112	10.50
113	8.83
114	7.67
115	10.33
116	9.00
117	9.17
118	10.67
119	9.17
120	7.50
121	9.50
122	7.50
123	9.17
124	8.17
125	9.17
126	9.83
127	8.50
128	8.50
129	9.83
130	8.67
131	7.83
132	10.17
133	9.00
134	9.67
135	8.50
136	9.50
137	9.00
138	8.50
139	8.83
140	9.50
141	12.17
142	8.50
143	8.17
144	6.50
145	10.83
146	8.17
147	8.17
148	6.67
149	11.00
150	7.83
151	8.50
end
