
            set terminal png size 600,400 truecolor
            set output "../bam/seqS1S2.stats/mism-per-cycle.png"
            set grid xtics ytics y2tics back lc rgb "#cccccc"
            set style line 1 linecolor rgb "#e40000"
            set style line 2 linecolor rgb "#ff9f00"
            set style line 3 linecolor rgb "#bbbb00"
            set style line 4 linecolor rgb "#4ebd68"
            set style line 5 linecolor rgb "#0061ff"
            set style increment user
            set key left top
            
            set ylabel "Number of mismatches"
            set xlabel "Read Cycle"
            set style fill solid border -1
            set title "seqS1S2.sorted.bam.stats"
            set xrange [-1:151]
            plot '-' w l ti 'Base Quality>30', \
                 '-' w l ti '30>=Q>20', \
                 '-' w l ti '20>=Q>10', \
                 '-' w l ti '10>=Q', \
                 '-' w l ti "N's"
        22
24
26
26
20
30
28
23
27
35
23
31
26
33
31
31
23
19
23
30
29
25
20
29
30
23
31
22
30
30
30
28
31
30
24
30
35
27
30
29
24
25
30
25
29
31
27
24
27
29
21
29
24
30
24
28
33
17
27
27
26
30
23
21
24
31
25
30
29
26
20
28
21
34
23
24
24
23
25
28
26
21
18
23
28
28
24
27
25
25
25
29
25
26
25
20
29
17
14
17
35
26
34
26
27
27
19
23
28
28
24
20
27
21
26
23
19
22
26
25
24
17
28
30
24
28
21
23
26
26
32
22
28
28
25
33
25
17
31
23
31
32
18
32
27
22
16
36
29
34
0
end
4
1
4
1
2
1
0
1
2
2
0
1
0
0
0
2
1
0
1
1
1
4
1
1
0
3
1
1
0
1
0
0
3
2
1
0
1
2
2
3
0
4
1
1
1
0
4
1
2
2
5
2
2
4
4
4
3
3
2
1
0
3
4
1
2
1
3
2
4
1
6
2
1
2
3
4
1
3
3
1
3
3
3
2
3
2
3
2
2
2
3
2
1
1
3
1
4
5
4
4
6
3
4
6
2
1
1
5
2
2
3
4
2
4
1
1
2
2
3
2
3
1
2
3
2
1
1
3
3
3
4
2
0
3
2
1
3
5
2
5
0
1
1
1
8
2
3
0
2
3
0
end
3
2
2
5
2
1
1
0
0
0
1
1
1
1
4
1
2
0
2
1
0
1
1
1
1
0
0
0
0
1
2
2
2
0
0
0
0
2
0
0
2
0
1
1
1
0
0
2
1
1
0
0
0
0
1
0
1
0
1
1
0
0
0
0
1
0
0
0
1
0
2
0
1
2
1
0
0
0
0
1
2
0
0
1
0
2
2
1
0
0
1
1
2
0
0
1
0
0
0
0
0
1
0
0
0
1
1
0
0
0
0
0
1
1
3
1
1
0
1
3
2
0
1
1
0
0
3
0
0
0
0
1
1
0
2
1
2
2
0
2
2
0
2
1
0
1
1
2
1
3
0
end
0
0
0
0
0
0
0
0
0
0
0
0
1
1
1
1
0
1
0
0
0
0
1
0
1
0
2
0
2
1
0
0
1
0
0
0
2
2
0
0
2
1
1
0
1
1
1
0
0
1
2
0
1
3
1
3
1
0
0
0
0
2
1
1
1
1
3
2
1
2
2
1
2
0
1
2
3
0
1
4
0
1
0
1
1
1
2
1
0
0
2
0
2
0
2
2
2
0
1
0
1
2
1
2
0
0
2
0
1
1
0
1
0
1
1
0
1
0
0
0
1
0
2
0
2
0
0
2
1
0
1
1
0
1
2
1
0
2
1
1
1
1
0
1
1
0
0
0
0
0
0
end
0
0
0
0
0
0
0
0
0
0
0
0
0
0
0
0
0
0
0
0
0
0
0
0
0
0
0
0
0
0
0
0
0
0
0
0
0
0
0
0
0
0
0
0
0
0
0
0
0
0
0
0
0
0
0
0
0
0
0
0
0
0
0
0
0
0
0
0
0
0
0
0
0
0
0
0
0
0
0
0
0
0
0
0
0
0
0
0
0
0
0
0
0
0
0
0
0
0
0
0
0
0
0
0
0
0
0
0
0
0
0
0
0
0
0
0
0
0
0
0
0
0
0
0
0
0
0
0
0
0
0
0
0
0
0
0
0
0
0
0
0
0
0
0
0
0
0
0
0
0
0
end
