Tree file : INDELible V1.03 (best viewed cut and paste in e.g. excel)

N.B. Simulation blocks with no random trees will have their trees printed for the first replicate only.

FILE	TREE	NTAXA	REP	PART	LENGTH	DEPTH	MAX PAIRWISE DISTANCE	TREE STRING

data_01	T01	41	1	1	0.853405	0.34158	0.625143	(0_0_0:0.34158015,((((8_0_3:0.00009121,(8_0_4:0.00008378,8_0_2:0.00002801):0.00000107):0.00004234,8_0_0:0.00017245):0.00027722,8_0_1:0.00045075):0.08578692,((((1_0_0:0.00022447,((1_0_3:0.00007398,1_0_4:0.00002573):0.00035603,1_0_2:0.00040007):0.00009995):0.00060055,1_0_1:0.00118845):0.00735410,(4_0_0:0.00344237,((4_0_2:0.00216463,4_0_1:0.00097673):0.00041668,(4_0_4:0.00002495,4_0_3:0.00007292):0.00175917):0.00108513):0.03158811):0.01687209,(((5_0_0:0.00039701,5_0_2:0.00090136):0.00004166,((5_0_1:0.00012033,5_0_3:0.00006717):0.00014063,5_0_4:0.00013513):0.00013860):0.02908686,(((((6_0_0:0.00003129,6_0_2:0.00009772):0.00067143,((6_0_3:0.00004032,6_0_4:0.00002969):0.00006013,6_0_1:0.00010270):0.00189618):0.01104847,(3_0_2:0.00022979,((3_0_0:0.00008701,3_0_1:0.00003734):0.00015321,(3_0_3:0.00015641,3_0_4:0.00014328):0.00004204):0.00004005):0.00890426):0.00535825,((2_0_3:0.00026104,2_0_1:0.00029123):0.00143278,(2_0_2:0.00037617,(2_0_0:0.00026479,2_0_4:0.00031258):0.00006069):0.00078476):0.01912069):0.00148128,(((7_0_2:0.00001680,7_0_3:0.00001106):0.00062237,(7_0_0:0.00019398,7_0_1:0.00005684):0.00028979):0.00044290,7_0_4:0.00072584):0.03097398):0.00419766):0.00265272):0.12741166):0.10402487);

data_02	T02	41	1	1	0.832548	0.366379	0.615303	(0_0_0:0.24892442,((((((2_0_2:0.00238188,(((2_0_1:0.00005122,2_0_3:0.00006487):0.00015747,2_0_0:0.00021732):0.00018181,2_0_4:0.00010517):0.00204514):0.01045509,((3_0_4:0.00109626,(3_0_3:0.00021194,(3_0_0:0.00012574,(3_0_2:0.00008122,3_0_1:0.00012011):0.00002474):0.00017162):0.00079014):0.00364713,(6_0_2:0.00044449,((6_0_0:0.00009290,(6_0_4:0.00000566,6_0_3:0.00000670):0.00004978):0.00029863,6_0_1:0.00055608):0.00121605):0.01935793):0.00359666):0.00361287,((7_0_2:0.00014954,7_0_1:0.00008156):0.00021594,((7_0_4:0.00009721,7_0_3:0.00018344):0.00003118,7_0_0:0.00035996):0.00090212):0.03726562):0.00286203,(((5_0_4:0.00007867,5_0_3:0.00005087):0.00037689,5_0_1:0.00019935):0.00001457,(5_0_0:0.00013970,5_0_2:0.00015464):0.00051255):0.02169557):0.00339367,((1_0_1:0.00018996,(1_0_0:0.00026831,((1_0_4:0.00005419,1_0_2:0.00008616):0.00006724,1_0_3:0.00007390):0.00001689):0.00019960):0.00627644,(4_0_0:0.00072758,((4_0_2:0.00017972,(4_0_1:0.00001894,4_0_4:0.00002868):0.00006251):0.00002799,4_0_3:0.00011591):0.00069819):0.01247263):0.00910044):0.06405765,((8_0_3:0.00101662,(8_0_1:0.00053473,8_0_2:0.00125651):0.00032464):0.00038848,(8_0_0:0.00000345,8_0_4:0.00000270):0.00103274):0.20723998):0.15716928);

data_03	T03	41	1	1	1.02316	0.429512	0.713216	(0_0_0:0.28370326,((8_0_3:0.00133663,((8_0_1:0.00003104,8_0_2:0.00006423):0.00025808,(8_0_0:0.00012280,8_0_4:0.00009005):0.00013986):0.00025886):0.15838719,((((((4_0_1:0.00011471,4_0_0:0.00018092):0.00001511,4_0_4:0.00039552):0.00013007,4_0_3:0.00119615):0.00009290,4_0_2:0.00021308):0.02514518,(((1_0_3:0.00000300,1_0_2:0.00001961):0.00022214,(1_0_0:0.00011684,1_0_1:0.00005387):0.00024954):0.00185282,1_0_4:0.00203090):0.01096168):0.02682817,(((5_0_4:0.00044341,(5_0_2:0.00023860,5_0_1:0.00016751):0.00006123):0.00136035,(5_0_0:0.00002515,5_0_3:0.00002246):0.00054461):0.02236190,(((7_0_1:0.00005151,7_0_3:0.00027106):0.00171123,((7_0_2:0.00009661,7_0_4:0.00009789):0.00029777,7_0_0:0.00019569):0.00115500):0.01355563,((((2_0_2:0.00001295,2_0_1:0.00010366):0.00001689,2_0_0:0.00007412):0.00084663,(2_0_4:0.00000380,2_0_3:0.00000147):0.00090013):0.04760735,(((((3_0_1:0.00010183,3_0_3:0.00011071):0.00003456,3_0_2:0.00008417):0.00007768,3_0_4:0.00027907):0.00056829,3_0_0:0.00091122):0.00481677,((6_0_0:0.00010139,6_0_4:0.00032556):0.00119487,(6_0_2:0.00105355,(6_0_1:0.00031484,6_0_3:0.00035055):0.00008525):0.00088441):0.01697606):0.00750953):0.00462691):0.00584222):0.00610169):0.23230426):0.13206277);

data_04	T04	41	1	1	0.79434	0.331704	0.50944	(((((7_0_1:0.00037449,((7_0_2:0.00002741,7_0_0:0.00000813):0.00006188,(7_0_3:0.00002261,7_0_4:0.00000619):0.00021182):0.00208671):0.03018668,((((2_0_3:0.00040035,(2_0_2:0.00003955,2_0_0:0.00003220):0.00020974):0.00031412,(2_0_4:0.00032675,2_0_1:0.00016386):0.00050532):0.01956396,(((3_0_3:0.00041133,3_0_4:0.00026172):0.00049999,((3_0_0:0.00011290,3_0_2:0.00009580):0.00015512,3_0_1:0.00006750):0.00010393):0.00276257,(((6_0_0:0.00044810,6_0_2:0.00017973):0.00000288,(6_0_4:0.00000357,6_0_1:0.00000175):0.00044862):0.00320455,6_0_3:0.00702708):0.00358896):0.01601741):0.00695460,(((5_0_0:0.00008589,5_0_4:0.00003430):0.00031477,(5_0_2:0.00005474,5_0_1:0.00003796):0.00027786):0.00025426,5_0_3:0.00056371):0.01768384):0.00030284):0.00709205,((((4_0_3:0.00081358,4_0_2:0.00048687):0.00015621,4_0_0:0.00126661):0.00075799,(4_0_4:0.00002665,4_0_1:0.00006992):0.00062908):0.02374018,((1_0_2:0.00102428,1_0_0:0.00014449):0.00013131,((1_0_4:0.00002163,1_0_1:0.00001989):0.00032228,1_0_3:0.00078731):0.00012158):0.01789107):0.03497555):0.07717977,(8_0_4:0.00016471,((8_0_0:0.00018575,8_0_1:0.00015049):0.00017757,(8_0_3:0.00010481,8_0_2:0.00006319):0.00034434):0.00008862):0.20095275):0.13021332,0_0_0:0.17773590);

data_05	T05	41	1	1	0.802296	0.305196	0.593395	(((8_0_2:0.00893296,((8_0_4:0.00049984,8_0_3:0.00271988):0.00085697,(8_0_0:0.00004660,8_0_1:0.00003795):0.00113005):0.00118798):0.07142815,((((1_0_4:0.00076933,1_0_3:0.00015963):0.00107862,((1_0_2:0.00021189,1_0_0:0.00011207):0.00005584,1_0_1:0.00019341):0.00165098):0.02886858,(4_0_4:0.00059255,((4_0_0:0.00037518,(4_0_2:0.00022436,4_0_3:0.00049934):0.00024412):0.00023160,4_0_1:0.00067749):0.00038311):0.01806299):0.01685175,((((((2_0_0:0.00013336,2_0_1:0.00014837):0.00028065,(2_0_3:0.00035647,2_0_2:0.00037861):0.00001993):0.00041646,2_0_4:0.00188930):0.01607282,((3_0_4:0.00051430,(((3_0_0:0.00009014,3_0_2:0.00003594):0.00006174,3_0_1:0.00010342):0.00036729,3_0_3:0.00013557):0.00041758):0.00986261,((6_0_1:0.00012323,6_0_4:0.00016390):0.00166370,((6_0_3:0.00001533,6_0_2:0.00002069):0.00007248,6_0_0:0.00002416):0.00083886):0.00772791):0.00559984):0.00204290,((7_0_3:0.00064135,7_0_4:0.00090956):0.00003230,(7_0_1:0.00005977,(7_0_2:0.00005137,7_0_0:0.00006094):0.00014991):0.00046725):0.00910072):0.00617821,(((5_0_4:0.00000003,5_0_2:0.00000014):0.00034741,(5_0_1:0.00006117,5_0_3:0.00009480):0.00024728):0.00105135,5_0_0:0.00061138):0.01645700):0.01235727):0.08014610):0.16041406,0_0_0:0.30519575);

data_06	T06	41	1	1	0.919685	0.489672	0.647969	((((8_0_3:0.00045831,(8_0_0:0.00001738,(8_0_1:0.00022917,8_0_2:0.00014928):0.00000326):0.00036695):0.00057278,8_0_4:0.00373542):0.29651182,(((((4_0_1:0.00018780,(4_0_0:0.00018681,4_0_3:0.00015828):0.00003699):0.00022668,4_0_4:0.00049419):0.00000617,4_0_2:0.00042177):0.01193569,((1_0_4:0.00006150,1_0_1:0.00009685):0.00024381,((1_0_0:0.00001543,1_0_2:0.00006197):0.00021901,1_0_3:0.00009220):0.00070106):0.00660073):0.00779895,(((5_0_1:0.00011843,5_0_4:0.00009334):0.00004449,((5_0_2:0.00007373,5_0_0:0.00009771):0.00000553,5_0_3:0.00000862):0.00027210):0.03952171,(((7_0_0:0.00061859,(7_0_2:0.00012230,7_0_3:0.00023285):0.00016053):0.00193447,(7_0_4:0.00005580,7_0_1:0.00004082):0.00098880):0.00729826,((((3_0_3:0.00022447,3_0_0:0.00017328):0.00117378,((3_0_4:0.00012556,3_0_1:0.00009568):0.00006442,3_0_2:0.00015156):0.00035359):0.00345093,(((6_0_1:0.00058402,6_0_4:0.00015111):0.00049799,(6_0_0:0.00009303,6_0_2:0.00027129):0.00019582):0.00249630,6_0_3:0.00122734):0.00768780):0.00771677,(2_0_1:0.00157990,((2_0_3:0.00007523,2_0_0:0.00008379):0.00020031,(2_0_2:0.00011017,2_0_4:0.00020534):0.00028659):0.00080519):0.01308660):0.00150803):0.00690399):0.00496079):0.13214436):0.18942481,0_0_0:0.15829673);

data_07	T07	41	1	1	0.649735	0.225686	0.409599	(0_0_0:0.18391272,((((8_0_0:0.00039157,8_0_4:0.00023238):0.00023238,8_0_3:0.00086297):0.00072794,(8_0_2:0.00025024,8_0_1:0.00017889):0.00351267):0.16932302,((((5_0_1:0.00008753,(5_0_3:0.00002812,5_0_0:0.00003354):0.00004427):0.00089774,(5_0_4:0.00030881,5_0_2:0.00023405):0.00321606):0.02569455,(((7_0_2:0.00014992,7_0_1:0.00012396):0.00041538,(7_0_3:0.00063076,(7_0_0:0.00007439,7_0_4:0.00005457):0.00013866):0.00024061):0.01218536,(((((3_0_4:0.00003904,3_0_2:0.00012168):0.00047849,(3_0_0:0.00003854,3_0_1:0.00005205):0.00014970):0.00021143,3_0_3:0.00072183):0.00785275,(((6_0_4:0.00005850,6_0_2:0.00010452):0.00028668,6_0_0:0.00044213):0.00000883,(6_0_1:0.00023709,6_0_3:0.00008461):0.00011948):0.01252241):0.01066179,((2_0_3:0.00039054,2_0_0:0.00081864):0.00004594,(2_0_4:0.00045743,(2_0_1:0.00010761,2_0_2:0.00001401):0.00014085):0.00027983):0.01401324):0.00368379):0.00561572):0.01369322,((((1_0_3:0.00015153,1_0_0:0.00006769):0.00012940,(1_0_4:0.00005528,1_0_1:0.00008107):0.00004990):0.00349413,1_0_2:0.00218739):0.01221048,(4_0_1:0.00299901,(4_0_4:0.00077890,(4_0_2:0.00026913,(4_0_3:0.00001208,4_0_0:0.00002382):0.00043092):0.00013445):0.00086629):0.02706981):0.01501503):0.05347338):0.05260002);

data_08	T08	41	1	1	0.670321	0.317672	0.450997	(0_0_0:0.13332441,((((((7_0_1:0.00048381,7_0_4:0.00037622):0.00126966,(7_0_0:0.00068390,(7_0_2:0.00002034,7_0_3:0.00002343):0.00046177):0.00228123):0.00889195,((((((3_0_0:0.00001246,3_0_1:0.00003125):0.00027708,3_0_4:0.00008755):0.00000760,3_0_3:0.00008741):0.00007794,3_0_2:0.00038200):0.01766070,((((6_0_3:0.00002292,6_0_1:0.00001137):0.00003343,6_0_0:0.00017408):0.00011269,6_0_4:0.00026570):0.00178975,6_0_2:0.00157809):0.00739065):0.00723095,((2_0_0:0.00020601,(2_0_2:0.00007894,2_0_4:0.00019202):0.00040749):0.00678222,(2_0_1:0.00029463,2_0_3:0.00015379):0.00153281):0.01134155):0.00229960):0.00736621,(5_0_1:0.00041179,((5_0_4:0.00005063,(5_0_2:0.00005319,5_0_0:0.00001297):0.00000124):0.00024811,5_0_3:0.00029589):0.00059544):0.02912758):0.00673259,(((1_0_0:0.00009078,1_0_3:0.00018257):0.00042536,(1_0_2:0.00034819,(1_0_4:0.00006180,1_0_1:0.00007390):0.00019903):0.00031875):0.01393720,(((4_0_1:0.00002229,4_0_0:0.00001515):0.00046836,4_0_3:0.00054505):0.00164008,(4_0_2:0.00019021,4_0_4:0.00060717):0.00186091):0.00833766):0.01315505):0.05654600,((8_0_3:0.00012003,(8_0_2:0.00003029,8_0_1:0.00001377):0.00011041):0.00000080,(8_0_0:0.00013856,8_0_4:0.00011272):0.00005722):0.21650282):0.10097366);

data_09	T09	41	1	1	0.981409	0.404432	0.718283	((((((((1_0_4:0.00005983,1_0_0:0.00006098):0.00002492,1_0_2:0.00008693):0.00014454,1_0_3:0.00016557):0.00115020,1_0_1:0.00134697):0.01439243,(((4_0_4:0.00004264,4_0_1:0.00002664):0.00006285,4_0_3:0.00009910):0.00036503,(4_0_0:0.00060787,4_0_2:0.00051994):0.00017448):0.01481773):0.00410580,(((((7_0_2:0.00011476,7_0_3:0.00005638):0.00029435,7_0_0:0.00020256):0.00024434,(7_0_1:0.00042636,7_0_4:0.00048786):0.00102106):0.01346909,(((((3_0_3:0.00011746,3_0_1:0.00007238):0.00001364,3_0_0:0.00026622):0.00395951,(3_0_4:0.00037389,3_0_2:0.00068342):0.00155882):0.00583324,((6_0_0:0.00016155,(6_0_2:0.00008733,6_0_3:0.00014049):0.00002861):0.00125961,(6_0_1:0.00004626,6_0_4:0.00012844):0.00077353):0.00567771):0.00840004,((2_0_1:0.00090666,(2_0_2:0.00065605,(2_0_3:0.00015190,2_0_0:0.00031393):0.00022790):0.00030131):0.00039930,2_0_4:0.00051836):0.02323318):0.00211972):0.01036712,(((5_0_0:0.00010965,(5_0_3:0.00003575,5_0_1:0.00003869):0.00002380):0.00101317,5_0_2:0.00060044):0.00008404,5_0_4:0.00109551):0.02140997):0.00845461):0.17083252,(8_0_1:0.00102123,(8_0_3:0.00009716,((8_0_4:0.00003553,8_0_2:0.00004820):0.00003875,8_0_0:0.00011305):0.00007353):0.00056162):0.15045408):0.18806818,0_0_0:0.31385066);

data_10	T10	41	1	1	1.21099	0.707142	0.955536	(((((8_0_1:0.00021464,8_0_2:0.00025699):0.00028070,(8_0_4:0.00058621,8_0_0:0.00043356):0.00107924):0.00013385,8_0_3:0.00143894):0.19765660,((((((1_0_0:0.00023566,1_0_2:0.00039942):0.00000532,1_0_4:0.00003119):0.00042157,1_0_1:0.00076798):0.00014060,1_0_3:0.00072476):0.03210100,(((4_0_1:0.00002405,4_0_0:0.00015316):0.00004820,(4_0_2:0.00014213,4_0_4:0.00021785):0.00003991):0.00007960,4_0_3:0.00041216):0.01836986):0.01606174,(((5_0_3:0.00023014,5_0_4:0.00030545):0.00197342,(5_0_0:0.00013104,(5_0_2:0.00012362,5_0_1:0.00009893):0.00000124):0.00114502):0.00854571,((((2_0_2:0.00082699,((2_0_1:0.00002454,2_0_0:0.00005581):0.00041165,2_0_3:0.00032361):0.00019401):0.00012350,2_0_4:0.00009553):0.00935578,(((3_0_4:0.00029812,3_0_1:0.00018387):0.00150093,((3_0_3:0.00013405,3_0_2:0.00006546):0.00063364,3_0_0:0.00079826):0.00040994):0.00356742,(6_0_1:0.00038117,((6_0_0:0.00007076,6_0_4:0.00019357):0.00004288,(6_0_2:0.00000203,6_0_3:0.00000347):0.00005698):0.00039033):0.01043876):0.01647260):0.00704677,((((7_0_3:0.00002506,7_0_4:0.00000532):0.00004393,7_0_2:0.00007920):0.00004724,7_0_0:0.00044859):0.00013066,7_0_1:0.00078090):0.02409428):0.00583661):0.02074639):0.06355596):0.04893895,0_0_0:0.70714157);
