********************************************************************************
INDELible V1.03 by Will Fletcher : Simulation began at: Tue Nov 29 13:24:21 2016
********************************************************************************

  * Block 1 was completed in 0.17 seconds.

********************************************************************************


  * Block 2 was completed in 0.17 seconds.

********************************************************************************


  * Block 3 was completed in 0.16 seconds.

********************************************************************************


  * Block 4 was completed in 0.17 seconds.

********************************************************************************


  * Block 5 was completed in 0.16 seconds.

********************************************************************************


  * Block 6 was completed in 0.17 seconds.

********************************************************************************


  * Block 7 was completed in 0.17 seconds.

********************************************************************************


  * Block 8 was completed in 0.17 seconds.

********************************************************************************


  * Block 9 was completed in 0.17 seconds.

********************************************************************************


  * Block 10 was completed in 0.16 seconds.

********************************************************************************

  * Simulation completed. Whole batch took: 1.69 seconds.

INDELible V1.03 Simulations completed at: Tue Nov 29 13:24:22 2016

********************************************************************************


 Original Control File 

-----------------------


[TYPE] NUCLEOTIDE 1 

[SETTINGS]
    [fastaextension] fasta  

[MODEL] csSim_unlinked_1
    [submodel] GTR 0.080650 0.018328 0.018693 0.041338 0.027333 
    [statefreq] 0.028834 0.684789 0.029148 0.257230 
[rates] 0 13.642683 0 

[MODEL] csSim_unlinked_2
    [submodel] GTR 0.102278 0.000138 0.027552 0.031800 0.055350 
    [statefreq] 0.100455 0.240213 0.099183 0.560149 
[rates] 0 1.906152 0 

[MODEL] csSim_unlinked_3
    [submodel] GTR 0.115151 0.009473 0.045876 0.022843 0.028418 
    [statefreq] 0.304532 0.037772 0.088253 0.569443 
[rates] 0 7.662925 0 

[MODEL] csSim_unlinked_4
    [submodel] GTR 0.099645 0.014983 0.023639 0.018034 0.032906 
    [statefreq] 0.305858 0.111533 0.190210 0.392399 
[rates] 0 1.467419 0 

[MODEL] csSim_unlinked_5
    [submodel] GTR 0.101813 0.003894 0.028413 0.023106 0.058598 
    [statefreq] 0.091227 0.165834 0.593096 0.149843 
[rates] 0 66.496190 0 

[MODEL] csSim_unlinked_6
    [submodel] GTR 0.082498 0.001241 0.021975 0.023182 0.041052 
    [statefreq] 0.135447 0.209206 0.396015 0.259332 
[rates] 0 54.137719 0 

[MODEL] csSim_unlinked_7
    [submodel] GTR 0.064029 0.009581 0.019427 0.026357 0.070870 
    [statefreq] 0.182024 0.303720 0.483555 0.030702 
[rates] 0 9.828212 0 

[MODEL] csSim_unlinked_8
    [submodel] GTR 0.108681 0.009395 0.018634 0.023920 0.047201 
    [statefreq] 0.231516 0.502004 0.239970 0.026510 
[rates] 0 1.445354 0 

[MODEL] csSim_unlinked_9
    [submodel] GTR 0.104945 0.018139 0.032861 0.029460 0.058679 
    [statefreq] 0.121286 0.013467 0.670245 0.195001 
[rates] 0 21.454355 0 

[MODEL] csSim_unlinked_10
    [submodel] GTR 0.085424 0.001681 0.030352 0.030224 0.032134 
    [statefreq] 0.565322 0.055272 0.159883 0.219523 
[rates] 0 0.802604 0 


[TREE] T01 (0_0_0:0.08163654,(((((((9_0_3:0.00000330,9_0_1:0.00000217):0.00000596,9_0_2:0.00000846):0.00001901,9_0_0:0.00005166):0.00017893,(12_0_1:0.00001718,((12_0_0:0.00000035,12_0_3:0.00000037):0.00000517,12_0_2:0.00000351):0.00001292):0.00010823):0.00004136,(((((14_0_3:0.00001400,14_0_2:0.00000354):0.00000082,14_0_0:0.00001454):0.00004246,14_0_1:0.00003663):0.00011756,((13_0_2:0.00001164,13_0_1:0.00000702):0.00004130,(13_0_3:0.00000439,13_0_0:0.00001539):0.00006365):0.00008472):0.00001768,((10_0_3:0.00000166,10_0_1:0.00000155):0.00002836,(10_0_2:0.00001765,10_0_0:0.00000660):0.00000053):0.00016615):0.00006174):0.00009059,(((11_0_3:0.00000905,(11_0_2:0.00000068,11_0_1:0.00000335):0.00000420):0.00003680,11_0_0:0.00003592):0.00001562,((15_0_1:0.00000378,15_0_0:0.00000478):0.00002209,(15_0_3:0.00000689,15_0_2:0.00000436):0.00003547):0.00002013):0.00027075):0.04271238,((2_0_0:0.00002655,((2_0_2:0.00000188,2_0_3:0.00000103):0.00001762,2_0_1:0.00002185):0.00000116):0.00052612,(((((5_0_0:0.00000586,(5_0_1:0.00000142,5_0_3:0.00000217):0.00000072):0.00000044,5_0_2:0.00000227):0.00085337,((6_0_3:0.00004588,(6_0_1:0.00000207,6_0_2:0.00000200):0.00003418):0.00001585,6_0_0:0.00012911):0.00015137):0.00136088,((((1_0_0:0.00000012,1_0_3:0.00000011):0.00005155,(1_0_1:0.00000230,1_0_2:0.00000268):0.00003448):0.00010050,(((8_0_0:0.00000791,(4_0_2:0.00001003,8_0_2:0.00000242):0.00000052):0.00000512,(4_0_1:0.00000716,4_0_3:0.00000486):0.00000057):0.00000086,((8_0_3:0.00000025,8_0_1:0.00000023):0.00000259,4_0_0:0.00000299):0.00000287):0.00012299):0.00019485,((3_0_3:0.00001574,3_0_2:0.00000490):0.00002235,(3_0_0:0.00000640,3_0_1:0.00001832):0.00005348):0.00023149):0.00021817):0.00016932,(7_0_3:0.00000508,((7_0_2:0.00000126,7_0_0:0.00000113):0.00000617,7_0_1:0.00001441):0.00000281):0.00060764):0.00007667):0.04047175):0.02653116);
[TREE] T02 ((((2_0_3:0.00000772,(2_0_0:0.00001137,(2_0_1:0.00000020,2_0_2:0.00000066):0.00000583):0.00001579):0.00118730,(((7_0_0:0.00000168,(7_0_1:0.00000087,7_0_2:0.00000123):0.00000058):0.00000358,7_0_3:0.00000153):0.00067326,(((6_0_1:0.00004558,((6_0_3:0.00000097,6_0_0:0.00000139):0.00000859,6_0_2:0.00002325):0.00000671):0.00080955,(5_0_3:0.00002866,(5_0_2:0.00003571,(5_0_0:0.00000838,5_0_1:0.00000223):0.00001247):0.00000441):0.00040917):0.00088173,((((8_0_3:0.00000359,(8_0_0:0.00000356,4_0_2:0.00000334):0.00000120):0.00001553,((8_0_2:0.00000643,((4_0_3:0.00000007,4_0_0:0.00000030):0.00000370,8_0_1:0.00000268):0.00000256):0.00000257,4_0_1:0.00000543):0.00004127):0.00013484,((1_0_2:0.00001013,(1_0_3:0.00000938,1_0_1:0.00000154):0.00000174):0.00000209,1_0_0:0.00001000):0.00020617):0.00037660,(3_0_0:0.00005874,((3_0_3:0.00000785,3_0_2:0.00002954):0.00000524,3_0_1:0.00001955):0.00003429):0.00016945):0.00086619):0.00009174):0.00008848):0.03136296,(((11_0_0:0.00009623,((11_0_2:0.00000430,11_0_3:0.00000770):0.00000836,11_0_1:0.00000510):0.00001892):0.00003353,(15_0_3:0.00002050,((15_0_2:0.00000609,15_0_0:0.00000608):0.00000089,15_0_1:0.00000851):0.00002065):0.00007889):0.00024394,(((((10_0_2:0.00000361,(10_0_1:0.00000497,10_0_0:0.00000069):0.00000268):0.00002303,10_0_3:0.00006923):0.00011362,(((14_0_3:0.00000227,14_0_0:0.00000138):0.00001232,(14_0_2:0.00001383,14_0_1:0.00000702):0.00001071):0.00014027,((13_0_2:0.00000668,13_0_1:0.00000509):0.00004212,(13_0_3:0.00000690,13_0_0:0.00001509):0.00004160):0.00022823):0.00006508):0.00001519,((12_0_2:0.00000551,12_0_3:0.00000324):0.00000513,(12_0_0:0.00000117,12_0_1:0.00000129):0.00000497):0.00009560):0.00000001,((9_0_1:0.00000180,9_0_3:0.00000058):0.00000605,(9_0_2:0.00000122,9_0_0:0.00000050):0.00001603):0.00021885):0.00007214):0.00850560):0.08115090,0_0_0:0.01870112);
[TREE] T03 (0_0_0:0.09833462,((((2_0_2:0.00000179,2_0_1:0.00000509):0.00001504,(2_0_3:0.00000078,2_0_0:0.00000316):0.00001335):0.00144052,(((((3_0_2:0.00000231,3_0_0:0.00000292):0.00000073,(3_0_3:0.00000246,3_0_1:0.00000767):0.00000345):0.00071217,(((1_0_1:0.00000510,1_0_0:0.00000336):0.00000767,(1_0_3:0.00000871,1_0_2:0.00000773):0.00000117):0.00009354,((8_0_3:0.00000400,(4_0_3:0.00000696,(8_0_1:0.00000493,(((4_0_1:0.00000600,8_0_2:0.00000368):0.00000029,4_0_2:0.00000732):0.00000016,4_0_0:0.00000664):0.00000008):0.00000187):0.00000103):0.00006617,8_0_0:0.00005108):0.00008036):0.00024034):0.00009305,(((6_0_3:0.00000086,6_0_0:0.00000061):0.00000967,(6_0_2:0.00000080,6_0_1:0.00000031):0.00001884):0.00050333,(((5_0_0:0.00000211,5_0_3:0.00000235):0.00001220,5_0_1:0.00001215):0.00002133,5_0_2:0.00002481):0.00024527):0.00026301):0.00018072,(7_0_0:0.00004690,((7_0_1:0.00000656,7_0_3:0.00001092):0.00000618,7_0_2:0.00001555):0.00001942):0.00073216):0.00009629):0.07317155,(((((10_0_1:0.00002130,10_0_0:0.00000745):0.00001662,(10_0_3:0.00000300,10_0_2:0.00000403):0.00001155):0.00013288,(((14_0_0:0.00000339,(14_0_3:0.00000172,14_0_2:0.00000092):0.00000040):0.00001758,14_0_1:0.00007232):0.00008271,(13_0_2:0.00002073,((13_0_0:0.00000104,13_0_3:0.00000029):0.00000154,13_0_1:0.00000229):0.00001506):0.00006403):0.00005643):0.00012521,((12_0_2:0.00001192,((12_0_3:0.00000085,12_0_0:0.00000050):0.00000593,12_0_1:0.00001459):0.00000067):0.00016112,((9_0_2:0.00001186,9_0_3:0.00001058):0.00000153,(9_0_1:0.00000088,9_0_0:0.00000181):0.00000927):0.00013575):0.00001608):0.00002208,(((11_0_2:0.00000261,(11_0_3:0.00000310,11_0_1:0.00000158):0.00000148):0.00005454,11_0_0:0.00002520):0.00000257,(15_0_1:0.00005935,(15_0_2:0.00001054,(15_0_0:0.00000651,15_0_3:0.00001162):0.00000251):0.00000713):0.00001171):0.00057694):0.04059741):0.01431099);
[TREE] T04 ((((((7_0_2:0.00000073,7_0_3:0.00000346):0.00002096,(7_0_0:0.00000009,7_0_1:0.00000066):0.00000647):0.00125955,((((5_0_0:0.00001028,(5_0_2:0.00000250,5_0_3:0.00000354):0.00000129):0.00000761,5_0_1:0.00003729):0.00060304,(((6_0_1:0.00000629,6_0_2:0.00000941):0.00000455,6_0_3:0.00000545):0.00009275,6_0_0:0.00006755):0.00045445):0.00053937,((3_0_0:0.00002011,(3_0_1:0.00000896,(3_0_2:0.00000249,3_0_3:0.00000261):0.00000256):0.00000838):0.00071850,(((4_0_2:0.00001344,(8_0_1:0.00000440,8_0_0:0.00000206):0.00003470):0.00000184,((4_0_0:0.00000151,(4_0_1:0.00000004,4_0_3:0.00000015):0.00000069):0.00000663,(8_0_3:0.00000056,8_0_2:0.00000114):0.00000147):0.00001206):0.00011115,((1_0_3:0.00001034,1_0_1:0.00002826):0.00000197,(1_0_0:0.00000104,1_0_2:0.00000215):0.00001973):0.00005781):0.00061881):0.00047208):0.00010026):0.00015268,(2_0_1:0.00000626,((2_0_3:0.00000015,2_0_2:0.00000026):0.00000664,2_0_0:0.00001534):0.00000141):0.00094591):0.04427071,(((((10_0_0:0.00001701,10_0_1:0.00000173):0.00000403,(10_0_2:0.00000302,10_0_3:0.00000292):0.00002175):0.00012752,((14_0_2:0.00000900,(14_0_0:0.00000121,(14_0_3:0.00000131,14_0_1:0.00000170):0.00000091):0.00000968):0.00019151,(((13_0_0:0.00000350,13_0_1:0.00000233):0.00000013,13_0_3:0.00000565):0.00001968,13_0_2:0.00002498):0.00011578):0.00004310):0.00012689,((9_0_0:0.00001306,(9_0_2:0.00000398,(9_0_3:0.00000412,9_0_1:0.00000398):0.00000004):0.00001453):0.00008377,((12_0_1:0.00000230,12_0_0:0.00000167):0.00000215,(12_0_3:0.00000038,12_0_2:0.00000019):0.00000421):0.00017027):0.00004302):0.00005334,(((11_0_2:0.00000012,11_0_1:0.00000022):0.00000257,(11_0_3:0.00000025,11_0_0:0.00000016):0.00000306):0.00006885,((15_0_1:0.00000187,15_0_3:0.00000098):0.00000541,(15_0_0:0.00000587,15_0_2:0.00000533):0.00000180):0.00007119):0.00022450):0.02540726):0.01871241,0_0_0:0.14587680);
[TREE] T05 (0_0_0:0.09410760,(((((7_0_2:0.00001695,(7_0_3:0.00000018,7_0_1:0.00000036):0.00001230):0.00000519,7_0_0:0.00001106):0.00122892,(((3_0_2:0.00001720,((3_0_1:0.00000877,3_0_3:0.00000354):0.00000461,3_0_0:0.00000628):0.00000826):0.00027605,((8_0_1:0.00001696,(4_0_3:0.00001024,((4_0_1:0.00000640,(8_0_3:0.00000628,(4_0_2:0.00000571,8_0_0:0.00000226):0.00000018):0.00000519):0.00000084,(8_0_2:0.00000711,4_0_0:0.00000427):0.00000244):0.00000164):0.00000292):0.00007311,(((1_0_2:0.00000044,1_0_0:0.00000102):0.00001037,1_0_1:0.00000990):0.00000449,1_0_3:0.00003368):0.00020948):0.00027078):0.00025966,((5_0_1:0.00001501,(5_0_0:0.00000197,(5_0_3:0.00000070,5_0_2:0.00000013):0.00000179):0.00002229):0.00029630,(6_0_0:0.00002454,(6_0_2:0.00001098,(6_0_3:0.00000384,6_0_1:0.00000504):0.00006202):0.00006605):0.00012784):0.00066798):0.00009422):0.00023917,(((2_0_0:0.00000490,2_0_1:0.00000230):0.00000144,2_0_3:0.00000905):0.00000468,2_0_2:0.00000574):0.00176502):0.01535298,((((15_0_0:0.00001016,(15_0_1:0.00001487,15_0_3:0.00000737):0.00000043):0.00001365,15_0_2:0.00003510):0.00000241,((11_0_2:0.00000604,(11_0_1:0.00000439,11_0_3:0.00000210):0.00000232):0.00001616,11_0_0:0.00001637):0.00003489):0.00044132,((((9_0_2:0.00000569,(9_0_0:0.00000314,9_0_1:0.00000285):0.00000237):0.00001998,9_0_3:0.00003328):0.00012455,(12_0_0:0.00000527,((12_0_1:0.00000008,12_0_3:0.00000035):0.00000133,12_0_2:0.00000386):0.00000127):0.00016499):0.00008634,((((13_0_3:0.00000456,13_0_2:0.00000372):0.00000762,(13_0_1:0.00000867,13_0_0:0.00001250):0.00000682):0.00002248,((14_0_2:0.00000215,14_0_0:0.00000338):0.00002474,(14_0_1:0.00001658,14_0_3:0.00000708):0.00003581):0.00007136):0.00003102,(((10_0_3:0.00000129,10_0_2:0.00000319):0.00001118,10_0_1:0.00001588):0.00001802,10_0_0:0.00002386):0.00012182):0.00038897):0.00019531):0.02346313):0.02778004);
[TREE] T06 (0_0_0:0.06601940,(((2_0_3:0.00003303,(2_0_0:0.00002538,(2_0_1:0.00000073,2_0_2:0.00000025):0.00004222):0.00001204):0.00153722,((((((5_0_1:0.00000353,5_0_2:0.00000173):0.00000067,5_0_3:0.00000282):0.00000051,5_0_0:0.00000469):0.00060967,(6_0_2:0.00000374,((6_0_3:0.00000024,6_0_0:0.00000091):0.00000255,6_0_1:0.00000340):0.00000286):0.00033432):0.00190313,(((((4_0_0:0.00001605,(8_0_0:0.00000036,(8_0_3:0.00000125,8_0_1:0.00000061):0.00000003):0.00000530):0.00000328,(4_0_3:0.00000424,(4_0_1:0.00000241,4_0_2:0.00000095):0.00000108):0.00001723):0.00000177,8_0_2:0.00002492):0.00015333,(1_0_1:0.00001887,((1_0_2:0.00000243,1_0_3:0.00000191):0.00000556,1_0_0:0.00000446):0.00000432):0.00016561):0.00011634,(3_0_3:0.00004451,(3_0_1:0.00000712,(3_0_0:0.00000290,3_0_2:0.00000404):0.00000710):0.00002586):0.00016541):0.00045066):0.00015647,((7_0_2:0.00000280,(7_0_0:0.00000064,7_0_3:0.00000042):0.00000852):0.00000112,7_0_1:0.00001048):0.00134250):0.00011653):0.04294319,((((12_0_1:0.00001448,((12_0_3:0.00000252,12_0_0:0.00000371):0.00000446,12_0_2:0.00001094):0.00000327):0.00023230,(((9_0_2:0.00000275,9_0_0:0.00000073):0.00000548,9_0_3:0.00000793):0.00001716,9_0_1:0.00002079):0.00012238):0.00007205,(((((14_0_1:0.00000207,14_0_2:0.00000135):0.00000342,14_0_0:0.00000105):0.00000329,14_0_3:0.00001547):0.00012085,(13_0_3:0.00002251,((13_0_1:0.00000095,13_0_2:0.00000126):0.00000873,13_0_0:0.00000395):0.00000506):0.00004097):0.00002392,((10_0_0:0.00000804,10_0_2:0.00000709):0.00000523,(10_0_1:0.00002597,10_0_3:0.00003288):0.00000054):0.00030501):0.00007944):0.00013735,((15_0_1:0.00004881,((15_0_0:0.00000666,15_0_2:0.00000260):0.00000021,15_0_3:0.00000515):0.00004046):0.00006382,(((11_0_2:0.00000006,11_0_3:0.00000011):0.00001998,11_0_0:0.00000816):0.00000262,11_0_1:0.00001469):0.00004708):0.00040864):0.02562775):0.01889700);
[TREE] T07 (0_0_0:0.01678636,(((2_0_1:0.00000811,((2_0_2:0.00000317,2_0_3:0.00000263):0.00000003,2_0_0:0.00000143):0.00001334):0.00102423,(((7_0_0:0.00000709,7_0_3:0.00003661):0.00000368,(7_0_2:0.00000433,7_0_1:0.00000294):0.00002898):0.00028693,(((((3_0_2:0.00000158,3_0_0:0.00000566):0.00000019,3_0_3:0.00000109):0.00000311,3_0_1:0.00000293):0.00057101,((((8_0_1:0.00000198,(8_0_3:0.00000057,8_0_2:0.00000295):0.00000092):0.00000681,4_0_2:0.00001016):0.00001411,(4_0_1:0.00003612,((8_0_0:0.00000502,4_0_0:0.00000477):0.00000810,4_0_3:0.00001431):0.00001151):0.00001332):0.00013141,(1_0_0:0.00000107,(1_0_2:0.00000506,(1_0_1:0.00000053,1_0_3:0.00000028):0.00000157):0.00000001):0.00027774):0.00031454):0.00013898,((6_0_2:0.00003704,(6_0_0:0.00001436,(6_0_1:0.00000211,6_0_3:0.00000401):0.00000483):0.00003081):0.00053977,((5_0_1:0.00000623,(5_0_0:0.00000053,5_0_3:0.00000037):0.00001072):0.00000834,5_0_2:0.00003578):0.00068067):0.00069884):0.00014781):0.00007351):0.03413983,((((10_0_3:0.00001138,(10_0_2:0.00001145,(10_0_0:0.00000125,10_0_1:0.00000093):0.00001004):0.00000241):0.00017483,(((14_0_1:0.00000645,14_0_0:0.00000446):0.00001136,(14_0_2:0.00000825,14_0_3:0.00002456):0.00000315):0.00018272,((13_0_3:0.00000424,13_0_2:0.00000821):0.00003088,(13_0_0:0.00001063,13_0_1:0.00000669):0.00002832):0.00011590):0.00004042):0.00013619,((((12_0_2:0.00000037,12_0_0:0.00000080):0.00000195,12_0_1:0.00001433):0.00001040,12_0_3:0.00001102):0.00008760,(((9_0_3:0.00000309,9_0_2:0.00000434):0.00001262,9_0_0:0.00002377):0.00000813,9_0_1:0.00002407):0.00025045):0.00006166):0.00002885,(((11_0_0:0.00001093,(11_0_3:0.00000022,11_0_2:0.00000040):0.00001025):0.00000031,11_0_1:0.00002402):0.00001703,(15_0_3:0.00001526,((15_0_1:0.00000799,15_0_0:0.00000326):0.00000786,15_0_2:0.00000191):0.00001168):0.00009560):0.00028823):0.06861862):0.01271305);
[TREE] T08 (0_0_0:0.01763101,(((((((1_0_1:0.00002369,((1_0_2:0.00000075,1_0_3:0.00000160):0.00000886,1_0_0:0.00004479):0.00002833):0.00006830,(((4_0_3:0.00000813,(4_0_0:0.00000036,4_0_1:0.00000061):0.00000715):0.00000071,8_0_2:0.00000254):0.00000931,(8_0_3:0.00002281,(8_0_1:0.00000953,(8_0_0:0.00000303,4_0_2:0.00000316):0.00000302):0.00000780):0.00000272):0.00006441):0.00051367,(3_0_2:0.00002714,((3_0_3:0.00000007,3_0_1:0.00000033):0.00000670,3_0_0:0.00001480):0.00000634):0.00015489):0.00085844,((5_0_3:0.00001359,((5_0_2:0.00000924,5_0_0:0.00000590):0.00000451,5_0_1:0.00001782):0.00000088):0.00036451,((6_0_3:0.00000134,6_0_1:0.00000225):0.00000263,(6_0_0:0.00000285,6_0_2:0.00000676):0.00000140):0.00099508):0.00027705):0.00003796,((7_0_2:0.00000575,7_0_0:0.00000386):0.00000652,(7_0_1:0.00000085,7_0_3:0.00000064):0.00001603):0.00043288):0.00009020,(((2_0_2:0.00000922,2_0_0:0.00001082):0.00000499,2_0_1:0.00003728):0.00000126,2_0_3:0.00002530):0.00052894):0.07450945,((((15_0_3:0.00000056,15_0_1:0.00000138):0.00004385,(15_0_2:0.00002274,15_0_0:0.00002492):0.00003445):0.00000779,((11_0_2:0.00000039,11_0_0:0.00000027):0.00000463,(11_0_1:0.00001099,11_0_3:0.00000614):0.00000150):0.00009041):0.00003846,(((12_0_1:0.00004726,((12_0_3:0.00000615,12_0_2:0.00000139):0.00004154,12_0_0:0.00003658):0.00000490):0.00019073,(((10_0_3:0.00000108,10_0_0:0.00000256):0.00000491,(10_0_2:0.00000176,10_0_1:0.00000177):0.00000730):0.00049375,(((13_0_2:0.00001348,(13_0_3:0.00000226,13_0_0:0.00000233):0.00000469):0.00000960,13_0_1:0.00001364):0.00007803,((14_0_0:0.00000374,14_0_3:0.00000463):0.00004119,(14_0_1:0.00000647,14_0_2:0.00000520):0.00002614):0.00004775):0.00004695):0.00011034):0.00000936,(((9_0_2:0.00000340,9_0_1:0.00000287):0.00000196,9_0_0:0.00000141):0.00000586,9_0_3:0.00000862):0.00019905):0.00012007):0.03167169):0.02566451);
[TREE] T09 (((((((7_0_0:0.00000538,7_0_2:0.00000732):0.00000683,7_0_3:0.00001274):0.00001539,7_0_1:0.00005307):0.00077298,((((5_0_1:0.00000024,5_0_2:0.00000023):0.00002216,(5_0_3:0.00000209,5_0_0:0.00000658):0.00000897):0.00010580,((6_0_2:0.00001940,6_0_3:0.00001163):0.00000270,(6_0_0:0.00000793,6_0_1:0.00002097):0.00001194):0.00039930):0.00068956,(((1_0_2:0.00002914,(1_0_3:0.00000587,(1_0_1:0.00000253,1_0_0:0.00000407):0.00000228):0.00003015):0.00013221,((8_0_2:0.00001530,((8_0_0:0.00001136,4_0_0:0.00000405):0.00000514,((4_0_3:0.00000545,4_0_2:0.00000023):0.00000050,(8_0_3:0.00000190,8_0_1:0.00000416):0.00000047):0.00000956):0.00001241):0.00003349,4_0_1:0.00004104):0.00015508):0.00020745,(3_0_0:0.00000980,((3_0_2:0.00000479,3_0_1:0.00000830):0.00000269,3_0_3:0.00001018):0.00000101):0.00035902):0.00138979):0.00007320):0.00015004,(((2_0_0:0.00000284,2_0_2:0.00000260):0.00001610,2_0_1:0.00001188):0.00002169,2_0_3:0.00001768):0.00067429):0.03337384,(((11_0_1:0.00002435,(11_0_3:0.00000067,(11_0_0:0.00000103,11_0_2:0.00000031):0.00000106):0.00001918):0.00010464,(((15_0_1:0.00000156,15_0_3:0.00000216):0.00000160,15_0_0:0.00001036):0.00003035,15_0_2:0.00001639):0.00004389):0.00034178,((((13_0_2:0.00004509,(13_0_0:0.00002053,(13_0_3:0.00001418,13_0_1:0.00001175):0.00000706):0.00000006):0.00001858,((14_0_1:0.00001025,(14_0_3:0.00002069,14_0_2:0.00001742):0.00000822):0.00002144,14_0_0:0.00002025):0.00006072):0.00001426,((10_0_3:0.00001867,(10_0_2:0.00000314,10_0_1:0.00000459):0.00000704):0.00001296,10_0_0:0.00002025):0.00011379):0.00008328,(((12_0_3:0.00000714,(12_0_2:0.00000113,12_0_0:0.00000096):0.00000497):0.00000370,12_0_1:0.00001469):0.00020268,(9_0_3:0.00000462,(9_0_1:0.00000360,(9_0_2:0.00000023,9_0_0:0.00000046):0.00000123):0.00001738):0.00027417):0.00001583):0.00004351):0.01976225):0.01355942,0_0_0:0.06229294);
[TREE] T10 (0_0_0:0.05222535,(((((((14_0_3:0.00000917,14_0_0:0.00000939):0.00000442,(14_0_1:0.00000526,14_0_2:0.00000548):0.00002207):0.00006672,(13_0_3:0.00003670,((13_0_0:0.00000637,13_0_2:0.00000843):0.00000076,13_0_1:0.00000942):0.00004155):0.00002522):0.00003544,((10_0_3:0.00000694,10_0_0:0.00001470):0.00000921,(10_0_2:0.00000632,10_0_1:0.00000437):0.00003945):0.00007222):0.00017347,((12_0_2:0.00001389,(12_0_3:0.00001005,(12_0_1:0.00000038,12_0_0:0.00000036):0.00000612):0.00000086):0.00035041,(9_0_0:0.00002170,(9_0_1:0.00001364,(9_0_2:0.00000507,9_0_3:0.00000291):0.00000294):0.00004532):0.00021923):0.00009454):0.00016288,((15_0_3:0.00001808,((15_0_0:0.00000311,15_0_1:0.00000210):0.00000039,15_0_2:0.00000284):0.00002242):0.00003918,(11_0_0:0.00002139,(11_0_2:0.00001188,(11_0_1:0.00000013,11_0_3:0.00000090):0.00000480):0.00000283):0.00007218):0.00020880):0.03040650,((((((((8_0_0:0.00001105,4_0_3:0.00000599):0.00000035,(8_0_2:0.00000221,4_0_1:0.00000330):0.00000184):0.00002327,((4_0_0:0.00000114,4_0_2:0.00000088):0.00001161,(8_0_1:0.00000190,8_0_3:0.00000075):0.00000712):0.00004510):0.00014346,(1_0_1:0.00000987,(1_0_2:0.00000330,(1_0_0:0.00000378,1_0_3:0.00000219):0.00000115):0.00002815):0.00030399):0.00017667,((3_0_2:0.00000778,(3_0_3:0.00000774,3_0_1:0.00000647):0.00000216):0.00000633,3_0_0:0.00000332):0.00085373):0.00049854,((5_0_1:0.00005659,((5_0_3:0.00000046,5_0_0:0.00000114):0.00000180,5_0_2:0.00000245):0.00000927):0.00039525,(6_0_2:0.00000767,((6_0_1:0.00000449,6_0_0:0.00000462):0.00000534,6_0_3:0.00000161):0.00000090):0.00021358):0.00108916):0.00010703,((7_0_0:0.00000626,7_0_3:0.00000854):0.00004944,(7_0_1:0.00001198,7_0_2:0.00000364):0.00003198):0.00037510):0.00008798,((2_0_1:0.00000233,(2_0_0:0.00000020,2_0_3:0.00000048):0.00000157):0.00000565,2_0_2:0.00000778):0.00224815):0.05122904):0.03529066);

[PARTITIONS] csSimUnlinked_01 [T01 csSim_unlinked_1 500]
[PARTITIONS] csSimUnlinked_02 [T02 csSim_unlinked_2 500]
[PARTITIONS] csSimUnlinked_03 [T03 csSim_unlinked_3 500]
[PARTITIONS] csSimUnlinked_04 [T04 csSim_unlinked_4 500]
[PARTITIONS] csSimUnlinked_05 [T05 csSim_unlinked_5 500]
[PARTITIONS] csSimUnlinked_06 [T06 csSim_unlinked_6 500]
[PARTITIONS] csSimUnlinked_07 [T07 csSim_unlinked_7 500]
[PARTITIONS] csSimUnlinked_08 [T08 csSim_unlinked_8 500]
[PARTITIONS] csSimUnlinked_09 [T09 csSim_unlinked_9 500]
[PARTITIONS] csSimUnlinked_10 [T10 csSim_unlinked_10 500]

[EVOLVE] csSimUnlinked_01 1 data_01
csSimUnlinked_02 1 data_02
csSimUnlinked_03 1 data_03
csSimUnlinked_04 1 data_04
csSimUnlinked_05 1 data_05
csSimUnlinked_06 1 data_06
csSimUnlinked_07 1 data_07
csSimUnlinked_08 1 data_08
csSimUnlinked_09 1 data_09
csSimUnlinked_10 1 data_10
