********************************************************************************
INDELible V1.03 by Will Fletcher : Simulation began at: Tue Nov 29 13:24:21 2016
********************************************************************************

  * Block 1 was completed in 0.25 seconds.

********************************************************************************


  * Block 2 was completed in 0.25 seconds.

********************************************************************************


  * Block 3 was completed in 0.24 seconds.

********************************************************************************


  * Block 4 was completed in 0.25 seconds.

********************************************************************************


  * Block 5 was completed in 0.25 seconds.

********************************************************************************


  * Block 6 was completed in 0.23 seconds.

********************************************************************************


  * Block 7 was completed in 0.24 seconds.

********************************************************************************


  * Block 8 was completed in 0.22 seconds.

********************************************************************************


  * Block 9 was completed in 0.25 seconds.

********************************************************************************


  * Block 10 was completed in 0.24 seconds.

********************************************************************************

  * Simulation completed. Whole batch took: 2.46 seconds.

INDELible V1.03 Simulations completed at: Tue Nov 29 13:24:23 2016

********************************************************************************


 Original Control File 

-----------------------


[TYPE] NUCLEOTIDE 1 

[SETTINGS]
    [fastaextension] fasta  

[MODEL] csSim_unlinked_1
    [submodel] GTR 0.110814 0.012732 0.013825 0.029786 0.045945 
    [statefreq] 0.268363 0.133560 0.136099 0.461978 
[rates] 0 20.271531 0 

[MODEL] csSim_unlinked_2
    [submodel] GTR 0.071769 0.007547 0.010859 0.024431 0.055271 
    [statefreq] 0.666303 0.017317 0.059624 0.256755 
[rates] 0 6.736187 0 

[MODEL] csSim_unlinked_3
    [submodel] GTR 0.100815 0.017316 0.023785 0.064212 0.023354 
    [statefreq] 0.375121 0.292848 0.259471 0.072560 
[rates] 0 1.806453 0 

[MODEL] csSim_unlinked_4
    [submodel] GTR 0.117940 0.004376 0.021665 0.050871 0.042358 
    [statefreq] 0.028002 0.742438 0.099381 0.130178 
[rates] 0 18.163638 0 

[MODEL] csSim_unlinked_5
    [submodel] GTR 0.110833 0.007064 0.014539 0.029340 0.044015 
    [statefreq] 0.175411 0.600208 0.130069 0.094312 
[rates] 0 9.513224 0 

[MODEL] csSim_unlinked_6
    [submodel] GTR 0.115219 0.012676 0.026173 0.048918 0.026078 
    [statefreq] 0.205866 0.005824 0.596652 0.191658 
[rates] 0 4.240571 0 

[MODEL] csSim_unlinked_7
    [submodel] GTR 0.096843 0.013171 0.025020 0.019360 0.036342 
    [statefreq] 0.316890 0.307570 0.230475 0.145065 
[rates] 0 8.594916 0 

[MODEL] csSim_unlinked_8
    [submodel] GTR 0.094895 0.002520 0.065929 0.022463 0.021210 
    [statefreq] 0.005211 0.395084 0.356384 0.243321 
[rates] 0 3.245103 0 

[MODEL] csSim_unlinked_9
    [submodel] GTR 0.097180 0.001378 0.018902 0.037373 0.033826 
    [statefreq] 0.383601 0.302408 0.230963 0.083028 
[rates] 0 31.154055 0 

[MODEL] csSim_unlinked_10
    [submodel] GTR 0.087090 0.007959 0.021579 0.027889 0.030386 
    [statefreq] 0.213626 0.724523 0.057348 0.004504 
[rates] 0 46.455122 0 


[TREE] T01 (((((((6_0_7:0.00002758,(((6_0_3:0.00000563,6_0_1:0.00000223):0.00000387,(6_0_2:0.00000125,6_0_6:0.00000138):0.00000661):0.00001129,((6_0_5:0.00000339,6_0_4:0.00000220):0.00000020,6_0_0:0.00000267):0.00000720):0.00000991):0.00038546,((((5_0_5:0.00000162,5_0_2:0.00000170):0.00000024,5_0_3:0.00000409):0.00000231,5_0_1:0.00001038):0.00002223,((5_0_6:0.00000026,5_0_0:0.00000003):0.00000989,(5_0_4:0.00000395,5_0_7:0.00000427):0.00000948):0.00005028):0.00053701):0.00006159,(7_0_7:0.00005877,((7_0_5:0.00001064,7_0_2:0.00001051):0.00002143,((7_0_4:0.00001599,7_0_0:0.00000905):0.00000389,((7_0_1:0.00000390,7_0_3:0.00000261):0.00000115,7_0_6:0.00000324):0.00000362):0.00001007):0.00003422):0.00076019):0.00264444,(((3_0_1:0.00001190,(3_0_6:0.00000953,3_0_2:0.00002846):0.00000449):0.00001661,((3_0_4:0.00000061,3_0_5:0.00000197):0.00000480,(3_0_0:0.00000015,(3_0_3:0.00000008,3_0_7:0.00000008):0.00000019):0.00000198):0.00003993):0.00230654,(((4_0_1:0.00001674,4_0_6:0.00000982):0.00002249,((((4_0_4:0.00000550,4_0_7:0.00000268):0.00000031,(4_0_3:0.00000319,4_0_0:0.00000213):0.00000138):0.00000327,4_0_5:0.00001432):0.00000969,4_0_2:0.00000971):0.00001376):0.00254445,((1_0_6:0.00000362,(1_0_4:0.00000273,1_0_5:0.00000487):0.00000038):0.00004421,(1_0_2:0.00003632,(1_0_1:0.00001095,(1_0_3:0.00000062,(1_0_0:0.00000017,1_0_7:0.00000026):0.00000144):0.00002736):0.00001964):0.00000102):0.00107610):0.00007079):0.00197472):0.00176699,(((2_0_7:0.00001472,(2_0_5:0.00000171,2_0_6:0.00000359):0.00000377):0.00001668,(2_0_4:0.00000030,2_0_2:0.00000105):0.00002343):0.00003201,(2_0_3:0.00003096,(2_0_0:0.00000084,2_0_1:0.00000183):0.00003174):0.00001859):0.00172168):0.11643873,(((((10_0_5:0.00000105,10_0_7:0.00000019):0.00001118,(10_0_2:0.00000651,(10_0_4:0.00000245,(10_0_3:0.00000048,((10_0_6:0.00000045,10_0_1:0.00000013):0.00000128,10_0_0:0.00000279):0.00000114):0.00000174):0.00000752):0.00000441):0.00029218,((8_0_0:0.00002262,((8_0_4:0.00000037,8_0_1:0.00000082):0.00000660,((8_0_6:0.00000102,8_0_7:0.00000094):0.00000260,8_0_3:0.00000482):0.00000327):0.00001604):0.00006523,(8_0_5:0.00000570,8_0_2:0.00000297):0.00007725):0.00010018):0.00042075,(9_0_7:0.00013635,(((9_0_6:0.00000817,((9_0_4:0.00000180,9_0_0:0.00000288):0.00000274,9_0_3:0.00000937):0.00000136):0.00000002,9_0_1:0.00001020):0.00000109,(9_0_2:0.00000811,9_0_5:0.00000795):0.00000093):0.00015491):0.00030072):0.00019749,((11_0_3:0.00001240,((11_0_1:0.00000369,11_0_0:0.00000128):0.00000035,(11_0_4:0.00000062,((11_0_5:0.00000019,11_0_2:0.00000034):0.00000007,11_0_6:0.00000030):0.00000052):0.00000164):0.00001440):0.00001851,11_0_7:0.00001415):0.00251620):0.03269627):0.01596666,0_0_0:0.07874285);
[TREE] T02 (0_0_0:0.21341389,((((11_0_5:0.00000117,(11_0_2:0.00000005,11_0_6:0.00000003):0.00000187):0.00002183,((11_0_0:0.00001442,11_0_3:0.00000217):0.00000661,((11_0_1:0.00000019,11_0_7:0.00000004):0.00000052,11_0_4:0.00000021):0.00001279):0.00000717):0.00071176,(((((8_0_7:0.00000913,8_0_1:0.00000933):0.00001115,(8_0_3:0.00001550,((8_0_5:0.00000137,8_0_0:0.00000016):0.00001050,8_0_2:0.00001493):0.00000290):0.00000288):0.00002216,(8_0_4:0.00000000,8_0_6:0.00000001):0.00001830):0.00020777,((10_0_0:0.00001787,10_0_6:0.00000417):0.00009814,(10_0_2:0.00001851,(10_0_7:0.00000391,(10_0_3:0.00000100,((10_0_1:0.00000009,10_0_4:0.00000004):0.00000141,10_0_5:0.00000045):0.00000069):0.00000534):0.00000063):0.00002105):0.00008460):0.00030422,(((9_0_3:0.00000377,((9_0_6:0.00000356,9_0_5:0.00000452):0.00000760,9_0_0:0.00000593):0.00000075):0.00000773,(9_0_7:0.00000745,(9_0_1:0.00000045,9_0_2:0.00000135):0.00000645):0.00002022):0.00001426,9_0_4:0.00004445):0.00050628):0.00073197):0.07146784,(((((2_0_0:0.00000296,2_0_6:0.00000340):0.00000424,2_0_1:0.00001019):0.00002529,2_0_3:0.00003154):0.00000680,(2_0_4:0.00000159,((2_0_7:0.00000002,2_0_2:0.00000001):0.00000067,2_0_5:0.00000076):0.00000232):0.00012402):0.00209524,(((((6_0_1:0.00000968,((6_0_3:0.00000072,6_0_5:0.00000085):0.00000540,6_0_0:0.00001161):0.00000436):0.00002593,((6_0_7:0.00000177,6_0_6:0.00000242):0.00001811,(6_0_2:0.00000549,6_0_4:0.00000181):0.00000605):0.00009892):0.00028279,((((5_0_6:0.00000304,(5_0_1:0.00000182,5_0_5:0.00000732):0.00000104):0.00000052,5_0_2:0.00001129):0.00000407,5_0_0:0.00000929):0.00005043,(5_0_4:0.00000736,(5_0_3:0.00000441,5_0_7:0.00000134):0.00001778):0.00002747):0.00070943):0.00010373,(((7_0_3:0.00000530,7_0_5:0.00000493):0.00001738,((7_0_6:0.00000532,7_0_7:0.00000592):0.00000218,(7_0_2:0.00000260,7_0_4:0.00000347):0.00001799):0.00000455):0.00002440,(7_0_1:0.00000121,7_0_0:0.00000391):0.00003801):0.00170004):0.00237121,((((3_0_5:0.00000429,3_0_4:0.00001091):0.00000393,(3_0_0:0.00000002,3_0_7:0.00000003):0.00002055):0.00003216,((3_0_1:0.00000738,3_0_3:0.00000160):0.00002947,(3_0_2:0.00000059,3_0_6:0.00000060):0.00002438):0.00001356):0.00081012,(((1_0_3:0.00000569,(1_0_0:0.00000178,((1_0_7:0.00000007,1_0_6:0.00000009):0.00000156,(1_0_5:0.00000108,1_0_1:0.00000075):0.00000070):0.00000050):0.00001292):0.00000478,(1_0_4:0.00001697,1_0_2:0.00002009):0.00000791):0.00181304,((((4_0_2:0.00000231,4_0_7:0.00000139):0.00000943,4_0_6:0.00001451):0.00000392,((4_0_1:0.00000168,4_0_0:0.00000172):0.00001875,4_0_3:0.00000427):0.00000747):0.00002402,(4_0_5:0.00000001,4_0_4:0.00000001):0.00000914):0.00050009):0.00002941):0.00071779):0.00175350):0.05892540):0.04143624);
[TREE] T03 (0_0_0:0.07881569,((((((3_0_6:0.00000642,((3_0_5:0.00000018,3_0_0:0.00000019):0.00000274,3_0_1:0.00000842):0.00000042):0.00004451,((3_0_2:0.00000876,3_0_4:0.00000245):0.00000557,(3_0_3:0.00000545,3_0_7:0.00000172):0.00002653):0.00001215):0.00143805,((((((1_0_2:0.00000116,1_0_1:0.00000067):0.00000174,1_0_6:0.00000147):0.00000011,1_0_3:0.00000423):0.00000710,(1_0_7:0.00000265,1_0_0:0.00000399):0.00000223):0.00002935,(1_0_5:0.00000067,1_0_4:0.00000114):0.00004728):0.00085737,((4_0_7:0.00000062,4_0_0:0.00000041):0.00015001,(((4_0_2:0.00000213,4_0_1:0.00000180):0.00000159,(4_0_6:0.00000570,(4_0_3:0.00000053,4_0_4:0.00000033):0.00000308):0.00000008):0.00000347,4_0_5:0.00000794):0.00002353):0.00286832):0.00002302):0.00236695,((7_0_2:0.00004744,((7_0_6:0.00000976,(7_0_0:0.00000272,7_0_7:0.00000159):0.00000298):0.00001798,(7_0_3:0.00000755,((7_0_5:0.00000248,7_0_1:0.00000267):0.00000147,7_0_4:0.00000452):0.00000516):0.00001603):0.00000421):0.00099349,((((5_0_3:0.00000262,5_0_6:0.00000167):0.00000642,(5_0_5:0.00000764,5_0_1:0.00000833):0.00000050):0.00001066,(((5_0_4:0.00000086,5_0_7:0.00000255):0.00000165,5_0_2:0.00000650):0.00000366,5_0_0:0.00001534):0.00001441):0.00062060,(6_0_4:0.00016934,((((6_0_1:0.00000053,6_0_7:0.00000039):0.00000032,6_0_6:0.00000194):0.00000774,((6_0_0:0.00000115,6_0_3:0.00000105):0.00000293,6_0_2:0.00000847):0.00000126):0.00000259,6_0_5:0.00001241):0.00014266):0.00072407):0.00004422):0.00304941):0.00070907,(((2_0_4:0.00000117,2_0_6:0.00000101):0.00005475,((2_0_3:0.00000006,2_0_2:0.00000001):0.00000690,2_0_7:0.00003572):0.00001765):0.00002383,(2_0_5:0.00000053,(2_0_1:0.00000352,2_0_0:0.00000756):0.00000002):0.00006937):0.00310466):0.04458214,(((((9_0_3:0.00000315,9_0_0:0.00000498):0.00000897,(9_0_7:0.00000014,9_0_5:0.00000003):0.00000351):0.00000214,(9_0_6:0.00000144,((9_0_2:0.00000035,9_0_4:0.00000077):0.00000127,9_0_1:0.00000458):0.00000074):0.00000750):0.00046573,(((8_0_2:0.00000478,((8_0_7:0.00000368,(8_0_1:0.00000232,8_0_5:0.00000083):0.00000232):0.00000057,8_0_0:0.00000598):0.00000168):0.00007279,(8_0_6:0.00000645,(8_0_3:0.00000103,8_0_4:0.00000087):0.00002287):0.00004632):0.00000999,(((10_0_1:0.00002974,10_0_4:0.00001086):0.00000033,(((10_0_6:0.00000097,10_0_0:0.00000120):0.00000067,(10_0_3:0.00000116,10_0_7:0.00000110):0.00000302):0.00001462,10_0_5:0.00000874):0.00000207):0.00000007,10_0_2:0.00001287):0.00019684):0.00019659):0.00024201,((11_0_3:0.00002527,11_0_6:0.00002253):0.00002293,((((11_0_2:0.00000058,11_0_0:0.00000016):0.00000256,(11_0_4:0.00000170,11_0_1:0.00000299):0.00000271):0.00000065,11_0_5:0.00000308):0.00000669,11_0_7:0.00002401):0.00001574):0.00109574):0.04242200):0.02303494);
[TREE] T04 (0_0_0:0.11652275,((((11_0_4:0.00000093,(11_0_2:0.00000067,11_0_0:0.00000107):0.00000009):0.00002272,((11_0_3:0.00000053,11_0_7:0.00000010):0.00003096,(11_0_5:0.00000235,(11_0_6:0.00000054,11_0_1:0.00000081):0.00000022):0.00000665):0.00000069):0.00133867,(((9_0_7:0.00000566,(9_0_5:0.00000128,9_0_1:0.00000578):0.00000060):0.00002097,(((9_0_0:0.00000119,9_0_6:0.00000190):0.00000316,9_0_4:0.00000395):0.00000336,(9_0_3:0.00001025,9_0_2:0.00000608):0.00000355):0.00002333):0.00051633,((8_0_2:0.00001058,(((8_0_7:0.00000003,8_0_6:0.00000002):0.00000079,8_0_3:0.00000068):0.00004572,((8_0_1:0.00000510,(8_0_5:0.00000521,8_0_4:0.00000185):0.00000130):0.00000036,8_0_0:0.00001303):0.00002040):0.00000037):0.00011226,((((10_0_7:0.00000676,(10_0_5:0.00000060,10_0_0:0.00000152):0.00000625):0.00000244,10_0_2:0.00000667):0.00000184,(10_0_4:0.00000493,10_0_3:0.00000637):0.00000619):0.00003087,(10_0_1:0.00000035,10_0_6:0.00000022):0.00006524):0.00007049):0.00033318):0.00025747):0.03924180,(((((((6_0_2:0.00000493,6_0_0:0.00000158):0.00000159,(6_0_6:0.00000095,6_0_3:0.00000084):0.00000293):0.00003066,(6_0_4:0.00001558,((6_0_1:0.00000112,6_0_7:0.00000188):0.00000737,6_0_5:0.00001337):0.00001280):0.00000104):0.00105579,((5_0_1:0.00001155,(((5_0_0:0.00000476,(5_0_5:0.00000106,(5_0_7:0.00000082,5_0_3:0.00000080):0.00000101):0.00000141):0.00000010,5_0_2:0.00000680):0.00000468,5_0_6:0.00001069):0.00001431):0.00000002,5_0_4:0.00000952):0.00096103):0.00013255,((7_0_7:0.00000079,7_0_2:0.00000091):0.00003447,((7_0_6:0.00000777,(7_0_1:0.00000528,7_0_0:0.00000295):0.00001104):0.00001336,((7_0_3:0.00000221,7_0_5:0.00000129):0.00000050,7_0_4:0.00000267):0.00001363):0.00004205):0.00124700):0.00300525,(((3_0_6:0.00000517,3_0_2:0.00000369):0.00002326,(3_0_5:0.00000917,((3_0_0:0.00000019,3_0_7:0.00000033):0.00001132,((3_0_3:0.00000052,3_0_1:0.00000026):0.00000185,3_0_4:0.00000171):0.00000278):0.00001200):0.00000393):0.00043533,(((1_0_7:0.00003107,((1_0_5:0.00000177,1_0_0:0.00000133):0.00000749,1_0_3:0.00002530):0.00000144):0.00000161,(1_0_1:0.00000302,((1_0_4:0.00000074,1_0_2:0.00000040):0.00000320,1_0_6:0.00000667):0.00000060):0.00001385):0.00038083,((4_0_6:0.00000705,(4_0_1:0.00000493,4_0_0:0.00001372):0.00000487):0.00005337,((4_0_2:0.00000241,4_0_5:0.00000369):0.00000119,(4_0_4:0.00000072,(4_0_3:0.00000083,4_0_7:0.00000055):0.00000027):0.00000475):0.00002914):0.00066479):0.00006982):0.00118484):0.00090240,(2_0_3:0.00000421,((((((2_0_2:0.00000134,2_0_4:0.00000138):0.00000009,2_0_0:0.00000122):0.00000013,2_0_1:0.00000107):0.00000171,2_0_5:0.00000265):0.00000002,2_0_7:0.00000730):0.00000021,2_0_6:0.00000816):0.00000163):0.00482528):0.03914629):0.05584592);
[TREE] T05 (0_0_0:0.05595190,(((((((4_0_6:0.00000375,(4_0_3:0.00000019,4_0_1:0.00000019):0.00000901):0.00006782,(4_0_5:0.00002931,(4_0_4:0.00000313,(4_0_0:0.00000097,(4_0_2:0.00000321,4_0_7:0.00000105):0.00000119):0.00000128):0.00001649):0.00001990):0.00205931,((1_0_1:0.00001376,1_0_6:0.00005872):0.00001527,((1_0_7:0.00000528,(1_0_3:0.00000119,1_0_4:0.00000269):0.00000226):0.00001768,(1_0_0:0.00000310,(1_0_2:0.00000151,1_0_5:0.00000364):0.00000128):0.00000173):0.00004510):0.00147776):0.00019431,(3_0_0:0.00004970,((3_0_6:0.00001082,((3_0_2:0.00000273,3_0_7:0.00000059):0.00000498,((3_0_3:0.00000062,3_0_4:0.00000096):0.00000163,3_0_1:0.00000167):0.00000376):0.00000311):0.00000004,3_0_5:0.00000796):0.00000847):0.00045401):0.00226364,(((7_0_5:0.00001887,(7_0_2:0.00000229,7_0_6:0.00000084):0.00001035):0.00013193,(7_0_4:0.00000480,((7_0_1:0.00000203,(7_0_3:0.00000067,7_0_0:0.00000103):0.00000141):0.00000217,7_0_7:0.00000660):0.00001732):0.00010092):0.00078401,(((((((5_0_5:0.00000072,5_0_6:0.00000280):0.00000376,5_0_2:0.00000377):0.00000061,5_0_4:0.00000245):0.00001466,(5_0_0:0.00000015,5_0_3:0.00000120):0.00001463):0.00000190,5_0_7:0.00001233):0.00001209,5_0_1:0.00001483):0.00005685,((6_0_0:0.00000117,6_0_3:0.00000178):0.00004102,(((6_0_1:0.00000328,6_0_7:0.00002319):0.00000113,6_0_4:0.00002489):0.00000902,((6_0_2:0.00000153,6_0_5:0.00000203):0.00000454,6_0_6:0.00001268):0.00000460):0.00000941):0.00024862):0.00002575):0.00239791):0.00061230,(((2_0_6:0.00000732,(2_0_0:0.00000096,2_0_5:0.00000034):0.00000619):0.00000303,(2_0_2:0.00000497,(2_0_7:0.00000044,2_0_4:0.00000014):0.00000317):0.00000199):0.00000922,(2_0_1:0.00000940,2_0_3:0.00001119):0.00001124):0.00165161):0.09467541,(((((9_0_1:0.00000497,9_0_3:0.00001485):0.00001064,(9_0_2:0.00000968,(9_0_5:0.00000483,9_0_0:0.00000395):0.00000446):0.00000480):0.00001078,((9_0_7:0.00000124,9_0_6:0.00000182):0.00001110,9_0_4:0.00001411):0.00004693):0.00026746,((((10_0_6:0.00000139,10_0_5:0.00001518):0.00001318,((10_0_1:0.00000033,10_0_4:0.00000011):0.00000952,(10_0_0:0.00000101,10_0_7:0.00000087):0.00001046):0.00000738):0.00001249,(10_0_3:0.00000023,10_0_2:0.00000047):0.00002061):0.00015547,((8_0_3:0.00000336,8_0_4:0.00000630):0.00002223,(8_0_2:0.00001436,((8_0_0:0.00001466,8_0_1:0.00000612):0.00000467,(8_0_5:0.00000496,(8_0_6:0.00000010,8_0_7:0.00000021):0.00000363):0.00000656):0.00000541):0.00000726):0.00006720):0.00046969):0.00017591,((11_0_4:0.00001462,((11_0_6:0.00000006,11_0_3:0.00000000):0.00000228,11_0_7:0.00000465):0.00000670):0.00001797,((11_0_0:0.00001009,11_0_2:0.00000902):0.00001082,(11_0_5:0.00000413,11_0_1:0.00000248):0.00003618):0.00001708):0.00061338):0.05959846):0.09354972);
[TREE] T06 ((((((((9_0_6:0.00000021,9_0_4:0.00000003):0.00000555,9_0_7:0.00000206):0.00000324,(9_0_3:0.00000147,9_0_1:0.00000373):0.00000395):0.00012239,((9_0_0:0.00000086,9_0_2:0.00000201):0.00001533,9_0_5:0.00003030):0.00001783):0.00032018,(((10_0_5:0.00001344,((10_0_1:0.00000241,10_0_4:0.00000134):0.00000144,(10_0_3:0.00000822,10_0_0:0.00000198):0.00000094):0.00000214):0.00004849,(10_0_6:0.00000675,(10_0_7:0.00000159,10_0_2:0.00000118):0.00000423):0.00005772):0.00008862,(((8_0_2:0.00000450,(8_0_0:0.00000161,8_0_5:0.00000156):0.00000204):0.00001693,((8_0_4:0.00000079,8_0_3:0.00000031):0.00000953,(8_0_6:0.00000011,8_0_7:0.00000025):0.00001121):0.00001056):0.00001010,8_0_1:0.00004673):0.00030866):0.00030037):0.00052936,((11_0_2:0.00000376,(11_0_1:0.00000238,11_0_3:0.00000110):0.00000122):0.00004243,((11_0_4:0.00000934,(11_0_6:0.00000156,11_0_0:0.00000266):0.00000319):0.00001283,(11_0_7:0.00000852,11_0_5:0.00000594):0.00000601):0.00000177):0.00043312):0.01948845,((((2_0_5:0.00000065,2_0_3:0.00000091):0.00000549,(2_0_7:0.00001053,2_0_1:0.00000265):0.00000802):0.00000222,(2_0_0:0.00000084,(2_0_2:0.00000206,(2_0_6:0.00000073,2_0_4:0.00000053):0.00000251):0.00000068):0.00000932):0.00745459,((((((3_0_2:0.00000130,3_0_6:0.00000035):0.00000036,3_0_7:0.00000169):0.00001933,((3_0_5:0.00000190,3_0_0:0.00000043):0.00000351,3_0_3:0.00001812):0.00000112):0.00002722,(3_0_4:0.00000239,3_0_1:0.00000088):0.00007526):0.00176560,((1_0_3:0.00004466,(1_0_1:0.00004958,((1_0_2:0.00000609,(1_0_0:0.00000080,1_0_4:0.00000251):0.00000206):0.00000021,((1_0_5:0.00000054,1_0_6:0.00000076):0.00000368,1_0_7:0.00000736):0.00000191):0.00000558):0.00002974):0.00032539,(4_0_7:0.00007426,((((4_0_4:0.00000212,4_0_1:0.00000281):0.00000044,4_0_0:0.00000604):0.00000612,(4_0_2:0.00000736,4_0_6:0.00000299):0.00000502):0.00004476,(4_0_5:0.00000023,4_0_3:0.00000041):0.00002544):0.00001106):0.00079930):0.00006583):0.00172435,((7_0_4:0.00008555,(((7_0_6:0.00000910,(7_0_1:0.00000121,7_0_2:0.00000063):0.00000683):0.00000709,(7_0_5:0.00000098,7_0_7:0.00000065):0.00001393):0.00003630,(7_0_3:0.00000016,7_0_0:0.00000046):0.00003825):0.00002158):0.00051739,((((((6_0_0:0.00000013,6_0_1:0.00000098):0.00000008,6_0_3:0.00000053):0.00000334,6_0_7:0.00000878):0.00000689,(6_0_5:0.00000009,6_0_2:0.00000005):0.00000406):0.00000366,(6_0_6:0.00001346,6_0_4:0.00001591):0.00000020):0.00009713,(((5_0_6:0.00000064,5_0_3:0.00000297):0.00001260,5_0_7:0.00000840):0.00003113,((5_0_0:0.00000431,5_0_4:0.00000607):0.00001377,(5_0_5:0.00000671,(5_0_1:0.00000077,5_0_2:0.00000255):0.00000853):0.00000728):0.00006221):0.00046709):0.00003666):0.00159391):0.00071910):0.05679450):0.01603954,0_0_0:0.06868890);
[TREE] T07 ((((((((3_0_1:0.00000012,3_0_0:0.00000012):0.00003120,((3_0_4:0.00000408,3_0_5:0.00001290):0.00000253,(3_0_3:0.00000014,(3_0_6:0.00000011,3_0_2:0.00000007):0.00000009):0.00001459):0.00001774):0.00008463,3_0_7:0.00007426):0.00086609,(((((1_0_0:0.00000078,1_0_1:0.00000045):0.00000446,(1_0_6:0.00000030,1_0_7:0.00000039):0.00000566):0.00000968,(1_0_3:0.00000167,(1_0_4:0.00000032,1_0_5:0.00000021):0.00000268):0.00000664):0.00002696,1_0_2:0.00004610):0.00231182,(((4_0_3:0.00001134,((4_0_6:0.00000345,4_0_1:0.00000760):0.00000005,(4_0_4:0.00000013,4_0_2:0.00000010):0.00000701):0.00000228):0.00000159,4_0_5:0.00001247):0.00003164,(4_0_7:0.00002157,4_0_0:0.00001119):0.00001029):0.00102237):0.00013241):0.00168620,(((7_0_4:0.00000704,((7_0_5:0.00000394,7_0_7:0.00000843):0.00000195,((7_0_2:0.00000084,7_0_1:0.00000053):0.00000122,7_0_3:0.00000137):0.00000943):0.00000524):0.00002332,(7_0_0:0.00000908,7_0_6:0.00001507):0.00002182):0.00051088,(((6_0_5:0.00000078,6_0_2:0.00000044):0.00004938,(((6_0_1:0.00000155,6_0_6:0.00000239):0.00000099,(6_0_7:0.00000018,6_0_3:0.00000087):0.00000498):0.00000906,(6_0_4:0.00001023,6_0_0:0.00000857):0.00001088):0.00000185):0.00074396,((5_0_7:0.00001607,(5_0_4:0.00000277,5_0_6:0.00000261):0.00000250):0.00003717,((5_0_2:0.00000645,5_0_0:0.00000083):0.00001273,(5_0_1:0.00000763,(5_0_5:0.00000061,5_0_3:0.00000044):0.00000105):0.00000718):0.00002157):0.00022128):0.00009449):0.00256973):0.00047028,((2_0_5:0.00000145,2_0_3:0.00000027):0.00001293,(2_0_4:0.00000244,((2_0_1:0.00000038,2_0_7:0.00000027):0.00000068,(2_0_2:0.00000069,(2_0_0:0.00000072,2_0_6:0.00000036):0.00000080):0.00000008):0.00000373):0.00003076):0.00375411):0.00867647,((((11_0_2:0.00000362,11_0_7:0.00000418):0.00000964,(11_0_4:0.00000006,11_0_3:0.00000011):0.00002968):0.00003445,(11_0_6:0.00000463,((11_0_5:0.00000008,11_0_1:0.00000009):0.00000652,11_0_0:0.00000122):0.00000197):0.00009577):0.00097782,((((((8_0_5:0.00001243,8_0_1:0.00000872):0.00000580,8_0_6:0.00001949):0.00000422,((8_0_3:0.00000047,8_0_0:0.00000055):0.00000439,8_0_7:0.00000436):0.00001848):0.00002815,(8_0_4:0.00000682,8_0_2:0.00000429):0.00007889):0.00025431,((10_0_6:0.00004652,(10_0_4:0.00000784,(10_0_2:0.00000688,10_0_0:0.00000520):0.00000139):0.00003385):0.00001284,((10_0_1:0.00000005,10_0_7:0.00000005):0.00000239,(10_0_5:0.00000227,10_0_3:0.00000828):0.00000333):0.00003099):0.00024761):0.00057654,(((9_0_7:0.00000319,9_0_3:0.00001091):0.00000326,(9_0_1:0.00000196,9_0_2:0.00000476):0.00000959):0.00002804,(9_0_5:0.00000450,(9_0_0:0.00000190,(9_0_6:0.00000013,9_0_4:0.00000090):0.00000480):0.00000098):0.00007843):0.00022481):0.00026328):0.05864626):0.03799920,0_0_0:0.06646630);
[TREE] T08 ((((((((8_0_7:0.00000229,(8_0_5:0.00000158,8_0_4:0.00000131):0.00000003):0.00001206,8_0_3:0.00000658):0.00005444,((8_0_6:0.00000237,8_0_1:0.00000291):0.00001075,(8_0_0:0.00000095,8_0_2:0.00000007):0.00001139):0.00004532):0.00004071,((10_0_0:0.00000414,((10_0_3:0.00000020,10_0_6:0.00000051):0.00000095,10_0_7:0.00000248):0.00000222):0.00002613,((10_0_4:0.00000001,10_0_1:0.00000001):0.00000265,(10_0_5:0.00000269,10_0_2:0.00000257):0.00000506):0.00001821):0.00014761):0.00031645,(9_0_5:0.00009038,(((9_0_1:0.00000062,9_0_6:0.00000145):0.00000628,9_0_2:0.00001193):0.00000596,(((9_0_4:0.00000209,9_0_3:0.00000115):0.00000018,9_0_0:0.00000459):0.00000522,9_0_7:0.00000764):0.00000557):0.00003107):0.00095735):0.00040344,(((11_0_5:0.00000563,11_0_4:0.00000311):0.00002177,((11_0_6:0.00000186,11_0_1:0.00000275):0.00000901,11_0_0:0.00000470):0.00002824):0.00002286,((11_0_2:0.00000072,11_0_7:0.00000168):0.00000072,11_0_3:0.00000346):0.00002155):0.00032924):0.02640435,((((((7_0_0:0.00001409,(7_0_4:0.00000367,(7_0_2:0.00000301,7_0_5:0.00000559):0.00000226):0.00000396):0.00000153,(7_0_7:0.00000076,7_0_1:0.00000067):0.00000835):0.00000612,(7_0_3:0.00000345,7_0_6:0.00000378):0.00000698):0.00043494,(((5_0_6:0.00004073,(5_0_7:0.00002827,5_0_0:0.00001865):0.00000442):0.00000217,((5_0_1:0.00000110,(5_0_2:0.00000001,5_0_5:0.00000001):0.00000151):0.00000664,(5_0_3:0.00001088,5_0_4:0.00000597):0.00000272):0.00002137):0.00125470,(((6_0_7:0.00000135,6_0_0:0.00000022):0.00001633,(6_0_4:0.00000025,6_0_1:0.00000043):0.00004592):0.00001774,((6_0_2:0.00000427,6_0_6:0.00000444):0.00001026,(6_0_5:0.00000147,6_0_3:0.00000066):0.00001908):0.00001522):0.00030251):0.00007168):0.00063299,(((((3_0_0:0.00000187,3_0_4:0.00000860):0.00001075,((3_0_5:0.00000370,(3_0_1:0.00000005,(3_0_6:0.00000010,3_0_3:0.00000006):0.00000022):0.00000371):0.00000369,3_0_2:0.00001121):0.00002292):0.00001745,3_0_7:0.00003255):0.00047336,(((((1_0_1:0.00000057,1_0_5:0.00000034):0.00000449,1_0_7:0.00000156):0.00000722,((1_0_0:0.00000042,1_0_2:0.00000292):0.00000227,1_0_4:0.00000595):0.00000367):0.00000366,1_0_3:0.00001789):0.00000335,1_0_6:0.00003054):0.00068172):0.00001396,(((4_0_0:0.00000374,4_0_3:0.00000151):0.00001288,(((4_0_6:0.00001696,4_0_5:0.00000785):0.00000434,4_0_7:0.00001425):0.00000969,(4_0_4:0.00000493,4_0_2:0.00000060):0.00001375):0.00000513):0.00001181,4_0_1:0.00000342):0.00031319):0.00169323):0.00017351,(2_0_3:0.00013359,(2_0_7:0.00000592,((2_0_0:0.00001148,(2_0_6:0.00000153,2_0_1:0.00000595):0.00000325):0.00000096,(2_0_5:0.00000435,(2_0_4:0.00000227,2_0_2:0.00000310):0.00000300):0.00000849):0.00000465):0.00002848):0.00426063):0.07490532):0.02326709,0_0_0:0.05639927);
[TREE] T09 ((((((9_0_7:0.00001656,((9_0_1:0.00000570,9_0_3:0.00001684):0.00000559,9_0_4:0.00000602):0.00000747):0.00001290,(9_0_2:0.00001011,(9_0_6:0.00000106,(9_0_5:0.00000137,9_0_0:0.00000225):0.00000045):0.00001097):0.00002174):0.00027952,(((10_0_6:0.00000528,(10_0_5:0.00000199,10_0_3:0.00000169):0.00000920):0.00001217,((10_0_0:0.00000486,(10_0_4:0.00000071,10_0_7:0.00000029):0.00000214):0.00000419,(10_0_1:0.00000171,10_0_2:0.00000193):0.00001336):0.00001827):0.00009167,(((8_0_2:0.00000057,8_0_0:0.00000008):0.00003374,((8_0_7:0.00000213,8_0_4:0.00000108):0.00000333,(8_0_5:0.00000215,(8_0_6:0.00000002,8_0_3:0.00000007):0.00000156):0.00000158):0.00001070):0.00000731,8_0_1:0.00004247):0.00021493):0.00017466):0.00035032,((11_0_1:0.00001185,((11_0_0:0.00000058,11_0_5:0.00000171):0.00000321,11_0_3:0.00000086):0.00001240):0.00004417,((11_0_6:0.00000929,(11_0_4:0.00000013,11_0_2:0.00000009):0.00000793):0.00000470,11_0_7:0.00000194):0.00010625):0.00094557):0.03380931,((2_0_5:0.00005979,(((2_0_2:0.00000044,2_0_1:0.00000063):0.00000032,2_0_4:0.00000288):0.00000177,((2_0_7:0.00000327,2_0_3:0.00000167):0.00000392,(2_0_0:0.00000285,2_0_6:0.00000221):0.00000521):0.00000066):0.00004929):0.00573451,(((((3_0_4:0.00000022,3_0_0:0.00000080):0.00000290,((((3_0_6:0.00000036,3_0_2:0.00000052):0.00000057,3_0_5:0.00000051):0.00000066,3_0_7:0.00000326):0.00000103,3_0_1:0.00000225):0.00000146):0.00001134,3_0_3:0.00001353):0.00095020,(((((4_0_4:0.00001026,4_0_6:0.00001447):0.00000396,(4_0_2:0.00000809,4_0_3:0.00000867):0.00000886):0.00000483,(4_0_5:0.00000037,(4_0_7:0.00000034,4_0_0:0.00000033):0.00000023):0.00001621):0.00003365,4_0_1:0.00005686):0.00086594,((1_0_5:0.00000766,(1_0_4:0.00000793,1_0_1:0.00000224):0.00001176):0.00001250,(((1_0_2:0.00000833,(1_0_7:0.00000154,1_0_3:0.00000330):0.00000328):0.00000141,1_0_0:0.00000220):0.00000503,1_0_6:0.00001260):0.00003671):0.00206454):0.00009148):0.00190157,(((((7_0_5:0.00000254,(7_0_7:0.00000305,7_0_3:0.00000237):0.00000348):0.00000051,(7_0_4:0.00000025,7_0_2:0.00000022):0.00000890):0.00000323,7_0_0:0.00000956):0.00002689,(7_0_6:0.00002231,7_0_1:0.00002595):0.00000981):0.00104226,(((((6_0_0:0.00000234,(6_0_6:0.00000032,6_0_3:0.00000190):0.00000127):0.00000019,6_0_7:0.00000541):0.00000416,6_0_2:0.00001102):0.00001138,(6_0_5:0.00000621,(6_0_4:0.00000714,6_0_1:0.00001114):0.00001904):0.00000047):0.00046128,((5_0_2:0.00004071,(((5_0_3:0.00000668,((5_0_0:0.00000211,5_0_7:0.00000571):0.00000134,5_0_1:0.00000376):0.00000030):0.00000137,5_0_5:0.00001243):0.00000531,5_0_4:0.00002315):0.00000100):0.00011418,5_0_6:0.00030035):0.00118585):0.00012421):0.00185241):0.00046240):0.03042264):0.03928887,0_0_0:0.13932418);
[TREE] T10 ((((((((7_0_2:0.00000059,(7_0_1:0.00000064,7_0_0:0.00000058):0.00000051):0.00000491,7_0_3:0.00000413):0.00000924,(((7_0_4:0.00000217,7_0_5:0.00000072):0.00000021,7_0_6:0.00000168):0.00000143,7_0_7:0.00000105):0.00000233):0.00056971,((((6_0_4:0.00000395,6_0_6:0.00000384):0.00001422,((6_0_3:0.00000227,6_0_7:0.00000087):0.00001104,6_0_2:0.00001391):0.00000063):0.00001348,((6_0_1:0.00000136,6_0_5:0.00000482):0.00001480,6_0_0:0.00003109):0.00000016):0.00080429,(((5_0_3:0.00000124,5_0_7:0.00000233):0.00000155,(5_0_4:0.00000038,(5_0_1:0.00000092,5_0_2:0.00000081):0.00000106):0.00000069):0.00004971,((5_0_5:0.00000134,5_0_6:0.00000123):0.00000008,5_0_0:0.00000113):0.00002070):0.00017008):0.00005871):0.00075706,(((((4_0_5:0.00000714,4_0_7:0.00000364):0.00000248,4_0_3:0.00000343):0.00004230,((4_0_1:0.00000623,(4_0_2:0.00000107,4_0_6:0.00000054):0.00000196):0.00000373,(4_0_0:0.00000118,4_0_4:0.00000176):0.00000356):0.00001126):0.00134383,((((1_0_2:0.00000214,1_0_7:0.00000806):0.00002391,1_0_0:0.00002119):0.00001876,(1_0_5:0.00000270,(1_0_3:0.00000458,(1_0_1:0.00000273,1_0_4:0.00000423):0.00000024):0.00000029):0.00001448):0.00003634,1_0_6:0.00007496):0.00231933):0.00007451,((3_0_1:0.00000313,(3_0_3:0.00000252,3_0_5:0.00000252):0.00000818):0.00002898,(3_0_0:0.00000459,((3_0_7:0.00000282,3_0_6:0.00000217):0.00000015,(3_0_2:0.00000181,3_0_4:0.00000215):0.00000011):0.00000372):0.00002914):0.00096417):0.00122538):0.00053139,((2_0_6:0.00000305,2_0_7:0.00000404):0.00005584,(((2_0_2:0.00000531,(2_0_5:0.00000611,2_0_3:0.00000301):0.00000029):0.00001131,2_0_0:0.00001750):0.00000553,(2_0_4:0.00000023,2_0_1:0.00000057):0.00001504):0.00000576):0.00096586):0.08005519,((((9_0_5:0.00003324,(((9_0_4:0.00000160,9_0_6:0.00000079):0.00000496,(9_0_0:0.00000167,9_0_2:0.00000051):0.00000410):0.00000082,9_0_1:0.00000221):0.00007154):0.00000424,(9_0_7:0.00000645,9_0_3:0.00000403):0.00006068):0.00044497,(((((10_0_7:0.00000133,10_0_2:0.00000589):0.00000061,10_0_0:0.00000911):0.00000612,(10_0_6:0.00000570,(10_0_4:0.00000060,10_0_3:0.00000014):0.00000145):0.00000438):0.00000253,(10_0_5:0.00000212,10_0_1:0.00000154):0.00001838):0.00007192,((((8_0_3:0.00000098,8_0_2:0.00000270):0.00000011,8_0_4:0.00000283):0.00000433,8_0_0:0.00001187):0.00003178,((8_0_1:0.00000198,(8_0_5:0.00000113,8_0_6:0.00000134):0.00000036):0.00000129,8_0_7:0.00000128):0.00002217):0.00014663):0.00018888):0.00039062,(11_0_5:0.00002136,((((11_0_6:0.00000051,11_0_7:0.00000175):0.00000313,11_0_0:0.00000554):0.00000170,11_0_1:0.00000289):0.00001934,(11_0_3:0.00000500,(11_0_2:0.00000632,11_0_4:0.00001483):0.00000044):0.00000734):0.00000055):0.00086610):0.04304515):0.07759776,0_0_0:0.06617089);

[PARTITIONS] csSimUnlinked_01 [T01 csSim_unlinked_1 500]
[PARTITIONS] csSimUnlinked_02 [T02 csSim_unlinked_2 500]
[PARTITIONS] csSimUnlinked_03 [T03 csSim_unlinked_3 500]
[PARTITIONS] csSimUnlinked_04 [T04 csSim_unlinked_4 500]
[PARTITIONS] csSimUnlinked_05 [T05 csSim_unlinked_5 500]
[PARTITIONS] csSimUnlinked_06 [T06 csSim_unlinked_6 500]
[PARTITIONS] csSimUnlinked_07 [T07 csSim_unlinked_7 500]
[PARTITIONS] csSimUnlinked_08 [T08 csSim_unlinked_8 500]
[PARTITIONS] csSimUnlinked_09 [T09 csSim_unlinked_9 500]
[PARTITIONS] csSimUnlinked_10 [T10 csSim_unlinked_10 500]

[EVOLVE] csSimUnlinked_01 1 data_01
csSimUnlinked_02 1 data_02
csSimUnlinked_03 1 data_03
csSimUnlinked_04 1 data_04
csSimUnlinked_05 1 data_05
csSimUnlinked_06 1 data_06
csSimUnlinked_07 1 data_07
csSimUnlinked_08 1 data_08
csSimUnlinked_09 1 data_09
csSimUnlinked_10 1 data_10
