********************************************************************************
INDELible V1.03 by Will Fletcher : Simulation began at: Fri Dec  2 11:09:05 2016
********************************************************************************

  * Block 1 was completed in 0.29 seconds.

********************************************************************************


  * Block 2 was completed in 0.3 seconds.

********************************************************************************


  * Block 3 was completed in 0.29 seconds.

********************************************************************************


  * Block 4 was completed in 0.3 seconds.

********************************************************************************


  * Block 5 was completed in 0.29 seconds.

********************************************************************************


  * Block 6 was completed in 0.31 seconds.

********************************************************************************


  * Block 7 was completed in 0.31 seconds.

********************************************************************************


  * Block 8 was completed in 0.3 seconds.

********************************************************************************


  * Block 9 was completed in 0.3 seconds.

********************************************************************************


  * Block 10 was completed in 0.29 seconds.

********************************************************************************

  * Simulation completed. Whole batch took: 3.01 seconds.

INDELible V1.03 Simulations completed at: Fri Dec  2 11:09:08 2016

********************************************************************************


 Original Control File 

-----------------------


[TYPE] NUCLEOTIDE 1 

[SETTINGS]
    [fastaextension] fasta  

[MODEL] csSim_unlinked_1
    [submodel] GTR 0.078633 0.005930 0.039027 0.038595 0.038705 
    [statefreq] 0.022867 0.151558 0.340114 0.485461 
[rates] 0 17.117113 0 

[MODEL] csSim_unlinked_2
    [submodel] GTR 0.075449 0.002258 0.008090 0.022996 0.023321 
    [statefreq] 0.225724 0.028179 0.040685 0.705412 
[rates] 0 60.310597 0 

[MODEL] csSim_unlinked_3
    [submodel] GTR 0.112717 0.002803 0.022582 0.018954 0.026594 
    [statefreq] 0.075121 0.004460 0.886957 0.033462 
[rates] 0 33.081545 0 

[MODEL] csSim_unlinked_4
    [submodel] GTR 0.074466 0.000868 0.020173 0.040479 0.051307 
    [statefreq] 0.034747 0.744736 0.027811 0.192707 
[rates] 0 21.432475 0 

[MODEL] csSim_unlinked_5
    [submodel] GTR 0.080803 0.019215 0.034166 0.036414 0.054962 
    [statefreq] 0.263110 0.007162 0.189375 0.540353 
[rates] 0 60.464722 0 

[MODEL] csSim_unlinked_6
    [submodel] GTR 0.110656 0.003208 0.013640 0.037047 0.044746 
    [statefreq] 0.101516 0.141182 0.536139 0.221162 
[rates] 0 47.199727 0 

[MODEL] csSim_unlinked_7
    [submodel] GTR 0.114423 0.009589 0.039927 0.043684 0.034078 
    [statefreq] 0.151498 0.437307 0.016325 0.394870 
[rates] 0 0.862998 0 

[MODEL] csSim_unlinked_8
    [submodel] GTR 0.144170 0.009603 0.005911 0.030647 0.032652 
    [statefreq] 0.479840 0.377836 0.106400 0.035924 
[rates] 0 23.783455 0 

[MODEL] csSim_unlinked_9
    [submodel] GTR 0.123690 0.021441 0.008610 0.039960 0.040900 
    [statefreq] 0.249341 0.350288 0.330676 0.069696 
[rates] 0 30.364514 0 

[MODEL] csSim_unlinked_10
    [submodel] GTR 0.123072 0.002156 0.020296 0.021402 0.038875 
    [statefreq] 0.365435 0.025533 0.322642 0.286390 
[rates] 0 1.136560 0 


[TREE] T01 ((((((2_0_0:0.00002512,2_0_3:0.00000382):0.00005858,((2_0_7:0.00003223,(2_0_5:0.00004374,2_0_4:0.00002937):0.00000513):0.00005105,(2_0_2:0.00003721,((2_0_1:0.00000220,2_0_8:0.00000095):0.00001428,2_0_6:0.00000321):0.00001811):0.00007237):0.00002892):0.23125709,(7_0_8:0.00032459,(((7_0_5:0.00000363,(7_0_2:0.00001470,7_0_1:0.00001257):0.00000059):0.00006139,7_0_4:0.00001682):0.00001469,(((7_0_3:0.00000072,7_0_7:0.00000137):0.00003844,7_0_6:0.00000251):0.00003521,7_0_0:0.00003146):0.00008945):0.00019134):0.16191137):0.00167411,((((4_0_6:0.00002047,((4_0_3:0.00001755,4_0_4:0.00001428):0.00000290,4_0_8:0.00002829):0.00001404):0.00000392,(4_0_5:0.00008020,(4_0_0:0.00000008,4_0_2:0.00000686):0.00003755):0.00000024):0.00020528,(4_0_7:0.00004677,4_0_1:0.00001210):0.00007277):0.22354288,(((((((((9_0_4:0.00001304,9_0_2:0.00001008):0.00000593,(9_0_7:0.00002603,9_0_0:0.00003160):0.00000367):0.00000213,9_0_6:0.00001460):0.00002062,(9_0_3:0.00000430,9_0_5:0.00001428):0.00000437):0.00005555,(9_0_8:0.00005760,9_0_1:0.00001071):0.00008030):0.00690386,(((11_0_1:0.00002023,(11_0_0:0.00007353,11_0_8:0.00006223):0.00000784):0.00001434,((((11_0_6:0.00000055,11_0_4:0.00000705):0.00000018,11_0_3:0.00000311):0.00000317,11_0_2:0.00001005):0.00001352,(11_0_7:0.00000535,11_0_5:0.00003934):0.00001785):0.00006040):0.04039404,((10_0_1:0.00002583,(10_0_7:0.00000151,10_0_5:0.00000847):0.00008847):0.00000901,(10_0_8:0.00002347,((10_0_2:0.00000082,10_0_0:0.00000019):0.00000526,(10_0_6:0.00000028,(10_0_3:0.00000009,10_0_4:0.00000036):0.00000568):0.00000079):0.00000556):0.00008456):0.02551854):0.00142582):0.01478156,(((((6_0_6:0.00001016,(6_0_0:0.00002156,(6_0_8:0.00000314,6_0_4:0.00000228):0.00000346):0.00000504):0.00002856,6_0_5:0.00000558):0.00000805,(6_0_3:0.00012778,6_0_1:0.00005380):0.00000369):0.00006844,(6_0_2:0.00000286,6_0_7:0.00002132):0.00019007):0.10992362,((3_0_8:0.00000475,3_0_7:0.00001100):0.00001810,((((3_0_0:0.00000282,3_0_5:0.00000470):0.00000021,3_0_6:0.00002277):0.00001909,((3_0_1:0.00000153,3_0_3:0.00000080):0.00000732,3_0_4:0.00000924):0.00001323):0.00000219,3_0_2:0.00013272):0.00001834):0.00861424):0.00663458):0.00000048,((((1_0_8:0.00000053,1_0_1:0.00000033):0.00013998,((1_0_7:0.00000625,1_0_4:0.00000457):0.00000459,1_0_2:0.00003065):0.00006255):0.00009405,(1_0_6:0.00001610,(1_0_0:0.00000561,(1_0_5:0.00001687,1_0_3:0.00000614):0.00000260):0.00000141):0.00037885):0.02115966,(((8_0_8:0.00001148,8_0_0:0.00003131):0.00000110,8_0_5:0.00000917):0.00026290,((8_0_4:0.00004964,8_0_1:0.00007064):0.00000249,(8_0_3:0.00000371,((8_0_2:0.00000143,8_0_6:0.00000133):0.00000054,8_0_7:0.00000097):0.00000092):0.00004181):0.00023825):0.03716411):0.11514678):0.00104029,(((5_0_0:0.00001413,5_0_3:0.00000281):0.00007645,5_0_4:0.00006736):0.00040367,((5_0_7:0.00000242,5_0_2:0.00000261):0.00001683,((5_0_6:0.00000071,5_0_5:0.00000676):0.00004066,(5_0_1:0.00000232,5_0_8:0.00000376):0.00001792):0.00001094):0.00003321):0.00238713):0.01745929):0.00170048):0.00002455,((((12_0_1:0.00001025,12_0_3:0.00000876):0.00009284,((12_0_7:0.00000072,(12_0_2:0.00000036,12_0_0:0.00000097):0.00000114):0.00010158,(12_0_6:0.00006704,12_0_4:0.00020286):0.00000814):0.00001200):0.00031219,(12_0_8:0.00000800,12_0_5:0.00002667):0.00026622):0.00329982,((13_0_7:0.00007901,(13_0_0:0.00002113,13_0_2:0.00002264):0.00004613):0.00013233,((13_0_1:0.00004358,13_0_5:0.00004045):0.00000046,(((13_0_4:0.00001250,13_0_3:0.00000149):0.00000076,13_0_6:0.00000264):0.00002248,13_0_8:0.00000714):0.00000418):0.00020435):0.01795946):0.02497793):0.04451392,0_0_0:0.05434092);
[TREE] T02 ((((((((((((3_0_1:0.00002619,3_0_5:0.00001471):0.00000586,3_0_8:0.00009438):0.00000459,((3_0_6:0.00000466,3_0_4:0.00000404):0.00000006,3_0_2:0.00000212):0.00001265):0.00004088,(3_0_7:0.00002778,3_0_0:0.00001068):0.00011821):0.00001394,3_0_3:0.00007626):0.04173611,(((6_0_7:0.00001768,(6_0_8:0.00000785,6_0_5:0.00005520):0.00007602):0.00003912,((6_0_4:0.00000154,6_0_2:0.00000164):0.00000157,(6_0_0:0.00000142,(6_0_1:0.00001925,6_0_6:0.00000325):0.00000241):0.00000154):0.00002413):0.00008235,6_0_3:0.00010551):0.05716253):0.00042699,((((9_0_0:0.00004335,9_0_6:0.00001425):0.00000586,(((9_0_3:0.00000001,9_0_5:0.00000003):0.00000102,9_0_8:0.00000094):0.00000952,9_0_2:0.00001947):0.00001409):0.00001317,((9_0_7:0.00000574,9_0_4:0.00000351):0.00001704,9_0_1:0.00023935):0.00003805):0.04293437,((11_0_6:0.00004477,(((11_0_3:0.00000004,11_0_5:0.00000079):0.00000163,((11_0_1:0.00000068,11_0_0:0.00000765):0.00000090,(11_0_7:0.00000608,11_0_2:0.00000172):0.00000099):0.00000660):0.00000349,(11_0_4:0.00000041,11_0_8:0.00000182):0.00001060):0.00001060):0.01307733,(10_0_3:0.00016199,((10_0_6:0.00011228,(10_0_1:0.00000511,10_0_2:0.00001689):0.00001322):0.00004460,(10_0_5:0.00001175,(((10_0_4:0.00000058,10_0_0:0.00000276):0.00000316,10_0_8:0.00002144):0.00002517,10_0_7:0.00010503):0.00000823):0.00003828):0.00001731):0.00874751):0.00727998):0.03616554):0.00015702,((((1_0_3:0.00000037,1_0_2:0.00006132):0.00001937,1_0_7:0.00006285):0.00001587,((1_0_8:0.00000031,1_0_1:0.00000028):0.00000080,(1_0_6:0.00007562,((1_0_4:0.00000764,1_0_5:0.00001441):0.00000187,1_0_0:0.00001030):0.00000244):0.00000183):0.00005529):0.00651129,(((8_0_3:0.00005583,8_0_4:0.00007391):0.00001107,(8_0_0:0.00000670,(8_0_8:0.00000598,8_0_5:0.00000563):0.00000437):0.00007873):0.00003259,((8_0_1:0.00000134,8_0_7:0.00000558):0.00004298,(8_0_6:0.00000160,8_0_2:0.00000108):0.00006389):0.00006207):0.00575320):0.01829317):0.00207125,((((5_0_0:0.00000048,5_0_3:0.00000051):0.00000732,5_0_2:0.00004361):0.00012950,(5_0_4:0.00008927,5_0_6:0.00010936):0.00003109):0.00001459,((5_0_5:0.00000409,5_0_7:0.00000328):0.00000378,(5_0_8:0.00001329,5_0_1:0.00002475):0.00000451):0.00003006):0.02508749):0.04494694,(((4_0_5:0.00002153,(4_0_1:0.00000094,4_0_4:0.00000033):0.00001446):0.00004230,((4_0_7:0.00002246,4_0_0:0.00000398):0.00000262,4_0_6:0.00003792):0.00001530):0.00001142,(4_0_3:0.00001350,(4_0_8:0.00000012,4_0_2:0.00000229):0.00000204):0.00014483):0.04487537):0.00043993,(((((12_0_2:0.00002172,12_0_3:0.00000313):0.00006662,12_0_8:0.00006676):0.00007963,(12_0_6:0.00002413,((12_0_0:0.00000031,12_0_7:0.00000006):0.00000774,((12_0_4:0.00001820,12_0_1:0.00001336):0.00000089,12_0_5:0.00000040):0.00000569):0.00004224):0.00006499):0.00327458,((((13_0_2:0.00000008,13_0_0:0.00000010):0.00000635,13_0_4:0.00000183):0.00000247,(13_0_3:0.00000441,13_0_1:0.00000361):0.00000592):0.00028477,((13_0_7:0.00000235,13_0_6:0.00000385):0.00000199,(13_0_5:0.00000334,13_0_8:0.00000068):0.00003974):0.00002079):0.00769024):0.03823132,(((7_0_2:0.00000796,(((7_0_4:0.00000012,7_0_1:0.00000001):0.00000478,7_0_5:0.00000502):0.00000673,7_0_7:0.00000607):0.00006513):0.00001268,(((7_0_6:0.00000081,7_0_3:0.00000123):0.00000806,7_0_0:0.00001479):0.00000587,7_0_8:0.00008098):0.00003504):0.03002414,((2_0_0:0.00006030,2_0_7:0.00001369):0.00020306,((2_0_5:0.00007838,2_0_6:0.00005914):0.00004182,(((2_0_1:0.00000440,2_0_2:0.00000115):0.00009128,2_0_8:0.00011374):0.00000876,(2_0_4:0.00000973,2_0_3:0.00005076):0.00000497):0.00004922):0.00000269):0.01796072):0.00058568):0.00000062):0.00720228,0_0_0:0.07860012);
[TREE] T03 (0_0_0:0.04475977,((((((((((4_0_2:0.00000107,4_0_3:0.00000027):0.00000683,4_0_8:0.00000701):0.00000744,(4_0_7:0.00000615,4_0_1:0.00000078):0.00000255):0.00000427,4_0_5:0.00000195):0.00000031,4_0_6:0.00000507):0.00001524,4_0_0:0.00006284):0.00012057,4_0_4:0.00013675):0.01060849,((((5_0_6:0.00000780,(5_0_1:0.00000001,5_0_7:0.00000000):0.00001027):0.00001628,5_0_2:0.00005253):0.00002053,(((5_0_5:0.00000088,5_0_0:0.00000240):0.00000299,5_0_8:0.00001344):0.00000136,(5_0_4:0.00000006,5_0_3:0.00000005):0.00000920):0.00007802):0.17870158,((((8_0_2:0.00012382,8_0_3:0.00012875):0.00003070,((8_0_8:0.00008653,(8_0_7:0.00001126,(8_0_0:0.00000230,8_0_4:0.00000311):0.00000007):0.00000431):0.00002309,(8_0_1:0.00000181,(8_0_6:0.00000206,8_0_5:0.00000066):0.00000006):0.00006548):0.00000079):0.07054261,((1_0_8:0.00003802,(1_0_2:0.00000257,(1_0_3:0.00000054,1_0_4:0.00000017):0.00000074):0.00000269):0.00018936,(((1_0_1:0.00000839,(1_0_0:0.00000055,1_0_7:0.00000015):0.00003342):0.00001456,1_0_6:0.00003350):0.00000930,1_0_5:0.00004385):0.00002604):0.00916023):0.04300833,(((((3_0_5:0.00002592,((3_0_6:0.00000279,3_0_8:0.00000046):0.00000265,3_0_3:0.00003752):0.00002479):0.00000072,3_0_0:0.00013353):0.00006501,(3_0_7:0.00000236,(3_0_2:0.00000552,(3_0_4:0.00000040,3_0_1:0.00000135):0.00000135):0.00000134):0.00024163):0.02368565,((6_0_6:0.00001376,(6_0_8:0.00002365,(6_0_5:0.00000281,6_0_7:0.00000324):0.00013954):0.00001919):0.00006712,(6_0_2:0.00004505,((6_0_4:0.00002939,6_0_3:0.00001364):0.00000003,(6_0_1:0.00000031,6_0_0:0.00000019):0.00001662):0.00003678):0.00000469):0.01444606):0.01265787,(((9_0_3:0.00012833,9_0_1:0.00001893):0.00005194,(((9_0_8:0.00000243,9_0_4:0.00000204):0.00000293,(9_0_0:0.00000524,9_0_7:0.00000070):0.00004465):0.00000445,(9_0_2:0.00001975,(9_0_6:0.00003976,9_0_5:0.00000339):0.00002366):0.00000031):0.00019408):0.02427775,(((10_0_6:0.00001445,(((10_0_7:0.00000034,10_0_8:0.00000033):0.00002549,(10_0_0:0.00001106,10_0_5:0.00000487):0.00000694):0.00000591,10_0_4:0.00005593):0.00000057):0.00019813,((10_0_2:0.00001832,10_0_1:0.00000419):0.00005453,10_0_3:0.00006766):0.00000763):0.03299426,((11_0_2:0.00001585,((11_0_0:0.00001796,11_0_1:0.00000529):0.00003619,11_0_8:0.00005962):0.00000039):0.00123233,(11_0_6:0.00002215,((11_0_4:0.00000218,11_0_3:0.00000743):0.00003676,(11_0_5:0.00000018,11_0_7:0.00000005):0.00001268):0.00000020):0.00045111):0.05168064):0.00226248):0.00862452):0.00028852):0.00184936):0.01113207):0.00172780,((((2_0_7:0.00002616,((2_0_6:0.00005115,2_0_8:0.00006891):0.00003126,2_0_1:0.00001357):0.00000076):0.00000436,(2_0_3:0.00000027,2_0_0:0.00000000):0.00001306):0.00002847,((2_0_2:0.00000141,2_0_5:0.00000426):0.00001257,2_0_4:0.00004394):0.00002149):0.02142371,((7_0_1:0.00000247,(((7_0_7:0.00000058,7_0_2:0.00000056):0.00001647,7_0_4:0.00000680):0.00000546,7_0_8:0.00003133):0.00000138):0.00010169,(7_0_6:0.00000116,((7_0_3:0.00000176,7_0_5:0.00000238):0.00000118,7_0_0:0.00000119):0.00000321):0.00068061):0.20068995):0.00149568):0.00030141,(((((13_0_1:0.00006741,13_0_2:0.00001281):0.00000076,(13_0_7:0.00000154,13_0_3:0.00001156):0.00000124):0.00000525,(13_0_4:0.00000446,13_0_8:0.00000220):0.00005521):0.00018420,(13_0_5:0.00000084,(13_0_6:0.00000541,13_0_0:0.00000555):0.00000178):0.00000770):0.07908000,((((12_0_0:0.00000097,12_0_4:0.00000689):0.00001660,12_0_2:0.00000396):0.00000309,(12_0_5:0.00002648,12_0_7:0.00000939):0.00000968):0.00046252,((12_0_8:0.00004782,12_0_3:0.00002779):0.00014912,(12_0_1:0.00000529,12_0_6:0.00000035):0.00007932):0.00026904):0.01940666):0.13427596):0.00298249);
[TREE] T04 (0_0_0:0.19513519,((((((7_0_3:0.00004913,7_0_5:0.00000104):0.00023539,((7_0_7:0.00003905,7_0_6:0.00001388):0.00000343,7_0_1:0.00000789):0.00028903):0.00001321,(7_0_2:0.00001290,(7_0_0:0.00000215,(7_0_4:0.00000039,7_0_8:0.00000517):0.00000984):0.00000180):0.00001522):0.11015319,(((2_0_7:0.00001845,(2_0_3:0.00000116,2_0_0:0.00000253):0.00000866):0.00000461,((2_0_8:0.00000145,2_0_1:0.00000170):0.00000245,(2_0_2:0.00000195,2_0_4:0.00001105):0.00003814):0.00000800):0.00004663,(2_0_5:0.00002180,2_0_6:0.00000390):0.00023547):0.12790071):0.00190643,((4_0_5:0.00007549,((((4_0_7:0.00000016,4_0_1:0.00000076):0.00000112,4_0_4:0.00000177):0.00003387,(4_0_6:0.00000180,(4_0_2:0.00000203,4_0_3:0.00000205):0.00000066):0.00002086):0.00005051,(4_0_8:0.00000135,4_0_0:0.00001546):0.00004143):0.00003155):0.07631362,((((((1_0_2:0.00000853,1_0_6:0.00000237):0.00004626,(1_0_5:0.00000119,1_0_3:0.00000087):0.00001743):0.00002947,((((1_0_0:0.00000093,1_0_7:0.00000087):0.00000429,1_0_8:0.00000140):0.00000049,1_0_1:0.00001756):0.00000006,1_0_4:0.00000115):0.00017372):0.01668746,((8_0_7:0.00000631,((8_0_6:0.00000514,8_0_1:0.00000417):0.00000482,((8_0_0:0.00000222,8_0_5:0.00000891):0.00002545,(8_0_2:0.00000166,8_0_8:0.00000157):0.00000049):0.00002549):0.00005247):0.00009321,(8_0_4:0.00000346,8_0_3:0.00000357):0.00010562):0.01199388):0.05214252,((((((10_0_0:0.00000189,10_0_1:0.00001203):0.00006204,10_0_4:0.00003395):0.00010316,((10_0_5:0.00000100,10_0_7:0.00000483):0.00003136,(10_0_8:0.00001614,(10_0_6:0.00000292,(10_0_3:0.00000389,10_0_2:0.00001442):0.00000118):0.00000693):0.00002001):0.00000909):0.00162705,((11_0_6:0.00001067,11_0_4:0.00000144):0.00012675,((11_0_7:0.00001130,((11_0_0:0.00003830,(11_0_5:0.00000643,11_0_8:0.00001474):0.00000007):0.00000716,11_0_1:0.00001099):0.00000748):0.00004614,(11_0_2:0.00000579,11_0_3:0.00002980):0.00006162):0.00001012):0.03520969):0.00009703,((9_0_7:0.00000013,9_0_6:0.00000089):0.00009275,(((9_0_2:0.00000227,((9_0_0:0.00000236,9_0_5:0.00000051):0.00000122,9_0_4:0.00000319):0.00001219):0.00001657,9_0_1:0.00000151):0.00016630,(9_0_3:0.00004297,9_0_8:0.00001117):0.00004387):0.00000312):0.02759297):0.01006689,(((((6_0_1:0.00000018,6_0_7:0.00000008):0.00000382,((6_0_5:0.00001938,(6_0_2:0.00000148,6_0_8:0.00000366):0.00000003):0.00000351,6_0_6:0.00000011):0.00005224):0.00002104,6_0_3:0.00006798):0.00001726,(6_0_4:0.00000183,6_0_0:0.00000142):0.00003840):0.04210471,((((3_0_5:0.00000334,3_0_4:0.00000566):0.00001776,3_0_1:0.00001649):0.00040124,(3_0_3:0.00005647,(3_0_8:0.00003645,(3_0_0:0.00001524,3_0_6:0.00000341):0.00000166):0.00000560):0.00001435):0.00002657,(3_0_7:0.00000423,3_0_2:0.00000732):0.00015690):0.00881828):0.02293954):0.00031262):0.00293546,((((5_0_7:0.00000232,5_0_5:0.00000023):0.00000225,5_0_1:0.00002243):0.00000103,5_0_8:0.00001931):0.00027268,(5_0_3:0.00000497,((5_0_6:0.00000194,5_0_2:0.00000473):0.00004409,(5_0_4:0.00000717,5_0_0:0.00000362):0.00006111):0.00000357):0.00004646):0.02592806):0.07965975):0.00243622):0.00019451,((((12_0_7:0.00000942,12_0_2:0.00000879):0.00000702,12_0_8:0.00000762):0.00042270,((((12_0_4:0.00000756,12_0_1:0.00001213):0.00002021,12_0_6:0.00003708):0.00000341,12_0_5:0.00002208):0.00002309,(12_0_3:0.00000376,12_0_0:0.00001968):0.00006830):0.00021766):0.03305849,((13_0_0:0.00000254,13_0_3:0.00002867):0.00015129,((((13_0_6:0.00000005,13_0_5:0.00000376):0.00001052,13_0_8:0.00003168):0.00000248,(13_0_4:0.00003024,(13_0_1:0.00002836,13_0_7:0.00003079):0.00000238):0.00008083):0.00001537,13_0_2:0.00002752):0.00016047):0.01410655):0.15656094):0.04124632);
[TREE] T05 ((((((12_0_0:0.00001576,(((12_0_8:0.00000253,12_0_4:0.00000066):0.00000369,12_0_2:0.00000372):0.00001145,(12_0_1:0.00000402,12_0_7:0.00000061):0.00000037):0.00005467):0.00000004,12_0_5:0.00012109):0.00003143,(12_0_6:0.00009494,12_0_3:0.00017980):0.00003749):0.03461728,(((13_0_7:0.00001839,13_0_8:0.00000326):0.00002584,(13_0_0:0.00004375,(13_0_2:0.00000045,13_0_1:0.00000102):0.00009797):0.00001769):0.00013084,(13_0_6:0.00005569,((13_0_4:0.00001109,13_0_5:0.00004385):0.00000134,13_0_3:0.00000369):0.00000229):0.00004736):0.03385533):0.03511171,((((((7_0_7:0.00000064,7_0_2:0.00000091):0.00000856,7_0_3:0.00000578):0.00001069,(7_0_8:0.00000081,7_0_0:0.00000033):0.00010924):0.00004353,(((7_0_1:0.00001722,7_0_4:0.00001195):0.00000097,7_0_6:0.00000752):0.00000053,7_0_5:0.00005946):0.00010194):0.03973932,((2_0_8:0.00011564,((2_0_5:0.00001718,2_0_3:0.00000683):0.00004151,(2_0_4:0.00001875,((2_0_6:0.00000126,2_0_2:0.00000026):0.00000281,2_0_0:0.00001464):0.00002601):0.00003476):0.00000516):0.00006730,(2_0_1:0.00000499,2_0_7:0.00007143):0.00017578):0.16197526):0.00306652,((((((4_0_5:0.00000608,4_0_3:0.00001166):0.00000097,4_0_7:0.00000444):0.00000045,(4_0_8:0.00000146,4_0_4:0.00000090):0.00001003):0.00001556,(4_0_6:0.00001622,4_0_0:0.00001453):0.00001075):0.00006741,(4_0_2:0.00000402,4_0_1:0.00001236):0.00002140):0.09423556,((((5_0_2:0.00004626,5_0_1:0.00003590):0.00002936,((5_0_8:0.00000109,5_0_0:0.00001053):0.00000185,(5_0_5:0.00000088,(5_0_7:0.00000073,5_0_3:0.00000051):0.00000099):0.00000751):0.00008554):0.00001280,(5_0_6:0.00001796,5_0_4:0.00001032):0.00012754):0.02019901,((((((9_0_2:0.00000208,9_0_6:0.00000866):0.00002586,(9_0_5:0.00000806,(((9_0_0:0.00000056,9_0_8:0.00000036):0.00000139,9_0_7:0.00000022):0.00000274,9_0_1:0.00000671):0.00000712):0.00000664):0.00000670,(9_0_3:0.00012106,9_0_4:0.00002634):0.00001430):0.01106343,(((((10_0_0:0.00000058,10_0_7:0.00000025):0.00000234,10_0_5:0.00000255):0.00001506,10_0_4:0.00000595):0.00008431,((10_0_8:0.00000312,10_0_2:0.00000524):0.00004717,(10_0_6:0.00001443,(10_0_1:0.00001451,10_0_3:0.00000263):0.00001205):0.00001876):0.00011487):0.01101883,((((11_0_1:0.00003987,11_0_0:0.00001883):0.00001563,(11_0_4:0.00000596,11_0_2:0.00010260):0.00000013):0.00001247,11_0_8:0.00003329):0.00002802,(((11_0_5:0.00000097,11_0_6:0.00000025):0.00000057,11_0_3:0.00000101):0.00000404,11_0_7:0.00002916):0.00019289):0.02079760):0.00517102):0.02359687,((3_0_8:0.00000859,((((3_0_5:0.00000756,3_0_0:0.00000056):0.00000699,(3_0_3:0.00000255,3_0_1:0.00000725):0.00005516):0.00000090,3_0_7:0.00009488):0.00002423,(3_0_4:0.00004259,(3_0_2:0.00000435,3_0_6:0.00001053):0.00000302):0.00009527):0.00001547):0.05199800,(((6_0_2:0.00001890,6_0_0:0.00000171):0.00000444,(6_0_5:0.00000359,6_0_3:0.00000032):0.00003782):0.00000415,(6_0_8:0.00000978,(6_0_6:0.00004053,(6_0_7:0.00007239,(6_0_1:0.00000408,6_0_4:0.00000035):0.00000490):0.00000719):0.00000317):0.00005615):0.00543491):0.01459941):0.00046108,((((1_0_6:0.00000050,1_0_1:0.00000014):0.00002328,1_0_4:0.00000511):0.00003637,(((1_0_5:0.00000838,(1_0_3:0.00000161,1_0_2:0.00000413):0.00001630):0.00000634,(1_0_7:0.00000577,1_0_0:0.00000743):0.00002804):0.00007436,1_0_8:0.00009609):0.00001054):0.01384957,((((8_0_4:0.00000337,8_0_7:0.00000034):0.00000778,8_0_5:0.00000522):0.00001309,8_0_2:0.00000290):0.00009821,(8_0_8:0.00004735,(8_0_1:0.00000321,(8_0_3:0.00000454,(8_0_0:0.00001254,8_0_6:0.00000197):0.00000779):0.00000268):0.00002571):0.00013016):0.03540449):0.01440354):0.00067101):0.01032912):0.00124166):0.00007367):0.06939120,0_0_0:0.25122284);
[TREE] T06 (0_0_0:0.35989371,((((((7_0_6:0.00000358,7_0_0:0.00002919):0.00000378,(7_0_5:0.00002230,7_0_2:0.00000329):0.00000436):0.00012787,(((7_0_3:0.00000337,7_0_4:0.00000326):0.00000446,7_0_1:0.00001503):0.00000233,(7_0_7:0.00000098,7_0_8:0.00000253):0.00000346):0.00013243):0.03308364,(((2_0_1:0.00000070,2_0_8:0.00000217):0.00003553,(2_0_3:0.00000934,2_0_7:0.00001181):0.00002667):0.00000645,((2_0_6:0.00000803,((2_0_2:0.00000886,2_0_0:0.00000026):0.00000048,2_0_4:0.00003279):0.00000446):0.00002104,2_0_5:0.00000774):0.00000248):0.01664014):0.00286412,(((4_0_3:0.00005346,4_0_2:0.00003692):0.00005176,(((4_0_6:0.00002524,4_0_8:0.00000463):0.00004855,(((4_0_5:0.00000809,4_0_4:0.00000373):0.00001015,4_0_0:0.00001958):0.00003203,4_0_1:0.00005593):0.00000236):0.00002353,4_0_7:0.00000593):0.00003146):0.01691284,((((((8_0_1:0.00000331,8_0_8:0.00002340):0.00001188,(((8_0_4:0.00000155,8_0_7:0.00000602):0.00003118,8_0_0:0.00000520):0.00005172,((8_0_2:0.00000365,8_0_3:0.00000262):0.00000419,8_0_5:0.00000258):0.00000529):0.00007926):0.00000151,8_0_6:0.00000519):0.02216984,((1_0_3:0.00006571,(1_0_6:0.00000204,1_0_4:0.00000518):0.00005857):0.00012972,((((1_0_2:0.00000500,1_0_0:0.00000502):0.00000690,1_0_5:0.00003939):0.00000960,(1_0_8:0.00001087,1_0_1:0.00000296):0.00002923):0.00000406,1_0_7:0.00020044):0.00000172):0.00522197):0.01728057,(((((((11_0_4:0.00000212,(11_0_2:0.00000002,11_0_7:0.00000033):0.00001189):0.00001446,11_0_0:0.00000523):0.00000310,(11_0_5:0.00000807,11_0_6:0.00001036):0.00001707):0.00000730,((11_0_1:0.00000016,11_0_8:0.00000040):0.00001913,11_0_3:0.00000443):0.00001628):0.02768157,((((10_0_7:0.00000006,10_0_5:0.00000028):0.00002169,10_0_3:0.00000591):0.00002064,((10_0_1:0.00003331,10_0_6:0.00000430):0.00000187,(10_0_8:0.00000197,10_0_2:0.00000071):0.00001572):0.00000479):0.00001326,(10_0_0:0.00000547,10_0_4:0.00001641):0.00001617):0.00724511):0.00108107,((9_0_0:0.00000058,(9_0_6:0.00000607,9_0_4:0.00000810):0.00000286):0.00008382,(((9_0_7:0.00000427,9_0_3:0.00000112):0.00001095,9_0_5:0.00002559):0.00001757,((9_0_2:0.00005043,9_0_1:0.00001349):0.00001226,9_0_8:0.00000372):0.00002342):0.00002903):0.10024434):0.00778118,((6_0_1:0.00004089,(((6_0_2:0.00000770,(6_0_4:0.00000115,6_0_8:0.00000052):0.00000508):0.00000422,((6_0_5:0.00000071,6_0_3:0.00000451):0.00000662,(6_0_6:0.00000409,6_0_0:0.00004644):0.00000655):0.00000213):0.00003277,6_0_7:0.00001168):0.00000655):0.02273503,((((3_0_2:0.00000261,3_0_5:0.00000123):0.00000120,3_0_1:0.00000616):0.00000211,(3_0_8:0.00000083,3_0_7:0.00000033):0.00000832):0.00072193,(3_0_3:0.00013968,(3_0_6:0.00002762,(3_0_4:0.00000477,3_0_0:0.00000294):0.00000790):0.00008652):0.00008640):0.00444181):0.01115008):0.00053931):0.00024870,((5_0_7:0.00009361,(5_0_4:0.00001249,(5_0_6:0.00000006,5_0_0:0.00000024):0.00001913):0.00000825):0.00015494,(((5_0_5:0.00000018,5_0_8:0.00000042):0.00000071,5_0_1:0.00000287):0.00000409,(5_0_3:0.00000783,5_0_2:0.00000121):0.00000978):0.00018917):0.05927272):0.01495755):0.00006270):0.00024995,(((((13_0_2:0.00002120,13_0_8:0.00000914):0.00000285,13_0_1:0.00002593):0.00006511,13_0_3:0.00005082):0.00000315,((13_0_7:0.00000297,(13_0_6:0.00000464,(13_0_4:0.00000202,13_0_5:0.00000068):0.00000348):0.00000012):0.00004860,13_0_0:0.00001684):0.00002162):0.04870389,((((12_0_6:0.00000510,(12_0_7:0.00000227,12_0_5:0.00000048):0.00000047):0.00001751,12_0_2:0.00002494):0.00005912,(12_0_8:0.00004859,(12_0_3:0.00000463,(12_0_0:0.00000053,12_0_1:0.00000001):0.00003484):0.00002163):0.00005876):0.00022425,12_0_4:0.00018967):0.01499025):0.01398745):0.09909551);
[TREE] T07 (0_0_0:0.09540874,((((((4_0_2:0.00001305,(4_0_6:0.00000731,(4_0_1:0.00000035,4_0_5:0.00000028):0.00000135):0.00000127):0.00000668,(4_0_3:0.00001976,4_0_0:0.00001904):0.00000697):0.00003090,4_0_4:0.00001315):0.00003796,(4_0_8:0.00003007,4_0_7:0.00000203):0.00002161):0.01746021,((((1_0_8:0.00002613,(1_0_4:0.00000649,((((1_0_0:0.00000054,1_0_3:0.00000157):0.00000308,1_0_6:0.00000382):0.00001112,(1_0_7:0.00001083,1_0_2:0.00000710):0.00000429):0.00001920,(1_0_5:0.00000428,1_0_1:0.00002104):0.00001592):0.00012226):0.00001014):0.00770520,((8_0_7:0.00010833,8_0_3:0.00011591):0.00002942,(((8_0_0:0.00000833,(8_0_5:0.00000920,8_0_4:0.00000254):0.00000063):0.00003342,8_0_6:0.00000972):0.00000488,(8_0_8:0.00000275,(8_0_1:0.00000112,8_0_2:0.00000296):0.00000127):0.00005323):0.00018614):0.00923538):0.03502434,(((9_0_5:0.00003703,(((9_0_4:0.00004580,(9_0_8:0.00005560,((9_0_3:0.00000142,9_0_2:0.00000156):0.00000206,(9_0_1:0.00000139,9_0_6:0.00000281):0.00000263):0.00000609):0.00001223):0.00000099,9_0_7:0.00009122):0.00001294,9_0_0:0.00016221):0.00000633):0.00094718,((((((10_0_1:0.00000292,10_0_0:0.00000357):0.00003665,10_0_8:0.00004239):0.00000755,10_0_4:0.00004607):0.00000259,((10_0_6:0.00003500,(10_0_5:0.00003112,10_0_2:0.00000204):0.00000001):0.00004088,10_0_3:0.00000057):0.00000262):0.00006578,10_0_7:0.00039859):0.05859382,(((11_0_7:0.00000049,11_0_3:0.00000007):0.00000194,(11_0_2:0.00000043,11_0_6:0.00000034):0.00000069):0.00001336,(11_0_4:0.00006734,(((11_0_5:0.00000726,11_0_1:0.00000222):0.00002030,11_0_8:0.00002285):0.00000880,11_0_0:0.00002752):0.00000339):0.00000301):0.02888310):0.00772694):0.01243690,((((3_0_5:0.00000019,3_0_2:0.00000679):0.00001397,3_0_0:0.00010001):0.00000387,((3_0_1:0.00000162,((3_0_6:0.00000000,3_0_3:0.00000004):0.00000002,3_0_8:0.00000014):0.00000112):0.00001924,(3_0_7:0.00000331,3_0_4:0.00000488):0.00000280):0.00006741):0.02254137,(((6_0_8:0.00000200,6_0_1:0.00000781):0.00001084,6_0_7:0.00001535):0.00003737,((6_0_2:0.00001701,((6_0_0:0.00000810,6_0_5:0.00000123):0.00003534,6_0_6:0.00000877):0.00000002):0.00003436,(6_0_3:0.00000487,6_0_4:0.00000915):0.00005054):0.00017000):0.17163908):0.00373570):0.00018765):0.00156276,(((5_0_0:0.00000966,5_0_7:0.00000293):0.00000007,5_0_5:0.00000686):0.00016108,((5_0_6:0.00002122,5_0_3:0.00000970):0.00011977,(5_0_2:0.00003639,((5_0_1:0.00000124,5_0_4:0.00000098):0.00003399,5_0_8:0.00000038):0.00010082):0.00001225):0.00000851):0.07381069):0.04700166):0.00149719,(((((12_0_7:0.00008934,12_0_4:0.00002546):0.00036041,((12_0_2:0.00001829,((12_0_8:0.00000167,12_0_5:0.00000001):0.00000560,12_0_3:0.00000626):0.00000286):0.00000021,12_0_1:0.00003765):0.00035345):0.00000605,(12_0_0:0.00004235,12_0_6:0.00001296):0.00000787):0.03186348,(((((13_0_8:0.00004884,13_0_7:0.00001650):0.00000000,13_0_4:0.00001236):0.00000046,13_0_5:0.00000718):0.00000071,(13_0_1:0.00002710,(13_0_0:0.00000016,13_0_2:0.00000111):0.00004842):0.00000316):0.00000465,(13_0_3:0.00000351,13_0_6:0.00000250):0.00003341):0.05938276):0.10998359,(((((7_0_4:0.00000341,7_0_8:0.00000099):0.00000065,7_0_7:0.00000135):0.00001994,((7_0_5:0.00000146,7_0_3:0.00001237):0.00000198,7_0_1:0.00000359):0.00000086):0.00008033,(7_0_2:0.00002134,(7_0_6:0.00001736,7_0_0:0.00003011):0.00000162):0.00014195):0.09729107,((2_0_0:0.00005338,2_0_3:0.00000700):0.00015410,(((2_0_4:0.00000037,2_0_1:0.00000476):0.00006096,((2_0_8:0.00000084,2_0_2:0.00001608):0.00001795,2_0_5:0.00000624):0.00000650):0.00002829,(2_0_7:0.00001504,2_0_6:0.00000386):0.00003237):0.00003741):0.02609336):0.00127092):0.00002379):0.09963307);
[TREE] T08 (0_0_0:0.23053577,(((((12_0_5:0.00000007,(12_0_3:0.00000042,12_0_7:0.00000083):0.00000013):0.00004328,(12_0_4:0.00000289,12_0_6:0.00001080):0.00006322):0.00004257,((12_0_2:0.00000034,12_0_1:0.00000224):0.00000949,(12_0_0:0.00000702,12_0_8:0.00008728):0.00013737):0.00003475):0.00510664,((((13_0_6:0.00000363,13_0_3:0.00001079):0.00000889,(13_0_2:0.00000936,(13_0_4:0.00001782,13_0_7:0.00000544):0.00000223):0.00000359):0.00003164,(13_0_1:0.00002322,13_0_5:0.00004793):0.00000764):0.00008351,(13_0_8:0.00000947,13_0_0:0.00000216):0.00006455):0.02070494):0.37633531,(((((7_0_7:0.00001762,7_0_1:0.00013306):0.00012156,7_0_3:0.00012754):0.00016347,(((7_0_5:0.00000081,7_0_8:0.00000157):0.00003837,(7_0_4:0.00000244,7_0_0:0.00000069):0.00001092):0.00000143,(7_0_6:0.00000305,7_0_2:0.00003624):0.00002502):0.00004848):0.07490526,((2_0_2:0.00001527,(2_0_3:0.00000104,2_0_4:0.00000111):0.00000398):0.00021249,(((2_0_8:0.00000108,2_0_5:0.00000101):0.00000341,2_0_0:0.00002570):0.00011629,((2_0_6:0.00000763,2_0_1:0.00000149):0.00000594,2_0_7:0.00001224):0.00020882):0.00001854):0.00472917):0.00178151,(((4_0_4:0.00000676,4_0_6:0.00000306):0.00016245,((4_0_7:0.00003318,(4_0_3:0.00001215,(4_0_8:0.00000031,4_0_1:0.00000006):0.00001015):0.00000010):0.00000153,((4_0_2:0.00000172,4_0_5:0.00000547):0.00000438,4_0_0:0.00001195):0.00000286):0.00007818):0.05506936,((((((8_0_3:0.00001319,8_0_6:0.00001274):0.00001143,((8_0_4:0.00000217,8_0_5:0.00000952):0.00001397,(8_0_1:0.00000015,8_0_8:0.00000046):0.00004123):0.00000413):0.00008704,(8_0_2:0.00003281,(8_0_7:0.00001702,8_0_0:0.00001547):0.00008439):0.00000559):0.03697818,(1_0_4:0.00007717,((((1_0_1:0.00004814,1_0_7:0.00000414):0.00000241,1_0_5:0.00000889):0.00000077,(1_0_8:0.00000254,1_0_0:0.00002895):0.00000345):0.00008909,(1_0_2:0.00003210,(1_0_6:0.00000030,1_0_3:0.00000116):0.00000446):0.00007411):0.00004899):0.01853324):0.04551701,(((((11_0_2:0.00000437,(11_0_1:0.00000322,11_0_5:0.00000533):0.00000410):0.00000796,((((11_0_6:0.00000026,11_0_8:0.00000433):0.00000448,11_0_4:0.00001204):0.00002247,11_0_0:0.00001977):0.00000247,(11_0_3:0.00013496,11_0_7:0.00012846):0.00001224):0.00003297):0.05457567,((10_0_8:0.00004687,10_0_6:0.00000620):0.00089251,((10_0_1:0.00000009,10_0_7:0.00000007):0.00011825,(10_0_2:0.00000676,((10_0_0:0.00000772,10_0_3:0.00001070):0.00000114,(10_0_5:0.00000243,10_0_4:0.00000336):0.00000226):0.00004553):0.00007234):0.00032988):0.06987055):0.00378235,((9_0_4:0.00000259,9_0_0:0.00000272):0.00001141,((((9_0_2:0.00000112,9_0_1:0.00001064):0.00000345,9_0_6:0.00003403):0.00005111,9_0_5:0.00002318):0.00000736,((9_0_7:0.00000002,9_0_3:0.00000245):0.00000051,9_0_8:0.00001726):0.00000323):0.00000065):0.12596742):0.00125442,(((6_0_2:0.00001645,((6_0_7:0.00001434,6_0_6:0.00003544):0.00000789,((6_0_3:0.00000645,6_0_4:0.00000907):0.00000096,6_0_5:0.00000787):0.00002159):0.00000546):0.00001414,(6_0_1:0.00004572,(6_0_0:0.00002183,6_0_8:0.00001001):0.00000016):0.00009370):0.00590479,((3_0_3:0.00001164,(3_0_7:0.00000367,(3_0_1:0.00000110,3_0_6:0.00000021):0.00000574):0.00000020):0.00005245,((3_0_2:0.00002301,(3_0_0:0.00000819,3_0_4:0.00001760):0.00000078):0.00000128,(3_0_5:0.00000364,3_0_8:0.00002789):0.00000180):0.00001341):0.02674427):0.00984930):0.00084924):0.00144376,((5_0_3:0.00001173,(5_0_6:0.00000111,5_0_7:0.00000776):0.00000018):0.00013652,((5_0_2:0.00000709,(5_0_1:0.00000981,(5_0_4:0.00000896,5_0_0:0.00000391):0.00000009):0.00002125):0.00005029,(5_0_5:0.00002502,5_0_8:0.00000735):0.00003537):0.00001966):0.04525659):0.00450523):0.00027951):0.00007503):0.01170916);
[TREE] T09 (((((12_0_1:0.00004039,12_0_0:0.00002817):0.00009678,((((12_0_6:0.00000201,12_0_3:0.00000386):0.00004581,12_0_2:0.00001719):0.00000111,12_0_7:0.00000115):0.00002958,((12_0_8:0.00001891,12_0_4:0.00000303):0.00000040,12_0_5:0.00000781):0.00012494):0.00001175):0.02517716,((13_0_3:0.00000261,((13_0_8:0.00000401,13_0_4:0.00000273):0.00000149,13_0_6:0.00001546):0.00000102):0.00007245,(((13_0_0:0.00000010,13_0_1:0.00000007):0.00001055,13_0_5:0.00002342):0.00000038,(13_0_7:0.00000225,13_0_2:0.00000843):0.00014110):0.00015720):0.04806603):0.04055578,((((2_0_0:0.00002976,(2_0_8:0.00000432,2_0_1:0.00003316):0.00000985):0.00002588,(((2_0_6:0.00000074,2_0_4:0.00000131):0.00001228,2_0_2:0.00000258):0.00008726,(2_0_7:0.00002624,(2_0_3:0.00000022,2_0_5:0.00000049):0.00001176):0.00002471):0.00001469):0.07067417,(((7_0_1:0.00001881,(7_0_6:0.00000582,7_0_5:0.00000470):0.00000598):0.00000277,((((7_0_2:0.00000221,7_0_8:0.00000037):0.00000108,7_0_7:0.00000459):0.00000801,7_0_0:0.00000887):0.00002896,7_0_3:0.00003545):0.00003836):0.00003589,7_0_4:0.00013644):0.01789604):0.00281913,(((((((1_0_8:0.00000079,1_0_0:0.00000738):0.00000555,1_0_6:0.00000685):0.00019367,(1_0_7:0.00003704,((1_0_2:0.00000327,1_0_3:0.00000389):0.00003094,(1_0_4:0.00000477,(1_0_5:0.00000381,1_0_1:0.00000183):0.00000234):0.00000132):0.00016105):0.00012434):0.01537739,((8_0_1:0.00046388,(((8_0_8:0.00000084,8_0_5:0.00003989):0.00006495,8_0_6:0.00000112):0.00000064,(8_0_3:0.00001830,(8_0_7:0.00000001,8_0_2:0.00000001):0.00000305):0.00002530):0.00009828):0.00000000,(8_0_0:0.00000378,8_0_4:0.00001574):0.00017181):0.00219916):0.00472819,((((((10_0_5:0.00000017,(10_0_6:0.00000346,10_0_0:0.00000257):0.00000477):0.00004418,10_0_3:0.00007667):0.00025795,((10_0_1:0.00001817,10_0_4:0.00001503):0.00004838,(10_0_8:0.00003221,(10_0_7:0.00005998,10_0_2:0.00005469):0.00001017):0.00000979):0.00010024):0.01962232,((((11_0_0:0.00002335,11_0_7:0.00005446):0.00000056,((11_0_2:0.00001265,((11_0_8:0.00000474,11_0_1:0.00000147):0.00000826,11_0_5:0.00000407):0.00000227):0.00003340,11_0_6:0.00010641):0.00000628):0.00000073,11_0_4:0.00008509):0.00000563,11_0_3:0.00004564):0.01183934):0.00416035,(((9_0_1:0.00000056,9_0_0:0.00000116):0.00001005,(9_0_6:0.00000281,9_0_2:0.00000145):0.00000306):0.00000039,(((9_0_8:0.00000999,9_0_4:0.00001712):0.00000299,9_0_5:0.00000628):0.00000588,(9_0_7:0.00000530,9_0_3:0.00005104):0.00000131):0.00000781):0.08062281):0.02731899,((((6_0_0:0.00000224,6_0_7:0.00000103):0.00008643,6_0_1:0.00000324):0.00001339,(6_0_6:0.00003127,(6_0_2:0.00005435,(((6_0_4:0.00000056,6_0_5:0.00000035):0.00000219,6_0_3:0.00000166):0.00000157,6_0_8:0.00000826):0.00003948):0.00000105):0.00000219):0.02408606,((3_0_1:0.00018830,(((3_0_2:0.00000145,3_0_6:0.00000139):0.00000418,3_0_0:0.00000705):0.00002573,(3_0_3:0.00000553,3_0_5:0.00001310):0.00000211):0.00005658):0.00002281,(3_0_7:0.00002545,(3_0_8:0.00001395,3_0_4:0.00001038):0.00003282):0.00008687):0.01469671):0.00744092):0.00131858):0.00237650,((5_0_6:0.00008101,(5_0_1:0.00000251,5_0_3:0.00001734):0.00000520):0.00001612,(((5_0_4:0.00000745,5_0_0:0.00000339):0.00000052,5_0_2:0.00002229):0.00002390,((5_0_5:0.00000008,5_0_8:0.00000050):0.00000000,5_0_7:0.00000386):0.00002358):0.00000416):0.02295046):0.08074272,((4_0_1:0.00007939,4_0_5:0.00003130):0.00052576,(4_0_4:0.00002492,((4_0_8:0.00000797,4_0_0:0.00000893):0.00003052,(4_0_7:0.00002646,((4_0_3:0.00000049,4_0_2:0.00000170):0.00000985,4_0_6:0.00000201):0.00001013):0.00000838):0.00001400):0.00016800):0.07893834):0.00054979):0.00011835):0.23813900,0_0_0:0.09002212);
[TREE] T10 (0_0_0:0.24533356,(((13_0_4:0.00029177,(((13_0_6:0.00002371,((13_0_2:0.00000176,13_0_0:0.00000087):0.00000168,13_0_3:0.00004706):0.00001290):0.00000526,13_0_5:0.00007911):0.00001112,((13_0_7:0.00001281,13_0_1:0.00003846):0.00000111,13_0_8:0.00002192):0.00005020):0.00066153):0.02308719,((12_0_1:0.00003986,(12_0_4:0.00000591,12_0_0:0.00001542):0.00000001):0.00001114,(((12_0_5:0.00000028,12_0_2:0.00000046):0.00000798,12_0_3:0.00000171):0.00001009,(12_0_7:0.00000038,(12_0_6:0.00000016,12_0_8:0.00000018):0.00000020):0.00001513):0.00002893):0.02692926):0.02513695,(((2_0_7:0.00000768,(((2_0_6:0.00005378,(2_0_0:0.00000516,2_0_1:0.00001755):0.00000340):0.00000458,2_0_2:0.00002351):0.00000470,((2_0_5:0.00000345,(2_0_3:0.00000079,2_0_4:0.00000061):0.00000068):0.00000870,2_0_8:0.00009999):0.00000881):0.00002708):0.46530918,((((7_0_1:0.00003546,7_0_5:0.00008183):0.00000146,7_0_0:0.00009242):0.00000044,7_0_2:0.00023693):0.00003109,((((7_0_6:0.00000104,7_0_8:0.00000218):0.00000149,7_0_3:0.00000273):0.00000278,7_0_4:0.00000466):0.00000085,7_0_7:0.00000696):0.00005340):0.09675592):0.00401271,(((((4_0_6:0.00000069,4_0_0:0.00000925):0.00000062,(4_0_3:0.00000417,4_0_7:0.00000321):0.00000026):0.00000064,4_0_2:0.00000059):0.00003791,((4_0_8:0.00010893,(4_0_5:0.00002547,4_0_1:0.00002171):0.00000375):0.00000649,4_0_4:0.00000632):0.00000196):0.11495734,((((5_0_6:0.00000552,5_0_5:0.00000598):0.00002738,(((5_0_7:0.00000656,5_0_1:0.00000219):0.00001173,5_0_0:0.00002706):0.00012277,5_0_2:0.00002966):0.00003551):0.00009511,(5_0_3:0.00001178,(5_0_8:0.00001216,5_0_4:0.00000367):0.00000533):0.00067732):0.03078247,(((((1_0_6:0.00000866,1_0_0:0.00002840):0.00000531,((1_0_7:0.00000026,1_0_2:0.00000091):0.00000254,1_0_5:0.00002836):0.00000683):0.00013143,((1_0_8:0.00000496,1_0_1:0.00001805):0.00000521,(1_0_4:0.00002462,1_0_3:0.00002866):0.00001246):0.00008138):0.01353799,(((8_0_6:0.00000381,8_0_4:0.00000675):0.00003121,8_0_5:0.00007861):0.00002248,((8_0_1:0.00000016,8_0_8:0.00000008):0.00001861,(((8_0_2:0.00001420,8_0_7:0.00001659):0.00000141,8_0_3:0.00001285):0.00000021,8_0_0:0.00000061):0.00003309):0.00010381):0.05573326):0.04721034,((((10_0_4:0.00027284,(((10_0_1:0.00000031,10_0_6:0.00000064):0.00000060,10_0_3:0.00000526):0.00001240,((10_0_8:0.00000256,10_0_0:0.00000748):0.00001044,(10_0_7:0.00001187,(10_0_2:0.00000330,10_0_5:0.00000243):0.00001012):0.00000004):0.00000050):0.00010778):0.02645527,((11_0_5:0.00007221,(11_0_6:0.00001532,((11_0_4:0.00000504,11_0_8:0.00000801):0.00000066,11_0_2:0.00000875):0.00000100):0.00001831):0.00037441,((11_0_0:0.00002395,(11_0_1:0.00000435,11_0_7:0.00000329):0.00001224):0.00002718,11_0_3:0.00002952):0.00038887):0.02476874):0.00287305,((((9_0_2:0.00000631,9_0_6:0.00000151):0.00000539,9_0_4:0.00001086):0.00001204,9_0_5:0.00005554):0.00002492,((9_0_8:0.00002582,9_0_3:0.00000242):0.00000642,(9_0_0:0.00000827,(9_0_7:0.00001824,9_0_1:0.00001905):0.00000938):0.00000084):0.00017826):0.05488861):0.00111673,(((3_0_4:0.00015055,(((3_0_1:0.00000178,3_0_7:0.00000068):0.00000012,(3_0_2:0.00000012,3_0_6:0.00000321):0.00000188):0.00000851,((3_0_0:0.00003036,3_0_3:0.00000313):0.00000165,3_0_5:0.00001066):0.00000402):0.00001805):0.00001613,3_0_8:0.00003489):0.00154807,(((6_0_1:0.00000136,6_0_7:0.00000332):0.00008451,(6_0_2:0.00016171,(6_0_3:0.00000403,((6_0_0:0.00000015,6_0_8:0.00000667):0.00000236,(6_0_6:0.00001548,6_0_4:0.00000655):0.00000318):0.00001500):0.00004616):0.00000081):0.00006724,6_0_5:0.00101692):0.04551045):0.03249568):0.00047551):0.00067599):0.03937570):0.00103643):0.00020218):0.02114579);

[PARTITIONS] csSimUnlinked_01 [T01 csSim_unlinked_1 500]
[PARTITIONS] csSimUnlinked_02 [T02 csSim_unlinked_2 500]
[PARTITIONS] csSimUnlinked_03 [T03 csSim_unlinked_3 500]
[PARTITIONS] csSimUnlinked_04 [T04 csSim_unlinked_4 500]
[PARTITIONS] csSimUnlinked_05 [T05 csSim_unlinked_5 500]
[PARTITIONS] csSimUnlinked_06 [T06 csSim_unlinked_6 500]
[PARTITIONS] csSimUnlinked_07 [T07 csSim_unlinked_7 500]
[PARTITIONS] csSimUnlinked_08 [T08 csSim_unlinked_8 500]
[PARTITIONS] csSimUnlinked_09 [T09 csSim_unlinked_9 500]
[PARTITIONS] csSimUnlinked_10 [T10 csSim_unlinked_10 500]

[EVOLVE] csSimUnlinked_01 1 data_01
csSimUnlinked_02 1 data_02
csSimUnlinked_03 1 data_03
csSimUnlinked_04 1 data_04
csSimUnlinked_05 1 data_05
csSimUnlinked_06 1 data_06
csSimUnlinked_07 1 data_07
csSimUnlinked_08 1 data_08
csSimUnlinked_09 1 data_09
csSimUnlinked_10 1 data_10
