[TYPE] NUCLEOTIDE 1 

[SETTINGS]
    [fastaextension] fasta  

[MODEL] csSim_unlinked_1
    [submodel] GTR 0.071635 0.007917 0.006857 0.039771 0.038044 
    [statefreq] 0.070806 0.213801 0.287349 0.428045 
[rates] 0 11.931591 0 

[MODEL] csSim_unlinked_2
    [submodel] GTR 0.088386 0.005336 0.014019 0.026564 0.046316 
    [statefreq] 0.440745 0.345896 0.189177 0.024181 
[rates] 0 38.812604 0 

[MODEL] csSim_unlinked_3
    [submodel] GTR 0.067729 0.008381 0.018686 0.025618 0.060207 
    [statefreq] 0.101758 0.001045 0.433242 0.463955 
[rates] 0 1.384769 0 

[MODEL] csSim_unlinked_4
    [submodel] GTR 0.082305 0.015220 0.034488 0.029442 0.059220 
    [statefreq] 0.313690 0.566922 0.087662 0.031726 
[rates] 0 107.879695 0 

[MODEL] csSim_unlinked_5
    [submodel] GTR 0.108001 0.011674 0.021108 0.015497 0.062087 
    [statefreq] 0.748569 0.168047 0.031621 0.051762 
[rates] 0 9.971865 0 

[MODEL] csSim_unlinked_6
    [submodel] GTR 0.078625 0.013983 0.013119 0.027611 0.063462 
    [statefreq] 0.616051 0.099909 0.126009 0.158031 
[rates] 0 14.021716 0 

[MODEL] csSim_unlinked_7
    [submodel] GTR 0.133398 0.002841 0.019901 0.044587 0.023220 
    [statefreq] 0.267550 0.136742 0.188865 0.406843 
[rates] 0 14.211854 0 

[MODEL] csSim_unlinked_8
    [submodel] GTR 0.096554 0.021573 0.007938 0.017374 0.034993 
    [statefreq] 0.433894 0.059013 0.110977 0.396116 
[rates] 0 5.918291 0 

[MODEL] csSim_unlinked_9
    [submodel] GTR 0.119062 0.019281 0.036975 0.023952 0.038633 
    [statefreq] 0.006273 0.157203 0.562756 0.273767 
[rates] 0 35.615922 0 

[MODEL] csSim_unlinked_10
    [submodel] GTR 0.069965 0.020092 0.042173 0.044280 0.046115 
    [statefreq] 0.076304 0.375527 0.225755 0.322413 
[rates] 0 0.495898 0 


[TREE] T01 ((((((1_0_4:0.00000430,(1_0_2:0.00000054,1_0_0:0.00000010):0.00000090):0.00001602,(1_0_3:0.00000115,(1_0_1:0.00000303,1_0_5:0.00000059):0.00000349):0.00001563):0.00071344,((6_0_4:0.00000014,6_0_1:0.00000080):0.00001395,((6_0_2:0.00000343,6_0_3:0.00000071):0.00000888,(6_0_0:0.00000071,6_0_5:0.00000017):0.00000120):0.00000034):0.00820868):0.00015320,((((3_0_1:0.00000047,(3_0_4:0.00000013,3_0_2:0.00000053):0.00000045):0.00000258,3_0_5:0.00000711):0.00003535,(3_0_3:0.00000518,3_0_0:0.00000209):0.00001889):0.01674742,(((((2_0_5:0.00000439,2_0_3:0.00000236):0.00005144,(2_0_1:0.00000017,2_0_0:0.00000003):0.00002714):0.00003433,(2_0_2:0.00000003,2_0_4:0.00000063):0.00001886):0.00059116,(((4_0_2:0.00000016,4_0_5:0.00000000):0.00000837,(4_0_0:0.00000260,4_0_1:0.00000034):0.00000197):0.00000191,(4_0_3:0.00001133,4_0_4:0.00001547):0.00000002):0.00197843):0.00215098,(((7_0_1:0.00002154,(((7_0_3:0.00000114,7_0_4:0.00000077):0.00001152,7_0_0:0.00000074):0.00000070,(7_0_5:0.00000169,7_0_2:0.00000440):0.00000055):0.00001199):0.00000731,((5_0_0:0.00000127,(5_0_5:0.00000137,(5_0_1:0.00000015,5_0_3:0.00000019):0.00000031):0.00000397):0.00000103,(5_0_2:0.00000134,5_0_4:0.00000202):0.00001248):0.00021884):0.00055507,(((8_0_5:0.00000094,8_0_2:0.00000286):0.00000063,8_0_3:0.00000164):0.00000041,((8_0_0:0.00000009,8_0_4:0.00000079):0.00000286,8_0_1:0.00000408):0.00000140):0.00076278):0.01394224):0.00632857):0.00446064):0.00235770,((((18_0_3:0.00000895,18_0_2:0.00000199):0.00000103,18_0_0:0.00001032):0.00001599,((18_0_5:0.00000018,18_0_1:0.00000132):0.00000087,18_0_4:0.00000302):0.00000299):0.00385005,(((((9_0_1:0.00001152,9_0_5:0.00000237):0.00000716,9_0_3:0.00000758):0.00037264,(9_0_0:0.00001080,(9_0_4:0.00000030,9_0_2:0.00000312):0.00001134):0.00033825):0.00326482,(((((14_0_4:0.00000302,14_0_5:0.00001106):0.00000069,14_0_1:0.00001867):0.00001212,14_0_2:0.00003577):0.00000620,(14_0_3:0.00000011,14_0_0:0.00000046):0.00000454):0.00000547,(((11_0_4:0.00000151,11_0_1:0.00000604):0.00000971,(((11_0_5:0.00000232,11_0_0:0.00000014):0.00000198,11_0_3:0.00000098):0.00001062,11_0_2:0.00001055):0.00003432):0.00049012,((12_0_0:0.00000619,(((12_0_5:0.00000007,12_0_1:0.00000019):0.00000007,12_0_2:0.00000114):0.00000367,12_0_3:0.00000986):0.00001276):0.00000835,12_0_4:0.00002546):0.00079694):0.00453728):0.00020801):0.00247411,(((((10_0_0:0.00001997,10_0_4:0.00001934):0.00000424,(10_0_5:0.00000367,(10_0_2:0.00000107,(10_0_3:0.00000055,10_0_1:0.00000216):0.00000004):0.00001172):0.00013416):0.00297014,(((19_0_2:0.00000024,(19_0_1:0.00000110,19_0_5:0.00000081):0.00000023):0.00000023,(19_0_0:0.00000236,19_0_4:0.00000074):0.00000009):0.00002790,19_0_3:0.00003241):0.00368059):0.00248101,(((15_0_4:0.00000001,(15_0_1:0.00000080,(15_0_0:0.00000027,15_0_3:0.00000040):0.00000057):0.00000989):0.00000148,(15_0_2:0.00000758,15_0_5:0.00000037):0.00001595):0.00002845,((13_0_3:0.00003000,(13_0_4:0.00000508,((13_0_0:0.00000008,13_0_1:0.00000010):0.00000425,(13_0_2:0.00000142,13_0_5:0.00000070):0.00000028):0.00000860):0.00002585):0.00076618,((17_0_1:0.00000337,17_0_3:0.00000298):0.00000379,(17_0_2:0.00000997,(17_0_5:0.00000056,(17_0_4:0.00000743,17_0_0:0.00000927):0.00000965):0.00000114):0.00000554):0.00031431):0.00331856):0.00239966):0.00015035,(((16_0_3:0.00000009,16_0_0:0.00000006):0.00000212,(16_0_1:0.00000001,(16_0_5:0.00000091,16_0_4:0.00000001):0.00000059):0.00001705):0.00000843,16_0_2:0.00011325):0.01245553):0.00016457):0.00027714):0.00188978):0.01891659,0_0_0:0.00170926);
[TREE] T02 (((((((9_0_4:0.00000342,(9_0_0:0.00000074,9_0_3:0.00000155):0.00000757):0.00006311,((9_0_2:0.00000083,9_0_1:0.00000154):0.00000301,9_0_5:0.00000337):0.00002924):0.00224739,((((14_0_0:0.00000179,(14_0_1:0.00000146,14_0_4:0.00000311):0.00000048):0.00000547,(14_0_3:0.00000772,14_0_2:0.00000912):0.00000355):0.00000695,14_0_5:0.00014996):0.00106229,(((11_0_1:0.00000005,11_0_3:0.00000088):0.00003103,((11_0_4:0.00000010,11_0_5:0.00000002):0.00000141,(11_0_0:0.00000319,11_0_2:0.00000976):0.00000089):0.00002591):0.00075993,((((12_0_5:0.00000284,12_0_0:0.00000011):0.00000120,12_0_3:0.00000266):0.00000802,(12_0_2:0.00000309,12_0_1:0.00000047):0.00001437):0.00004062,12_0_4:0.00000363):0.00069304):0.00125192):0.00063033):0.00273634,((((16_0_5:0.00000703,16_0_3:0.00000012):0.00001150,16_0_1:0.00002464):0.00001272,(16_0_0:0.00007307,(16_0_4:0.00000022,16_0_2:0.00000172):0.00001018):0.00001269):0.00848860,(((((10_0_1:0.00000017,10_0_3:0.00000025):0.00000035,10_0_4:0.00000013):0.00002429,((10_0_0:0.00000203,10_0_5:0.00000116):0.00000471,10_0_2:0.00002271):0.00002916):0.00379471,(((19_0_3:0.00001701,19_0_4:0.00000708):0.00000027,(19_0_1:0.00000151,19_0_5:0.00000002):0.00000039):0.00001531,(19_0_2:0.00000001,19_0_0:0.00000123):0.00001301):0.00480029):0.00098218,((((17_0_0:0.00000184,17_0_4:0.00000532):0.00001271,(17_0_5:0.00002578,(17_0_3:0.00000514,(17_0_2:0.00000133,17_0_1:0.00000138):0.00000088):0.00000420):0.00001746):0.00025747,(13_0_2:0.00000701,(13_0_1:0.00000150,((13_0_5:0.00000252,13_0_3:0.00000250):0.00000051,(13_0_4:0.00000134,13_0_0:0.00000046):0.00000964):0.00000160):0.00000975):0.00001816):0.00299270,(((15_0_3:0.00000367,15_0_4:0.00002595):0.00000318,((15_0_5:0.00001843,15_0_0:0.00001035):0.00000254,15_0_2:0.00000442):0.00001032):0.00001316,15_0_1:0.00008382):0.00224951):0.00249930):0.00146999):0.00010430):0.00008936,((18_0_3:0.00001330,(18_0_1:0.00001620,(18_0_0:0.00000745,(18_0_2:0.00000914,18_0_4:0.00000923):0.00000214):0.00000092):0.00000741):0.00000028,18_0_5:0.00003196):0.00101726):0.00238341,((((((((5_0_1:0.00000241,5_0_3:0.00000066):0.00001603,(5_0_2:0.00000019,(5_0_5:0.00000058,5_0_0:0.00000114):0.00000319):0.00000059):0.00000539,5_0_4:0.00000924):0.00001227,((7_0_4:0.00001159,7_0_0:0.00000627):0.00003304,((7_0_3:0.00000449,7_0_5:0.00000202):0.00000172,(7_0_2:0.00000008,7_0_1:0.00000058):0.00001252):0.00001013):0.00008750):0.00798045,(8_0_4:0.00000089,((8_0_5:0.00000205,(8_0_1:0.00000000,8_0_2:0.00000004):0.00002569):0.00000451,(8_0_3:0.00001694,8_0_0:0.00000233):0.00000347):0.00000712):0.00226790):0.00802756,((((2_0_0:0.00000029,2_0_3:0.00000035):0.00000848,2_0_5:0.00001220):0.00000531,(2_0_1:0.00001205,(2_0_2:0.00001101,2_0_4:0.00000760):0.00000414):0.00001861):0.00123031,(4_0_3:0.00001627,(((4_0_1:0.00000287,4_0_5:0.00000384):0.00000094,4_0_2:0.00000554):0.00000312,(4_0_4:0.00000136,4_0_0:0.00000009):0.00001517):0.00000004):0.00045149):0.00236984):0.01026986,((3_0_2:0.00000113,3_0_0:0.00000045):0.00002623,(3_0_3:0.00000134,(3_0_1:0.00000628,(3_0_4:0.00000006,3_0_5:0.00000617):0.00000015):0.00001368):0.00000154):0.00887325):0.00051458,((((1_0_0:0.00000372,1_0_5:0.00000256):0.00000754,(1_0_3:0.00000996,(1_0_2:0.00000054,1_0_4:0.00000139):0.00000038):0.00000334):0.00000728,1_0_1:0.00001170):0.00165921,((6_0_5:0.00002595,((6_0_1:0.00000641,6_0_3:0.00000163):0.00000239,(6_0_2:0.00000038,6_0_0:0.00000137):0.00000252):0.00000712):0.00000049,6_0_4:0.00000415):0.01202535):0.00462283):0.00152186):0.00704228,0_0_0:0.03605082);
[TREE] T03 (((((6_0_2:0.00003477,((6_0_4:0.00000317,6_0_1:0.00000183):0.00001578,(6_0_3:0.00001522,(6_0_0:0.00000031,6_0_5:0.00000040):0.00000253):0.00000006):0.00010428):0.00188713,(1_0_5:0.00001474,(((1_0_2:0.00000014,1_0_4:0.00000009):0.00001475,1_0_3:0.00000347):0.00000146,(1_0_1:0.00000541,1_0_0:0.00000024):0.00000209):0.00000196):0.00236780):0.00182287,((((((8_0_0:0.00000089,8_0_4:0.00000069):0.00002028,((8_0_2:0.00000001,8_0_3:0.00000178):0.00000296,8_0_1:0.00000174):0.00000327):0.00000491,8_0_5:0.00001440):0.00561503,(((((5_0_2:0.00000309,(5_0_5:0.00000009,5_0_1:0.00000014):0.00000330):0.00000031,5_0_3:0.00000792):0.00000057,5_0_0:0.00000398):0.00004675,5_0_4:0.00003013):0.00013001,(((7_0_4:0.00000429,((7_0_5:0.00000000,7_0_1:0.00000000):0.00000299,7_0_2:0.00000131):0.00000006):0.00000048,7_0_3:0.00000167):0.00000508,7_0_0:0.00003188):0.00017632):0.00018828):0.00175570,(((2_0_5:0.00000012,2_0_4:0.00000026):0.00001236,((2_0_2:0.00000620,2_0_1:0.00000189):0.00000115,(2_0_0:0.00000245,2_0_3:0.00000451):0.00000038):0.00001572):0.00152361,(((4_0_3:0.00000582,4_0_4:0.00000504):0.00000171,4_0_2:0.00000092):0.00003792,(4_0_1:0.00000105,(4_0_0:0.00000003,4_0_5:0.00000032):0.00000034):0.00002012):0.00227239):0.00433973):0.00405871,(((3_0_0:0.00000428,((3_0_3:0.00000014,3_0_5:0.00000046):0.00000279,3_0_1:0.00001114):0.00000074):0.00000127,3_0_4:0.00001305):0.00001285,3_0_2:0.00000182):0.01130387):0.00292640):0.00139519,(((((18_0_5:0.00000018,18_0_3:0.00000074):0.00001050,(18_0_0:0.00000649,18_0_4:0.00000033):0.00000251):0.00000709,18_0_2:0.00007768):0.00001978,18_0_1:0.00005854):0.00017813,((((9_0_2:0.00000127,((9_0_5:0.00000228,9_0_4:0.00000094):0.00000115,9_0_1:0.00000023):0.00000006):0.00001427,(9_0_3:0.00001733,9_0_0:0.00000163):0.00001389):0.00037979,(((14_0_4:0.00000737,14_0_1:0.00000112):0.00001152,(14_0_2:0.00000191,((14_0_5:0.00000004,14_0_0:0.00000020):0.00000026,14_0_3:0.00000054):0.00000652):0.00001410):0.00285690,(((11_0_4:0.00000224,(11_0_3:0.00000318,((11_0_0:0.00000087,11_0_5:0.00000155):0.00000367,11_0_2:0.00000167):0.00000092):0.00000008):0.00000465,11_0_1:0.00002650):0.00037546,((((12_0_1:0.00000051,(12_0_4:0.00000009,12_0_0:0.00000022):0.00000168):0.00000026,12_0_3:0.00000238):0.00000368,12_0_2:0.00000173):0.00000027,12_0_5:0.00003679):0.00119315):0.00634297):0.00011787):0.00040321,(((((17_0_4:0.00007226,((17_0_1:0.00001098,17_0_2:0.00000637):0.00000544,((17_0_3:0.00000000,17_0_5:0.00000000):0.00001487,17_0_0:0.00004640):0.00000129):0.00003414):0.00018573,((13_0_4:0.00004882,(13_0_1:0.00000195,13_0_3:0.00000897):0.00000176):0.00000013,((13_0_2:0.00000104,13_0_0:0.00000539):0.00001424,13_0_5:0.00005037):0.00000966):0.00025272):0.00059978,((((15_0_3:0.00001226,15_0_4:0.00001156):0.00000098,15_0_5:0.00001169):0.00000123,15_0_0:0.00001279):0.00001124,(15_0_1:0.00000152,15_0_2:0.00000037):0.00001949):0.00255586):0.00482710,(((((19_0_1:0.00000047,19_0_3:0.00000012):0.00000174,19_0_5:0.00000172):0.00000786,19_0_4:0.00000236):0.00000251,(19_0_2:0.00000995,19_0_0:0.00000764):0.00000171):0.00611182,(((10_0_0:0.00009130,(10_0_2:0.00000042,(10_0_1:0.00000655,10_0_5:0.00000514):0.00000036):0.00006766):0.00000019,10_0_3:0.00000112):0.00000284,10_0_4:0.00000024):0.00686120):0.00226914):0.00199564,((16_0_2:0.00000457,16_0_3:0.00000169):0.00000120,(16_0_1:0.00000034,((16_0_5:0.00000024,16_0_4:0.00000004):0.00000196,16_0_0:0.00000135):0.00000001):0.00000239):0.01132241):0.00025683):0.00109389):0.00174061):0.00727714,0_0_0:0.02568293);
[TREE] T04 ((((((18_0_4:0.00000566,18_0_2:0.00000118):0.00000249,((18_0_0:0.00000036,18_0_5:0.00000058):0.00000210,18_0_1:0.00000586):0.00002411):0.00000154,18_0_3:0.00000287):0.05361386,((((((14_0_5:0.00000058,14_0_4:0.00000023):0.00000015,14_0_1:0.00000074):0.00000415,((14_0_2:0.00000457,14_0_3:0.00000669):0.00000435,14_0_0:0.00000093):0.00000048):0.00121642,(((12_0_1:0.00003829,(12_0_0:0.00000391,12_0_4:0.00000157):0.00002482):0.00000170,(12_0_2:0.00000052,(12_0_5:0.00000015,12_0_3:0.00000003):0.00000010):0.00002959):0.00027990,((11_0_5:0.00001022,(11_0_2:0.00001267,(11_0_0:0.00000223,(11_0_1:0.00001222,11_0_4:0.00000697):0.00000116):0.00000384):0.00001049):0.00001829,11_0_3:0.00004039):0.00029481):0.00398868):0.00044254,(((9_0_5:0.00000056,9_0_3:0.00000314):0.00000581,(9_0_2:0.00000513,9_0_0:0.00000027):0.00000721):0.00002885,(9_0_4:0.00000092,9_0_1:0.00000048):0.00000776):0.00551440):0.00015881,(((((((13_0_4:0.00001922,13_0_3:0.00000186):0.00000018,(13_0_5:0.00000870,(13_0_0:0.00000514,13_0_2:0.00000046):0.00000045):0.00000009):0.00000170,13_0_1:0.00000069):0.00006873,(((17_0_5:0.00000031,17_0_2:0.00000025):0.00000150,(17_0_3:0.00000346,(17_0_4:0.00000255,17_0_0:0.00000086):0.00000016):0.00000017):0.00001943,17_0_1:0.00001204):0.00004959):0.00079014,(((15_0_0:0.00000275,15_0_2:0.00000062):0.00000011,((15_0_4:0.00000071,15_0_1:0.00000118):0.00000080,15_0_3:0.00001203):0.00000204):0.00000052,15_0_5:0.00001874):0.00238134):0.01743547,((10_0_3:0.00005086,(10_0_0:0.00000044,((10_0_5:0.00000013,(10_0_4:0.00000034,10_0_2:0.00000054):0.00000011):0.00000007,10_0_1:0.00000239):0.00000009):0.00000292):0.00229339,((19_0_2:0.00001100,((19_0_4:0.00000007,19_0_0:0.00000311):0.00000155,19_0_3:0.00000236):0.00000500):0.00000367,(19_0_1:0.00000109,19_0_5:0.00000094):0.00001142):0.00113112):0.00361713):0.00039029,((((16_0_1:0.00000096,16_0_2:0.00000125):0.00000062,16_0_5:0.00000070):0.00000029,(16_0_4:0.00000002,16_0_0:0.00000142):0.00001192):0.00002723,16_0_3:0.00002840):0.01327778):0.00010530):0.00193535):0.01182247,(((1_0_4:0.00027115,((1_0_1:0.00000200,1_0_5:0.00000452):0.00001357,(1_0_2:0.00000331,(1_0_0:0.00000007,1_0_3:0.00000043):0.00000015):0.00001802):0.00002955):0.00431335,((((6_0_5:0.00000275,6_0_3:0.00000305):0.00000464,(6_0_0:0.00000188,6_0_2:0.00000416):0.00000165):0.00000030,6_0_4:0.00000083):0.00000271,6_0_1:0.00000540):0.00495040):0.00060639,((((4_0_0:0.00000215,(((4_0_2:0.00000097,(4_0_1:0.00000080,4_0_5:0.00000025):0.00000002):0.00000282,4_0_3:0.00001355):0.00000032,4_0_4:0.00000011):0.00004246):0.00258013,((2_0_3:0.00002043,(2_0_4:0.00000177,2_0_1:0.00000230):0.00000446):0.00001699,(2_0_5:0.00000304,(2_0_2:0.00000090,2_0_0:0.00000119):0.00000010):0.00005034):0.00278694):0.00729055,(((8_0_0:0.00000081,8_0_5:0.00000102):0.00000782,((8_0_1:0.00000145,8_0_3:0.00000034):0.00002020,(8_0_2:0.00000552,8_0_4:0.00000305):0.00000001):0.00000054):0.00336430,(((7_0_0:0.00000192,(7_0_5:0.00000737,7_0_2:0.00000058):0.00000134):0.00001292,((7_0_1:0.00000013,7_0_4:0.00000020):0.00000433,7_0_3:0.00000013):0.00000618):0.00000131,((5_0_1:0.00000201,(5_0_5:0.00000080,5_0_4:0.00000006):0.00000054):0.00000295,((5_0_0:0.00000010,5_0_3:0.00000023):0.00000082,5_0_2:0.00000060):0.00001155):0.00002130):0.00194212):0.00040386):0.00575298,(((3_0_1:0.00000005,3_0_0:0.00001112):0.00000044,(3_0_2:0.00000084,3_0_3:0.00000043):0.00001735):0.00002067,(3_0_4:0.00000062,3_0_5:0.00000011):0.00000245):0.00220411):0.00079947):0.00149298):0.00826205,0_0_0:0.04238169);
[TREE] T05 ((((((6_0_2:0.00000143,6_0_4:0.00000123):0.00004449,((6_0_1:0.00000008,6_0_0:0.00000140):0.00000141,(6_0_5:0.00000831,6_0_3:0.00000118):0.00000971):0.00004327):0.00148460,(((1_0_1:0.00000083,1_0_4:0.00000141):0.00000028,1_0_5:0.00001073):0.00002117,(1_0_0:0.00000049,(1_0_3:0.00000164,1_0_2:0.00000018):0.00000017):0.00000485):0.01585811):0.01593478,((((3_0_1:0.00000424,3_0_2:0.00000724):0.00000137,(3_0_4:0.00000632,(3_0_3:0.00000033,3_0_0:0.00000126):0.00000019):0.00000358):0.00000064,3_0_5:0.00002848):0.03794060,((((8_0_4:0.00000215,8_0_3:0.00003002):0.00000088,(8_0_5:0.00000333,(8_0_2:0.00000316,(8_0_1:0.00000239,8_0_0:0.00000047):0.00000169):0.00000280):0.00018832):0.00290182,((7_0_1:0.00001214,((7_0_4:0.00000005,7_0_3:0.00000000):0.00001538,((7_0_5:0.00000029,7_0_2:0.00000010):0.00000342,7_0_0:0.00000910):0.00000352):0.00001179):0.00003340,(((5_0_5:0.00000483,5_0_4:0.00000162):0.00000020,5_0_1:0.00000022):0.00000668,((5_0_2:0.00000113,5_0_3:0.00000041):0.00000040,5_0_0:0.00000039):0.00000634):0.00030676):0.00101525):0.00617462,(((2_0_1:0.00000017,2_0_0:0.00000194):0.00000202,((2_0_4:0.00000016,2_0_2:0.00000154):0.00000299,(2_0_3:0.00000014,2_0_5:0.00000099):0.00000236):0.00000097):0.00006019,(((4_0_2:0.00000247,(4_0_5:0.00000054,4_0_0:0.00000156):0.00000036):0.00001411,(4_0_4:0.00000334,4_0_1:0.00000215):0.00000035):0.00000170,4_0_3:0.00000303):0.00003259):0.01158408):0.00011726):0.00054158):0.00014078,(((((((((17_0_5:0.00000040,17_0_4:0.00000144):0.00000198,((17_0_2:0.00000000,17_0_3:0.00000001):0.00000211,17_0_1:0.00000120):0.00000642):0.00000033,17_0_0:0.00001322):0.00016041,(13_0_0:0.00001469,((13_0_3:0.00000152,13_0_2:0.00001140):0.00001146,((13_0_5:0.00000050,13_0_4:0.00000382):0.00000140,13_0_1:0.00000641):0.00000008):0.00003556):0.00140933):0.00107512,((15_0_2:0.00000068,15_0_0:0.00000017):0.00005831,(15_0_4:0.00000146,((15_0_1:0.00000001,15_0_3:0.00000006):0.00000247,15_0_5:0.00000862):0.00000082):0.00003461):0.00273324):0.00318240,((((19_0_2:0.00000111,19_0_4:0.00000039):0.00000694,(19_0_1:0.00000012,19_0_5:0.00000064):0.00002724):0.00000074,(19_0_3:0.00000024,19_0_0:0.00001736):0.00000136):0.00382922,((10_0_4:0.00001797,10_0_0:0.00000261):0.00005501,((10_0_3:0.00000055,(10_0_5:0.00000051,10_0_2:0.00000010):0.00000103):0.00000369,10_0_1:0.00000874):0.00015871):0.00800870):0.00503874):0.00061379,(((16_0_0:0.00000000,16_0_4:0.00000007):0.00000160,16_0_5:0.00001038):0.00003220,(16_0_1:0.00000034,(16_0_3:0.00001489,16_0_2:0.00001001):0.00000043):0.00000030):0.00550611):0.00000021,((((12_0_1:0.00001106,((12_0_0:0.00000452,(12_0_5:0.00000354,(12_0_3:0.00000135,12_0_2:0.00000082):0.00000171):0.00000055):0.00001857,12_0_4:0.00002210):0.00000064):0.00078122,(((11_0_3:0.00000006,11_0_1:0.00000012):0.00000033,(11_0_0:0.00000857,(11_0_5:0.00000511,11_0_4:0.00000434):0.00000069):0.00000099):0.00001252,11_0_2:0.00002922):0.00010702):0.00044530,(((14_0_3:0.00000019,14_0_0:0.00000004):0.00000019,14_0_1:0.00000592):0.00001167,(14_0_5:0.00002034,(14_0_2:0.00000541,14_0_4:0.00001252):0.00003692):0.00000640):0.00244590):0.00031975,((((9_0_1:0.00000312,9_0_2:0.00000009):0.00000255,9_0_0:0.00000607):0.00001459,9_0_3:0.00001181):0.00000701,(9_0_4:0.00000064,9_0_5:0.00000010):0.00003870):0.00429281):0.00475087):0.00123430,(((18_0_2:0.00000122,18_0_1:0.00000122):0.00001493,18_0_5:0.00002011):0.00000224,((18_0_3:0.00000025,18_0_0:0.00000016):0.00001666,18_0_4:0.00000071):0.00001131):0.00728883):0.00659108):0.02526299,0_0_0:0.01749436);
[TREE] T06 (0_0_0:0.01412576,(((((((16_0_0:0.00000002,16_0_5:0.00000006):0.00000090,16_0_3:0.00000018):0.00003075,(16_0_4:0.00002504,(16_0_2:0.00000157,16_0_1:0.00000228):0.00000920):0.00000378):0.01170498,(((15_0_2:0.00000231,((15_0_3:0.00000017,15_0_5:0.00000139):0.00000663,((15_0_1:0.00000017,15_0_4:0.00000246):0.00000155,15_0_0:0.00000022):0.00002087):0.00002619):0.00357659,(((17_0_1:0.00000338,17_0_2:0.00000154):0.00000564,(((17_0_5:0.00000006,17_0_0:0.00000034):0.00000194,17_0_4:0.00000063):0.00000161,17_0_3:0.00000046):0.00000556):0.00018622,((((13_0_3:0.00000172,13_0_1:0.00000022):0.00000004,13_0_2:0.00000275):0.00002211,13_0_0:0.00000280):0.00000010,(13_0_5:0.00000234,13_0_4:0.00003743):0.00000496):0.00020222):0.00023101):0.01673171,(((19_0_4:0.00000423,19_0_1:0.00001350):0.00000511,(((19_0_0:0.00000002,19_0_2:0.00000009):0.00000152,19_0_5:0.00000206):0.00000061,19_0_3:0.00002061):0.00000019):0.01586362,((10_0_3:0.00000085,(((10_0_4:0.00000001,10_0_1:0.00000001):0.00000033,10_0_2:0.00000124):0.00000003,10_0_5:0.00000736):0.00000178):0.00000023,10_0_0:0.00000152):0.00751642):0.00199035):0.00020660):0.00052237,((((9_0_5:0.00000028,9_0_4:0.00000034):0.00000844,((9_0_1:0.00000003,9_0_0:0.00000016):0.00000116,9_0_2:0.00000066):0.00003296):0.00004732,9_0_3:0.00000406):0.00586792,((((14_0_3:0.00000255,14_0_2:0.00000170):0.00000427,(14_0_1:0.00000068,14_0_0:0.00000042):0.00000097):0.00000098,(14_0_5:0.00001085,14_0_4:0.00000595):0.00001744):0.01023563,((((12_0_0:0.00000028,(12_0_2:0.00000188,12_0_5:0.00000077):0.00000018):0.00000012,(12_0_3:0.00000005,12_0_4:0.00000117):0.00000286):0.00002481,12_0_1:0.00002700):0.00013426,(((11_0_1:0.00000590,11_0_3:0.00000147):0.00000004,(11_0_2:0.00000205,(11_0_0:0.00000035,11_0_5:0.00000001):0.00000293):0.00000003):0.00000011,11_0_4:0.00000194):0.00040248):0.00126395):0.00090367):0.00087733):0.00052977,(((18_0_0:0.00000583,18_0_3:0.00000274):0.00001105,(18_0_2:0.00000728,(18_0_4:0.00000144,18_0_1:0.00000328):0.00000000):0.00000175):0.00002156,18_0_5:0.00005363):0.01725145):0.00027937,(((((6_0_4:0.00000081,(6_0_0:0.00000016,6_0_2:0.00000020):0.00000002):0.00002495,6_0_1:0.00000471):0.00000131,(6_0_3:0.00000003,6_0_5:0.00000019):0.00000089):0.00403511,((1_0_4:0.00000016,1_0_5:0.00000037):0.00012945,((1_0_3:0.00000520,1_0_1:0.00000563):0.00002906,(1_0_0:0.00000117,1_0_2:0.00000394):0.00000614):0.00009983):0.00031411):0.00803447,((((((2_0_3:0.00000092,2_0_5:0.00000129):0.00000017,2_0_0:0.00000031):0.00002754,(2_0_1:0.00000022,(2_0_4:0.00000008,2_0_2:0.00000002):0.00000046):0.00000312):0.00544762,((((4_0_2:0.00000141,4_0_4:0.00000176):0.00000077,4_0_0:0.00000075):0.00000604,(4_0_5:0.00000159,4_0_1:0.00000478):0.00000169):0.00000342,4_0_3:0.00004845):0.00247141):0.00330648,((((7_0_2:0.00000453,7_0_0:0.00000343):0.00000274,((7_0_5:0.00000278,7_0_3:0.00000432):0.00000260,(7_0_4:0.00000243,7_0_1:0.00000277):0.00002190):0.00000390):0.00001504,((((5_0_4:0.00000529,5_0_1:0.00000581):0.00000337,(5_0_5:0.00000257,5_0_2:0.00000019):0.00002270):0.00001568,5_0_3:0.00001255):0.00000088,5_0_0:0.00002033):0.00002679):0.00911817,(8_0_1:0.00000864,(((8_0_3:0.00000024,8_0_0:0.00000011):0.00000145,8_0_4:0.00000106):0.00000011,(8_0_2:0.00000090,8_0_5:0.00000180):0.00000004):0.00000006):0.00445864):0.00469331):0.00528467,(((3_0_3:0.00000365,(3_0_5:0.00000989,3_0_4:0.00000089):0.00000102):0.00000052,3_0_1:0.00000040):0.00002805,(3_0_2:0.00000037,3_0_0:0.00000200):0.00000556):0.00343538):0.00324374):0.00356653):0.00930422);
[TREE] T07 (0_0_0:0.19188789,(((((((10_0_5:0.00007862,(((10_0_2:0.00000001,10_0_4:0.00000040):0.00000030,10_0_0:0.00000003):0.00000522,(10_0_1:0.00000119,10_0_3:0.00000723):0.00000211):0.00008822):0.00176316,((19_0_4:0.00000034,19_0_3:0.00000124):0.00002014,(19_0_0:0.00001100,((19_0_2:0.00000212,19_0_1:0.00000143):0.00000316,19_0_5:0.00000109):0.00000300):0.00000475):0.00108689):0.00092118,((((17_0_5:0.00000105,17_0_1:0.00000672):0.00004090,((17_0_3:0.00000046,17_0_2:0.00000208):0.00000056,(17_0_4:0.00000927,17_0_0:0.00000544):0.00000013):0.00000027):0.00014527,((((13_0_5:0.00000069,13_0_0:0.00000002):0.00000369,(13_0_2:0.00000013,13_0_4:0.00000869):0.00000310):0.00000017,13_0_3:0.00001188):0.00001408,13_0_1:0.00000575):0.00082535):0.00008072,(15_0_0:0.00005692,((15_0_2:0.00000013,15_0_4:0.00000002):0.00000571,((15_0_5:0.00000012,15_0_1:0.00000025):0.00000205,15_0_3:0.00000967):0.00000100):0.00000853):0.00049075):0.00250868):0.00143505,(((16_0_5:0.00000074,16_0_1:0.00000087):0.00000015,16_0_0:0.00000323):0.00002077,((16_0_3:0.00000005,16_0_4:0.00000000):0.00001224,16_0_2:0.00000382):0.00000274):0.00554885):0.00019336,(((((11_0_3:0.00002717,11_0_4:0.00000112):0.00003450,((11_0_0:0.00000155,(11_0_5:0.00000022,11_0_1:0.00000018):0.00000013):0.00000697,11_0_2:0.00000550):0.00006097):0.00041735,(((12_0_0:0.00000531,12_0_3:0.00000615):0.00000390,12_0_1:0.00001141):0.00005671,(12_0_2:0.00000481,(12_0_5:0.00000064,12_0_4:0.00000325):0.00000330):0.00000341):0.00047259):0.00456801,(14_0_3:0.00002701,((14_0_4:0.00000075,14_0_2:0.00000029):0.00001112,((14_0_0:0.00000011,14_0_1:0.00000069):0.00000662,14_0_5:0.00000413):0.00000456):0.00005509):0.00072261):0.00029808,((9_0_2:0.00002676,(9_0_5:0.00000111,(9_0_0:0.00000074,9_0_3:0.00000000):0.00000142):0.00000327):0.00000111,(9_0_1:0.00000041,9_0_4:0.00000971):0.00000066):0.00672138):0.00001698):0.00087000,(((18_0_5:0.00000153,18_0_2:0.00000016):0.00000229,(18_0_1:0.00000088,18_0_4:0.00000004):0.00000379):0.00000415,(18_0_0:0.00000029,18_0_3:0.00001078):0.00009446):0.01469531):0.00240926,((((((3_0_1:0.00000058,3_0_0:0.00000034):0.00000023,3_0_4:0.00000086):0.00000131,(3_0_3:0.00000249,3_0_5:0.00000354):0.00000010):0.00009291,3_0_2:0.00000777):0.00226788,((((((7_0_2:0.00000001,7_0_0:0.00000011):0.00001071,7_0_5:0.00000087):0.00000607,(7_0_4:0.00000103,(7_0_3:0.00000140,7_0_1:0.00000085):0.00000080):0.00000584):0.00006573,(((5_0_2:0.00000052,5_0_0:0.00000226):0.00000422,(5_0_1:0.00000034,5_0_4:0.00000359):0.00001050):0.00000636,(5_0_5:0.00000322,5_0_3:0.00000370):0.00000311):0.00001551):0.00480140,((8_0_5:0.00000069,8_0_3:0.00000188):0.00001130,((8_0_2:0.00000177,8_0_4:0.00000153):0.00000145,(8_0_1:0.00000025,8_0_0:0.00000095):0.00000638):0.00000065):0.00086306):0.00374992,((4_0_4:0.00002420,((4_0_1:0.00000259,4_0_2:0.00000633):0.00001810,((4_0_3:0.00000020,4_0_0:0.00000004):0.00000017,4_0_5:0.00000218):0.00000344):0.00000344):0.00895837,((2_0_5:0.00000344,(2_0_1:0.00000122,2_0_0:0.00000199):0.00000124):0.00000542,((2_0_3:0.00000085,2_0_2:0.00000067):0.00005295,2_0_4:0.00000135):0.00000389):0.00150268):0.00584576):0.00130365):0.00306511,((((6_0_2:0.00000159,6_0_1:0.00001059):0.00000357,(6_0_3:0.00000052,(6_0_5:0.00000158,6_0_4:0.00000200):0.00000094):0.00000315):0.00000142,6_0_0:0.00001541):0.00146187,(1_0_0:0.00000839,(((1_0_3:0.00000447,(1_0_4:0.00000009,1_0_2:0.00000179):0.00000062):0.00000149,1_0_5:0.00000318):0.00001884,1_0_1:0.00000042):0.00000611):0.00392582):0.01651755):0.01220788):0.00617709);
[TREE] T08 (0_0_0:0.01821421,(((18_0_4:0.00001077,((18_0_2:0.00000289,(18_0_3:0.00000292,(18_0_0:0.00000025,18_0_5:0.00000019):0.00000508):0.00000000):0.00000670,18_0_1:0.00000326):0.00000364):0.02610892,(((((19_0_5:0.00003981,((19_0_3:0.00000974,(19_0_0:0.00000143,19_0_1:0.00000143):0.00000013):0.00000010,(19_0_4:0.00001299,19_0_2:0.00000395):0.00000063):0.00001830):0.00130074,((10_0_5:0.00000124,10_0_0:0.00000039):0.00007684,(((10_0_2:0.00000311,10_0_4:0.00000227):0.00000208,10_0_1:0.00000267):0.00000025,10_0_3:0.00001955):0.00001091):0.00082449):0.00219891,(((((15_0_5:0.00000499,15_0_1:0.00000037):0.00000769,(15_0_3:0.00000139,15_0_0:0.00001394):0.00000092):0.00000347,15_0_4:0.00000756):0.00000479,15_0_2:0.00000187):0.00034743,((((13_0_5:0.00000005,13_0_4:0.00000004):0.00000043,13_0_0:0.00000006):0.00000339,((13_0_3:0.00000000,13_0_1:0.00000001):0.00000009,13_0_2:0.00000272):0.00001068):0.00015989,((17_0_3:0.00000873,(17_0_0:0.00000787,(17_0_5:0.00000181,17_0_4:0.00000067):0.00000015):0.00000274):0.00006608,(17_0_1:0.00000015,17_0_2:0.00000036):0.00005202):0.00025382):0.00151717):0.00182279):0.00231751,(16_0_1:0.00008453,(16_0_0:0.00002183,(((16_0_2:0.00000293,16_0_3:0.00000265):0.00000014,16_0_5:0.00002263):0.00000247,16_0_4:0.00000083):0.00000059):0.00000902):0.00776376):0.00014350,((((14_0_5:0.00000182,(14_0_4:0.00000069,14_0_2:0.00000013):0.00000083):0.00006986,((14_0_0:0.00000060,14_0_1:0.00000003):0.00000002,14_0_3:0.00000159):0.00003101):0.00474401,((11_0_2:0.00002531,(((11_0_4:0.00000117,11_0_1:0.00000002):0.00001815,(11_0_0:0.00000042,11_0_3:0.00000008):0.00004011):0.00000317,11_0_5:0.00000680):0.00000819):0.00031610,(12_0_5:0.00003948,((12_0_4:0.00000767,12_0_2:0.00000787):0.00000451,(12_0_1:0.00000497,(12_0_0:0.00000243,12_0_3:0.00000619):0.00000553):0.00000017):0.00004937):0.00046164):0.00571874):0.00010313,(9_0_0:0.00000885,((9_0_1:0.00000146,9_0_5:0.00000086):0.00001085,(9_0_4:0.00000362,(9_0_2:0.00000179,9_0_3:0.00000247):0.00000060):0.00000901):0.00000084):0.00316860):0.01383285):0.00045027):0.01162885,((((6_0_3:0.00004846,(6_0_0:0.00000318,(6_0_5:0.00000969,(6_0_4:0.00000399,6_0_2:0.00000070):0.00000021):0.00000456):0.00003544):0.00002852,6_0_1:0.00006887):0.00219608,((1_0_4:0.00000986,1_0_3:0.00000295):0.00000003,((1_0_2:0.00000425,1_0_0:0.00000239):0.00000421,(1_0_5:0.00000115,1_0_1:0.00000248):0.00000238):0.00000047):0.00121091):0.00207731,((((3_0_3:0.00000401,(3_0_5:0.00000036,3_0_4:0.00000001):0.00000122):0.00000010,3_0_1:0.00000278):0.00005297,(3_0_0:0.00000323,3_0_2:0.00000028):0.00001040):0.00927585,((((((4_0_3:0.00000195,4_0_4:0.00000416):0.00000323,4_0_1:0.00000052):0.00000457,(4_0_0:0.00000358,4_0_2:0.00000758):0.00000022):0.00000155,4_0_5:0.00002586):0.00322264,((2_0_2:0.00000992,(2_0_3:0.00000730,2_0_5:0.00000156):0.00000035):0.00000001,((2_0_4:0.00000520,2_0_0:0.00000267):0.00000504,2_0_1:0.00000018):0.00000532):0.00030098):0.00295781,(((8_0_0:0.00000821,(8_0_1:0.00000337,(8_0_4:0.00000100,8_0_5:0.00000185):0.00000381):0.00001405):0.00000115,(8_0_2:0.00000257,8_0_3:0.00000191):0.00002685):0.00305751,(((((7_0_5:0.00001522,(7_0_4:0.00000090,7_0_2:0.00000133):0.00001080):0.00000007,(7_0_1:0.00000003,7_0_0:0.00000002):0.00000059):0.00001254,7_0_3:0.00003085):0.00000538,5_0_0:0.00002690):0.00000534,(((5_0_1:0.00000337,(5_0_5:0.00000737,5_0_2:0.00000079):0.00000265):0.00000055,5_0_4:0.00000067):0.00000438,5_0_3:0.00001337):0.00003430):0.00008425):0.00318278):0.00454079):0.00325775):0.00296658):0.01939125);
[TREE] T09 (0_0_0:0.02853088,(((((((((12_0_5:0.00000657,12_0_3:0.00000328):0.00000108,12_0_1:0.00001554):0.00000878,(12_0_2:0.00000035,(12_0_4:0.00000504,12_0_0:0.00000169):0.00000364):0.00003658):0.00000804,((11_0_3:0.00000382,11_0_2:0.00000418):0.00000005,(11_0_5:0.00002552,((11_0_0:0.00000142,11_0_1:0.00000020):0.00000240,11_0_4:0.00000167):0.00000941):0.00000172):0.00026351):0.00077571,((14_0_5:0.00000115,(14_0_1:0.00000002,14_0_4:0.00000003):0.00000169):0.00006391,((14_0_3:0.00000226,14_0_2:0.00000012):0.00000629,14_0_0:0.00000576):0.00001039):0.00010906):0.00017483,((9_0_0:0.00000038,9_0_1:0.00000009):0.00014180,((9_0_5:0.00000353,9_0_2:0.00000123):0.00004922,(9_0_4:0.00000466,9_0_3:0.00000379):0.00000240):0.00003259):0.00105365):0.00290249,((((19_0_1:0.00002642,(19_0_5:0.00006263,((19_0_3:0.00000031,19_0_2:0.00000008):0.00002429,(19_0_0:0.00000611,19_0_4:0.00000014):0.00000776):0.00000754):0.00001907):0.00751008,(((10_0_4:0.00000000,10_0_1:0.00000001):0.00013763,(10_0_0:0.00000340,(10_0_2:0.00000307,10_0_5:0.00000058):0.00000119):0.00003225):0.00001333,10_0_3:0.00003468):0.00807677):0.00023644,(((13_0_2:0.00000045,(((13_0_1:0.00000009,13_0_4:0.00000008):0.00000109,(13_0_0:0.00000182,13_0_5:0.00000240):0.00000037):0.00000058,13_0_3:0.00000724):0.00000033):0.00119555,(((17_0_2:0.00001348,(17_0_0:0.00000378,17_0_5:0.00000044):0.00000028):0.00000210,17_0_4:0.00000233):0.00000130,(17_0_1:0.00000101,17_0_3:0.00003378):0.00001221):0.00049423):0.00065934,(((15_0_4:0.00000010,15_0_5:0.00000024):0.00000284,15_0_1:0.00000050):0.00000362,(15_0_3:0.00000409,(15_0_0:0.00000816,15_0_2:0.00000084):0.00000207):0.00000341):0.00222930):0.00175784):0.00357461,(16_0_1:0.00007921,((16_0_4:0.00000938,((16_0_3:0.00000031,16_0_2:0.00000007):0.00000506,16_0_0:0.00001088):0.00002212):0.00000826,16_0_5:0.00002138):0.00000161):0.01012308):0.00022309):0.00023240,((18_0_1:0.00000373,((18_0_5:0.00000144,18_0_3:0.00000019):0.00001139,(18_0_2:0.00000126,18_0_0:0.00000580):0.00000418):0.00000194):0.00000050,18_0_4:0.00000497):0.00100430):0.00033014,(((((6_0_2:0.00000194,(6_0_3:0.00000045,6_0_1:0.00000041):0.00000042):0.00000572,6_0_4:0.00000425):0.00002769,(6_0_5:0.00000046,6_0_0:0.00000135):0.00004575):0.00173944,((1_0_4:0.00000130,1_0_5:0.00000185):0.00025321,(1_0_0:0.00002943,((1_0_1:0.00000155,1_0_2:0.00000306):0.00000595,1_0_3:0.00000052):0.00000096):0.00000582):0.01265376):0.00481874,(((((2_0_3:0.00000031,(2_0_2:0.00000580,(2_0_0:0.00000547,2_0_1:0.00000401):0.00000174):0.00000027):0.00000865,(2_0_4:0.00000023,2_0_5:0.00000164):0.00000035):0.00178706,(((4_0_5:0.00000097,(4_0_1:0.00000030,4_0_4:0.00000150):0.00000843):0.00000745,4_0_2:0.00000402):0.00001138,(4_0_3:0.00000073,4_0_0:0.00000039):0.00001092):0.00816663):0.00348070,((((8_0_2:0.00000282,(8_0_1:0.00000171,8_0_4:0.00000264):0.00000056):0.00000424,(8_0_0:0.00000068,8_0_5:0.00000009):0.00000044):0.00000071,8_0_3:0.00000612):0.00177359,(((((7_0_0:0.00000012,7_0_3:0.00000009):0.00000003,7_0_1:0.00000009):0.00000514,7_0_2:0.00000272):0.00000424,(7_0_4:0.00000095,7_0_5:0.00000089):0.00000371):0.00014158,((5_0_4:0.00000023,(5_0_2:0.00000074,5_0_3:0.00000018):0.00000183):0.00000353,((5_0_0:0.00000013,5_0_5:0.00000084):0.00000155,5_0_1:0.00001923):0.00004950):0.00001650):0.00070756):0.00872871):0.00344974,((3_0_0:0.00000002,3_0_2:0.00000009):0.00000230,(((3_0_1:0.00000043,3_0_4:0.00000228):0.00000003,3_0_5:0.00001112):0.00000038,3_0_3:0.00000561):0.00000030):0.01068104):0.00125195):0.00080066):0.02957647);
[TREE] T10 (0_0_0:0.08218223,(((((6_0_5:0.00000772,(6_0_2:0.00000060,6_0_4:0.00000216):0.00000556):0.00003310,((6_0_3:0.00000003,6_0_1:0.00000038):0.00001912,6_0_0:0.00001022):0.00001282):0.01747840,(1_0_1:0.00000897,((1_0_3:0.00000631,(1_0_5:0.00000007,1_0_0:0.00000001):0.00000068):0.00000553,(1_0_4:0.00000006,1_0_2:0.00000046):0.00000150):0.00000138):0.00135738):0.00878552,((((((7_0_1:0.00000116,((7_0_3:0.00000329,(7_0_4:0.00000132,7_0_0:0.00000045):0.00000132):0.00000310,7_0_2:0.00001016):0.00000270):0.00000098,7_0_5:0.00006087):0.00001596,((5_0_2:0.00001529,(5_0_3:0.00000050,5_0_5:0.00000000):0.00000070):0.00000067,((5_0_0:0.00000448,5_0_4:0.00000743):0.00000162,5_0_1:0.00000007):0.00001886):0.00002500):0.00177572,((8_0_2:0.00014059,(8_0_1:0.00000397,(8_0_0:0.00000052,8_0_4:0.00000002):0.00000150):0.00001364):0.00000898,(8_0_5:0.00000597,8_0_3:0.00001543):0.00005329):0.00146109):0.00475717,(((((4_0_4:0.00000002,4_0_5:0.00000007):0.00000410,4_0_2:0.00000080):0.00000021,4_0_3:0.00000050):0.00000188,(4_0_1:0.00000032,4_0_0:0.00000036):0.00000002):0.00863535,((2_0_1:0.00000062,(2_0_5:0.00000001,2_0_0:0.00000003):0.00000235):0.00035568,((2_0_2:0.00000058,2_0_4:0.00000294):0.00000045,2_0_3:0.00000145):0.00007639):0.00264707):0.00545678):0.00224426,((3_0_5:0.00002812,3_0_2:0.00003281):0.00000401,((3_0_3:0.00000511,(3_0_4:0.00000649,3_0_1:0.00001396):0.00001219):0.00000179,3_0_0:0.00009588):0.00000115):0.00258488):0.00163138):0.00151122,(((((18_0_2:0.00000041,18_0_1:0.00000041):0.00000535,(18_0_5:0.00000086,18_0_0:0.00000195):0.00000347):0.00000164,18_0_3:0.00000106):0.00000856,18_0_4:0.00011730):0.00293894,(((16_0_1:0.00000250,((16_0_0:0.00000312,(16_0_5:0.00000023,16_0_2:0.00000001):0.00000451):0.00000608,(16_0_4:0.00000020,16_0_3:0.00000522):0.00000293):0.00000341):0.00559097,((((19_0_2:0.00001320,19_0_3:0.00000085):0.00002699,((19_0_4:0.00000086,19_0_0:0.00000264):0.00000605,(19_0_5:0.00000003,19_0_1:0.00000023):0.00007285):0.00001020):0.01124072,((10_0_4:0.00000679,10_0_5:0.00000189):0.00000084,((10_0_2:0.00000308,(10_0_1:0.00000049,10_0_3:0.00000026):0.00000058):0.00003231,10_0_0:0.00000224):0.00002095):0.00213791):0.00187458,((((17_0_5:0.00000068,17_0_1:0.00000161):0.00001726,((17_0_4:0.00000002,17_0_3:0.00000055):0.00000533,(17_0_2:0.00000002,17_0_0:0.00000024):0.00000262):0.00001236):0.00084478,((13_0_5:0.00000010,13_0_4:0.00000008):0.00002203,((13_0_0:0.00000124,13_0_2:0.00000256):0.00000005,(13_0_1:0.00000006,13_0_3:0.00000040):0.00000053):0.00004006):0.00000711):0.00033411,(15_0_0:0.00001776,((15_0_3:0.00000322,15_0_5:0.00000076):0.00001660,((15_0_2:0.00000168,15_0_1:0.00000059):0.00004492,15_0_4:0.00000216):0.00001239):0.00039672):0.00045937):0.01821464):0.00430243):0.00044513,(((((11_0_2:0.00000013,11_0_0:0.00000038):0.00007016,(((11_0_3:0.00000018,11_0_1:0.00000414):0.00000510,11_0_4:0.00000214):0.00002951,11_0_5:0.00001930):0.00000007):0.00040994,(((12_0_4:0.00000356,((12_0_0:0.00000121,12_0_2:0.00000111):0.00000147,12_0_3:0.00000106):0.00000057):0.00000059,12_0_1:0.00000099):0.00001155,12_0_5:0.00001331):0.00072527):0.00972862,((((14_0_5:0.00000198,14_0_3:0.00000221):0.00000033,(14_0_2:0.00000052,14_0_0:0.00000035):0.00000283):0.00000124,14_0_1:0.00001134):0.00001998,14_0_4:0.00001074):0.00342295):0.00047956,((9_0_3:0.00000034,9_0_4:0.00000135):0.00000637,(9_0_5:0.00001433,((9_0_0:0.00000079,9_0_1:0.00000494):0.00000761,9_0_2:0.00000270):0.00000026):0.00000358):0.01257824):0.01394395):0.00053208):0.00562842):0.00514738);

[PARTITIONS] csSimUnlinked_01 [T01 csSim_unlinked_1 500]
[PARTITIONS] csSimUnlinked_02 [T02 csSim_unlinked_2 500]
[PARTITIONS] csSimUnlinked_03 [T03 csSim_unlinked_3 500]
[PARTITIONS] csSimUnlinked_04 [T04 csSim_unlinked_4 500]
[PARTITIONS] csSimUnlinked_05 [T05 csSim_unlinked_5 500]
[PARTITIONS] csSimUnlinked_06 [T06 csSim_unlinked_6 500]
[PARTITIONS] csSimUnlinked_07 [T07 csSim_unlinked_7 500]
[PARTITIONS] csSimUnlinked_08 [T08 csSim_unlinked_8 500]
[PARTITIONS] csSimUnlinked_09 [T09 csSim_unlinked_9 500]
[PARTITIONS] csSimUnlinked_10 [T10 csSim_unlinked_10 500]

[EVOLVE] csSimUnlinked_01 1 data_01
csSimUnlinked_02 1 data_02
csSimUnlinked_03 1 data_03
csSimUnlinked_04 1 data_04
csSimUnlinked_05 1 data_05
csSimUnlinked_06 1 data_06
csSimUnlinked_07 1 data_07
csSimUnlinked_08 1 data_08
csSimUnlinked_09 1 data_09
csSimUnlinked_10 1 data_10
