********************************************************************************
INDELible V1.03 by Will Fletcher : Simulation began at: Sat Dec  3 19:29:52 2016
********************************************************************************

  * Block 1 was completed in 0.21 seconds.

********************************************************************************


  * Block 2 was completed in 0.2 seconds.

********************************************************************************


  * Block 3 was completed in 0.22 seconds.

********************************************************************************


  * Block 4 was completed in 0.22 seconds.

********************************************************************************


  * Block 5 was completed in 0.22 seconds.

********************************************************************************


  * Block 6 was completed in 0.21 seconds.

********************************************************************************


  * Block 7 was completed in 0.22 seconds.

********************************************************************************


  * Block 8 was completed in 0.21 seconds.

********************************************************************************


  * Block 9 was completed in 0.21 seconds.

********************************************************************************


  * Block 10 was completed in 0.22 seconds.

********************************************************************************

  * Simulation completed. Whole batch took: 2.15 seconds.

INDELible V1.03 Simulations completed at: Sat Dec  3 19:29:54 2016

********************************************************************************


 Original Control File 

-----------------------


[TYPE] NUCLEOTIDE 1 

[SETTINGS]
    [fastaextension] fasta  

[MODEL] csSim_unlinked_1
    [submodel] GTR 0.122688 0.013008 0.019365 0.035536 0.031302 
    [statefreq] 0.401125 0.118340 0.209675 0.270860 
[rates] 0 3.268212 0 

[MODEL] csSim_unlinked_2
    [submodel] GTR 0.073656 0.015502 0.018830 0.012546 0.033056 
    [statefreq] 0.138006 0.015756 0.645692 0.200546 
[rates] 0 18.157972 0 

[MODEL] csSim_unlinked_3
    [submodel] GTR 0.140691 0.007516 0.018999 0.026936 0.029794 
    [statefreq] 0.477803 0.118815 0.070022 0.333360 
[rates] 0 28.577778 0 

[MODEL] csSim_unlinked_4
    [submodel] GTR 0.092886 0.006759 0.014520 0.052745 0.034301 
    [statefreq] 0.079015 0.338944 0.456592 0.125449 
[rates] 0 61.005174 0 

[MODEL] csSim_unlinked_5
    [submodel] GTR 0.113102 0.013082 0.039150 0.015463 0.029707 
    [statefreq] 0.290554 0.498610 0.041325 0.169512 
[rates] 0 28.826737 0 

[MODEL] csSim_unlinked_6
    [submodel] GTR 0.110615 0.008000 0.014607 0.039931 0.054507 
    [statefreq] 0.403962 0.071376 0.138671 0.385991 
[rates] 0 11.996796 0 

[MODEL] csSim_unlinked_7
    [submodel] GTR 0.090327 0.006638 0.020636 0.009602 0.036414 
    [statefreq] 0.499108 0.166725 0.151578 0.182588 
[rates] 0 0.647495 0 

[MODEL] csSim_unlinked_8
    [submodel] GTR 0.143448 0.011044 0.021927 0.025476 0.035236 
    [statefreq] 0.219066 0.206193 0.169388 0.405353 
[rates] 0 0.944323 0 

[MODEL] csSim_unlinked_9
    [submodel] GTR 0.088699 0.004646 0.020158 0.064785 0.028514 
    [statefreq] 0.141069 0.535454 0.045340 0.278137 
[rates] 0 45.968501 0 

[MODEL] csSim_unlinked_10
    [submodel] GTR 0.128435 0.013981 0.018793 0.024835 0.048589 
    [statefreq] 0.222099 0.169002 0.389989 0.218910 
[rates] 0 6.906313 0 


[TREE] T01 (0_0_0:0.01905345,((((5_0_0:0.00000074,(5_0_4:0.00000058,(5_0_5:0.00000031,5_0_1:0.00000021):0.00000012):0.00000024):0.00002449,((((5_0_8:0.00000032,5_0_11:0.00000084):0.00000018,5_0_2:0.00000041):0.00000000,5_0_6:0.00000157):0.00000686,(5_0_3:0.00000222,(5_0_10:0.00000059,(5_0_9:0.00000001,5_0_7:0.00000003):0.00000047):0.00000066):0.00000113):0.00000908):0.00249242,(((((((6_0_8:0.00000019,6_0_7:0.00000009):0.00000024,6_0_1:0.00000063):0.00000086,((6_0_9:0.00000014,6_0_10:0.00000107):0.00000045,(6_0_5:0.00000064,6_0_4:0.00000046):0.00000024):0.00000066):0.00000034,6_0_3:0.00000105):0.00001828,(6_0_11:0.00000070,(6_0_2:0.00000046,(6_0_0:0.00000024,6_0_6:0.00000007):0.00000066):0.00000054):0.00001080):0.00032424,(((((7_0_4:0.00000001,7_0_2:0.00000010):0.00000100,7_0_10:0.00000185):0.00000127,(7_0_9:0.00000416,(7_0_0:0.00000041,(7_0_3:0.00000033,7_0_6:0.00000037):0.00000064):0.00000339):0.00000088):0.00000040,7_0_7:0.00000878):0.00000082,(((7_0_1:0.00000021,7_0_8:0.00000057):0.00000004,7_0_11:0.00000036):0.00000069,7_0_5:0.00000085):0.00000312):0.00051415):0.00013282,(((4_0_3:0.00000245,(4_0_10:0.00000072,4_0_5:0.00000022):0.00000050):0.00000232,(4_0_8:0.00000192,4_0_9:0.00000161):0.00000066):0.00000955,(((4_0_0:0.00000016,4_0_1:0.00000010):0.00000081,4_0_2:0.00000080):0.00000111,((4_0_4:0.00000037,(4_0_6:0.00000035,4_0_7:0.00000045):0.00000011):0.00000238,4_0_11:0.00000387):0.00000037):0.00000591):0.00021960):0.00028152):0.00272958,((((2_0_10:0.00000390,2_0_4:0.00000198):0.00000181,((2_0_9:0.00000069,(((2_0_6:0.00000008,(2_0_3:0.00000008,2_0_5:0.00000004):0.00000009):0.00000040,2_0_11:0.00000055):0.00000000,2_0_7:0.00000087):0.00000067):0.00000259,((2_0_1:0.00000103,(2_0_8:0.00000002,2_0_0:0.00000007):0.00000035):0.00000169,2_0_2:0.00000078):0.00000152):0.00000055):0.00035822,(((1_0_9:0.00000046,1_0_5:0.00000014):0.00000275,((1_0_3:0.00000161,(1_0_4:0.00000015,1_0_2:0.00000013):0.00000045):0.00000013,1_0_6:0.00000072):0.00000293):0.00002136,(((1_0_10:0.00000046,1_0_7:0.00000027):0.00000017,1_0_11:0.00000032):0.00000275,((1_0_8:0.00000006,1_0_0:0.00000011):0.00000013,1_0_1:0.00000051):0.00000412):0.00000963):0.00016634):0.00042053,((3_0_7:0.00000087,(3_0_9:0.00000041,(3_0_5:0.00000002,(3_0_11:0.00000004,3_0_4:0.00000004):0.00000003):0.00000033):0.00000038):0.00003847,((3_0_6:0.00000005,3_0_3:0.00000003):0.00000086,((3_0_0:0.00000022,((3_0_2:0.00000005,3_0_1:0.00000010):0.00000010,3_0_8:0.00000042):0.00000005):0.00000042,3_0_10:0.00000104):0.00000097):0.00004065):0.00039807):0.01382712):0.00836465);
[TREE] T02 (((((3_0_9:0.00000052,(3_0_6:0.00000023,3_0_10:0.00000007):0.00000062):0.00001200,((3_0_0:0.00000189,3_0_7:0.00000271):0.00000071,(((3_0_2:0.00000084,(3_0_5:0.00000050,3_0_1:0.00000028):0.00000010):0.00000022,3_0_3:0.00000076):0.00000353,(3_0_4:0.00000035,(3_0_8:0.00000055,3_0_11:0.00000038):0.00000071):0.00000105):0.00000076):0.00000789):0.00075127,((((((2_0_11:0.00000013,(2_0_3:0.00000012,2_0_10:0.00000020):0.00000002):0.00000089,2_0_8:0.00000175):0.00000051,(2_0_5:0.00000066,(2_0_4:0.00000016,2_0_6:0.00000044):0.00000090):0.00000138):0.00000059,(2_0_0:0.00000183,2_0_7:0.00000059):0.00000236):0.00001967,((2_0_1:0.00000074,2_0_9:0.00000063):0.00000020,2_0_2:0.00000048):0.00001697):0.00016223,(((1_0_8:0.00000433,(1_0_0:0.00000013,1_0_6:0.00000008):0.00000093):0.00000064,((1_0_2:0.00000124,1_0_5:0.00000086):0.00000167,(((1_0_10:0.00000014,1_0_1:0.00000016):0.00000034,1_0_4:0.00000131):0.00000044,1_0_7:0.00000093):0.00000054):0.00000244):0.00000364,((1_0_9:0.00000000,1_0_3:0.00000002):0.00000371,1_0_11:0.00000305):0.00000096):0.00018763):0.00031572):0.01051139,((((((7_0_3:0.00000053,(7_0_2:0.00000049,7_0_5:0.00000016):0.00000069):0.00000776,(7_0_1:0.00000052,7_0_7:0.00000045):0.00000604):0.00000315,((7_0_10:0.00000156,7_0_9:0.00000217):0.00000141,((7_0_11:0.00000040,((7_0_8:0.00000001,7_0_0:0.00000002):0.00000051,7_0_4:0.00000022):0.00000002):0.00000221,7_0_6:0.00000095):0.00000157):0.00000754):0.00051543,(6_0_8:0.00000734,((((6_0_9:0.00000049,((6_0_3:0.00000025,6_0_4:0.00000035):0.00000145,(6_0_10:0.00000025,6_0_6:0.00000022):0.00000180):0.00000007):0.00000021,(6_0_11:0.00000007,6_0_0:0.00000046):0.00000237):0.00000059,6_0_7:0.00000053):0.00000191,(6_0_1:0.00000011,(6_0_2:0.00000008,6_0_5:0.00000028):0.00000001):0.00000343):0.00000521):0.00013087):0.00019744,(((4_0_10:0.00000317,(((4_0_4:0.00000003,4_0_5:0.00000005):0.00000112,(4_0_3:0.00000122,4_0_2:0.00000066):0.00000049):0.00000072,4_0_9:0.00000085):0.00000001):0.00000050,(4_0_11:0.00000036,4_0_6:0.00000025):0.00000044):0.00000041,((4_0_1:0.00000023,4_0_7:0.00000029):0.00000029,(4_0_0:0.00000034,4_0_8:0.00000039):0.00000016):0.00000351):0.00141850):0.00059516,(((((5_0_3:0.00000017,5_0_2:0.00000007):0.00000007,5_0_6:0.00000022):0.00000007,5_0_0:0.00000024):0.00001202,((5_0_1:0.00000159,((5_0_5:0.00000040,5_0_10:0.00000056):0.00000022,(5_0_7:0.00000037,5_0_8:0.00000026):0.00000215):0.00000047):0.00000148,5_0_4:0.00000378):0.00000497):0.00000810,(5_0_9:0.00000015,5_0_11:0.00000008):0.00000369):0.00174727):0.00626686):0.00358250,0_0_0:0.01623157);
[TREE] T03 (0_0_0:0.01479170,((((((5_0_10:0.00000013,5_0_4:0.00000018):0.00000014,5_0_2:0.00000039):0.00000031,(((5_0_11:0.00000019,5_0_0:0.00000033):0.00000068,(5_0_5:0.00000021,5_0_9:0.00000030):0.00000010):0.00000008,5_0_6:0.00000099):0.00000012):0.00003919,((5_0_8:0.00000170,(5_0_3:0.00000027,5_0_1:0.00000024):0.00000238):0.00000099,5_0_7:0.00000276):0.00001319):0.00015308,((((6_0_4:0.00000169,(6_0_11:0.00000078,(6_0_2:0.00000018,(6_0_7:0.00000020,6_0_0:0.00000024):0.00000041):0.00000065):0.00000034):0.00000106,(6_0_3:0.00000990,(((6_0_6:0.00000049,(6_0_5:0.00000001,6_0_1:0.00000004):0.00000025):0.00000013,6_0_8:0.00000027):0.00000007,(6_0_9:0.00000011,6_0_10:0.00000061):0.00000031):0.00001220):0.00000167):0.00045476,((((7_0_11:0.00000002,7_0_8:0.00000004):0.00000102,((7_0_2:0.00000020,((7_0_9:0.00000008,7_0_0:0.00000003):0.00000009,7_0_6:0.00000026):0.00000001):0.00000077,7_0_4:0.00000171):0.00000014):0.00000009,(7_0_5:0.00000004,7_0_7:0.00000003):0.00000154):0.00000206,((7_0_10:0.00000010,7_0_3:0.00000037):0.00000239,7_0_1:0.00000112):0.00000635):0.00045355):0.00054713,((4_0_5:0.00000116,(4_0_10:0.00000011,4_0_0:0.00000158):0.00000002):0.00000190,((4_0_4:0.00000038,(4_0_11:0.00000044,4_0_6:0.00000028):0.00000007):0.00000129,(((4_0_2:0.00000017,4_0_8:0.00000004):0.00000095,(4_0_1:0.00000012,(4_0_9:0.00000008,4_0_7:0.00000007):0.00000079):0.00000021):0.00000026,4_0_3:0.00000663):0.00000010):0.00000031):0.00124492):0.00033206):0.00386803,((((1_0_9:0.00000093,(1_0_0:0.00000040,1_0_7:0.00000009):0.00000176):0.00000527,((1_0_8:0.00000006,1_0_6:0.00000004):0.00000323,((1_0_11:0.00000115,1_0_1:0.00000128):0.00000093,(((1_0_3:0.00000017,1_0_5:0.00000020):0.00000171,1_0_4:0.00000315):0.00000108,(1_0_2:0.00000049,1_0_10:0.00000066):0.00000243):0.00000138):0.00000112):0.00000019):0.00019337,(2_0_5:0.00000956,((((2_0_11:0.00000073,(2_0_6:0.00000155,(2_0_10:0.00000033,2_0_9:0.00000027):0.00000115):0.00000028):0.00000069,((2_0_1:0.00000113,(2_0_8:0.00000101,2_0_4:0.00000179):0.00000009):0.00000130,2_0_2:0.00000557):0.00000033):0.00000283,(2_0_3:0.00000318,2_0_7:0.00000407):0.00000435):0.00000209,2_0_0:0.00000920):0.00000303):0.00008811):0.00031502,(3_0_11:0.00000530,(((3_0_7:0.00000014,3_0_9:0.00000016):0.00000023,3_0_1:0.00000092):0.00000137,((3_0_3:0.00000003,3_0_6:0.00000004):0.00000046,(((3_0_4:0.00000060,3_0_2:0.00000029):0.00000016,3_0_5:0.00000045):0.00000046,(3_0_10:0.00000017,(3_0_8:0.00000010,3_0_0:0.00000006):0.00000004):0.00000021):0.00000047):0.00000145):0.00000244):0.00009264):0.01374065):0.00847620);
[TREE] T04 (0_0_0:0.01088684,((((((4_0_3:0.00000188,4_0_5:0.00000028):0.00000397,(4_0_11:0.00000148,((4_0_4:0.00000011,4_0_8:0.00000025):0.00000274,(4_0_2:0.00000188,(4_0_9:0.00000148,(4_0_10:0.00000001,4_0_7:0.00000001):0.00000079):0.00000075):0.00000016):0.00000026):0.00000829):0.00000855,((4_0_0:0.00000142,4_0_1:0.00000008):0.00000107,4_0_6:0.00000224):0.00001668):0.00070710,(((6_0_8:0.00000188,6_0_0:0.00000180):0.00001053,(((6_0_9:0.00000017,(6_0_6:0.00000010,6_0_5:0.00000004):0.00000001):0.00000157,((6_0_1:0.00000066,(6_0_2:0.00000021,6_0_10:0.00000025):0.00000005):0.00000000,6_0_7:0.00000026):0.00000067):0.00000018,(6_0_11:0.00000019,(6_0_3:0.00000003,6_0_4:0.00000004):0.00000061):0.00000032):0.00001058):0.00011307,(((7_0_5:0.00000026,(7_0_7:0.00000034,(7_0_4:0.00000017,7_0_10:0.00000005):0.00000024):0.00000032):0.00000037,7_0_9:0.00000107):0.00000883,((7_0_6:0.00000013,7_0_2:0.00000002):0.00000588,((7_0_0:0.00000061,((7_0_3:0.00000002,7_0_8:0.00000001):0.00000079,7_0_11:0.00000046):0.00000062):0.00000030,7_0_1:0.00000150):0.00000565):0.00000143):0.00056921):0.00042396):0.00059198,(((5_0_8:0.00000296,5_0_10:0.00000602):0.00000372,((5_0_1:0.00000006,(5_0_7:0.00000003,5_0_0:0.00000004):0.00000005):0.00000324,5_0_6:0.00000223):0.00000163):0.00000059,((5_0_3:0.00000188,((5_0_2:0.00000026,5_0_5:0.00000034):0.00000072,5_0_4:0.00000056):0.00000069):0.00000049,(5_0_11:0.00000019,5_0_9:0.00000012):0.00000094):0.00000737):0.00219530):0.01236141,((((2_0_10:0.00000295,((2_0_7:0.00000007,2_0_11:0.00000005):0.00000151,2_0_0:0.00000105):0.00000006):0.00000851,(((2_0_2:0.00000061,(2_0_6:0.00000017,2_0_5:0.00000007):0.00000009):0.00000088,(2_0_1:0.00000016,2_0_9:0.00000050):0.00000052):0.00000174,(2_0_4:0.00000390,(2_0_8:0.00000070,2_0_3:0.00000050):0.00000063):0.00000118):0.00000283):0.00006837,(((1_0_5:0.00000005,1_0_1:0.00000040):0.00000148,(1_0_6:0.00000099,(((1_0_7:0.00000006,1_0_10:0.00000010):0.00000082,1_0_9:0.00000065):0.00000000,1_0_0:0.00000024):0.00000002):0.00000054):0.00000574,(((1_0_11:0.00000024,1_0_2:0.00000023):0.00000301,(1_0_4:0.00000113,1_0_8:0.00000032):0.00000264):0.00000065,1_0_3:0.00000384):0.00000992):0.00033214):0.00040112,(((3_0_10:0.00000016,3_0_3:0.00000005):0.00000148,(3_0_7:0.00000030,(3_0_11:0.00000006,3_0_0:0.00000006):0.00000018):0.00000086):0.00000565,(3_0_1:0.00000017,(((3_0_6:0.00000125,3_0_9:0.00000039):0.00000004,3_0_2:0.00000106):0.00000152,(3_0_4:0.00000172,(3_0_5:0.00000091,3_0_8:0.00000079):0.00000003):0.00000001):0.00000024):0.00001335):0.00064995):0.00923710):0.00396104);
[TREE] T05 (0_0_0:0.02446062,((((3_0_0:0.00000049,3_0_10:0.00000029):0.00001344,((3_0_9:0.00000168,((3_0_3:0.00000011,3_0_6:0.00000013):0.00000069,3_0_8:0.00000098):0.00000245):0.00000023,((3_0_7:0.00000040,((3_0_11:0.00000005,3_0_5:0.00000006):0.00000005,3_0_4:0.00000007):0.00000023):0.00000130,(3_0_1:0.00000000,3_0_2:0.00000000):0.00000358):0.00000049):0.00001570):0.00046579,(((((1_0_0:0.00000040,1_0_4:0.00000100):0.00000062,((1_0_8:0.00000024,1_0_10:0.00000029):0.00000010,((1_0_9:0.00000003,1_0_5:0.00000007):0.00000003,1_0_3:0.00000018):0.00000037):0.00000109):0.00000004,(1_0_6:0.00000122,(1_0_7:0.00000013,1_0_1:0.00000005):0.00000119):0.00000101):0.00000296,(1_0_2:0.00000282,1_0_11:0.00000217):0.00000128):0.00017749,(((2_0_11:0.00000185,(((((2_0_10:0.00000002,2_0_5:0.00000004):0.00000055,2_0_3:0.00000021):0.00000000,2_0_9:0.00000056):0.00000011,2_0_7:0.00000037):0.00000005,(2_0_8:0.00000021,(2_0_1:0.00000022,2_0_4:0.00000006):0.00000041):0.00000210):0.00000037):0.00000004,2_0_0:0.00000181):0.00000009,(2_0_6:0.00000017,2_0_2:0.00000054):0.00000127):0.00062031):0.00034428):0.00197860,((5_0_9:0.00000476,(5_0_11:0.00000173,((5_0_7:0.00000108,5_0_4:0.00000125):0.00000158,(((((5_0_3:0.00000014,5_0_10:0.00000013):0.00000012,5_0_6:0.00000009):0.00000028,5_0_8:0.00000018):0.00000023,5_0_5:0.00000184):0.00000019,((5_0_0:0.00000094,5_0_2:0.00000047):0.00000060,5_0_1:0.00000154):0.00000004):0.00000245):0.00000106):0.00000045):0.00065736,(((7_0_6:0.00000764,(((7_0_0:0.00000227,7_0_3:0.00000484):0.00000056,(((7_0_5:0.00000048,7_0_11:0.00000093):0.00000060,((7_0_1:0.00000050,(7_0_9:0.00000076,7_0_4:0.00000025):0.00000007):0.00000051,7_0_8:0.00000137):0.00000181):0.00000030,(7_0_7:0.00000106,7_0_2:0.00000104):0.00000090):0.00000144):0.00000012,7_0_10:0.00000262):0.00000020):0.00043243,((6_0_1:0.00000055,(6_0_7:0.00000013,6_0_9:0.00000023):0.00000039):0.00001078,(((6_0_3:0.00000003,6_0_6:0.00000005):0.00000125,6_0_2:0.00000044):0.00000427,(((6_0_5:0.00000041,6_0_4:0.00000011):0.00000113,6_0_0:0.00000574):0.00000026,((6_0_10:0.00000017,6_0_8:0.00000028):0.00000103,6_0_11:0.00000071):0.00000150):0.00000236):0.00000061):0.00046040):0.00020352,(4_0_2:0.00000246,((4_0_3:0.00000025,4_0_4:0.00000024):0.00000579,(4_0_11:0.00000294,(4_0_0:0.00000176,((4_0_8:0.00000021,(4_0_10:0.00000013,4_0_1:0.00000025):0.00000004):0.00000021,((4_0_6:0.00000031,(4_0_9:0.00000035,4_0_7:0.00000031):0.00000005):0.00000006,4_0_5:0.00000013):0.00000004):0.00000146):0.00000232):0.00000018):0.00000069):0.00096795):0.00086737):0.00271953):0.01203135);
[TREE] T06 (((((3_0_5:0.00000119,(3_0_7:0.00000003,3_0_9:0.00000003):0.00000117):0.00000573,(3_0_0:0.00000374,((((3_0_6:0.00000036,3_0_1:0.00000039):0.00000015,3_0_10:0.00000061):0.00000061,((3_0_8:0.00000007,3_0_2:0.00000014):0.00000036,3_0_4:0.00000042):0.00000068):0.00000008,(3_0_3:0.00000034,3_0_11:0.00000030):0.00000074):0.00000069):0.00000648):0.00028981,(((2_0_9:0.00000253,((2_0_7:0.00000030,2_0_4:0.00000038):0.00000007,(2_0_1:0.00000017,2_0_8:0.00000013):0.00000008):0.00000365):0.00000912,((((2_0_10:0.00000001,2_0_11:0.00000002):0.00000305,2_0_3:0.00000099):0.00000106,((2_0_0:0.00000021,2_0_2:0.00000015):0.00000027,2_0_5:0.00000049):0.00000259):0.00000394,2_0_6:0.00000582):0.00000310):0.00017553,((((1_0_5:0.00000075,(1_0_11:0.00000008,1_0_9:0.00000013):0.00000009):0.00000037,(1_0_7:0.00000056,1_0_3:0.00000054):0.00000035):0.00000263,((1_0_8:0.00000034,(1_0_4:0.00000000,1_0_1:0.00000000):0.00000021):0.00000028,1_0_0:0.00000038):0.00000602):0.00000137,((1_0_2:0.00000022,1_0_6:0.00000028):0.00000044,1_0_10:0.00000076):0.00000643):0.00040297):0.00045587):0.00282410,(((((5_0_2:0.00000085,(5_0_6:0.00000026,5_0_3:0.00000045):0.00000001):0.00000037,((5_0_11:0.00000033,5_0_1:0.00000020):0.00000041,5_0_9:0.00000029):0.00000034):0.00000117,(5_0_7:0.00000020,5_0_8:0.00000029):0.00000452):0.00002958,(((5_0_10:0.00000011,5_0_5:0.00000003):0.00000009,5_0_4:0.00000015):0.00000086,5_0_0:0.00000182):0.00001597):0.00274862,((((((6_0_10:0.00000017,6_0_9:0.00000024):0.00000003,6_0_6:0.00000024):0.00000215,(6_0_0:0.00000009,6_0_7:0.00000024):0.00000178):0.00000545,((6_0_1:0.00000106,(6_0_5:0.00000032,((6_0_3:0.00000024,6_0_11:0.00000027):0.00000004,6_0_8:0.00000016):0.00000012):0.00000033):0.00000256,(6_0_2:0.00000072,6_0_4:0.00000217):0.00000052):0.00000216):0.00065237,((7_0_11:0.00000004,7_0_10:0.00000011):0.00001458,((((7_0_9:0.00000014,(7_0_1:0.00000014,(7_0_7:0.00000035,7_0_0:0.00000033):0.00000001):0.00000005):0.00000013,(7_0_8:0.00000011,7_0_3:0.00000006):0.00000028):0.00000236,7_0_5:0.00000113):0.00000156,(7_0_4:0.00000212,(7_0_2:0.00000039,7_0_6:0.00000021):0.00000090):0.00000027):0.00000728):0.00042526):0.00011800,(((4_0_8:0.00000263,(4_0_10:0.00000127,((4_0_2:0.00000114,4_0_1:0.00000149):0.00000030,4_0_3:0.00000203):0.00000520):0.00000147):0.00000118,(4_0_9:0.00000075,(4_0_0:0.00000175,(4_0_5:0.00000043,4_0_6:0.00000004):0.00000041):0.00000080):0.00000097):0.00000033,((4_0_11:0.00000001,4_0_4:0.00000001):0.00000177,4_0_7:0.00000159):0.00000662):0.00124478):0.00114017):0.00273731):0.00886493,0_0_0:0.00728806);
[TREE] T07 ((((((((3_0_2:0.00000061,3_0_8:0.00000013):0.00000119,(3_0_9:0.00000092,((3_0_6:0.00000020,3_0_7:0.00000011):0.00000010,3_0_4:0.00000033):0.00000049):0.00000002):0.00000166,3_0_1:0.00000285):0.00000228,3_0_10:0.00000442):0.00000313,(3_0_5:0.00001528,(3_0_11:0.00000145,(3_0_3:0.00000026,3_0_0:0.00000044):0.00000158):0.00000420):0.00000467):0.00036512,(((((((1_0_0:0.00000015,1_0_7:0.00000011):0.00000002,1_0_4:0.00000031):0.00000175,1_0_6:0.00000354):0.00000003,(1_0_9:0.00000007,1_0_3:0.00000012):0.00000144):0.00000030,(1_0_8:0.00000278,1_0_10:0.00000210):0.00000000):0.00000774,((1_0_2:0.00000118,(1_0_5:0.00000031,1_0_11:0.00000035):0.00000107):0.00000494,1_0_1:0.00000502):0.00000028):0.00018094,(2_0_1:0.00000495,(((2_0_10:0.00000158,2_0_11:0.00000075):0.00000097,((2_0_7:0.00000008,2_0_3:0.00000012):0.00000032,(2_0_8:0.00000036,(2_0_9:0.00000029,2_0_2:0.00000046):0.00000033):0.00000018):0.00000110):0.00000100,(2_0_4:0.00000281,((2_0_6:0.00000302,2_0_0:0.00000186):0.00000073,2_0_5:0.00000198):0.00000092):0.00000032):0.00000108):0.00014985):0.00010952):0.00613102,(((((6_0_4:0.00000239,((6_0_10:0.00000058,(6_0_8:0.00000030,6_0_1:0.00000059):0.00000074):0.00000140,(((6_0_2:0.00000023,(6_0_11:0.00000057,6_0_7:0.00000043):0.00000007):0.00000058,(6_0_9:0.00000087,6_0_0:0.00000033):0.00000149):0.00000072,6_0_3:0.00000202):0.00000022):0.00000191):0.00001205,(6_0_6:0.00000568,6_0_5:0.00000592):0.00000897):0.00036112,(((7_0_8:0.00000058,7_0_2:0.00000088):0.00000289,7_0_9:0.00000477):0.00000215,(7_0_11:0.00000218,((((7_0_4:0.00000020,7_0_5:0.00000008):0.00000007,7_0_6:0.00000015):0.00000063,((7_0_3:0.00000000,7_0_7:0.00000001):0.00000030,7_0_0:0.00000011):0.00000009):0.00000078,(7_0_1:0.00000020,7_0_10:0.00000011):0.00000078):0.00000020):0.00000406):0.00017613):0.00010483,(((4_0_5:0.00000158,4_0_4:0.00000012):0.00000458,4_0_6:0.00000335):0.00000983,((((4_0_0:0.00000008,4_0_7:0.00000004):0.00000004,4_0_2:0.00000042):0.00000119,4_0_11:0.00000156):0.00000162,(4_0_3:0.00000027,(4_0_10:0.00000035,(4_0_9:0.00000008,(4_0_1:0.00000001,4_0_8:0.00000002):0.00000015):0.00000063):0.00000105):0.00000167):0.00000826):0.00121995):0.00027182,(((5_0_8:0.00000004,5_0_5:0.00000000):0.00000217,(((5_0_4:0.00000009,5_0_10:0.00000003):0.00000053,5_0_6:0.00000073):0.00000078,5_0_2:0.00000099):0.00000111):0.00000272,((((5_0_11:0.00000091,(5_0_7:0.00000010,5_0_9:0.00000019):0.00000042):0.00000005,5_0_0:0.00000096):0.00000156,5_0_1:0.00000060):0.00000132,5_0_3:0.00000180):0.00000099):0.00375416):0.00264657):0.01346619,0_0_0:0.00710003);
[TREE] T08 (((((5_0_4:0.00000252,((5_0_8:0.00000032,5_0_11:0.00000033):0.00000005,5_0_10:0.00000025):0.00000074):0.00001698,(((5_0_5:0.00000020,5_0_6:0.00000031):0.00000166,((5_0_7:0.00000014,5_0_9:0.00000040):0.00000053,(5_0_3:0.00000173,(5_0_2:0.00000015,5_0_0:0.00000016):0.00000008):0.00000013):0.00000016):0.00000001,5_0_1:0.00000132):0.00003438):0.00164268,(((((6_0_3:0.00000049,6_0_11:0.00000021):0.00000180,((6_0_1:0.00000026,6_0_10:0.00000018):0.00000040,(6_0_2:0.00000054,6_0_6:0.00000012):0.00000006):0.00000131):0.00000404,(((6_0_5:0.00000033,6_0_7:0.00000040):0.00000013,6_0_9:0.00000010):0.00000504,(6_0_0:0.00000061,(6_0_8:0.00000049,6_0_4:0.00000029):0.00000051):0.00000329):0.00000381):0.00021335,(((7_0_8:0.00000201,7_0_2:0.00000137):0.00000043,((7_0_10:0.00000003,7_0_1:0.00000004):0.00000026,((7_0_5:0.00000005,7_0_9:0.00000003):0.00000016,7_0_6:0.00000050):0.00000130):0.00000208):0.00000500,(((7_0_7:0.00000005,7_0_11:0.00000008):0.00000127,(7_0_4:0.00000030,7_0_0:0.00000059):0.00000045):0.00000128,7_0_3:0.00000183):0.00000474):0.00119900):0.00043995,(4_0_8:0.00000394,(((4_0_0:0.00000036,(4_0_6:0.00000076,4_0_11:0.00000181):0.00000050):0.00000087,(((4_0_3:0.00000020,(4_0_7:0.00000004,(4_0_10:0.00000002,4_0_2:0.00000002):0.00000001):0.00000003):0.00000029,4_0_4:0.00000049):0.00000001,4_0_5:0.00000076):0.00000398):0.00000478,(4_0_1:0.00000027,4_0_9:0.00000238):0.00000655):0.00000078):0.00053529):0.00172924):0.00253553,((3_0_11:0.00001283,((3_0_2:0.00000087,(3_0_8:0.00000019,3_0_3:0.00000022):0.00000036):0.00000387,(((3_0_1:0.00000100,(3_0_6:0.00000032,3_0_7:0.00000056):0.00000024):0.00000022,(3_0_10:0.00000049,((3_0_5:0.00000002,3_0_0:0.00000001):0.00000041,3_0_4:0.00000020):0.00000005):0.00000026):0.00000172,3_0_9:0.00000158):0.00000083):0.00000455):0.00052289,((((((1_0_4:0.00000012,1_0_8:0.00000026):0.00000132,((1_0_5:0.00000012,1_0_3:0.00000006):0.00000148,(1_0_9:0.00000230,1_0_1:0.00000067):0.00000017):0.00000029):0.00000012,1_0_11:0.00000038):0.00000029,((1_0_2:0.00000258,(1_0_10:0.00000122,1_0_7:0.00000082):0.00000075):0.00000017,1_0_6:0.00000038):0.00000054):0.00000870,1_0_0:0.00000345):0.00025504,(((((2_0_7:0.00000053,2_0_1:0.00000043):0.00000165,(((2_0_10:0.00000013,2_0_9:0.00000022):0.00000005,2_0_4:0.00000046):0.00000098,(2_0_2:0.00000084,2_0_0:0.00000048):0.00000025):0.00000169):0.00000012,2_0_5:0.00000259):0.00000138,(2_0_8:0.00000107,(2_0_6:0.00000191,2_0_3:0.00000076):0.00000001):0.00001214):0.00000247,2_0_11:0.00001666):0.00058001):0.00013055):0.00463934):0.00275819,0_0_0:0.01996943);
[TREE] T09 (0_0_0:0.01514795,((((((((2_0_4:0.00000013,2_0_6:0.00000006):0.00000003,2_0_9:0.00000017):0.00000117,((2_0_0:0.00000085,2_0_11:0.00000016):0.00000034,2_0_3:0.00000252):0.00000083):0.00000029,(((2_0_8:0.00000093,(2_0_2:0.00000002,2_0_5:0.00000001):0.00000055):0.00000057,2_0_10:0.00000116):0.00000006,2_0_1:0.00000174):0.00000071):0.00000264,2_0_7:0.00000493):0.00026837,((((1_0_7:0.00000002,1_0_1:0.00000004):0.00000100,((1_0_9:0.00000004,1_0_8:0.00000008):0.00000067,(1_0_3:0.00000171,1_0_10:0.00000055):0.00000030):0.00000123):0.00000215,(1_0_4:0.00000190,1_0_6:0.00000036):0.00000333):0.00000146,((1_0_0:0.00000011,1_0_5:0.00000011):0.00001014,(1_0_2:0.00000281,1_0_11:0.00000263):0.00000070):0.00000305):0.00025712):0.00012386,((((3_0_10:0.00000046,3_0_3:0.00000052):0.00000030,(3_0_4:0.00000002,3_0_0:0.00000000):0.00000084):0.00000203,(3_0_5:0.00000063,((3_0_8:0.00000034,3_0_7:0.00000051):0.00000034,(3_0_2:0.00000134,3_0_6:0.00000032):0.00000002):0.00000001):0.00000304):0.00000322,(3_0_9:0.00000096,(3_0_11:0.00000041,3_0_1:0.00000036):0.00000010):0.00000232):0.00070145):0.00513834,((((((6_0_5:0.00000035,(6_0_11:0.00000022,6_0_1:0.00000018):0.00000009):0.00000239,((6_0_7:0.00000037,6_0_9:0.00000075):0.00000053,6_0_10:0.00000056):0.00000385):0.00000245,((6_0_0:0.00000056,6_0_8:0.00000121):0.00000043,((6_0_3:0.00000059,(6_0_4:0.00000030,6_0_6:0.00000109):0.00000009):0.00000024,6_0_2:0.00000125):0.00000017):0.00000373):0.00058653,((7_0_6:0.00000043,7_0_5:0.00000035):0.00001556,(7_0_10:0.00000967,(((7_0_1:0.00000005,7_0_2:0.00000008):0.00000162,7_0_11:0.00000189):0.00000064,((7_0_9:0.00000096,(7_0_0:0.00000028,7_0_3:0.00000062):0.00000003):0.00000094,((7_0_4:0.00000006,7_0_7:0.00000004):0.00000013,7_0_8:0.00000006):0.00000164):0.00000069):0.00000270):0.00000387):0.00027641):0.00011365,((((4_0_11:0.00000091,4_0_1:0.00000156):0.00000113,(4_0_9:0.00000061,4_0_6:0.00000178):0.00000061):0.00000178,((4_0_2:0.00000143,((4_0_8:0.00000004,4_0_3:0.00000001):0.00000021,4_0_10:0.00000036):0.00000050):0.00000317,4_0_7:0.00000180):0.00000692):0.00000287,(4_0_4:0.00000005,(4_0_5:0.00000006,4_0_0:0.00000005):0.00000015):0.00000543):0.00061716):0.00079568,((((5_0_1:0.00000176,((5_0_0:0.00000098,5_0_2:0.00000093):0.00000012,5_0_10:0.00000037):0.00000188):0.00000126,(5_0_5:0.00000002,5_0_7:0.00000006):0.00000119):0.00000029,5_0_6:0.00000561):0.00000403,(((5_0_4:0.00000001,5_0_3:0.00000000):0.00000042,5_0_11:0.00000045):0.00000125,(5_0_9:0.00000046,5_0_8:0.00000066):0.00000343):0.00000146):0.00147601):0.00773895):0.00486124);
[TREE] T10 (((((((1_0_2:0.00000020,1_0_5:0.00000027):0.00000071,(1_0_6:0.00000035,1_0_4:0.00000067):0.00000105):0.00000139,(1_0_11:0.00000374,(((1_0_10:0.00000032,1_0_7:0.00000036):0.00000019,1_0_3:0.00000093):0.00000100,(1_0_1:0.00000027,(1_0_0:0.00000091,(1_0_9:0.00000003,1_0_8:0.00000002):0.00000048):0.00000002):0.00000215):0.00000151):0.00000350):0.00023038,(((2_0_3:0.00000122,2_0_2:0.00000244):0.00000012,((2_0_8:0.00000259,(2_0_1:0.00000018,2_0_5:0.00000041):0.00000159):0.00000006,2_0_4:0.00000180):0.00000028):0.00000385,((2_0_10:0.00000107,2_0_0:0.00000062):0.00000042,(2_0_6:0.00000014,((2_0_9:0.00000001,2_0_11:0.00000002):0.00000002,2_0_7:0.00000010):0.00000043):0.00000303):0.00000088):0.00023104):0.00012970,((3_0_0:0.00000289,3_0_5:0.00000124):0.00001674,((((3_0_3:0.00000003,3_0_6:0.00000009):0.00000052,3_0_4:0.00000052):0.00000047,((3_0_2:0.00000007,3_0_9:0.00000008):0.00000058,3_0_1:0.00000081):0.00000084):0.00000375,((3_0_7:0.00000055,3_0_8:0.00000016):0.00000195,(3_0_11:0.00000037,3_0_10:0.00000032):0.00000097):0.00000748):0.00002045):0.00048598):0.00783398,(((((4_0_7:0.00000018,4_0_11:0.00000017):0.00000056,4_0_3:0.00000029):0.00000410,((((4_0_0:0.00000010,4_0_8:0.00000008):0.00000039,4_0_4:0.00000011):0.00000192,(4_0_6:0.00000155,(4_0_5:0.00000008,4_0_9:0.00000007):0.00000313):0.00000064):0.00000600,(4_0_10:0.00000289,(4_0_1:0.00000078,4_0_2:0.00000252):0.00000268):0.00000545):0.00000023):0.00052413,(((7_0_10:0.00000827,(7_0_7:0.00000244,((7_0_11:0.00000022,(7_0_4:0.00000007,7_0_2:0.00000016):0.00000004):0.00000025,7_0_5:0.00000061):0.00000123):0.00000156):0.00000845,((((7_0_3:0.00000046,7_0_6:0.00000022):0.00000056,(7_0_9:0.00000006,7_0_0:0.00000004):0.00000031):0.00000082,7_0_1:0.00000079):0.00000038,7_0_8:0.00000076):0.00001721):0.00020836,(((6_0_9:0.00000094,6_0_3:0.00000030):0.00000160,(((6_0_1:0.00000064,(6_0_7:0.00000014,6_0_6:0.00000015):0.00000007):0.00000004,6_0_4:0.00000063):0.00000013,(6_0_8:0.00000071,(6_0_5:0.00000033,6_0_11:0.00000049):0.00000003):0.00000061):0.00000067):0.00000245,((6_0_2:0.00000322,6_0_10:0.00000312):0.00000094,6_0_0:0.00000353):0.00000211):0.00057690):0.00059884):0.00041064,(((5_0_11:0.00000288,(5_0_0:0.00000260,(5_0_9:0.00000088,5_0_5:0.00000056):0.00000214):0.00000048):0.00000062,(5_0_10:0.00000050,(5_0_7:0.00000053,5_0_3:0.00000030):0.00000013):0.00000259):0.00000108,(((5_0_8:0.00000008,(5_0_6:0.00000010,5_0_2:0.00000012):0.00000035):0.00000069,5_0_1:0.00000109):0.00000101,5_0_4:0.00000230):0.00000043):0.00163320):0.00321141):0.00357449,0_0_0:0.04249750);

[PARTITIONS] csSimUnlinked_01 [T01 csSim_unlinked_1 500]
[PARTITIONS] csSimUnlinked_02 [T02 csSim_unlinked_2 500]
[PARTITIONS] csSimUnlinked_03 [T03 csSim_unlinked_3 500]
[PARTITIONS] csSimUnlinked_04 [T04 csSim_unlinked_4 500]
[PARTITIONS] csSimUnlinked_05 [T05 csSim_unlinked_5 500]
[PARTITIONS] csSimUnlinked_06 [T06 csSim_unlinked_6 500]
[PARTITIONS] csSimUnlinked_07 [T07 csSim_unlinked_7 500]
[PARTITIONS] csSimUnlinked_08 [T08 csSim_unlinked_8 500]
[PARTITIONS] csSimUnlinked_09 [T09 csSim_unlinked_9 500]
[PARTITIONS] csSimUnlinked_10 [T10 csSim_unlinked_10 500]

[EVOLVE] csSimUnlinked_01 1 data_01
csSimUnlinked_02 1 data_02
csSimUnlinked_03 1 data_03
csSimUnlinked_04 1 data_04
csSimUnlinked_05 1 data_05
csSimUnlinked_06 1 data_06
csSimUnlinked_07 1 data_07
csSimUnlinked_08 1 data_08
csSimUnlinked_09 1 data_09
csSimUnlinked_10 1 data_10
