[TYPE] NUCLEOTIDE 1 

[SETTINGS]
    [fastaextension] fasta  

[MODEL] csSim_unlinked_1
    [submodel] GTR 0.113724 0.003692 0.015651 0.027517 0.069291 
    [statefreq] 0.062253 0.382777 0.127613 0.427357 
[rates] 0 32.850246 0 

[MODEL] csSim_unlinked_2
    [submodel] GTR 0.097339 0.003127 0.003776 0.036256 0.065509 
    [statefreq] 0.205553 0.392266 0.217035 0.185146 
[rates] 0 54.574140 0 

[MODEL] csSim_unlinked_3
    [submodel] GTR 0.118645 0.001518 0.024562 0.014644 0.033160 
    [statefreq] 0.506406 0.045571 0.381909 0.066114 
[rates] 0 53.275478 0 

[MODEL] csSim_unlinked_4
    [submodel] GTR 0.119574 0.006388 0.023223 0.027705 0.033390 
    [statefreq] 0.232979 0.223825 0.360371 0.182825 
[rates] 0 15.710288 0 

[MODEL] csSim_unlinked_5
    [submodel] GTR 0.080435 0.021842 0.018152 0.025064 0.030157 
    [statefreq] 0.013882 0.396525 0.222599 0.366994 
[rates] 0 24.366250 0 

[MODEL] csSim_unlinked_6
    [submodel] GTR 0.081797 0.012504 0.014994 0.043300 0.032084 
    [statefreq] 0.071885 0.084948 0.341435 0.501733 
[rates] 0 5.420903 0 

[MODEL] csSim_unlinked_7
    [submodel] GTR 0.081040 0.002499 0.006295 0.033252 0.042181 
    [statefreq] 0.338507 0.311033 0.115376 0.235084 
[rates] 0 9.541778 0 

[MODEL] csSim_unlinked_8
    [submodel] GTR 0.097292 0.011106 0.008607 0.030270 0.042658 
    [statefreq] 0.122909 0.143838 0.186109 0.547143 
[rates] 0 8.869393 0 

[MODEL] csSim_unlinked_9
    [submodel] GTR 0.093200 0.005297 0.017907 0.033677 0.023811 
    [statefreq] 0.135237 0.551025 0.309318 0.004419 
[rates] 0 1.090859 0 

[MODEL] csSim_unlinked_10
    [submodel] GTR 0.084314 0.002574 0.011347 0.062538 0.037230 
    [statefreq] 0.295407 0.018422 0.528466 0.157705 
[rates] 0 56.382992 0 


[TREE] T01 ((((((9_0_12:0.00000082,9_0_1:0.00000030):0.00004348,(9_0_6:0.00002225,(((9_0_11:0.00000155,9_0_2:0.00000203):0.00000786,(9_0_14:0.00000407,(9_0_13:0.00000064,9_0_10:0.00000058):0.00000224):0.00000113):0.00000031,(9_0_7:0.00000888,(9_0_0:0.00000258,(9_0_16:0.00000056,9_0_3:0.00000132):0.00000093):0.00001090):0.00000012):0.00000089):0.00000311):0.00005141,((((14_0_11:0.00000066,14_0_2:0.00000086):0.00006488,((((11_0_3:0.00000178,11_0_4:0.00000216):0.00001041,((11_0_15:0.00000571,(11_0_2:0.00000759,11_0_16:0.00000147):0.00000217):0.00000322,(11_0_14:0.00000294,11_0_6:0.00000255):0.00000440):0.00000481):0.00001661,(((11_0_12:0.00001183,((11_0_13:0.00000073,11_0_9:0.00000095):0.00000075,(11_0_8:0.00000043,(11_0_11:0.00000031,11_0_5:0.00000077):0.00000006):0.00000175):0.00001241):0.00000133,11_0_7:0.00000379):0.00001824,(11_0_1:0.00000646,11_0_0:0.00000818):0.00002231):0.00000144):0.00000129,11_0_10:0.00001514):0.00000959):0.00000738,(((((14_0_4:0.00000338,14_0_5:0.00000286):0.00000849,14_0_8:0.00000977):0.00001799,14_0_6:0.00000836):0.00000270,((14_0_12:0.00000072,(14_0_0:0.00000002,14_0_10:0.00000002):0.00000057):0.00000466,(14_0_15:0.00000044,14_0_7:0.00000022):0.00000800):0.00000732):0.00003920,(((14_0_1:0.00000047,(14_0_13:0.00000057,14_0_16:0.00000068):0.00000037):0.00000199,14_0_9:0.00000405):0.00000752,(14_0_3:0.00000510,14_0_14:0.00000577):0.00000594):0.00001418):0.00000452):0.00001928,((((13_0_15:0.00000721,13_0_13:0.00001217):0.00000984,13_0_5:0.00001756):0.00000060,((13_0_4:0.00000574,(13_0_16:0.00000212,13_0_2:0.00000129):0.00000270):0.00000590,(13_0_10:0.00000158,(13_0_3:0.00000096,13_0_14:0.00000060):0.00000000):0.00000417):0.00002319):0.00012657,((((((13_0_0:0.00000080,13_0_9:0.00000312):0.00000184,(13_0_7:0.00000172,13_0_12:0.00000160):0.00000054):0.00000123,13_0_8:0.00000407):0.00000316,(13_0_11:0.00000067,13_0_1:0.00000063):0.00000426):0.00001980,13_0_6:0.00004033):0.00000867,((9_0_4:0.00000038,9_0_8:0.00000085):0.00001661,(9_0_9:0.00000233,(9_0_5:0.00000016,9_0_15:0.00000016):0.00000422):0.00002438):0.00000271):0.00013598):0.00002035):0.00002386):0.00005648,(((((((((12_0_10:0.00000210,(12_0_0:0.00000217,12_0_4:0.00000023):0.00000085):0.00000132,(12_0_14:0.00000153,12_0_9:0.00000372):0.00000305):0.00000648,(10_0_2:0.00000498,(10_0_3:0.00000168,10_0_7:0.00000543):0.00000190):0.00000074):0.00000634,(12_0_6:0.00000832,10_0_8:0.00000923):0.00000056):0.00000527,((12_0_16:0.00000694,12_0_7:0.00000583):0.00001944,((12_0_5:0.00000122,12_0_2:0.00000428):0.00000510,((10_0_13:0.00000166,(10_0_15:0.00000110,10_0_6:0.00000170):0.00000155):0.00000102,10_0_16:0.00000565):0.00000174):0.00000188):0.00001559):0.00000119,(((12_0_8:0.00000078,12_0_15:0.00000319):0.00000726,(12_0_13:0.00000061,12_0_11:0.00000210):0.00000596):0.00002397,(10_0_0:0.00000216,(10_0_4:0.00000185,10_0_5:0.00000157):0.00000230):0.00000900):0.00000759):0.00000774,((((8_0_6:0.00000033,8_0_0:0.00000097):0.00000132,8_0_14:0.00000290):0.00000252,8_0_12:0.00002348):0.00004628,8_0_2:0.00002217):0.00000070):0.00002846,(((8_0_11:0.00002232,(8_0_3:0.00000161,8_0_7:0.00000279):0.00000150):0.00000104,(8_0_5:0.00000849,((8_0_16:0.00000071,(8_0_10:0.00000001,8_0_13:0.00000003):0.00000125):0.00000692,(8_0_4:0.00000023,8_0_15:0.00000043):0.00000419):0.00000597):0.00000164):0.00000024,(8_0_8:0.00000014,8_0_1:0.00000008):0.00002699):0.00008937):0.00003891,(8_0_9:0.00008764,(((12_0_3:0.00000049,12_0_1:0.00000053):0.00000073,12_0_12:0.00000283):0.00001958,((10_0_1:0.00000275,(10_0_11:0.00000309,((10_0_12:0.00000088,10_0_14:0.00000289):0.00000139,10_0_10:0.00000098):0.00000074):0.00000083):0.00000813,10_0_9:0.00001335):0.00003984):0.00000107):0.00017226):0.00000509):0.13218368,((((((((((6_0_2:0.00000068,6_0_11:0.00000063):0.00000793,(6_0_3:0.00000153,6_0_10:0.00000152):0.00000822):0.00000176,((((6_0_14:0.00000277,6_0_8:0.00000124):0.00000297,((6_0_13:0.00000099,6_0_6:0.00000132):0.00000522,(6_0_12:0.00000549,(6_0_0:0.00000077,6_0_4:0.00000038):0.00000107):0.00000027):0.00000311):0.00000260,(6_0_9:0.00000393,6_0_5:0.00000413):0.00000083):0.00000381,(((6_0_15:0.00000122,6_0_7:0.00000057):0.00000261,6_0_1:0.00000427):0.00000679,6_0_16:0.00000742):0.00000346):0.00001240):0.00002436,((3_0_16:0.00000075,3_0_15:0.00000102):0.00000042,3_0_3:0.00000464):0.00006706):0.00000663,(((((3_0_0:0.00000087,3_0_9:0.00000239):0.00000840,((3_0_8:0.00000003,3_0_14:0.00000006):0.00000214,(3_0_4:0.00000133,3_0_10:0.00000458):0.00000445):0.00000102):0.00000023,3_0_6:0.00000801):0.00000331,(((3_0_12:0.00000012,3_0_1:0.00000069):0.00000065,3_0_2:0.00000298):0.00000429,(3_0_7:0.00000480,3_0_13:0.00001258):0.00000142):0.00000316):0.00000402,3_0_11:0.00000527):0.00002125):0.00001283,(((((1_0_10:0.00000275,(1_0_2:0.00000107,(1_0_9:0.00000204,(1_0_4:0.00000205,1_0_0:0.00000144):0.00000112):0.00000003):0.00000173):0.00000029,(4_0_11:0.00000332,7_0_2:0.00000167):0.00000199):0.00001536,((((7_0_16:0.00000573,((7_0_11:0.00000141,7_0_7:0.00000173):0.00000096,4_0_9:0.00000433):0.00000020):0.00000149,(4_0_3:0.00000001,4_0_16:0.00000003):0.00000127):0.00000924,((1_0_6:0.00001021,(7_0_6:0.00000040,7_0_10:0.00000062):0.00000303):0.00000031,(7_0_5:0.00000873,(7_0_0:0.00000229,(4_0_6:0.00000004,4_0_13:0.00000066):0.00000191):0.00000602):0.00000004):0.00000325):0.00000275,(((1_0_3:0.00000025,1_0_8:0.00000032):0.00000405,((1_0_16:0.00000263,1_0_12:0.00000222):0.00000086,1_0_11:0.00000063):0.00000067):0.00000949,((4_0_1:0.00000068,(4_0_10:0.00000218,(7_0_9:0.00000325,(4_0_0:0.00000031,4_0_14:0.00000007):0.00000155):0.00000013):0.00000229):0.00000098,4_0_15:0.00000550):0.00000221):0.00000183):0.00000072):0.00001918,(((7_0_14:0.00000000,7_0_13:0.00000000):0.00000047,7_0_12:0.00000133):0.00000463,((4_0_5:0.00000117,4_0_7:0.00000111):0.00000151,4_0_4:0.00000363):0.00000211):0.00000774):0.00001516,((((7_0_4:0.00000279,(7_0_8:0.00000225,7_0_1:0.00000302):0.00000040):0.00000205,(7_0_15:0.00000418,4_0_12:0.00000139):0.00000187):0.00000006,(4_0_8:0.00000102,4_0_2:0.00000049):0.00000735):0.00001768,((((1_0_7:0.00000267,1_0_5:0.00000213):0.00000227,1_0_1:0.00000276):0.00001594,7_0_3:0.00002436):0.00000386,(1_0_15:0.00000353,(1_0_14:0.00000905,1_0_13:0.00000239):0.00000191):0.00001485):0.00000183):0.00001233):0.00000701):0.00000319,(((2_0_11:0.00000096,2_0_8:0.00000106):0.00000633,2_0_3:0.00001562):0.00000130,((2_0_13:0.00000003,2_0_9:0.00000004):0.00001317,((2_0_6:0.00000182,((2_0_15:0.00000096,2_0_4:0.00000065):0.00000109,(2_0_14:0.00000104,2_0_0:0.00000308):0.00000021):0.00000086):0.00000521,((2_0_16:0.00000025,(2_0_2:0.00000009,2_0_1:0.00000023):0.00000024):0.00000668,(2_0_12:0.00000522,2_0_7:0.00000530):0.00000670):0.00000216):0.00000069):0.00000031):0.00003095):0.00002266,(2_0_5:0.00000107,2_0_10:0.00000039):0.00000529):0.00000510,3_0_5:0.00003199):0.00002562,((((5_0_11:0.00001523,5_0_7:0.00000519):0.00000025,(((((5_0_5:0.00000050,5_0_8:0.00000165):0.00000023,5_0_15:0.00000237):0.00000080,5_0_16:0.00000169):0.00000747,((5_0_6:0.00000025,5_0_0:0.00000005):0.00000464,(5_0_10:0.00000034,5_0_12:0.00000049):0.00000054):0.00000600):0.00000016,5_0_4:0.00001604):0.00000760):0.00003746,((5_0_2:0.00000131,5_0_14:0.00000034):0.00000203,5_0_1:0.00000179):0.00004548):0.00001952,((5_0_13:0.00000624,5_0_9:0.00000471):0.00002749,5_0_3:0.00003346):0.00004300):0.00008631):0.09332083):0.18374720,0_0_0:0.13698751);
[TREE] T02 (0_0_0:0.08506979,((((((5_0_13:0.00000727,5_0_12:0.00000704):0.00000493,5_0_16:0.00000757):0.00003141,5_0_7:0.00002782):0.00017115,((5_0_6:0.00002298,(5_0_0:0.00001570,(((5_0_8:0.00000168,5_0_3:0.00000449):0.00000074,5_0_4:0.00000575):0.00000107,(5_0_15:0.00000704,(5_0_10:0.00000177,((5_0_11:0.00000002,5_0_14:0.00000005):0.00000132,5_0_5:0.00000054):0.00000131):0.00000594):0.00000448):0.00000200):0.00000689):0.00001414,(5_0_1:0.00003209,(5_0_2:0.00000004,5_0_9:0.00000005):0.00001662):0.00003214):0.00006566):0.00000768,((((2_0_2:0.00000750,2_0_6:0.00000374):0.00001942,(2_0_9:0.00000033,2_0_10:0.00000131):0.00000543):0.00000760,(((2_0_4:0.00000281,2_0_5:0.00000193):0.00000279,(2_0_8:0.00000401,(2_0_15:0.00000203,2_0_12:0.00000121):0.00000307):0.00000358):0.00000273,((2_0_3:0.00000045,(2_0_13:0.00000051,2_0_1:0.00000037):0.00000006):0.00000224,(2_0_7:0.00000007,2_0_0:0.00000018):0.00000094):0.00000352):0.00002013):0.00007310,(((2_0_14:0.00001573,(2_0_16:0.00000185,2_0_11:0.00000278):0.00000539):0.00004755,(7_0_16:0.00008856,(((((1_0_9:0.00000242,((7_0_5:0.00000364,(4_0_13:0.00000042,4_0_9:0.00000084):0.00000450):0.00000093,(4_0_16:0.00000082,(4_0_14:0.00000708,4_0_6:0.00000212):0.00000007):0.00000033):0.00000193):0.00000415,((4_0_7:0.00000090,4_0_4:0.00000422):0.00000858,(((4_0_3:0.00000128,4_0_1:0.00000065):0.00000476,1_0_3:0.00000630):0.00000392,((7_0_8:0.00000474,4_0_15:0.00000948):0.00000285,4_0_11:0.00000407):0.00000186):0.00000129):0.00000674):0.00000646,((((((7_0_12:0.00000089,7_0_0:0.00000116):0.00000018,7_0_3:0.00000314):0.00000024,7_0_15:0.00000325):0.00000268,4_0_0:0.00000774):0.00000206,((1_0_4:0.00000117,1_0_13:0.00000156):0.00000567,((1_0_0:0.00000024,1_0_15:0.00000029):0.00000140,((1_0_12:0.00000158,1_0_1:0.00000239):0.00000076,(1_0_10:0.00000004,1_0_5:0.00000018):0.00000295):0.00000506):0.00000046):0.00000432):0.00000334,(4_0_5:0.00000459,7_0_14:0.00000151):0.00000803):0.00000831):0.00000102,(((((4_0_8:0.00000052,4_0_10:0.00000128):0.00000176,7_0_4:0.00000572):0.00000012,((7_0_1:0.00000001,7_0_7:0.00000001):0.00000243,(7_0_11:0.00000097,7_0_9:0.00000045):0.00000185):0.00000099):0.00000498,((1_0_7:0.00001095,4_0_12:0.00000799):0.00000070,((1_0_2:0.00000096,1_0_14:0.00000123):0.00000183,(1_0_16:0.00000131,1_0_6:0.00000071):0.00000198):0.00000790):0.00000073):0.00000538,1_0_8:0.00001717):0.00000389):0.00005045,((((7_0_2:0.00000194,7_0_13:0.00000250):0.00000209,4_0_2:0.00000482):0.00000655,1_0_11:0.00001881):0.00000313,(7_0_10:0.00000227,7_0_6:0.00000161):0.00000709):0.00002353):0.00000519):0.00000277):0.00000506,((((3_0_1:0.00000951,(((3_0_8:0.00000012,3_0_2:0.00000007):0.00001094,3_0_7:0.00000858):0.00000112,(3_0_6:0.00000184,(3_0_9:0.00000027,3_0_13:0.00000072):0.00000093):0.00000648):0.00000440):0.00001972,3_0_16:0.00003310):0.00001211,(((3_0_5:0.00000148,3_0_4:0.00000136):0.00000561,3_0_14:0.00000195):0.00000571,(3_0_12:0.00000684,3_0_3:0.00000457):0.00000228):0.00002200):0.00000667,((3_0_11:0.00004749,3_0_0:0.00002173):0.00000129,((3_0_10:0.00000010,3_0_15:0.00000007):0.00002066,((6_0_14:0.00000691,((6_0_5:0.00000021,6_0_8:0.00000180):0.00000226,((6_0_13:0.00000061,6_0_2:0.00000026):0.00000214,6_0_10:0.00000226):0.00000166):0.00000051):0.00004432,(((6_0_0:0.00000742,6_0_9:0.00000571):0.00000357,6_0_12:0.00000552):0.00000715,(((6_0_15:0.00000300,(6_0_3:0.00000179,(6_0_6:0.00000012,6_0_11:0.00000025):0.00000278):0.00000121):0.00000042,((6_0_4:0.00000222,6_0_16:0.00000055):0.00000017,6_0_7:0.00000049):0.00000124):0.00001037,6_0_1:0.00001237):0.00000468):0.00000273):0.00000613):0.00000089):0.00000340):0.00000874):0.00000434):0.00006700):0.04864286,(((((((10_0_15:0.00000239,10_0_2:0.00000189):0.00000465,10_0_10:0.00000555):0.00000083,(12_0_7:0.00000235,(12_0_11:0.00000178,12_0_6:0.00000083):0.00000075):0.00000417):0.00000733,10_0_1:0.00001973):0.00003579,(8_0_10:0.00000007,8_0_15:0.00000005):0.00001565):0.00001054,(((((((12_0_13:0.00000107,12_0_14:0.00000045):0.00000704,12_0_2:0.00000382):0.00000411,((12_0_5:0.00001426,(12_0_16:0.00000717,(12_0_3:0.00000050,12_0_0:0.00000047):0.00000803):0.00000149):0.00000111,(10_0_11:0.00000394,10_0_5:0.00001377):0.00000086):0.00000062):0.00000511,((12_0_1:0.00000029,12_0_12:0.00000030):0.00001183,12_0_8:0.00000580):0.00000731):0.00000060,((12_0_15:0.00001438,((10_0_4:0.00000512,(10_0_8:0.00000355,10_0_14:0.00000272):0.00000092):0.00000355,12_0_9:0.00001629):0.00000006):0.00000087,(10_0_16:0.00000221,(10_0_12:0.00000020,10_0_13:0.00000062):0.00000105):0.00000713):0.00000268):0.00002662,((((8_0_12:0.00000164,8_0_0:0.00000375):0.00000106,8_0_1:0.00001123):0.00000286,(((8_0_6:0.00000099,8_0_8:0.00000055):0.00000438,8_0_2:0.00000224):0.00000278,(8_0_9:0.00000387,8_0_3:0.00000081):0.00000539):0.00000449):0.00000768,((8_0_16:0.00000725,(8_0_4:0.00000286,8_0_5:0.00000290):0.00000937):0.00000133,(8_0_11:0.00000665,((8_0_7:0.00000097,8_0_14:0.00000024):0.00000253,8_0_13:0.00000375):0.00000636):0.00000580):0.00001098):0.00001308):0.00000650,(((10_0_7:0.00000143,((10_0_0:0.00000019,10_0_3:0.00000020):0.00000292,(10_0_9:0.00000042,10_0_6:0.00000133):0.00000121):0.00000087):0.00000492,12_0_10:0.00000601):0.00000366,12_0_4:0.00000618):0.00005009):0.00001834):0.00015277,((9_0_14:0.00001985,9_0_12:0.00000586):0.00007282,((((((((((13_0_7:0.00000195,13_0_4:0.00000137):0.00000193,(13_0_1:0.00000116,13_0_15:0.00000158):0.00000111):0.00000246,(((13_0_16:0.00000092,13_0_14:0.00000259):0.00000039,(13_0_9:0.00000385,13_0_12:0.00000083):0.00000048):0.00000648,13_0_11:0.00000339):0.00000311):0.00000679,(13_0_10:0.00000066,13_0_6:0.00000135):0.00000756):0.00000525,((13_0_0:0.00000054,13_0_3:0.00000039):0.00000195,13_0_2:0.00000395):0.00003287):0.00000939,(((9_0_7:0.00000008,9_0_10:0.00000006):0.00000144,(9_0_13:0.00000070,9_0_9:0.00000081):0.00000181):0.00000628,((9_0_2:0.00000040,(9_0_11:0.00000000,9_0_5:0.00000001):0.00000015):0.00001514,9_0_8:0.00002234):0.00000127):0.00002304):0.00001092,9_0_0:0.00001596):0.00000304,((((9_0_4:0.00000001,9_0_16:0.00000001):0.00000253,(9_0_3:0.00000025,9_0_1:0.00000030):0.00000207):0.00000306,9_0_6:0.00000529):0.00001119,(13_0_13:0.00000499,(13_0_5:0.00000369,13_0_8:0.00000412):0.00000354):0.00000903):0.00000729):0.00001486,9_0_15:0.00005097):0.00003263,(((((((11_0_11:0.00000008,11_0_13:0.00000011):0.00000372,11_0_5:0.00000416):0.00000543,((14_0_2:0.00000914,14_0_3:0.00001298):0.00000018,((14_0_12:0.00000017,14_0_10:0.00000031):0.00000213,(14_0_0:0.00000063,(14_0_6:0.00000106,(14_0_7:0.00000015,14_0_5:0.00000075):0.00000037):0.00000040):0.00000164):0.00000865):0.00000364):0.00000573,(14_0_13:0.00000333,14_0_4:0.00000602):0.00002073):0.00000015,(14_0_8:0.00000114,(14_0_11:0.00000239,14_0_14:0.00000077):0.00000013):0.00001562):0.00001070,((14_0_9:0.00000254,14_0_1:0.00000284):0.00004958,(14_0_15:0.00000039,14_0_16:0.00000082):0.00004092):0.00000671):0.00000606,(((11_0_6:0.00000044,11_0_9:0.00000073):0.00000361,(11_0_8:0.00000044,11_0_14:0.00000031):0.00000430):0.00003223,((11_0_7:0.00000197,(11_0_12:0.00000078,11_0_15:0.00000113):0.00000256):0.00000165,((11_0_3:0.00001497,((11_0_2:0.00000158,11_0_1:0.00000406):0.00000258,11_0_4:0.00000334):0.00000259):0.00000250,(11_0_16:0.00000326,(11_0_0:0.00000428,11_0_10:0.00000193):0.00000197):0.00000640):0.00000183):0.00000672):0.00000571):0.00004100):0.00003836):0.00014186):0.09344616):0.06528972);
[TREE] T03 ((((((((((6_0_9:0.00000274,(6_0_12:0.00000154,6_0_5:0.00000085):0.00000042):0.00000566,6_0_1:0.00001015):0.00003200,((3_0_2:0.00000158,3_0_5:0.00000277):0.00001404,(((3_0_10:0.00000041,3_0_8:0.00000056):0.00000846,(3_0_9:0.00000035,3_0_1:0.00000105):0.00000718):0.00000117,3_0_13:0.00000140):0.00000786):0.00000312):0.00001997,(((2_0_4:0.00001723,2_0_2:0.00000723):0.00000175,((((2_0_8:0.00000091,2_0_1:0.00000144):0.00000111,2_0_16:0.00000061):0.00000165,(2_0_14:0.00000288,2_0_10:0.00000166):0.00000024):0.00000544,((2_0_3:0.00000741,((2_0_0:0.00000049,2_0_7:0.00000069):0.00000615,(2_0_5:0.00000511,((2_0_6:0.00000007,2_0_11:0.00000011):0.00000550,2_0_15:0.00000341):0.00000074):0.00000275):0.00000035):0.00000042,(2_0_9:0.00000022,2_0_12:0.00000070):0.00001300):0.00000625):0.00000113):0.00000807,2_0_13:0.00003481):0.00000043):0.00001616,((((4_0_11:0.00000986,(1_0_15:0.00000283,7_0_7:0.00000393):0.00000532):0.00000185,((1_0_3:0.00000281,1_0_16:0.00000339):0.00000127,1_0_10:0.00000257):0.00000958):0.00000670,(((1_0_14:0.00000744,7_0_3:0.00000159):0.00000199,(7_0_10:0.00000645,((((1_0_0:0.00000025,1_0_1:0.00000015):0.00000134,1_0_12:0.00000296):0.00000075,1_0_5:0.00000568):0.00000031,1_0_9:0.00000323):0.00000389):0.00000005):0.00001972,(4_0_3:0.00001109,(((((7_0_0:0.00000008,7_0_2:0.00000005):0.00000974,7_0_13:0.00000590):0.00000349,(((4_0_5:0.00000329,7_0_11:0.00000207):0.00000061,((7_0_6:0.00000205,((7_0_5:0.00000056,7_0_1:0.00000043):0.00000107,((4_0_7:0.00000125,4_0_4:0.00000083):0.00000098,4_0_2:0.00000231):0.00000074):0.00000013):0.00000033,(((7_0_14:0.00000016,7_0_9:0.00000111):0.00000154,((4_0_14:0.00000180,4_0_8:0.00000121):0.00000033,4_0_6:0.00000091):0.00000015):0.00000020,7_0_8:0.00000195):0.00000068):0.00000065):0.00000020,((4_0_0:0.00000061,4_0_1:0.00000126):0.00000471,((4_0_15:0.00000009,4_0_9:0.00000003):0.00000292,(7_0_16:0.00000282,7_0_12:0.00000353):0.00000021):0.00000002):0.00000078):0.00000078):0.00000028,((7_0_15:0.00000074,7_0_4:0.00000014):0.00000326,4_0_10:0.00000238):0.00000197):0.00000129,(4_0_16:0.00000824,((1_0_6:0.00000192,1_0_7:0.00000050):0.00000206,((1_0_2:0.00000000,1_0_4:0.00000000):0.00000025,1_0_8:0.00000019):0.00000465):0.00000324):0.00000038):0.00000123):0.00000552):0.00002120):0.00000905,(4_0_12:0.00000205,4_0_13:0.00000234):0.00002842):0.00000871):0.00000047,(((3_0_15:0.00000845,((3_0_16:0.00000134,3_0_0:0.00000137):0.00000082,3_0_7:0.00000141):0.00000333):0.00001879,((3_0_12:0.00000649,(3_0_6:0.00000120,(3_0_4:0.00000043,3_0_3:0.00000120):0.00000204):0.00001064):0.00000095,3_0_11:0.00001119):0.00003703):0.00003016,((3_0_14:0.00002305,((6_0_10:0.00000128,6_0_14:0.00000037):0.00001621,(6_0_15:0.00000026,6_0_4:0.00000038):0.00002394):0.00000050):0.00000360,(((6_0_11:0.00000040,6_0_7:0.00000041):0.00000062,6_0_6:0.00000088):0.00000875,((((6_0_2:0.00000056,6_0_0:0.00000110):0.00000101,6_0_16:0.00000180):0.00000160,(6_0_3:0.00000138,6_0_13:0.00000112):0.00000396):0.00000101,6_0_8:0.00000276):0.00000868):0.00000959):0.00005715):0.00000116):0.00000262,(1_0_13:0.00009980,1_0_11:0.00001787):0.00004292):0.00009896,((((5_0_1:0.00000185,(5_0_14:0.00000010,5_0_10:0.00000012):0.00000171):0.00003575,(5_0_5:0.00000057,(5_0_11:0.00000005,5_0_7:0.00000003):0.00000047):0.00002455):0.00000781,(((5_0_8:0.00000168,5_0_0:0.00000023):0.00000320,(5_0_4:0.00000223,(5_0_3:0.00000347,(5_0_15:0.00000083,5_0_6:0.00000260):0.00000023):0.00000028):0.00000329):0.00001672,5_0_16:0.00002368):0.00002238):0.00002670,((5_0_2:0.00000804,(5_0_12:0.00000334,5_0_13:0.00000030):0.00000272):0.00000635,5_0_9:0.00000507):0.00006932):0.00011044):0.10817722,(((((((8_0_1:0.00000892,(8_0_2:0.00000994,(8_0_13:0.00000580,(8_0_9:0.00000007,8_0_16:0.00000008):0.00000463):0.00000411):0.00000940):0.00000479,((8_0_10:0.00000027,8_0_8:0.00000055):0.00000179,(8_0_7:0.00000144,(8_0_12:0.00000047,8_0_3:0.00000200):0.00000044):0.00000145):0.00003303):0.00001584,(8_0_14:0.00000719,8_0_11:0.00000740):0.00001515):0.00000544,((12_0_6:0.00000335,(12_0_3:0.00000048,12_0_14:0.00000068):0.00000089):0.00001895,(((12_0_11:0.00000113,12_0_5:0.00000139):0.00000089,((12_0_0:0.00000267,((12_0_4:0.00000038,12_0_13:0.00000026):0.00000244,(12_0_15:0.00000109,12_0_2:0.00000154):0.00000033):0.00000012):0.00000574,12_0_16:0.00000167):0.00000100):0.00000011,(((12_0_1:0.00000172,12_0_10:0.00000069):0.00000013,12_0_7:0.00000121):0.00000179,12_0_9:0.00000252):0.00000455):0.00000294):0.00000978):0.00000219,(((8_0_0:0.00000050,8_0_5:0.00000055):0.00000136,(8_0_4:0.00000182,8_0_15:0.00000203):0.00000011):0.00000612,8_0_6:0.00000139):0.00003848):0.00003888,((((((10_0_2:0.00000040,10_0_4:0.00000012):0.00000247,10_0_7:0.00000240):0.00000091,(10_0_0:0.00000067,10_0_1:0.00000083):0.00000062):0.00001150,12_0_8:0.00000663):0.00001104,(10_0_3:0.00000421,((10_0_5:0.00001045,10_0_15:0.00000171):0.00000106,(10_0_10:0.00000059,10_0_16:0.00000027):0.00000516):0.00000203):0.00000777):0.00001857,((12_0_12:0.00000858,10_0_6:0.00001798):0.00000245,(((10_0_11:0.00000005,10_0_14:0.00000003):0.00000603,(10_0_9:0.00000054,10_0_8:0.00000235):0.00000317):0.00000153,(10_0_13:0.00001071,10_0_12:0.00000656):0.00000050):0.00003870):0.00001115):0.00004862):0.00006398,(((((((13_0_1:0.00000141,13_0_4:0.00000180):0.00000153,13_0_3:0.00000139):0.00000522,((13_0_12:0.00000106,(13_0_16:0.00000360,13_0_8:0.00000077):0.00000011):0.00000605,(((13_0_0:0.00000003,(13_0_15:0.00000001,13_0_11:0.00000003):0.00000010):0.00000042,13_0_5:0.00000154):0.00000297,13_0_2:0.00000341):0.00000477):0.00000173):0.00000173,(13_0_14:0.00000171,13_0_10:0.00000326):0.00000917):0.00002300,(((9_0_11:0.00000040,9_0_16:0.00000065):0.00005528,(9_0_5:0.00001214,(9_0_1:0.00000036,9_0_2:0.00000035):0.00000713):0.00000355):0.00000754,((9_0_13:0.00000210,9_0_4:0.00000053):0.00000669,(9_0_15:0.00000254,((9_0_12:0.00000181,(9_0_7:0.00000012,9_0_10:0.00000006):0.00000028):0.00000829,(9_0_6:0.00000226,9_0_9:0.00000568):0.00000002):0.00000020):0.00000514):0.00000778):0.00001734):0.00000528,(((13_0_7:0.00000627,13_0_13:0.00000412):0.00000358,(13_0_6:0.00000334,13_0_9:0.00000244):0.00000991):0.00004461,((9_0_8:0.00000073,9_0_3:0.00000149):0.00001451,(9_0_14:0.00000139,9_0_0:0.00000420):0.00000810):0.00003592):0.00000240):0.00003870,(14_0_4:0.00009256,((((((11_0_5:0.00000295,(((11_0_0:0.00000024,11_0_11:0.00000032):0.00000579,11_0_1:0.00000302):0.00000019,(11_0_13:0.00000180,(11_0_9:0.00000036,11_0_8:0.00000110):0.00000243):0.00000113):0.00000044):0.00000184,(11_0_2:0.00000269,11_0_10:0.00000228):0.00000367):0.00000154,(11_0_15:0.00001833,11_0_16:0.00000568):0.00000213):0.00000232,(11_0_14:0.00000676,((11_0_6:0.00000123,11_0_7:0.00000205):0.00000067,11_0_12:0.00000500):0.00000117):0.00001342):0.00000568,((14_0_14:0.00000057,14_0_2:0.00000091):0.00001710,((14_0_10:0.00000808,((14_0_9:0.00000066,14_0_7:0.00000034):0.00000012,14_0_8:0.00000107):0.00000464):0.00001782,(14_0_13:0.00001884,((14_0_6:0.00000236,(14_0_0:0.00000106,(14_0_12:0.00000076,14_0_1:0.00000096):0.00000054):0.00000073):0.00000014,14_0_5:0.00000551):0.00001023):0.00000290):0.00000199):0.00000561):0.00000994,((14_0_11:0.00000095,(14_0_3:0.00000095,(14_0_15:0.00000019,14_0_16:0.00000014):0.00000077):0.00000062):0.00001726,(11_0_3:0.00000405,11_0_4:0.00000189):0.00004651):0.00000849):0.00000409):0.00004839):0.00004400):0.05565205):0.08553023,0_0_0:0.19627813);
[TREE] T04 (0_0_0:0.25104739,(((((((3_0_16:0.00001335,(3_0_3:0.00000053,(3_0_6:0.00000334,3_0_5:0.00000328):0.00000027):0.00000451):0.00002784,((6_0_1:0.00000456,((6_0_16:0.00000084,6_0_11:0.00000027):0.00000154,(6_0_4:0.00000084,(6_0_5:0.00000053,6_0_2:0.00000020):0.00000078):0.00000034):0.00002094):0.00000620,(6_0_9:0.00000951,(6_0_8:0.00000019,6_0_0:0.00000059):0.00000272):0.00001326):0.00002804):0.00002281,((2_0_1:0.00003104,2_0_2:0.00002355):0.00001643,((2_0_9:0.00000662,2_0_3:0.00000437):0.00003688,((((2_0_16:0.00003214,((2_0_14:0.00000162,2_0_0:0.00000072):0.00001143,(2_0_15:0.00000313,(2_0_13:0.00000384,2_0_12:0.00000248):0.00000046):0.00001001):0.00001071):0.00000356,2_0_11:0.00000869):0.00000075,((2_0_10:0.00000173,2_0_8:0.00000191):0.00000770,(2_0_4:0.00000007,2_0_7:0.00000003):0.00000390):0.00005469):0.00000480,(2_0_5:0.00000481,2_0_6:0.00000521):0.00002275):0.00000885):0.00000865):0.00004581):0.00003317,((((1_0_13:0.00000372,((4_0_2:0.00000294,7_0_15:0.00000416):0.00000144,7_0_1:0.00000274):0.00000027):0.00000384,(1_0_14:0.00000168,(1_0_8:0.00000133,1_0_6:0.00000063):0.00000004):0.00001169):0.00000539,(1_0_10:0.00001548,((7_0_12:0.00000301,(4_0_16:0.00000273,4_0_15:0.00000224):0.00000203):0.00000695,((4_0_5:0.00000470,(((4_0_12:0.00000348,(4_0_10:0.00000326,7_0_2:0.00000302):0.00000005):0.00000155,(1_0_1:0.00000457,4_0_0:0.00000329):0.00000044):0.00000080,(4_0_13:0.00000115,4_0_1:0.00000032):0.00000204):0.00000247):0.00000010,(7_0_6:0.00000000,7_0_8:0.00000000):0.00000954):0.00000471):0.00000023):0.00000918):0.00001956,(((((4_0_4:0.00000590,(7_0_4:0.00000453,7_0_16:0.00000156):0.00000377):0.00000189,((7_0_7:0.00000114,7_0_11:0.00000128):0.00000096,(((7_0_9:0.00000036,7_0_14:0.00000019):0.00000052,7_0_0:0.00000222):0.00000010,(4_0_11:0.00000016,4_0_3:0.00000006):0.00000272):0.00000029):0.00000120):0.00000198,(1_0_7:0.00000557,((4_0_6:0.00000257,((1_0_3:0.00000532,1_0_15:0.00000241):0.00000059,((1_0_5:0.00000240,1_0_4:0.00000092):0.00000105,((1_0_16:0.00000028,1_0_12:0.00000061):0.00000094,1_0_2:0.00000341):0.00000038):0.00000271):0.00000007):0.00000071,(1_0_9:0.00000168,1_0_11:0.00000184):0.00001040):0.00000013):0.00001794):0.00000424,(4_0_14:0.00000869,(7_0_10:0.00000244,(4_0_8:0.00000168,(4_0_9:0.00000003,4_0_7:0.00000007):0.00000163):0.00000232):0.00000057):0.00001972):0.00000890,(1_0_0:0.00002779,(7_0_3:0.00000524,7_0_5:0.00000342):0.00003415):0.00000021):0.00001112):0.00003510):0.00000138,((7_0_13:0.00003712,((3_0_2:0.00000008,3_0_7:0.00000013):0.00002962,((3_0_12:0.00000872,3_0_8:0.00000703):0.00000143,((3_0_11:0.00000428,(3_0_15:0.00000664,((3_0_0:0.00000083,3_0_13:0.00000032):0.00000168,(3_0_10:0.00000503,(3_0_14:0.00000312,3_0_4:0.00000308):0.00000039):0.00000096):0.00000026):0.00000246):0.00000408,(3_0_1:0.00000303,3_0_9:0.00000599):0.00000370):0.00000168):0.00002543):0.00001568):0.00000259,(6_0_13:0.00002043,((6_0_6:0.00000120,6_0_7:0.00000027):0.00002260,(((6_0_14:0.00000383,6_0_10:0.00000441):0.00000071,6_0_12:0.00000560):0.00000104,(6_0_15:0.00000118,6_0_3:0.00000260):0.00000341):0.00000292):0.00001104):0.00004050):0.00005219):0.00001685,(((5_0_1:0.00001236,5_0_15:0.00000470):0.00003418,((((5_0_13:0.00000472,5_0_9:0.00000293):0.00000439,(((5_0_14:0.00000017,5_0_0:0.00000041):0.00000349,5_0_10:0.00000283):0.00000040,5_0_2:0.00000391):0.00000035):0.00000394,5_0_16:0.00000923):0.00001472,(5_0_7:0.00002174,((5_0_5:0.00000200,(5_0_11:0.00000489,(5_0_4:0.00000122,5_0_8:0.00000226):0.00000156):0.00000055):0.00000146,(5_0_3:0.00000246,5_0_6:0.00000505):0.00000291):0.00003098):0.00000487):0.00001438):0.00006836,5_0_12:0.00012694):0.00006341):0.18608728,(((((((12_0_16:0.00000013,12_0_2:0.00000023):0.00000048,12_0_7:0.00000039):0.00000793,(12_0_10:0.00000242,12_0_1:0.00000450):0.00000455):0.00000776,(((12_0_11:0.00000114,12_0_0:0.00000108):0.00000432,((12_0_12:0.00000033,12_0_5:0.00000014):0.00000116,12_0_9:0.00000224):0.00000720):0.00000017,(12_0_8:0.00000036,12_0_15:0.00000037):0.00001175):0.00001260):0.00000230,((10_0_13:0.00000282,10_0_2:0.00000215):0.00000924,((10_0_12:0.00000139,10_0_7:0.00000093):0.00000242,10_0_16:0.00000669):0.00000244):0.00001916):0.00019312,((((12_0_13:0.00000007,12_0_6:0.00000008):0.00001156,((10_0_8:0.00000078,10_0_9:0.00000134):0.00000245,((10_0_4:0.00000090,10_0_1:0.00000267):0.00000429,10_0_10:0.00000298):0.00000011):0.00000106):0.00000154,((10_0_15:0.00000152,10_0_14:0.00000153):0.00000200,((10_0_3:0.00000100,10_0_5:0.00000066):0.00000147,10_0_6:0.00000337):0.00000088):0.00001319):0.00005335,((((8_0_3:0.00000144,(8_0_5:0.00000007,8_0_11:0.00000009):0.00000700):0.00001195,8_0_4:0.00000634):0.00000093,((8_0_15:0.00000113,8_0_1:0.00000081):0.00000760,(8_0_0:0.00000601,(8_0_13:0.00000357,((8_0_9:0.00000015,8_0_12:0.00000027):0.00000064,8_0_7:0.00000211):0.00000011):0.00000250):0.00000007):0.00000689):0.00003583,(((8_0_14:0.00000757,((8_0_10:0.00000094,8_0_6:0.00000158):0.00000055,8_0_8:0.00000119):0.00000120):0.00000852,(8_0_16:0.00000508,8_0_2:0.00001557):0.00000139):0.00002484,((10_0_11:0.00000206,10_0_0:0.00000123):0.00000646,((12_0_14:0.00000197,12_0_3:0.00000519):0.00000527,12_0_4:0.00000249):0.00000213):0.00000981):0.00000694):0.00000190):0.00002918):0.00001746,((((9_0_11:0.00001592,9_0_4:0.00002087):0.00000257,(((9_0_5:0.00000159,9_0_15:0.00000246):0.00000926,(9_0_12:0.00000112,(9_0_6:0.00000116,9_0_16:0.00000088):0.00000094):0.00000215):0.00000335,((9_0_3:0.00000241,9_0_8:0.00000201):0.00000709,((9_0_0:0.00000022,(9_0_1:0.00000034,9_0_13:0.00000028):0.00000000):0.00000143,((9_0_7:0.00000065,9_0_2:0.00000088):0.00000134,9_0_14:0.00000219):0.00000297):0.00000565):0.00000113):0.00001004):0.00000834,(((13_0_5:0.00000016,13_0_2:0.00000003):0.00000427,13_0_1:0.00000362):0.00000319,(13_0_7:0.00000270,(13_0_14:0.00000081,13_0_10:0.00000072):0.00001148):0.00000131):0.00000638):0.00004228,((((13_0_16:0.00000368,13_0_11:0.00000498):0.00002295,(13_0_0:0.00000027,(13_0_15:0.00000201,13_0_6:0.00000047):0.00000006):0.00002438):0.00006162,((9_0_9:0.00002632,9_0_10:0.00001376):0.00003595,(((13_0_12:0.00000779,13_0_3:0.00000155):0.00000425,(13_0_9:0.00000048,(13_0_4:0.00000009,13_0_13:0.00000024):0.00000264):0.00000803):0.00001156,13_0_8:0.00002266):0.00001796):0.00000673):0.00000802,((((14_0_6:0.00001639,14_0_5:0.00000455):0.00000114,14_0_2:0.00000506):0.00002517,((11_0_3:0.00000995,14_0_11:0.00000977):0.00000415,(((11_0_2:0.00000020,11_0_8:0.00000007):0.00000829,((11_0_15:0.00000024,11_0_12:0.00000074):0.00000502,(11_0_4:0.00000222,(11_0_9:0.00000152,11_0_11:0.00000112):0.00000010):0.00000081):0.00000225):0.00003116,14_0_7:0.00002831):0.00000033):0.00001627):0.00000869,((((11_0_10:0.00001185,(((11_0_16:0.00000149,11_0_1:0.00000094):0.00000575,11_0_13:0.00000469):0.00000053,(11_0_5:0.00000379,(11_0_14:0.00000143,11_0_6:0.00000060):0.00000091):0.00000243):0.00000466):0.00000201,11_0_7:0.00000803):0.00000256,(((14_0_16:0.00000584,(((14_0_8:0.00000017,14_0_13:0.00000016):0.00000114,14_0_15:0.00000118):0.00000012,14_0_3:0.00000083):0.00000159):0.00001101,14_0_10:0.00001760):0.00000148,((14_0_4:0.00000120,14_0_9:0.00000349):0.00000105,14_0_0:0.00000290):0.00002027):0.00001067):0.00002205,(11_0_0:0.00001469,(14_0_12:0.00000184,(14_0_1:0.00000042,14_0_14:0.00000074):0.00000071):0.00002280):0.00002781):0.00000554):0.00002368):0.00000331):0.00003846):0.04290697):0.04757138);
[TREE] T05 (0_0_0:0.02942933,(((((9_0_2:0.00002415,9_0_0:0.00000676):0.00000724,(((13_0_0:0.00000006,13_0_6:0.00000003):0.00000418,13_0_10:0.00000366):0.00002811,(((((13_0_5:0.00000188,13_0_3:0.00000088):0.00000253,((13_0_1:0.00000005,13_0_4:0.00000002):0.00000398,13_0_13:0.00000255):0.00000219):0.00000239,13_0_9:0.00001530):0.00000206,((13_0_2:0.00000069,13_0_8:0.00000225):0.00000052,13_0_14:0.00000922):0.00002037):0.00000169,((13_0_12:0.00000263,(13_0_16:0.00000021,13_0_7:0.00000045):0.00000135):0.00000198,(13_0_15:0.00000088,13_0_11:0.00000135):0.00000197):0.00000595):0.00002453):0.00000093):0.00001833,(((((9_0_4:0.00000044,9_0_11:0.00000054):0.00000202,9_0_5:0.00000367):0.00000046,9_0_10:0.00000905):0.00000720,(((9_0_7:0.00000085,9_0_13:0.00000075):0.00000809,9_0_14:0.00000518):0.00000448,(((9_0_3:0.00000127,(((9_0_8:0.00000006,9_0_1:0.00000004):0.00000054,9_0_12:0.00000154):0.00000003,9_0_9:0.00000069):0.00000031):0.00000028,9_0_15:0.00000170):0.00001057,(9_0_16:0.00000006,9_0_6:0.00000002):0.00000636):0.00000139):0.00000010):0.00005999,(((14_0_0:0.00000748,14_0_10:0.00000534):0.00006795,(((11_0_11:0.00000286,11_0_13:0.00000263):0.00004973,(((11_0_16:0.00000635,11_0_12:0.00000519):0.00000234,((11_0_15:0.00001059,(11_0_7:0.00000772,11_0_1:0.00000149):0.00000029):0.00000136,(11_0_0:0.00000036,11_0_10:0.00000041):0.00001003):0.00000285):0.00000057,(11_0_5:0.00000017,11_0_3:0.00000075):0.00002197):0.00000846):0.00000488,(((14_0_16:0.00000258,14_0_5:0.00000338):0.00000081,14_0_6:0.00000825):0.00001513,(((14_0_1:0.00000034,14_0_2:0.00000035):0.00000623,14_0_14:0.00002734):0.00000033,((14_0_11:0.00000551,14_0_9:0.00001155):0.00000745,(14_0_12:0.00000172,14_0_13:0.00000127):0.00000896):0.00000049):0.00001203):0.00001308):0.00001658):0.00002020,(((11_0_4:0.00000803,((11_0_8:0.00000123,11_0_2:0.00000209):0.00000543,11_0_6:0.00000691):0.00000547):0.00000804,(11_0_14:0.00000596,11_0_9:0.00000425):0.00000473):0.00001496,((14_0_8:0.00000038,14_0_3:0.00000089):0.00001724,((14_0_15:0.00000130,14_0_7:0.00000065):0.00000184,14_0_4:0.00000242):0.00001070):0.00000524):0.00003207):0.00003691):0.00001078):0.00000967,((((8_0_5:0.00000515,(8_0_15:0.00000016,8_0_2:0.00000020):0.00000340):0.00000145,(8_0_16:0.00000263,8_0_13:0.00000718):0.00000143):0.00000157,(8_0_14:0.00000033,8_0_3:0.00000008):0.00000743):0.00006811,(((((8_0_12:0.00000120,(8_0_7:0.00000113,8_0_11:0.00000080):0.00000048):0.00000439,(8_0_1:0.00000083,8_0_6:0.00000021):0.00000482):0.00000096,(8_0_8:0.00000513,(8_0_9:0.00000449,((8_0_0:0.00000016,8_0_10:0.00000011):0.00000048,8_0_4:0.00000106):0.00000304):0.00000214):0.00000021):0.00007991,((((((12_0_14:0.00000033,12_0_10:0.00000037):0.00000272,(12_0_8:0.00000288,((12_0_7:0.00000097,12_0_11:0.00000396):0.00000070,12_0_13:0.00000265):0.00000086):0.00000012):0.00000033,12_0_12:0.00000184):0.00000440,((12_0_3:0.00000002,12_0_2:0.00000002):0.00000587,(12_0_6:0.00000046,12_0_0:0.00000102):0.00000052):0.00000290):0.00000619,10_0_16:0.00000853):0.00000581,((10_0_11:0.00000075,10_0_8:0.00000045):0.00000353,10_0_12:0.00000239):0.00002303):0.00002207):0.00002786,((((((12_0_9:0.00000523,12_0_15:0.00000559):0.00000273,(12_0_5:0.00000209,12_0_4:0.00000209):0.00000122):0.00000099,12_0_1:0.00001541):0.00001573,(10_0_6:0.00000484,10_0_1:0.00000355):0.00001624):0.00000154,((10_0_2:0.00001246,(12_0_16:0.00000979,10_0_3:0.00000747):0.00000171):0.00001042,(10_0_9:0.00000187,(10_0_0:0.00000179,(10_0_13:0.00000119,10_0_14:0.00000106):0.00000160):0.00000218):0.00002033):0.00000740):0.00001265,(((10_0_7:0.00000093,10_0_5:0.00000189):0.00000061,10_0_15:0.00000234):0.00000490,(10_0_10:0.00000060,10_0_4:0.00000058):0.00000693):0.00002459):0.00003647):0.00001865):0.00001753):0.03900054,(((((7_0_0:0.00004981,(4_0_8:0.00000287,(4_0_5:0.00000232,(7_0_14:0.00000066,7_0_8:0.00000117):0.00000491):0.00000036):0.00001321):0.00000869,((((1_0_7:0.00000071,(1_0_4:0.00000013,1_0_0:0.00000025):0.00000196):0.00000637,(((1_0_1:0.00000312,(1_0_3:0.00000019,1_0_5:0.00000014):0.00000121):0.00000657,(7_0_16:0.00000380,(4_0_2:0.00000075,4_0_1:0.00000153):0.00000661):0.00000043):0.00000057,(((7_0_2:0.00000728,7_0_3:0.00000275):0.00000314,4_0_3:0.00000819):0.00000142,(1_0_11:0.00000070,((1_0_6:0.00000027,1_0_2:0.00000025):0.00000014,(1_0_8:0.00000043,1_0_9:0.00000052):0.00000039):0.00000081):0.00000429):0.00000040):0.00000276):0.00000879,(1_0_12:0.00000667,1_0_13:0.00000479):0.00000940):0.00000259,(((1_0_16:0.00000676,(4_0_13:0.00000324,4_0_4:0.00000297):0.00000503):0.00000603,(((7_0_15:0.00000100,7_0_11:0.00000369):0.00001052,7_0_13:0.00001550):0.00000056,((((4_0_6:0.00000345,7_0_12:0.00000153):0.00000223,7_0_7:0.00000686):0.00000008,((7_0_10:0.00000158,7_0_5:0.00000378):0.00000479,(4_0_7:0.00000128,(4_0_10:0.00000476,(4_0_11:0.00000001,4_0_14:0.00000014):0.00000533):0.00000084):0.00000164):0.00000645):0.00000022,((7_0_9:0.00000017,7_0_1:0.00000015):0.00000457,(7_0_4:0.00000280,(7_0_6:0.00000495,((4_0_0:0.00000184,4_0_16:0.00000149):0.00000010,4_0_9:0.00000645):0.00000011):0.00000021):0.00000166):0.00000247):0.00000018):0.00001693):0.00000127,((1_0_14:0.00000063,1_0_15:0.00000032):0.00001356,(1_0_10:0.00000587,(4_0_12:0.00000052,4_0_15:0.00000028):0.00000217):0.00000701):0.00001448):0.00000082):0.00003427):0.00003049,((((((2_0_10:0.00000085,(2_0_4:0.00000169,2_0_5:0.00000250):0.00000001):0.00000591,((2_0_8:0.00000067,(2_0_13:0.00000116,2_0_9:0.00000295):0.00000005):0.00001007,(2_0_12:0.00000615,2_0_14:0.00000624):0.00000115):0.00000506):0.00000252,(2_0_6:0.00000357,(2_0_3:0.00000090,2_0_15:0.00000172):0.00000376):0.00005703):0.00001163,((2_0_2:0.00000073,(2_0_16:0.00000008,2_0_7:0.00000027):0.00000251):0.00003011,(2_0_1:0.00000151,2_0_0:0.00000187):0.00000318):0.00001457):0.00000489,(((6_0_12:0.00000088,6_0_13:0.00000074):0.00000728,6_0_1:0.00000708):0.00000263,6_0_4:0.00001516):0.00004061):0.00000130,(((3_0_3:0.00003242,((3_0_2:0.00000785,(3_0_5:0.00000015,3_0_12:0.00000033):0.00000448):0.00000714,(3_0_6:0.00000379,(3_0_15:0.00000039,3_0_13:0.00000185):0.00000123):0.00000812):0.00000408):0.00000080,((3_0_1:0.00001119,(3_0_16:0.00000181,3_0_14:0.00000423):0.00000474):0.00000244,((3_0_0:0.00000204,((3_0_9:0.00000192,(3_0_8:0.00000043,3_0_10:0.00000104):0.00000038):0.00000319,3_0_7:0.00000783):0.00000070):0.00000395,(3_0_11:0.00000158,3_0_4:0.00000071):0.00000408):0.00000997):0.00000565):0.00001825,(((6_0_7:0.00000179,6_0_9:0.00000054):0.00000150,(6_0_5:0.00000125,6_0_8:0.00000091):0.00000050):0.00002065,((6_0_14:0.00000241,6_0_0:0.00000105):0.00001289,(6_0_3:0.00000304,((6_0_16:0.00000460,(6_0_2:0.00000208,6_0_6:0.00000099):0.00000194):0.00000435,((6_0_10:0.00000032,6_0_15:0.00000069):0.00000310,6_0_11:0.00001056):0.00000110):0.00000054):0.00000046):0.00000392):0.00003593):0.00002583):0.00001070):0.00006561,2_0_11:0.00017615):0.00000455,((5_0_2:0.00001031,(5_0_15:0.00000443,5_0_12:0.00000335):0.00004589):0.00008514,(((5_0_5:0.00000010,5_0_4:0.00000004):0.00001035,5_0_0:0.00000367):0.00005843,(((5_0_13:0.00000237,(5_0_10:0.00000333,(5_0_14:0.00000259,(5_0_3:0.00000003,5_0_11:0.00000005):0.00000201):0.00000203):0.00000569):0.00000139,(5_0_16:0.00000042,5_0_8:0.00000016):0.00001749):0.00000977,(5_0_9:0.00002005,((5_0_7:0.00000006,5_0_1:0.00000038):0.00001279,5_0_6:0.00000976):0.00000123):0.00000563):0.00002159):0.00004054):0.00003617):0.03201187):0.05430208);
[TREE] T06 (0_0_0:0.13965931,(((((((10_0_4:0.00000516,10_0_6:0.00001382):0.00000345,(((10_0_2:0.00000116,10_0_8:0.00000064):0.00000036,10_0_7:0.00000144):0.00000299,(10_0_5:0.00000146,(10_0_11:0.00000016,10_0_16:0.00000014):0.00000122):0.00000472):0.00000188):0.00000967,(((12_0_13:0.00000008,12_0_15:0.00000007):0.00001361,(10_0_0:0.00000724,12_0_3:0.00001717):0.00000064):0.00000216,(10_0_3:0.00000481,((10_0_15:0.00000238,10_0_12:0.00000216):0.00000161,10_0_1:0.00000602):0.00000105):0.00000633):0.00001775):0.00004510,12_0_16:0.00004109):0.00000795,((10_0_13:0.00000610,(((((12_0_6:0.00000247,(12_0_10:0.00000490,(((12_0_4:0.00000029,12_0_14:0.00000060):0.00000273,(12_0_9:0.00000080,12_0_0:0.00000148):0.00000184):0.00000144,(12_0_11:0.00000242,(12_0_5:0.00000028,12_0_12:0.00000016):0.00000047):0.00000192):0.00000160):0.00000109):0.00000184,(10_0_14:0.00000052,10_0_9:0.00000061):0.00000249):0.00000321,((12_0_1:0.00000653,12_0_8:0.00000201):0.00000305,12_0_7:0.00002118):0.00000173):0.00000144,10_0_10:0.00001144):0.00000098,12_0_2:0.00001201):0.00003008):0.00000961,((((8_0_16:0.00000068,8_0_2:0.00000224):0.00000022,8_0_0:0.00000453):0.00000589,8_0_15:0.00000319):0.00000700,(((8_0_8:0.00000049,(8_0_1:0.00000024,8_0_3:0.00000013):0.00000113):0.00000295,(8_0_14:0.00000080,(8_0_7:0.00000023,8_0_11:0.00000056):0.00000005):0.00000352):0.00000834,((8_0_4:0.00000733,8_0_12:0.00000805):0.00000008,(((8_0_10:0.00000058,8_0_6:0.00000044):0.00000021,8_0_9:0.00000076):0.00000048,(8_0_5:0.00000102,8_0_13:0.00000128):0.00000006):0.00000262):0.00002189):0.00000061):0.00004342):0.00000806):0.00005003,(((((13_0_5:0.00002684,((9_0_2:0.00000154,(9_0_11:0.00000292,9_0_1:0.00000123):0.00000052):0.00000315,(9_0_9:0.00000042,9_0_5:0.00000057):0.00000615):0.00002511):0.00000843,((13_0_12:0.00001825,(13_0_15:0.00000432,13_0_8:0.00000126):0.00000681):0.00000257,(13_0_16:0.00000076,(13_0_3:0.00000114,13_0_10:0.00000097):0.00000035):0.00002376):0.00002696):0.00000194,((((9_0_15:0.00000021,9_0_7:0.00000007):0.00000243,(9_0_12:0.00000138,9_0_8:0.00000103):0.00000162):0.00000514,((9_0_13:0.00000458,9_0_3:0.00000411):0.00000190,9_0_10:0.00001261):0.00000338):0.00001052,(((13_0_0:0.00000496,(13_0_7:0.00000059,13_0_4:0.00000026):0.00000116):0.00000630,(13_0_11:0.00000205,13_0_6:0.00000282):0.00001910):0.00000232,((13_0_1:0.00000063,13_0_13:0.00000082):0.00000052,(13_0_14:0.00000210,(13_0_2:0.00000112,13_0_9:0.00000147):0.00000079):0.00000005):0.00001225):0.00001351):0.00000774):0.00005117,((((((11_0_13:0.00000375,((11_0_11:0.00000053,11_0_9:0.00000205):0.00000175,11_0_12:0.00000053):0.00000183):0.00000390,(11_0_10:0.00000375,(((11_0_14:0.00000004,11_0_5:0.00000001):0.00000087,11_0_3:0.00000085):0.00000010,11_0_6:0.00000106):0.00000208):0.00001183):0.00001416,11_0_16:0.00000421):0.00000083,(14_0_2:0.00000580,(14_0_16:0.00000070,(14_0_5:0.00000012,14_0_11:0.00000017):0.00000196):0.00000374):0.00001779):0.00000165,14_0_10:0.00002550):0.00000108,11_0_1:0.00002324):0.00006951):0.00003006,(14_0_14:0.00012734,(((9_0_6:0.00000119,9_0_16:0.00000148):0.00000735,(9_0_4:0.00000030,(9_0_14:0.00000018,9_0_0:0.00000012):0.00000037):0.00001263):0.00005385,(((((14_0_0:0.00000124,14_0_3:0.00000037):0.00000221,14_0_15:0.00000157):0.00001198,14_0_13:0.00001745):0.00000280,(((14_0_7:0.00000038,14_0_1:0.00000014):0.00001284,(14_0_12:0.00000342,14_0_4:0.00000498):0.00000602):0.00000146,((14_0_6:0.00000088,14_0_9:0.00000223):0.00000301,14_0_8:0.00000485):0.00000742):0.00000388):0.00001258,((11_0_7:0.00000387,11_0_15:0.00000231):0.00001094,(11_0_4:0.00001361,(11_0_8:0.00000253,(11_0_0:0.00000287,11_0_2:0.00000194):0.00000122):0.00000203):0.00000055):0.00002571):0.00002039):0.00001427):0.00000864):0.00003745):0.06055691,((((((6_0_2:0.00000267,(6_0_9:0.00000038,6_0_11:0.00000037):0.00000084):0.00000038,6_0_1:0.00000393):0.00002251,(((1_0_5:0.00000586,(((1_0_13:0.00000028,1_0_10:0.00000029):0.00000474,7_0_0:0.00000324):0.00000024,(4_0_9:0.00000277,(7_0_11:0.00000013,7_0_15:0.00000013):0.00000305):0.00000358):0.00000124):0.00000727,(((4_0_5:0.00000094,4_0_1:0.00000172):0.00000109,(1_0_8:0.00000672,((((4_0_16:0.00000007,4_0_14:0.00000013):0.00000121,4_0_13:0.00000177):0.00000012,(4_0_15:0.00000142,4_0_3:0.00000086):0.00000139):0.00000500,7_0_4:0.00000351):0.00000082):0.00000207):0.00000077,(7_0_8:0.00000147,7_0_1:0.00000735):0.00000593):0.00000176):0.00000340,((1_0_7:0.00000061,1_0_4:0.00000404):0.00000521,(1_0_6:0.00000058,1_0_1:0.00000136):0.00001152):0.00000092):0.00004400):0.00000658,((((6_0_8:0.00000510,(6_0_7:0.00000228,((6_0_3:0.00000165,6_0_10:0.00000265):0.00000044,(6_0_15:0.00000181,(6_0_12:0.00000246,6_0_13:0.00000041):0.00000101):0.00000141):0.00000014):0.00000144):0.00000247,6_0_5:0.00000719):0.00006070,((((3_0_3:0.00000165,3_0_8:0.00000042):0.00000428,3_0_2:0.00000233):0.00000007,(3_0_1:0.00000172,3_0_13:0.00000272):0.00000338):0.00008272,(3_0_4:0.00003024,((3_0_14:0.00000170,(3_0_11:0.00000040,(3_0_12:0.00000021,3_0_5:0.00000014):0.00000072):0.00000112):0.00000192,3_0_0:0.00000804):0.00002953):0.00000059):0.00000181):0.00002045,((((2_0_6:0.00000031,2_0_1:0.00000131):0.00000202,2_0_9:0.00000569):0.00000952,(2_0_13:0.00000428,(2_0_8:0.00001086,(((2_0_10:0.00000182,2_0_0:0.00000155):0.00000279,(2_0_3:0.00000014,2_0_12:0.00000010):0.00000584):0.00000177,2_0_14:0.00000432):0.00000013):0.00000102):0.00000494):0.00001969,((2_0_4:0.00000837,(2_0_5:0.00000035,2_0_7:0.00000388):0.00000084):0.00002106,(((2_0_16:0.00000008,2_0_15:0.00000017):0.00000506,2_0_11:0.00001014):0.00000153,2_0_2:0.00001227):0.00001117):0.00001484):0.00002653):0.00000011):0.00000101,(((((3_0_9:0.00000217,3_0_16:0.00000176):0.00000854,(((3_0_7:0.00000092,3_0_6:0.00000046):0.00000232,3_0_10:0.00000223):0.00000388,3_0_15:0.00001687):0.00000544):0.00006681,(6_0_14:0.00000439,(6_0_16:0.00000029,(6_0_6:0.00000011,6_0_4:0.00000030):0.00000043):0.00000246):0.00004127):0.00000713,((((7_0_3:0.00000066,7_0_16:0.00000089):0.00000028,(7_0_13:0.00000094,7_0_2:0.00000045):0.00000036):0.00000703,((1_0_2:0.00000454,1_0_0:0.00000278):0.00000156,1_0_12:0.00000667):0.00000307):0.00000387,((4_0_8:0.00000293,7_0_9:0.00000480):0.00000539,((4_0_12:0.00000442,4_0_2:0.00000285):0.00000364,(7_0_7:0.00000005,7_0_12:0.00000018):0.00000948):0.00000358):0.00000215):0.00001785):0.00000386,(((1_0_15:0.00003041,((1_0_9:0.00001137,(((7_0_14:0.00000083,(7_0_6:0.00000026,7_0_5:0.00000074):0.00000158):0.00000060,4_0_6:0.00000327):0.00000060,((4_0_4:0.00000245,7_0_10:0.00000195):0.00000047,4_0_0:0.00000218):0.00000082):0.00000018):0.00000653,(((4_0_10:0.00000012,(4_0_11:0.00000023,4_0_7:0.00000023):0.00000011):0.00000574,1_0_11:0.00000494):0.00000169,1_0_14:0.00000683):0.00000419):0.00000709):0.00000527,(1_0_16:0.00000050,1_0_3:0.00000171):0.00000912):0.00003906,6_0_0:0.00004446):0.00000362):0.00001215):0.00007103,(((5_0_0:0.00000059,5_0_13:0.00000083):0.00001212,((5_0_16:0.00000424,(5_0_12:0.00000417,(5_0_15:0.00000167,5_0_5:0.00000345):0.00000543):0.00000051):0.00000255,((5_0_4:0.00000034,5_0_11:0.00000033):0.00000235,(5_0_1:0.00000004,5_0_10:0.00000016):0.00000276):0.00001049):0.00000987):0.00005603,((5_0_7:0.00002035,(5_0_2:0.00001306,5_0_14:0.00000654):0.00000360):0.00005699,(5_0_3:0.00000262,((5_0_9:0.00000027,5_0_8:0.00000025):0.00000231,5_0_6:0.00000214):0.00000350):0.00003606):0.00002402):0.00007332):0.13370036):0.09520912);
[TREE] T07 (0_0_0:0.10724181,((((((((9_0_13:0.00000755,9_0_11:0.00000263):0.00000031,(9_0_12:0.00000051,9_0_5:0.00000032):0.00000404):0.00000066,(9_0_14:0.00000133,9_0_0:0.00000178):0.00000444):0.00000229,(9_0_6:0.00000154,(9_0_16:0.00000102,9_0_15:0.00000053):0.00000044):0.00000851):0.00003014,(9_0_4:0.00000612,9_0_3:0.00000423):0.00005221):0.00005476,(((((9_0_9:0.00000413,(9_0_8:0.00000018,9_0_1:0.00000025):0.00000440):0.00000788,(9_0_10:0.00000332,(9_0_7:0.00000276,9_0_2:0.00000386):0.00000797):0.00000554):0.00002051,((((13_0_10:0.00000005,13_0_3:0.00000008):0.00000480,13_0_8:0.00000439):0.00000708,(13_0_1:0.00000578,((13_0_11:0.00000031,13_0_13:0.00000029):0.00000007,13_0_16:0.00000052):0.00000206):0.00000372):0.00001936,13_0_15:0.00003605):0.00001598):0.00003073,((13_0_7:0.00000220,13_0_9:0.00000113):0.00001225,(13_0_14:0.00001158,((13_0_12:0.00000107,13_0_5:0.00000123):0.00000743,((13_0_4:0.00000168,13_0_0:0.00000372):0.00000067,(13_0_6:0.00000913,13_0_2:0.00000461):0.00000008):0.00000040):0.00000503):0.00000613):0.00003939):0.00002630,((((14_0_1:0.00000439,14_0_9:0.00000066):0.00000291,14_0_8:0.00000703):0.00001131,(11_0_3:0.00000693,(((11_0_2:0.00000223,((11_0_10:0.00000013,11_0_11:0.00000021):0.00000095,11_0_15:0.00000087):0.00000013):0.00000129,(11_0_4:0.00000085,11_0_0:0.00000045):0.00000887):0.00000143,(11_0_1:0.00000028,(11_0_16:0.00000027,11_0_6:0.00000013):0.00000035):0.00000380):0.00000377):0.00003659):0.00004746,((((14_0_12:0.00001180,(((14_0_15:0.00000295,14_0_13:0.00000345):0.00000259,14_0_10:0.00000057):0.00000076,((14_0_5:0.00000034,14_0_6:0.00000024):0.00000159,14_0_3:0.00000307):0.00000140):0.00000672):0.00002259,(14_0_4:0.00001143,(((14_0_0:0.00000139,(14_0_16:0.00000052,14_0_2:0.00000054):0.00000040):0.00000185,14_0_11:0.00000140):0.00000032,14_0_7:0.00000129):0.00000601):0.00000725):0.00000570,14_0_14:0.00006234):0.00002916,(((11_0_5:0.00000136,(11_0_14:0.00000061,11_0_12:0.00000032):0.00000141):0.00000345,(11_0_13:0.00000331,(11_0_8:0.00000012,11_0_7:0.00000012):0.00000245):0.00000981):0.00000345,11_0_9:0.00001008):0.00004180):0.00001882):0.00001246):0.00002274):0.00002781,(((8_0_1:0.00000428,8_0_7:0.00000210):0.00000792,(((8_0_3:0.00000110,8_0_13:0.00000099):0.00000005,(8_0_11:0.00000066,(8_0_10:0.00000085,8_0_0:0.00000047):0.00000064):0.00000052):0.00000652,(8_0_4:0.00000062,8_0_5:0.00000036):0.00000703):0.00000397):0.00020060,((((10_0_2:0.00000180,(10_0_3:0.00000199,(10_0_13:0.00000065,10_0_14:0.00000065):0.00000194):0.00000242):0.00001868,(((10_0_11:0.00000255,(10_0_5:0.00000199,(10_0_6:0.00000105,(((10_0_1:0.00000001,10_0_12:0.00000001):0.00000073,10_0_15:0.00000013):0.00000081,10_0_7:0.00000254):0.00000001):0.00000105):0.00000072):0.00000595,12_0_3:0.00002704):0.00000325,(((10_0_0:0.00001381,((10_0_9:0.00000257,10_0_4:0.00000661):0.00001118,(10_0_8:0.00000246,(10_0_10:0.00000337,10_0_16:0.00000206):0.00000085):0.00000365):0.00000120):0.00000019,(((12_0_14:0.00000287,12_0_12:0.00000178):0.00000411,(((12_0_10:0.00000112,12_0_6:0.00000124):0.00000030,12_0_15:0.00000103):0.00000040,12_0_4:0.00000325):0.00000169):0.00000390,12_0_13:0.00000251):0.00000336):0.00000356,((12_0_9:0.00000379,(12_0_0:0.00000106,12_0_11:0.00000124):0.00000063):0.00000193,((12_0_5:0.00000036,12_0_7:0.00000049):0.00000409,12_0_1:0.00001000):0.00000493):0.00000750):0.00000217):0.00001996):0.00000611,(12_0_2:0.00000740,(12_0_8:0.00000022,12_0_16:0.00000086):0.00000818):0.00002457):0.00000251,((8_0_9:0.00000415,((8_0_16:0.00000068,8_0_15:0.00000283):0.00000174,(((8_0_8:0.00000002,8_0_14:0.00000003):0.00000030,8_0_2:0.00000028):0.00000298,8_0_6:0.00000132):0.00000137):0.00001228):0.00002840,8_0_12:0.00003455):0.00000181):0.00008936):0.00008338):0.04376158,(((((((((1_0_6:0.00000213,((1_0_10:0.00000015,1_0_2:0.00000007):0.00000231,1_0_7:0.00000141):0.00000177):0.00000161,1_0_0:0.00000443):0.00000218,7_0_15:0.00000742):0.00001366,(((7_0_13:0.00000168,7_0_7:0.00000512):0.00000373,(((4_0_1:0.00000279,(4_0_12:0.00000336,(4_0_15:0.00000077,4_0_2:0.00000113):0.00000361):0.00000011):0.00000001,(4_0_6:0.00000106,(4_0_13:0.00000019,4_0_8:0.00000016):0.00000030):0.00000340):0.00000090,7_0_11:0.00000628):0.00000040):0.00000047,(((7_0_16:0.00000047,(7_0_8:0.00000063,7_0_0:0.00000030):0.00000015):0.00000126,7_0_2:0.00000277):0.00000472,1_0_14:0.00000652):0.00000075):0.00000553):0.00003599,(7_0_6:0.00002893,(((4_0_14:0.00000445,(4_0_7:0.00000025,4_0_10:0.00000018):0.00000155):0.00000229,4_0_11:0.00000319):0.00000495,7_0_3:0.00001867):0.00001355):0.00001305):0.00000633,(((3_0_11:0.00000975,3_0_13:0.00000116):0.00000560,(3_0_9:0.00001142,(3_0_3:0.00000154,3_0_4:0.00000162):0.00001620):0.00000170):0.00001811,((((6_0_3:0.00000160,6_0_13:0.00000108):0.00000031,6_0_9:0.00000211):0.00000160,6_0_5:0.00000436):0.00006700,((((3_0_2:0.00000122,3_0_7:0.00000171):0.00000491,(3_0_1:0.00000134,3_0_15:0.00000269):0.00000232):0.00000955,((((((3_0_12:0.00000061,3_0_16:0.00000185):0.00000005,3_0_14:0.00000067):0.00000073,3_0_10:0.00000197):0.00000080,3_0_5:0.00000530):0.00000102,3_0_8:0.00000691):0.00000448,(3_0_0:0.00000171,3_0_6:0.00000267):0.00000461):0.00002189):0.00002138,(((6_0_6:0.00000043,6_0_12:0.00000022):0.00000430,6_0_10:0.00000368):0.00002162,((6_0_14:0.00000402,6_0_1:0.00000500):0.00000007,6_0_2:0.00000263):0.00000770):0.00001495):0.00000223):0.00000023):0.00002514):0.00000769,(((((2_0_13:0.00000013,2_0_10:0.00000015):0.00000065,2_0_11:0.00000051):0.00000155,2_0_2:0.00000351):0.00007211,(((2_0_12:0.00000214,2_0_6:0.00000470):0.00000040,2_0_5:0.00000150):0.00000221,2_0_7:0.00000675):0.00001859):0.00001118,(2_0_14:0.00000801,((((2_0_16:0.00000087,2_0_1:0.00000127):0.00000008,2_0_3:0.00000063):0.00000234,(((2_0_4:0.00000132,2_0_8:0.00000052):0.00000009,2_0_9:0.00000061):0.00000232,2_0_0:0.00001416):0.00000118):0.00000375,2_0_15:0.00000067):0.00000157):0.00003109):0.00003337):0.00004412,(((5_0_0:0.00000004,5_0_7:0.00000014):0.00001992,5_0_10:0.00001721):0.00020753,(((5_0_8:0.00003805,(((5_0_13:0.00000493,((((5_0_4:0.00000236,5_0_16:0.00000128):0.00000029,5_0_14:0.00000153):0.00000019,5_0_6:0.00000233):0.00000014,(5_0_1:0.00000036,5_0_2:0.00000053):0.00000160):0.00000126):0.00000591,(5_0_15:0.00000302,5_0_12:0.00000348):0.00001129):0.00000273,(5_0_11:0.00000301,5_0_5:0.00000222):0.00001440):0.00001165):0.00000904,5_0_9:0.00000803):0.00006627,5_0_3:0.00008595):0.00003567):0.00002428):0.00001237,(((6_0_4:0.00000257,6_0_0:0.00000257):0.00001208,((6_0_11:0.00000321,(6_0_8:0.00000171,(6_0_15:0.00000158,6_0_16:0.00000116):0.00000059):0.00000061):0.00000909,6_0_7:0.00001929):0.00001588):0.00004338,(4_0_9:0.00000969,(((((1_0_8:0.00000093,1_0_1:0.00000072):0.00000379,(4_0_4:0.00000066,7_0_10:0.00000286):0.00000231):0.00000169,((1_0_4:0.00000335,1_0_9:0.00000585):0.00000043,(((1_0_11:0.00000150,1_0_13:0.00000537):0.00000010,1_0_12:0.00000165):0.00000108,1_0_3:0.00000259):0.00000360):0.00000087):0.00000002,((7_0_5:0.00000227,(4_0_5:0.00000228,4_0_16:0.00000183):0.00000257):0.00000548,(1_0_16:0.00000447,1_0_15:0.00000884):0.00000437):0.00000061):0.00000254,((7_0_14:0.00000290,1_0_5:0.00000614):0.00000795,(4_0_0:0.00001021,((7_0_4:0.00000259,((7_0_9:0.00000007,7_0_12:0.00000006):0.00000024,7_0_1:0.00000291):0.00000053):0.00000058,4_0_3:0.00000349):0.00000317):0.00000230):0.00000042):0.00000726):0.00001972):0.00008213):0.04146231):0.06159025);
[TREE] T08 (((((((((6_0_8:0.00001261,((6_0_13:0.00000098,6_0_16:0.00000078):0.00000367,6_0_0:0.00000381):0.00000585):0.00000904,(((6_0_7:0.00000728,(((6_0_4:0.00000090,6_0_5:0.00000114):0.00000017,6_0_9:0.00000088):0.00000126,(6_0_1:0.00000056,6_0_6:0.00000017):0.00000559):0.00000429):0.00000920,((6_0_3:0.00000061,6_0_14:0.00000023):0.00001516,6_0_10:0.00002166):0.00000197):0.00000033,(6_0_2:0.00000227,((6_0_11:0.00000038,6_0_12:0.00000042):0.00000265,6_0_15:0.00000476):0.00000070):0.00000610):0.00000252):0.00002422,((3_0_2:0.00000685,3_0_12:0.00000436):0.00000078,3_0_11:0.00000838):0.00002345):0.00000753,(((((3_0_6:0.00000057,3_0_9:0.00000065):0.00000140,3_0_16:0.00000058):0.00000324,3_0_13:0.00000633):0.00001711,(3_0_8:0.00000248,(3_0_7:0.00000186,3_0_0:0.00000493):0.00000037):0.00002540):0.00001308,(((2_0_7:0.00000031,2_0_1:0.00000023):0.00000846,2_0_14:0.00000455):0.00000911,2_0_15:0.00003208):0.00001090):0.00000404):0.00003973,(((2_0_13:0.00001273,2_0_0:0.00001165):0.00001670,(((((((4_0_6:0.00000019,4_0_13:0.00000010):0.00000117,4_0_1:0.00000314):0.00000079,4_0_14:0.00000055):0.00000275,1_0_4:0.00000605):0.00000155,((7_0_15:0.00000056,7_0_5:0.00000018):0.00000179,(7_0_13:0.00000008,7_0_4:0.00000016):0.00000115):0.00000314):0.00000330,(7_0_11:0.00000424,1_0_5:0.00000937):0.00000731):0.00004350,((4_0_2:0.00000995,(4_0_9:0.00000221,7_0_8:0.00000297):0.00000902):0.00005369,((((((4_0_15:0.00000013,4_0_7:0.00000026):0.00000209,((4_0_5:0.00000046,4_0_12:0.00000053):0.00000002,4_0_0:0.00000036):0.00000239):0.00000032,(7_0_14:0.00000157,7_0_3:0.00000068):0.00000056):0.00000077,(4_0_3:0.00000628,(4_0_4:0.00000250,4_0_11:0.00000177):0.00000259):0.00000035):0.00000179,7_0_7:0.00000398):0.00000615,(((1_0_12:0.00000171,1_0_0:0.00000152):0.00000273,7_0_9:0.00000698):0.00000411,((((4_0_8:0.00000368,1_0_16:0.00000298):0.00000984,(1_0_15:0.00000305,(1_0_3:0.00000177,1_0_6:0.00000402):0.00000080):0.00000798):0.00000020,(((((1_0_11:0.00000048,(1_0_10:0.00000066,1_0_9:0.00000055):0.00000007):0.00000202,1_0_14:0.00000275):0.00000095,1_0_2:0.00000875):0.00000285,((4_0_10:0.00000324,4_0_16:0.00000126):0.00000205,((1_0_7:0.00000169,(1_0_8:0.00000019,1_0_13:0.00000008):0.00000112):0.00000030,1_0_1:0.00000191):0.00000469):0.00000031):0.00000126,((7_0_0:0.00000161,7_0_10:0.00000111):0.00000096,(7_0_6:0.00000010,7_0_16:0.00000065):0.00000094):0.00000796):0.00000340):0.00000047,((7_0_2:0.00000103,7_0_12:0.00000131):0.00000396,7_0_1:0.00000213):0.00000587):0.00000057):0.00000687):0.00003446):0.00000506):0.00000996):0.00007426,((2_0_8:0.00008304,(((2_0_12:0.00000340,2_0_5:0.00000277):0.00000368,((2_0_11:0.00000181,2_0_6:0.00000163):0.00000189,(2_0_4:0.00000251,2_0_2:0.00000233):0.00000672):0.00000139):0.00001565,(((2_0_16:0.00000004,2_0_10:0.00000008):0.00000038,2_0_3:0.00000030):0.00000309,2_0_9:0.00000368):0.00001384):0.00000957):0.00000371,((3_0_3:0.00000262,(3_0_10:0.00000246,(3_0_1:0.00000035,3_0_4:0.00000019):0.00000260):0.00000027):0.00001004,((3_0_14:0.00000139,3_0_5:0.00000115):0.00000949,3_0_15:0.00000309):0.00000645):0.00004715):0.00005564):0.00004140):0.00000397,((5_0_3:0.00002003,5_0_2:0.00000575):0.00004995,(5_0_5:0.00000270,(5_0_1:0.00000427,(5_0_6:0.00000023,5_0_7:0.00000023):0.00000261):0.00001239):0.00005724):0.00006411):0.00004505,((5_0_0:0.00000142,(5_0_8:0.00000037,5_0_11:0.00000084):0.00000043):0.00000702,(5_0_14:0.00000207,(((5_0_16:0.00000049,5_0_15:0.00000102):0.00000381,((5_0_10:0.00000053,5_0_9:0.00000013):0.00000097,5_0_13:0.00000239):0.00000157):0.00000019,(5_0_12:0.00000091,5_0_4:0.00000290):0.00000017):0.00000005):0.00000202):0.00038442):0.06704198,((((((((14_0_6:0.00000133,(14_0_4:0.00000016,14_0_16:0.00000009):0.00000373):0.00000667,14_0_2:0.00000992):0.00000633,(14_0_9:0.00001675,(14_0_7:0.00000576,(14_0_5:0.00000237,14_0_10:0.00000446):0.00000136):0.00000457):0.00000391):0.00005203,(((((11_0_1:0.00000081,(11_0_7:0.00000004,(11_0_3:0.00000007,11_0_5:0.00000009):0.00000012):0.00000084):0.00000368,(11_0_13:0.00000846,(11_0_15:0.00000082,11_0_0:0.00000039):0.00000572):0.00000407):0.00000306,11_0_2:0.00000430):0.00000192,(11_0_11:0.00000166,11_0_12:0.00000146):0.00000308):0.00002976,((14_0_8:0.00001307,((14_0_11:0.00000134,(14_0_3:0.00000336,(((14_0_0:0.00000003,14_0_12:0.00000002):0.00000030,14_0_1:0.00000012):0.00000160,14_0_14:0.00000185):0.00000474):0.00000012):0.00000201,(14_0_15:0.00000462,14_0_13:0.00000574):0.00000185):0.00000477):0.00000129,(11_0_4:0.00000280,11_0_9:0.00000416):0.00000866):0.00001982):0.00002302):0.00001269,(11_0_6:0.00000572,(11_0_10:0.00000840,((11_0_8:0.00000037,11_0_16:0.00000157):0.00000102,11_0_14:0.00000302):0.00000398):0.00000540):0.00006488):0.00004157,((((13_0_8:0.00000864,13_0_16:0.00000972):0.00003896,((13_0_9:0.00000047,(13_0_3:0.00000014,13_0_2:0.00000002):0.00000009):0.00000240,13_0_6:0.00000571):0.00000754):0.00000840,(((13_0_10:0.00001145,13_0_1:0.00000750):0.00000988,(13_0_7:0.00000563,13_0_15:0.00000361):0.00000426):0.00001025,9_0_7:0.00001474):0.00000101):0.00000479,((((9_0_16:0.00000281,9_0_12:0.00000225):0.00000172,(9_0_11:0.00000717,9_0_0:0.00000193):0.00000027):0.00000803,9_0_10:0.00000972):0.00000625,(9_0_1:0.00000877,9_0_5:0.00000655):0.00001083):0.00000561):0.00007564):0.00000995,(((9_0_2:0.00000520,(9_0_14:0.00000066,9_0_6:0.00000149):0.00000237):0.00001650,(9_0_8:0.00000721,(((9_0_13:0.00000016,9_0_4:0.00000043):0.00000500,9_0_3:0.00000375):0.00000241,(9_0_9:0.00000037,9_0_15:0.00000040):0.00000967):0.00000397):0.00000616):0.00000717,((13_0_12:0.00000225,13_0_11:0.00000358):0.00000501,((13_0_4:0.00000052,13_0_13:0.00000041):0.00000055,((13_0_14:0.00000002,13_0_5:0.00000003):0.00000072,13_0_0:0.00000103):0.00000261):0.00000292):0.00001176):0.00007841):0.00009531,((((((10_0_7:0.00000032,10_0_6:0.00000027):0.00000137,10_0_9:0.00000609):0.00000233,(((10_0_16:0.00000086,(10_0_1:0.00000690,10_0_8:0.00000774):0.00000080):0.00000039,(10_0_5:0.00000632,10_0_14:0.00000491):0.00000053):0.00000073,10_0_11:0.00001176):0.00000112):0.00003190,((12_0_6:0.00000480,((12_0_8:0.00000273,(12_0_14:0.00000120,(12_0_5:0.00000039,12_0_9:0.00000050):0.00000040):0.00000074):0.00000058,12_0_12:0.00000570):0.00000150):0.00000618,(((((10_0_10:0.00000043,10_0_0:0.00000053):0.00000345,(10_0_13:0.00000424,(10_0_15:0.00000014,10_0_4:0.00000012):0.00000692):0.00000011):0.00000143,(12_0_0:0.00000919,(12_0_13:0.00000051,12_0_1:0.00000045):0.00000358):0.00000271):0.00000224,((12_0_15:0.00000978,(12_0_11:0.00000038,12_0_4:0.00000050):0.00000598):0.00000092,12_0_3:0.00000867):0.00000509):0.00000028,((10_0_3:0.00000206,10_0_12:0.00000128):0.00000465,(12_0_2:0.00000295,12_0_16:0.00000085):0.00001007):0.00000017):0.00000533):0.00000770):0.00001202,(((((8_0_12:0.00000115,(8_0_2:0.00000127,8_0_0:0.00000125):0.00000382):0.00001451,8_0_5:0.00002290):0.00000770,(8_0_16:0.00000073,8_0_4:0.00000093):0.00001144):0.00000102,(8_0_3:0.00000842,(8_0_1:0.00000090,(8_0_11:0.00000168,(8_0_9:0.00000105,8_0_15:0.00000194):0.00000002):0.00000080):0.00000090):0.00001595):0.00001572,((8_0_13:0.00000190,8_0_7:0.00000865):0.00002985,(12_0_10:0.00000122,12_0_7:0.00000046):0.00007394):0.00000144):0.00000083):0.00006391,(((8_0_6:0.00000281,8_0_8:0.00000296):0.00000143,(8_0_10:0.00000177,8_0_14:0.00000215):0.00000710):0.00005502,10_0_2:0.00000735):0.00005569):0.00012660):0.05445647):0.01820629,0_0_0:0.05817336);
[TREE] T09 (0_0_0:0.11218277,((((((((13_0_4:0.00000451,13_0_2:0.00000445):0.00000260,(13_0_0:0.00000391,13_0_5:0.00000364):0.00000567):0.00000065,(13_0_8:0.00000215,13_0_1:0.00000334):0.00001215):0.00001092,13_0_9:0.00000483):0.00010405,(((((14_0_4:0.00000653,(14_0_1:0.00000058,(14_0_3:0.00000097,14_0_7:0.00000024):0.00000140):0.00000164):0.00000123,(14_0_10:0.00000098,14_0_12:0.00000320):0.00000573):0.00000349,((14_0_0:0.00000095,14_0_14:0.00000216):0.00001562,(((14_0_2:0.00000034,14_0_6:0.00000026):0.00000244,((14_0_11:0.00000239,(14_0_16:0.00000002,14_0_15:0.00000001):0.00000543):0.00000040,(14_0_13:0.00000425,(14_0_5:0.00000031,14_0_9:0.00000070):0.00000180):0.00000030):0.00000102):0.00000114,14_0_8:0.00000257):0.00000773):0.00000120):0.00001119,11_0_11:0.00003023):0.00000140,(11_0_6:0.00002966,((((11_0_4:0.00001092,11_0_8:0.00000408):0.00000188,((11_0_2:0.00000208,11_0_13:0.00000140):0.00000142,(11_0_5:0.00000058,11_0_0:0.00000034):0.00000171):0.00000359):0.00000322,(11_0_10:0.00000700,((11_0_12:0.00000247,(11_0_16:0.00000000,11_0_14:0.00000001):0.00000072):0.00000021,11_0_9:0.00000413):0.00000492):0.00001127):0.00002269,(11_0_1:0.00001129,(11_0_3:0.00000135,(11_0_15:0.00000070,11_0_7:0.00000061):0.00000517):0.00000671):0.00001105):0.00000912):0.00000500):0.00011489):0.00006744,((13_0_14:0.00002450,(9_0_8:0.00005685,(((((9_0_1:0.00000513,9_0_11:0.00000731):0.00000451,(((9_0_13:0.00000083,9_0_9:0.00000140):0.00000632,9_0_5:0.00001750):0.00000442,(9_0_2:0.00000250,9_0_7:0.00000998):0.00000758):0.00000673):0.00000042,9_0_10:0.00002517):0.00001328,(9_0_0:0.00001382,((((9_0_15:0.00000071,9_0_4:0.00000069):0.00000056,9_0_14:0.00000351):0.00000283,9_0_3:0.00000146):0.00000094,((9_0_12:0.00000008,9_0_16:0.00000004):0.00000096,9_0_6:0.00000535):0.00000006):0.00000256):0.00001374):0.00000209,(((13_0_6:0.00000110,13_0_16:0.00000399):0.00000154,(13_0_10:0.00000060,(13_0_11:0.00000085,13_0_15:0.00000145):0.00000104):0.00000323):0.00001648,((13_0_12:0.00000402,(13_0_7:0.00000538,13_0_3:0.00000719):0.00000151):0.00000111,13_0_13:0.00001220):0.00000440):0.00002331):0.00000752):0.00000085):0.00007718,(((12_0_15:0.00000051,12_0_10:0.00000056):0.00001659,(((12_0_5:0.00000092,12_0_0:0.00000239):0.00000823,(12_0_4:0.00000149,(12_0_12:0.00000007,12_0_9:0.00000010):0.00000088):0.00000952):0.00000179,12_0_13:0.00001455):0.00000283):0.00002404,((10_0_12:0.00000168,10_0_6:0.00000095):0.00000013,(10_0_2:0.00000033,10_0_11:0.00000115):0.00000089):0.00001849):0.00011675):0.00000501):0.00000609,(((((((10_0_9:0.00000057,((10_0_4:0.00000025,10_0_16:0.00000031):0.00000017,10_0_3:0.00000121):0.00000041):0.00000168,(10_0_5:0.00000763,10_0_15:0.00000607):0.00000095):0.00000211,(10_0_10:0.00000155,10_0_13:0.00000197):0.00001278):0.00001611,12_0_11:0.00001650):0.00001300,((((8_0_15:0.00000110,8_0_14:0.00000050):0.00000227,8_0_1:0.00000488):0.00001467,8_0_8:0.00006637):0.00001397,(((8_0_4:0.00000198,8_0_3:0.00000079):0.00000107,8_0_7:0.00000261):0.00000396,8_0_10:0.00002176):0.00002193):0.00000267):0.00001914,(((8_0_11:0.00000623,(((8_0_2:0.00000131,8_0_6:0.00000094):0.00000030,(8_0_16:0.00000102,8_0_5:0.00000075):0.00000105):0.00000259,8_0_9:0.00000464):0.00000066):0.00000003,(8_0_12:0.00000046,8_0_13:0.00000222):0.00000235):0.00001335,8_0_0:0.00001324):0.00001259):0.00001374,(((12_0_16:0.00000812,((12_0_1:0.00000394,((12_0_7:0.00000153,12_0_3:0.00000136):0.00000178,12_0_14:0.00000535):0.00000300):0.00000091,(12_0_8:0.00000045,12_0_2:0.00000046):0.00001413):0.00000128):0.00000018,12_0_6:0.00000789):0.00000333,(((10_0_14:0.00000172,(10_0_0:0.00000176,10_0_8:0.00000250):0.00000253):0.00000046,10_0_7:0.00000312):0.00000017,10_0_1:0.00000838):0.00000507):0.00008446):0.00010478):0.03552686,((((((2_0_3:0.00000046,(2_0_2:0.00000011,(2_0_14:0.00000009,2_0_16:0.00000013):0.00000013):0.00000061):0.00002067,((((3_0_11:0.00000165,3_0_10:0.00000668):0.00000032,((3_0_6:0.00000020,3_0_1:0.00000004):0.00000018,3_0_4:0.00000278):0.00000463):0.00000843,3_0_0:0.00004208):0.00000469,6_0_12:0.00000950):0.00003522):0.00000350,(((3_0_5:0.00000367,3_0_7:0.00000232):0.00003067,(6_0_4:0.00001285,(((6_0_16:0.00000014,6_0_14:0.00000100):0.00000296,6_0_5:0.00000338):0.00000273,(6_0_2:0.00000135,(6_0_1:0.00000073,6_0_15:0.00000090):0.00000060):0.00001309):0.00003047):0.00000827):0.00000440,(((3_0_14:0.00000377,(3_0_13:0.00000069,3_0_12:0.00000027):0.00000196):0.00001421,((3_0_16:0.00000268,(3_0_2:0.00000101,((3_0_9:0.00000021,3_0_8:0.00000024):0.00000000,3_0_3:0.00000021):0.00000095):0.00000016):0.00000285,3_0_15:0.00000760):0.00001163):0.00000772,((6_0_9:0.00000254,(6_0_8:0.00000034,6_0_0:0.00000054):0.00000397):0.00000341,(6_0_6:0.00001099,((6_0_11:0.00000050,6_0_10:0.00000157):0.00000068,(6_0_7:0.00000111,(6_0_13:0.00000045,6_0_3:0.00000119):0.00000008):0.00000179):0.00000330):0.00000033):0.00003278):0.00000182):0.00002574):0.00006864,(((((((1_0_16:0.00000267,(1_0_7:0.00000037,1_0_5:0.00000026):0.00000182):0.00000326,((1_0_6:0.00000328,(1_0_1:0.00000041,1_0_13:0.00000026):0.00000240):0.00000518,(7_0_4:0.00000151,1_0_4:0.00000699):0.00000012):0.00000192):0.00000531,(7_0_7:0.00000121,7_0_6:0.00000121):0.00000377):0.00000502,(((4_0_8:0.00000329,(4_0_2:0.00000026,4_0_11:0.00000136):0.00000374):0.00000164,(4_0_7:0.00000510,(1_0_8:0.00000266,1_0_3:0.00000198):0.00000406):0.00000117):0.00000917,(1_0_14:0.00000223,(1_0_0:0.00000074,1_0_15:0.00000080):0.00000050):0.00001567):0.00000470):0.00000380,(((4_0_16:0.00000047,4_0_15:0.00000063):0.00000092,4_0_13:0.00000155):0.00000055,((7_0_13:0.00000143,7_0_2:0.00000075):0.00000076,7_0_15:0.00000104):0.00000055):0.00002140):0.00001301,((4_0_3:0.00001113,((4_0_10:0.00001096,(1_0_2:0.00000096,1_0_10:0.00000382):0.00000274):0.00000851,(7_0_14:0.00000483,(1_0_11:0.00000038,1_0_9:0.00000035):0.00001038):0.00001298):0.00000188):0.00000465,(((7_0_0:0.00000161,(7_0_9:0.00000039,7_0_8:0.00000119):0.00000352):0.00000046,4_0_4:0.00000092):0.00000505,7_0_1:0.00001834):0.00000880):0.00005868):0.00001846,((((4_0_5:0.00000130,4_0_0:0.00000103):0.00000129,(4_0_9:0.00000118,4_0_6:0.00000088):0.00000107):0.00000116,((4_0_12:0.00000549,((7_0_10:0.00000031,7_0_3:0.00000033):0.00000019,7_0_11:0.00000046):0.00000114):0.00000389,((4_0_14:0.00000766,7_0_5:0.00000407):0.00000213,1_0_12:0.00002278):0.00000016):0.00000009):0.00000357,(7_0_12:0.00000232,(7_0_16:0.00000194,4_0_1:0.00000121):0.00000073):0.00000333):0.00002297):0.00009664):0.00002231,((((5_0_10:0.00000180,(5_0_6:0.00000017,5_0_2:0.00000006):0.00000241):0.00000197,5_0_5:0.00000574):0.00002850,((5_0_13:0.00000844,((5_0_3:0.00000709,5_0_1:0.00000247):0.00000279,(5_0_16:0.00000407,(5_0_12:0.00000240,5_0_4:0.00000221):0.00000041):0.00000499):0.00000083):0.00000036,5_0_0:0.00001830):0.00001578):0.00015134,(((2_0_1:0.00000872,2_0_6:0.00001172):0.00000036,((2_0_5:0.00000002,2_0_7:0.00000001):0.00000161,2_0_15:0.00000136):0.00000336):0.00005442,((((2_0_4:0.00000203,2_0_13:0.00000419):0.00000303,((2_0_12:0.00000101,2_0_11:0.00000089):0.00000079,2_0_10:0.00000135):0.00000573):0.00000005,(2_0_0:0.00000001,2_0_9:0.00000002):0.00002119):0.00004129,2_0_8:0.00001963):0.00000567):0.00003671):0.00000720):0.00000394,((5_0_7:0.00000057,5_0_9:0.00000095):0.00000489,((5_0_11:0.00000296,5_0_15:0.00000307):0.00000286,(5_0_14:0.00000210,5_0_8:0.00000107):0.00000556):0.00000445):0.00018430):0.07278210):0.06255338);
[TREE] T10 (0_0_0:0.11096620,((((((5_0_14:0.00000830,(5_0_7:0.00000004,5_0_12:0.00000003):0.00000981):0.00000216,(((5_0_3:0.00000155,5_0_8:0.00000425):0.00000283,(5_0_9:0.00000236,5_0_1:0.00000089):0.00000404):0.00000584,5_0_10:0.00000569):0.00000054):0.00001168,(5_0_15:0.00000590,(5_0_0:0.00000521,5_0_11:0.00000615):0.00000278):0.00001959):0.00005679,((5_0_16:0.00000643,(5_0_5:0.00000241,(5_0_2:0.00000244,5_0_13:0.00000120):0.00000094):0.00000703):0.00002616,(5_0_6:0.00000199,5_0_4:0.00000725):0.00005514):0.00002481):0.00009170,((((((4_0_7:0.00000973,7_0_12:0.00000251):0.00001175,((((4_0_2:0.00000086,(4_0_10:0.00000396,4_0_1:0.00000201):0.00000014):0.00000042,(7_0_9:0.00000147,7_0_14:0.00000155):0.00000386):0.00000541,((7_0_11:0.00000065,7_0_3:0.00000035):0.00000141,7_0_16:0.00000053):0.00000543):0.00000533,(4_0_15:0.00001483,((4_0_11:0.00001607,(((7_0_5:0.00000411,1_0_8:0.00000680):0.00000008,(4_0_5:0.00000103,4_0_9:0.00000142):0.00000338):0.00000049,4_0_16:0.00000686):0.00001409):0.00000095,((((1_0_3:0.00000031,1_0_4:0.00000022):0.00000096,1_0_6:0.00000024):0.00000469,((((1_0_5:0.00000001,1_0_15:0.00000001):0.00000201,1_0_11:0.00000160):0.00000991,(((4_0_6:0.00000015,(4_0_12:0.00000027,4_0_3:0.00000057):0.00000017):0.00000129,4_0_8:0.00000061):0.00000441,((7_0_4:0.00000031,7_0_2:0.00000098):0.00000575,((1_0_13:0.00000470,1_0_2:0.00000090):0.00000089,1_0_0:0.00000571):0.00000118):0.00000132):0.00000014):0.00000014,(1_0_12:0.00000088,1_0_10:0.00000074):0.00000491):0.00000252):0.00000069,(((4_0_4:0.00000320,4_0_14:0.00000775):0.00000098,7_0_7:0.00000260):0.00000001,4_0_13:0.00000301):0.00000947):0.00000107):0.00000176):0.00000259):0.00000008):0.00000321,((1_0_14:0.00000120,(1_0_16:0.00000006,1_0_9:0.00000005):0.00000022):0.00000961,1_0_1:0.00001613):0.00001827):0.00000790,((7_0_6:0.00000465,((1_0_7:0.00000225,(7_0_13:0.00000494,(7_0_15:0.00000236,7_0_10:0.00000109):0.00000173):0.00000183):0.00000028,((7_0_8:0.00000005,7_0_1:0.00000016):0.00000163,7_0_0:0.00000401):0.00000146):0.00000782):0.00003586,4_0_0:0.00006762):0.00000469):0.00000209,(((2_0_2:0.00000548,2_0_6:0.00000137):0.00000462,((2_0_7:0.00000015,2_0_11:0.00000006):0.00000058,2_0_15:0.00000103):0.00000451):0.00001822,(((2_0_14:0.00000138,2_0_8:0.00000058):0.00001040,(2_0_3:0.00000048,2_0_5:0.00000016):0.00000870):0.00000010,2_0_4:0.00000179):0.00001034):0.00004340):0.00007074,((((2_0_9:0.00000068,2_0_10:0.00000157):0.00001330,(2_0_12:0.00000106,(2_0_13:0.00000006,2_0_0:0.00000014):0.00000294):0.00001186):0.00001715,(2_0_1:0.00000111,2_0_16:0.00000065):0.00002809):0.00001275,((6_0_11:0.00006840,(((3_0_16:0.00000071,3_0_3:0.00000016):0.00000426,3_0_7:0.00000544):0.00002037,((((3_0_13:0.00000018,3_0_6:0.00000017):0.00005311,((6_0_15:0.00000038,6_0_0:0.00000103):0.00002414,((6_0_8:0.00000012,6_0_16:0.00000058):0.00000743,(6_0_13:0.00000842,(6_0_9:0.00000347,6_0_5:0.00000130):0.00000146):0.00000394):0.00001131):0.00000170):0.00000017,(((3_0_1:0.00000092,3_0_0:0.00000689):0.00000032,(3_0_14:0.00000151,3_0_12:0.00000166):0.00000246):0.00000760,(3_0_4:0.00001111,(3_0_10:0.00000299,(3_0_11:0.00000202,3_0_5:0.00000138):0.00000203):0.00000717):0.00002026):0.00001309):0.00000092,((6_0_14:0.00000289,6_0_7:0.00000200):0.00000007,(6_0_1:0.00000420,(6_0_12:0.00000333,(6_0_3:0.00000296,(6_0_10:0.00000097,6_0_6:0.00000400):0.00000064):0.00000016):0.00000030):0.00000076):0.00001852):0.00000002):0.00000733):0.00000153,((3_0_9:0.00001936,((3_0_2:0.00000034,3_0_8:0.00000124):0.00000072,3_0_15:0.00000254):0.00000907):0.00000832,(6_0_2:0.00000014,6_0_4:0.00000020):0.00000407):0.00000676):0.00002915):0.00004299):0.00001380):0.03714244,(((((12_0_12:0.00000483,(((((12_0_1:0.00000237,((12_0_4:0.00000075,12_0_3:0.00000078):0.00000103,12_0_9:0.00000197):0.00000084):0.00000041,12_0_5:0.00000323):0.00000037,12_0_8:0.00000358):0.00000170,(12_0_6:0.00000204,12_0_15:0.00000137):0.00000280):0.00000223,12_0_13:0.00000468):0.00000088):0.00000574,((10_0_11:0.00000709,10_0_6:0.00000355):0.00000011,(((10_0_14:0.00000089,10_0_1:0.00000057):0.00000089,10_0_0:0.00000196):0.00000199,((10_0_10:0.00000170,(10_0_13:0.00000136,10_0_8:0.00000161):0.00000004):0.00000259,10_0_3:0.00000189):0.00000016):0.00000003):0.00000475):0.00006768,(((12_0_7:0.00000083,(12_0_11:0.00000024,12_0_14:0.00000019):0.00000038):0.00000955,((10_0_4:0.00000000,10_0_7:0.00000001):0.00000154,10_0_9:0.00000182):0.00000503):0.00004698,(((((8_0_2:0.00000100,8_0_7:0.00000069):0.00000030,8_0_11:0.00000070):0.00000646,((8_0_14:0.00000669,((8_0_1:0.00000374,8_0_15:0.00000283):0.00000053,(8_0_8:0.00000017,8_0_16:0.00000061):0.00000288):0.00000006):0.00000967,(8_0_9:0.00002902,((8_0_12:0.00000389,(8_0_3:0.00000476,8_0_13:0.00000484):0.00000209):0.00000538,((8_0_6:0.00000261,(8_0_0:0.00000206,8_0_10:0.00000129):0.00000012):0.00000460,(8_0_4:0.00000187,8_0_5:0.00000135):0.00000227):0.00000184):0.00000302):0.00001049):0.00000034):0.00000672,((12_0_10:0.00000029,12_0_16:0.00000008):0.00000346,12_0_2:0.00000316):0.00004011):0.00000470,(10_0_12:0.00000977,(12_0_0:0.00001009,(10_0_16:0.00001837,(10_0_5:0.00000522,(10_0_2:0.00000027,10_0_15:0.00000040):0.00000209):0.00000353):0.00002000):0.00000218):0.00002201):0.00002797):0.00000143):0.00004449,(11_0_0:0.00000032,11_0_8:0.00000035):0.00012492):0.00003984,(((((9_0_16:0.00001653,((9_0_4:0.00000017,9_0_0:0.00000006):0.00000705,(9_0_3:0.00000022,(9_0_11:0.00000026,(9_0_5:0.00000064,9_0_6:0.00000020):0.00000106):0.00000124):0.00000293):0.00001357):0.00004313,(((9_0_9:0.00000084,(9_0_10:0.00000131,(9_0_1:0.00000032,9_0_2:0.00000057):0.00000037):0.00000262):0.00000818,(9_0_8:0.00001124,((9_0_14:0.00000069,9_0_15:0.00000119):0.00000547,9_0_12:0.00000268):0.00000417):0.00000198):0.00000676,((9_0_13:0.00002242,13_0_15:0.00001235):0.00000438,((13_0_11:0.00000374,13_0_2:0.00000322):0.00001703,((13_0_0:0.00000090,13_0_9:0.00000240):0.00003083,(((13_0_5:0.00000036,13_0_10:0.00000133):0.00000013,13_0_12:0.00000090):0.00002833,(((13_0_7:0.00000521,13_0_1:0.00000151):0.00000023,13_0_14:0.00000169):0.00000272,((13_0_16:0.00000066,13_0_6:0.00000185):0.00000031,(13_0_8:0.00000221,13_0_3:0.00000328):0.00000013):0.00001312):0.00000325):0.00000560):0.00000017):0.00001128):0.00000287):0.00007250):0.00000862,(((((14_0_6:0.00000046,(14_0_0:0.00000066,14_0_11:0.00000045):0.00000376):0.00000080,14_0_9:0.00000538):0.00000222,14_0_14:0.00000607):0.00000628,(((((14_0_12:0.00000130,14_0_10:0.00000361):0.00000058,14_0_4:0.00000310):0.00000113,14_0_3:0.00000715):0.00000146,14_0_2:0.00000513):0.00000102,((14_0_8:0.00000054,14_0_13:0.00000065):0.00000046,14_0_1:0.00000163):0.00001072):0.00000229):0.00001792,(((11_0_6:0.00000804,11_0_16:0.00000241):0.00000034,11_0_13:0.00000119):0.00005159,(11_0_15:0.00000864,11_0_7:0.00000560):0.00001179):0.00000599):0.00003813):0.00000304,((13_0_13:0.00000014,13_0_4:0.00000016):0.00001260,9_0_7:0.00003998):0.00004670):0.00001233,(14_0_15:0.00004577,(((14_0_7:0.00000515,14_0_5:0.00001409):0.00000362,(11_0_5:0.00001908,11_0_11:0.00000847):0.00000875):0.00000654,((((11_0_9:0.00000074,11_0_12:0.00000087):0.00000100,(((11_0_1:0.00000049,11_0_2:0.00000098):0.00000076,11_0_3:0.00000060):0.00000003,11_0_10:0.00000175):0.00000062):0.00000329,(11_0_14:0.00000259,11_0_4:0.00000117):0.00000114):0.00002024,14_0_16:0.00004989):0.00000053):0.00000710):0.00004905):0.00013633):0.09267227):0.03277389);

[PARTITIONS] csSimUnlinked_01 [T01 csSim_unlinked_1 500]
[PARTITIONS] csSimUnlinked_02 [T02 csSim_unlinked_2 500]
[PARTITIONS] csSimUnlinked_03 [T03 csSim_unlinked_3 500]
[PARTITIONS] csSimUnlinked_04 [T04 csSim_unlinked_4 500]
[PARTITIONS] csSimUnlinked_05 [T05 csSim_unlinked_5 500]
[PARTITIONS] csSimUnlinked_06 [T06 csSim_unlinked_6 500]
[PARTITIONS] csSimUnlinked_07 [T07 csSim_unlinked_7 500]
[PARTITIONS] csSimUnlinked_08 [T08 csSim_unlinked_8 500]
[PARTITIONS] csSimUnlinked_09 [T09 csSim_unlinked_9 500]
[PARTITIONS] csSimUnlinked_10 [T10 csSim_unlinked_10 500]

[EVOLVE] csSimUnlinked_01 1 data_01
csSimUnlinked_02 1 data_02
csSimUnlinked_03 1 data_03
csSimUnlinked_04 1 data_04
csSimUnlinked_05 1 data_05
csSimUnlinked_06 1 data_06
csSimUnlinked_07 1 data_07
csSimUnlinked_08 1 data_08
csSimUnlinked_09 1 data_09
csSimUnlinked_10 1 data_10
