[TYPE] NUCLEOTIDE 1 

[SETTINGS]
    [fastaextension] fasta  

[MODEL] csSim_unlinked_1
    [submodel] GTR 0.103304 0.012984 0.013256 0.023625 0.067516 
    [statefreq] 0.286512 0.108071 0.250914 0.354502 
[rates] 0 9.911118 0 

[MODEL] csSim_unlinked_2
    [submodel] GTR 0.078531 0.005673 0.015343 0.033469 0.035554 
    [statefreq] 0.434646 0.202580 0.255397 0.107378 
[rates] 0 2.005783 0 

[MODEL] csSim_unlinked_3
    [submodel] GTR 0.082485 0.007203 0.016676 0.030142 0.035583 
    [statefreq] 0.164519 0.161890 0.311588 0.362003 
[rates] 0 51.809404 0 

[MODEL] csSim_unlinked_4
    [submodel] GTR 0.173548 0.006712 0.022640 0.005956 0.012955 
    [statefreq] 0.724858 0.104946 0.004808 0.165388 
[rates] 0 35.297880 0 

[MODEL] csSim_unlinked_5
    [submodel] GTR 0.130671 0.011607 0.013744 0.040743 0.036309 
    [statefreq] 0.025370 0.238390 0.019012 0.717228 
[rates] 0 5.594307 0 

[MODEL] csSim_unlinked_6
    [submodel] GTR 0.097780 0.014295 0.017619 0.022383 0.029067 
    [statefreq] 0.155110 0.423377 0.281848 0.139665 
[rates] 0 69.946950 0 

[MODEL] csSim_unlinked_7
    [submodel] GTR 0.103640 0.007939 0.014841 0.024139 0.040173 
    [statefreq] 0.229049 0.093604 0.191011 0.486336 
[rates] 0 4.467390 0 

[MODEL] csSim_unlinked_8
    [submodel] GTR 0.089526 0.005700 0.028599 0.039899 0.062709 
    [statefreq] 0.439624 0.299263 0.143983 0.117130 
[rates] 0 4.035274 0 

[MODEL] csSim_unlinked_9
    [submodel] GTR 0.129848 0.013703 0.023555 0.039022 0.033530 
    [statefreq] 0.611033 0.157243 0.175014 0.056710 
[rates] 0 9.887089 0 

[MODEL] csSim_unlinked_10
    [submodel] GTR 0.082057 0.007771 0.020312 0.050395 0.046270 
    [statefreq] 0.034395 0.023108 0.126234 0.816263 
[rates] 0 62.452255 0 


[TREE] T01 (((((10_0_11:0.00005398,(((10_0_7:0.00000030,10_0_8:0.00000149):0.00000017,(10_0_3:0.00002414,((10_0_0:0.00000732,10_0_1:0.00000021):0.00000003,10_0_12:0.00001394):0.00000501):0.00000061):0.00000134,((10_0_6:0.00006867,10_0_2:0.00000008):0.00005939,((10_0_9:0.00000298,10_0_10:0.00001973):0.00001875,(10_0_5:0.00000327,(10_0_13:0.00000005,(10_0_14:0.00000000,10_0_4:0.00000000):0.00000162):0.00002322):0.00000163):0.00000721):0.00000504):0.00051618):0.00673824,(((11_0_10:0.00002961,(11_0_13:0.00000980,11_0_1:0.00000311):0.00000134):0.00000000,((11_0_12:0.00000316,11_0_6:0.00000027):0.00004125,11_0_2:0.00000149):0.00000292):0.00008270,((11_0_4:0.00000661,11_0_5:0.00000005):0.00000086,(11_0_3:0.00000608,((11_0_0:0.00000144,11_0_9:0.00000053):0.00001514,(11_0_7:0.00000240,((11_0_11:0.00000162,11_0_14:0.00000685):0.00000105,11_0_8:0.00000041):0.00000011):0.00000093):0.00003243):0.00000262):0.00000644):0.14733999):0.00859255,(((9_0_14:0.00000010,9_0_1:0.00000440):0.00020264,(9_0_7:0.00001330,(9_0_11:0.00000043,9_0_13:0.00000251):0.00000067):0.00001426):0.00001547,((9_0_5:0.00000013,9_0_6:0.00005403):0.00000027,((9_0_3:0.00000269,(9_0_10:0.00000027,9_0_2:0.00000103):0.00000314):0.00001002,((9_0_8:0.00000116,(9_0_12:0.00000001,(9_0_4:0.00000012,9_0_9:0.00000000):0.00000000):0.00000000):0.00000121,9_0_0:0.00000017):0.00000264):0.00000830):0.00005383):0.00009405):0.00014504,(((((1_0_2:0.00000099,((1_0_5:0.00000384,1_0_13:0.00000005):0.00000184,1_0_11:0.00000001):0.00000155):0.00000061,(1_0_10:0.00000102,1_0_1:0.00000002):0.00000015):0.00006068,(((1_0_9:0.00000600,1_0_3:0.00001492):0.00002591,(1_0_12:0.00000041,(1_0_6:0.00000541,1_0_8:0.00001429):0.00000170):0.00000007):0.00000071,((1_0_0:0.00000687,1_0_14:0.00000843):0.00000402,(1_0_7:0.00000408,1_0_4:0.00002135):0.00000234):0.00000156):0.00020498):0.00099540,((8_0_7:0.00007708,((8_0_13:0.00000000,8_0_3:0.00000045):0.00000027,8_0_10:0.00000006):0.00001984):0.00002705,(((8_0_14:0.00000077,8_0_0:0.00000033):0.00002208,(((8_0_12:0.00000529,8_0_5:0.00000098):0.00000001,8_0_11:0.00000717):0.00000552,8_0_1:0.00008165):0.00000011):0.00003836,((8_0_6:0.00000290,(8_0_9:0.00001011,(8_0_4:0.00000017,8_0_2:0.00000203):0.00000284):0.00003463):0.00000001,8_0_8:0.00000218):0.00053140):0.00000204):0.00066747):0.00151123,((((3_0_0:0.00014158,3_0_9:0.00005746):0.00007128,((3_0_4:0.00000001,(3_0_8:0.00000141,(3_0_3:0.00000034,3_0_2:0.00000020):0.00000123):0.00000078):0.00000007,3_0_12:0.00004286):0.00001122):0.00000792,((((3_0_14:0.00000182,3_0_13:0.00000189):0.00000000,3_0_11:0.00000025):0.00001562,(3_0_1:0.00000051,3_0_5:0.00000123):0.00000093):0.00000148,((3_0_10:0.00002511,3_0_7:0.00001129):0.00000030,3_0_6:0.00000480):0.00001585):0.00044096):0.01559244,((((2_0_10:0.00000001,(((2_0_3:0.00002416,2_0_2:0.00002381):0.00000115,2_0_7:0.00000575):0.00000130,((2_0_1:0.00000050,2_0_9:0.00000000):0.00000087,2_0_12:0.00000025):0.00000037):0.00000014):0.00001968,(2_0_6:0.00000840,((2_0_5:0.00000224,2_0_13:0.00000000):0.00000000,((2_0_8:0.00000022,(2_0_0:0.00000158,2_0_11:0.00000054):0.00000052):0.00000048,(2_0_14:0.00000001,2_0_4:0.00000007):0.00000009):0.00000126):0.00000182):0.00001367):0.00029246,((((((4_0_7:0.00000344,4_0_12:0.00000009):0.00001628,(4_0_0:0.00000210,4_0_2:0.00000168):0.00003553):0.00000042,((4_0_5:0.00000066,4_0_3:0.00004442):0.00000127,4_0_8:0.00000117):0.00017694):0.00000459,((4_0_11:0.00000150,4_0_9:0.00000079):0.00000638,(4_0_10:0.00004798,(4_0_6:0.00000233,((4_0_4:0.00000001,4_0_13:0.00000000):0.00000148,(4_0_14:0.00000098,4_0_1:0.00000001):0.00001510):0.00000253):0.00000191):0.00004060):0.00000587):0.00111834,((5_0_2:0.00000020,(5_0_5:0.00000086,(5_0_6:0.00000111,5_0_3:0.00000149):0.00000550):0.00000339):0.00040136,((((5_0_8:0.00000680,5_0_10:0.00000022):0.00001187,((5_0_11:0.00000105,5_0_12:0.00000066):0.00000044,(5_0_1:0.00000128,5_0_14:0.00000407):0.00000102):0.00000075):0.00000003,(5_0_0:0.00000144,5_0_7:0.00000010):0.00004535):0.00000015,((5_0_9:0.00001007,5_0_13:0.00001290):0.00000358,5_0_4:0.00000067):0.00005058):0.00006126):0.00188069):0.00632483,((6_0_14:0.00006414,6_0_9:0.00000095):0.00000723,((((6_0_7:0.00000003,6_0_5:0.00000003):0.00000001,6_0_0:0.00000073):0.00000110,((6_0_13:0.00000314,(6_0_8:0.00000004,(6_0_1:0.00000000,(((6_0_11:0.00000000,6_0_4:0.00000008):0.00000000,6_0_2:0.00000004):0.00000196,6_0_12:0.00000161):0.00000234):0.00000176):0.00000371):0.00000681,6_0_10:0.00002861):0.00001675):0.00000071,(6_0_3:0.00000723,6_0_6:0.00000083):0.00004909):0.00004448):0.00057977):0.00114949):0.00037288,((((7_0_1:0.00001117,(7_0_8:0.00000086,(7_0_5:0.00000123,7_0_4:0.00000604):0.00000036):0.00000007):0.00001035,(7_0_10:0.00000093,7_0_14:0.00000033):0.00000023):0.00003468,((((7_0_11:0.00000034,7_0_3:0.00000229):0.00000015,(7_0_0:0.00000230,7_0_6:0.00000017):0.00000054):0.00000029,7_0_13:0.00000496):0.00004842,7_0_2:0.00000426):0.00001511):0.00001619,((7_0_12:0.00003163,7_0_7:0.00000516):0.00000343,7_0_9:0.00000000):0.00002332):0.00749187):0.00850903):0.00052354):0.00951057):0.82236800,0_0_0:0.00143517);
[TREE] T02 (((((((3_0_6:0.00005433,((3_0_9:0.00000000,3_0_3:0.00000041):0.00000109,3_0_0:0.00000495):0.00000108):0.00001592,((3_0_12:0.00000003,3_0_7:0.00000007):0.00000213,(3_0_11:0.00002068,(3_0_13:0.00000072,((3_0_1:0.00000058,3_0_5:0.00000932):0.00000661,3_0_2:0.00000586):0.00000028):0.00002697):0.00002800):0.00001559):0.00001753,(((3_0_10:0.00000109,3_0_14:0.00000616):0.00000131,3_0_4:0.00000144):0.00004883,3_0_8:0.00001093):0.00000024):0.01932631,(((((((7_0_3:0.00000000,(7_0_11:0.00000001,7_0_5:0.00000085):0.00000034):0.00000025,7_0_13:0.00000335):0.00000011,(7_0_1:0.00000001,7_0_8:0.00000055):0.00000692):0.00000121,7_0_6:0.00003423):0.00000416,7_0_14:0.00002581):0.00007262,((7_0_4:0.00000198,7_0_0:0.00000158):0.00001324,(((7_0_12:0.00000006,7_0_9:0.00000134):0.00000000,7_0_2:0.00000014):0.00000561,(7_0_10:0.00000715,7_0_7:0.00000624):0.00000362):0.00006067):0.00000060):0.00036002,(((2_0_8:0.00000383,(2_0_4:0.00000000,2_0_12:0.00000006):0.00000008):0.00032559,(((2_0_9:0.00000002,(2_0_13:0.00000009,2_0_7:0.00000000):0.00000034):0.00000677,2_0_14:0.00000003):0.00000026,((2_0_0:0.00000003,(2_0_3:0.00000003,2_0_1:0.00000068):0.00000123):0.00001021,((2_0_2:0.00000663,(2_0_10:0.00000001,2_0_5:0.00000025):0.00000065):0.00000025,(2_0_6:0.00001075,2_0_11:0.00001868):0.00001088):0.00000288):0.00043919):0.00000010):0.00008517,((((6_0_0:0.00000110,6_0_8:0.00000241):0.00000426,(6_0_4:0.00000118,(6_0_1:0.00000031,6_0_2:0.00000086):0.00000356):0.00000267):0.00000017,(((6_0_13:0.00000012,6_0_9:0.00000891):0.00001244,(((6_0_7:0.00002161,6_0_11:0.00000660):0.00000100,6_0_12:0.00000036):0.00000001,(6_0_14:0.00000004,6_0_5:0.00000149):0.00000460):0.00000033):0.00007341,((6_0_3:0.00001527,6_0_6:0.00000038):0.00000085,6_0_10:0.00000104):0.00001284):0.00000159):0.00373478,(((((5_0_2:0.00000003,5_0_7:0.00000424):0.00000001,(5_0_12:0.00000268,(5_0_8:0.00000046,5_0_5:0.00000017):0.00000068):0.00000213):0.00005724,(5_0_10:0.00000363,((5_0_9:0.00000050,5_0_11:0.00000015):0.00000713,5_0_3:0.00000004):0.00000031):0.00001136):0.00003142,(((5_0_1:0.00000234,(5_0_6:0.00000883,5_0_4:0.00000030):0.00000876):0.00000127,(5_0_14:0.00000350,5_0_0:0.00000042):0.00000432):0.00000129,5_0_13:0.00000823):0.00005708):0.00048889,(((4_0_8:0.00001974,(4_0_5:0.00001622,(4_0_1:0.00002443,(4_0_9:0.00000000,4_0_13:0.00000001):0.00001336):0.00000389):0.00000000):0.00000054,(((4_0_4:0.00018133,4_0_7:0.00001059):0.00000385,(4_0_11:0.00000000,4_0_3:0.00000059):0.00000643):0.00000031,(4_0_10:0.00001926,4_0_6:0.00000000):0.00000993):0.00000002):0.00000190,(4_0_2:0.00001144,(4_0_14:0.00000131,(4_0_12:0.00001346,4_0_0:0.00000783):0.00000226):0.00000721):0.00000014):0.00067337):0.00014825):0.00000151):0.00000008):0.00722385):0.00218732,((1_0_6:0.00005774,(((1_0_8:0.00001629,((((1_0_1:0.00000441,(((1_0_0:0.00000259,1_0_13:0.00000567):0.00000041,1_0_10:0.00000084):0.00000053,1_0_4:0.00000001):0.00000110):0.00000003,1_0_14:0.00000181):0.00000036,((1_0_12:0.00000185,(1_0_9:0.00000040,1_0_2:0.00000010):0.00000004):0.00000004,1_0_7:0.00000101):0.00000210):0.00000195,1_0_11:0.00000142):0.00006113):0.00001274,1_0_5:0.00035180):0.00000322,1_0_3:0.00012261):0.00007612):0.01656127,(((8_0_8:0.00000031,(8_0_9:0.00003228,8_0_3:0.00000003):0.00002059):0.00000305,((8_0_14:0.00000128,8_0_1:0.00000084):0.00000039,8_0_10:0.00000126):0.00005656):0.00000315,((8_0_5:0.00001883,(8_0_6:0.00000032,8_0_13:0.00000001):0.00002287):0.00000119,((8_0_2:0.00000328,((8_0_12:0.00000115,8_0_4:0.00000001):0.00000011,8_0_7:0.00000000):0.00009036):0.00001082,(8_0_11:0.00000667,8_0_0:0.00001637):0.00019220):0.00000039):0.00017502):0.00569154):0.01365684):0.30399753,(((((((9_0_8:0.00000000,9_0_11:0.00000067):0.00000000,9_0_2:0.00001227):0.00000018,(9_0_14:0.00000201,(9_0_3:0.00000221,9_0_12:0.00000001):0.00000013):0.00000158):0.00000649,(9_0_13:0.00001949,(9_0_5:0.00001983,9_0_4:0.00000000):0.00000508):0.00000767):0.00000015,((9_0_1:0.00000315,9_0_10:0.00000678):0.00004010,(9_0_7:0.00002514,9_0_9:0.00002813):0.00002753):0.00005057):0.00026266,(9_0_6:0.00000234,9_0_0:0.00001590):0.00000637):0.06540779,((((10_0_12:0.00000999,(10_0_6:0.00000040,10_0_4:0.00000010):0.00005718):0.00000002,(10_0_1:0.00002936,(10_0_3:0.00000751,((10_0_8:0.00000440,10_0_7:0.00000109):0.00000063,10_0_0:0.00000090):0.00000010):0.00000139):0.00002751):0.00014240,((10_0_10:0.00000323,10_0_13:0.00000010):0.00001684,((10_0_14:0.00000342,10_0_2:0.00000222):0.00000206,((10_0_11:0.00000001,10_0_9:0.00000060):0.00000118,10_0_5:0.00000625):0.00000429):0.00000454):0.00013822):0.00444238,(((11_0_5:0.00001092,(11_0_10:0.00000334,(11_0_8:0.00001259,(11_0_6:0.00000032,((11_0_13:0.00000029,11_0_1:0.00000009):0.00000397,(11_0_14:0.00000035,11_0_11:0.00000054):0.00000448):0.00000031):0.00000003):0.00000039):0.00000510):0.00000208,(11_0_7:0.00000183,(11_0_4:0.00000008,(11_0_2:0.00000019,11_0_3:0.00000020):0.00000000):0.00004870):0.00000430):0.00011028,(11_0_12:0.00001199,(11_0_9:0.00001204,11_0_0:0.00000363):0.00001313):0.00022963):0.00168012):0.02020952):0.02532577):0.04830435,0_0_0:0.00067249);
[TREE] T03 ((((((((1_0_10:0.00000257,1_0_14:0.00000773):0.00000044,(1_0_5:0.00000066,1_0_8:0.00000282):0.00001411):0.00000004,((1_0_3:0.00000067,1_0_6:0.00000040):0.00000009,1_0_7:0.00000254):0.00000008):0.00001652,((1_0_12:0.00000014,(1_0_13:0.00000097,1_0_1:0.00000005):0.00000616):0.00000147,((1_0_0:0.00000426,(1_0_4:0.00000837,1_0_11:0.00000056):0.00000017):0.00000075,(1_0_2:0.00000051,1_0_9:0.00000009):0.00003683):0.00000050):0.00000487):0.03341431,((8_0_5:0.00000814,8_0_8:0.00000273):0.00001044,((8_0_3:0.00000041,8_0_14:0.00000027):0.00000005,(((8_0_9:0.00000639,8_0_0:0.00000004):0.00000097,(8_0_7:0.00000061,(8_0_1:0.00000023,8_0_13:0.00000000):0.00000033):0.00000004):0.00000216,(8_0_4:0.00000172,(8_0_10:0.00000561,(8_0_11:0.00000000,((8_0_6:0.00000074,8_0_2:0.00000071):0.00000028,8_0_12:0.00000153):0.00000000):0.00000175):0.00000081):0.00000023):0.00000299):0.00017678):0.00055902):0.02407154,(((3_0_0:0.00000870,((3_0_9:0.00000000,3_0_10:0.00000008):0.00000549,(3_0_12:0.00000025,3_0_2:0.00000012):0.00001692):0.00005097):0.00008794,(((3_0_8:0.00009912,((3_0_3:0.00000142,(3_0_7:0.00000009,3_0_13:0.00000085):0.00000081):0.00000011,3_0_5:0.00000004):0.00000030):0.00003368,3_0_1:0.00005424):0.00000737,((3_0_11:0.00000912,(3_0_6:0.00000012,3_0_4:0.00000838):0.00000108):0.00000020,3_0_14:0.00000253):0.00000243):0.00002579):0.03900877,((((7_0_2:0.00000180,7_0_12:0.00000130):0.00000320,((7_0_11:0.00001464,(7_0_13:0.00000132,7_0_1:0.00000368):0.00000190):0.00000062,((7_0_10:0.00000035,7_0_9:0.00000001):0.00004484,(7_0_8:0.00000336,(7_0_14:0.00000014,7_0_6:0.00000073):0.00000001):0.00011232):0.00001734):0.00000002):0.00013278,((7_0_5:0.00000265,(7_0_4:0.00000094,7_0_7:0.00000430):0.00000080):0.00000622,(7_0_0:0.00001491,7_0_3:0.00000630):0.00000799):0.00000568):0.00176956,((((((((2_0_3:0.00000006,2_0_11:0.00000240):0.00000021,2_0_4:0.00000281):0.00009666,((2_0_6:0.00001791,2_0_5:0.00000003):0.00000001,(2_0_8:0.00000090,(2_0_0:0.00001329,(2_0_12:0.00000000,2_0_10:0.00000012):0.00000030):0.00002860):0.00000000):0.00001073):0.00000012,2_0_2:0.00000449):0.00000035,2_0_1:0.00000373):0.00000205,(2_0_7:0.00000144,2_0_13:0.00000422):0.00000516):0.00007203,(2_0_9:0.00000971,2_0_14:0.00000185):0.00000154):0.01003966,(((((4_0_9:0.00000129,((4_0_3:0.00000023,(4_0_0:0.00000005,4_0_12:0.00000012):0.00000221):0.00000747,(4_0_7:0.00000004,(4_0_2:0.00000013,4_0_1:0.00000017):0.00001952):0.00000102):0.00001142):0.00000676,((4_0_14:0.00000128,4_0_6:0.00000010):0.00000185,(4_0_11:0.00000000,4_0_13:0.00000015):0.00000079):0.00004505):0.00079968,(((4_0_4:0.00000753,4_0_10:0.00000122):0.00000002,4_0_8:0.00001349):0.00005766,4_0_5:0.00000744):0.00000055):0.00000009,(((5_0_11:0.00000325,5_0_0:0.00000012):0.00000733,5_0_7:0.00001354):0.00000986,((((5_0_5:0.00000001,5_0_6:0.00000000):0.00000001,5_0_13:0.00000039):0.00000257,5_0_9:0.00000577):0.00000109,((5_0_14:0.00000099,5_0_12:0.00000079):0.00005003,((5_0_10:0.00000559,5_0_2:0.00002518):0.00000514,((5_0_3:0.00000016,(5_0_4:0.00003251,5_0_8:0.00000089):0.00000011):0.00000489,5_0_1:0.00000001):0.00000059):0.00000381):0.00015047):0.00020672):0.00046229):0.00000383,(((6_0_12:0.00002629,(6_0_5:0.00000193,6_0_6:0.00000024):0.00000000):0.00014091,(((6_0_4:0.00000031,(6_0_8:0.00000000,6_0_2:0.00000019):0.00000113):0.00005616,6_0_7:0.00001857):0.00000207,6_0_9:0.00009384):0.00006214):0.00023970,(6_0_0:0.00000069,((((6_0_1:0.00000001,6_0_3:0.00000047):0.00000258,(6_0_14:0.00000002,6_0_13:0.00000017):0.00000001):0.00000148,6_0_11:0.00000067):0.00021939,6_0_10:0.00012169):0.00000609):0.00001532):0.00008215):0.00005544):0.00012786):0.00190134):0.00069216):0.05349521,(((((11_0_8:0.00000005,11_0_11:0.00000218):0.00000707,11_0_10:0.00002769):0.00005073,((11_0_3:0.00000023,11_0_0:0.00000087):0.00000597,((11_0_13:0.00000431,11_0_4:0.00002018):0.00004657,((11_0_9:0.00000220,11_0_5:0.00000136):0.00000010,((11_0_1:0.00000773,11_0_7:0.00000056):0.00000064,((11_0_12:0.00000007,11_0_14:0.00000008):0.00000017,(11_0_2:0.00000240,11_0_6:0.00000127):0.00000059):0.00000048):0.00000126):0.00000386):0.00000562):0.00002778):0.01119293,(((10_0_8:0.00000081,10_0_0:0.00000019):0.00000755,10_0_4:0.00002269):0.00006552,(10_0_14:0.00026551,(((10_0_3:0.00007968,10_0_5:0.00000000):0.00000801,((10_0_13:0.00000018,10_0_7:0.00004055):0.00001954,((10_0_11:0.00000432,10_0_2:0.00001066):0.00006267,(10_0_6:0.00000100,10_0_12:0.00000040):0.00000357):0.00000144):0.00000050):0.00000890,(10_0_10:0.00000930,(10_0_1:0.00000420,10_0_9:0.00000136):0.00000322):0.00001863):0.00012311):0.00031013):0.00980736):0.00026160,((((9_0_2:0.00005293,(9_0_4:0.00000006,9_0_11:0.00000318):0.00000035):0.00000438,(9_0_10:0.00000012,9_0_5:0.00002745):0.00000090):0.00000053,9_0_0:0.00000077):0.00000907,((9_0_12:0.00000054,(9_0_1:0.00000009,9_0_8:0.00000114):0.00000142):0.00004716,((9_0_3:0.00000016,((9_0_14:0.00000006,9_0_7:0.00000010):0.00000072,(9_0_9:0.00000412,9_0_13:0.00000050):0.00000032):0.00002081):0.00002370,9_0_6:0.00014717):0.00024947):0.00028703):0.03424630):0.48023044):0.52469034,0_0_0:0.16942566);
[TREE] T04 (0_0_0:0.04311411,(((((11_0_12:0.00000831,(((11_0_10:0.00000002,11_0_9:0.00000268):0.00000116,(11_0_2:0.00000010,11_0_8:0.00000657):0.00000007):0.00000403,((((11_0_3:0.00000318,11_0_4:0.00000018):0.00002179,11_0_11:0.00004768):0.00000595,(11_0_7:0.00000180,(11_0_6:0.00000004,11_0_14:0.00000063):0.00000110):0.00000008):0.00004063,11_0_1:0.00003486):0.00000348):0.00000061):0.00070207,((11_0_5:0.00000585,11_0_0:0.00000032):0.00000362,11_0_13:0.00000441):0.00033334):0.00009201,(((10_0_4:0.00000293,10_0_8:0.00000078):0.00000237,((10_0_3:0.00000043,10_0_2:0.00000172):0.00002272,10_0_10:0.00000062):0.00002992):0.00027781,(((10_0_6:0.00000265,10_0_9:0.00000945):0.00000773,((10_0_1:0.00000002,10_0_7:0.00000002):0.00002481,(10_0_12:0.00000282,10_0_14:0.00002260):0.00000022):0.00003492):0.00000611,((10_0_11:0.00003229,(10_0_0:0.00014079,10_0_13:0.00000029):0.00000100):0.00001479,10_0_5:0.00001150):0.00004273):0.00001789):0.00442336):0.02260671,(((9_0_6:0.00000008,9_0_0:0.00000065):0.00000146,9_0_2:0.00001760):0.00015680,(((9_0_7:0.00002226,9_0_13:0.00000001):0.00002742,((9_0_9:0.00007581,((9_0_5:0.00000237,9_0_8:0.00000023):0.00000134,(9_0_4:0.00000186,9_0_11:0.00000003):0.00000422):0.00001451):0.00003383,(9_0_3:0.00000141,9_0_12:0.00000138):0.00001030):0.00000014):0.00000005,(9_0_1:0.00000000,(9_0_10:0.00000220,9_0_14:0.00001814):0.00000216):0.00012687):0.00000560):0.00017574):0.00000022,((((((((2_0_9:0.00003411,(2_0_12:0.00003011,(2_0_6:0.00000021,2_0_3:0.00000095):0.00000019):0.00000035):0.00000018,(2_0_14:0.00000149,2_0_5:0.00000024):0.00000034):0.00014331,2_0_8:0.00000136):0.00001186,(((2_0_7:0.00000668,2_0_10:0.00000285):0.00017354,((2_0_0:0.00000136,((2_0_1:0.00000001,2_0_4:0.00000032):0.00000001,2_0_13:0.00000000):0.00000774):0.00000002,2_0_2:0.00003537):0.00000075):0.00005059,2_0_11:0.00004198):0.00046369):0.00973288,((((6_0_3:0.00000000,6_0_11:0.00000032):0.00002249,(((6_0_5:0.00000250,6_0_0:0.00000046):0.00000001,((6_0_6:0.00000492,6_0_4:0.00000346):0.00000226,6_0_8:0.00000065):0.00000009):0.00006216,6_0_10:0.00003030):0.00004048):0.00007554,(((6_0_14:0.00002428,6_0_13:0.00001346):0.00000006,((6_0_1:0.00000030,6_0_2:0.00000617):0.00000208,(6_0_12:0.00000000,6_0_9:0.00000000):0.00001291):0.00000238):0.00000308,6_0_7:0.00001514):0.00001900):0.00383997,(((5_0_7:0.00000091,5_0_12:0.00002655):0.00000314,(5_0_8:0.00000079,((5_0_1:0.00001764,5_0_11:0.00004394):0.00001434,(((5_0_14:0.00000017,5_0_3:0.00000029):0.00000089,(5_0_9:0.00000246,(5_0_5:0.00000057,5_0_0:0.00000092):0.00000040):0.00000027):0.00010702,((5_0_6:0.00001181,5_0_4:0.00000066):0.00000546,((5_0_10:0.00001003,5_0_2:0.00000118):0.00000064,5_0_13:0.00000557):0.00000746):0.00000082):0.00001060):0.00000189):0.00004734):0.00016729,(((((4_0_4:0.00000063,4_0_9:0.00000000):0.00000343,4_0_14:0.00000370):0.00001242,((4_0_3:0.00000000,4_0_5:0.00000357):0.00000754,4_0_12:0.00006548):0.00000168):0.00005923,(4_0_0:0.00000092,(4_0_6:0.00000015,4_0_2:0.00000104):0.00000000):0.00008162):0.00112914,((4_0_7:0.00000746,(4_0_1:0.00000032,(4_0_13:0.00000019,4_0_8:0.00000050):0.00000000):0.00000230):0.00004882,(4_0_10:0.00000038,4_0_11:0.00003642):0.00002966):0.00103350):0.00017695):0.00137870):0.00148881):0.00110338,((((7_0_6:0.00012149,((7_0_1:0.00000093,7_0_7:0.00000005):0.00000150,((7_0_3:0.00000464,7_0_12:0.00000007):0.00000071,7_0_8:0.00000005):0.00000009):0.00000236):0.00007702,(7_0_2:0.00000001,7_0_10:0.00000007):0.00000497):0.00000027,((7_0_9:0.00000149,7_0_13:0.00000024):0.00000181,(7_0_4:0.00000029,7_0_5:0.00000019):0.00000081):0.00001181):0.00000873,((7_0_11:0.00000453,7_0_14:0.00006276):0.00000966,7_0_0:0.00003863):0.00000001):0.00085275):0.00228404,(3_0_12:0.00020586,(((3_0_4:0.00001355,(3_0_1:0.00001105,3_0_14:0.00000062):0.00000002):0.00001340,(3_0_7:0.00001208,3_0_6:0.00000171):0.00000496):0.00004599,(((3_0_10:0.00000040,3_0_13:0.00000171):0.00000232,(3_0_0:0.00000339,3_0_9:0.00000001):0.00000045):0.00000937,((3_0_8:0.00000008,(3_0_2:0.00000001,3_0_5:0.00000039):0.00000032):0.00003335,(3_0_11:0.00005495,3_0_3:0.00000148):0.00000182):0.00000133):0.00007336):0.00001921):0.00014843):0.00774604,((((8_0_2:0.00001830,(((8_0_12:0.00000257,(8_0_9:0.00000024,8_0_13:0.00000008):0.00000004):0.00000090,(8_0_4:0.00000164,(8_0_14:0.00000361,8_0_8:0.00000056):0.00000002):0.00000615):0.00001347,((8_0_6:0.00000100,8_0_7:0.00001073):0.00000062,(8_0_1:0.00000085,8_0_3:0.00000177):0.00000077):0.00000200):0.00001940):0.00003595,8_0_0:0.00013875):0.00038977,((8_0_11:0.00000406,8_0_5:0.00000765):0.00000787,8_0_10:0.00007232):0.00000002):0.00778803,((((1_0_14:0.00000717,1_0_9:0.00002736):0.00000994,(1_0_5:0.00000531,1_0_8:0.00000822):0.00001037):0.00004619,((1_0_7:0.00004394,(1_0_0:0.00001138,1_0_10:0.00000442):0.00004280):0.00009764,((1_0_6:0.00000082,1_0_2:0.00000146):0.00000138,(1_0_13:0.00000114,1_0_3:0.00000019):0.00000000):0.00000096):0.00000061):0.00000431,(1_0_4:0.00000175,(1_0_1:0.00000005,(1_0_11:0.00001827,1_0_12:0.00000019):0.00000461):0.00000087):0.00000003):0.00948775):0.02836636):0.03205521):0.06599574);
[TREE] T05 ((((((9_0_1:0.00002132,9_0_2:0.00001632):0.00001216,(9_0_4:0.00000642,9_0_3:0.00000399):0.00000132):0.00000001,(9_0_9:0.00004168,(9_0_0:0.00000766,(9_0_14:0.00000217,(9_0_12:0.00000263,((9_0_8:0.00000377,((9_0_5:0.00000000,9_0_6:0.00000131):0.00000001,9_0_11:0.00000243):0.00000026):0.00000086,(9_0_7:0.00000096,(9_0_13:0.00000062,9_0_10:0.00000027):0.00000002):0.00000701):0.00000515):0.00000004):0.00000098):0.00001592):0.00000693):0.02535036,(((11_0_3:0.00003313,(((11_0_0:0.00000029,11_0_12:0.00000112):0.00000093,(11_0_4:0.00000310,11_0_8:0.00000006):0.00000640):0.00015629,((11_0_5:0.00000205,11_0_11:0.00001264):0.00000078,(11_0_9:0.00000820,11_0_6:0.00000001):0.00000967):0.00001782):0.00002706):0.00000116,(11_0_1:0.00014338,((11_0_14:0.00000075,(11_0_10:0.00000112,11_0_7:0.00000106):0.00000000):0.00000848,(11_0_2:0.00000000,11_0_13:0.00000002):0.00000399):0.00001081):0.00001588):0.03280455,(((((10_0_10:0.00000010,10_0_0:0.00000123):0.00001893,((10_0_1:0.00000017,10_0_11:0.00000003):0.00001136,((10_0_2:0.00001125,10_0_5:0.00000394):0.00000059,10_0_6:0.00000917):0.00000039):0.00000072):0.00000679,(10_0_14:0.00010604,(((10_0_3:0.00000009,10_0_13:0.00000033):0.00001112,10_0_4:0.00001070):0.00002542,(10_0_12:0.00000005,10_0_9:0.00000552):0.00000397):0.00000893):0.00000627):0.00000027,10_0_7:0.00000038):0.00005913,10_0_8:0.00070171):0.02883221):0.02191348):0.00152167,(((((((((5_0_8:0.00000104,5_0_0:0.00002125):0.00044475,((5_0_12:0.00000026,5_0_6:0.00000372):0.00005544,((5_0_1:0.00000612,5_0_14:0.00000013):0.00000010,(((5_0_4:0.00000116,5_0_2:0.00000001):0.00000361,5_0_9:0.00000367):0.00000070,(5_0_10:0.00000024,(5_0_11:0.00000155,(5_0_7:0.00000052,5_0_5:0.00001720):0.00000130):0.00000003):0.00000467):0.00000000):0.00000352):0.00000221):0.00005712,(5_0_13:0.00000000,5_0_3:0.00000004):0.00007045):0.00005046,((((4_0_0:0.00000276,4_0_6:0.00000006):0.00000065,(4_0_8:0.00001634,((4_0_3:0.00000000,4_0_14:0.00000004):0.00006409,(4_0_11:0.00000682,4_0_1:0.00000391):0.00000126):0.00000129):0.00000115):0.00002336,(4_0_10:0.00000002,((4_0_12:0.00000011,4_0_5:0.00000000):0.00000323,(4_0_2:0.00000001,4_0_13:0.00000000):0.00000000):0.00000489):0.00001609):0.00000648,(4_0_4:0.00004453,(4_0_7:0.00000252,4_0_9:0.00000537):0.00004167):0.00000008):0.00100483):0.00299327,(((6_0_7:0.00021793,(6_0_6:0.00001504,(6_0_14:0.00000006,6_0_3:0.00000009):0.00000262):0.00006067):0.00000186,((6_0_4:0.00000180,(6_0_8:0.00000004,6_0_12:0.00000301):0.00000002):0.00006272,(6_0_1:0.00000011,6_0_13:0.00000000):0.00001069):0.00002196):0.00003611,(((6_0_10:0.00000491,(6_0_5:0.00000196,6_0_0:0.00000108):0.00000335):0.00000939,(6_0_11:0.00000040,6_0_2:0.00000069):0.00000343):0.00000384,6_0_9:0.00000130):0.00009756):0.00033079):0.00449015,((2_0_6:0.00004182,2_0_10:0.00000415):0.00000475,(((2_0_0:0.00000073,2_0_8:0.00000001):0.00000011,(2_0_2:0.00000041,2_0_4:0.00000010):0.00000006):0.00000295,(((2_0_5:0.00000011,2_0_1:0.00000192):0.00000002,2_0_13:0.00000893):0.00000035,(2_0_9:0.00005034,((2_0_11:0.00000001,2_0_12:0.00000041):0.00002739,(2_0_7:0.00000265,(2_0_3:0.00000003,2_0_14:0.00000021):0.00000671):0.00000686):0.00000009):0.00000921):0.00005652):0.00000763):0.00085537):0.01397701,(((7_0_0:0.00000011,(7_0_12:0.00000422,7_0_7:0.00000037):0.00001119):0.00000167,(7_0_14:0.00000000,7_0_6:0.00000860):0.00000400):0.00000001,(((7_0_13:0.00000003,7_0_9:0.00000659):0.00001825,7_0_10:0.00002349):0.00000373,((7_0_1:0.00000868,7_0_5:0.00001186):0.00000002,(7_0_11:0.00007246,((7_0_4:0.00000030,(7_0_3:0.00000000,7_0_2:0.00000001):0.00000791):0.00000080,7_0_8:0.00001941):0.00001764):0.00000193):0.00000310):0.00002353):0.00021487):0.02607916,(3_0_6:0.00000858,((((3_0_4:0.00003540,((3_0_12:0.00000016,(3_0_1:0.00000030,(3_0_2:0.00000002,3_0_11:0.00000019):0.00000035):0.00000018):0.00000006,3_0_8:0.00002181):0.00000612):0.00000713,3_0_14:0.00024461):0.00002347,(3_0_3:0.00000940,3_0_0:0.00001764):0.00002529):0.00010407,((3_0_7:0.00001248,(3_0_9:0.00000092,3_0_13:0.00000110):0.00000137):0.00001388,(3_0_5:0.00000498,3_0_10:0.00001143):0.00006243):0.00004061):0.00007762):0.00183166):0.00456176,(((1_0_7:0.00015343,(1_0_0:0.00001114,(1_0_10:0.00000053,(1_0_8:0.00000000,1_0_4:0.00000046):0.00000001):0.00000261):0.00000009):0.00120943,(((1_0_11:0.00000001,1_0_14:0.00000006):0.00000318,1_0_13:0.00000007):0.00001196,((1_0_5:0.00000002,1_0_2:0.00000041):0.00000713,(((1_0_1:0.00000347,1_0_9:0.00000356):0.00000163,1_0_12:0.00000630):0.00000071,(1_0_3:0.00005244,1_0_6:0.00000182):0.00000385):0.00004971):0.00015781):0.00002648):0.00003508,((((((8_0_7:0.00000781,(8_0_8:0.00000197,8_0_0:0.00000065):0.00000108):0.00000127,8_0_9:0.00005856):0.00002366,(8_0_5:0.00001170,8_0_6:0.00000023):0.00003481):0.00000001,((8_0_3:0.00000053,((8_0_1:0.00000208,(8_0_13:0.00000004,8_0_12:0.00000005):0.00000087):0.00000171,8_0_14:0.00000200):0.00000089):0.00000752,8_0_2:0.00000707):0.00001994):0.00002520,8_0_4:0.00000378):0.00000073,(8_0_10:0.00006289,8_0_11:0.00004942):0.00005788):0.03262112):0.05111692):0.00891212):0.15262114,0_0_0:0.00907706);
[TREE] T06 ((((((((((8_0_4:0.00000000,8_0_3:0.00000037):0.00000061,8_0_2:0.00000026):0.00000240,(8_0_12:0.00001173,(8_0_9:0.00000776,8_0_0:0.00001365):0.00000000):0.00000065):0.00000776,((8_0_14:0.00000013,8_0_6:0.00001231):0.00001340,(8_0_5:0.00000004,(8_0_10:0.00000109,8_0_7:0.00000465):0.00000011):0.00000976):0.00000170):0.00000143,((8_0_11:0.00000001,8_0_8:0.00000553):0.00015778,8_0_1:0.00000006):0.00000122):0.00000022,8_0_13:0.00001436):0.00195372,(1_0_9:0.00016446,(1_0_3:0.00003744,((1_0_13:0.00000004,1_0_6:0.00001316):0.00005899,(((((1_0_12:0.00000215,1_0_10:0.00000001):0.00001574,(1_0_0:0.00000130,1_0_14:0.00000179):0.00000009):0.00000264,1_0_11:0.00000005):0.00000207,((1_0_2:0.00000000,1_0_4:0.00000005):0.00000935,(1_0_5:0.00000002,1_0_8:0.00000364):0.00000314):0.00000011):0.00000040,(1_0_1:0.00001273,1_0_7:0.00001410):0.00001311):0.00001995):0.00004703):0.00021916):0.01682101):0.00014888,((((((3_0_14:0.00000021,3_0_4:0.00000003):0.00000001,3_0_6:0.00000139):0.00006080,((3_0_2:0.00000045,((3_0_13:0.00000001,3_0_11:0.00000000):0.00000004,3_0_8:0.00000391):0.00000001):0.00000214,(3_0_1:0.00000013,3_0_0:0.00002535):0.00001453):0.00000816):0.00000013,3_0_7:0.00006247):0.00005181,(((3_0_3:0.00000036,3_0_12:0.00000663):0.00000380,(3_0_10:0.00000097,3_0_9:0.00000030):0.00000399):0.00001569,3_0_5:0.00012996):0.00000372):0.00793741,((((7_0_14:0.00004033,7_0_8:0.00001403):0.00000250,(7_0_13:0.00000202,((7_0_11:0.00000030,7_0_5:0.00000092):0.00001713,(((7_0_3:0.00000649,7_0_7:0.00000024):0.00000390,(7_0_0:0.00000621,7_0_12:0.00000166):0.00000687):0.00000647,((7_0_4:0.00000108,7_0_9:0.00000156):0.00000205,7_0_2:0.00000008):0.00004544):0.00000362):0.00000116):0.00000141):0.00013699,(7_0_6:0.00000247,(7_0_1:0.00000010,7_0_10:0.00000043):0.00000163):0.00016126):0.00131380,((((2_0_14:0.00002059,2_0_8:0.00000088):0.00000967,(2_0_2:0.00000168,(2_0_11:0.00000065,(2_0_13:0.00000396,(2_0_3:0.00000003,2_0_12:0.00000074):0.00000000):0.00000530):0.00001673):0.00000376):0.00002219,(((((2_0_9:0.00000010,2_0_10:0.00000000):0.00005331,2_0_6:0.00000101):0.00000218,2_0_0:0.00001541):0.00000502,((2_0_5:0.00000068,2_0_7:0.00001134):0.00000000,2_0_1:0.00000020):0.00000214):0.00000860,2_0_4:0.00006569):0.00004862):0.01404020,(((6_0_10:0.00000079,(6_0_5:0.00000101,((6_0_3:0.00000376,6_0_4:0.00002520):0.00000091,(6_0_7:0.00000002,(6_0_1:0.00000065,6_0_6:0.00000002):0.00000008):0.00000018):0.00000030):0.00000001):0.00008205,((6_0_14:0.00000558,((6_0_12:0.00000876,6_0_9:0.00001097):0.00000349,(6_0_13:0.00000010,(6_0_2:0.00000074,6_0_8:0.00000013):0.00002849):0.00000008):0.00000081):0.00000233,(6_0_0:0.00000010,6_0_11:0.00000043):0.00000121):0.00010166):0.00129737,(((((4_0_2:0.00000031,(4_0_0:0.00001616,4_0_7:0.00001856):0.00000012):0.00000000,((4_0_5:0.00000465,(4_0_4:0.00000007,4_0_6:0.00000001):0.00000289):0.00000026,(4_0_14:0.00001650,4_0_11:0.00000099):0.00000110):0.00000770):0.00000097,(4_0_13:0.00000093,4_0_8:0.00000044):0.00001289):0.00001352,(4_0_3:0.00002267,((4_0_9:0.00003155,4_0_1:0.00001521):0.00000784,(4_0_12:0.00000945,4_0_10:0.00000004):0.00000135):0.00001703):0.00007945):0.00030188,(5_0_4:0.00000156,(((((5_0_12:0.00000288,5_0_3:0.00000001):0.00000002,(5_0_5:0.00001893,5_0_6:0.00000266):0.00000051):0.00000212,5_0_9:0.00012063):0.00001530,((5_0_11:0.00000199,(5_0_10:0.00000048,5_0_1:0.00000001):0.00000131):0.00000070,(5_0_7:0.00003156,(5_0_14:0.00000014,(5_0_8:0.00002139,5_0_2:0.00000001):0.00000119):0.00000757):0.00002107):0.00007747):0.00000003,(5_0_13:0.00000127,5_0_0:0.00018006):0.00007123):0.00002734):0.00009758):0.00030244):0.00012816):0.04533274):0.00490542):0.00715463):0.11339235,((((9_0_11:0.00000140,9_0_9:0.00000165):0.00000021,9_0_0:0.00001026):0.00038813,((((9_0_14:0.00000486,(9_0_12:0.00000041,9_0_7:0.00000000):0.00000022):0.00000100,(9_0_5:0.00001441,9_0_4:0.00000080):0.00000894):0.00000270,9_0_8:0.00000141):0.00000671,(9_0_6:0.00004223,(((9_0_1:0.00000053,9_0_2:0.00000104):0.00001611,(9_0_10:0.00000555,9_0_3:0.00000201):0.00000000):0.00001177,9_0_13:0.00000001):0.00000054):0.00000000):0.00003416):0.04680498,((((11_0_12:0.00002894,(11_0_14:0.00000000,(11_0_9:0.00000030,11_0_1:0.00000002):0.00000115):0.00000336):0.00000002,((11_0_8:0.00000019,11_0_3:0.00000000):0.00000083,11_0_4:0.00001668):0.00000000):0.00000002,((((11_0_2:0.00000000,(11_0_13:0.00000237,11_0_5:0.00000202):0.00000000):0.00000437,11_0_10:0.00000183):0.00000105,(11_0_6:0.00001370,(11_0_0:0.00000001,11_0_7:0.00000076):0.00000217):0.00001938):0.00000539,11_0_11:0.00000013):0.00010937):0.00888655,((10_0_7:0.00001612,((10_0_4:0.00000038,10_0_0:0.00000007):0.00000477,10_0_13:0.00000898):0.00003741):0.00000481,((10_0_12:0.00009230,10_0_10:0.00000316):0.00001115,(10_0_1:0.00000024,(((10_0_14:0.00000071,10_0_6:0.00000032):0.00000370,10_0_11:0.00000009):0.00001039,(10_0_9:0.00000122,((10_0_2:0.00000180,(10_0_3:0.00000000,10_0_5:0.00000011):0.00000183):0.00000054,10_0_8:0.00002554):0.00000470):0.00000023):0.00000285):0.00000181):0.00017780):0.06550142):0.01764458):0.03566213):0.00190148,0_0_0:0.00771593);
[TREE] T07 ((((((((3_0_1:0.00000010,3_0_5:0.00000001):0.00005533,3_0_9:0.00005381):0.00000198,(((((3_0_3:0.00000011,3_0_12:0.00000047):0.00000252,3_0_7:0.00000318):0.00000001,3_0_10:0.00000951):0.00006343,3_0_0:0.00002352):0.00000268,((3_0_4:0.00000000,(3_0_11:0.00000226,(3_0_6:0.00000012,3_0_8:0.00000120):0.00000098):0.00000136):0.00000002,(3_0_13:0.00000112,3_0_14:0.00002369):0.00000408):0.00000994):0.00016477):0.00000283,3_0_2:0.00024372):0.00004776,((((((6_0_8:0.00000001,6_0_7:0.00001540):0.00003933,(((6_0_6:0.00000036,(6_0_13:0.00000404,6_0_12:0.00000011):0.00000003):0.00000221,6_0_0:0.00001715):0.00000233,(6_0_4:0.00000000,6_0_2:0.00000042):0.00009652):0.00000081):0.00000138,(6_0_10:0.00012791,((6_0_3:0.00002376,6_0_14:0.00001357):0.00000041,(6_0_11:0.00001665,((6_0_1:0.00000013,6_0_9:0.00000001):0.00000009,6_0_5:0.00000289):0.00000442):0.00006869):0.00000577):0.00000776):0.00100588,(((4_0_11:0.00000005,(4_0_3:0.00000215,4_0_14:0.00000182):0.00000248):0.00000816,((4_0_1:0.00000013,((4_0_7:0.00001876,(4_0_0:0.00000267,4_0_8:0.00000723):0.00000036):0.00000376,4_0_9:0.00004103):0.00004214):0.00000263,(((4_0_5:0.00000217,((4_0_6:0.00000031,4_0_4:0.00000001):0.00000019,4_0_2:0.00000009):0.00000022):0.00000008,4_0_13:0.00000274):0.00000024,(4_0_10:0.00000001,4_0_12:0.00000060):0.00008776):0.00001142):0.00000452):0.00000785,(((5_0_2:0.00000028,(5_0_14:0.00000017,5_0_7:0.00000187):0.00000015):0.00004618,(((5_0_6:0.00000021,5_0_5:0.00000071):0.00001717,5_0_0:0.00000040):0.00000000,5_0_9:0.00000398):0.00002450):0.00000001,((((5_0_8:0.00000935,5_0_3:0.00000106):0.00000018,5_0_4:0.00003714):0.00001369,((5_0_12:0.00000010,5_0_1:0.00000589):0.00000003,5_0_13:0.00000079):0.00016185):0.00000770,(5_0_10:0.00000564,5_0_11:0.00001351):0.00001816):0.00009579):0.00000261):0.01238701):0.00039098,(((2_0_2:0.00000105,(2_0_8:0.00000005,(2_0_0:0.00000012,2_0_4:0.00000024):0.00000015):0.00000166):0.00001278,(2_0_13:0.00000002,2_0_1:0.00000134):0.00000000):0.00000000,(((2_0_9:0.00000035,(2_0_12:0.00000001,2_0_3:0.00000022):0.00000916):0.00000012,(2_0_6:0.00001066,2_0_11:0.00002300):0.00002422):0.00026698,(2_0_5:0.00001918,(2_0_10:0.00000304,(2_0_14:0.00000001,2_0_7:0.00000054):0.00001354):0.00002007):0.00002459):0.00000051):0.00032716):0.00566319,(((7_0_10:0.00000000,7_0_8:0.00000712):0.00001022,((7_0_4:0.00000002,7_0_9:0.00000311):0.00000001,(7_0_3:0.00001831,7_0_0:0.00000287):0.00000044):0.00001409):0.00017168,((7_0_14:0.00000060,(7_0_5:0.00000209,(7_0_13:0.00000073,7_0_11:0.00000273):0.00000034):0.00003889):0.00000544,(((7_0_12:0.00000142,7_0_1:0.00000469):0.00000036,7_0_6:0.00000000):0.00002475,(7_0_2:0.00001214,7_0_7:0.00006351):0.00003001):0.00001660):0.00000872):0.01737530):0.00119407):0.01428529,((1_0_13:0.00026217,(((1_0_2:0.00000019,1_0_3:0.00000000):0.00000223,(1_0_5:0.00000349,1_0_11:0.00000387):0.00000647):0.00000239,((1_0_9:0.00004304,(1_0_0:0.00000143,(((1_0_1:0.00000000,1_0_7:0.00000026):0.00002221,1_0_6:0.00000006):0.00000011,((1_0_4:0.00000002,1_0_8:0.00000002):0.00000978,(1_0_14:0.00000044,1_0_10:0.00000001):0.00000023):0.00000229):0.00000847):0.00002739):0.00000030,1_0_12:0.00001293):0.00000344):0.00005627):0.00249519,((((8_0_12:0.00000553,8_0_5:0.00000262):0.00004420,((8_0_8:0.00001269,8_0_7:0.00000491):0.00000059,(8_0_1:0.00000089,((8_0_0:0.00000000,8_0_4:0.00002936):0.00000331,((8_0_2:0.00000017,8_0_13:0.00000045):0.00000008,((8_0_9:0.00000387,8_0_3:0.00000132):0.00000001,8_0_11:0.00000580):0.00000064):0.00000032):0.00000639):0.00000427):0.00000075):0.00007844,(8_0_10:0.00004866,8_0_14:0.00007058):0.00014659):0.00035186,8_0_6:0.00000558):0.00175099):0.00043962):0.01897213,(((((9_0_2:0.00002667,(((9_0_0:0.00000032,9_0_3:0.00000056):0.00000367,9_0_1:0.00000786):0.00000776,9_0_11:0.00001322):0.00000011):0.00000272,(9_0_9:0.00000049,9_0_4:0.00000010):0.00004065):0.00000017,(9_0_12:0.00000001,9_0_5:0.00001763):0.00007785):0.00001815,((((9_0_13:0.00000283,9_0_7:0.00000077):0.00000005,9_0_14:0.00000200):0.00000239,(9_0_8:0.00000064,9_0_6:0.00000138):0.00007631):0.00012962,9_0_10:0.00019993):0.00008781):0.05708218,(((((11_0_1:0.00000862,11_0_14:0.00000804):0.00001027,(11_0_8:0.00000003,11_0_9:0.00000022):0.00001638):0.00001371,(((11_0_6:0.00000104,(11_0_2:0.00000386,11_0_7:0.00000118):0.00000002):0.00000081,(11_0_4:0.00000040,11_0_5:0.00000395):0.00000443):0.00000727,(11_0_12:0.00001206,11_0_0:0.00000892):0.00000015):0.00005945):0.00033956,((11_0_13:0.00000037,(11_0_3:0.00000119,11_0_10:0.00000008):0.00001333):0.00000000,11_0_11:0.00000224):0.00026919):0.00018419,(((10_0_11:0.00000009,10_0_12:0.00000002):0.00005702,10_0_13:0.00001991):0.00025173,((10_0_14:0.00000009,((10_0_6:0.00000060,10_0_4:0.00000265):0.00000001,(10_0_1:0.00000160,(10_0_5:0.00000063,10_0_0:0.00000005):0.00000332):0.00001190):0.00000306):0.00001215,((((10_0_10:0.00000202,10_0_2:0.00000047):0.00000014,10_0_3:0.00000517):0.00000269,(10_0_7:0.00000053,10_0_9:0.00000112):0.00000012):0.00000438,10_0_8:0.00000068):0.00000268):0.00003135):0.01399260):0.03382461):0.04839384):0.00757300,0_0_0:0.00022424);
[TREE] T08 (((((9_0_7:0.00002989,(9_0_8:0.00008030,((9_0_5:0.00000298,9_0_10:0.00000306):0.00003929,(9_0_0:0.00000056,9_0_12:0.00000132):0.00000087):0.00000566):0.00000067):0.00006257,(((9_0_11:0.00001491,9_0_2:0.00000361):0.00000000,(9_0_6:0.00000000,((9_0_9:0.00000000,9_0_4:0.00000002):0.00000009,9_0_3:0.00000480):0.00000256):0.00000696):0.00015382,(9_0_1:0.00000252,(9_0_13:0.00000000,9_0_14:0.00000038):0.00000004):0.00000563):0.00003223):0.00460549,(((11_0_13:0.00000012,(((11_0_9:0.00000513,11_0_1:0.00000125):0.00001703,((11_0_4:0.00000000,11_0_2:0.00000052):0.00000039,11_0_12:0.00000002):0.00000868):0.00000700,((11_0_5:0.00001401,11_0_14:0.00000297):0.00000009,(11_0_0:0.00001627,(11_0_11:0.00000029,11_0_3:0.00000094):0.00000917):0.00000204):0.00005034):0.00001564):0.00000818,((11_0_6:0.00000162,11_0_8:0.00000018):0.00000475,(11_0_7:0.00000284,11_0_10:0.00000682):0.00000045):0.00074511):0.01267492,((10_0_2:0.00000175,10_0_6:0.00000322):0.00000083,((10_0_12:0.00000001,10_0_11:0.00000869):0.00000168,((((10_0_14:0.00000154,10_0_5:0.00000009):0.00000020,(10_0_3:0.00000013,10_0_9:0.00000138):0.00000421):0.00000000,((10_0_0:0.00000001,10_0_8:0.00000005):0.00000458,(10_0_13:0.00000012,(10_0_4:0.00000009,(10_0_10:0.00000000,10_0_1:0.00000046):0.00000056):0.00000353):0.00000003):0.00000050):0.00004444,10_0_7:0.00001711):0.00001368):0.00001328):0.00297220):0.02232150):0.04435806,(((((7_0_10:0.00000017,7_0_2:0.00000007):0.00001006,(((((7_0_8:0.00000057,7_0_6:0.00000139):0.00000187,7_0_7:0.00002514):0.00000261,7_0_3:0.00000456):0.00000003,((7_0_1:0.00000007,7_0_14:0.00000277):0.00000775,(7_0_12:0.00000916,7_0_13:0.00000001):0.00003760):0.00001321):0.00000286,(7_0_4:0.00002270,((7_0_9:0.00000177,7_0_0:0.00000193):0.00000082,(7_0_5:0.00000003,7_0_11:0.00000444):0.00003130):0.00000039):0.00000032):0.00000006):0.00007718,((((((6_0_12:0.00000245,((6_0_6:0.00000517,(6_0_2:0.00000000,6_0_7:0.00000089):0.00000022):0.00000358,(6_0_1:0.00000105,6_0_0:0.00000009):0.00000000):0.00000016):0.00000060,6_0_10:0.00000107):0.00001598,((((6_0_3:0.00000082,6_0_5:0.00000036):0.00000150,6_0_8:0.00000912):0.00000007,6_0_14:0.00003054):0.00000000,6_0_9:0.00003349):0.00000000):0.00015753,((6_0_4:0.00000201,6_0_11:0.00000000):0.00003963,6_0_13:0.00000029):0.00000429):0.00672522,(((((4_0_7:0.00000000,4_0_12:0.00001080):0.00000182,(4_0_13:0.00000810,4_0_4:0.00000035):0.00000189):0.00001425,(4_0_6:0.00000015,4_0_1:0.00000023):0.00003189):0.00000385,((4_0_8:0.00001536,(4_0_10:0.00000011,4_0_14:0.00000000):0.00009845):0.00000018,((4_0_5:0.00000248,(4_0_9:0.00000012,4_0_3:0.00001590):0.00000071):0.00000179,(4_0_2:0.00000546,(4_0_11:0.00000075,4_0_0:0.00000035):0.00001109):0.00000000):0.00003160):0.00000192):0.00013481,(5_0_8:0.00016053,((((5_0_11:0.00001378,(5_0_1:0.00000002,(5_0_4:0.00000091,(5_0_14:0.00000000,5_0_7:0.00000002):0.00000171):0.00000074):0.00000042):0.00000018,((5_0_6:0.00000060,5_0_10:0.00002244):0.00000065,(5_0_9:0.00000001,5_0_13:0.00001193):0.00002103):0.00000015):0.00000631,((5_0_0:0.00000251,5_0_2:0.00000000):0.00001163,5_0_5:0.00000398):0.00001221):0.00000003,(5_0_3:0.00000103,5_0_12:0.00000016):0.00000039):0.00000000):0.00000030):0.00012948):0.00009226,((2_0_7:0.00004800,(((2_0_10:0.00001430,(2_0_12:0.00000066,2_0_6:0.00000148):0.00000018):0.00000053,2_0_5:0.00000000):0.00000107,((2_0_4:0.00000000,2_0_2:0.00000001):0.00000038,2_0_11:0.00001518):0.00002882):0.00000010):0.00001503,((2_0_3:0.00006213,((2_0_8:0.00000011,2_0_0:0.00000008):0.00000103,(2_0_9:0.00000007,2_0_1:0.00000042):0.00000061):0.00000092):0.00000009,(2_0_14:0.00000369,2_0_13:0.00000442):0.00021515):0.00000925):0.00157470):0.01161258):0.00251182,(((((3_0_12:0.00000396,(3_0_0:0.00000145,3_0_8:0.00000064):0.00000002):0.00000005,3_0_10:0.00000020):0.00000029,(3_0_9:0.00000069,3_0_14:0.00000017):0.00000098):0.00000217,((((3_0_2:0.00000363,(3_0_5:0.00000003,3_0_6:0.00000003):0.00000003):0.00000000,(3_0_13:0.00000011,3_0_1:0.00003022):0.00000136):0.00000345,3_0_11:0.00000670):0.00001603,(3_0_3:0.00006723,3_0_7:0.00000091):0.00001263):0.00000147):0.00025289,3_0_4:0.00048041):0.02230001):0.00021662,(((((8_0_6:0.00000498,8_0_8:0.00000527):0.00000000,8_0_7:0.00001500):0.00001210,((8_0_3:0.00000001,8_0_1:0.00000061):0.00000776,8_0_11:0.00000151):0.00000070):0.00002555,(((8_0_12:0.00000769,(8_0_10:0.00000022,8_0_4:0.00000061):0.00000278):0.00000034,8_0_0:0.00000000):0.00000921,(((8_0_9:0.00000160,8_0_14:0.00000001):0.00000160,8_0_2:0.00000117):0.00000175,(8_0_13:0.00000533,8_0_5:0.00000016):0.00000007):0.00000044):0.00000903):0.00919815,(((((1_0_4:0.00000021,1_0_3:0.00000002):0.00000486,(1_0_6:0.00000004,1_0_5:0.00000001):0.00000156):0.00000461,(1_0_13:0.00000056,1_0_8:0.00000098):0.00002634):0.00000000,1_0_0:0.00000553):0.00030828,((1_0_12:0.00000259,1_0_7:0.00000129):0.00000031,((1_0_1:0.00000110,(1_0_2:0.00000007,1_0_9:0.00001233):0.00000948):0.00000005,(1_0_14:0.00000651,(1_0_11:0.00000461,1_0_10:0.00000852):0.00000000):0.00000456):0.00000353):0.00000182):0.02241048):0.00022031):0.12929483):0.02127105,0_0_0:0.05716521);
[TREE] T09 (((((((((8_0_8:0.00000000,8_0_6:0.00000005):0.00000199,8_0_12:0.00000010):0.00000346,(8_0_14:0.00000051,(8_0_10:0.00000039,8_0_2:0.00001829):0.00000008):0.00000008):0.00001006,(8_0_1:0.00000974,8_0_5:0.00000051):0.00000545):0.00012540,((8_0_0:0.00000126,(8_0_13:0.00000608,8_0_3:0.00000113):0.00000804):0.00009190,(8_0_11:0.00004156,(8_0_9:0.00000000,(8_0_7:0.00000003,8_0_4:0.00000016):0.00000247):0.00000628):0.00000254):0.00000003):0.00497641,(((1_0_4:0.00000201,((1_0_1:0.00000001,1_0_10:0.00002123):0.00000074,1_0_0:0.00000003):0.00000545):0.00000510,(((1_0_7:0.00000288,1_0_14:0.00000002):0.00000035,(1_0_9:0.00000019,1_0_3:0.00000000):0.00000025):0.00001201,1_0_11:0.00000070):0.00000302):0.00000235,((1_0_6:0.00000007,1_0_5:0.00000898):0.00000002,(1_0_8:0.00000640,(1_0_13:0.00000059,(1_0_12:0.00000004,1_0_2:0.00000013):0.00000013):0.00000540):0.00000860):0.00013410):0.00010333):0.04253018,((((3_0_1:0.00000012,3_0_8:0.00000052):0.00000034,((3_0_14:0.00000170,3_0_13:0.00001290):0.00000008,(3_0_2:0.00000021,3_0_7:0.00000096):0.00002131):0.00002364):0.00000032,((3_0_4:0.00002457,3_0_0:0.00000545):0.00002224,(((3_0_12:0.00000006,3_0_11:0.00000080):0.00000753,((3_0_10:0.00000027,3_0_9:0.00000001):0.00000798,3_0_3:0.00000144):0.00000164):0.00000023,(3_0_5:0.00004043,3_0_6:0.00000227):0.00000888):0.00000082):0.00002602):0.00721581,(((2_0_3:0.00000003,(((2_0_4:0.00000451,(2_0_10:0.00000479,(2_0_14:0.00001632,(2_0_11:0.00000332,2_0_0:0.00000004):0.00000067):0.00000000):0.00000114):0.00000009,(2_0_6:0.00002101,(2_0_12:0.00004236,(2_0_1:0.00000017,2_0_13:0.00000354):0.00001413):0.00000098):0.00000002):0.00000022,(((2_0_2:0.00000021,2_0_8:0.00000012):0.00000000,2_0_7:0.00000082):0.00000265,(2_0_9:0.00000012,2_0_5:0.00000019):0.00001519):0.00002108):0.00000480):0.00158699,((((6_0_13:0.00000076,6_0_8:0.00000057):0.00000409,6_0_9:0.00000094):0.00000063,((6_0_4:0.00000104,(6_0_14:0.00000001,6_0_11:0.00000035):0.00000041):0.00003942,((((6_0_0:0.00001270,(6_0_10:0.00000002,6_0_1:0.00000028):0.00000052):0.00000029,6_0_7:0.00000000):0.00002843,(6_0_2:0.00000364,6_0_5:0.00000004):0.00001307):0.00000008,((6_0_12:0.00000010,6_0_3:0.00000010):0.00000508,6_0_6:0.00000816):0.00000578):0.00000173):0.00001000):0.00006356,(((5_0_11:0.00004672,((5_0_12:0.00000010,5_0_4:0.00000004):0.00000002,(5_0_6:0.00000099,5_0_3:0.00000155):0.00000005):0.00021887):0.00002313,(((((5_0_7:0.00000054,5_0_14:0.00000006):0.00000173,5_0_2:0.00000153):0.00004511,(5_0_13:0.00000585,5_0_9:0.00001833):0.00000000):0.00001797,(5_0_0:0.00000099,5_0_10:0.00000103):0.00000574):0.00000136,(5_0_5:0.00001577,(5_0_1:0.00000000,5_0_8:0.00000120):0.00000003):0.00009962):0.00000003):0.00053875,((4_0_5:0.00000006,(4_0_3:0.00001779,(4_0_10:0.00000187,4_0_1:0.00000170):0.00000012):0.00000416):0.00025273,(((4_0_6:0.00000004,4_0_7:0.00000014):0.00000076,(4_0_8:0.00002070,4_0_12:0.00000659):0.00000691):0.00000667,(((4_0_13:0.00000000,(4_0_11:0.00000035,4_0_0:0.00000132):0.00004241):0.00000068,(4_0_2:0.00000006,4_0_14:0.00000000):0.00000003):0.00000268,(4_0_9:0.00000059,4_0_4:0.00002219):0.00000049):0.00008220):0.00000012):0.00125308):0.00330396):0.00014065):0.00124179,(7_0_9:0.00000001,(7_0_3:0.00004145,((((7_0_0:0.00005286,7_0_4:0.00002420):0.00001960,(((7_0_2:0.00003921,7_0_7:0.00000026):0.00000019,(7_0_8:0.00000253,7_0_12:0.00000014):0.00001668):0.00001521,(7_0_10:0.00003855,(7_0_6:0.00000083,7_0_13:0.00000176):0.00000320):0.00005959):0.00000217):0.00001219,(7_0_11:0.00000005,7_0_14:0.00000046):0.00000115):0.00010209,(7_0_1:0.00000009,7_0_5:0.00015304):0.00000038):0.00000229):0.00000495):0.00202806):0.00655576):0.01237936):0.08493381,(((((11_0_4:0.00000001,11_0_2:0.00001064):0.00000082,11_0_9:0.00000002):0.00000284,((((11_0_8:0.00000001,(11_0_6:0.00000080,11_0_3:0.00000006):0.00000002):0.00003008,(11_0_7:0.00000505,11_0_1:0.00001559):0.00000273):0.00004276,(11_0_0:0.00000117,(11_0_5:0.00000171,(11_0_12:0.00000076,11_0_13:0.00000164):0.00001030):0.00000126):0.00007798):0.00006566,(11_0_11:0.00012690,(11_0_14:0.00000048,11_0_10:0.00002987):0.00000045):0.00000498):0.00001907):0.01225044,((((10_0_14:0.00000228,10_0_10:0.00000228):0.00000045,(10_0_12:0.00000020,(10_0_8:0.00000066,(10_0_5:0.00000000,10_0_7:0.00000000):0.00000010):0.00000014):0.00000197):0.00000005,(10_0_0:0.00000002,10_0_1:0.00000082):0.00002150):0.00007734,((10_0_3:0.00000482,10_0_13:0.00004979):0.00000074,((10_0_6:0.00001877,10_0_11:0.00002947):0.00000001,(10_0_2:0.00000000,(10_0_4:0.00000777,10_0_9:0.00000135):0.00000018):0.00000097):0.00003116):0.00000021):0.00059186):0.00224615,(((((9_0_2:0.00000001,(9_0_11:0.00000008,(9_0_6:0.00000001,9_0_12:0.00000000):0.00000186):0.00000200):0.00006635,(9_0_7:0.00000324,9_0_3:0.00000058):0.00000609):0.00000001,(9_0_10:0.00000048,(9_0_1:0.00000571,((9_0_4:0.00000056,9_0_5:0.00000261):0.00002076,9_0_14:0.00000288):0.00000553):0.00000001):0.00002473):0.00001867,9_0_9:0.00000433):0.00001269,((9_0_13:0.00000110,9_0_0:0.00000345):0.00000030,9_0_8:0.00000003):0.00006645):0.02108051):0.22068283):0.02349273,0_0_0:0.03195512);
[TREE] T10 (0_0_0:0.07260116,(((((3_0_12:0.00004990,((3_0_14:0.00000276,(3_0_2:0.00000564,(3_0_4:0.00000171,3_0_7:0.00000002):0.00000048):0.00000346):0.00000294,((3_0_0:0.00000151,((3_0_5:0.00001549,3_0_1:0.00000014):0.00000135,3_0_9:0.00000007):0.00000020):0.00000297,3_0_8:0.00011708):0.00007018):0.00000434):0.00002017,((3_0_3:0.00005188,3_0_10:0.00000158):0.00010957,((3_0_6:0.00000159,3_0_13:0.00000000):0.00003077,3_0_11:0.00000039):0.00001040):0.00000291):0.01350527,(((((7_0_14:0.00000001,7_0_5:0.00000551):0.00000138,7_0_7:0.00000020):0.00000104,(((7_0_1:0.00000000,7_0_11:0.00000002):0.00000035,(7_0_6:0.00000021,(7_0_4:0.00000004,7_0_3:0.00000002):0.00000114):0.00000100):0.00000000,(7_0_12:0.00003348,7_0_0:0.00000481):0.00000000):0.00000000):0.00015385,(((7_0_8:0.00000020,7_0_13:0.00000306):0.00001037,7_0_2:0.00000315):0.00000000,(7_0_9:0.00000729,7_0_10:0.00000052):0.00000211):0.00000177):0.00779407,(((((2_0_10:0.00000005,2_0_9:0.00000000):0.00001333,(2_0_7:0.00007555,(2_0_11:0.00000000,2_0_8:0.00000087):0.00000983):0.00000011):0.00001142,(((2_0_5:0.00000026,(2_0_12:0.00000015,2_0_3:0.00000003):0.00000009):0.00000400,(2_0_13:0.00001315,2_0_1:0.00000024):0.00000122):0.00000807,(2_0_14:0.00009934,2_0_4:0.00001857):0.00003732):0.00000228):0.00000241,((2_0_0:0.00000176,2_0_6:0.00003185):0.00006537,2_0_2:0.00000037):0.00000506):0.00178029,((((6_0_7:0.00000653,(6_0_3:0.00000000,6_0_12:0.00000041):0.00000216):0.00000011,(6_0_8:0.00000000,((6_0_2:0.00000008,6_0_5:0.00000039):0.00000463,6_0_10:0.00000092):0.00000503):0.00001423):0.00008953,((6_0_0:0.00001993,6_0_14:0.00000442):0.00006505,((6_0_4:0.00002745,6_0_11:0.00000019):0.00000065,(6_0_6:0.00000114,((6_0_1:0.00000016,6_0_9:0.00000004):0.00000010,6_0_13:0.00000549):0.00000012):0.00000002):0.00005959):0.00000105):0.00047145,((4_0_8:0.00000318,((4_0_11:0.00000543,(((4_0_14:0.00000000,(4_0_0:0.00000000,4_0_6:0.00000001):0.00000013):0.00000176,4_0_4:0.00001322):0.00000051,(4_0_7:0.00000033,4_0_2:0.00000000):0.00000437):0.00000093):0.00008386,((((4_0_3:0.00000042,4_0_5:0.00000002):0.00000677,4_0_12:0.00000271):0.00000157,((4_0_10:0.00000045,4_0_13:0.00000000):0.00000109,4_0_9:0.00000228):0.00000002):0.00000606,4_0_1:0.00000127):0.00000560):0.00000697):0.00001194,(((5_0_8:0.00011445,(((5_0_5:0.00001553,5_0_4:0.00000574):0.00000224,(5_0_14:0.00000405,5_0_6:0.00000017):0.00000135):0.00000006,(5_0_13:0.00000001,5_0_0:0.00000000):0.00000011):0.00006079):0.00000023,(5_0_1:0.00000075,5_0_9:0.00004504):0.00005505):0.00000033,(5_0_2:0.00000012,(((5_0_3:0.00000032,5_0_11:0.00000002):0.00000013,5_0_12:0.00000770):0.00000165,(5_0_10:0.00000079,5_0_7:0.00000124):0.00003708):0.00000033):0.00012193):0.00000607):0.00011422):0.00000090):0.00239737):0.00144053):0.02907654,((((1_0_5:0.00000001,1_0_7:0.00000000):0.00000729,1_0_9:0.00000112):0.00003641,((1_0_8:0.00000102,((1_0_11:0.00003610,(1_0_2:0.00000002,1_0_1:0.00000005):0.00000001):0.00000002,(1_0_3:0.00000228,1_0_4:0.00000009):0.00000004):0.00001246):0.00000021,(1_0_13:0.00000606,((1_0_12:0.00002651,1_0_0:0.00001667):0.00000000,(1_0_14:0.00000003,(1_0_6:0.00000037,1_0_10:0.00000000):0.00000085):0.00000324):0.00000000):0.00000001):0.00030620):0.00080353,(((8_0_1:0.00000295,(((8_0_12:0.00000000,8_0_14:0.00000225):0.00000006,8_0_3:0.00000193):0.00000009,(8_0_7:0.00001055,8_0_8:0.00000391):0.00000083):0.00000267):0.00002002,((8_0_9:0.00000006,8_0_11:0.00000098):0.00000086,8_0_4:0.00001158):0.00000566):0.00041471,((8_0_2:0.00000734,8_0_13:0.00000002):0.00009476,((8_0_6:0.00003078,8_0_5:0.00000001):0.00000634,(8_0_0:0.00000015,8_0_10:0.00000169):0.00000007):0.00000005):0.00000218):0.00237320):0.04630632):0.01752502,((((9_0_5:0.00000009,(9_0_0:0.00000121,9_0_3:0.00000001):0.00000003):0.00000003,(((((9_0_7:0.00000002,9_0_6:0.00000013):0.00000289,9_0_4:0.00000738):0.00000657,(9_0_11:0.00000007,9_0_12:0.00000363):0.00000123):0.00000465,9_0_1:0.00000007):0.00000046,(9_0_10:0.00006630,(9_0_13:0.00000388,((9_0_9:0.00000356,9_0_8:0.00000190):0.00000001,9_0_2:0.00000356):0.00000000):0.00000278):0.00001820):0.00000709):0.00011758,9_0_14:0.00001022):0.01122762,((((((((10_0_0:0.00000217,10_0_7:0.00000020):0.00000245,10_0_1:0.00000016):0.00000005,10_0_3:0.00000091):0.00000243,(10_0_11:0.00000184,10_0_5:0.00000429):0.00000049):0.00009844,(10_0_14:0.00000232,10_0_2:0.00000585):0.00000307):0.00000262,10_0_13:0.00014612):0.00002380,((((10_0_4:0.00000010,(10_0_12:0.00000012,10_0_10:0.00000004):0.00000121):0.00000002,10_0_9:0.00000447):0.00000950,10_0_8:0.00000227):0.00003222,10_0_6:0.00002656):0.00000115):0.00392669,((((11_0_10:0.00000184,11_0_11:0.00000001):0.00000000,11_0_1:0.00000260):0.00000003,(11_0_7:0.00000794,(11_0_3:0.00000001,11_0_0:0.00000000):0.00000004):0.00001345):0.00005880,(((11_0_9:0.00000000,11_0_14:0.00000010):0.00000006,(11_0_12:0.00003143,((11_0_5:0.00000042,11_0_6:0.00000006):0.00003085,(11_0_13:0.00000000,11_0_4:0.00000904):0.00001857):0.00001740):0.00001127):0.00001176,(11_0_8:0.00000080,11_0_2:0.00000075):0.00000374):0.00000033):0.01237743):0.00369632):0.10201635):0.05166584);

[PARTITIONS] csSimUnlinked_01 [T01 csSim_unlinked_1 500]
[PARTITIONS] csSimUnlinked_02 [T02 csSim_unlinked_2 500]
[PARTITIONS] csSimUnlinked_03 [T03 csSim_unlinked_3 500]
[PARTITIONS] csSimUnlinked_04 [T04 csSim_unlinked_4 500]
[PARTITIONS] csSimUnlinked_05 [T05 csSim_unlinked_5 500]
[PARTITIONS] csSimUnlinked_06 [T06 csSim_unlinked_6 500]
[PARTITIONS] csSimUnlinked_07 [T07 csSim_unlinked_7 500]
[PARTITIONS] csSimUnlinked_08 [T08 csSim_unlinked_8 500]
[PARTITIONS] csSimUnlinked_09 [T09 csSim_unlinked_9 500]
[PARTITIONS] csSimUnlinked_10 [T10 csSim_unlinked_10 500]

[EVOLVE] csSimUnlinked_01 1 data_01
csSimUnlinked_02 1 data_02
csSimUnlinked_03 1 data_03
csSimUnlinked_04 1 data_04
csSimUnlinked_05 1 data_05
csSimUnlinked_06 1 data_06
csSimUnlinked_07 1 data_07
csSimUnlinked_08 1 data_08
csSimUnlinked_09 1 data_09
csSimUnlinked_10 1 data_10
