"","Description","Ind1","Ind2","Ind3","Ind4","Ind5","Ind6","Ind7","Ind8","Ind9","Ind10","Ind11","Ind12","Ind13","Ind14","Ind15","Ind16","Ind17","Ind18","Ind19","Ind20","Ind21","Ind22","Ind23","Ind24","Ind25","Ind26","Ind27","Ind28","Ind29","Ind30","Ind31","Ind32","Ind33","Ind34","Ind35","Ind36","Ind37","Ind38","Ind39","Ind40","Ind41","Ind42","Ind43","Ind44","Ind45","Ind46"
"Ind1","0_0_0",-1,0,0,0,0,0,0,0,0,0,0,0,0,0,0,0,0,0,0,0,0,0,0,0,0,0,0,0,0,0,0,0,0,0,0,0,0,0,0,0,0,0,0,0,0,0
"Ind2","12_0_2",85,-1,0,0,0,0,0,0,0,0,0,0,0,0,0,0,0,0,0,0,0,0,0,0,0,0,0,0,0,0,0,0,0,0,0,0,0,0,0,0,0,0,0,0,0,0
"Ind3","12_0_1",85,0,-1,0,0,0,0,0,0,0,0,0,0,0,0,0,0,0,0,0,0,0,0,0,0,0,0,0,0,0,0,0,0,0,0,0,0,0,0,0,0,0,0,0,0,0
"Ind4","12_0_0",85,0,0,-1,0,0,0,0,0,0,0,0,0,0,0,0,0,0,0,0,0,0,0,0,0,0,0,0,0,0,0,0,0,0,0,0,0,0,0,0,0,0,0,0,0,0
"Ind5","15_0_0",81,4,4,4,-1,0,0,0,0,0,0,0,0,0,0,0,0,0,0,0,0,0,0,0,0,0,0,0,0,0,0,0,0,0,0,0,0,0,0,0,0,0,0,0,0,0
"Ind6","15_0_2",81,4,4,4,0,-1,0,0,0,0,0,0,0,0,0,0,0,0,0,0,0,0,0,0,0,0,0,0,0,0,0,0,0,0,0,0,0,0,0,0,0,0,0,0,0,0
"Ind7","15_0_1",82,5,5,5,1,1,-1,0,0,0,0,0,0,0,0,0,0,0,0,0,0,0,0,0,0,0,0,0,0,0,0,0,0,0,0,0,0,0,0,0,0,0,0,0,0,0
"Ind8","9_0_0",81,4,4,4,0,0,1,-1,0,0,0,0,0,0,0,0,0,0,0,0,0,0,0,0,0,0,0,0,0,0,0,0,0,0,0,0,0,0,0,0,0,0,0,0,0,0
"Ind9","9_0_1",81,4,4,4,0,0,1,0,-1,0,0,0,0,0,0,0,0,0,0,0,0,0,0,0,0,0,0,0,0,0,0,0,0,0,0,0,0,0,0,0,0,0,0,0,0,0
"Ind10","9_0_2",81,4,4,4,0,0,1,0,0,-1,0,0,0,0,0,0,0,0,0,0,0,0,0,0,0,0,0,0,0,0,0,0,0,0,0,0,0,0,0,0,0,0,0,0,0,0
"Ind11","10_0_2",79,6,6,6,2,2,3,2,2,2,-1,0,0,0,0,0,0,0,0,0,0,0,0,0,0,0,0,0,0,0,0,0,0,0,0,0,0,0,0,0,0,0,0,0,0,0
"Ind12","10_0_0",79,6,6,6,2,2,3,2,2,2,0,-1,0,0,0,0,0,0,0,0,0,0,0,0,0,0,0,0,0,0,0,0,0,0,0,0,0,0,0,0,0,0,0,0,0,0
"Ind13","10_0_1",79,6,6,6,2,2,3,2,2,2,0,0,-1,0,0,0,0,0,0,0,0,0,0,0,0,0,0,0,0,0,0,0,0,0,0,0,0,0,0,0,0,0,0,0,0,0
"Ind14","13_0_1",80,5,5,5,1,1,2,1,1,1,1,1,1,-1,0,0,0,0,0,0,0,0,0,0,0,0,0,0,0,0,0,0,0,0,0,0,0,0,0,0,0,0,0,0,0,0
"Ind15","13_0_0",80,5,5,5,1,1,2,1,1,1,1,1,1,0,-1,0,0,0,0,0,0,0,0,0,0,0,0,0,0,0,0,0,0,0,0,0,0,0,0,0,0,0,0,0,0,0
"Ind16","13_0_2",80,5,5,5,1,1,2,1,1,1,1,1,1,0,0,-1,0,0,0,0,0,0,0,0,0,0,0,0,0,0,0,0,0,0,0,0,0,0,0,0,0,0,0,0,0,0
"Ind17","11_0_1",80,7,7,7,3,3,4,3,3,3,3,3,3,2,2,2,-1,0,0,0,0,0,0,0,0,0,0,0,0,0,0,0,0,0,0,0,0,0,0,0,0,0,0,0,0,0
"Ind18","11_0_0",80,7,7,7,3,3,4,3,3,3,3,3,3,2,2,2,0,-1,0,0,0,0,0,0,0,0,0,0,0,0,0,0,0,0,0,0,0,0,0,0,0,0,0,0,0,0
"Ind19","14_0_1",79,6,6,6,2,2,3,2,2,2,2,2,2,1,1,1,1,1,-1,0,0,0,0,0,0,0,0,0,0,0,0,0,0,0,0,0,0,0,0,0,0,0,0,0,0,0
"Ind20","14_0_0",79,6,6,6,2,2,3,2,2,2,2,2,2,1,1,1,1,1,0,-1,0,0,0,0,0,0,0,0,0,0,0,0,0,0,0,0,0,0,0,0,0,0,0,0,0,0
"Ind21","14_0_2",79,6,6,6,2,2,3,2,2,2,2,2,2,1,1,1,1,1,0,0,-1,0,0,0,0,0,0,0,0,0,0,0,0,0,0,0,0,0,0,0,0,0,0,0,0,0
"Ind22","11_0_2",79,6,6,6,2,2,3,2,2,2,2,2,2,1,1,1,1,1,0,0,0,-1,0,0,0,0,0,0,0,0,0,0,0,0,0,0,0,0,0,0,0,0,0,0,0,0
"Ind23","6_0_1",48,92,92,92,88,88,87,88,88,88,86,86,86,87,87,87,87,87,86,86,86,86,-1,0,0,0,0,0,0,0,0,0,0,0,0,0,0,0,0,0,0,0,0,0,0,0
"Ind24","5_0_1",47,89,89,89,85,85,84,85,85,85,83,83,83,84,84,84,84,84,83,83,83,83,3,-1,0,0,0,0,0,0,0,0,0,0,0,0,0,0,0,0,0,0,0,0,0,0
"Ind25","5_0_2",47,89,89,89,85,85,84,85,85,85,83,83,83,84,84,84,84,84,83,83,83,83,3,0,-1,0,0,0,0,0,0,0,0,0,0,0,0,0,0,0,0,0,0,0,0,0
"Ind26","5_0_0",47,89,89,89,85,85,84,85,85,85,83,83,83,84,84,84,84,84,83,83,83,83,3,0,0,-1,0,0,0,0,0,0,0,0,0,0,0,0,0,0,0,0,0,0,0,0
"Ind27","1_0_0",48,90,90,90,86,86,85,86,86,86,84,84,84,85,85,85,85,85,84,84,84,84,4,1,1,1,-1,0,0,0,0,0,0,0,0,0,0,0,0,0,0,0,0,0,0,0
"Ind28","1_0_1",48,90,90,90,86,86,85,86,86,86,84,84,84,85,85,85,85,85,84,84,84,84,4,1,1,1,0,-1,0,0,0,0,0,0,0,0,0,0,0,0,0,0,0,0,0,0
"Ind29","1_0_2",48,90,90,90,86,86,85,86,86,86,84,84,84,85,85,85,85,85,84,84,84,84,4,1,1,1,0,0,-1,0,0,0,0,0,0,0,0,0,0,0,0,0,0,0,0,0
"Ind30","6_0_0",47,89,89,89,85,85,84,85,85,85,83,83,83,84,84,84,84,84,83,83,83,83,3,0,0,0,1,1,1,-1,0,0,0,0,0,0,0,0,0,0,0,0,0,0,0,0
"Ind31","6_0_2",48,88,88,88,84,84,83,84,84,84,82,82,82,83,83,83,83,83,82,82,82,82,4,1,1,1,2,2,2,1,-1,0,0,0,0,0,0,0,0,0,0,0,0,0,0,0
"Ind32","2_0_1",47,89,89,89,85,85,84,85,85,85,83,83,83,84,84,84,84,84,83,83,83,83,3,0,0,0,1,1,1,0,1,-1,0,0,0,0,0,0,0,0,0,0,0,0,0,0
"Ind33","2_0_0",47,87,87,87,83,83,84,83,83,83,81,81,81,82,82,82,82,82,81,81,81,81,5,2,2,2,3,3,3,2,3,2,-1,0,0,0,0,0,0,0,0,0,0,0,0,0
"Ind34","8_0_1",47,89,89,89,85,85,84,85,85,85,83,83,83,84,84,84,84,84,83,83,83,83,3,0,0,0,1,1,1,0,1,0,2,-1,0,0,0,0,0,0,0,0,0,0,0,0
"Ind35","2_0_2",47,89,89,89,85,85,84,85,85,85,83,83,83,84,84,84,84,84,83,83,83,83,3,0,0,0,1,1,1,0,1,0,2,0,-1,0,0,0,0,0,0,0,0,0,0,0
"Ind36","8_0_0",47,89,89,89,85,85,84,85,85,85,83,83,83,84,84,84,84,84,83,83,83,83,3,0,0,0,1,1,1,0,1,0,2,0,0,-1,0,0,0,0,0,0,0,0,0,0
"Ind37","8_0_2",46,90,90,90,86,86,85,86,86,86,84,84,84,85,85,85,85,85,84,84,84,84,4,1,1,1,2,2,2,1,2,1,3,1,1,1,-1,0,0,0,0,0,0,0,0,0
"Ind38","3_0_0",49,89,89,89,85,85,84,85,85,85,83,83,83,84,84,84,84,84,83,83,83,83,5,2,2,2,3,3,3,2,3,2,4,2,2,2,3,-1,0,0,0,0,0,0,0,0
"Ind39","7_0_2",49,89,89,89,85,85,84,85,85,85,83,83,83,84,84,84,84,84,83,83,83,83,5,2,2,2,3,3,3,2,3,2,4,2,2,2,3,0,-1,0,0,0,0,0,0,0
"Ind40","7_0_1",49,89,89,89,85,85,84,85,85,85,83,83,83,84,84,84,84,84,83,83,83,83,5,2,2,2,3,3,3,2,3,2,4,2,2,2,3,0,0,-1,0,0,0,0,0,0
"Ind41","3_0_2",49,89,89,89,85,85,84,85,85,85,83,83,83,84,84,84,84,84,83,83,83,83,5,2,2,2,3,3,3,2,3,2,4,2,2,2,3,0,0,0,-1,0,0,0,0,0
"Ind42","4_0_0",49,89,89,89,85,85,84,85,85,85,83,83,83,84,84,84,84,84,83,83,83,83,5,2,2,2,3,3,3,2,3,2,4,2,2,2,3,0,0,0,0,-1,0,0,0,0
"Ind43","4_0_2",49,89,89,89,85,85,84,85,85,85,83,83,83,84,84,84,84,84,83,83,83,83,5,2,2,2,3,3,3,2,3,2,4,2,2,2,3,0,0,0,0,0,-1,0,0,0
"Ind44","4_0_1",49,89,89,89,85,85,84,85,85,85,83,83,83,84,84,84,84,84,83,83,83,83,5,2,2,2,3,3,3,2,3,2,4,2,2,2,3,0,0,0,0,0,0,-1,0,0
"Ind45","7_0_0",48,90,90,90,86,86,85,86,86,86,84,84,84,85,85,85,85,85,84,84,84,84,4,1,1,1,2,2,2,1,2,1,3,1,1,1,2,3,3,3,3,3,3,3,-1,0
"Ind46","3_0_1",48,90,90,90,86,86,85,86,86,86,84,84,84,85,85,85,85,85,84,84,84,84,4,1,1,1,2,2,2,1,2,1,3,1,1,1,2,3,3,3,3,3,3,3,0,-1
