"","Description","Ind1","Ind2","Ind3","Ind4","Ind5","Ind6","Ind7","Ind8","Ind9","Ind10","Ind11","Ind12","Ind13","Ind14","Ind15","Ind16","Ind17","Ind18","Ind19","Ind20","Ind21","Ind22","Ind23","Ind24","Ind25","Ind26","Ind27","Ind28","Ind29","Ind30","Ind31","Ind32","Ind33","Ind34","Ind35","Ind36","Ind37","Ind38","Ind39","Ind40","Ind41","Ind42","Ind43","Ind44","Ind45","Ind46","Ind47","Ind48","Ind49","Ind50","Ind51","Ind52","Ind53","Ind54","Ind55","Ind56","Ind57","Ind58","Ind59","Ind60","Ind61","Ind62","Ind63","Ind64","Ind65","Ind66","Ind67","Ind68","Ind69","Ind70","Ind71","Ind72","Ind73","Ind74","Ind75","Ind76","Ind77","Ind78","Ind79","Ind80","Ind81","Ind82","Ind83","Ind84","Ind85","Ind86","Ind87","Ind88","Ind89","Ind90","Ind91"
"Ind1","0_0_0",-1,0,0,0,0,0,0,0,0,0,0,0,0,0,0,0,0,0,0,0,0,0,0,0,0,0,0,0,0,0,0,0,0,0,0,0,0,0,0,0,0,0,0,0,0,0,0,0,0,0,0,0,0,0,0,0,0,0,0,0,0,0,0,0,0,0,0,0,0,0,0,0,0,0,0,0,0,0,0,0,0,0,0,0,0,0,0,0,0,0,0
"Ind2","8_0_1",43,-1,0,0,0,0,0,0,0,0,0,0,0,0,0,0,0,0,0,0,0,0,0,0,0,0,0,0,0,0,0,0,0,0,0,0,0,0,0,0,0,0,0,0,0,0,0,0,0,0,0,0,0,0,0,0,0,0,0,0,0,0,0,0,0,0,0,0,0,0,0,0,0,0,0,0,0,0,0,0,0,0,0,0,0,0,0,0,0,0,0
"Ind3","8_0_9",43,0,-1,0,0,0,0,0,0,0,0,0,0,0,0,0,0,0,0,0,0,0,0,0,0,0,0,0,0,0,0,0,0,0,0,0,0,0,0,0,0,0,0,0,0,0,0,0,0,0,0,0,0,0,0,0,0,0,0,0,0,0,0,0,0,0,0,0,0,0,0,0,0,0,0,0,0,0,0,0,0,0,0,0,0,0,0,0,0,0,0
"Ind4","8_0_4",43,0,0,-1,0,0,0,0,0,0,0,0,0,0,0,0,0,0,0,0,0,0,0,0,0,0,0,0,0,0,0,0,0,0,0,0,0,0,0,0,0,0,0,0,0,0,0,0,0,0,0,0,0,0,0,0,0,0,0,0,0,0,0,0,0,0,0,0,0,0,0,0,0,0,0,0,0,0,0,0,0,0,0,0,0,0,0,0,0,0,0
"Ind5","8_0_3",43,0,0,0,-1,0,0,0,0,0,0,0,0,0,0,0,0,0,0,0,0,0,0,0,0,0,0,0,0,0,0,0,0,0,0,0,0,0,0,0,0,0,0,0,0,0,0,0,0,0,0,0,0,0,0,0,0,0,0,0,0,0,0,0,0,0,0,0,0,0,0,0,0,0,0,0,0,0,0,0,0,0,0,0,0,0,0,0,0,0,0
"Ind6","8_0_8",43,0,0,0,0,-1,0,0,0,0,0,0,0,0,0,0,0,0,0,0,0,0,0,0,0,0,0,0,0,0,0,0,0,0,0,0,0,0,0,0,0,0,0,0,0,0,0,0,0,0,0,0,0,0,0,0,0,0,0,0,0,0,0,0,0,0,0,0,0,0,0,0,0,0,0,0,0,0,0,0,0,0,0,0,0,0,0,0,0,0,0
"Ind7","8_0_7",42,1,1,1,1,1,-1,0,0,0,0,0,0,0,0,0,0,0,0,0,0,0,0,0,0,0,0,0,0,0,0,0,0,0,0,0,0,0,0,0,0,0,0,0,0,0,0,0,0,0,0,0,0,0,0,0,0,0,0,0,0,0,0,0,0,0,0,0,0,0,0,0,0,0,0,0,0,0,0,0,0,0,0,0,0,0,0,0,0,0,0
"Ind8","8_0_2",42,1,1,1,1,1,0,-1,0,0,0,0,0,0,0,0,0,0,0,0,0,0,0,0,0,0,0,0,0,0,0,0,0,0,0,0,0,0,0,0,0,0,0,0,0,0,0,0,0,0,0,0,0,0,0,0,0,0,0,0,0,0,0,0,0,0,0,0,0,0,0,0,0,0,0,0,0,0,0,0,0,0,0,0,0,0,0,0,0,0,0
"Ind9","8_0_6",42,1,1,1,1,1,0,0,-1,0,0,0,0,0,0,0,0,0,0,0,0,0,0,0,0,0,0,0,0,0,0,0,0,0,0,0,0,0,0,0,0,0,0,0,0,0,0,0,0,0,0,0,0,0,0,0,0,0,0,0,0,0,0,0,0,0,0,0,0,0,0,0,0,0,0,0,0,0,0,0,0,0,0,0,0,0,0,0,0,0,0
"Ind10","8_0_0",42,1,1,1,1,1,0,0,0,-1,0,0,0,0,0,0,0,0,0,0,0,0,0,0,0,0,0,0,0,0,0,0,0,0,0,0,0,0,0,0,0,0,0,0,0,0,0,0,0,0,0,0,0,0,0,0,0,0,0,0,0,0,0,0,0,0,0,0,0,0,0,0,0,0,0,0,0,0,0,0,0,0,0,0,0,0,0,0,0,0,0
"Ind11","8_0_5",42,1,1,1,1,1,0,0,0,0,-1,0,0,0,0,0,0,0,0,0,0,0,0,0,0,0,0,0,0,0,0,0,0,0,0,0,0,0,0,0,0,0,0,0,0,0,0,0,0,0,0,0,0,0,0,0,0,0,0,0,0,0,0,0,0,0,0,0,0,0,0,0,0,0,0,0,0,0,0,0,0,0,0,0,0,0,0,0,0,0,0
"Ind12","9_0_7",37,10,10,10,10,10,9,9,9,9,9,-1,0,0,0,0,0,0,0,0,0,0,0,0,0,0,0,0,0,0,0,0,0,0,0,0,0,0,0,0,0,0,0,0,0,0,0,0,0,0,0,0,0,0,0,0,0,0,0,0,0,0,0,0,0,0,0,0,0,0,0,0,0,0,0,0,0,0,0,0,0,0,0,0,0,0,0,0,0,0,0
"Ind13","9_0_4",37,10,10,10,10,10,9,9,9,9,9,0,-1,0,0,0,0,0,0,0,0,0,0,0,0,0,0,0,0,0,0,0,0,0,0,0,0,0,0,0,0,0,0,0,0,0,0,0,0,0,0,0,0,0,0,0,0,0,0,0,0,0,0,0,0,0,0,0,0,0,0,0,0,0,0,0,0,0,0,0,0,0,0,0,0,0,0,0,0,0,0
"Ind14","9_0_6",37,10,10,10,10,10,9,9,9,9,9,0,0,-1,0,0,0,0,0,0,0,0,0,0,0,0,0,0,0,0,0,0,0,0,0,0,0,0,0,0,0,0,0,0,0,0,0,0,0,0,0,0,0,0,0,0,0,0,0,0,0,0,0,0,0,0,0,0,0,0,0,0,0,0,0,0,0,0,0,0,0,0,0,0,0,0,0,0,0,0,0
"Ind15","9_0_5",37,10,10,10,10,10,9,9,9,9,9,0,0,0,-1,0,0,0,0,0,0,0,0,0,0,0,0,0,0,0,0,0,0,0,0,0,0,0,0,0,0,0,0,0,0,0,0,0,0,0,0,0,0,0,0,0,0,0,0,0,0,0,0,0,0,0,0,0,0,0,0,0,0,0,0,0,0,0,0,0,0,0,0,0,0,0,0,0,0,0,0
"Ind16","9_0_0",37,10,10,10,10,10,9,9,9,9,9,0,0,0,0,-1,0,0,0,0,0,0,0,0,0,0,0,0,0,0,0,0,0,0,0,0,0,0,0,0,0,0,0,0,0,0,0,0,0,0,0,0,0,0,0,0,0,0,0,0,0,0,0,0,0,0,0,0,0,0,0,0,0,0,0,0,0,0,0,0,0,0,0,0,0,0,0,0,0,0,0
"Ind17","9_0_1",37,10,10,10,10,10,9,9,9,9,9,0,0,0,0,0,-1,0,0,0,0,0,0,0,0,0,0,0,0,0,0,0,0,0,0,0,0,0,0,0,0,0,0,0,0,0,0,0,0,0,0,0,0,0,0,0,0,0,0,0,0,0,0,0,0,0,0,0,0,0,0,0,0,0,0,0,0,0,0,0,0,0,0,0,0,0,0,0,0,0,0
"Ind18","9_0_3",37,10,10,10,10,10,9,9,9,9,9,0,0,0,0,0,0,-1,0,0,0,0,0,0,0,0,0,0,0,0,0,0,0,0,0,0,0,0,0,0,0,0,0,0,0,0,0,0,0,0,0,0,0,0,0,0,0,0,0,0,0,0,0,0,0,0,0,0,0,0,0,0,0,0,0,0,0,0,0,0,0,0,0,0,0,0,0,0,0,0,0
"Ind19","9_0_9",37,10,10,10,10,10,9,9,9,9,9,0,0,0,0,0,0,0,-1,0,0,0,0,0,0,0,0,0,0,0,0,0,0,0,0,0,0,0,0,0,0,0,0,0,0,0,0,0,0,0,0,0,0,0,0,0,0,0,0,0,0,0,0,0,0,0,0,0,0,0,0,0,0,0,0,0,0,0,0,0,0,0,0,0,0,0,0,0,0,0,0
"Ind20","9_0_2",37,10,10,10,10,10,9,9,9,9,9,0,0,0,0,0,0,0,0,-1,0,0,0,0,0,0,0,0,0,0,0,0,0,0,0,0,0,0,0,0,0,0,0,0,0,0,0,0,0,0,0,0,0,0,0,0,0,0,0,0,0,0,0,0,0,0,0,0,0,0,0,0,0,0,0,0,0,0,0,0,0,0,0,0,0,0,0,0,0,0,0
"Ind21","9_0_8",37,10,10,10,10,10,9,9,9,9,9,0,0,0,0,0,0,0,0,0,-1,0,0,0,0,0,0,0,0,0,0,0,0,0,0,0,0,0,0,0,0,0,0,0,0,0,0,0,0,0,0,0,0,0,0,0,0,0,0,0,0,0,0,0,0,0,0,0,0,0,0,0,0,0,0,0,0,0,0,0,0,0,0,0,0,0,0,0,0,0,0
"Ind22","3_0_5",33,16,16,16,16,16,15,15,15,15,15,10,10,10,10,10,10,10,10,10,10,-1,0,0,0,0,0,0,0,0,0,0,0,0,0,0,0,0,0,0,0,0,0,0,0,0,0,0,0,0,0,0,0,0,0,0,0,0,0,0,0,0,0,0,0,0,0,0,0,0,0,0,0,0,0,0,0,0,0,0,0,0,0,0,0,0,0,0,0,0,0
"Ind23","3_0_3",33,16,16,16,16,16,15,15,15,15,15,10,10,10,10,10,10,10,10,10,10,0,-1,0,0,0,0,0,0,0,0,0,0,0,0,0,0,0,0,0,0,0,0,0,0,0,0,0,0,0,0,0,0,0,0,0,0,0,0,0,0,0,0,0,0,0,0,0,0,0,0,0,0,0,0,0,0,0,0,0,0,0,0,0,0,0,0,0,0,0,0
"Ind24","3_0_7",33,16,16,16,16,16,15,15,15,15,15,10,10,10,10,10,10,10,10,10,10,0,0,-1,0,0,0,0,0,0,0,0,0,0,0,0,0,0,0,0,0,0,0,0,0,0,0,0,0,0,0,0,0,0,0,0,0,0,0,0,0,0,0,0,0,0,0,0,0,0,0,0,0,0,0,0,0,0,0,0,0,0,0,0,0,0,0,0,0,0,0
"Ind25","3_0_2",33,16,16,16,16,16,15,15,15,15,15,10,10,10,10,10,10,10,10,10,10,0,0,0,-1,0,0,0,0,0,0,0,0,0,0,0,0,0,0,0,0,0,0,0,0,0,0,0,0,0,0,0,0,0,0,0,0,0,0,0,0,0,0,0,0,0,0,0,0,0,0,0,0,0,0,0,0,0,0,0,0,0,0,0,0,0,0,0,0,0,0
"Ind26","3_0_1",33,16,16,16,16,16,15,15,15,15,15,10,10,10,10,10,10,10,10,10,10,0,0,0,0,-1,0,0,0,0,0,0,0,0,0,0,0,0,0,0,0,0,0,0,0,0,0,0,0,0,0,0,0,0,0,0,0,0,0,0,0,0,0,0,0,0,0,0,0,0,0,0,0,0,0,0,0,0,0,0,0,0,0,0,0,0,0,0,0,0,0
"Ind27","3_0_4",33,16,16,16,16,16,15,15,15,15,15,10,10,10,10,10,10,10,10,10,10,0,0,0,0,0,-1,0,0,0,0,0,0,0,0,0,0,0,0,0,0,0,0,0,0,0,0,0,0,0,0,0,0,0,0,0,0,0,0,0,0,0,0,0,0,0,0,0,0,0,0,0,0,0,0,0,0,0,0,0,0,0,0,0,0,0,0,0,0,0,0
"Ind28","3_0_0",33,16,16,16,16,16,15,15,15,15,15,10,10,10,10,10,10,10,10,10,10,0,0,0,0,0,0,-1,0,0,0,0,0,0,0,0,0,0,0,0,0,0,0,0,0,0,0,0,0,0,0,0,0,0,0,0,0,0,0,0,0,0,0,0,0,0,0,0,0,0,0,0,0,0,0,0,0,0,0,0,0,0,0,0,0,0,0,0,0,0,0
"Ind29","3_0_8",33,16,16,16,16,16,15,15,15,15,15,10,10,10,10,10,10,10,10,10,10,0,0,0,0,0,0,0,-1,0,0,0,0,0,0,0,0,0,0,0,0,0,0,0,0,0,0,0,0,0,0,0,0,0,0,0,0,0,0,0,0,0,0,0,0,0,0,0,0,0,0,0,0,0,0,0,0,0,0,0,0,0,0,0,0,0,0,0,0,0,0
"Ind30","3_0_9",33,16,16,16,16,16,15,15,15,15,15,10,10,10,10,10,10,10,10,10,10,2,2,2,2,2,2,2,2,-1,0,0,0,0,0,0,0,0,0,0,0,0,0,0,0,0,0,0,0,0,0,0,0,0,0,0,0,0,0,0,0,0,0,0,0,0,0,0,0,0,0,0,0,0,0,0,0,0,0,0,0,0,0,0,0,0,0,0,0,0,0
"Ind31","3_0_6",33,16,16,16,16,16,15,15,15,15,15,10,10,10,10,10,10,10,10,10,10,2,2,2,2,2,2,2,2,0,-1,0,0,0,0,0,0,0,0,0,0,0,0,0,0,0,0,0,0,0,0,0,0,0,0,0,0,0,0,0,0,0,0,0,0,0,0,0,0,0,0,0,0,0,0,0,0,0,0,0,0,0,0,0,0,0,0,0,0,0,0
"Ind32","4_0_0",32,15,15,15,15,15,14,14,14,14,14,9,9,9,9,9,9,9,9,9,9,1,1,1,1,1,1,1,1,1,1,-1,0,0,0,0,0,0,0,0,0,0,0,0,0,0,0,0,0,0,0,0,0,0,0,0,0,0,0,0,0,0,0,0,0,0,0,0,0,0,0,0,0,0,0,0,0,0,0,0,0,0,0,0,0,0,0,0,0,0,0
"Ind33","4_0_8",32,15,15,15,15,15,14,14,14,14,14,9,9,9,9,9,9,9,9,9,9,1,1,1,1,1,1,1,1,1,1,0,-1,0,0,0,0,0,0,0,0,0,0,0,0,0,0,0,0,0,0,0,0,0,0,0,0,0,0,0,0,0,0,0,0,0,0,0,0,0,0,0,0,0,0,0,0,0,0,0,0,0,0,0,0,0,0,0,0,0,0
"Ind34","4_0_7",32,15,15,15,15,15,14,14,14,14,14,9,9,9,9,9,9,9,9,9,9,1,1,1,1,1,1,1,1,1,1,0,0,-1,0,0,0,0,0,0,0,0,0,0,0,0,0,0,0,0,0,0,0,0,0,0,0,0,0,0,0,0,0,0,0,0,0,0,0,0,0,0,0,0,0,0,0,0,0,0,0,0,0,0,0,0,0,0,0,0,0
"Ind35","4_0_1",32,15,15,15,15,15,14,14,14,14,14,9,9,9,9,9,9,9,9,9,9,1,1,1,1,1,1,1,1,1,1,0,0,0,-1,0,0,0,0,0,0,0,0,0,0,0,0,0,0,0,0,0,0,0,0,0,0,0,0,0,0,0,0,0,0,0,0,0,0,0,0,0,0,0,0,0,0,0,0,0,0,0,0,0,0,0,0,0,0,0,0
"Ind36","4_0_3",32,15,15,15,15,15,14,14,14,14,14,9,9,9,9,9,9,9,9,9,9,1,1,1,1,1,1,1,1,1,1,0,0,0,0,-1,0,0,0,0,0,0,0,0,0,0,0,0,0,0,0,0,0,0,0,0,0,0,0,0,0,0,0,0,0,0,0,0,0,0,0,0,0,0,0,0,0,0,0,0,0,0,0,0,0,0,0,0,0,0,0
"Ind37","4_0_4",32,15,15,15,15,15,14,14,14,14,14,9,9,9,9,9,9,9,9,9,9,1,1,1,1,1,1,1,1,1,1,0,0,0,0,0,-1,0,0,0,0,0,0,0,0,0,0,0,0,0,0,0,0,0,0,0,0,0,0,0,0,0,0,0,0,0,0,0,0,0,0,0,0,0,0,0,0,0,0,0,0,0,0,0,0,0,0,0,0,0,0
"Ind38","4_0_5",32,15,15,15,15,15,14,14,14,14,14,9,9,9,9,9,9,9,9,9,9,1,1,1,1,1,1,1,1,1,1,0,0,0,0,0,0,-1,0,0,0,0,0,0,0,0,0,0,0,0,0,0,0,0,0,0,0,0,0,0,0,0,0,0,0,0,0,0,0,0,0,0,0,0,0,0,0,0,0,0,0,0,0,0,0,0,0,0,0,0,0
"Ind39","4_0_2",32,15,15,15,15,15,14,14,14,14,14,9,9,9,9,9,9,9,9,9,9,1,1,1,1,1,1,1,1,1,1,0,0,0,0,0,0,0,-1,0,0,0,0,0,0,0,0,0,0,0,0,0,0,0,0,0,0,0,0,0,0,0,0,0,0,0,0,0,0,0,0,0,0,0,0,0,0,0,0,0,0,0,0,0,0,0,0,0,0,0,0
"Ind40","4_0_6",32,15,15,15,15,15,14,14,14,14,14,9,9,9,9,9,9,9,9,9,9,1,1,1,1,1,1,1,1,1,1,0,0,0,0,0,0,0,0,-1,0,0,0,0,0,0,0,0,0,0,0,0,0,0,0,0,0,0,0,0,0,0,0,0,0,0,0,0,0,0,0,0,0,0,0,0,0,0,0,0,0,0,0,0,0,0,0,0,0,0,0
"Ind41","4_0_9",32,15,15,15,15,15,14,14,14,14,14,9,9,9,9,9,9,9,9,9,9,1,1,1,1,1,1,1,1,1,1,0,0,0,0,0,0,0,0,0,-1,0,0,0,0,0,0,0,0,0,0,0,0,0,0,0,0,0,0,0,0,0,0,0,0,0,0,0,0,0,0,0,0,0,0,0,0,0,0,0,0,0,0,0,0,0,0,0,0,0,0
"Ind42","2_0_5",33,18,18,18,18,18,17,17,17,17,17,12,12,12,12,12,12,12,12,12,12,4,4,4,4,4,4,4,4,4,4,3,3,3,3,3,3,3,3,3,3,-1,0,0,0,0,0,0,0,0,0,0,0,0,0,0,0,0,0,0,0,0,0,0,0,0,0,0,0,0,0,0,0,0,0,0,0,0,0,0,0,0,0,0,0,0,0,0,0,0,0
"Ind43","2_0_0",33,18,18,18,18,18,17,17,17,17,17,12,12,12,12,12,12,12,12,12,12,4,4,4,4,4,4,4,4,4,4,3,3,3,3,3,3,3,3,3,3,0,-1,0,0,0,0,0,0,0,0,0,0,0,0,0,0,0,0,0,0,0,0,0,0,0,0,0,0,0,0,0,0,0,0,0,0,0,0,0,0,0,0,0,0,0,0,0,0,0,0
"Ind44","2_0_6",33,18,18,18,18,18,17,17,17,17,17,12,12,12,12,12,12,12,12,12,12,4,4,4,4,4,4,4,4,4,4,3,3,3,3,3,3,3,3,3,3,0,0,-1,0,0,0,0,0,0,0,0,0,0,0,0,0,0,0,0,0,0,0,0,0,0,0,0,0,0,0,0,0,0,0,0,0,0,0,0,0,0,0,0,0,0,0,0,0,0,0
"Ind45","2_0_4",33,18,18,18,18,18,17,17,17,17,17,12,12,12,12,12,12,12,12,12,12,4,4,4,4,4,4,4,4,4,4,3,3,3,3,3,3,3,3,3,3,0,0,0,-1,0,0,0,0,0,0,0,0,0,0,0,0,0,0,0,0,0,0,0,0,0,0,0,0,0,0,0,0,0,0,0,0,0,0,0,0,0,0,0,0,0,0,0,0,0,0
"Ind46","2_0_8",33,18,18,18,18,18,17,17,17,17,17,12,12,12,12,12,12,12,12,12,12,4,4,4,4,4,4,4,4,4,4,3,3,3,3,3,3,3,3,3,3,0,0,0,0,-1,0,0,0,0,0,0,0,0,0,0,0,0,0,0,0,0,0,0,0,0,0,0,0,0,0,0,0,0,0,0,0,0,0,0,0,0,0,0,0,0,0,0,0,0,0
"Ind47","2_0_7",33,18,18,18,18,18,17,17,17,17,17,12,12,12,12,12,12,12,12,12,12,4,4,4,4,4,4,4,4,4,4,3,3,3,3,3,3,3,3,3,3,0,0,0,0,0,-1,0,0,0,0,0,0,0,0,0,0,0,0,0,0,0,0,0,0,0,0,0,0,0,0,0,0,0,0,0,0,0,0,0,0,0,0,0,0,0,0,0,0,0,0
"Ind48","2_0_1",33,18,18,18,18,18,17,17,17,17,17,12,12,12,12,12,12,12,12,12,12,4,4,4,4,4,4,4,4,4,4,3,3,3,3,3,3,3,3,3,3,0,0,0,0,0,0,-1,0,0,0,0,0,0,0,0,0,0,0,0,0,0,0,0,0,0,0,0,0,0,0,0,0,0,0,0,0,0,0,0,0,0,0,0,0,0,0,0,0,0,0
"Ind49","2_0_3",33,18,18,18,18,18,17,17,17,17,17,12,12,12,12,12,12,12,12,12,12,4,4,4,4,4,4,4,4,4,4,3,3,3,3,3,3,3,3,3,3,0,0,0,0,0,0,0,-1,0,0,0,0,0,0,0,0,0,0,0,0,0,0,0,0,0,0,0,0,0,0,0,0,0,0,0,0,0,0,0,0,0,0,0,0,0,0,0,0,0,0
"Ind50","2_0_9",33,18,18,18,18,18,17,17,17,17,17,12,12,12,12,12,12,12,12,12,12,4,4,4,4,4,4,4,4,4,4,3,3,3,3,3,3,3,3,3,3,0,0,0,0,0,0,0,0,-1,0,0,0,0,0,0,0,0,0,0,0,0,0,0,0,0,0,0,0,0,0,0,0,0,0,0,0,0,0,0,0,0,0,0,0,0,0,0,0,0,0
"Ind51","2_0_2",33,18,18,18,18,18,17,17,17,17,17,12,12,12,12,12,12,12,12,12,12,4,4,4,4,4,4,4,4,4,4,3,3,3,3,3,3,3,3,3,3,0,0,0,0,0,0,0,0,0,-1,0,0,0,0,0,0,0,0,0,0,0,0,0,0,0,0,0,0,0,0,0,0,0,0,0,0,0,0,0,0,0,0,0,0,0,0,0,0,0,0
"Ind52","7_0_1",38,21,21,21,21,21,20,20,20,20,20,15,15,15,15,15,15,15,15,15,15,9,9,9,9,9,9,9,9,9,9,8,8,8,8,8,8,8,8,8,8,11,11,11,11,11,11,11,11,11,11,-1,0,0,0,0,0,0,0,0,0,0,0,0,0,0,0,0,0,0,0,0,0,0,0,0,0,0,0,0,0,0,0,0,0,0,0,0,0,0,0
"Ind53","7_0_6",38,21,21,21,21,21,20,20,20,20,20,15,15,15,15,15,15,15,15,15,15,9,9,9,9,9,9,9,9,9,9,8,8,8,8,8,8,8,8,8,8,11,11,11,11,11,11,11,11,11,11,0,-1,0,0,0,0,0,0,0,0,0,0,0,0,0,0,0,0,0,0,0,0,0,0,0,0,0,0,0,0,0,0,0,0,0,0,0,0,0,0
"Ind54","7_0_5",38,21,21,21,21,21,20,20,20,20,20,15,15,15,15,15,15,15,15,15,15,9,9,9,9,9,9,9,9,9,9,8,8,8,8,8,8,8,8,8,8,11,11,11,11,11,11,11,11,11,11,0,0,-1,0,0,0,0,0,0,0,0,0,0,0,0,0,0,0,0,0,0,0,0,0,0,0,0,0,0,0,0,0,0,0,0,0,0,0,0,0
"Ind55","7_0_0",38,21,21,21,21,21,20,20,20,20,20,15,15,15,15,15,15,15,15,15,15,9,9,9,9,9,9,9,9,9,9,8,8,8,8,8,8,8,8,8,8,11,11,11,11,11,11,11,11,11,11,0,0,0,-1,0,0,0,0,0,0,0,0,0,0,0,0,0,0,0,0,0,0,0,0,0,0,0,0,0,0,0,0,0,0,0,0,0,0,0,0
"Ind56","7_0_8",39,22,22,22,22,22,21,21,21,21,21,16,16,16,16,16,16,16,16,16,16,10,10,10,10,10,10,10,10,10,10,9,9,9,9,9,9,9,9,9,9,12,12,12,12,12,12,12,12,12,12,1,1,1,1,-1,0,0,0,0,0,0,0,0,0,0,0,0,0,0,0,0,0,0,0,0,0,0,0,0,0,0,0,0,0,0,0,0,0,0,0
"Ind57","7_0_4",38,21,21,21,21,21,20,20,20,20,20,15,15,15,15,15,15,15,15,15,15,9,9,9,9,9,9,9,9,9,9,8,8,8,8,8,8,8,8,8,8,11,11,11,11,11,11,11,11,11,11,0,0,0,0,1,-1,0,0,0,0,0,0,0,0,0,0,0,0,0,0,0,0,0,0,0,0,0,0,0,0,0,0,0,0,0,0,0,0,0,0
"Ind58","7_0_3",38,21,21,21,21,21,20,20,20,20,20,15,15,15,15,15,15,15,15,15,15,9,9,9,9,9,9,9,9,9,9,8,8,8,8,8,8,8,8,8,8,11,11,11,11,11,11,11,11,11,11,0,0,0,0,1,0,-1,0,0,0,0,0,0,0,0,0,0,0,0,0,0,0,0,0,0,0,0,0,0,0,0,0,0,0,0,0,0,0,0,0
"Ind59","7_0_9",38,21,21,21,21,21,20,20,20,20,20,15,15,15,15,15,15,15,15,15,15,9,9,9,9,9,9,9,9,9,9,8,8,8,8,8,8,8,8,8,8,11,11,11,11,11,11,11,11,11,11,0,0,0,0,1,0,0,-1,0,0,0,0,0,0,0,0,0,0,0,0,0,0,0,0,0,0,0,0,0,0,0,0,0,0,0,0,0,0,0,0
"Ind60","7_0_2",38,21,21,21,21,21,20,20,20,20,20,15,15,15,15,15,15,15,15,15,15,9,9,9,9,9,9,9,9,9,9,8,8,8,8,8,8,8,8,8,8,11,11,11,11,11,11,11,11,11,11,0,0,0,0,1,0,0,0,-1,0,0,0,0,0,0,0,0,0,0,0,0,0,0,0,0,0,0,0,0,0,0,0,0,0,0,0,0,0,0,0
"Ind61","7_0_7",38,21,21,21,21,21,20,20,20,20,20,15,15,15,15,15,15,15,15,15,15,9,9,9,9,9,9,9,9,9,9,8,8,8,8,8,8,8,8,8,8,11,11,11,11,11,11,11,11,11,11,0,0,0,0,1,0,0,0,0,-1,0,0,0,0,0,0,0,0,0,0,0,0,0,0,0,0,0,0,0,0,0,0,0,0,0,0,0,0,0,0
"Ind62","5_0_3",38,23,23,23,23,23,22,22,22,22,22,17,17,17,17,17,17,17,17,17,17,11,11,11,11,11,11,11,11,11,11,10,10,10,10,10,10,10,10,10,10,13,13,13,13,13,13,13,13,13,13,8,8,8,8,9,8,8,8,8,8,-1,0,0,0,0,0,0,0,0,0,0,0,0,0,0,0,0,0,0,0,0,0,0,0,0,0,0,0,0,0
"Ind63","5_0_6",38,23,23,23,23,23,22,22,22,22,22,17,17,17,17,17,17,17,17,17,17,11,11,11,11,11,11,11,11,11,11,10,10,10,10,10,10,10,10,10,10,13,13,13,13,13,13,13,13,13,13,8,8,8,8,9,8,8,8,8,8,0,-1,0,0,0,0,0,0,0,0,0,0,0,0,0,0,0,0,0,0,0,0,0,0,0,0,0,0,0,0
"Ind64","5_0_9",38,23,23,23,23,23,22,22,22,22,22,17,17,17,17,17,17,17,17,17,17,11,11,11,11,11,11,11,11,11,11,10,10,10,10,10,10,10,10,10,10,13,13,13,13,13,13,13,13,13,13,8,8,8,8,9,8,8,8,8,8,0,0,-1,0,0,0,0,0,0,0,0,0,0,0,0,0,0,0,0,0,0,0,0,0,0,0,0,0,0,0
"Ind65","5_0_5",38,23,23,23,23,23,22,22,22,22,22,17,17,17,17,17,17,17,17,17,17,11,11,11,11,11,11,11,11,11,11,10,10,10,10,10,10,10,10,10,10,13,13,13,13,13,13,13,13,13,13,8,8,8,8,9,8,8,8,8,8,0,0,0,-1,0,0,0,0,0,0,0,0,0,0,0,0,0,0,0,0,0,0,0,0,0,0,0,0,0,0
"Ind66","5_0_8",38,23,23,23,23,23,22,22,22,22,22,17,17,17,17,17,17,17,17,17,17,11,11,11,11,11,11,11,11,11,11,10,10,10,10,10,10,10,10,10,10,13,13,13,13,13,13,13,13,13,13,8,8,8,8,9,8,8,8,8,8,0,0,0,0,-1,0,0,0,0,0,0,0,0,0,0,0,0,0,0,0,0,0,0,0,0,0,0,0,0,0
"Ind67","5_0_7",37,22,22,22,22,22,21,21,21,21,21,16,16,16,16,16,16,16,16,16,16,10,10,10,10,10,10,10,10,10,10,9,9,9,9,9,9,9,9,9,9,12,12,12,12,12,12,12,12,12,12,7,7,7,7,8,7,7,7,7,7,1,1,1,1,1,-1,0,0,0,0,0,0,0,0,0,0,0,0,0,0,0,0,0,0,0,0,0,0,0,0
"Ind68","5_0_0",37,22,22,22,22,22,21,21,21,21,21,16,16,16,16,16,16,16,16,16,16,10,10,10,10,10,10,10,10,10,10,9,9,9,9,9,9,9,9,9,9,12,12,12,12,12,12,12,12,12,12,7,7,7,7,8,7,7,7,7,7,1,1,1,1,1,0,-1,0,0,0,0,0,0,0,0,0,0,0,0,0,0,0,0,0,0,0,0,0,0,0
"Ind69","5_0_2",37,22,22,22,22,22,21,21,21,21,21,16,16,16,16,16,16,16,16,16,16,10,10,10,10,10,10,10,10,10,10,9,9,9,9,9,9,9,9,9,9,12,12,12,12,12,12,12,12,12,12,7,7,7,7,8,7,7,7,7,7,1,1,1,1,1,0,0,-1,0,0,0,0,0,0,0,0,0,0,0,0,0,0,0,0,0,0,0,0,0,0
"Ind70","5_0_4",37,22,22,22,22,22,21,21,21,21,21,16,16,16,16,16,16,16,16,16,16,10,10,10,10,10,10,10,10,10,10,9,9,9,9,9,9,9,9,9,9,12,12,12,12,12,12,12,12,12,12,7,7,7,7,8,7,7,7,7,7,1,1,1,1,1,0,0,0,-1,0,0,0,0,0,0,0,0,0,0,0,0,0,0,0,0,0,0,0,0,0
"Ind71","5_0_1",38,23,23,23,23,23,22,22,22,22,22,17,17,17,17,17,17,17,17,17,17,11,11,11,11,11,11,11,11,11,11,10,10,10,10,10,10,10,10,10,10,13,13,13,13,13,13,13,13,13,13,8,8,8,8,9,8,8,8,8,8,2,2,2,2,2,1,1,1,1,-1,0,0,0,0,0,0,0,0,0,0,0,0,0,0,0,0,0,0,0,0
"Ind72","1_0_5",34,19,19,19,19,19,18,18,18,18,18,13,13,13,13,13,13,13,13,13,13,7,7,7,7,7,7,7,7,7,7,6,6,6,6,6,6,6,6,6,6,9,9,9,9,9,9,9,9,9,9,12,12,12,12,13,12,12,12,12,12,14,14,14,14,14,13,13,13,13,14,-1,0,0,0,0,0,0,0,0,0,0,0,0,0,0,0,0,0,0,0
"Ind73","1_0_8",34,19,19,19,19,19,18,18,18,18,18,13,13,13,13,13,13,13,13,13,13,7,7,7,7,7,7,7,7,7,7,6,6,6,6,6,6,6,6,6,6,9,9,9,9,9,9,9,9,9,9,12,12,12,12,13,12,12,12,12,12,14,14,14,14,14,13,13,13,13,14,0,-1,0,0,0,0,0,0,0,0,0,0,0,0,0,0,0,0,0,0
"Ind74","1_0_9",34,19,19,19,19,19,18,18,18,18,18,13,13,13,13,13,13,13,13,13,13,7,7,7,7,7,7,7,7,7,7,6,6,6,6,6,6,6,6,6,6,9,9,9,9,9,9,9,9,9,9,12,12,12,12,13,12,12,12,12,12,14,14,14,14,14,13,13,13,13,14,0,0,-1,0,0,0,0,0,0,0,0,0,0,0,0,0,0,0,0,0
"Ind75","1_0_2",34,19,19,19,19,19,18,18,18,18,18,13,13,13,13,13,13,13,13,13,13,7,7,7,7,7,7,7,7,7,7,6,6,6,6,6,6,6,6,6,6,9,9,9,9,9,9,9,9,9,9,12,12,12,12,13,12,12,12,12,12,14,14,14,14,14,13,13,13,13,14,0,0,0,-1,0,0,0,0,0,0,0,0,0,0,0,0,0,0,0,0
"Ind76","1_0_4",34,19,19,19,19,19,18,18,18,18,18,13,13,13,13,13,13,13,13,13,13,7,7,7,7,7,7,7,7,7,7,6,6,6,6,6,6,6,6,6,6,9,9,9,9,9,9,9,9,9,9,12,12,12,12,13,12,12,12,12,12,14,14,14,14,14,13,13,13,13,14,0,0,0,0,-1,0,0,0,0,0,0,0,0,0,0,0,0,0,0,0
"Ind77","1_0_6",34,19,19,19,19,19,18,18,18,18,18,13,13,13,13,13,13,13,13,13,13,7,7,7,7,7,7,7,7,7,7,6,6,6,6,6,6,6,6,6,6,9,9,9,9,9,9,9,9,9,9,12,12,12,12,13,12,12,12,12,12,14,14,14,14,14,13,13,13,13,14,0,0,0,0,0,-1,0,0,0,0,0,0,0,0,0,0,0,0,0,0
"Ind78","1_0_1",34,19,19,19,19,19,18,18,18,18,18,13,13,13,13,13,13,13,13,13,13,7,7,7,7,7,7,7,7,7,7,6,6,6,6,6,6,6,6,6,6,9,9,9,9,9,9,9,9,9,9,12,12,12,12,13,12,12,12,12,12,14,14,14,14,14,13,13,13,13,14,0,0,0,0,0,0,-1,0,0,0,0,0,0,0,0,0,0,0,0,0
"Ind79","1_0_7",34,19,19,19,19,19,18,18,18,18,18,13,13,13,13,13,13,13,13,13,13,7,7,7,7,7,7,7,7,7,7,6,6,6,6,6,6,6,6,6,6,9,9,9,9,9,9,9,9,9,9,12,12,12,12,13,12,12,12,12,12,14,14,14,14,14,13,13,13,13,14,0,0,0,0,0,0,0,-1,0,0,0,0,0,0,0,0,0,0,0,0
"Ind80","1_0_0",34,19,19,19,19,19,18,18,18,18,18,13,13,13,13,13,13,13,13,13,13,7,7,7,7,7,7,7,7,7,7,6,6,6,6,6,6,6,6,6,6,9,9,9,9,9,9,9,9,9,9,12,12,12,12,13,12,12,12,12,12,14,14,14,14,14,13,13,13,13,14,0,0,0,0,0,0,0,0,-1,0,0,0,0,0,0,0,0,0,0,0
"Ind81","1_0_3",34,19,19,19,19,19,18,18,18,18,18,13,13,13,13,13,13,13,13,13,13,7,7,7,7,7,7,7,7,7,7,6,6,6,6,6,6,6,6,6,6,9,9,9,9,9,9,9,9,9,9,12,12,12,12,13,12,12,12,12,12,14,14,14,14,14,13,13,13,13,14,0,0,0,0,0,0,0,0,0,-1,0,0,0,0,0,0,0,0,0,0
"Ind82","6_0_2",33,18,18,18,18,18,17,17,17,17,17,12,12,12,12,12,12,12,12,12,12,6,6,6,6,6,6,6,6,6,6,5,5,5,5,5,5,5,5,5,5,8,8,8,8,8,8,8,8,8,8,11,11,11,11,12,11,11,11,11,11,13,13,13,13,13,12,12,12,12,13,9,9,9,9,9,9,9,9,9,9,-1,0,0,0,0,0,0,0,0,0
"Ind83","6_0_6",33,18,18,18,18,18,17,17,17,17,17,12,12,12,12,12,12,12,12,12,12,6,6,6,6,6,6,6,6,6,6,5,5,5,5,5,5,5,5,5,5,8,8,8,8,8,8,8,8,8,8,11,11,11,11,12,11,11,11,11,11,13,13,13,13,13,12,12,12,12,13,9,9,9,9,9,9,9,9,9,9,0,-1,0,0,0,0,0,0,0,0
"Ind84","6_0_8",33,18,18,18,18,18,17,17,17,17,17,12,12,12,12,12,12,12,12,12,12,6,6,6,6,6,6,6,6,6,6,5,5,5,5,5,5,5,5,5,5,8,8,8,8,8,8,8,8,8,8,11,11,11,11,12,11,11,11,11,11,13,13,13,13,13,12,12,12,12,13,9,9,9,9,9,9,9,9,9,9,0,0,-1,0,0,0,0,0,0,0
"Ind85","6_0_7",33,18,18,18,18,18,17,17,17,17,17,12,12,12,12,12,12,12,12,12,12,6,6,6,6,6,6,6,6,6,6,5,5,5,5,5,5,5,5,5,5,8,8,8,8,8,8,8,8,8,8,11,11,11,11,12,11,11,11,11,11,13,13,13,13,13,12,12,12,12,13,9,9,9,9,9,9,9,9,9,9,0,0,0,-1,0,0,0,0,0,0
"Ind86","6_0_4",33,18,18,18,18,18,17,17,17,17,17,12,12,12,12,12,12,12,12,12,12,6,6,6,6,6,6,6,6,6,6,5,5,5,5,5,5,5,5,5,5,8,8,8,8,8,8,8,8,8,8,11,11,11,11,12,11,11,11,11,11,13,13,13,13,13,12,12,12,12,13,9,9,9,9,9,9,9,9,9,9,0,0,0,0,-1,0,0,0,0,0
"Ind87","6_0_9",33,18,18,18,18,18,17,17,17,17,17,12,12,12,12,12,12,12,12,12,12,6,6,6,6,6,6,6,6,6,6,5,5,5,5,5,5,5,5,5,5,8,8,8,8,8,8,8,8,8,8,11,11,11,11,12,11,11,11,11,11,13,13,13,13,13,12,12,12,12,13,9,9,9,9,9,9,9,9,9,9,0,0,0,0,0,-1,0,0,0,0
"Ind88","6_0_1",33,18,18,18,18,18,17,17,17,17,17,12,12,12,12,12,12,12,12,12,12,6,6,6,6,6,6,6,6,6,6,5,5,5,5,5,5,5,5,5,5,8,8,8,8,8,8,8,8,8,8,11,11,11,11,12,11,11,11,11,11,13,13,13,13,13,12,12,12,12,13,9,9,9,9,9,9,9,9,9,9,0,0,0,0,0,0,-1,0,0,0
"Ind89","6_0_0",33,18,18,18,18,18,17,17,17,17,17,12,12,12,12,12,12,12,12,12,12,6,6,6,6,6,6,6,6,6,6,5,5,5,5,5,5,5,5,5,5,8,8,8,8,8,8,8,8,8,8,11,11,11,11,12,11,11,11,11,11,13,13,13,13,13,12,12,12,12,13,9,9,9,9,9,9,9,9,9,9,0,0,0,0,0,0,0,-1,0,0
"Ind90","6_0_3",34,19,19,19,19,19,18,18,18,18,18,13,13,13,13,13,13,13,13,13,13,7,7,7,7,7,7,7,7,7,7,6,6,6,6,6,6,6,6,6,6,9,9,9,9,9,9,9,9,9,9,12,12,12,12,13,12,12,12,12,12,14,14,14,14,14,13,13,13,13,14,10,10,10,10,10,10,10,10,10,10,1,1,1,1,1,1,1,1,-1,0
"Ind91","6_0_5",33,18,18,18,18,18,17,17,17,17,17,12,12,12,12,12,12,12,12,12,12,6,6,6,6,6,6,6,6,6,6,5,5,5,5,5,5,5,5,5,5,8,8,8,8,8,8,8,8,8,8,11,11,11,11,12,11,11,11,11,11,13,13,13,13,13,12,12,12,12,13,9,9,9,9,9,9,9,9,9,9,0,0,0,0,0,0,0,0,1,-1
