"","Description","Ind1","Ind2","Ind3","Ind4","Ind5","Ind6","Ind7","Ind8","Ind9","Ind10","Ind11","Ind12","Ind13","Ind14","Ind15","Ind16","Ind17","Ind18","Ind19","Ind20","Ind21","Ind22","Ind23","Ind24","Ind25","Ind26","Ind27","Ind28","Ind29","Ind30","Ind31","Ind32","Ind33","Ind34","Ind35","Ind36","Ind37","Ind38","Ind39","Ind40","Ind41","Ind42","Ind43","Ind44","Ind45","Ind46","Ind47","Ind48","Ind49","Ind50","Ind51","Ind52","Ind53","Ind54","Ind55","Ind56","Ind57","Ind58","Ind59","Ind60","Ind61","Ind62","Ind63","Ind64","Ind65","Ind66","Ind67","Ind68","Ind69","Ind70","Ind71","Ind72","Ind73","Ind74","Ind75","Ind76","Ind77","Ind78","Ind79","Ind80","Ind81","Ind82","Ind83","Ind84","Ind85","Ind86","Ind87","Ind88","Ind89","Ind90","Ind91"
"Ind1","0_0_0",-1,0,0,0,0,0,0,0,0,0,0,0,0,0,0,0,0,0,0,0,0,0,0,0,0,0,0,0,0,0,0,0,0,0,0,0,0,0,0,0,0,0,0,0,0,0,0,0,0,0,0,0,0,0,0,0,0,0,0,0,0,0,0,0,0,0,0,0,0,0,0,0,0,0,0,0,0,0,0,0,0,0,0,0,0,0,0,0,0,0,0
"Ind2","2_0_3",208,-1,0,0,0,0,0,0,0,0,0,0,0,0,0,0,0,0,0,0,0,0,0,0,0,0,0,0,0,0,0,0,0,0,0,0,0,0,0,0,0,0,0,0,0,0,0,0,0,0,0,0,0,0,0,0,0,0,0,0,0,0,0,0,0,0,0,0,0,0,0,0,0,0,0,0,0,0,0,0,0,0,0,0,0,0,0,0,0,0,0
"Ind3","2_0_0",208,0,-1,0,0,0,0,0,0,0,0,0,0,0,0,0,0,0,0,0,0,0,0,0,0,0,0,0,0,0,0,0,0,0,0,0,0,0,0,0,0,0,0,0,0,0,0,0,0,0,0,0,0,0,0,0,0,0,0,0,0,0,0,0,0,0,0,0,0,0,0,0,0,0,0,0,0,0,0,0,0,0,0,0,0,0,0,0,0,0,0
"Ind4","2_0_7",207,1,1,-1,0,0,0,0,0,0,0,0,0,0,0,0,0,0,0,0,0,0,0,0,0,0,0,0,0,0,0,0,0,0,0,0,0,0,0,0,0,0,0,0,0,0,0,0,0,0,0,0,0,0,0,0,0,0,0,0,0,0,0,0,0,0,0,0,0,0,0,0,0,0,0,0,0,0,0,0,0,0,0,0,0,0,0,0,0,0,0
"Ind5","2_0_5",207,1,1,0,-1,0,0,0,0,0,0,0,0,0,0,0,0,0,0,0,0,0,0,0,0,0,0,0,0,0,0,0,0,0,0,0,0,0,0,0,0,0,0,0,0,0,0,0,0,0,0,0,0,0,0,0,0,0,0,0,0,0,0,0,0,0,0,0,0,0,0,0,0,0,0,0,0,0,0,0,0,0,0,0,0,0,0,0,0,0,0
"Ind6","2_0_8",208,2,2,1,1,-1,0,0,0,0,0,0,0,0,0,0,0,0,0,0,0,0,0,0,0,0,0,0,0,0,0,0,0,0,0,0,0,0,0,0,0,0,0,0,0,0,0,0,0,0,0,0,0,0,0,0,0,0,0,0,0,0,0,0,0,0,0,0,0,0,0,0,0,0,0,0,0,0,0,0,0,0,0,0,0,0,0,0,0,0,0
"Ind7","2_0_9",208,3,3,2,2,1,-1,0,0,0,0,0,0,0,0,0,0,0,0,0,0,0,0,0,0,0,0,0,0,0,0,0,0,0,0,0,0,0,0,0,0,0,0,0,0,0,0,0,0,0,0,0,0,0,0,0,0,0,0,0,0,0,0,0,0,0,0,0,0,0,0,0,0,0,0,0,0,0,0,0,0,0,0,0,0,0,0,0,0,0,0
"Ind8","2_0_1",208,3,3,2,2,1,0,-1,0,0,0,0,0,0,0,0,0,0,0,0,0,0,0,0,0,0,0,0,0,0,0,0,0,0,0,0,0,0,0,0,0,0,0,0,0,0,0,0,0,0,0,0,0,0,0,0,0,0,0,0,0,0,0,0,0,0,0,0,0,0,0,0,0,0,0,0,0,0,0,0,0,0,0,0,0,0,0,0,0,0,0
"Ind9","2_0_6",208,3,3,2,2,1,0,0,-1,0,0,0,0,0,0,0,0,0,0,0,0,0,0,0,0,0,0,0,0,0,0,0,0,0,0,0,0,0,0,0,0,0,0,0,0,0,0,0,0,0,0,0,0,0,0,0,0,0,0,0,0,0,0,0,0,0,0,0,0,0,0,0,0,0,0,0,0,0,0,0,0,0,0,0,0,0,0,0,0,0,0
"Ind10","2_0_4",208,3,3,2,2,1,0,0,0,-1,0,0,0,0,0,0,0,0,0,0,0,0,0,0,0,0,0,0,0,0,0,0,0,0,0,0,0,0,0,0,0,0,0,0,0,0,0,0,0,0,0,0,0,0,0,0,0,0,0,0,0,0,0,0,0,0,0,0,0,0,0,0,0,0,0,0,0,0,0,0,0,0,0,0,0,0,0,0,0,0,0
"Ind11","2_0_2",207,1,1,0,0,1,2,2,2,2,-1,0,0,0,0,0,0,0,0,0,0,0,0,0,0,0,0,0,0,0,0,0,0,0,0,0,0,0,0,0,0,0,0,0,0,0,0,0,0,0,0,0,0,0,0,0,0,0,0,0,0,0,0,0,0,0,0,0,0,0,0,0,0,0,0,0,0,0,0,0,0,0,0,0,0,0,0,0,0,0,0
"Ind12","3_0_7",202,25,25,24,24,25,26,26,26,26,24,-1,0,0,0,0,0,0,0,0,0,0,0,0,0,0,0,0,0,0,0,0,0,0,0,0,0,0,0,0,0,0,0,0,0,0,0,0,0,0,0,0,0,0,0,0,0,0,0,0,0,0,0,0,0,0,0,0,0,0,0,0,0,0,0,0,0,0,0,0,0,0,0,0,0,0,0,0,0,0,0
"Ind13","3_0_3",201,21,21,20,20,21,22,22,22,22,20,6,-1,0,0,0,0,0,0,0,0,0,0,0,0,0,0,0,0,0,0,0,0,0,0,0,0,0,0,0,0,0,0,0,0,0,0,0,0,0,0,0,0,0,0,0,0,0,0,0,0,0,0,0,0,0,0,0,0,0,0,0,0,0,0,0,0,0,0,0,0,0,0,0,0,0,0,0,0,0,0
"Ind14","3_0_4",201,21,21,20,20,21,22,22,22,22,20,6,0,-1,0,0,0,0,0,0,0,0,0,0,0,0,0,0,0,0,0,0,0,0,0,0,0,0,0,0,0,0,0,0,0,0,0,0,0,0,0,0,0,0,0,0,0,0,0,0,0,0,0,0,0,0,0,0,0,0,0,0,0,0,0,0,0,0,0,0,0,0,0,0,0,0,0,0,0,0,0
"Ind15","3_0_8",202,22,22,21,21,22,23,23,23,23,21,7,3,3,-1,0,0,0,0,0,0,0,0,0,0,0,0,0,0,0,0,0,0,0,0,0,0,0,0,0,0,0,0,0,0,0,0,0,0,0,0,0,0,0,0,0,0,0,0,0,0,0,0,0,0,0,0,0,0,0,0,0,0,0,0,0,0,0,0,0,0,0,0,0,0,0,0,0,0,0,0
"Ind16","3_0_1",202,22,22,21,21,22,23,23,23,23,21,7,3,3,0,-1,0,0,0,0,0,0,0,0,0,0,0,0,0,0,0,0,0,0,0,0,0,0,0,0,0,0,0,0,0,0,0,0,0,0,0,0,0,0,0,0,0,0,0,0,0,0,0,0,0,0,0,0,0,0,0,0,0,0,0,0,0,0,0,0,0,0,0,0,0,0,0,0,0,0,0
"Ind17","3_0_5",202,22,22,21,21,22,23,23,23,23,21,7,3,3,0,0,-1,0,0,0,0,0,0,0,0,0,0,0,0,0,0,0,0,0,0,0,0,0,0,0,0,0,0,0,0,0,0,0,0,0,0,0,0,0,0,0,0,0,0,0,0,0,0,0,0,0,0,0,0,0,0,0,0,0,0,0,0,0,0,0,0,0,0,0,0,0,0,0,0,0,0
"Ind18","3_0_9",202,22,22,21,21,22,23,23,23,23,21,7,3,3,0,0,0,-1,0,0,0,0,0,0,0,0,0,0,0,0,0,0,0,0,0,0,0,0,0,0,0,0,0,0,0,0,0,0,0,0,0,0,0,0,0,0,0,0,0,0,0,0,0,0,0,0,0,0,0,0,0,0,0,0,0,0,0,0,0,0,0,0,0,0,0,0,0,0,0,0,0
"Ind19","3_0_6",202,22,22,21,21,22,23,23,23,23,21,7,3,3,0,0,0,0,-1,0,0,0,0,0,0,0,0,0,0,0,0,0,0,0,0,0,0,0,0,0,0,0,0,0,0,0,0,0,0,0,0,0,0,0,0,0,0,0,0,0,0,0,0,0,0,0,0,0,0,0,0,0,0,0,0,0,0,0,0,0,0,0,0,0,0,0,0,0,0,0,0
"Ind20","3_0_2",201,23,23,22,22,23,24,24,24,24,22,8,4,4,5,5,5,5,5,-1,0,0,0,0,0,0,0,0,0,0,0,0,0,0,0,0,0,0,0,0,0,0,0,0,0,0,0,0,0,0,0,0,0,0,0,0,0,0,0,0,0,0,0,0,0,0,0,0,0,0,0,0,0,0,0,0,0,0,0,0,0,0,0,0,0,0,0,0,0,0,0
"Ind21","3_0_0",201,23,23,22,22,23,24,24,24,24,22,8,4,4,5,5,5,5,5,0,-1,0,0,0,0,0,0,0,0,0,0,0,0,0,0,0,0,0,0,0,0,0,0,0,0,0,0,0,0,0,0,0,0,0,0,0,0,0,0,0,0,0,0,0,0,0,0,0,0,0,0,0,0,0,0,0,0,0,0,0,0,0,0,0,0,0,0,0,0,0,0
"Ind22","4_0_1",202,25,25,24,24,25,26,26,26,26,24,10,8,8,9,9,9,9,9,10,10,-1,0,0,0,0,0,0,0,0,0,0,0,0,0,0,0,0,0,0,0,0,0,0,0,0,0,0,0,0,0,0,0,0,0,0,0,0,0,0,0,0,0,0,0,0,0,0,0,0,0,0,0,0,0,0,0,0,0,0,0,0,0,0,0,0,0,0,0,0,0
"Ind23","4_0_2",202,25,25,24,24,25,26,26,26,26,24,10,8,8,9,9,9,9,9,10,10,0,-1,0,0,0,0,0,0,0,0,0,0,0,0,0,0,0,0,0,0,0,0,0,0,0,0,0,0,0,0,0,0,0,0,0,0,0,0,0,0,0,0,0,0,0,0,0,0,0,0,0,0,0,0,0,0,0,0,0,0,0,0,0,0,0,0,0,0,0,0
"Ind24","4_0_3",203,26,26,25,25,26,27,27,27,27,25,11,9,9,10,10,10,10,10,11,11,1,1,-1,0,0,0,0,0,0,0,0,0,0,0,0,0,0,0,0,0,0,0,0,0,0,0,0,0,0,0,0,0,0,0,0,0,0,0,0,0,0,0,0,0,0,0,0,0,0,0,0,0,0,0,0,0,0,0,0,0,0,0,0,0,0,0,0,0,0,0
"Ind25","4_0_8",203,22,22,21,21,22,23,23,23,23,21,7,5,5,6,6,6,6,6,7,7,3,3,4,-1,0,0,0,0,0,0,0,0,0,0,0,0,0,0,0,0,0,0,0,0,0,0,0,0,0,0,0,0,0,0,0,0,0,0,0,0,0,0,0,0,0,0,0,0,0,0,0,0,0,0,0,0,0,0,0,0,0,0,0,0,0,0,0,0,0,0
"Ind26","4_0_6",203,22,22,21,21,22,23,23,23,23,21,7,5,5,6,6,6,6,6,7,7,3,3,4,0,-1,0,0,0,0,0,0,0,0,0,0,0,0,0,0,0,0,0,0,0,0,0,0,0,0,0,0,0,0,0,0,0,0,0,0,0,0,0,0,0,0,0,0,0,0,0,0,0,0,0,0,0,0,0,0,0,0,0,0,0,0,0,0,0,0,0
"Ind27","4_0_5",203,22,22,21,21,22,23,23,23,23,21,7,5,5,6,6,6,6,6,7,7,3,3,4,0,0,-1,0,0,0,0,0,0,0,0,0,0,0,0,0,0,0,0,0,0,0,0,0,0,0,0,0,0,0,0,0,0,0,0,0,0,0,0,0,0,0,0,0,0,0,0,0,0,0,0,0,0,0,0,0,0,0,0,0,0,0,0,0,0,0,0
"Ind28","4_0_0",202,22,22,21,21,22,23,23,23,23,21,9,7,7,8,8,8,8,8,9,9,7,7,8,4,4,4,-1,0,0,0,0,0,0,0,0,0,0,0,0,0,0,0,0,0,0,0,0,0,0,0,0,0,0,0,0,0,0,0,0,0,0,0,0,0,0,0,0,0,0,0,0,0,0,0,0,0,0,0,0,0,0,0,0,0,0,0,0,0,0,0
"Ind29","4_0_7",202,24,24,23,23,24,25,25,25,25,23,9,7,7,8,8,8,8,8,9,9,7,7,8,4,4,4,2,-1,0,0,0,0,0,0,0,0,0,0,0,0,0,0,0,0,0,0,0,0,0,0,0,0,0,0,0,0,0,0,0,0,0,0,0,0,0,0,0,0,0,0,0,0,0,0,0,0,0,0,0,0,0,0,0,0,0,0,0,0,0,0
"Ind30","4_0_4",202,24,24,23,23,24,25,25,25,25,23,9,7,7,8,8,8,8,8,9,9,7,7,8,4,4,4,2,0,-1,0,0,0,0,0,0,0,0,0,0,0,0,0,0,0,0,0,0,0,0,0,0,0,0,0,0,0,0,0,0,0,0,0,0,0,0,0,0,0,0,0,0,0,0,0,0,0,0,0,0,0,0,0,0,0,0,0,0,0,0,0
"Ind31","4_0_9",203,22,22,21,21,22,23,23,23,23,21,7,5,5,6,6,6,6,6,7,7,5,5,6,2,2,2,4,4,4,-1,0,0,0,0,0,0,0,0,0,0,0,0,0,0,0,0,0,0,0,0,0,0,0,0,0,0,0,0,0,0,0,0,0,0,0,0,0,0,0,0,0,0,0,0,0,0,0,0,0,0,0,0,0,0,0,0,0,0,0,0
"Ind32","6_0_4",204,46,46,45,45,46,47,47,47,47,45,42,42,42,43,43,43,43,43,44,44,44,44,45,41,41,41,41,43,43,41,-1,0,0,0,0,0,0,0,0,0,0,0,0,0,0,0,0,0,0,0,0,0,0,0,0,0,0,0,0,0,0,0,0,0,0,0,0,0,0,0,0,0,0,0,0,0,0,0,0,0,0,0,0,0,0,0,0,0,0,0
"Ind33","6_0_7",204,46,46,45,45,46,47,47,47,47,45,42,42,42,43,43,43,43,43,44,44,44,44,45,41,41,41,41,43,43,41,0,-1,0,0,0,0,0,0,0,0,0,0,0,0,0,0,0,0,0,0,0,0,0,0,0,0,0,0,0,0,0,0,0,0,0,0,0,0,0,0,0,0,0,0,0,0,0,0,0,0,0,0,0,0,0,0,0,0,0,0
"Ind34","6_0_2",204,46,46,45,45,46,47,47,47,47,45,42,42,42,43,43,43,43,43,44,44,44,44,45,41,41,41,41,43,43,41,0,0,-1,0,0,0,0,0,0,0,0,0,0,0,0,0,0,0,0,0,0,0,0,0,0,0,0,0,0,0,0,0,0,0,0,0,0,0,0,0,0,0,0,0,0,0,0,0,0,0,0,0,0,0,0,0,0,0,0,0
"Ind35","6_0_0",205,47,47,46,46,47,48,48,48,48,46,43,43,43,44,44,44,44,44,45,45,45,45,46,42,42,42,42,44,44,42,1,1,1,-1,0,0,0,0,0,0,0,0,0,0,0,0,0,0,0,0,0,0,0,0,0,0,0,0,0,0,0,0,0,0,0,0,0,0,0,0,0,0,0,0,0,0,0,0,0,0,0,0,0,0,0,0,0,0,0,0
"Ind36","6_0_3",203,45,45,44,44,45,46,46,46,46,44,41,41,41,42,42,42,42,42,43,43,43,43,44,40,40,40,40,42,42,40,1,1,1,2,-1,0,0,0,0,0,0,0,0,0,0,0,0,0,0,0,0,0,0,0,0,0,0,0,0,0,0,0,0,0,0,0,0,0,0,0,0,0,0,0,0,0,0,0,0,0,0,0,0,0,0,0,0,0,0,0
"Ind37","6_0_6",203,45,45,44,44,45,46,46,46,46,44,41,41,41,42,42,42,42,42,43,43,43,43,44,40,40,40,40,42,42,40,1,1,1,2,0,-1,0,0,0,0,0,0,0,0,0,0,0,0,0,0,0,0,0,0,0,0,0,0,0,0,0,0,0,0,0,0,0,0,0,0,0,0,0,0,0,0,0,0,0,0,0,0,0,0,0,0,0,0,0,0
"Ind38","6_0_1",203,45,45,44,44,45,46,46,46,46,44,41,41,41,42,42,42,42,42,43,43,43,43,44,40,40,40,40,42,42,40,1,1,1,2,0,0,-1,0,0,0,0,0,0,0,0,0,0,0,0,0,0,0,0,0,0,0,0,0,0,0,0,0,0,0,0,0,0,0,0,0,0,0,0,0,0,0,0,0,0,0,0,0,0,0,0,0,0,0,0,0
"Ind39","6_0_9",203,45,45,44,44,45,46,46,46,46,44,41,41,41,42,42,42,42,42,43,43,43,43,44,40,40,40,40,42,42,40,1,1,1,2,0,0,0,-1,0,0,0,0,0,0,0,0,0,0,0,0,0,0,0,0,0,0,0,0,0,0,0,0,0,0,0,0,0,0,0,0,0,0,0,0,0,0,0,0,0,0,0,0,0,0,0,0,0,0,0,0
"Ind40","6_0_5",203,47,47,46,46,47,48,48,48,48,46,43,43,43,44,44,44,44,44,45,45,45,45,46,42,42,42,42,44,44,42,3,3,3,4,2,2,2,2,-1,0,0,0,0,0,0,0,0,0,0,0,0,0,0,0,0,0,0,0,0,0,0,0,0,0,0,0,0,0,0,0,0,0,0,0,0,0,0,0,0,0,0,0,0,0,0,0,0,0,0,0
"Ind41","6_0_8",203,45,45,44,44,45,46,46,46,46,44,41,41,41,42,42,42,42,42,43,43,43,43,44,40,40,40,40,42,42,40,1,1,1,2,0,0,0,0,2,-1,0,0,0,0,0,0,0,0,0,0,0,0,0,0,0,0,0,0,0,0,0,0,0,0,0,0,0,0,0,0,0,0,0,0,0,0,0,0,0,0,0,0,0,0,0,0,0,0,0,0
"Ind42","1_0_7",215,55,55,54,54,55,56,56,56,56,54,54,53,53,54,54,54,54,54,55,55,55,55,56,52,52,52,52,54,54,52,45,45,45,46,44,44,44,44,44,44,-1,0,0,0,0,0,0,0,0,0,0,0,0,0,0,0,0,0,0,0,0,0,0,0,0,0,0,0,0,0,0,0,0,0,0,0,0,0,0,0,0,0,0,0,0,0,0,0,0,0
"Ind43","1_0_8",215,55,55,54,54,55,56,56,56,56,54,54,53,53,54,54,54,54,54,55,55,55,55,56,52,52,52,52,54,54,52,45,45,45,46,44,44,44,44,44,44,0,-1,0,0,0,0,0,0,0,0,0,0,0,0,0,0,0,0,0,0,0,0,0,0,0,0,0,0,0,0,0,0,0,0,0,0,0,0,0,0,0,0,0,0,0,0,0,0,0,0
"Ind44","1_0_9",215,55,55,54,54,55,56,56,56,56,54,54,53,53,54,54,54,54,54,55,55,55,55,56,52,52,52,52,54,54,52,45,45,45,46,44,44,44,44,44,44,0,0,-1,0,0,0,0,0,0,0,0,0,0,0,0,0,0,0,0,0,0,0,0,0,0,0,0,0,0,0,0,0,0,0,0,0,0,0,0,0,0,0,0,0,0,0,0,0,0,0
"Ind45","1_0_1",215,53,53,52,52,53,54,54,54,54,52,50,49,49,50,50,50,50,50,51,51,51,51,52,48,48,48,48,50,50,48,43,43,43,44,42,42,42,42,42,42,4,4,4,-1,0,0,0,0,0,0,0,0,0,0,0,0,0,0,0,0,0,0,0,0,0,0,0,0,0,0,0,0,0,0,0,0,0,0,0,0,0,0,0,0,0,0,0,0,0,0
"Ind46","1_0_0",215,53,53,52,52,53,54,54,54,54,52,50,49,49,50,50,50,50,50,51,51,51,51,52,48,48,48,48,50,50,48,43,43,43,44,42,42,42,42,42,42,4,4,4,0,-1,0,0,0,0,0,0,0,0,0,0,0,0,0,0,0,0,0,0,0,0,0,0,0,0,0,0,0,0,0,0,0,0,0,0,0,0,0,0,0,0,0,0,0,0,0
"Ind47","1_0_5",215,53,53,52,52,53,54,54,54,54,52,50,49,49,50,50,50,50,50,51,51,51,51,52,48,48,48,48,50,50,48,43,43,43,44,42,42,42,42,42,42,4,4,4,0,0,-1,0,0,0,0,0,0,0,0,0,0,0,0,0,0,0,0,0,0,0,0,0,0,0,0,0,0,0,0,0,0,0,0,0,0,0,0,0,0,0,0,0,0,0,0
"Ind48","1_0_2",216,54,54,53,53,54,55,55,55,55,53,51,50,50,51,51,51,51,51,52,52,52,52,53,49,49,49,49,51,51,49,40,40,40,41,39,39,39,39,39,39,5,5,5,3,3,3,-1,0,0,0,0,0,0,0,0,0,0,0,0,0,0,0,0,0,0,0,0,0,0,0,0,0,0,0,0,0,0,0,0,0,0,0,0,0,0,0,0,0,0,0
"Ind49","1_0_3",216,54,54,53,53,54,55,55,55,55,53,51,50,50,51,51,51,51,51,52,52,52,52,53,49,49,49,49,51,51,49,40,40,40,41,39,39,39,39,39,39,5,5,5,3,3,3,0,-1,0,0,0,0,0,0,0,0,0,0,0,0,0,0,0,0,0,0,0,0,0,0,0,0,0,0,0,0,0,0,0,0,0,0,0,0,0,0,0,0,0,0
"Ind50","1_0_4",216,54,54,53,53,54,55,55,55,55,53,51,50,50,51,51,51,51,51,52,52,52,52,53,49,49,49,49,51,51,49,40,40,40,41,39,39,39,39,39,39,5,5,5,3,3,3,0,0,-1,0,0,0,0,0,0,0,0,0,0,0,0,0,0,0,0,0,0,0,0,0,0,0,0,0,0,0,0,0,0,0,0,0,0,0,0,0,0,0,0,0
"Ind51","1_0_6",215,57,57,56,56,57,58,58,58,58,56,54,53,53,54,54,54,54,54,55,55,55,55,56,52,52,52,52,54,54,52,45,45,45,46,44,44,44,44,44,44,8,8,8,6,6,6,7,7,7,-1,0,0,0,0,0,0,0,0,0,0,0,0,0,0,0,0,0,0,0,0,0,0,0,0,0,0,0,0,0,0,0,0,0,0,0,0,0,0,0,0
"Ind52","7_0_3",201,52,52,51,51,52,53,53,53,53,51,48,48,48,49,49,49,49,49,50,50,52,52,53,49,49,49,49,51,51,49,42,42,42,43,41,41,41,41,43,41,59,59,59,57,57,57,56,56,56,59,-1,0,0,0,0,0,0,0,0,0,0,0,0,0,0,0,0,0,0,0,0,0,0,0,0,0,0,0,0,0,0,0,0,0,0,0,0,0,0,0
"Ind53","7_0_5",202,53,53,52,52,53,54,54,54,54,52,49,49,49,50,50,50,50,50,51,51,53,53,54,50,50,50,50,52,52,50,43,43,43,44,42,42,42,42,44,42,60,60,60,58,58,58,57,57,57,60,1,-1,0,0,0,0,0,0,0,0,0,0,0,0,0,0,0,0,0,0,0,0,0,0,0,0,0,0,0,0,0,0,0,0,0,0,0,0,0,0
"Ind54","7_0_4",201,52,52,51,51,52,53,53,53,53,51,48,48,48,49,49,49,49,49,50,50,52,52,53,49,49,49,49,51,51,49,42,42,42,43,41,41,41,41,43,41,59,59,59,57,57,57,56,56,56,59,2,3,-1,0,0,0,0,0,0,0,0,0,0,0,0,0,0,0,0,0,0,0,0,0,0,0,0,0,0,0,0,0,0,0,0,0,0,0,0,0
"Ind55","7_0_6",201,52,52,51,51,52,53,53,53,53,51,48,48,48,49,49,49,49,49,50,50,52,52,53,49,49,49,49,51,51,49,42,42,42,43,41,41,41,41,43,41,59,59,59,57,57,57,56,56,56,59,2,3,0,-1,0,0,0,0,0,0,0,0,0,0,0,0,0,0,0,0,0,0,0,0,0,0,0,0,0,0,0,0,0,0,0,0,0,0,0,0
"Ind56","7_0_7",201,52,52,51,51,52,53,53,53,53,51,48,48,48,49,49,49,49,49,50,50,52,52,53,49,49,49,49,51,51,49,42,42,42,43,41,41,41,41,43,41,59,59,59,57,57,57,56,56,56,59,2,3,0,0,-1,0,0,0,0,0,0,0,0,0,0,0,0,0,0,0,0,0,0,0,0,0,0,0,0,0,0,0,0,0,0,0,0,0,0,0
"Ind57","7_0_8",201,52,52,51,51,52,53,53,53,53,51,48,48,48,49,49,49,49,49,50,50,52,52,53,49,49,49,49,51,51,49,42,42,42,43,41,41,41,41,43,41,59,59,59,57,57,57,56,56,56,59,2,3,0,0,0,-1,0,0,0,0,0,0,0,0,0,0,0,0,0,0,0,0,0,0,0,0,0,0,0,0,0,0,0,0,0,0,0,0,0,0
"Ind58","7_0_0",201,52,52,51,51,52,53,53,53,53,51,48,48,48,49,49,49,49,49,50,50,52,52,53,49,49,49,49,51,51,49,42,42,42,43,41,41,41,41,43,41,59,59,59,57,57,57,56,56,56,59,2,3,0,0,0,0,-1,0,0,0,0,0,0,0,0,0,0,0,0,0,0,0,0,0,0,0,0,0,0,0,0,0,0,0,0,0,0,0,0,0
"Ind59","7_0_9",200,51,51,50,50,51,52,52,52,52,50,47,47,47,48,48,48,48,48,49,49,51,51,52,48,48,48,48,50,50,48,41,41,41,42,40,40,40,40,42,40,58,58,58,56,56,56,55,55,55,58,1,2,1,1,1,1,1,-1,0,0,0,0,0,0,0,0,0,0,0,0,0,0,0,0,0,0,0,0,0,0,0,0,0,0,0,0,0,0,0,0
"Ind60","7_0_1",200,51,51,50,50,51,52,52,52,52,50,47,47,47,48,48,48,48,48,49,49,51,51,52,48,48,48,48,50,50,48,41,41,41,42,40,40,40,40,42,40,58,58,58,56,56,56,55,55,55,58,1,2,1,1,1,1,1,0,-1,0,0,0,0,0,0,0,0,0,0,0,0,0,0,0,0,0,0,0,0,0,0,0,0,0,0,0,0,0,0,0
"Ind61","7_0_2",202,55,55,54,54,55,56,56,56,56,54,51,51,51,52,52,52,52,52,53,53,55,55,56,52,52,52,52,54,54,52,43,43,43,44,42,42,42,42,44,42,60,60,60,58,58,58,57,57,57,60,5,6,5,5,5,5,5,4,4,-1,0,0,0,0,0,0,0,0,0,0,0,0,0,0,0,0,0,0,0,0,0,0,0,0,0,0,0,0,0,0
"Ind62","5_0_8",205,55,55,54,54,55,56,56,56,56,54,49,49,49,50,50,50,50,50,51,51,51,51,52,50,50,50,50,52,52,50,45,45,45,46,44,44,44,44,46,44,58,58,58,56,56,56,55,55,55,58,32,33,32,32,32,32,32,31,31,33,-1,0,0,0,0,0,0,0,0,0,0,0,0,0,0,0,0,0,0,0,0,0,0,0,0,0,0,0,0,0
"Ind63","5_0_9",204,54,54,53,53,54,55,55,55,55,53,48,48,48,49,49,49,49,49,50,50,50,50,51,49,49,49,49,51,51,49,44,44,44,45,43,43,43,43,45,43,57,57,57,55,55,55,54,54,54,57,31,32,31,31,31,31,31,30,30,32,1,-1,0,0,0,0,0,0,0,0,0,0,0,0,0,0,0,0,0,0,0,0,0,0,0,0,0,0,0,0
"Ind64","5_0_1",204,54,54,53,53,54,55,55,55,55,53,48,48,48,49,49,49,49,49,50,50,50,50,51,49,49,49,49,51,51,49,44,44,44,45,43,43,43,43,45,43,57,57,57,55,55,55,54,54,54,57,31,32,31,31,31,31,31,30,30,32,1,0,-1,0,0,0,0,0,0,0,0,0,0,0,0,0,0,0,0,0,0,0,0,0,0,0,0,0,0,0
"Ind65","5_0_2",204,54,54,53,53,54,55,55,55,55,53,48,48,48,49,49,49,49,49,50,50,50,50,51,49,49,49,49,51,51,49,44,44,44,45,43,43,43,43,45,43,57,57,57,55,55,55,54,54,54,57,31,32,31,31,31,31,31,30,30,32,1,0,0,-1,0,0,0,0,0,0,0,0,0,0,0,0,0,0,0,0,0,0,0,0,0,0,0,0,0,0
"Ind66","5_0_0",204,54,54,53,53,54,55,55,55,55,53,48,48,48,49,49,49,49,49,50,50,50,50,51,49,49,49,49,51,51,49,44,44,44,45,43,43,43,43,45,43,57,57,57,55,55,55,54,54,54,57,31,32,31,31,31,31,31,30,30,32,1,0,0,0,-1,0,0,0,0,0,0,0,0,0,0,0,0,0,0,0,0,0,0,0,0,0,0,0,0,0
"Ind67","5_0_4",203,57,57,56,56,57,58,58,58,58,56,51,51,51,52,52,52,52,52,53,53,51,51,52,52,52,52,52,54,54,52,47,47,47,48,46,46,46,46,48,46,60,60,60,58,58,58,57,57,57,60,34,35,34,34,34,34,34,33,33,35,4,3,3,3,3,-1,0,0,0,0,0,0,0,0,0,0,0,0,0,0,0,0,0,0,0,0,0,0,0,0
"Ind68","5_0_7",204,56,56,55,55,56,57,57,57,57,55,50,50,50,51,51,51,51,51,52,52,50,50,51,51,51,51,51,53,53,51,46,46,46,47,45,45,45,45,47,45,59,59,59,57,57,57,56,56,56,59,33,34,33,33,33,33,33,32,32,34,3,2,2,2,2,1,-1,0,0,0,0,0,0,0,0,0,0,0,0,0,0,0,0,0,0,0,0,0,0,0
"Ind69","5_0_5",204,56,56,55,55,56,57,57,57,57,55,50,50,50,51,51,51,51,51,52,52,50,50,51,51,51,51,51,53,53,51,46,46,46,47,45,45,45,45,47,45,59,59,59,57,57,57,56,56,56,59,33,34,33,33,33,33,33,32,32,34,3,2,2,2,2,1,0,-1,0,0,0,0,0,0,0,0,0,0,0,0,0,0,0,0,0,0,0,0,0,0
"Ind70","5_0_6",203,57,57,56,56,57,58,58,58,58,56,51,51,51,52,52,52,52,52,53,53,51,51,52,52,52,52,52,54,54,52,47,47,47,48,46,46,46,46,48,46,58,58,58,56,56,56,55,55,55,58,34,35,34,34,34,34,34,33,33,35,4,3,3,3,3,2,1,1,-1,0,0,0,0,0,0,0,0,0,0,0,0,0,0,0,0,0,0,0,0,0
"Ind71","5_0_3",204,56,56,55,55,56,57,57,57,57,55,50,50,50,51,51,51,51,51,52,52,50,50,51,51,51,51,51,53,53,51,46,46,46,47,45,45,45,45,47,45,59,59,59,57,57,57,56,56,56,59,33,34,33,33,33,33,33,32,32,34,3,2,2,2,2,1,0,0,1,-1,0,0,0,0,0,0,0,0,0,0,0,0,0,0,0,0,0,0,0,0
"Ind72","8_0_7",193,150,150,149,149,150,151,151,151,151,149,143,144,144,145,145,145,145,145,147,147,142,142,143,145,145,145,147,147,147,143,138,138,138,137,139,139,139,139,141,139,141,141,141,141,141,141,140,140,140,143,140,141,140,140,140,140,140,139,139,141,138,137,137,137,137,136,137,137,138,137,-1,0,0,0,0,0,0,0,0,0,0,0,0,0,0,0,0,0,0,0
"Ind73","8_0_9",194,148,148,147,147,148,149,149,149,149,147,141,142,142,143,143,143,143,143,145,145,140,140,141,143,143,143,145,145,145,141,136,136,136,135,137,137,137,137,139,137,139,139,139,139,139,139,138,138,138,141,138,139,138,138,138,138,138,137,137,139,136,135,135,135,135,134,135,135,136,135,2,-1,0,0,0,0,0,0,0,0,0,0,0,0,0,0,0,0,0,0
"Ind74","8_0_5",193,148,148,147,147,148,149,149,149,149,147,141,142,142,143,143,143,143,143,145,145,140,140,141,143,143,143,145,145,145,141,136,136,136,135,137,137,137,137,139,137,139,139,139,139,139,139,138,138,138,141,138,139,138,138,138,138,138,137,137,139,136,135,135,135,135,134,135,135,136,135,4,2,-1,0,0,0,0,0,0,0,0,0,0,0,0,0,0,0,0,0
"Ind75","8_0_4",193,148,148,147,147,148,149,149,149,149,147,141,142,142,143,143,143,143,143,145,145,140,140,141,143,143,143,145,145,145,141,136,136,136,135,137,137,137,137,139,137,139,139,139,139,139,139,138,138,138,141,138,139,138,138,138,138,138,137,137,139,136,135,135,135,135,134,135,135,136,135,4,2,0,-1,0,0,0,0,0,0,0,0,0,0,0,0,0,0,0,0
"Ind76","8_0_8",193,148,148,147,147,148,149,149,149,149,147,141,142,142,143,143,143,143,143,145,145,140,140,141,143,143,143,145,145,145,141,136,136,136,135,137,137,137,137,139,137,139,139,139,139,139,139,138,138,138,141,138,139,138,138,138,138,138,137,137,139,136,135,135,135,135,134,135,135,136,135,4,2,0,0,-1,0,0,0,0,0,0,0,0,0,0,0,0,0,0,0
"Ind77","8_0_2",195,149,149,148,148,149,150,150,150,150,148,142,143,143,144,144,144,144,144,146,146,141,141,142,144,144,144,146,146,146,142,137,137,137,136,138,138,138,138,140,138,140,140,140,140,140,140,139,139,139,142,139,140,139,139,139,139,139,138,138,140,137,136,136,136,136,135,136,136,137,136,3,1,3,3,3,-1,0,0,0,0,0,0,0,0,0,0,0,0,0,0
"Ind78","8_0_3",194,148,148,147,147,148,149,149,149,149,147,141,142,142,143,143,143,143,143,145,145,140,140,141,143,143,143,145,145,145,141,136,136,136,135,137,137,137,137,139,137,139,139,139,139,139,139,138,138,138,141,138,139,138,138,138,138,138,137,137,139,136,135,135,135,135,134,135,135,136,135,2,0,2,2,2,1,-1,0,0,0,0,0,0,0,0,0,0,0,0,0
"Ind79","8_0_6",194,148,148,147,147,148,149,149,149,149,147,141,142,142,143,143,143,143,143,145,145,140,140,141,143,143,143,145,145,145,141,136,136,136,135,137,137,137,137,139,137,139,139,139,139,139,139,138,138,138,141,138,139,138,138,138,138,138,137,137,139,136,135,135,135,135,134,135,135,136,135,2,0,2,2,2,1,0,-1,0,0,0,0,0,0,0,0,0,0,0,0
"Ind80","8_0_1",195,149,149,148,148,149,150,150,150,150,148,142,143,143,144,144,144,144,144,146,146,141,141,142,144,144,144,146,146,146,142,137,137,137,136,138,138,138,138,140,138,140,140,140,140,140,140,139,139,139,142,139,140,139,139,139,139,139,138,138,140,135,134,134,134,134,133,134,134,135,134,3,1,3,3,3,2,1,1,-1,0,0,0,0,0,0,0,0,0,0,0
"Ind81","8_0_0",195,149,149,148,148,149,150,150,150,150,148,142,143,143,144,144,144,144,144,146,146,141,141,142,144,144,144,146,146,146,142,137,137,137,136,138,138,138,138,140,138,140,140,140,140,140,140,139,139,139,142,139,140,139,139,139,139,139,138,138,140,135,134,134,134,134,133,134,134,135,134,3,1,3,3,3,2,1,1,0,-1,0,0,0,0,0,0,0,0,0,0
"Ind82","9_0_0",196,136,136,135,135,136,137,137,137,137,135,133,134,134,135,135,135,135,135,137,137,133,133,134,134,134,134,134,136,136,132,122,122,122,121,123,123,123,123,125,123,129,129,129,129,129,129,128,128,128,131,126,127,126,126,126,126,126,125,125,125,126,125,125,125,125,124,125,125,126,125,30,28,28,28,28,29,28,28,29,29,-1,0,0,0,0,0,0,0,0,0
"Ind83","9_0_6",196,136,136,135,135,136,137,137,137,137,135,133,134,134,135,135,135,135,135,137,137,133,133,134,134,134,134,134,136,136,132,122,122,122,121,123,123,123,123,125,123,129,129,129,129,129,129,128,128,128,131,126,127,126,126,126,126,126,125,125,125,126,125,125,125,125,124,125,125,126,125,30,28,28,28,28,29,28,28,29,29,0,-1,0,0,0,0,0,0,0,0
"Ind84","9_0_9",196,136,136,135,135,136,137,137,137,137,135,133,134,134,135,135,135,135,135,137,137,133,133,134,134,134,134,134,136,136,132,122,122,122,121,123,123,123,123,125,123,129,129,129,129,129,129,128,128,128,131,126,127,126,126,126,126,126,125,125,125,126,125,125,125,125,124,125,125,126,125,30,28,28,28,28,29,28,28,29,29,0,0,-1,0,0,0,0,0,0,0
"Ind85","9_0_2",196,136,136,135,135,136,137,137,137,137,135,133,134,134,135,135,135,135,135,137,137,133,133,134,134,134,134,134,136,136,132,122,122,122,121,123,123,123,123,125,123,129,129,129,129,129,129,128,128,128,131,126,127,126,126,126,126,126,125,125,125,126,125,125,125,125,124,125,125,126,125,30,28,28,28,28,29,28,28,29,29,0,0,0,-1,0,0,0,0,0,0
"Ind86","9_0_1",196,136,136,135,135,136,137,137,137,137,135,133,134,134,135,135,135,135,135,137,137,133,133,134,134,134,134,134,136,136,132,122,122,122,121,123,123,123,123,125,123,129,129,129,129,129,129,128,128,128,131,126,127,126,126,126,126,126,125,125,125,126,125,125,125,125,124,125,125,126,125,30,28,28,28,28,29,28,28,29,29,0,0,0,0,-1,0,0,0,0,0
"Ind87","9_0_7",196,136,136,135,135,136,137,137,137,137,135,133,134,134,135,135,135,135,135,137,137,133,133,134,134,134,134,134,136,136,132,122,122,122,121,123,123,123,123,125,123,129,129,129,129,129,129,128,128,128,131,126,127,126,126,126,126,126,125,125,125,126,125,125,125,125,124,125,125,126,125,30,28,28,28,28,29,28,28,29,29,0,0,0,0,0,-1,0,0,0,0
"Ind88","9_0_3",196,138,138,137,137,138,139,139,139,139,137,133,134,134,135,135,135,135,135,137,137,133,133,134,134,134,134,134,136,136,132,124,124,124,123,125,125,125,125,127,125,131,131,131,131,131,131,130,130,130,133,128,129,128,128,128,128,128,127,127,127,128,127,127,127,127,126,127,127,128,127,30,28,28,28,28,29,28,28,29,29,2,2,2,2,2,2,-1,0,0,0
"Ind89","9_0_4",196,138,138,137,137,138,139,139,139,139,137,133,134,134,135,135,135,135,135,137,137,133,133,134,134,134,134,134,136,136,132,124,124,124,123,125,125,125,125,127,125,131,131,131,131,131,131,130,130,130,133,128,129,128,128,128,128,128,127,127,127,128,127,127,127,127,126,127,127,128,127,30,28,28,28,28,29,28,28,29,29,2,2,2,2,2,2,2,-1,0,0
"Ind90","9_0_5",196,138,138,137,137,138,139,139,139,139,137,133,134,134,135,135,135,135,135,137,137,133,133,134,134,134,134,134,136,136,132,124,124,124,123,125,125,125,125,127,125,131,131,131,131,131,131,130,130,130,133,128,129,128,128,128,128,128,127,127,127,128,127,127,127,127,126,127,127,128,127,30,28,28,28,28,29,28,28,29,29,2,2,2,2,2,2,2,0,-1,0
"Ind91","9_0_8",196,138,138,137,137,138,139,139,139,139,137,133,134,134,135,135,135,135,135,137,137,133,133,134,134,134,134,134,136,136,132,124,124,124,123,125,125,125,125,127,125,131,131,131,131,131,131,130,130,130,133,128,129,128,128,128,128,128,127,127,127,128,127,127,127,127,126,127,127,128,127,30,28,28,28,28,29,28,28,29,29,2,2,2,2,2,2,2,0,0,-1
