"","Description","Ind1","Ind2","Ind3","Ind4","Ind5","Ind6","Ind7","Ind8","Ind9","Ind10","Ind11","Ind12","Ind13","Ind14","Ind15","Ind16","Ind17","Ind18","Ind19","Ind20","Ind21","Ind22","Ind23","Ind24","Ind25","Ind26","Ind27","Ind28","Ind29","Ind30","Ind31","Ind32","Ind33","Ind34","Ind35","Ind36","Ind37","Ind38","Ind39","Ind40","Ind41","Ind42","Ind43","Ind44","Ind45","Ind46","Ind47","Ind48","Ind49","Ind50","Ind51","Ind52","Ind53","Ind54","Ind55","Ind56","Ind57","Ind58","Ind59","Ind60","Ind61","Ind62","Ind63","Ind64","Ind65","Ind66","Ind67","Ind68","Ind69","Ind70","Ind71","Ind72","Ind73","Ind74","Ind75","Ind76","Ind77","Ind78","Ind79","Ind80","Ind81","Ind82","Ind83","Ind84","Ind85","Ind86","Ind87","Ind88","Ind89","Ind90","Ind91","Ind92","Ind93","Ind94","Ind95","Ind96","Ind97","Ind98","Ind99","Ind100","Ind101","Ind102","Ind103","Ind104","Ind105","Ind106","Ind107","Ind108","Ind109","Ind110","Ind111","Ind112","Ind113","Ind114","Ind115","Ind116","Ind117","Ind118","Ind119","Ind120","Ind121","Ind122","Ind123","Ind124","Ind125","Ind126","Ind127","Ind128","Ind129","Ind130","Ind131","Ind132","Ind133","Ind134","Ind135","Ind136"
"Ind1","6_0_3",-1,0,0,0,0,0,0,0,0,0,0,0,0,0,0,0,0,0,0,0,0,0,0,0,0,0,0,0,0,0,0,0,0,0,0,0,0,0,0,0,0,0,0,0,0,0,0,0,0,0,0,0,0,0,0,0,0,0,0,0,0,0,0,0,0,0,0,0,0,0,0,0,0,0,0,0,0,0,0,0,0,0,0,0,0,0,0,0,0,0,0,0,0,0,0,0,0,0,0,0,0,0,0,0,0,0,0,0,0,0,0,0,0,0,0,0,0,0,0,0,0,0,0,0,0,0,0,0,0,0,0,0,0,0,0,0
"Ind2","6_0_14",287,-1,0,0,0,0,0,0,0,0,0,0,0,0,0,0,0,0,0,0,0,0,0,0,0,0,0,0,0,0,0,0,0,0,0,0,0,0,0,0,0,0,0,0,0,0,0,0,0,0,0,0,0,0,0,0,0,0,0,0,0,0,0,0,0,0,0,0,0,0,0,0,0,0,0,0,0,0,0,0,0,0,0,0,0,0,0,0,0,0,0,0,0,0,0,0,0,0,0,0,0,0,0,0,0,0,0,0,0,0,0,0,0,0,0,0,0,0,0,0,0,0,0,0,0,0,0,0,0,0,0,0,0,0,0,0
"Ind3","6_0_4",284,68,-1,0,0,0,0,0,0,0,0,0,0,0,0,0,0,0,0,0,0,0,0,0,0,0,0,0,0,0,0,0,0,0,0,0,0,0,0,0,0,0,0,0,0,0,0,0,0,0,0,0,0,0,0,0,0,0,0,0,0,0,0,0,0,0,0,0,0,0,0,0,0,0,0,0,0,0,0,0,0,0,0,0,0,0,0,0,0,0,0,0,0,0,0,0,0,0,0,0,0,0,0,0,0,0,0,0,0,0,0,0,0,0,0,0,0,0,0,0,0,0,0,0,0,0,0,0,0,0,0,0,0,0,0,0
"Ind4","6_0_9",296,69,41,-1,0,0,0,0,0,0,0,0,0,0,0,0,0,0,0,0,0,0,0,0,0,0,0,0,0,0,0,0,0,0,0,0,0,0,0,0,0,0,0,0,0,0,0,0,0,0,0,0,0,0,0,0,0,0,0,0,0,0,0,0,0,0,0,0,0,0,0,0,0,0,0,0,0,0,0,0,0,0,0,0,0,0,0,0,0,0,0,0,0,0,0,0,0,0,0,0,0,0,0,0,0,0,0,0,0,0,0,0,0,0,0,0,0,0,0,0,0,0,0,0,0,0,0,0,0,0,0,0,0,0,0,0
"Ind5","6_0_2",293,142,144,138,-1,0,0,0,0,0,0,0,0,0,0,0,0,0,0,0,0,0,0,0,0,0,0,0,0,0,0,0,0,0,0,0,0,0,0,0,0,0,0,0,0,0,0,0,0,0,0,0,0,0,0,0,0,0,0,0,0,0,0,0,0,0,0,0,0,0,0,0,0,0,0,0,0,0,0,0,0,0,0,0,0,0,0,0,0,0,0,0,0,0,0,0,0,0,0,0,0,0,0,0,0,0,0,0,0,0,0,0,0,0,0,0,0,0,0,0,0,0,0,0,0,0,0,0,0,0,0,0,0,0,0,0
"Ind6","6_0_8",289,139,143,137,15,-1,0,0,0,0,0,0,0,0,0,0,0,0,0,0,0,0,0,0,0,0,0,0,0,0,0,0,0,0,0,0,0,0,0,0,0,0,0,0,0,0,0,0,0,0,0,0,0,0,0,0,0,0,0,0,0,0,0,0,0,0,0,0,0,0,0,0,0,0,0,0,0,0,0,0,0,0,0,0,0,0,0,0,0,0,0,0,0,0,0,0,0,0,0,0,0,0,0,0,0,0,0,0,0,0,0,0,0,0,0,0,0,0,0,0,0,0,0,0,0,0,0,0,0,0,0,0,0,0,0,0
"Ind7","6_0_6",288,141,141,135,16,5,-1,0,0,0,0,0,0,0,0,0,0,0,0,0,0,0,0,0,0,0,0,0,0,0,0,0,0,0,0,0,0,0,0,0,0,0,0,0,0,0,0,0,0,0,0,0,0,0,0,0,0,0,0,0,0,0,0,0,0,0,0,0,0,0,0,0,0,0,0,0,0,0,0,0,0,0,0,0,0,0,0,0,0,0,0,0,0,0,0,0,0,0,0,0,0,0,0,0,0,0,0,0,0,0,0,0,0,0,0,0,0,0,0,0,0,0,0,0,0,0,0,0,0,0,0,0,0,0,0,0
"Ind8","6_0_1",288,140,140,136,18,13,12,-1,0,0,0,0,0,0,0,0,0,0,0,0,0,0,0,0,0,0,0,0,0,0,0,0,0,0,0,0,0,0,0,0,0,0,0,0,0,0,0,0,0,0,0,0,0,0,0,0,0,0,0,0,0,0,0,0,0,0,0,0,0,0,0,0,0,0,0,0,0,0,0,0,0,0,0,0,0,0,0,0,0,0,0,0,0,0,0,0,0,0,0,0,0,0,0,0,0,0,0,0,0,0,0,0,0,0,0,0,0,0,0,0,0,0,0,0,0,0,0,0,0,0,0,0,0,0,0,0
"Ind9","6_0_13",289,144,142,138,16,11,10,4,-1,0,0,0,0,0,0,0,0,0,0,0,0,0,0,0,0,0,0,0,0,0,0,0,0,0,0,0,0,0,0,0,0,0,0,0,0,0,0,0,0,0,0,0,0,0,0,0,0,0,0,0,0,0,0,0,0,0,0,0,0,0,0,0,0,0,0,0,0,0,0,0,0,0,0,0,0,0,0,0,0,0,0,0,0,0,0,0,0,0,0,0,0,0,0,0,0,0,0,0,0,0,0,0,0,0,0,0,0,0,0,0,0,0,0,0,0,0,0,0,0,0,0,0,0,0,0,0
"Ind10","6_0_10",289,136,136,134,87,87,88,90,88,-1,0,0,0,0,0,0,0,0,0,0,0,0,0,0,0,0,0,0,0,0,0,0,0,0,0,0,0,0,0,0,0,0,0,0,0,0,0,0,0,0,0,0,0,0,0,0,0,0,0,0,0,0,0,0,0,0,0,0,0,0,0,0,0,0,0,0,0,0,0,0,0,0,0,0,0,0,0,0,0,0,0,0,0,0,0,0,0,0,0,0,0,0,0,0,0,0,0,0,0,0,0,0,0,0,0,0,0,0,0,0,0,0,0,0,0,0,0,0,0,0,0,0,0,0,0,0
"Ind11","6_0_5",290,142,138,136,100,100,99,103,101,38,-1,0,0,0,0,0,0,0,0,0,0,0,0,0,0,0,0,0,0,0,0,0,0,0,0,0,0,0,0,0,0,0,0,0,0,0,0,0,0,0,0,0,0,0,0,0,0,0,0,0,0,0,0,0,0,0,0,0,0,0,0,0,0,0,0,0,0,0,0,0,0,0,0,0,0,0,0,0,0,0,0,0,0,0,0,0,0,0,0,0,0,0,0,0,0,0,0,0,0,0,0,0,0,0,0,0,0,0,0,0,0,0,0,0,0,0,0,0,0,0,0,0,0,0,0,0
"Ind12","6_0_12",290,145,141,137,94,94,93,97,93,38,22,-1,0,0,0,0,0,0,0,0,0,0,0,0,0,0,0,0,0,0,0,0,0,0,0,0,0,0,0,0,0,0,0,0,0,0,0,0,0,0,0,0,0,0,0,0,0,0,0,0,0,0,0,0,0,0,0,0,0,0,0,0,0,0,0,0,0,0,0,0,0,0,0,0,0,0,0,0,0,0,0,0,0,0,0,0,0,0,0,0,0,0,0,0,0,0,0,0,0,0,0,0,0,0,0,0,0,0,0,0,0,0,0,0,0,0,0,0,0,0,0,0,0,0,0,0
"Ind13","6_0_0",305,147,140,143,146,144,145,145,141,134,127,130,-1,0,0,0,0,0,0,0,0,0,0,0,0,0,0,0,0,0,0,0,0,0,0,0,0,0,0,0,0,0,0,0,0,0,0,0,0,0,0,0,0,0,0,0,0,0,0,0,0,0,0,0,0,0,0,0,0,0,0,0,0,0,0,0,0,0,0,0,0,0,0,0,0,0,0,0,0,0,0,0,0,0,0,0,0,0,0,0,0,0,0,0,0,0,0,0,0,0,0,0,0,0,0,0,0,0,0,0,0,0,0,0,0,0,0,0,0,0,0,0,0,0,0,0
"Ind14","6_0_11",302,143,150,150,146,143,146,146,144,138,131,138,52,-1,0,0,0,0,0,0,0,0,0,0,0,0,0,0,0,0,0,0,0,0,0,0,0,0,0,0,0,0,0,0,0,0,0,0,0,0,0,0,0,0,0,0,0,0,0,0,0,0,0,0,0,0,0,0,0,0,0,0,0,0,0,0,0,0,0,0,0,0,0,0,0,0,0,0,0,0,0,0,0,0,0,0,0,0,0,0,0,0,0,0,0,0,0,0,0,0,0,0,0,0,0,0,0,0,0,0,0,0,0,0,0,0,0,0,0,0,0,0,0,0,0,0
"Ind15","6_0_7",299,194,194,201,208,210,208,205,204,185,193,192,202,203,-1,0,0,0,0,0,0,0,0,0,0,0,0,0,0,0,0,0,0,0,0,0,0,0,0,0,0,0,0,0,0,0,0,0,0,0,0,0,0,0,0,0,0,0,0,0,0,0,0,0,0,0,0,0,0,0,0,0,0,0,0,0,0,0,0,0,0,0,0,0,0,0,0,0,0,0,0,0,0,0,0,0,0,0,0,0,0,0,0,0,0,0,0,0,0,0,0,0,0,0,0,0,0,0,0,0,0,0,0,0,0,0,0,0,0,0,0,0,0,0,0,0
"Ind16","4_0_0",352,333,336,340,335,334,334,334,334,329,338,336,340,346,336,-1,0,0,0,0,0,0,0,0,0,0,0,0,0,0,0,0,0,0,0,0,0,0,0,0,0,0,0,0,0,0,0,0,0,0,0,0,0,0,0,0,0,0,0,0,0,0,0,0,0,0,0,0,0,0,0,0,0,0,0,0,0,0,0,0,0,0,0,0,0,0,0,0,0,0,0,0,0,0,0,0,0,0,0,0,0,0,0,0,0,0,0,0,0,0,0,0,0,0,0,0,0,0,0,0,0,0,0,0,0,0,0,0,0,0,0,0,0,0,0,0
"Ind17","4_0_8",352,334,337,339,335,334,334,334,336,329,337,337,341,346,336,5,-1,0,0,0,0,0,0,0,0,0,0,0,0,0,0,0,0,0,0,0,0,0,0,0,0,0,0,0,0,0,0,0,0,0,0,0,0,0,0,0,0,0,0,0,0,0,0,0,0,0,0,0,0,0,0,0,0,0,0,0,0,0,0,0,0,0,0,0,0,0,0,0,0,0,0,0,0,0,0,0,0,0,0,0,0,0,0,0,0,0,0,0,0,0,0,0,0,0,0,0,0,0,0,0,0,0,0,0,0,0,0,0,0,0,0,0,0,0,0,0
"Ind18","4_0_2",347,342,337,336,339,340,339,341,341,342,339,340,340,340,338,86,85,-1,0,0,0,0,0,0,0,0,0,0,0,0,0,0,0,0,0,0,0,0,0,0,0,0,0,0,0,0,0,0,0,0,0,0,0,0,0,0,0,0,0,0,0,0,0,0,0,0,0,0,0,0,0,0,0,0,0,0,0,0,0,0,0,0,0,0,0,0,0,0,0,0,0,0,0,0,0,0,0,0,0,0,0,0,0,0,0,0,0,0,0,0,0,0,0,0,0,0,0,0,0,0,0,0,0,0,0,0,0,0,0,0,0,0,0,0,0,0
"Ind19","4_0_3",347,333,337,340,348,346,347,349,351,342,341,344,347,350,341,134,135,118,-1,0,0,0,0,0,0,0,0,0,0,0,0,0,0,0,0,0,0,0,0,0,0,0,0,0,0,0,0,0,0,0,0,0,0,0,0,0,0,0,0,0,0,0,0,0,0,0,0,0,0,0,0,0,0,0,0,0,0,0,0,0,0,0,0,0,0,0,0,0,0,0,0,0,0,0,0,0,0,0,0,0,0,0,0,0,0,0,0,0,0,0,0,0,0,0,0,0,0,0,0,0,0,0,0,0,0,0,0,0,0,0,0,0,0,0,0,0
"Ind20","4_0_6",345,338,343,348,351,349,350,352,354,345,345,348,352,356,346,129,130,118,14,-1,0,0,0,0,0,0,0,0,0,0,0,0,0,0,0,0,0,0,0,0,0,0,0,0,0,0,0,0,0,0,0,0,0,0,0,0,0,0,0,0,0,0,0,0,0,0,0,0,0,0,0,0,0,0,0,0,0,0,0,0,0,0,0,0,0,0,0,0,0,0,0,0,0,0,0,0,0,0,0,0,0,0,0,0,0,0,0,0,0,0,0,0,0,0,0,0,0,0,0,0,0,0,0,0,0,0,0,0,0,0,0,0,0,0,0,0
"Ind21","4_0_10",354,349,347,344,355,351,352,356,355,351,351,345,344,338,333,182,180,180,181,181,-1,0,0,0,0,0,0,0,0,0,0,0,0,0,0,0,0,0,0,0,0,0,0,0,0,0,0,0,0,0,0,0,0,0,0,0,0,0,0,0,0,0,0,0,0,0,0,0,0,0,0,0,0,0,0,0,0,0,0,0,0,0,0,0,0,0,0,0,0,0,0,0,0,0,0,0,0,0,0,0,0,0,0,0,0,0,0,0,0,0,0,0,0,0,0,0,0,0,0,0,0,0,0,0,0,0,0,0,0,0,0,0,0,0,0,0
"Ind22","4_0_5",351,337,336,332,327,329,330,330,328,324,330,327,327,336,320,152,149,150,163,164,113,-1,0,0,0,0,0,0,0,0,0,0,0,0,0,0,0,0,0,0,0,0,0,0,0,0,0,0,0,0,0,0,0,0,0,0,0,0,0,0,0,0,0,0,0,0,0,0,0,0,0,0,0,0,0,0,0,0,0,0,0,0,0,0,0,0,0,0,0,0,0,0,0,0,0,0,0,0,0,0,0,0,0,0,0,0,0,0,0,0,0,0,0,0,0,0,0,0,0,0,0,0,0,0,0,0,0,0,0,0,0,0,0,0,0,0
"Ind23","4_0_13",348,332,331,328,324,326,329,331,329,326,330,327,326,326,321,155,152,155,160,159,109,53,-1,0,0,0,0,0,0,0,0,0,0,0,0,0,0,0,0,0,0,0,0,0,0,0,0,0,0,0,0,0,0,0,0,0,0,0,0,0,0,0,0,0,0,0,0,0,0,0,0,0,0,0,0,0,0,0,0,0,0,0,0,0,0,0,0,0,0,0,0,0,0,0,0,0,0,0,0,0,0,0,0,0,0,0,0,0,0,0,0,0,0,0,0,0,0,0,0,0,0,0,0,0,0,0,0,0,0,0,0,0,0,0,0,0
"Ind24","4_0_7",349,334,333,330,328,330,333,335,333,326,332,329,326,330,321,159,156,161,162,163,105,51,10,-1,0,0,0,0,0,0,0,0,0,0,0,0,0,0,0,0,0,0,0,0,0,0,0,0,0,0,0,0,0,0,0,0,0,0,0,0,0,0,0,0,0,0,0,0,0,0,0,0,0,0,0,0,0,0,0,0,0,0,0,0,0,0,0,0,0,0,0,0,0,0,0,0,0,0,0,0,0,0,0,0,0,0,0,0,0,0,0,0,0,0,0,0,0,0,0,0,0,0,0,0,0,0,0,0,0,0,0,0,0,0,0,0
"Ind25","4_0_4",345,334,333,330,327,329,332,334,332,323,329,326,325,331,323,152,149,154,159,158,106,44,21,17,-1,0,0,0,0,0,0,0,0,0,0,0,0,0,0,0,0,0,0,0,0,0,0,0,0,0,0,0,0,0,0,0,0,0,0,0,0,0,0,0,0,0,0,0,0,0,0,0,0,0,0,0,0,0,0,0,0,0,0,0,0,0,0,0,0,0,0,0,0,0,0,0,0,0,0,0,0,0,0,0,0,0,0,0,0,0,0,0,0,0,0,0,0,0,0,0,0,0,0,0,0,0,0,0,0,0,0,0,0,0,0,0
"Ind26","4_0_14",345,333,330,329,326,328,331,333,331,320,326,326,323,329,323,149,146,151,161,161,107,50,26,24,17,-1,0,0,0,0,0,0,0,0,0,0,0,0,0,0,0,0,0,0,0,0,0,0,0,0,0,0,0,0,0,0,0,0,0,0,0,0,0,0,0,0,0,0,0,0,0,0,0,0,0,0,0,0,0,0,0,0,0,0,0,0,0,0,0,0,0,0,0,0,0,0,0,0,0,0,0,0,0,0,0,0,0,0,0,0,0,0,0,0,0,0,0,0,0,0,0,0,0,0,0,0,0,0,0,0,0,0,0,0,0,0
"Ind27","4_0_1",344,334,331,334,343,343,342,342,344,333,336,335,337,341,341,145,142,144,153,155,151,122,127,127,126,120,-1,0,0,0,0,0,0,0,0,0,0,0,0,0,0,0,0,0,0,0,0,0,0,0,0,0,0,0,0,0,0,0,0,0,0,0,0,0,0,0,0,0,0,0,0,0,0,0,0,0,0,0,0,0,0,0,0,0,0,0,0,0,0,0,0,0,0,0,0,0,0,0,0,0,0,0,0,0,0,0,0,0,0,0,0,0,0,0,0,0,0,0,0,0,0,0,0,0,0,0,0,0,0,0,0,0,0,0,0,0
"Ind28","8_0_2",348,356,353,356,346,346,346,347,345,337,341,343,337,343,334,239,239,234,235,236,253,227,240,240,235,230,227,-1,0,0,0,0,0,0,0,0,0,0,0,0,0,0,0,0,0,0,0,0,0,0,0,0,0,0,0,0,0,0,0,0,0,0,0,0,0,0,0,0,0,0,0,0,0,0,0,0,0,0,0,0,0,0,0,0,0,0,0,0,0,0,0,0,0,0,0,0,0,0,0,0,0,0,0,0,0,0,0,0,0,0,0,0,0,0,0,0,0,0,0,0,0,0,0,0,0,0,0,0,0,0,0,0,0,0,0,0
"Ind29","8_0_5",348,356,356,360,353,353,353,354,352,340,342,347,336,348,334,241,242,235,240,241,259,229,240,238,235,232,240,43,-1,0,0,0,0,0,0,0,0,0,0,0,0,0,0,0,0,0,0,0,0,0,0,0,0,0,0,0,0,0,0,0,0,0,0,0,0,0,0,0,0,0,0,0,0,0,0,0,0,0,0,0,0,0,0,0,0,0,0,0,0,0,0,0,0,0,0,0,0,0,0,0,0,0,0,0,0,0,0,0,0,0,0,0,0,0,0,0,0,0,0,0,0,0,0,0,0,0,0,0,0,0,0,0,0,0,0,0
"Ind30","8_0_1",341,353,347,355,354,350,350,355,353,334,340,345,334,348,336,241,240,240,241,242,260,234,247,249,244,237,234,45,39,-1,0,0,0,0,0,0,0,0,0,0,0,0,0,0,0,0,0,0,0,0,0,0,0,0,0,0,0,0,0,0,0,0,0,0,0,0,0,0,0,0,0,0,0,0,0,0,0,0,0,0,0,0,0,0,0,0,0,0,0,0,0,0,0,0,0,0,0,0,0,0,0,0,0,0,0,0,0,0,0,0,0,0,0,0,0,0,0,0,0,0,0,0,0,0,0,0,0,0,0,0,0,0,0,0,0,0
"Ind31","8_0_12",354,359,356,359,359,356,356,359,359,354,360,361,360,355,339,246,247,248,242,241,256,238,248,250,246,243,243,146,145,147,-1,0,0,0,0,0,0,0,0,0,0,0,0,0,0,0,0,0,0,0,0,0,0,0,0,0,0,0,0,0,0,0,0,0,0,0,0,0,0,0,0,0,0,0,0,0,0,0,0,0,0,0,0,0,0,0,0,0,0,0,0,0,0,0,0,0,0,0,0,0,0,0,0,0,0,0,0,0,0,0,0,0,0,0,0,0,0,0,0,0,0,0,0,0,0,0,0,0,0,0,0,0,0,0,0,0
"Ind32","8_0_11",342,348,349,347,359,360,362,364,363,345,347,346,348,356,339,255,256,244,252,254,258,251,254,253,250,247,247,153,149,151,165,-1,0,0,0,0,0,0,0,0,0,0,0,0,0,0,0,0,0,0,0,0,0,0,0,0,0,0,0,0,0,0,0,0,0,0,0,0,0,0,0,0,0,0,0,0,0,0,0,0,0,0,0,0,0,0,0,0,0,0,0,0,0,0,0,0,0,0,0,0,0,0,0,0,0,0,0,0,0,0,0,0,0,0,0,0,0,0,0,0,0,0,0,0,0,0,0,0,0,0,0,0,0,0,0,0
"Ind33","8_0_4",340,350,354,352,357,358,362,364,361,347,349,345,349,356,340,252,253,243,249,249,257,249,250,250,249,246,248,157,155,159,174,33,-1,0,0,0,0,0,0,0,0,0,0,0,0,0,0,0,0,0,0,0,0,0,0,0,0,0,0,0,0,0,0,0,0,0,0,0,0,0,0,0,0,0,0,0,0,0,0,0,0,0,0,0,0,0,0,0,0,0,0,0,0,0,0,0,0,0,0,0,0,0,0,0,0,0,0,0,0,0,0,0,0,0,0,0,0,0,0,0,0,0,0,0,0,0,0,0,0,0,0,0,0,0,0,0
"Ind34","8_0_14",335,354,345,350,356,357,359,363,360,344,344,340,337,353,339,261,260,247,258,256,263,251,250,256,247,246,241,150,152,150,170,76,80,-1,0,0,0,0,0,0,0,0,0,0,0,0,0,0,0,0,0,0,0,0,0,0,0,0,0,0,0,0,0,0,0,0,0,0,0,0,0,0,0,0,0,0,0,0,0,0,0,0,0,0,0,0,0,0,0,0,0,0,0,0,0,0,0,0,0,0,0,0,0,0,0,0,0,0,0,0,0,0,0,0,0,0,0,0,0,0,0,0,0,0,0,0,0,0,0,0,0,0,0,0,0,0
"Ind35","8_0_8",338,349,354,352,350,349,353,357,354,342,348,346,344,354,336,262,261,250,254,255,268,253,252,252,245,248,250,141,141,143,178,75,82,56,-1,0,0,0,0,0,0,0,0,0,0,0,0,0,0,0,0,0,0,0,0,0,0,0,0,0,0,0,0,0,0,0,0,0,0,0,0,0,0,0,0,0,0,0,0,0,0,0,0,0,0,0,0,0,0,0,0,0,0,0,0,0,0,0,0,0,0,0,0,0,0,0,0,0,0,0,0,0,0,0,0,0,0,0,0,0,0,0,0,0,0,0,0,0,0,0,0,0,0,0,0,0
"Ind36","8_0_9",330,347,345,347,343,344,348,350,347,337,339,337,336,346,331,252,252,242,250,252,262,244,243,247,240,241,240,135,143,144,169,64,66,38,43,-1,0,0,0,0,0,0,0,0,0,0,0,0,0,0,0,0,0,0,0,0,0,0,0,0,0,0,0,0,0,0,0,0,0,0,0,0,0,0,0,0,0,0,0,0,0,0,0,0,0,0,0,0,0,0,0,0,0,0,0,0,0,0,0,0,0,0,0,0,0,0,0,0,0,0,0,0,0,0,0,0,0,0,0,0,0,0,0,0,0,0,0,0,0,0,0,0,0,0,0,0
"Ind37","8_0_3",331,352,347,347,344,345,349,351,348,338,344,342,341,349,337,252,252,241,248,250,263,245,244,248,241,242,241,137,144,145,171,71,74,45,53,16,-1,0,0,0,0,0,0,0,0,0,0,0,0,0,0,0,0,0,0,0,0,0,0,0,0,0,0,0,0,0,0,0,0,0,0,0,0,0,0,0,0,0,0,0,0,0,0,0,0,0,0,0,0,0,0,0,0,0,0,0,0,0,0,0,0,0,0,0,0,0,0,0,0,0,0,0,0,0,0,0,0,0,0,0,0,0,0,0,0,0,0,0,0,0,0,0,0,0,0,0
"Ind38","8_0_10",336,350,344,346,348,347,351,353,350,338,337,336,340,349,333,251,251,241,251,251,261,246,244,248,241,244,239,130,138,139,165,69,76,43,56,18,29,-1,0,0,0,0,0,0,0,0,0,0,0,0,0,0,0,0,0,0,0,0,0,0,0,0,0,0,0,0,0,0,0,0,0,0,0,0,0,0,0,0,0,0,0,0,0,0,0,0,0,0,0,0,0,0,0,0,0,0,0,0,0,0,0,0,0,0,0,0,0,0,0,0,0,0,0,0,0,0,0,0,0,0,0,0,0,0,0,0,0,0,0,0,0,0,0,0,0,0
"Ind39","8_0_6",353,353,352,352,352,351,351,353,350,342,348,348,346,349,334,256,254,251,252,252,257,246,252,255,250,251,246,127,138,129,165,134,137,129,126,124,130,123,-1,0,0,0,0,0,0,0,0,0,0,0,0,0,0,0,0,0,0,0,0,0,0,0,0,0,0,0,0,0,0,0,0,0,0,0,0,0,0,0,0,0,0,0,0,0,0,0,0,0,0,0,0,0,0,0,0,0,0,0,0,0,0,0,0,0,0,0,0,0,0,0,0,0,0,0,0,0,0,0,0,0,0,0,0,0,0,0,0,0,0,0,0,0,0,0,0,0
"Ind40","8_0_7",351,345,346,343,351,351,351,353,350,339,343,343,336,341,315,229,227,227,231,237,248,229,237,241,236,237,230,186,187,189,206,207,213,202,205,197,199,201,215,-1,0,0,0,0,0,0,0,0,0,0,0,0,0,0,0,0,0,0,0,0,0,0,0,0,0,0,0,0,0,0,0,0,0,0,0,0,0,0,0,0,0,0,0,0,0,0,0,0,0,0,0,0,0,0,0,0,0,0,0,0,0,0,0,0,0,0,0,0,0,0,0,0,0,0,0,0,0,0,0,0,0,0,0,0,0,0,0,0,0,0,0,0,0,0,0,0
"Ind41","8_0_0",353,344,343,344,349,351,351,353,350,340,344,344,338,341,324,224,224,220,227,231,251,232,240,242,239,238,225,187,184,186,205,203,209,198,207,197,197,201,208,25,-1,0,0,0,0,0,0,0,0,0,0,0,0,0,0,0,0,0,0,0,0,0,0,0,0,0,0,0,0,0,0,0,0,0,0,0,0,0,0,0,0,0,0,0,0,0,0,0,0,0,0,0,0,0,0,0,0,0,0,0,0,0,0,0,0,0,0,0,0,0,0,0,0,0,0,0,0,0,0,0,0,0,0,0,0,0,0,0,0,0,0,0,0,0,0,0
"Ind42","8_0_13",356,344,353,352,355,352,356,355,354,344,348,343,340,343,330,240,243,234,234,239,255,243,245,251,244,246,234,201,202,200,207,218,221,214,215,209,207,211,221,79,78,-1,0,0,0,0,0,0,0,0,0,0,0,0,0,0,0,0,0,0,0,0,0,0,0,0,0,0,0,0,0,0,0,0,0,0,0,0,0,0,0,0,0,0,0,0,0,0,0,0,0,0,0,0,0,0,0,0,0,0,0,0,0,0,0,0,0,0,0,0,0,0,0,0,0,0,0,0,0,0,0,0,0,0,0,0,0,0,0,0,0,0,0,0,0,0
"Ind43","4_0_12",362,350,358,350,350,347,348,350,350,346,351,347,343,342,337,245,243,250,242,244,247,247,253,253,249,251,243,203,207,208,219,227,230,224,214,219,218,220,213,194,196,202,-1,0,0,0,0,0,0,0,0,0,0,0,0,0,0,0,0,0,0,0,0,0,0,0,0,0,0,0,0,0,0,0,0,0,0,0,0,0,0,0,0,0,0,0,0,0,0,0,0,0,0,0,0,0,0,0,0,0,0,0,0,0,0,0,0,0,0,0,0,0,0,0,0,0,0,0,0,0,0,0,0,0,0,0,0,0,0,0,0,0,0,0,0,0
"Ind44","4_0_9",361,347,347,346,350,347,348,354,350,343,349,349,337,346,327,231,232,228,231,234,234,232,249,249,242,242,234,199,196,197,205,206,208,218,211,209,209,211,201,194,191,194,149,-1,0,0,0,0,0,0,0,0,0,0,0,0,0,0,0,0,0,0,0,0,0,0,0,0,0,0,0,0,0,0,0,0,0,0,0,0,0,0,0,0,0,0,0,0,0,0,0,0,0,0,0,0,0,0,0,0,0,0,0,0,0,0,0,0,0,0,0,0,0,0,0,0,0,0,0,0,0,0,0,0,0,0,0,0,0,0,0,0,0,0,0,0
"Ind45","4_0_11",360,346,346,343,350,345,346,350,346,344,348,348,340,342,326,233,230,233,228,228,235,231,243,242,235,238,237,199,201,198,202,208,210,219,212,207,207,207,207,182,185,190,144,29,-1,0,0,0,0,0,0,0,0,0,0,0,0,0,0,0,0,0,0,0,0,0,0,0,0,0,0,0,0,0,0,0,0,0,0,0,0,0,0,0,0,0,0,0,0,0,0,0,0,0,0,0,0,0,0,0,0,0,0,0,0,0,0,0,0,0,0,0,0,0,0,0,0,0,0,0,0,0,0,0,0,0,0,0,0,0,0,0,0,0,0,0
"Ind46","9_0_14",347,338,344,339,344,343,344,342,345,342,348,345,347,351,337,302,299,301,303,304,319,300,303,307,304,302,299,302,300,299,305,302,308,308,299,307,306,308,299,294,291,295,297,302,302,-1,0,0,0,0,0,0,0,0,0,0,0,0,0,0,0,0,0,0,0,0,0,0,0,0,0,0,0,0,0,0,0,0,0,0,0,0,0,0,0,0,0,0,0,0,0,0,0,0,0,0,0,0,0,0,0,0,0,0,0,0,0,0,0,0,0,0,0,0,0,0,0,0,0,0,0,0,0,0,0,0,0,0,0,0,0,0,0,0,0,0
"Ind47","9_0_7",350,344,341,336,345,345,346,345,346,338,342,341,336,346,341,302,299,302,309,309,316,298,294,294,297,292,304,298,296,292,303,304,303,307,299,300,300,301,299,301,299,310,310,308,305,88,-1,0,0,0,0,0,0,0,0,0,0,0,0,0,0,0,0,0,0,0,0,0,0,0,0,0,0,0,0,0,0,0,0,0,0,0,0,0,0,0,0,0,0,0,0,0,0,0,0,0,0,0,0,0,0,0,0,0,0,0,0,0,0,0,0,0,0,0,0,0,0,0,0,0,0,0,0,0,0,0,0,0,0,0,0,0,0,0,0,0
"Ind48","9_0_2",347,349,350,342,340,343,344,342,343,340,346,347,342,348,344,305,302,307,310,310,320,300,302,302,303,296,304,304,302,299,309,314,314,317,311,307,306,311,305,307,305,315,312,312,307,83,37,-1,0,0,0,0,0,0,0,0,0,0,0,0,0,0,0,0,0,0,0,0,0,0,0,0,0,0,0,0,0,0,0,0,0,0,0,0,0,0,0,0,0,0,0,0,0,0,0,0,0,0,0,0,0,0,0,0,0,0,0,0,0,0,0,0,0,0,0,0,0,0,0,0,0,0,0,0,0,0,0,0,0,0,0,0,0,0,0,0
"Ind49","9_0_10",352,346,348,346,344,345,348,346,347,340,348,347,345,351,334,304,301,312,305,305,312,295,297,301,301,297,296,306,299,296,299,308,308,305,308,307,310,304,303,301,301,301,306,301,303,72,62,61,-1,0,0,0,0,0,0,0,0,0,0,0,0,0,0,0,0,0,0,0,0,0,0,0,0,0,0,0,0,0,0,0,0,0,0,0,0,0,0,0,0,0,0,0,0,0,0,0,0,0,0,0,0,0,0,0,0,0,0,0,0,0,0,0,0,0,0,0,0,0,0,0,0,0,0,0,0,0,0,0,0,0,0,0,0,0,0,0
"Ind50","9_0_8",344,346,348,345,344,345,344,342,343,341,349,347,345,353,334,301,298,304,302,304,310,300,305,305,305,301,291,301,298,293,299,308,310,310,309,309,310,308,306,295,292,303,308,303,303,73,57,54,25,-1,0,0,0,0,0,0,0,0,0,0,0,0,0,0,0,0,0,0,0,0,0,0,0,0,0,0,0,0,0,0,0,0,0,0,0,0,0,0,0,0,0,0,0,0,0,0,0,0,0,0,0,0,0,0,0,0,0,0,0,0,0,0,0,0,0,0,0,0,0,0,0,0,0,0,0,0,0,0,0,0,0,0,0,0,0,0
"Ind51","9_0_0",336,338,339,334,326,324,323,327,325,322,325,320,329,327,323,296,294,300,296,298,303,292,295,296,294,292,298,291,296,294,303,302,308,308,296,300,302,302,296,291,289,299,289,305,302,158,171,172,176,167,-1,0,0,0,0,0,0,0,0,0,0,0,0,0,0,0,0,0,0,0,0,0,0,0,0,0,0,0,0,0,0,0,0,0,0,0,0,0,0,0,0,0,0,0,0,0,0,0,0,0,0,0,0,0,0,0,0,0,0,0,0,0,0,0,0,0,0,0,0,0,0,0,0,0,0,0,0,0,0,0,0,0,0,0,0,0
"Ind52","9_0_11",347,328,332,324,343,343,344,345,344,328,328,328,332,330,327,288,287,288,292,294,302,285,297,300,297,290,281,290,291,288,305,293,297,311,307,304,304,304,294,290,285,291,286,294,300,167,180,180,176,176,136,-1,0,0,0,0,0,0,0,0,0,0,0,0,0,0,0,0,0,0,0,0,0,0,0,0,0,0,0,0,0,0,0,0,0,0,0,0,0,0,0,0,0,0,0,0,0,0,0,0,0,0,0,0,0,0,0,0,0,0,0,0,0,0,0,0,0,0,0,0,0,0,0,0,0,0,0,0,0,0,0,0,0,0,0,0
"Ind53","9_0_3",345,329,333,329,345,347,346,345,344,326,330,330,329,331,322,290,289,289,293,295,302,286,300,303,298,291,281,286,287,282,307,295,297,309,301,302,303,304,290,290,285,290,290,290,296,165,180,182,177,174,135,17,-1,0,0,0,0,0,0,0,0,0,0,0,0,0,0,0,0,0,0,0,0,0,0,0,0,0,0,0,0,0,0,0,0,0,0,0,0,0,0,0,0,0,0,0,0,0,0,0,0,0,0,0,0,0,0,0,0,0,0,0,0,0,0,0,0,0,0,0,0,0,0,0,0,0,0,0,0,0,0,0,0,0,0,0
"Ind54","9_0_9",347,332,335,328,342,342,343,342,341,327,327,327,331,330,328,292,289,288,292,293,301,285,299,302,297,290,280,284,288,281,306,296,300,306,300,302,302,301,288,286,281,290,283,293,297,158,173,177,172,165,132,19,16,-1,0,0,0,0,0,0,0,0,0,0,0,0,0,0,0,0,0,0,0,0,0,0,0,0,0,0,0,0,0,0,0,0,0,0,0,0,0,0,0,0,0,0,0,0,0,0,0,0,0,0,0,0,0,0,0,0,0,0,0,0,0,0,0,0,0,0,0,0,0,0,0,0,0,0,0,0,0,0,0,0,0,0
"Ind55","9_0_5",343,336,339,335,349,349,350,355,354,337,340,340,346,341,332,286,283,284,287,292,295,288,296,299,298,293,283,299,299,291,298,307,313,306,307,307,310,308,291,293,289,297,296,287,295,168,186,187,178,177,142,86,86,85,-1,0,0,0,0,0,0,0,0,0,0,0,0,0,0,0,0,0,0,0,0,0,0,0,0,0,0,0,0,0,0,0,0,0,0,0,0,0,0,0,0,0,0,0,0,0,0,0,0,0,0,0,0,0,0,0,0,0,0,0,0,0,0,0,0,0,0,0,0,0,0,0,0,0,0,0,0,0,0,0,0,0
"Ind56","9_0_4",342,335,339,333,345,347,348,351,350,333,338,338,346,341,332,286,283,288,291,296,294,290,298,301,300,295,281,299,297,293,297,307,311,310,309,311,312,312,296,292,288,294,296,290,296,165,183,182,177,174,139,84,84,83,18,-1,0,0,0,0,0,0,0,0,0,0,0,0,0,0,0,0,0,0,0,0,0,0,0,0,0,0,0,0,0,0,0,0,0,0,0,0,0,0,0,0,0,0,0,0,0,0,0,0,0,0,0,0,0,0,0,0,0,0,0,0,0,0,0,0,0,0,0,0,0,0,0,0,0,0,0,0,0,0,0,0
"Ind57","9_0_12",342,331,332,330,341,343,340,344,343,333,332,328,339,335,322,289,286,292,286,288,293,286,290,291,294,290,277,305,307,297,306,302,305,309,302,312,315,313,297,296,289,301,294,293,294,171,182,191,169,172,136,84,82,84,89,93,-1,0,0,0,0,0,0,0,0,0,0,0,0,0,0,0,0,0,0,0,0,0,0,0,0,0,0,0,0,0,0,0,0,0,0,0,0,0,0,0,0,0,0,0,0,0,0,0,0,0,0,0,0,0,0,0,0,0,0,0,0,0,0,0,0,0,0,0,0,0,0,0,0,0,0,0,0,0,0,0
"Ind58","9_0_1",342,331,332,326,342,344,341,345,344,332,331,329,338,334,323,289,286,295,284,286,297,285,289,288,291,289,279,303,307,299,308,301,304,313,307,313,314,314,297,298,291,301,294,294,295,176,184,190,172,176,140,80,82,84,93,95,10,-1,0,0,0,0,0,0,0,0,0,0,0,0,0,0,0,0,0,0,0,0,0,0,0,0,0,0,0,0,0,0,0,0,0,0,0,0,0,0,0,0,0,0,0,0,0,0,0,0,0,0,0,0,0,0,0,0,0,0,0,0,0,0,0,0,0,0,0,0,0,0,0,0,0,0,0,0,0,0
"Ind59","9_0_6",329,345,337,340,349,345,344,343,345,337,341,341,331,335,328,303,304,308,300,302,307,302,305,308,307,302,296,286,293,292,309,304,300,302,301,298,299,298,296,297,298,298,300,306,302,235,224,237,235,228,215,205,202,204,208,202,218,219,-1,0,0,0,0,0,0,0,0,0,0,0,0,0,0,0,0,0,0,0,0,0,0,0,0,0,0,0,0,0,0,0,0,0,0,0,0,0,0,0,0,0,0,0,0,0,0,0,0,0,0,0,0,0,0,0,0,0,0,0,0,0,0,0,0,0,0,0,0,0,0,0,0,0,0,0,0,0
"Ind60","9_0_13",337,332,331,330,326,330,329,330,328,322,326,325,339,339,319,297,298,306,302,307,309,297,309,311,308,304,307,285,281,285,293,304,304,307,307,298,300,299,298,298,294,306,301,302,303,233,234,237,235,236,220,209,210,212,208,207,213,213,126,-1,0,0,0,0,0,0,0,0,0,0,0,0,0,0,0,0,0,0,0,0,0,0,0,0,0,0,0,0,0,0,0,0,0,0,0,0,0,0,0,0,0,0,0,0,0,0,0,0,0,0,0,0,0,0,0,0,0,0,0,0,0,0,0,0,0,0,0,0,0,0,0,0,0,0,0,0
"Ind61","5_0_4",337,338,335,340,344,344,343,340,339,329,332,337,342,353,347,329,329,332,331,334,329,311,319,320,316,314,306,325,329,324,334,338,340,331,333,327,328,324,327,331,332,337,331,340,336,347,349,350,348,350,339,352,349,350,341,341,339,342,340,341,-1,0,0,0,0,0,0,0,0,0,0,0,0,0,0,0,0,0,0,0,0,0,0,0,0,0,0,0,0,0,0,0,0,0,0,0,0,0,0,0,0,0,0,0,0,0,0,0,0,0,0,0,0,0,0,0,0,0,0,0,0,0,0,0,0,0,0,0,0,0,0,0,0,0,0,0
"Ind62","5_0_12",343,333,342,342,350,350,349,349,347,333,339,342,341,345,349,329,329,339,341,340,324,311,322,317,317,319,312,328,332,336,339,341,340,336,333,334,339,332,340,337,333,337,332,341,339,348,352,351,351,347,339,343,338,340,342,338,329,328,337,338,80,-1,0,0,0,0,0,0,0,0,0,0,0,0,0,0,0,0,0,0,0,0,0,0,0,0,0,0,0,0,0,0,0,0,0,0,0,0,0,0,0,0,0,0,0,0,0,0,0,0,0,0,0,0,0,0,0,0,0,0,0,0,0,0,0,0,0,0,0,0,0,0,0,0,0,0
"Ind63","5_0_8",346,340,344,347,351,353,352,352,350,345,351,356,354,354,351,331,331,335,338,339,330,316,325,320,320,318,316,334,334,336,344,338,338,338,334,332,333,333,342,338,332,343,337,341,337,356,358,355,359,353,349,344,337,339,347,343,334,331,342,345,84,36,-1,0,0,0,0,0,0,0,0,0,0,0,0,0,0,0,0,0,0,0,0,0,0,0,0,0,0,0,0,0,0,0,0,0,0,0,0,0,0,0,0,0,0,0,0,0,0,0,0,0,0,0,0,0,0,0,0,0,0,0,0,0,0,0,0,0,0,0,0,0,0,0,0,0
"Ind64","5_0_6",338,340,347,352,351,353,352,352,350,341,351,352,353,357,349,329,329,333,337,338,325,320,326,319,321,319,312,328,330,334,341,336,336,334,332,332,335,331,336,334,328,340,326,343,341,349,353,350,352,346,339,340,338,340,339,337,329,330,338,342,80,41,39,-1,0,0,0,0,0,0,0,0,0,0,0,0,0,0,0,0,0,0,0,0,0,0,0,0,0,0,0,0,0,0,0,0,0,0,0,0,0,0,0,0,0,0,0,0,0,0,0,0,0,0,0,0,0,0,0,0,0,0,0,0,0,0,0,0,0,0,0,0,0,0,0,0
"Ind65","5_0_2",330,346,350,351,347,344,343,344,342,339,339,339,346,348,349,336,339,339,345,349,326,329,343,339,335,339,333,327,331,328,345,349,345,340,336,337,337,336,335,341,338,340,338,338,338,347,348,355,347,346,336,337,330,336,332,335,325,328,343,343,143,133,134,137,-1,0,0,0,0,0,0,0,0,0,0,0,0,0,0,0,0,0,0,0,0,0,0,0,0,0,0,0,0,0,0,0,0,0,0,0,0,0,0,0,0,0,0,0,0,0,0,0,0,0,0,0,0,0,0,0,0,0,0,0,0,0,0,0,0,0,0,0,0,0,0,0
"Ind66","5_0_10",338,339,343,348,348,348,347,346,346,341,340,341,345,346,346,333,334,335,336,340,322,324,335,331,329,329,321,325,327,327,335,351,346,341,334,339,341,336,335,340,338,332,332,336,337,342,350,353,340,342,334,327,324,328,332,332,315,316,345,331,128,120,129,126,42,-1,0,0,0,0,0,0,0,0,0,0,0,0,0,0,0,0,0,0,0,0,0,0,0,0,0,0,0,0,0,0,0,0,0,0,0,0,0,0,0,0,0,0,0,0,0,0,0,0,0,0,0,0,0,0,0,0,0,0,0,0,0,0,0,0,0,0,0,0,0,0
"Ind67","5_0_7",339,337,341,341,349,348,347,344,343,342,340,339,345,345,353,328,330,334,339,336,319,321,326,323,320,319,316,327,331,338,339,339,336,331,338,331,330,329,335,336,335,341,329,342,338,341,344,352,343,347,341,339,334,333,345,344,330,327,344,342,129,120,121,118,133,132,-1,0,0,0,0,0,0,0,0,0,0,0,0,0,0,0,0,0,0,0,0,0,0,0,0,0,0,0,0,0,0,0,0,0,0,0,0,0,0,0,0,0,0,0,0,0,0,0,0,0,0,0,0,0,0,0,0,0,0,0,0,0,0,0,0,0,0,0,0,0
"Ind68","5_0_5",345,333,339,340,347,348,347,344,343,340,336,337,346,347,352,326,328,330,338,335,319,324,331,328,325,324,316,329,333,340,341,340,335,330,335,332,331,330,341,336,334,340,330,342,340,341,345,355,341,343,337,336,331,330,337,336,324,323,340,337,127,118,121,120,128,125,13,-1,0,0,0,0,0,0,0,0,0,0,0,0,0,0,0,0,0,0,0,0,0,0,0,0,0,0,0,0,0,0,0,0,0,0,0,0,0,0,0,0,0,0,0,0,0,0,0,0,0,0,0,0,0,0,0,0,0,0,0,0,0,0,0,0,0,0,0,0
"Ind69","5_0_14",345,336,340,341,347,346,345,344,343,342,340,339,346,345,352,327,329,333,340,337,320,320,331,328,325,324,317,323,327,334,336,339,336,331,336,331,330,327,334,334,334,339,327,338,338,340,343,353,342,348,341,338,333,332,340,339,329,326,341,338,131,122,125,122,132,133,11,18,-1,0,0,0,0,0,0,0,0,0,0,0,0,0,0,0,0,0,0,0,0,0,0,0,0,0,0,0,0,0,0,0,0,0,0,0,0,0,0,0,0,0,0,0,0,0,0,0,0,0,0,0,0,0,0,0,0,0,0,0,0,0,0,0,0,0,0,0
"Ind70","5_0_0",344,337,335,341,346,347,346,341,342,341,339,336,341,347,350,328,328,330,337,337,321,325,332,331,326,326,313,334,338,345,336,339,335,337,340,334,335,333,338,336,335,339,333,338,340,339,348,353,343,343,335,331,326,328,338,335,326,327,341,338,129,118,119,114,127,126,38,43,43,-1,0,0,0,0,0,0,0,0,0,0,0,0,0,0,0,0,0,0,0,0,0,0,0,0,0,0,0,0,0,0,0,0,0,0,0,0,0,0,0,0,0,0,0,0,0,0,0,0,0,0,0,0,0,0,0,0,0,0,0,0,0,0,0,0,0,0
"Ind71","5_0_13",334,332,339,341,346,349,348,345,344,339,341,338,344,347,347,324,326,331,329,329,319,322,326,323,320,321,316,330,330,338,336,335,331,338,339,334,333,333,335,342,339,345,339,339,339,344,347,349,345,346,337,329,326,332,336,331,325,320,340,339,128,117,118,111,129,129,29,36,36,42,-1,0,0,0,0,0,0,0,0,0,0,0,0,0,0,0,0,0,0,0,0,0,0,0,0,0,0,0,0,0,0,0,0,0,0,0,0,0,0,0,0,0,0,0,0,0,0,0,0,0,0,0,0,0,0,0,0,0,0,0,0,0,0,0,0,0
"Ind72","5_0_1",327,348,346,345,340,344,345,342,341,339,338,341,342,346,345,340,336,335,339,342,328,331,329,332,325,328,329,326,330,326,346,331,333,325,319,318,319,317,330,332,334,338,330,343,339,356,360,364,352,357,348,344,341,345,334,335,329,330,336,338,143,146,144,141,136,143,132,128,137,132,133,-1,0,0,0,0,0,0,0,0,0,0,0,0,0,0,0,0,0,0,0,0,0,0,0,0,0,0,0,0,0,0,0,0,0,0,0,0,0,0,0,0,0,0,0,0,0,0,0,0,0,0,0,0,0,0,0,0,0,0,0,0,0,0,0,0
"Ind73","5_0_11",346,349,354,349,352,354,352,352,351,350,353,352,353,349,357,337,335,329,346,347,326,325,336,339,332,338,332,330,335,337,349,338,333,333,329,333,332,334,332,336,336,347,328,337,339,356,360,365,362,363,344,345,338,341,344,344,334,335,341,344,149,142,144,139,145,152,138,133,135,140,139,93,-1,0,0,0,0,0,0,0,0,0,0,0,0,0,0,0,0,0,0,0,0,0,0,0,0,0,0,0,0,0,0,0,0,0,0,0,0,0,0,0,0,0,0,0,0,0,0,0,0,0,0,0,0,0,0,0,0,0,0,0,0,0,0,0
"Ind74","5_0_9",345,348,351,350,349,350,349,347,346,337,340,342,353,357,350,330,326,332,342,339,328,326,333,334,329,328,327,332,329,329,344,343,339,345,344,340,345,337,329,330,338,345,334,347,338,353,354,355,353,356,347,342,340,341,340,341,335,339,341,339,117,119,121,115,139,128,121,117,126,122,116,124,132,-1,0,0,0,0,0,0,0,0,0,0,0,0,0,0,0,0,0,0,0,0,0,0,0,0,0,0,0,0,0,0,0,0,0,0,0,0,0,0,0,0,0,0,0,0,0,0,0,0,0,0,0,0,0,0,0,0,0,0,0,0,0,0
"Ind75","5_0_3",330,336,344,339,347,345,344,343,343,333,336,336,347,352,350,326,325,336,333,336,326,321,330,333,328,327,315,332,337,337,346,341,334,335,338,331,336,330,330,338,342,338,329,336,335,351,351,348,350,350,346,346,341,345,335,332,333,336,332,337,114,113,119,107,136,133,113,113,118,115,113,141,148,106,-1,0,0,0,0,0,0,0,0,0,0,0,0,0,0,0,0,0,0,0,0,0,0,0,0,0,0,0,0,0,0,0,0,0,0,0,0,0,0,0,0,0,0,0,0,0,0,0,0,0,0,0,0,0,0,0,0,0,0,0,0,0
"Ind76","7_0_12",346,345,353,354,347,349,350,348,349,347,348,353,357,352,360,355,353,365,355,357,348,346,359,359,353,356,356,349,356,351,359,354,356,361,357,358,359,366,352,350,351,359,335,345,341,345,357,353,352,352,343,339,341,333,343,343,344,343,350,355,341,329,336,336,346,344,345,344,348,350,349,333,340,344,344,-1,0,0,0,0,0,0,0,0,0,0,0,0,0,0,0,0,0,0,0,0,0,0,0,0,0,0,0,0,0,0,0,0,0,0,0,0,0,0,0,0,0,0,0,0,0,0,0,0,0,0,0,0,0,0,0,0,0,0,0,0
"Ind77","7_0_11",345,344,352,353,348,346,347,347,348,348,349,354,358,353,360,354,352,364,354,356,347,347,360,358,354,357,358,351,358,351,361,356,358,365,357,360,361,368,354,350,351,359,333,344,340,345,355,351,352,350,345,341,343,335,343,345,344,345,352,353,340,332,339,339,346,344,344,343,347,349,348,335,342,346,344,7,-1,0,0,0,0,0,0,0,0,0,0,0,0,0,0,0,0,0,0,0,0,0,0,0,0,0,0,0,0,0,0,0,0,0,0,0,0,0,0,0,0,0,0,0,0,0,0,0,0,0,0,0,0,0,0,0,0,0,0,0
"Ind78","7_0_6",349,355,352,356,357,359,358,357,357,337,338,341,351,348,355,351,351,357,343,345,347,353,364,364,358,362,352,349,355,345,342,352,354,346,350,355,355,355,347,349,343,349,350,341,340,362,361,361,358,358,348,342,337,341,339,335,335,332,341,352,340,333,342,346,352,348,339,336,340,339,332,335,339,355,345,105,106,-1,0,0,0,0,0,0,0,0,0,0,0,0,0,0,0,0,0,0,0,0,0,0,0,0,0,0,0,0,0,0,0,0,0,0,0,0,0,0,0,0,0,0,0,0,0,0,0,0,0,0,0,0,0,0,0,0,0,0
"Ind79","7_0_10",352,350,352,358,357,359,358,358,359,339,345,344,355,348,361,348,348,354,343,349,349,349,355,356,352,355,347,339,350,340,338,344,343,343,350,342,342,344,336,340,336,347,348,340,342,357,364,364,364,359,344,343,343,342,340,342,338,336,344,344,338,328,330,334,354,351,332,332,335,328,330,332,334,354,336,100,100,63,-1,0,0,0,0,0,0,0,0,0,0,0,0,0,0,0,0,0,0,0,0,0,0,0,0,0,0,0,0,0,0,0,0,0,0,0,0,0,0,0,0,0,0,0,0,0,0,0,0,0,0,0,0,0,0,0,0,0
"Ind80","7_0_8",352,350,352,358,357,359,358,358,359,339,345,344,355,348,361,348,348,354,343,349,349,349,355,356,352,355,347,339,350,340,338,344,343,343,350,342,342,344,336,340,336,347,348,340,342,357,364,364,364,359,344,343,343,342,340,342,338,336,344,344,338,328,330,334,354,351,332,332,335,328,330,332,334,354,336,100,100,63,0,-1,0,0,0,0,0,0,0,0,0,0,0,0,0,0,0,0,0,0,0,0,0,0,0,0,0,0,0,0,0,0,0,0,0,0,0,0,0,0,0,0,0,0,0,0,0,0,0,0,0,0,0,0,0,0,0,0
"Ind81","7_0_9",342,351,343,345,350,352,351,352,352,340,339,343,355,347,356,352,352,351,340,345,349,336,345,347,343,345,344,332,347,341,337,340,341,342,340,340,345,340,336,341,344,343,329,339,336,359,359,353,354,353,338,337,339,334,343,339,337,336,337,356,346,337,343,342,354,351,340,343,341,343,334,340,334,339,341,112,114,94,101,101,-1,0,0,0,0,0,0,0,0,0,0,0,0,0,0,0,0,0,0,0,0,0,0,0,0,0,0,0,0,0,0,0,0,0,0,0,0,0,0,0,0,0,0,0,0,0,0,0,0,0,0,0,0,0,0,0
"Ind82","7_0_1",346,346,344,341,345,345,344,345,345,338,343,343,353,345,359,353,353,353,340,346,350,338,351,351,347,349,346,335,352,342,340,341,345,346,348,344,345,346,342,346,347,350,335,337,336,361,363,358,361,360,342,341,343,340,344,342,341,340,348,357,347,340,344,345,354,351,344,347,343,345,338,340,331,338,345,113,113,95,103,103,47,-1,0,0,0,0,0,0,0,0,0,0,0,0,0,0,0,0,0,0,0,0,0,0,0,0,0,0,0,0,0,0,0,0,0,0,0,0,0,0,0,0,0,0,0,0,0,0,0,0,0,0,0,0,0,0
"Ind83","7_0_7",344,348,354,358,350,346,349,349,350,340,341,343,356,353,360,347,347,357,339,343,356,349,351,353,349,349,347,344,349,344,348,350,350,345,352,347,351,347,345,349,347,348,350,344,347,363,363,364,357,359,347,345,350,346,346,349,344,343,347,357,352,346,355,345,365,361,344,347,345,347,342,345,346,355,350,110,110,105,108,108,83,86,-1,0,0,0,0,0,0,0,0,0,0,0,0,0,0,0,0,0,0,0,0,0,0,0,0,0,0,0,0,0,0,0,0,0,0,0,0,0,0,0,0,0,0,0,0,0,0,0,0,0,0,0,0,0
"Ind84","7_0_0",344,345,349,350,355,350,353,355,356,349,348,348,359,351,364,350,350,359,341,344,356,353,358,360,352,354,343,341,354,344,344,343,350,350,349,345,350,347,340,351,349,341,341,345,347,361,364,366,361,361,341,335,342,340,340,340,335,336,340,351,345,339,350,338,358,355,342,343,339,344,337,339,339,352,348,121,121,109,119,119,92,92,50,-1,0,0,0,0,0,0,0,0,0,0,0,0,0,0,0,0,0,0,0,0,0,0,0,0,0,0,0,0,0,0,0,0,0,0,0,0,0,0,0,0,0,0,0,0,0,0,0,0,0,0,0,0
"Ind85","7_0_14",342,349,350,358,348,348,351,347,349,343,349,346,358,361,360,348,347,351,342,343,359,346,356,356,350,354,337,341,350,338,340,340,346,345,344,343,346,336,344,350,351,353,335,343,345,363,367,362,358,357,352,341,343,342,345,348,343,344,359,351,338,333,339,337,345,346,340,343,341,336,337,334,344,347,338,157,157,139,145,145,132,131,148,143,-1,0,0,0,0,0,0,0,0,0,0,0,0,0,0,0,0,0,0,0,0,0,0,0,0,0,0,0,0,0,0,0,0,0,0,0,0,0,0,0,0,0,0,0,0,0,0,0,0,0,0,0
"Ind86","7_0_4",351,355,356,366,356,356,359,355,357,342,353,351,361,366,360,345,344,359,347,349,362,355,364,364,358,363,345,346,351,342,343,344,348,352,349,348,350,345,345,353,352,356,343,349,352,363,367,366,361,360,350,342,344,341,341,346,340,341,359,353,346,343,349,348,356,357,347,346,348,343,342,339,344,357,347,159,159,137,143,143,141,137,153,144,48,-1,0,0,0,0,0,0,0,0,0,0,0,0,0,0,0,0,0,0,0,0,0,0,0,0,0,0,0,0,0,0,0,0,0,0,0,0,0,0,0,0,0,0,0,0,0,0,0,0,0,0
"Ind87","7_0_2",353,357,356,366,356,356,359,355,357,344,353,351,361,366,362,348,347,360,354,356,366,355,364,364,360,363,345,353,358,349,350,349,347,353,352,353,354,350,352,356,355,356,340,354,359,365,365,368,361,360,353,339,343,340,344,343,339,340,358,358,345,342,350,347,353,355,346,345,347,340,341,341,342,361,344,164,162,141,152,152,143,143,155,146,50,16,-1,0,0,0,0,0,0,0,0,0,0,0,0,0,0,0,0,0,0,0,0,0,0,0,0,0,0,0,0,0,0,0,0,0,0,0,0,0,0,0,0,0,0,0,0,0,0,0,0,0
"Ind88","7_0_5",354,361,362,367,359,359,362,360,360,355,362,358,370,375,363,350,351,366,352,352,369,357,366,366,362,363,346,350,357,346,345,345,345,351,353,352,354,343,349,363,362,358,336,355,356,360,366,365,360,361,345,341,345,344,346,346,341,340,360,355,346,341,343,343,349,353,344,345,341,342,341,344,346,353,344,170,170,145,156,156,140,134,157,143,58,42,42,-1,0,0,0,0,0,0,0,0,0,0,0,0,0,0,0,0,0,0,0,0,0,0,0,0,0,0,0,0,0,0,0,0,0,0,0,0,0,0,0,0,0,0,0,0,0,0,0,0
"Ind89","7_0_13",355,356,355,358,356,356,359,355,357,346,355,351,357,360,359,350,349,357,357,355,369,351,362,362,360,363,341,352,359,350,351,348,346,352,355,352,353,345,356,361,360,362,346,348,349,362,360,363,359,362,354,345,349,344,345,346,341,342,358,358,350,343,347,347,354,351,342,343,345,344,344,345,345,353,344,162,162,143,154,154,143,137,155,150,49,37,35,49,-1,0,0,0,0,0,0,0,0,0,0,0,0,0,0,0,0,0,0,0,0,0,0,0,0,0,0,0,0,0,0,0,0,0,0,0,0,0,0,0,0,0,0,0,0,0,0,0
"Ind90","7_0_3",342,360,355,356,348,351,350,348,347,343,356,353,364,364,353,358,358,360,357,356,362,347,355,355,351,356,351,350,354,348,337,337,342,346,346,342,344,344,342,347,345,354,347,347,349,362,369,367,365,366,354,340,336,338,342,344,340,339,352,347,342,335,343,339,351,347,339,342,340,334,337,335,334,343,341,169,169,154,160,160,150,154,160,161,135,131,133,135,134,-1,0,0,0,0,0,0,0,0,0,0,0,0,0,0,0,0,0,0,0,0,0,0,0,0,0,0,0,0,0,0,0,0,0,0,0,0,0,0,0,0,0,0,0,0,0,0
"Ind91","1_0_12",356,351,349,353,359,355,358,358,356,344,350,350,348,349,361,345,345,353,366,363,364,350,357,359,356,353,354,345,345,339,358,345,344,348,347,345,342,341,348,343,341,340,349,346,346,350,347,354,347,345,341,346,345,342,344,340,355,357,343,343,337,331,339,339,348,346,339,338,337,338,338,340,333,330,320,363,362,369,366,366,356,363,362,363,361,352,350,355,348,361,-1,0,0,0,0,0,0,0,0,0,0,0,0,0,0,0,0,0,0,0,0,0,0,0,0,0,0,0,0,0,0,0,0,0,0,0,0,0,0,0,0,0,0,0,0,0
"Ind92","1_0_5",357,351,349,356,357,353,356,356,354,345,352,352,351,352,360,346,346,354,365,362,365,351,356,358,355,354,354,346,344,340,357,347,346,348,345,343,341,341,347,344,342,341,348,347,347,349,348,351,346,344,342,350,347,346,347,343,357,359,347,345,338,334,340,338,350,346,341,340,339,338,340,341,333,330,319,364,363,369,366,366,358,365,364,365,361,352,352,357,350,361,6,-1,0,0,0,0,0,0,0,0,0,0,0,0,0,0,0,0,0,0,0,0,0,0,0,0,0,0,0,0,0,0,0,0,0,0,0,0,0,0,0,0,0,0,0,0
"Ind93","1_0_3",360,358,355,361,358,356,359,357,355,347,355,355,353,350,361,343,343,352,365,362,366,354,357,361,358,357,348,345,347,341,356,350,349,349,348,345,343,343,351,344,342,343,347,348,348,353,350,353,347,346,343,346,345,344,349,345,357,357,349,349,346,342,346,346,350,350,341,340,339,336,340,343,336,334,329,364,363,365,367,367,357,362,359,360,360,353,353,358,353,362,24,22,-1,0,0,0,0,0,0,0,0,0,0,0,0,0,0,0,0,0,0,0,0,0,0,0,0,0,0,0,0,0,0,0,0,0,0,0,0,0,0,0,0,0,0,0
"Ind94","1_0_2",354,343,337,342,357,360,359,357,357,348,354,353,349,354,360,348,348,349,356,355,363,348,353,357,354,353,352,352,350,344,363,349,352,353,347,348,347,345,343,347,347,346,350,342,345,357,350,360,355,353,347,349,348,344,357,351,354,354,352,354,342,338,344,346,353,346,337,335,332,333,333,333,338,348,337,364,363,373,362,362,358,365,364,361,356,350,348,351,350,360,77,81,85,-1,0,0,0,0,0,0,0,0,0,0,0,0,0,0,0,0,0,0,0,0,0,0,0,0,0,0,0,0,0,0,0,0,0,0,0,0,0,0,0,0,0,0
"Ind95","1_0_13",367,342,335,341,356,358,357,355,355,352,356,355,346,355,358,351,351,351,362,363,362,346,356,358,357,354,351,355,355,349,370,351,358,354,357,356,352,351,348,350,351,354,345,345,348,360,356,363,352,354,351,348,351,347,357,351,352,354,356,357,341,341,347,339,359,348,337,336,333,337,336,333,336,348,335,364,363,368,365,365,356,359,364,360,358,351,349,348,349,364,80,82,89,39,-1,0,0,0,0,0,0,0,0,0,0,0,0,0,0,0,0,0,0,0,0,0,0,0,0,0,0,0,0,0,0,0,0,0,0,0,0,0,0,0,0,0
"Ind96","1_0_7",352,338,340,337,350,355,352,349,348,352,354,351,346,347,351,335,335,338,346,348,348,343,350,350,350,343,340,346,354,346,350,338,343,344,343,344,343,341,343,345,344,345,354,349,349,344,357,358,354,350,340,336,335,336,341,339,343,343,351,362,329,326,333,331,345,339,330,329,327,328,330,328,332,344,338,361,361,372,370,370,351,360,368,365,369,363,364,361,365,369,151,157,161,148,148,-1,0,0,0,0,0,0,0,0,0,0,0,0,0,0,0,0,0,0,0,0,0,0,0,0,0,0,0,0,0,0,0,0,0,0,0,0,0,0,0,0
"Ind97","1_0_4",350,350,351,349,352,353,350,348,348,351,357,354,350,353,358,344,344,344,348,349,348,342,345,345,347,343,349,355,361,348,355,349,353,359,353,355,356,354,353,349,350,355,359,348,349,356,353,352,356,351,340,348,347,345,344,346,354,356,358,369,336,328,340,330,340,343,340,338,337,336,331,333,329,332,338,361,359,369,371,371,352,359,371,365,365,361,364,359,365,367,147,151,157,150,154,81,-1,0,0,0,0,0,0,0,0,0,0,0,0,0,0,0,0,0,0,0,0,0,0,0,0,0,0,0,0,0,0,0,0,0,0,0,0,0,0,0
"Ind98","1_0_0",349,350,347,344,353,352,351,350,348,345,348,346,349,355,347,343,343,346,350,349,349,341,349,351,345,342,347,345,350,341,358,348,352,347,341,341,341,348,342,334,335,332,353,345,344,348,350,356,354,350,343,338,335,336,339,337,345,342,347,362,339,335,341,339,348,342,340,338,335,343,337,336,341,343,342,357,357,365,364,364,360,366,373,369,362,358,361,360,363,364,124,126,130,131,135,120,123,-1,0,0,0,0,0,0,0,0,0,0,0,0,0,0,0,0,0,0,0,0,0,0,0,0,0,0,0,0,0,0,0,0,0,0,0,0,0,0
"Ind99","1_0_6",356,347,348,349,349,347,346,346,344,343,344,344,348,350,347,341,343,346,348,349,347,338,347,349,345,342,348,342,347,341,361,353,360,353,348,347,349,352,344,334,333,335,353,339,340,346,351,356,353,349,343,341,336,339,338,338,343,347,348,361,341,339,341,341,345,343,343,342,338,345,340,340,339,347,338,360,358,369,368,368,360,366,371,370,366,361,364,363,368,371,124,126,128,134,134,124,124,30,-1,0,0,0,0,0,0,0,0,0,0,0,0,0,0,0,0,0,0,0,0,0,0,0,0,0,0,0,0,0,0,0,0,0,0,0,0,0
"Ind100","1_0_9",348,350,346,347,339,343,340,340,338,345,349,349,348,347,349,356,356,352,359,356,349,348,355,355,351,351,354,354,357,352,368,352,357,355,352,349,355,354,352,344,348,338,358,345,347,356,361,367,358,355,347,353,346,350,344,341,351,351,348,357,340,336,339,339,336,327,339,336,334,336,329,331,328,339,333,366,367,361,364,364,352,356,367,363,363,359,359,363,359,354,150,152,156,162,160,153,151,104,106,-1,0,0,0,0,0,0,0,0,0,0,0,0,0,0,0,0,0,0,0,0,0,0,0,0,0,0,0,0,0,0,0,0,0,0,0,0
"Ind101","1_0_1",357,352,347,347,356,356,355,355,353,351,353,353,349,347,352,358,358,353,358,359,355,348,346,347,347,348,350,344,348,344,358,350,359,347,347,346,344,346,346,343,343,338,348,336,344,350,351,358,348,350,342,342,339,343,343,340,340,340,351,357,341,332,338,336,343,340,346,345,341,341,344,336,336,344,337,362,363,370,370,370,359,364,361,360,369,361,359,363,362,360,140,143,144,145,149,143,148,109,110,84,-1,0,0,0,0,0,0,0,0,0,0,0,0,0,0,0,0,0,0,0,0,0,0,0,0,0,0,0,0,0,0,0,0,0,0,0
"Ind102","1_0_14",355,355,353,355,353,354,356,356,354,350,355,354,348,348,356,339,339,350,350,349,347,345,351,351,351,347,348,344,353,346,360,349,351,355,347,346,346,351,348,350,349,340,345,335,341,359,362,365,360,359,351,342,341,345,346,343,353,351,356,359,348,340,343,347,342,338,344,345,339,346,341,337,334,343,347,367,368,372,370,370,361,366,367,364,363,359,362,364,363,364,121,125,121,137,140,129,136,78,80,86,94,-1,0,0,0,0,0,0,0,0,0,0,0,0,0,0,0,0,0,0,0,0,0,0,0,0,0,0,0,0,0,0,0,0,0,0
"Ind103","1_0_11",356,351,349,353,352,353,355,355,353,349,354,355,348,346,354,341,341,350,353,352,347,342,346,346,348,346,349,340,351,344,359,352,352,359,351,346,348,350,346,348,347,342,347,336,342,360,363,368,359,360,351,341,342,346,345,342,351,349,359,360,346,340,343,345,345,342,347,348,342,349,344,337,330,339,351,366,367,373,365,365,358,365,364,361,361,358,361,362,362,363,117,119,115,135,136,129,133,76,80,89,91,16,-1,0,0,0,0,0,0,0,0,0,0,0,0,0,0,0,0,0,0,0,0,0,0,0,0,0,0,0,0,0,0,0,0,0
"Ind104","1_0_10",357,346,350,352,353,351,352,350,350,345,352,353,350,350,350,344,342,352,347,348,356,348,356,356,356,352,345,349,357,344,361,356,354,354,347,351,351,353,349,344,344,338,354,330,331,355,358,363,353,351,350,345,339,345,339,338,349,355,353,360,333,336,337,337,334,333,338,335,334,332,330,333,329,337,332,366,365,366,367,367,357,367,368,365,367,362,365,366,364,369,117,117,121,133,139,126,122,89,88,93,108,72,70,-1,0,0,0,0,0,0,0,0,0,0,0,0,0,0,0,0,0,0,0,0,0,0,0,0,0,0,0,0,0,0,0,0
"Ind105","1_0_8",355,344,346,346,348,350,349,349,347,348,355,354,349,346,353,339,339,345,344,345,352,337,340,342,340,340,337,345,352,349,362,346,350,356,348,347,348,349,349,329,331,330,348,339,342,355,364,363,360,358,352,344,345,347,339,339,352,350,361,362,344,337,342,340,340,339,342,341,339,343,334,332,329,340,340,367,368,369,363,363,350,360,363,360,356,350,355,360,354,361,128,132,132,130,137,132,131,85,87,94,100,68,66,75,-1,0,0,0,0,0,0,0,0,0,0,0,0,0,0,0,0,0,0,0,0,0,0,0,0,0,0,0,0,0,0,0
"Ind106","2_0_7",352,357,344,349,364,360,359,361,360,350,354,354,354,351,357,339,337,342,336,335,351,340,346,345,348,348,344,347,340,340,346,345,349,350,352,348,348,345,346,339,333,343,345,346,341,355,355,359,362,358,341,348,347,344,351,350,352,350,352,358,333,324,327,326,343,345,330,331,328,334,325,333,327,336,335,356,356,351,342,342,341,350,350,348,356,354,356,352,351,347,203,207,207,216,217,206,216,194,195,217,213,197,192,203,196,-1,0,0,0,0,0,0,0,0,0,0,0,0,0,0,0,0,0,0,0,0,0,0,0,0,0,0,0,0,0,0
"Ind107","3_0_8",343,337,333,335,355,353,350,351,350,347,350,347,345,351,353,341,342,340,346,339,339,338,338,337,334,336,334,339,341,336,334,325,334,328,329,326,326,324,335,327,323,327,318,325,323,355,350,354,354,349,338,342,343,342,336,338,338,336,349,353,338,335,341,343,346,342,343,343,339,341,333,344,333,341,345,346,343,343,340,340,333,338,345,340,349,339,346,342,347,338,172,172,174,191,194,184,182,174,179,191,192,166,166,181,175,209,-1,0,0,0,0,0,0,0,0,0,0,0,0,0,0,0,0,0,0,0,0,0,0,0,0,0,0,0,0,0
"Ind108","3_0_12",348,341,331,337,355,353,350,349,348,349,352,353,344,348,354,350,349,349,356,351,341,341,341,342,341,340,339,341,348,343,340,334,341,331,338,334,331,334,332,334,328,339,327,333,331,358,356,358,357,354,340,344,346,343,340,336,345,343,348,355,345,338,342,342,352,350,344,342,342,344,338,342,332,345,348,343,342,338,337,337,330,335,343,338,351,341,343,346,345,339,179,181,179,199,201,195,186,180,185,194,200,169,171,186,181,208,39,-1,0,0,0,0,0,0,0,0,0,0,0,0,0,0,0,0,0,0,0,0,0,0,0,0,0,0,0,0
"Ind109","3_0_5",360,341,340,342,352,349,348,346,345,341,351,350,347,344,343,333,332,336,356,353,349,337,341,342,337,337,344,336,340,333,342,340,343,335,340,330,332,330,331,322,320,335,331,324,320,349,349,354,354,347,337,343,341,340,340,338,344,343,349,347,341,340,344,343,345,345,343,347,341,346,340,338,328,346,350,358,357,346,344,344,345,348,352,355,351,341,337,345,345,342,181,185,187,194,201,200,194,177,177,193,193,173,174,189,179,207,97,94,-1,0,0,0,0,0,0,0,0,0,0,0,0,0,0,0,0,0,0,0,0,0,0,0,0,0,0,0
"Ind110","3_0_11",353,350,348,350,360,355,355,356,355,348,355,351,349,352,366,345,346,352,359,353,353,352,355,356,355,355,348,342,347,341,350,333,340,342,341,342,345,339,341,335,332,343,339,334,334,344,346,351,345,343,338,338,340,340,345,343,351,352,337,352,339,334,342,340,342,347,350,346,344,344,345,343,341,349,340,357,357,353,350,350,356,352,356,355,345,347,349,343,343,342,214,216,218,215,220,208,207,201,204,231,230,217,216,207,212,226,194,192,205,-1,0,0,0,0,0,0,0,0,0,0,0,0,0,0,0,0,0,0,0,0,0,0,0,0,0,0
"Ind111","2_0_11",348,352,347,347,352,354,353,353,351,336,344,344,363,363,365,337,339,340,342,340,362,348,353,355,349,353,350,339,349,345,340,340,351,358,353,347,347,343,329,323,328,326,341,331,329,344,349,352,344,341,342,330,334,330,332,336,339,334,344,353,347,335,337,342,342,339,350,348,348,346,346,333,335,338,336,356,358,356,348,348,350,354,357,358,353,354,359,350,357,354,229,229,236,228,236,239,244,226,233,243,245,230,231,241,228,226,208,220,222,199,-1,0,0,0,0,0,0,0,0,0,0,0,0,0,0,0,0,0,0,0,0,0,0,0,0,0
"Ind112","2_0_0",361,351,342,344,354,353,351,351,351,346,349,346,342,359,363,354,353,353,348,352,345,355,361,361,363,360,361,347,340,336,345,350,353,349,352,349,350,350,329,340,346,339,340,331,335,363,350,354,356,355,355,347,345,347,349,350,352,356,349,355,355,348,353,354,347,349,342,344,340,337,342,341,343,340,337,361,362,353,350,350,354,355,356,358,355,356,356,354,352,360,238,238,240,230,242,245,243,226,232,254,242,236,234,234,247,238,227,229,225,175,191,-1,0,0,0,0,0,0,0,0,0,0,0,0,0,0,0,0,0,0,0,0,0,0,0,0
"Ind113","2_0_13",358,351,352,347,353,350,352,351,349,344,349,347,350,357,359,345,346,349,350,352,361,343,355,353,349,348,358,343,340,336,349,349,354,346,352,345,342,349,333,333,329,328,346,331,333,352,341,349,348,347,339,326,329,331,333,332,332,334,343,338,337,345,350,345,337,340,344,339,340,340,340,332,346,339,338,370,370,361,353,353,359,357,353,345,350,349,352,352,348,359,224,226,229,225,230,240,237,225,230,240,234,228,222,219,236,232,217,226,217,180,196,129,-1,0,0,0,0,0,0,0,0,0,0,0,0,0,0,0,0,0,0,0,0,0,0,0
"Ind114","2_0_4",356,354,351,352,350,347,349,350,346,341,345,343,347,352,362,348,349,352,350,350,360,348,356,352,352,351,354,342,338,337,349,343,348,345,351,342,341,344,332,334,328,324,341,325,328,351,342,349,348,347,335,328,329,331,335,336,333,335,345,338,344,342,350,345,341,344,343,340,339,343,340,331,342,338,340,368,368,360,348,348,357,359,352,346,349,349,354,346,346,351,225,227,228,225,228,246,243,230,231,240,238,227,223,222,235,230,213,225,222,177,191,130,26,-1,0,0,0,0,0,0,0,0,0,0,0,0,0,0,0,0,0,0,0,0,0,0
"Ind115","2_0_2",353,347,342,343,345,341,343,341,339,333,337,337,344,355,362,355,354,357,355,358,367,356,361,359,354,351,358,344,342,340,350,346,349,343,342,338,338,341,344,333,335,338,344,340,339,366,352,361,366,361,345,350,349,349,352,353,349,351,350,352,341,343,344,344,351,356,334,331,330,334,335,330,340,345,338,360,360,364,351,351,352,353,346,338,344,339,343,342,343,354,228,230,234,224,238,242,239,226,229,253,244,230,229,231,233,233,208,213,217,181,190,129,89,86,-1,0,0,0,0,0,0,0,0,0,0,0,0,0,0,0,0,0,0,0,0,0
"Ind116","2_0_14",348,341,340,344,342,336,336,339,337,335,340,340,337,344,353,340,339,346,349,351,360,349,355,355,352,345,351,335,334,328,346,342,343,349,347,340,341,343,333,325,326,327,342,329,332,360,351,359,359,356,331,331,330,330,338,339,345,346,344,344,350,347,355,350,343,348,350,347,345,343,346,333,339,342,345,358,358,357,345,345,346,349,345,340,346,346,349,344,348,357,209,211,211,217,225,235,231,213,221,241,237,217,211,216,225,224,204,207,210,181,187,124,82,69,68,-1,0,0,0,0,0,0,0,0,0,0,0,0,0,0,0,0,0,0,0,0
"Ind117","2_0_5",357,342,341,344,349,348,350,344,346,331,341,340,349,359,361,340,341,343,344,344,348,354,351,350,350,348,348,343,342,342,344,335,342,344,350,342,341,339,348,338,336,338,334,325,330,343,343,346,344,346,341,330,332,330,333,334,336,342,347,343,344,340,348,345,349,348,334,334,332,333,332,335,337,343,335,354,354,349,337,337,341,340,339,336,341,337,345,340,342,342,223,227,229,226,233,238,236,229,231,249,241,227,226,219,228,227,203,213,217,171,178,113,131,126,122,127,-1,0,0,0,0,0,0,0,0,0,0,0,0,0,0,0,0,0,0,0
"Ind118","2_0_3",356,335,334,336,348,347,347,341,343,333,341,340,339,351,352,332,333,336,341,341,346,352,347,348,346,346,345,337,340,338,339,335,343,342,344,337,340,339,337,340,338,335,331,318,323,338,341,346,339,343,340,332,331,333,328,329,330,335,347,331,341,336,346,345,344,341,333,335,331,331,329,332,336,343,336,355,355,344,341,341,338,339,337,335,341,340,344,341,343,339,222,226,230,225,231,229,235,224,227,244,236,227,224,213,226,230,206,214,213,169,177,117,133,131,132,127,44,-1,0,0,0,0,0,0,0,0,0,0,0,0,0,0,0,0,0,0
"Ind119","2_0_10",352,338,337,337,348,345,345,341,345,331,339,340,341,350,361,334,333,333,341,343,344,349,354,351,351,353,345,343,342,344,346,332,341,348,350,344,345,341,347,338,336,338,334,322,327,341,348,352,347,347,340,336,334,336,327,329,337,342,345,340,334,335,343,338,343,340,330,330,328,326,324,333,335,342,329,358,356,349,343,343,339,338,336,336,336,337,339,339,336,342,222,226,232,226,232,235,241,235,238,238,242,231,232,213,231,228,206,213,217,171,175,130,141,139,134,134,51,37,-1,0,0,0,0,0,0,0,0,0,0,0,0,0,0,0,0,0
"Ind120","2_0_8",354,336,335,337,352,349,349,345,349,332,342,343,341,350,356,334,333,334,342,344,351,351,350,349,351,351,343,348,347,345,344,338,347,347,349,345,344,342,347,338,334,334,335,324,331,341,339,345,340,340,337,335,333,335,326,329,332,339,344,341,334,337,345,340,344,341,333,333,331,331,327,333,335,341,329,358,356,347,339,339,337,338,335,337,337,336,338,337,333,340,217,221,227,224,229,237,240,235,238,242,240,232,233,213,229,232,201,211,217,172,180,130,139,136,135,134,48,39,17,-1,0,0,0,0,0,0,0,0,0,0,0,0,0,0,0,0
"Ind121","2_0_12",361,343,340,342,342,344,344,337,339,345,354,353,350,359,362,346,345,343,348,350,352,358,353,350,353,355,360,347,345,346,353,345,350,357,354,353,352,356,348,358,348,349,339,336,343,351,354,357,356,358,354,337,335,337,346,342,341,345,352,347,343,339,341,341,344,345,335,337,334,333,329,333,338,342,334,369,367,354,352,352,351,345,353,349,350,349,349,351,348,359,228,232,233,232,238,241,247,241,244,259,253,237,238,226,240,236,233,233,226,186,203,132,149,150,147,152,69,75,77,83,-1,0,0,0,0,0,0,0,0,0,0,0,0,0,0,0
"Ind122","2_0_6",357,348,337,339,347,347,345,347,343,332,336,334,344,352,350,339,338,341,344,343,357,350,347,349,349,342,357,339,337,336,346,344,347,354,355,344,344,346,338,336,339,338,339,329,332,354,349,356,356,357,347,339,335,339,347,346,346,348,349,345,340,337,341,343,351,351,346,349,346,341,346,331,342,340,338,361,359,352,342,342,349,348,351,350,352,350,352,349,347,347,219,223,232,220,232,230,233,219,229,247,239,235,228,225,227,223,213,219,217,176,189,105,127,122,125,117,98,99,106,104,111,-1,0,0,0,0,0,0,0,0,0,0,0,0,0,0
"Ind123","2_0_9",352,357,354,358,367,361,362,363,359,347,350,347,350,369,351,354,354,352,356,356,355,341,351,348,346,347,346,337,338,335,337,334,338,335,337,328,327,331,333,323,322,325,334,320,321,341,344,356,349,344,354,344,342,341,348,348,359,361,343,347,344,334,346,345,344,349,336,338,336,340,341,337,341,347,345,358,358,350,346,346,350,353,349,351,345,346,347,350,344,342,221,220,228,233,242,242,242,229,233,246,244,237,236,231,232,236,224,233,225,178,190,177,163,156,183,166,171,169,183,182,189,169,-1,0,0,0,0,0,0,0,0,0,0,0,0,0
"Ind124","2_0_1",347,352,346,353,350,349,351,351,349,340,347,346,352,357,356,347,348,347,346,348,353,345,353,352,350,354,358,344,344,349,344,336,342,349,345,336,336,339,336,329,330,336,336,324,325,351,353,356,362,351,347,355,354,347,355,354,362,365,346,352,358,342,348,349,345,351,350,350,350,342,350,353,347,358,346,358,359,363,358,358,359,357,357,359,353,350,353,354,351,349,232,232,240,232,232,241,237,228,233,245,243,241,235,228,237,232,225,235,231,182,177,173,180,172,181,174,170,166,168,174,181,159,118,-1,0,0,0,0,0,0,0,0,0,0,0,0
"Ind125","3_0_2",345,356,350,346,349,345,346,348,348,338,337,342,344,348,359,337,335,348,339,337,355,354,352,355,351,350,342,337,336,330,345,338,347,340,339,332,333,335,335,332,332,331,338,338,338,354,353,353,352,346,343,344,341,341,343,343,345,345,347,353,337,330,344,344,348,352,337,338,335,336,335,337,339,341,336,364,362,360,357,357,358,357,356,346,354,349,346,344,351,356,233,237,237,233,245,236,239,227,231,241,244,228,230,231,235,240,211,219,217,191,222,197,198,197,189,190,185,188,191,188,198,179,207,208,-1,0,0,0,0,0,0,0,0,0,0,0
"Ind126","3_0_1",337,352,352,351,340,340,339,341,339,334,340,337,343,344,364,340,338,344,352,345,356,346,352,353,351,351,347,327,328,328,342,331,333,332,338,329,327,327,345,332,335,335,347,343,348,353,349,353,355,350,336,345,344,342,341,340,351,355,352,358,338,334,341,339,338,347,335,334,334,337,329,334,332,338,332,376,376,367,369,369,364,372,367,356,354,355,357,354,352,355,235,239,241,234,239,238,244,246,244,246,263,245,245,244,237,256,223,236,236,198,230,216,216,214,211,218,196,205,200,202,214,204,222,216,117,-1,0,0,0,0,0,0,0,0,0,0
"Ind127","3_0_6",334,348,352,351,341,341,340,340,340,338,342,339,345,346,363,342,340,347,354,347,354,350,354,357,355,353,347,333,332,331,343,329,335,332,336,327,327,327,346,331,334,334,346,345,348,351,349,353,355,350,336,345,344,342,340,339,352,358,349,357,338,337,344,342,339,348,337,336,336,339,331,333,331,339,332,377,377,368,370,370,367,373,370,359,355,356,358,355,353,357,240,244,246,233,240,239,249,247,245,247,264,242,244,241,238,256,222,237,235,201,228,217,221,219,216,221,195,206,201,203,217,207,223,223,112,9,-1,0,0,0,0,0,0,0,0,0
"Ind128","3_0_3",333,354,351,354,348,345,346,348,344,342,344,343,352,355,362,344,344,348,354,345,355,351,357,360,354,353,356,331,336,332,339,332,335,336,334,331,331,330,332,331,336,332,335,334,338,351,352,360,357,354,337,349,348,344,343,343,351,353,354,360,336,336,345,345,337,341,342,341,337,337,340,332,322,342,336,372,373,364,363,363,364,364,361,353,364,359,359,352,359,354,244,246,245,237,244,245,257,239,241,236,257,239,241,243,243,250,220,228,228,193,215,211,210,207,207,209,200,203,200,203,220,205,219,202,107,58,55,-1,0,0,0,0,0,0,0,0
"Ind129","3_0_10",338,356,355,354,344,343,344,346,344,341,345,344,350,351,365,344,342,349,354,347,357,350,354,357,354,356,354,335,336,334,340,331,334,335,335,330,330,330,332,334,336,332,336,340,344,353,351,361,354,353,337,344,343,339,341,341,346,348,351,358,341,335,346,346,337,340,337,336,334,334,337,334,326,344,337,376,377,365,367,367,367,370,365,355,362,357,357,352,357,353,239,243,242,232,240,241,254,239,241,244,255,235,239,243,242,249,225,230,228,194,220,207,210,208,208,208,199,202,201,203,214,203,220,207,104,54,51,21,-1,0,0,0,0,0,0,0
"Ind130","3_0_14",345,346,344,346,345,343,342,346,345,341,343,344,341,340,356,331,330,334,342,340,348,345,348,351,348,344,342,332,325,324,354,332,338,341,336,333,336,334,340,328,333,340,339,336,341,344,344,351,350,347,341,341,342,338,346,346,350,353,335,342,333,323,330,331,340,346,333,333,329,333,335,325,322,329,330,370,372,368,362,362,358,367,365,360,362,361,362,359,361,360,239,243,251,231,238,228,247,241,244,255,250,246,247,241,233,245,236,238,235,201,225,201,214,209,208,211,208,202,207,207,217,200,207,207,132,125,129,123,124,-1,0,0,0,0,0,0
"Ind131","3_0_9",351,342,340,341,345,341,340,341,341,340,341,342,336,333,358,337,336,339,337,336,347,349,348,347,344,347,345,334,330,331,343,338,343,343,344,336,339,337,343,330,334,339,336,329,329,344,352,356,354,354,345,345,350,346,346,346,350,351,341,344,333,336,341,340,342,349,326,331,324,327,325,335,326,345,333,366,366,362,356,356,351,353,358,350,350,352,355,354,353,356,246,250,252,243,246,234,257,243,245,251,249,245,244,243,233,237,228,237,229,201,216,203,207,203,194,204,194,189,192,197,198,200,204,200,124,121,125,122,126,65,-1,0,0,0,0,0
"Ind132","3_0_7",355,343,340,341,347,343,342,343,343,342,343,343,335,335,356,338,337,339,335,334,349,353,352,351,348,351,345,334,329,330,346,336,341,343,340,334,337,335,341,332,336,340,337,331,332,345,353,356,353,355,350,346,349,347,348,348,348,348,341,343,334,335,340,339,341,348,324,330,322,326,323,333,326,344,333,369,369,360,358,358,355,357,362,353,350,354,357,356,353,358,250,254,254,246,248,236,259,247,249,255,251,250,249,247,238,241,234,244,235,205,219,202,208,202,200,210,197,189,193,198,199,200,204,205,128,125,129,125,129,67,10,-1,0,0,0,0
"Ind133","3_0_0",350,343,340,341,344,340,339,340,340,340,341,341,333,332,359,339,338,336,339,338,349,352,351,350,347,350,345,336,334,335,349,333,338,341,339,331,336,335,342,336,340,344,338,326,332,348,352,356,352,354,347,343,348,344,342,346,346,347,340,343,333,332,337,334,341,348,322,327,320,323,321,332,323,347,330,366,366,359,354,354,353,355,358,350,350,353,354,358,353,359,251,255,255,247,247,240,260,247,251,254,252,249,248,249,238,241,235,242,236,205,219,205,209,205,198,209,196,189,190,195,198,200,205,204,129,124,128,122,126,67,13,11,-1,0,0,0
"Ind134","3_0_13",352,343,340,341,344,340,339,340,340,340,341,341,335,334,359,339,338,336,336,335,346,351,350,349,346,349,343,333,331,332,346,333,338,340,339,331,334,334,341,333,337,341,335,327,331,346,350,354,352,352,346,343,348,344,346,346,346,347,339,342,332,331,336,335,341,348,323,328,321,324,322,333,324,346,330,366,366,358,354,354,352,354,359,350,351,355,356,357,354,360,252,256,256,246,248,238,261,247,251,253,249,247,248,249,239,239,234,241,235,201,217,201,204,200,196,206,194,187,190,195,196,198,205,202,127,122,126,120,122,65,9,7,6,-1,0,0
"Ind135","3_0_4",355,341,341,338,342,340,339,340,340,337,337,338,337,333,357,336,335,337,335,334,349,352,349,350,345,348,345,328,326,327,347,334,339,339,340,332,335,331,338,330,336,336,333,328,328,340,350,352,350,350,346,341,346,342,346,346,348,347,338,339,332,331,338,335,341,344,325,328,323,322,320,333,327,341,330,366,366,360,354,354,354,356,357,350,351,357,360,353,356,359,251,255,259,246,247,237,261,245,247,249,255,250,249,242,234,237,235,244,230,201,215,207,208,202,199,207,195,190,193,198,199,195,203,198,124,126,130,125,127,67,18,20,21,19,-1,0
"Ind136","0_0_0",357,353,346,354,350,349,348,349,349,344,342,341,341,340,348,336,335,325,320,321,334,328,328,331,326,328,322,333,339,335,335,335,333,332,332,332,331,331,329,340,336,341,330,327,328,330,328,335,327,326,333,339,333,333,341,342,340,339,344,336,330,336,343,342,343,345,333,335,335,338,331,338,338,335,332,334,332,335,336,336,334,341,346,344,340,341,344,346,345,347,335,335,338,339,339,335,338,346,341,336,334,339,344,335,344,334,341,342,340,333,342,347,347,343,345,342,341,335,340,337,348,349,333,330,351,334,337,338,336,336,336,335,337,335,333,-1
