"","Description","Ind1","Ind2","Ind3","Ind4","Ind5","Ind6","Ind7","Ind8","Ind9","Ind10","Ind11","Ind12","Ind13","Ind14","Ind15","Ind16","Ind17","Ind18","Ind19","Ind20","Ind21","Ind22","Ind23","Ind24","Ind25","Ind26","Ind27","Ind28","Ind29","Ind30","Ind31","Ind32","Ind33","Ind34","Ind35","Ind36","Ind37","Ind38","Ind39","Ind40","Ind41","Ind42","Ind43","Ind44","Ind45","Ind46","Ind47","Ind48","Ind49","Ind50","Ind51","Ind52","Ind53","Ind54","Ind55","Ind56","Ind57","Ind58","Ind59","Ind60","Ind61","Ind62","Ind63","Ind64","Ind65","Ind66","Ind67","Ind68","Ind69","Ind70","Ind71","Ind72","Ind73","Ind74","Ind75","Ind76","Ind77","Ind78","Ind79","Ind80","Ind81","Ind82","Ind83","Ind84","Ind85","Ind86","Ind87","Ind88","Ind89","Ind90","Ind91","Ind92","Ind93","Ind94","Ind95","Ind96","Ind97","Ind98","Ind99","Ind100","Ind101","Ind102","Ind103","Ind104","Ind105","Ind106","Ind107","Ind108","Ind109","Ind110","Ind111","Ind112","Ind113","Ind114","Ind115","Ind116","Ind117","Ind118","Ind119","Ind120","Ind121","Ind122","Ind123","Ind124","Ind125","Ind126","Ind127","Ind128","Ind129","Ind130","Ind131","Ind132","Ind133","Ind134","Ind135","Ind136"
"Ind1","2_0_12",-1,0,0,0,0,0,0,0,0,0,0,0,0,0,0,0,0,0,0,0,0,0,0,0,0,0,0,0,0,0,0,0,0,0,0,0,0,0,0,0,0,0,0,0,0,0,0,0,0,0,0,0,0,0,0,0,0,0,0,0,0,0,0,0,0,0,0,0,0,0,0,0,0,0,0,0,0,0,0,0,0,0,0,0,0,0,0,0,0,0,0,0,0,0,0,0,0,0,0,0,0,0,0,0,0,0,0,0,0,0,0,0,0,0,0,0,0,0,0,0,0,0,0,0,0,0,0,0,0,0,0,0,0,0,0,0
"Ind2","2_0_0",106,-1,0,0,0,0,0,0,0,0,0,0,0,0,0,0,0,0,0,0,0,0,0,0,0,0,0,0,0,0,0,0,0,0,0,0,0,0,0,0,0,0,0,0,0,0,0,0,0,0,0,0,0,0,0,0,0,0,0,0,0,0,0,0,0,0,0,0,0,0,0,0,0,0,0,0,0,0,0,0,0,0,0,0,0,0,0,0,0,0,0,0,0,0,0,0,0,0,0,0,0,0,0,0,0,0,0,0,0,0,0,0,0,0,0,0,0,0,0,0,0,0,0,0,0,0,0,0,0,0,0,0,0,0,0,0
"Ind3","2_0_3",161,164,-1,0,0,0,0,0,0,0,0,0,0,0,0,0,0,0,0,0,0,0,0,0,0,0,0,0,0,0,0,0,0,0,0,0,0,0,0,0,0,0,0,0,0,0,0,0,0,0,0,0,0,0,0,0,0,0,0,0,0,0,0,0,0,0,0,0,0,0,0,0,0,0,0,0,0,0,0,0,0,0,0,0,0,0,0,0,0,0,0,0,0,0,0,0,0,0,0,0,0,0,0,0,0,0,0,0,0,0,0,0,0,0,0,0,0,0,0,0,0,0,0,0,0,0,0,0,0,0,0,0,0,0,0,0
"Ind4","2_0_2",166,159,29,-1,0,0,0,0,0,0,0,0,0,0,0,0,0,0,0,0,0,0,0,0,0,0,0,0,0,0,0,0,0,0,0,0,0,0,0,0,0,0,0,0,0,0,0,0,0,0,0,0,0,0,0,0,0,0,0,0,0,0,0,0,0,0,0,0,0,0,0,0,0,0,0,0,0,0,0,0,0,0,0,0,0,0,0,0,0,0,0,0,0,0,0,0,0,0,0,0,0,0,0,0,0,0,0,0,0,0,0,0,0,0,0,0,0,0,0,0,0,0,0,0,0,0,0,0,0,0,0,0,0,0,0,0
"Ind5","2_0_7",159,160,24,35,-1,0,0,0,0,0,0,0,0,0,0,0,0,0,0,0,0,0,0,0,0,0,0,0,0,0,0,0,0,0,0,0,0,0,0,0,0,0,0,0,0,0,0,0,0,0,0,0,0,0,0,0,0,0,0,0,0,0,0,0,0,0,0,0,0,0,0,0,0,0,0,0,0,0,0,0,0,0,0,0,0,0,0,0,0,0,0,0,0,0,0,0,0,0,0,0,0,0,0,0,0,0,0,0,0,0,0,0,0,0,0,0,0,0,0,0,0,0,0,0,0,0,0,0,0,0,0,0,0,0,0,0
"Ind6","1_0_2",322,323,322,320,324,-1,0,0,0,0,0,0,0,0,0,0,0,0,0,0,0,0,0,0,0,0,0,0,0,0,0,0,0,0,0,0,0,0,0,0,0,0,0,0,0,0,0,0,0,0,0,0,0,0,0,0,0,0,0,0,0,0,0,0,0,0,0,0,0,0,0,0,0,0,0,0,0,0,0,0,0,0,0,0,0,0,0,0,0,0,0,0,0,0,0,0,0,0,0,0,0,0,0,0,0,0,0,0,0,0,0,0,0,0,0,0,0,0,0,0,0,0,0,0,0,0,0,0,0,0,0,0,0,0,0,0
"Ind7","1_0_11",332,341,331,332,330,164,-1,0,0,0,0,0,0,0,0,0,0,0,0,0,0,0,0,0,0,0,0,0,0,0,0,0,0,0,0,0,0,0,0,0,0,0,0,0,0,0,0,0,0,0,0,0,0,0,0,0,0,0,0,0,0,0,0,0,0,0,0,0,0,0,0,0,0,0,0,0,0,0,0,0,0,0,0,0,0,0,0,0,0,0,0,0,0,0,0,0,0,0,0,0,0,0,0,0,0,0,0,0,0,0,0,0,0,0,0,0,0,0,0,0,0,0,0,0,0,0,0,0,0,0,0,0,0,0,0,0
"Ind8","1_0_12",332,341,331,332,330,164,0,-1,0,0,0,0,0,0,0,0,0,0,0,0,0,0,0,0,0,0,0,0,0,0,0,0,0,0,0,0,0,0,0,0,0,0,0,0,0,0,0,0,0,0,0,0,0,0,0,0,0,0,0,0,0,0,0,0,0,0,0,0,0,0,0,0,0,0,0,0,0,0,0,0,0,0,0,0,0,0,0,0,0,0,0,0,0,0,0,0,0,0,0,0,0,0,0,0,0,0,0,0,0,0,0,0,0,0,0,0,0,0,0,0,0,0,0,0,0,0,0,0,0,0,0,0,0,0,0,0
"Ind9","1_0_7",327,333,322,317,322,186,78,78,-1,0,0,0,0,0,0,0,0,0,0,0,0,0,0,0,0,0,0,0,0,0,0,0,0,0,0,0,0,0,0,0,0,0,0,0,0,0,0,0,0,0,0,0,0,0,0,0,0,0,0,0,0,0,0,0,0,0,0,0,0,0,0,0,0,0,0,0,0,0,0,0,0,0,0,0,0,0,0,0,0,0,0,0,0,0,0,0,0,0,0,0,0,0,0,0,0,0,0,0,0,0,0,0,0,0,0,0,0,0,0,0,0,0,0,0,0,0,0,0,0,0,0,0,0,0,0,0
"Ind10","1_0_5",335,338,337,330,338,184,211,211,203,-1,0,0,0,0,0,0,0,0,0,0,0,0,0,0,0,0,0,0,0,0,0,0,0,0,0,0,0,0,0,0,0,0,0,0,0,0,0,0,0,0,0,0,0,0,0,0,0,0,0,0,0,0,0,0,0,0,0,0,0,0,0,0,0,0,0,0,0,0,0,0,0,0,0,0,0,0,0,0,0,0,0,0,0,0,0,0,0,0,0,0,0,0,0,0,0,0,0,0,0,0,0,0,0,0,0,0,0,0,0,0,0,0,0,0,0,0,0,0,0,0,0,0,0,0,0,0
"Ind11","3_0_7",334,337,335,335,339,288,285,285,277,290,-1,0,0,0,0,0,0,0,0,0,0,0,0,0,0,0,0,0,0,0,0,0,0,0,0,0,0,0,0,0,0,0,0,0,0,0,0,0,0,0,0,0,0,0,0,0,0,0,0,0,0,0,0,0,0,0,0,0,0,0,0,0,0,0,0,0,0,0,0,0,0,0,0,0,0,0,0,0,0,0,0,0,0,0,0,0,0,0,0,0,0,0,0,0,0,0,0,0,0,0,0,0,0,0,0,0,0,0,0,0,0,0,0,0,0,0,0,0,0,0,0,0,0,0,0,0
"Ind12","3_0_3",322,330,321,320,326,298,311,311,308,295,208,-1,0,0,0,0,0,0,0,0,0,0,0,0,0,0,0,0,0,0,0,0,0,0,0,0,0,0,0,0,0,0,0,0,0,0,0,0,0,0,0,0,0,0,0,0,0,0,0,0,0,0,0,0,0,0,0,0,0,0,0,0,0,0,0,0,0,0,0,0,0,0,0,0,0,0,0,0,0,0,0,0,0,0,0,0,0,0,0,0,0,0,0,0,0,0,0,0,0,0,0,0,0,0,0,0,0,0,0,0,0,0,0,0,0,0,0,0,0,0,0,0,0,0,0,0
"Ind13","3_0_10",310,308,319,316,322,297,302,302,305,290,197,112,-1,0,0,0,0,0,0,0,0,0,0,0,0,0,0,0,0,0,0,0,0,0,0,0,0,0,0,0,0,0,0,0,0,0,0,0,0,0,0,0,0,0,0,0,0,0,0,0,0,0,0,0,0,0,0,0,0,0,0,0,0,0,0,0,0,0,0,0,0,0,0,0,0,0,0,0,0,0,0,0,0,0,0,0,0,0,0,0,0,0,0,0,0,0,0,0,0,0,0,0,0,0,0,0,0,0,0,0,0,0,0,0,0,0,0,0,0,0,0,0,0,0,0,0
"Ind14","3_0_6",314,311,315,312,318,296,304,304,312,294,201,110,11,-1,0,0,0,0,0,0,0,0,0,0,0,0,0,0,0,0,0,0,0,0,0,0,0,0,0,0,0,0,0,0,0,0,0,0,0,0,0,0,0,0,0,0,0,0,0,0,0,0,0,0,0,0,0,0,0,0,0,0,0,0,0,0,0,0,0,0,0,0,0,0,0,0,0,0,0,0,0,0,0,0,0,0,0,0,0,0,0,0,0,0,0,0,0,0,0,0,0,0,0,0,0,0,0,0,0,0,0,0,0,0,0,0,0,0,0,0,0,0,0,0,0,0
"Ind15","3_0_11",323,324,341,340,339,300,303,303,298,296,207,123,126,128,-1,0,0,0,0,0,0,0,0,0,0,0,0,0,0,0,0,0,0,0,0,0,0,0,0,0,0,0,0,0,0,0,0,0,0,0,0,0,0,0,0,0,0,0,0,0,0,0,0,0,0,0,0,0,0,0,0,0,0,0,0,0,0,0,0,0,0,0,0,0,0,0,0,0,0,0,0,0,0,0,0,0,0,0,0,0,0,0,0,0,0,0,0,0,0,0,0,0,0,0,0,0,0,0,0,0,0,0,0,0,0,0,0,0,0,0,0,0,0,0,0,0
"Ind16","3_0_2",314,312,323,322,322,293,305,305,299,293,196,86,95,94,74,-1,0,0,0,0,0,0,0,0,0,0,0,0,0,0,0,0,0,0,0,0,0,0,0,0,0,0,0,0,0,0,0,0,0,0,0,0,0,0,0,0,0,0,0,0,0,0,0,0,0,0,0,0,0,0,0,0,0,0,0,0,0,0,0,0,0,0,0,0,0,0,0,0,0,0,0,0,0,0,0,0,0,0,0,0,0,0,0,0,0,0,0,0,0,0,0,0,0,0,0,0,0,0,0,0,0,0,0,0,0,0,0,0,0,0,0,0,0,0,0,0
"Ind17","3_0_13",320,316,323,322,324,294,298,298,298,289,198,86,93,92,68,14,-1,0,0,0,0,0,0,0,0,0,0,0,0,0,0,0,0,0,0,0,0,0,0,0,0,0,0,0,0,0,0,0,0,0,0,0,0,0,0,0,0,0,0,0,0,0,0,0,0,0,0,0,0,0,0,0,0,0,0,0,0,0,0,0,0,0,0,0,0,0,0,0,0,0,0,0,0,0,0,0,0,0,0,0,0,0,0,0,0,0,0,0,0,0,0,0,0,0,0,0,0,0,0,0,0,0,0,0,0,0,0,0,0,0,0,0,0,0,0,0
"Ind18","3_0_1",319,322,322,322,324,276,280,280,289,269,264,260,284,280,266,272,272,-1,0,0,0,0,0,0,0,0,0,0,0,0,0,0,0,0,0,0,0,0,0,0,0,0,0,0,0,0,0,0,0,0,0,0,0,0,0,0,0,0,0,0,0,0,0,0,0,0,0,0,0,0,0,0,0,0,0,0,0,0,0,0,0,0,0,0,0,0,0,0,0,0,0,0,0,0,0,0,0,0,0,0,0,0,0,0,0,0,0,0,0,0,0,0,0,0,0,0,0,0,0,0,0,0,0,0,0,0,0,0,0,0,0,0,0,0,0,0
"Ind19","3_0_9",316,318,319,314,315,275,277,277,271,289,265,262,260,263,263,262,261,164,-1,0,0,0,0,0,0,0,0,0,0,0,0,0,0,0,0,0,0,0,0,0,0,0,0,0,0,0,0,0,0,0,0,0,0,0,0,0,0,0,0,0,0,0,0,0,0,0,0,0,0,0,0,0,0,0,0,0,0,0,0,0,0,0,0,0,0,0,0,0,0,0,0,0,0,0,0,0,0,0,0,0,0,0,0,0,0,0,0,0,0,0,0,0,0,0,0,0,0,0,0,0,0,0,0,0,0,0,0,0,0,0,0,0,0,0,0,0
"Ind20","3_0_8",328,331,327,322,329,283,283,283,287,271,245,254,262,260,268,257,262,169,193,-1,0,0,0,0,0,0,0,0,0,0,0,0,0,0,0,0,0,0,0,0,0,0,0,0,0,0,0,0,0,0,0,0,0,0,0,0,0,0,0,0,0,0,0,0,0,0,0,0,0,0,0,0,0,0,0,0,0,0,0,0,0,0,0,0,0,0,0,0,0,0,0,0,0,0,0,0,0,0,0,0,0,0,0,0,0,0,0,0,0,0,0,0,0,0,0,0,0,0,0,0,0,0,0,0,0,0,0,0,0,0,0,0,0,0,0,0
"Ind21","3_0_0",317,309,313,318,315,273,276,276,272,280,265,266,262,263,279,253,256,232,231,234,-1,0,0,0,0,0,0,0,0,0,0,0,0,0,0,0,0,0,0,0,0,0,0,0,0,0,0,0,0,0,0,0,0,0,0,0,0,0,0,0,0,0,0,0,0,0,0,0,0,0,0,0,0,0,0,0,0,0,0,0,0,0,0,0,0,0,0,0,0,0,0,0,0,0,0,0,0,0,0,0,0,0,0,0,0,0,0,0,0,0,0,0,0,0,0,0,0,0,0,0,0,0,0,0,0,0,0,0,0,0,0,0,0,0,0,0
"Ind22","3_0_14",310,301,312,317,313,276,295,295,295,291,256,262,262,264,283,265,262,233,230,219,111,-1,0,0,0,0,0,0,0,0,0,0,0,0,0,0,0,0,0,0,0,0,0,0,0,0,0,0,0,0,0,0,0,0,0,0,0,0,0,0,0,0,0,0,0,0,0,0,0,0,0,0,0,0,0,0,0,0,0,0,0,0,0,0,0,0,0,0,0,0,0,0,0,0,0,0,0,0,0,0,0,0,0,0,0,0,0,0,0,0,0,0,0,0,0,0,0,0,0,0,0,0,0,0,0,0,0,0,0,0,0,0,0,0,0,0
"Ind23","3_0_5",325,328,336,330,339,293,284,284,282,270,283,267,277,278,271,268,266,232,226,215,243,245,-1,0,0,0,0,0,0,0,0,0,0,0,0,0,0,0,0,0,0,0,0,0,0,0,0,0,0,0,0,0,0,0,0,0,0,0,0,0,0,0,0,0,0,0,0,0,0,0,0,0,0,0,0,0,0,0,0,0,0,0,0,0,0,0,0,0,0,0,0,0,0,0,0,0,0,0,0,0,0,0,0,0,0,0,0,0,0,0,0,0,0,0,0,0,0,0,0,0,0,0,0,0,0,0,0,0,0,0,0,0,0,0,0,0
"Ind24","3_0_12",340,330,343,330,336,289,282,282,283,292,279,265,280,274,269,275,274,236,229,227,252,257,112,-1,0,0,0,0,0,0,0,0,0,0,0,0,0,0,0,0,0,0,0,0,0,0,0,0,0,0,0,0,0,0,0,0,0,0,0,0,0,0,0,0,0,0,0,0,0,0,0,0,0,0,0,0,0,0,0,0,0,0,0,0,0,0,0,0,0,0,0,0,0,0,0,0,0,0,0,0,0,0,0,0,0,0,0,0,0,0,0,0,0,0,0,0,0,0,0,0,0,0,0,0,0,0,0,0,0,0,0,0,0,0,0,0
"Ind25","3_0_4",329,326,334,326,329,294,276,276,277,279,279,267,274,279,265,263,263,228,236,226,263,247,84,109,-1,0,0,0,0,0,0,0,0,0,0,0,0,0,0,0,0,0,0,0,0,0,0,0,0,0,0,0,0,0,0,0,0,0,0,0,0,0,0,0,0,0,0,0,0,0,0,0,0,0,0,0,0,0,0,0,0,0,0,0,0,0,0,0,0,0,0,0,0,0,0,0,0,0,0,0,0,0,0,0,0,0,0,0,0,0,0,0,0,0,0,0,0,0,0,0,0,0,0,0,0,0,0,0,0,0,0,0,0,0,0,0
"Ind26","1_0_1",311,318,307,307,306,266,288,288,287,284,292,279,276,272,291,283,279,259,261,256,285,281,261,280,275,-1,0,0,0,0,0,0,0,0,0,0,0,0,0,0,0,0,0,0,0,0,0,0,0,0,0,0,0,0,0,0,0,0,0,0,0,0,0,0,0,0,0,0,0,0,0,0,0,0,0,0,0,0,0,0,0,0,0,0,0,0,0,0,0,0,0,0,0,0,0,0,0,0,0,0,0,0,0,0,0,0,0,0,0,0,0,0,0,0,0,0,0,0,0,0,0,0,0,0,0,0,0,0,0,0,0,0,0,0,0,0
"Ind27","1_0_4",326,317,322,317,313,277,301,301,287,281,278,296,272,276,291,281,280,275,280,280,289,277,268,277,280,194,-1,0,0,0,0,0,0,0,0,0,0,0,0,0,0,0,0,0,0,0,0,0,0,0,0,0,0,0,0,0,0,0,0,0,0,0,0,0,0,0,0,0,0,0,0,0,0,0,0,0,0,0,0,0,0,0,0,0,0,0,0,0,0,0,0,0,0,0,0,0,0,0,0,0,0,0,0,0,0,0,0,0,0,0,0,0,0,0,0,0,0,0,0,0,0,0,0,0,0,0,0,0,0,0,0,0,0,0,0,0
"Ind28","1_0_0",334,336,326,320,326,284,306,306,300,270,303,280,279,278,290,280,276,277,278,281,292,286,260,272,275,191,100,-1,0,0,0,0,0,0,0,0,0,0,0,0,0,0,0,0,0,0,0,0,0,0,0,0,0,0,0,0,0,0,0,0,0,0,0,0,0,0,0,0,0,0,0,0,0,0,0,0,0,0,0,0,0,0,0,0,0,0,0,0,0,0,0,0,0,0,0,0,0,0,0,0,0,0,0,0,0,0,0,0,0,0,0,0,0,0,0,0,0,0,0,0,0,0,0,0,0,0,0,0,0,0,0,0,0,0,0,0
"Ind29","1_0_13",329,323,315,310,314,288,298,298,291,276,293,292,280,277,289,289,286,267,277,286,299,281,265,281,278,183,80,58,-1,0,0,0,0,0,0,0,0,0,0,0,0,0,0,0,0,0,0,0,0,0,0,0,0,0,0,0,0,0,0,0,0,0,0,0,0,0,0,0,0,0,0,0,0,0,0,0,0,0,0,0,0,0,0,0,0,0,0,0,0,0,0,0,0,0,0,0,0,0,0,0,0,0,0,0,0,0,0,0,0,0,0,0,0,0,0,0,0,0,0,0,0,0,0,0,0,0,0,0,0,0,0,0,0,0,0,0
"Ind30","1_0_14",329,329,328,324,328,288,299,299,292,269,294,294,288,287,285,291,286,262,268,282,300,288,264,282,279,190,87,66,49,-1,0,0,0,0,0,0,0,0,0,0,0,0,0,0,0,0,0,0,0,0,0,0,0,0,0,0,0,0,0,0,0,0,0,0,0,0,0,0,0,0,0,0,0,0,0,0,0,0,0,0,0,0,0,0,0,0,0,0,0,0,0,0,0,0,0,0,0,0,0,0,0,0,0,0,0,0,0,0,0,0,0,0,0,0,0,0,0,0,0,0,0,0,0,0,0,0,0,0,0,0,0,0,0,0,0,0
"Ind31","1_0_8",329,320,322,321,322,274,278,278,280,276,294,284,272,275,295,283,280,255,265,274,290,276,265,262,264,186,98,113,99,100,-1,0,0,0,0,0,0,0,0,0,0,0,0,0,0,0,0,0,0,0,0,0,0,0,0,0,0,0,0,0,0,0,0,0,0,0,0,0,0,0,0,0,0,0,0,0,0,0,0,0,0,0,0,0,0,0,0,0,0,0,0,0,0,0,0,0,0,0,0,0,0,0,0,0,0,0,0,0,0,0,0,0,0,0,0,0,0,0,0,0,0,0,0,0,0,0,0,0,0,0,0,0,0,0,0,0
"Ind32","1_0_6",325,315,327,318,328,283,289,289,274,277,269,280,271,272,268,260,259,263,282,262,283,274,276,285,280,190,141,147,146,148,145,-1,0,0,0,0,0,0,0,0,0,0,0,0,0,0,0,0,0,0,0,0,0,0,0,0,0,0,0,0,0,0,0,0,0,0,0,0,0,0,0,0,0,0,0,0,0,0,0,0,0,0,0,0,0,0,0,0,0,0,0,0,0,0,0,0,0,0,0,0,0,0,0,0,0,0,0,0,0,0,0,0,0,0,0,0,0,0,0,0,0,0,0,0,0,0,0,0,0,0,0,0,0,0,0,0
"Ind33","1_0_9",322,320,328,323,325,280,292,292,275,288,274,287,281,281,280,274,275,267,284,273,283,287,280,278,283,183,141,154,142,144,138,93,-1,0,0,0,0,0,0,0,0,0,0,0,0,0,0,0,0,0,0,0,0,0,0,0,0,0,0,0,0,0,0,0,0,0,0,0,0,0,0,0,0,0,0,0,0,0,0,0,0,0,0,0,0,0,0,0,0,0,0,0,0,0,0,0,0,0,0,0,0,0,0,0,0,0,0,0,0,0,0,0,0,0,0,0,0,0,0,0,0,0,0,0,0,0,0,0,0,0,0,0,0,0,0,0
"Ind34","1_0_10",326,322,331,323,328,279,286,286,281,281,293,299,286,283,291,296,298,269,276,266,303,285,276,288,280,193,156,157,142,144,154,164,167,-1,0,0,0,0,0,0,0,0,0,0,0,0,0,0,0,0,0,0,0,0,0,0,0,0,0,0,0,0,0,0,0,0,0,0,0,0,0,0,0,0,0,0,0,0,0,0,0,0,0,0,0,0,0,0,0,0,0,0,0,0,0,0,0,0,0,0,0,0,0,0,0,0,0,0,0,0,0,0,0,0,0,0,0,0,0,0,0,0,0,0,0,0,0,0,0,0,0,0,0,0,0,0
"Ind35","1_0_3",332,328,325,319,324,280,294,294,287,278,305,303,290,288,293,304,304,269,281,267,302,286,276,288,278,200,156,158,145,145,158,162,163,14,-1,0,0,0,0,0,0,0,0,0,0,0,0,0,0,0,0,0,0,0,0,0,0,0,0,0,0,0,0,0,0,0,0,0,0,0,0,0,0,0,0,0,0,0,0,0,0,0,0,0,0,0,0,0,0,0,0,0,0,0,0,0,0,0,0,0,0,0,0,0,0,0,0,0,0,0,0,0,0,0,0,0,0,0,0,0,0,0,0,0,0,0,0,0,0,0,0,0,0,0,0,0
"Ind36","2_0_5",334,320,321,317,326,304,281,281,288,292,279,297,286,289,288,288,282,280,275,274,285,277,278,277,278,277,268,273,277,275,272,281,277,284,291,-1,0,0,0,0,0,0,0,0,0,0,0,0,0,0,0,0,0,0,0,0,0,0,0,0,0,0,0,0,0,0,0,0,0,0,0,0,0,0,0,0,0,0,0,0,0,0,0,0,0,0,0,0,0,0,0,0,0,0,0,0,0,0,0,0,0,0,0,0,0,0,0,0,0,0,0,0,0,0,0,0,0,0,0,0,0,0,0,0,0,0,0,0,0,0,0,0,0,0,0,0
"Ind37","2_0_13",328,309,307,303,314,305,282,282,290,291,282,288,275,275,278,277,275,269,275,269,276,282,275,265,268,276,268,269,274,271,265,281,276,290,295,51,-1,0,0,0,0,0,0,0,0,0,0,0,0,0,0,0,0,0,0,0,0,0,0,0,0,0,0,0,0,0,0,0,0,0,0,0,0,0,0,0,0,0,0,0,0,0,0,0,0,0,0,0,0,0,0,0,0,0,0,0,0,0,0,0,0,0,0,0,0,0,0,0,0,0,0,0,0,0,0,0,0,0,0,0,0,0,0,0,0,0,0,0,0,0,0,0,0,0,0,0
"Ind38","2_0_14",316,310,307,301,308,285,281,281,280,294,275,276,269,273,272,269,269,270,269,263,272,281,279,271,278,259,265,280,277,271,259,275,266,292,293,114,109,-1,0,0,0,0,0,0,0,0,0,0,0,0,0,0,0,0,0,0,0,0,0,0,0,0,0,0,0,0,0,0,0,0,0,0,0,0,0,0,0,0,0,0,0,0,0,0,0,0,0,0,0,0,0,0,0,0,0,0,0,0,0,0,0,0,0,0,0,0,0,0,0,0,0,0,0,0,0,0,0,0,0,0,0,0,0,0,0,0,0,0,0,0,0,0,0,0,0,0
"Ind39","2_0_1",315,310,307,301,308,291,278,278,282,286,286,274,272,273,282,280,278,269,276,260,264,270,272,272,273,253,271,280,276,271,263,273,259,281,282,117,111,54,-1,0,0,0,0,0,0,0,0,0,0,0,0,0,0,0,0,0,0,0,0,0,0,0,0,0,0,0,0,0,0,0,0,0,0,0,0,0,0,0,0,0,0,0,0,0,0,0,0,0,0,0,0,0,0,0,0,0,0,0,0,0,0,0,0,0,0,0,0,0,0,0,0,0,0,0,0,0,0,0,0,0,0,0,0,0,0,0,0,0,0,0,0,0,0,0,0,0
"Ind40","2_0_8",310,302,314,321,320,285,298,298,283,285,281,280,266,271,271,266,268,272,271,257,268,278,265,264,274,281,262,256,261,267,258,276,278,270,269,173,175,167,184,-1,0,0,0,0,0,0,0,0,0,0,0,0,0,0,0,0,0,0,0,0,0,0,0,0,0,0,0,0,0,0,0,0,0,0,0,0,0,0,0,0,0,0,0,0,0,0,0,0,0,0,0,0,0,0,0,0,0,0,0,0,0,0,0,0,0,0,0,0,0,0,0,0,0,0,0,0,0,0,0,0,0,0,0,0,0,0,0,0,0,0,0,0,0,0,0,0
"Ind41","2_0_10",314,299,301,301,300,288,286,286,280,307,263,277,263,265,269,264,268,243,259,270,280,287,278,272,270,257,277,276,281,283,257,261,257,272,275,224,221,194,213,216,-1,0,0,0,0,0,0,0,0,0,0,0,0,0,0,0,0,0,0,0,0,0,0,0,0,0,0,0,0,0,0,0,0,0,0,0,0,0,0,0,0,0,0,0,0,0,0,0,0,0,0,0,0,0,0,0,0,0,0,0,0,0,0,0,0,0,0,0,0,0,0,0,0,0,0,0,0,0,0,0,0,0,0,0,0,0,0,0,0,0,0,0,0,0,0,0
"Ind42","2_0_4",314,323,311,307,312,297,281,281,278,283,275,273,274,277,283,286,283,261,275,255,283,279,266,257,262,261,268,266,269,277,250,263,268,260,257,248,236,241,252,253,230,-1,0,0,0,0,0,0,0,0,0,0,0,0,0,0,0,0,0,0,0,0,0,0,0,0,0,0,0,0,0,0,0,0,0,0,0,0,0,0,0,0,0,0,0,0,0,0,0,0,0,0,0,0,0,0,0,0,0,0,0,0,0,0,0,0,0,0,0,0,0,0,0,0,0,0,0,0,0,0,0,0,0,0,0,0,0,0,0,0,0,0,0,0,0,0
"Ind43","2_0_11",311,314,303,304,302,276,278,278,269,277,282,273,271,275,275,266,267,256,279,268,266,277,266,263,262,276,276,260,264,273,255,260,259,259,260,257,250,240,252,243,223,107,-1,0,0,0,0,0,0,0,0,0,0,0,0,0,0,0,0,0,0,0,0,0,0,0,0,0,0,0,0,0,0,0,0,0,0,0,0,0,0,0,0,0,0,0,0,0,0,0,0,0,0,0,0,0,0,0,0,0,0,0,0,0,0,0,0,0,0,0,0,0,0,0,0,0,0,0,0,0,0,0,0,0,0,0,0,0,0,0,0,0,0,0,0,0
"Ind44","2_0_6",319,321,310,312,307,281,282,282,282,290,268,288,290,285,293,284,284,276,270,267,283,284,275,282,270,278,286,268,273,281,281,278,288,284,290,259,260,260,275,261,265,206,207,-1,0,0,0,0,0,0,0,0,0,0,0,0,0,0,0,0,0,0,0,0,0,0,0,0,0,0,0,0,0,0,0,0,0,0,0,0,0,0,0,0,0,0,0,0,0,0,0,0,0,0,0,0,0,0,0,0,0,0,0,0,0,0,0,0,0,0,0,0,0,0,0,0,0,0,0,0,0,0,0,0,0,0,0,0,0,0,0,0,0,0,0,0
"Ind45","2_0_9",316,314,307,313,304,285,281,281,281,284,278,283,288,283,289,278,280,270,273,281,279,287,271,271,271,269,288,268,277,279,274,278,288,274,278,253,262,250,265,256,253,201,203,61,-1,0,0,0,0,0,0,0,0,0,0,0,0,0,0,0,0,0,0,0,0,0,0,0,0,0,0,0,0,0,0,0,0,0,0,0,0,0,0,0,0,0,0,0,0,0,0,0,0,0,0,0,0,0,0,0,0,0,0,0,0,0,0,0,0,0,0,0,0,0,0,0,0,0,0,0,0,0,0,0,0,0,0,0,0,0,0,0,0,0,0,0
"Ind46","7_0_4",371,363,354,352,352,358,362,362,361,357,361,372,367,367,361,365,368,366,362,357,358,353,357,361,364,358,355,359,353,358,350,355,356,362,363,359,353,352,353,355,362,370,369,350,363,-1,0,0,0,0,0,0,0,0,0,0,0,0,0,0,0,0,0,0,0,0,0,0,0,0,0,0,0,0,0,0,0,0,0,0,0,0,0,0,0,0,0,0,0,0,0,0,0,0,0,0,0,0,0,0,0,0,0,0,0,0,0,0,0,0,0,0,0,0,0,0,0,0,0,0,0,0,0,0,0,0,0,0,0,0,0,0,0,0,0,0
"Ind47","7_0_14",371,358,352,352,354,360,362,362,360,366,367,371,368,368,359,368,371,374,361,362,353,354,358,362,363,363,357,358,363,366,354,353,356,366,365,359,350,345,348,355,363,377,374,357,366,41,-1,0,0,0,0,0,0,0,0,0,0,0,0,0,0,0,0,0,0,0,0,0,0,0,0,0,0,0,0,0,0,0,0,0,0,0,0,0,0,0,0,0,0,0,0,0,0,0,0,0,0,0,0,0,0,0,0,0,0,0,0,0,0,0,0,0,0,0,0,0,0,0,0,0,0,0,0,0,0,0,0,0,0,0,0,0,0,0,0,0
"Ind48","7_0_11",374,381,370,376,370,364,386,386,378,373,368,378,377,378,370,373,378,374,373,371,368,363,367,361,359,389,383,381,385,384,383,373,382,376,373,386,382,382,379,362,383,382,380,376,377,339,337,-1,0,0,0,0,0,0,0,0,0,0,0,0,0,0,0,0,0,0,0,0,0,0,0,0,0,0,0,0,0,0,0,0,0,0,0,0,0,0,0,0,0,0,0,0,0,0,0,0,0,0,0,0,0,0,0,0,0,0,0,0,0,0,0,0,0,0,0,0,0,0,0,0,0,0,0,0,0,0,0,0,0,0,0,0,0,0,0,0
"Ind49","7_0_10",374,365,375,376,376,369,366,366,364,380,371,358,369,372,372,369,374,384,387,378,362,362,375,368,375,378,380,377,375,370,379,376,369,365,364,380,384,375,384,361,372,371,363,371,373,329,327,245,-1,0,0,0,0,0,0,0,0,0,0,0,0,0,0,0,0,0,0,0,0,0,0,0,0,0,0,0,0,0,0,0,0,0,0,0,0,0,0,0,0,0,0,0,0,0,0,0,0,0,0,0,0,0,0,0,0,0,0,0,0,0,0,0,0,0,0,0,0,0,0,0,0,0,0,0,0,0,0,0,0,0,0,0,0,0,0,0
"Ind50","7_0_2",380,375,375,377,380,374,383,383,378,376,367,369,372,370,362,376,378,386,389,385,367,372,363,368,369,385,374,380,373,369,373,369,371,383,378,386,381,376,376,366,375,358,361,369,383,334,327,235,144,-1,0,0,0,0,0,0,0,0,0,0,0,0,0,0,0,0,0,0,0,0,0,0,0,0,0,0,0,0,0,0,0,0,0,0,0,0,0,0,0,0,0,0,0,0,0,0,0,0,0,0,0,0,0,0,0,0,0,0,0,0,0,0,0,0,0,0,0,0,0,0,0,0,0,0,0,0,0,0,0,0,0,0,0,0,0,0
"Ind51","7_0_7",377,374,381,379,382,374,388,388,381,378,370,367,371,369,360,375,375,386,391,378,373,373,373,368,370,381,382,381,381,369,377,375,370,383,378,390,381,378,377,366,380,364,364,370,377,334,327,229,146,48,-1,0,0,0,0,0,0,0,0,0,0,0,0,0,0,0,0,0,0,0,0,0,0,0,0,0,0,0,0,0,0,0,0,0,0,0,0,0,0,0,0,0,0,0,0,0,0,0,0,0,0,0,0,0,0,0,0,0,0,0,0,0,0,0,0,0,0,0,0,0,0,0,0,0,0,0,0,0,0,0,0,0,0,0,0,0
"Ind52","7_0_3",383,384,376,372,373,374,365,365,374,360,361,364,370,371,374,366,365,378,377,370,368,371,346,357,354,374,368,374,369,374,377,364,380,376,375,362,363,365,363,368,392,372,372,371,373,344,351,252,218,220,215,-1,0,0,0,0,0,0,0,0,0,0,0,0,0,0,0,0,0,0,0,0,0,0,0,0,0,0,0,0,0,0,0,0,0,0,0,0,0,0,0,0,0,0,0,0,0,0,0,0,0,0,0,0,0,0,0,0,0,0,0,0,0,0,0,0,0,0,0,0,0,0,0,0,0,0,0,0,0,0,0,0,0,0,0,0
"Ind53","7_0_8",380,381,377,373,372,373,364,364,373,358,360,366,368,371,376,370,367,380,375,372,369,372,348,356,352,376,366,374,367,372,373,366,376,376,375,362,365,367,365,367,391,373,371,370,372,344,351,251,217,221,216,4,-1,0,0,0,0,0,0,0,0,0,0,0,0,0,0,0,0,0,0,0,0,0,0,0,0,0,0,0,0,0,0,0,0,0,0,0,0,0,0,0,0,0,0,0,0,0,0,0,0,0,0,0,0,0,0,0,0,0,0,0,0,0,0,0,0,0,0,0,0,0,0,0,0,0,0,0,0,0,0,0,0,0,0,0
"Ind54","7_0_6",384,377,374,366,378,372,370,370,362,363,374,384,378,379,376,375,376,363,378,388,364,373,367,372,365,375,386,377,375,381,384,371,366,390,389,366,366,380,373,373,373,380,365,367,373,339,343,255,224,189,193,199,200,-1,0,0,0,0,0,0,0,0,0,0,0,0,0,0,0,0,0,0,0,0,0,0,0,0,0,0,0,0,0,0,0,0,0,0,0,0,0,0,0,0,0,0,0,0,0,0,0,0,0,0,0,0,0,0,0,0,0,0,0,0,0,0,0,0,0,0,0,0,0,0,0,0,0,0,0,0,0,0,0,0,0,0
"Ind55","7_0_1",372,376,367,360,367,367,369,369,359,361,377,380,370,372,382,383,377,376,365,381,384,377,371,375,367,379,377,365,374,369,379,377,371,388,388,376,377,371,367,367,381,369,369,367,372,340,341,274,225,201,197,200,201,104,-1,0,0,0,0,0,0,0,0,0,0,0,0,0,0,0,0,0,0,0,0,0,0,0,0,0,0,0,0,0,0,0,0,0,0,0,0,0,0,0,0,0,0,0,0,0,0,0,0,0,0,0,0,0,0,0,0,0,0,0,0,0,0,0,0,0,0,0,0,0,0,0,0,0,0,0,0,0,0,0,0,0
"Ind56","7_0_5",377,376,365,361,365,357,358,358,364,366,366,365,366,368,366,369,365,375,381,381,377,374,352,358,353,368,363,366,364,365,364,372,373,368,369,357,359,353,355,349,354,361,355,375,373,333,338,279,217,207,209,207,205,220,216,-1,0,0,0,0,0,0,0,0,0,0,0,0,0,0,0,0,0,0,0,0,0,0,0,0,0,0,0,0,0,0,0,0,0,0,0,0,0,0,0,0,0,0,0,0,0,0,0,0,0,0,0,0,0,0,0,0,0,0,0,0,0,0,0,0,0,0,0,0,0,0,0,0,0,0,0,0,0,0,0,0
"Ind57","7_0_13",365,369,372,363,369,383,364,364,363,372,358,366,365,366,367,359,359,377,390,382,372,376,361,359,374,362,361,366,363,371,377,372,378,369,372,361,362,358,358,369,370,371,376,386,371,337,343,295,219,216,217,213,215,210,216,109,-1,0,0,0,0,0,0,0,0,0,0,0,0,0,0,0,0,0,0,0,0,0,0,0,0,0,0,0,0,0,0,0,0,0,0,0,0,0,0,0,0,0,0,0,0,0,0,0,0,0,0,0,0,0,0,0,0,0,0,0,0,0,0,0,0,0,0,0,0,0,0,0,0,0,0,0,0,0,0,0
"Ind58","7_0_9",360,364,361,366,359,357,350,350,351,368,363,368,378,377,365,368,371,366,385,381,366,371,357,361,359,366,377,370,369,368,376,377,368,374,373,359,355,358,362,363,363,360,360,357,357,334,328,265,191,194,193,212,212,209,213,135,126,-1,0,0,0,0,0,0,0,0,0,0,0,0,0,0,0,0,0,0,0,0,0,0,0,0,0,0,0,0,0,0,0,0,0,0,0,0,0,0,0,0,0,0,0,0,0,0,0,0,0,0,0,0,0,0,0,0,0,0,0,0,0,0,0,0,0,0,0,0,0,0,0,0,0,0,0,0,0,0
"Ind59","7_0_12",365,365,359,362,361,365,353,353,352,359,370,372,376,378,368,373,375,366,383,388,366,375,358,368,366,374,378,374,374,370,375,364,375,380,379,350,358,357,358,364,368,366,366,384,370,346,344,268,213,200,200,211,211,192,211,138,127,90,-1,0,0,0,0,0,0,0,0,0,0,0,0,0,0,0,0,0,0,0,0,0,0,0,0,0,0,0,0,0,0,0,0,0,0,0,0,0,0,0,0,0,0,0,0,0,0,0,0,0,0,0,0,0,0,0,0,0,0,0,0,0,0,0,0,0,0,0,0,0,0,0,0,0,0,0,0,0
"Ind60","7_0_0",363,365,358,361,358,362,359,359,357,361,366,372,376,376,366,369,373,364,383,387,368,377,359,365,366,369,375,377,375,370,375,366,367,382,383,351,356,357,364,365,366,366,370,373,366,345,343,261,206,203,203,213,213,196,214,140,126,78,29,-1,0,0,0,0,0,0,0,0,0,0,0,0,0,0,0,0,0,0,0,0,0,0,0,0,0,0,0,0,0,0,0,0,0,0,0,0,0,0,0,0,0,0,0,0,0,0,0,0,0,0,0,0,0,0,0,0,0,0,0,0,0,0,0,0,0,0,0,0,0,0,0,0,0,0,0,0
"Ind61","8_0_10",371,376,354,357,359,368,357,357,348,365,349,362,363,364,345,356,355,370,338,371,360,369,374,379,369,370,360,375,366,361,362,370,363,352,358,358,356,364,369,374,360,361,362,378,376,368,367,366,366,365,366,374,374,358,359,366,369,373,369,368,-1,0,0,0,0,0,0,0,0,0,0,0,0,0,0,0,0,0,0,0,0,0,0,0,0,0,0,0,0,0,0,0,0,0,0,0,0,0,0,0,0,0,0,0,0,0,0,0,0,0,0,0,0,0,0,0,0,0,0,0,0,0,0,0,0,0,0,0,0,0,0,0,0,0,0,0
"Ind62","8_0_11",369,369,375,373,375,368,368,368,362,358,354,347,360,363,355,355,357,356,335,364,361,370,368,369,361,361,355,358,356,360,366,357,357,361,359,362,367,371,375,362,338,356,358,368,366,377,376,363,361,371,368,362,359,344,350,377,366,372,363,370,198,-1,0,0,0,0,0,0,0,0,0,0,0,0,0,0,0,0,0,0,0,0,0,0,0,0,0,0,0,0,0,0,0,0,0,0,0,0,0,0,0,0,0,0,0,0,0,0,0,0,0,0,0,0,0,0,0,0,0,0,0,0,0,0,0,0,0,0,0,0,0,0,0,0,0,0
"Ind63","8_0_12",374,367,377,374,379,358,371,371,365,356,358,355,349,347,363,345,348,360,362,355,353,372,369,370,359,361,370,377,380,379,373,355,357,360,365,368,365,365,368,380,353,365,369,389,389,390,379,362,360,373,370,369,369,353,361,362,362,374,369,365,218,215,-1,0,0,0,0,0,0,0,0,0,0,0,0,0,0,0,0,0,0,0,0,0,0,0,0,0,0,0,0,0,0,0,0,0,0,0,0,0,0,0,0,0,0,0,0,0,0,0,0,0,0,0,0,0,0,0,0,0,0,0,0,0,0,0,0,0,0,0,0,0,0,0,0,0
"Ind64","8_0_9",371,368,379,376,381,354,373,373,369,358,359,355,349,347,363,349,352,358,364,351,357,371,371,372,360,360,370,373,376,377,371,356,358,357,362,369,364,366,369,379,353,361,367,391,393,387,380,364,357,374,371,369,369,355,363,363,365,373,366,362,218,215,11,-1,0,0,0,0,0,0,0,0,0,0,0,0,0,0,0,0,0,0,0,0,0,0,0,0,0,0,0,0,0,0,0,0,0,0,0,0,0,0,0,0,0,0,0,0,0,0,0,0,0,0,0,0,0,0,0,0,0,0,0,0,0,0,0,0,0,0,0,0,0,0,0,0
"Ind65","8_0_7",368,374,373,368,370,360,365,365,357,357,359,349,352,348,354,346,345,366,360,355,360,373,363,366,353,359,378,379,381,378,376,351,350,365,366,373,369,368,368,376,359,365,371,384,386,385,382,363,361,365,365,373,371,359,360,360,364,367,366,362,202,213,68,73,-1,0,0,0,0,0,0,0,0,0,0,0,0,0,0,0,0,0,0,0,0,0,0,0,0,0,0,0,0,0,0,0,0,0,0,0,0,0,0,0,0,0,0,0,0,0,0,0,0,0,0,0,0,0,0,0,0,0,0,0,0,0,0,0,0,0,0,0,0,0,0,0
"Ind66","8_0_4",364,361,375,371,376,353,369,369,367,356,362,366,364,362,364,355,356,355,360,363,362,373,373,372,363,356,378,379,384,373,371,352,360,357,361,373,368,371,367,378,368,362,360,373,378,376,375,364,365,363,345,363,365,346,357,360,358,369,359,357,215,218,98,100,96,-1,0,0,0,0,0,0,0,0,0,0,0,0,0,0,0,0,0,0,0,0,0,0,0,0,0,0,0,0,0,0,0,0,0,0,0,0,0,0,0,0,0,0,0,0,0,0,0,0,0,0,0,0,0,0,0,0,0,0,0,0,0,0,0,0,0,0,0,0,0,0
"Ind67","8_0_6",367,362,372,368,375,358,367,367,365,356,359,366,365,363,367,355,356,356,359,360,356,368,372,372,365,356,379,382,385,373,368,349,362,356,360,372,365,366,364,378,369,360,363,376,381,377,370,365,367,363,347,359,361,345,354,360,360,369,361,358,207,227,97,101,95,15,-1,0,0,0,0,0,0,0,0,0,0,0,0,0,0,0,0,0,0,0,0,0,0,0,0,0,0,0,0,0,0,0,0,0,0,0,0,0,0,0,0,0,0,0,0,0,0,0,0,0,0,0,0,0,0,0,0,0,0,0,0,0,0,0,0,0,0,0,0,0
"Ind68","8_0_14",369,362,364,368,369,361,364,364,359,345,368,361,365,363,359,356,355,350,366,360,355,376,371,376,364,360,382,380,384,380,370,356,364,363,365,379,377,366,366,370,356,364,368,378,375,368,365,367,364,361,361,370,370,357,360,360,358,363,363,369,218,218,94,98,85,69,69,-1,0,0,0,0,0,0,0,0,0,0,0,0,0,0,0,0,0,0,0,0,0,0,0,0,0,0,0,0,0,0,0,0,0,0,0,0,0,0,0,0,0,0,0,0,0,0,0,0,0,0,0,0,0,0,0,0,0,0,0,0,0,0,0,0,0,0,0,0
"Ind69","4_0_5",372,372,353,351,353,360,369,369,362,352,366,364,366,367,358,366,363,379,375,368,376,366,358,377,362,357,359,351,346,360,352,348,355,355,358,360,354,364,361,376,364,358,367,366,370,357,362,369,362,366,373,353,353,358,364,352,360,361,359,356,305,315,320,317,322,319,321,327,-1,0,0,0,0,0,0,0,0,0,0,0,0,0,0,0,0,0,0,0,0,0,0,0,0,0,0,0,0,0,0,0,0,0,0,0,0,0,0,0,0,0,0,0,0,0,0,0,0,0,0,0,0,0,0,0,0,0,0,0,0,0,0,0,0,0,0,0
"Ind70","4_0_14",374,378,375,374,372,373,360,360,354,373,353,360,357,365,373,370,370,374,361,370,364,371,362,349,361,367,352,363,354,362,348,370,357,363,367,361,368,367,356,370,352,361,375,370,370,356,359,364,376,386,381,366,364,372,362,373,365,375,378,381,334,337,352,353,348,349,349,347,294,-1,0,0,0,0,0,0,0,0,0,0,0,0,0,0,0,0,0,0,0,0,0,0,0,0,0,0,0,0,0,0,0,0,0,0,0,0,0,0,0,0,0,0,0,0,0,0,0,0,0,0,0,0,0,0,0,0,0,0,0,0,0,0,0,0,0,0
"Ind71","4_0_8",371,359,361,359,359,360,368,368,368,371,346,370,361,363,376,370,370,379,371,381,372,364,368,371,373,382,352,371,364,366,367,366,363,360,364,377,382,379,380,376,374,373,364,365,367,355,364,368,364,370,368,355,357,359,364,382,362,361,367,368,323,332,339,337,342,330,333,338,296,234,-1,0,0,0,0,0,0,0,0,0,0,0,0,0,0,0,0,0,0,0,0,0,0,0,0,0,0,0,0,0,0,0,0,0,0,0,0,0,0,0,0,0,0,0,0,0,0,0,0,0,0,0,0,0,0,0,0,0,0,0,0,0,0,0,0,0
"Ind72","4_0_11",363,358,360,359,360,363,377,377,369,384,365,375,378,378,373,382,379,365,363,362,374,361,388,380,382,368,371,359,365,368,364,362,359,363,364,380,373,382,376,381,373,358,365,369,368,359,358,357,368,376,362,371,371,368,373,383,381,365,366,367,341,324,336,333,341,339,340,339,274,246,194,-1,0,0,0,0,0,0,0,0,0,0,0,0,0,0,0,0,0,0,0,0,0,0,0,0,0,0,0,0,0,0,0,0,0,0,0,0,0,0,0,0,0,0,0,0,0,0,0,0,0,0,0,0,0,0,0,0,0,0,0,0,0,0,0,0
"Ind73","4_0_4",369,380,375,377,384,350,357,357,364,361,358,350,354,354,363,360,361,371,370,373,369,371,345,353,346,362,371,373,372,371,374,364,359,366,366,362,363,368,370,384,358,351,346,373,365,352,355,367,360,368,366,360,358,348,359,376,379,382,379,377,335,336,339,337,340,336,341,342,305,243,235,234,-1,0,0,0,0,0,0,0,0,0,0,0,0,0,0,0,0,0,0,0,0,0,0,0,0,0,0,0,0,0,0,0,0,0,0,0,0,0,0,0,0,0,0,0,0,0,0,0,0,0,0,0,0,0,0,0,0,0,0,0,0,0,0,0
"Ind74","4_0_3",372,371,380,374,387,363,365,365,367,358,370,364,360,360,363,357,356,364,368,374,358,373,340,344,338,368,369,367,376,373,365,352,353,381,380,364,362,370,364,377,363,364,370,363,366,351,357,365,369,366,361,363,365,345,340,370,371,384,379,375,343,339,332,336,343,333,336,343,301,239,236,231,116,-1,0,0,0,0,0,0,0,0,0,0,0,0,0,0,0,0,0,0,0,0,0,0,0,0,0,0,0,0,0,0,0,0,0,0,0,0,0,0,0,0,0,0,0,0,0,0,0,0,0,0,0,0,0,0,0,0,0,0,0,0,0,0
"Ind75","4_0_9",373,377,376,374,379,353,351,351,364,359,374,359,365,363,363,365,360,363,368,370,357,368,345,357,340,367,373,370,378,376,368,360,362,371,369,368,371,363,359,379,366,367,364,370,369,355,353,357,364,371,359,364,364,344,344,375,374,382,372,368,344,329,337,343,347,337,338,348,303,246,244,241,112,81,-1,0,0,0,0,0,0,0,0,0,0,0,0,0,0,0,0,0,0,0,0,0,0,0,0,0,0,0,0,0,0,0,0,0,0,0,0,0,0,0,0,0,0,0,0,0,0,0,0,0,0,0,0,0,0,0,0,0,0,0,0,0
"Ind76","4_0_12",371,373,380,378,381,355,351,351,362,357,370,371,371,365,367,367,362,357,364,363,366,367,337,358,339,354,374,368,371,373,375,360,358,369,367,362,366,368,361,378,367,361,365,366,365,352,357,359,371,374,364,361,363,342,347,372,373,381,377,371,345,325,339,345,339,333,340,347,301,242,251,241,107,76,30,-1,0,0,0,0,0,0,0,0,0,0,0,0,0,0,0,0,0,0,0,0,0,0,0,0,0,0,0,0,0,0,0,0,0,0,0,0,0,0,0,0,0,0,0,0,0,0,0,0,0,0,0,0,0,0,0,0,0,0,0,0
"Ind77","4_0_13",363,369,380,374,375,350,357,357,366,361,365,364,369,367,369,367,362,361,367,365,358,370,344,354,338,362,373,369,372,375,365,368,361,374,374,362,369,372,368,371,370,369,363,362,361,363,365,355,366,370,360,359,355,341,349,370,377,383,377,369,345,332,337,341,344,339,342,350,306,236,238,237,107,71,36,38,-1,0,0,0,0,0,0,0,0,0,0,0,0,0,0,0,0,0,0,0,0,0,0,0,0,0,0,0,0,0,0,0,0,0,0,0,0,0,0,0,0,0,0,0,0,0,0,0,0,0,0,0,0,0,0,0,0,0,0,0
"Ind78","4_0_2",373,381,371,370,378,345,360,360,360,354,362,364,369,364,372,362,363,376,372,358,351,354,347,361,355,368,363,363,365,361,354,365,358,351,347,364,367,370,369,356,363,353,361,367,364,361,355,361,352,351,347,371,370,353,358,374,374,372,372,366,339,341,357,355,350,336,337,339,307,236,243,232,149,136,140,135,134,-1,0,0,0,0,0,0,0,0,0,0,0,0,0,0,0,0,0,0,0,0,0,0,0,0,0,0,0,0,0,0,0,0,0,0,0,0,0,0,0,0,0,0,0,0,0,0,0,0,0,0,0,0,0,0,0,0,0,0
"Ind79","4_0_7",386,377,367,368,370,357,362,362,377,375,378,356,359,355,369,367,366,369,354,366,360,364,364,356,361,369,369,375,369,374,364,367,363,357,359,374,371,374,368,376,365,357,365,363,368,362,367,360,367,364,358,368,366,349,358,369,371,384,381,377,331,336,344,343,341,338,339,335,308,239,242,228,153,166,155,151,159,149,-1,0,0,0,0,0,0,0,0,0,0,0,0,0,0,0,0,0,0,0,0,0,0,0,0,0,0,0,0,0,0,0,0,0,0,0,0,0,0,0,0,0,0,0,0,0,0,0,0,0,0,0,0,0,0,0,0,0
"Ind80","4_0_6",374,379,369,366,372,351,361,361,366,372,374,368,372,366,371,372,369,364,350,360,365,368,353,363,363,363,361,366,361,368,366,366,360,360,362,376,378,380,368,380,374,364,366,365,377,355,364,361,364,372,366,356,356,343,350,371,370,371,374,375,331,340,351,354,347,338,342,335,297,244,251,235,163,167,157,150,159,157,58,-1,0,0,0,0,0,0,0,0,0,0,0,0,0,0,0,0,0,0,0,0,0,0,0,0,0,0,0,0,0,0,0,0,0,0,0,0,0,0,0,0,0,0,0,0,0,0,0,0,0,0,0,0,0,0,0,0
"Ind81","4_0_0",374,364,365,363,363,349,355,355,353,355,370,368,368,370,373,367,368,362,355,371,372,370,370,376,363,364,352,351,348,354,353,359,355,356,354,368,372,384,378,379,369,358,362,357,353,343,347,365,363,372,375,372,374,355,360,367,371,365,376,375,335,348,344,347,351,337,341,335,296,256,230,255,214,201,206,205,197,219,212,206,-1,0,0,0,0,0,0,0,0,0,0,0,0,0,0,0,0,0,0,0,0,0,0,0,0,0,0,0,0,0,0,0,0,0,0,0,0,0,0,0,0,0,0,0,0,0,0,0,0,0,0,0,0,0,0,0
"Ind82","4_0_1",376,377,380,369,375,363,353,353,357,357,359,367,371,372,367,364,363,357,357,356,377,367,357,358,352,369,370,368,369,373,369,356,360,376,375,361,364,368,372,373,365,346,361,359,358,343,353,367,376,377,378,363,361,364,370,371,376,380,382,380,349,333,353,356,337,340,340,335,301,230,232,231,200,198,209,202,208,204,194,200,190,-1,0,0,0,0,0,0,0,0,0,0,0,0,0,0,0,0,0,0,0,0,0,0,0,0,0,0,0,0,0,0,0,0,0,0,0,0,0,0,0,0,0,0,0,0,0,0,0,0,0,0,0,0,0,0
"Ind83","4_0_10",376,377,381,385,385,363,361,361,354,362,360,357,360,363,371,362,361,370,365,368,363,361,362,372,356,375,365,375,359,370,369,361,361,371,368,373,369,370,370,376,374,351,355,376,376,355,356,364,363,364,370,362,362,377,371,378,376,379,385,385,347,337,346,347,342,342,342,341,300,247,235,234,198,207,219,214,217,206,196,200,186,126,-1,0,0,0,0,0,0,0,0,0,0,0,0,0,0,0,0,0,0,0,0,0,0,0,0,0,0,0,0,0,0,0,0,0,0,0,0,0,0,0,0,0,0,0,0,0,0,0,0,0,0,0,0,0
"Ind84","8_0_3",374,366,378,381,376,356,367,367,371,361,370,378,377,383,370,374,376,383,372,378,367,371,359,377,363,364,362,362,363,357,367,376,356,360,363,365,360,352,360,366,371,366,373,385,374,360,354,367,370,376,374,385,387,369,361,363,369,360,369,370,317,315,326,329,328,314,315,321,263,313,306,300,303,308,317,309,304,308,309,307,294,312,304,-1,0,0,0,0,0,0,0,0,0,0,0,0,0,0,0,0,0,0,0,0,0,0,0,0,0,0,0,0,0,0,0,0,0,0,0,0,0,0,0,0,0,0,0,0,0,0,0,0,0,0,0,0
"Ind85","8_0_5",374,368,385,390,383,364,368,368,377,365,368,376,366,374,366,371,374,381,374,382,356,368,359,372,367,363,367,366,368,366,365,375,358,366,369,374,366,357,365,370,372,365,376,383,376,355,353,366,366,374,378,390,392,363,364,371,373,370,374,374,324,326,327,328,339,321,320,325,261,312,302,303,305,302,312,310,304,312,306,300,297,312,303,41,-1,0,0,0,0,0,0,0,0,0,0,0,0,0,0,0,0,0,0,0,0,0,0,0,0,0,0,0,0,0,0,0,0,0,0,0,0,0,0,0,0,0,0,0,0,0,0,0,0,0,0,0
"Ind86","8_0_13",377,369,377,386,382,356,366,366,365,354,373,369,368,370,368,366,368,380,367,373,368,368,376,374,367,363,367,369,369,368,373,368,357,377,375,373,369,368,370,375,381,367,379,377,382,350,347,367,378,377,372,388,390,357,366,366,374,375,379,375,326,321,324,326,323,312,315,314,273,311,309,314,303,314,317,313,314,319,308,307,311,319,305,116,123,-1,0,0,0,0,0,0,0,0,0,0,0,0,0,0,0,0,0,0,0,0,0,0,0,0,0,0,0,0,0,0,0,0,0,0,0,0,0,0,0,0,0,0,0,0,0,0,0,0,0,0
"Ind87","8_0_8",379,367,372,376,373,346,364,364,368,356,374,366,368,366,374,370,371,385,375,373,362,366,376,375,369,367,367,364,365,364,376,359,356,367,363,370,370,369,373,363,385,368,378,373,370,361,360,368,379,381,385,382,380,362,365,357,368,374,383,382,335,323,325,327,326,314,321,318,268,312,306,313,301,303,319,310,307,308,293,293,307,310,297,125,138,74,-1,0,0,0,0,0,0,0,0,0,0,0,0,0,0,0,0,0,0,0,0,0,0,0,0,0,0,0,0,0,0,0,0,0,0,0,0,0,0,0,0,0,0,0,0,0,0,0,0,0
"Ind88","8_0_0",374,375,388,387,392,348,371,371,375,360,391,383,382,386,363,376,375,382,362,374,367,373,366,372,373,372,363,348,356,356,350,359,368,362,360,362,359,356,362,354,376,371,378,364,361,353,343,367,381,372,374,373,373,368,372,372,376,385,377,374,328,325,328,330,333,317,322,318,276,324,314,302,318,308,307,312,307,300,308,305,308,303,299,157,152,152,164,-1,0,0,0,0,0,0,0,0,0,0,0,0,0,0,0,0,0,0,0,0,0,0,0,0,0,0,0,0,0,0,0,0,0,0,0,0,0,0,0,0,0,0,0,0,0,0,0,0
"Ind89","8_0_1",371,369,367,372,376,362,372,372,372,369,377,370,375,379,377,372,373,385,375,391,365,369,376,383,375,368,365,356,363,353,364,355,352,374,371,364,366,363,368,359,383,368,372,383,369,363,355,366,360,365,370,378,376,362,363,366,367,368,366,364,333,336,321,325,333,326,330,324,299,320,306,302,294,293,308,304,301,314,312,319,304,304,317,173,176,182,177,187,-1,0,0,0,0,0,0,0,0,0,0,0,0,0,0,0,0,0,0,0,0,0,0,0,0,0,0,0,0,0,0,0,0,0,0,0,0,0,0,0,0,0,0,0,0,0,0,0
"Ind90","8_0_2",366,375,376,375,370,356,382,382,377,371,381,373,373,370,376,369,371,385,372,376,378,369,381,384,383,373,378,373,368,370,370,359,374,367,372,363,365,377,371,368,392,385,375,375,380,363,370,367,380,368,365,359,360,351,356,366,366,373,377,375,331,330,318,322,325,317,318,325,274,330,294,302,311,305,315,309,307,307,305,294,310,311,309,183,194,187,193,184,195,-1,0,0,0,0,0,0,0,0,0,0,0,0,0,0,0,0,0,0,0,0,0,0,0,0,0,0,0,0,0,0,0,0,0,0,0,0,0,0,0,0,0,0,0,0,0,0
"Ind91","9_0_6",370,366,373,368,373,370,362,362,366,379,370,371,373,375,374,370,369,374,377,377,358,362,379,367,383,366,368,376,374,369,361,361,367,378,380,369,366,375,375,380,380,362,361,362,368,363,364,359,373,369,365,369,368,360,357,366,383,380,381,377,377,368,373,375,374,372,372,382,367,363,354,348,364,360,373,372,375,367,359,370,371,347,365,359,363,357,364,362,353,356,-1,0,0,0,0,0,0,0,0,0,0,0,0,0,0,0,0,0,0,0,0,0,0,0,0,0,0,0,0,0,0,0,0,0,0,0,0,0,0,0,0,0,0,0,0,0
"Ind92","9_0_4",377,369,379,370,375,372,358,358,362,378,371,374,371,371,372,373,372,369,377,376,355,361,372,364,374,366,363,370,366,363,360,363,369,372,374,366,367,381,378,388,382,364,367,366,371,364,367,359,377,369,367,369,368,360,359,371,383,375,376,374,376,364,373,375,373,372,372,383,368,355,352,359,367,361,370,369,374,366,360,367,363,350,366,363,367,357,360,367,358,346,26,-1,0,0,0,0,0,0,0,0,0,0,0,0,0,0,0,0,0,0,0,0,0,0,0,0,0,0,0,0,0,0,0,0,0,0,0,0,0,0,0,0,0,0,0,0
"Ind93","9_0_2",378,354,377,366,375,374,363,363,369,385,374,378,372,374,366,371,372,379,375,373,360,370,364,355,371,371,371,371,370,368,358,355,364,377,377,361,357,379,376,367,385,362,369,381,384,367,365,365,372,369,365,374,373,363,372,378,390,377,374,381,365,377,370,372,366,371,368,378,366,354,356,349,361,367,379,379,375,359,355,367,374,365,371,360,361,354,359,366,354,352,96,99,-1,0,0,0,0,0,0,0,0,0,0,0,0,0,0,0,0,0,0,0,0,0,0,0,0,0,0,0,0,0,0,0,0,0,0,0,0,0,0,0,0,0,0,0
"Ind94","9_0_0",356,362,365,374,372,371,367,367,373,368,362,369,356,356,355,353,355,379,362,373,361,358,372,366,370,378,372,371,377,374,382,368,373,370,368,364,375,376,380,362,364,368,364,368,365,365,367,348,363,375,369,366,365,370,369,371,367,367,369,369,360,346,371,365,368,367,367,372,377,347,348,344,361,371,373,372,366,358,354,359,382,363,363,363,363,349,354,362,362,354,207,195,202,-1,0,0,0,0,0,0,0,0,0,0,0,0,0,0,0,0,0,0,0,0,0,0,0,0,0,0,0,0,0,0,0,0,0,0,0,0,0,0,0,0,0,0
"Ind95","9_0_1",355,346,357,362,358,368,375,375,370,376,372,373,373,373,381,378,377,371,367,369,372,366,368,372,368,364,394,380,376,377,373,370,371,373,377,377,376,381,384,366,367,376,372,371,370,371,373,361,368,369,370,383,382,382,380,380,378,376,371,369,356,363,364,364,363,363,361,362,357,354,370,351,367,374,374,373,370,358,360,369,384,368,362,358,353,351,352,343,357,357,229,228,214,187,-1,0,0,0,0,0,0,0,0,0,0,0,0,0,0,0,0,0,0,0,0,0,0,0,0,0,0,0,0,0,0,0,0,0,0,0,0,0,0,0,0,0
"Ind96","9_0_11",351,346,361,358,356,366,364,364,365,364,382,368,381,377,369,368,368,368,374,368,359,355,362,356,363,363,370,364,363,363,368,368,381,376,374,369,370,373,377,364,369,367,366,369,366,358,361,369,371,379,380,385,384,383,385,366,375,369,373,374,356,367,359,365,356,364,359,357,361,350,361,348,360,364,362,360,361,349,364,369,373,363,367,357,360,362,354,361,358,365,221,220,204,181,113,-1,0,0,0,0,0,0,0,0,0,0,0,0,0,0,0,0,0,0,0,0,0,0,0,0,0,0,0,0,0,0,0,0,0,0,0,0,0,0,0,0
"Ind97","9_0_8",359,353,354,353,355,366,384,384,369,368,368,365,369,367,364,363,364,355,367,374,365,371,368,367,370,350,373,369,369,377,374,354,362,358,361,374,367,368,366,363,367,369,360,362,355,363,351,358,372,390,388,394,395,372,392,383,380,374,378,374,363,366,364,361,374,363,364,367,356,360,348,347,357,362,369,371,369,346,356,361,367,367,352,371,368,356,366,340,367,355,237,231,224,181,193,200,-1,0,0,0,0,0,0,0,0,0,0,0,0,0,0,0,0,0,0,0,0,0,0,0,0,0,0,0,0,0,0,0,0,0,0,0,0,0,0,0
"Ind98","9_0_9",370,350,354,352,355,360,374,374,371,361,373,367,377,375,360,362,359,366,371,371,365,357,357,364,356,365,371,367,365,366,365,356,365,369,369,368,374,376,371,358,368,370,364,375,369,354,361,364,375,375,369,374,375,370,364,376,381,385,371,374,356,354,355,355,363,360,363,360,348,351,357,355,355,350,357,357,357,354,354,348,379,361,360,360,360,362,354,347,352,345,234,225,223,173,185,185,168,-1,0,0,0,0,0,0,0,0,0,0,0,0,0,0,0,0,0,0,0,0,0,0,0,0,0,0,0,0,0,0,0,0,0,0,0,0,0,0
"Ind99","9_0_7",359,346,353,361,354,357,366,366,371,376,360,371,360,359,381,374,373,366,364,374,368,356,369,363,367,370,368,374,373,372,365,381,380,376,378,381,376,380,377,362,367,376,381,363,364,357,354,358,366,370,373,375,374,368,364,373,368,373,376,370,373,352,367,374,364,357,364,365,367,371,376,372,371,367,363,361,363,367,354,357,379,375,359,367,366,358,359,361,366,374,237,234,232,183,192,191,207,190,-1,0,0,0,0,0,0,0,0,0,0,0,0,0,0,0,0,0,0,0,0,0,0,0,0,0,0,0,0,0,0,0,0,0,0,0,0,0
"Ind100","9_0_3",360,362,341,344,345,368,352,352,348,361,365,365,366,369,371,368,372,362,366,367,363,355,349,362,354,373,370,369,367,370,357,363,370,371,367,363,357,353,355,354,360,356,355,364,371,361,359,374,350,361,370,367,366,357,357,358,366,365,369,368,358,361,370,376,368,368,363,363,356,356,358,346,355,355,348,355,352,359,355,359,360,362,362,350,343,363,361,365,349,354,326,324,336,342,324,313,333,329,327,-1,0,0,0,0,0,0,0,0,0,0,0,0,0,0,0,0,0,0,0,0,0,0,0,0,0,0,0,0,0,0,0,0,0,0,0,0
"Ind101","9_0_10",361,358,350,347,354,362,350,350,352,349,362,354,363,365,357,359,357,346,375,358,362,359,341,349,339,377,372,367,370,371,362,363,373,376,374,355,344,353,350,352,355,354,351,361,359,356,367,373,372,370,363,370,371,351,358,368,360,375,372,375,363,348,348,352,359,351,353,352,360,370,349,354,351,346,347,351,353,355,356,357,355,349,357,349,356,362,355,376,356,341,319,322,330,348,340,322,338,305,330,144,-1,0,0,0,0,0,0,0,0,0,0,0,0,0,0,0,0,0,0,0,0,0,0,0,0,0,0,0,0,0,0,0,0,0,0,0
"Ind102","9_0_12",367,361,364,362,358,373,348,348,352,360,363,365,368,365,358,358,358,355,370,345,367,365,342,347,352,376,373,378,371,376,371,369,365,379,379,357,355,361,358,359,363,348,348,355,364,371,364,362,364,364,366,356,359,359,357,357,353,361,366,363,359,352,353,357,359,350,353,350,354,334,349,370,348,342,348,338,344,348,349,352,357,347,345,349,350,354,350,361,340,348,338,332,329,320,327,324,343,322,321,186,157,-1,0,0,0,0,0,0,0,0,0,0,0,0,0,0,0,0,0,0,0,0,0,0,0,0,0,0,0,0,0,0,0,0,0,0
"Ind103","9_0_13",361,360,357,353,357,360,348,348,340,357,367,369,362,361,363,365,365,350,367,363,358,369,343,355,354,369,373,374,373,375,370,374,376,385,383,358,356,358,359,352,362,359,346,354,360,369,366,362,363,365,365,360,361,356,353,364,360,352,361,360,362,354,364,366,363,357,362,358,350,347,353,372,354,352,356,348,351,361,360,360,363,350,347,348,350,348,349,363,345,350,329,324,323,326,321,323,334,328,322,184,159,84,-1,0,0,0,0,0,0,0,0,0,0,0,0,0,0,0,0,0,0,0,0,0,0,0,0,0,0,0,0,0,0,0,0,0
"Ind104","9_0_14",370,364,367,363,371,367,351,351,348,360,362,376,371,372,363,365,363,355,362,343,372,373,349,361,355,368,375,371,371,368,370,370,360,373,373,346,342,348,349,346,360,347,355,353,360,365,371,371,362,364,364,351,352,344,351,357,353,355,369,370,365,349,358,362,364,353,360,361,351,343,351,366,358,352,357,348,352,361,363,370,361,356,350,345,350,351,349,357,341,336,333,327,330,317,328,324,346,322,323,187,150,85,103,-1,0,0,0,0,0,0,0,0,0,0,0,0,0,0,0,0,0,0,0,0,0,0,0,0,0,0,0,0,0,0,0,0
"Ind105","9_0_5",360,359,356,358,358,353,345,345,342,360,363,365,373,377,357,360,362,360,360,352,378,363,358,363,356,379,374,366,371,362,374,366,365,376,377,354,354,352,351,359,366,364,364,359,365,356,360,360,356,373,369,365,364,358,354,355,364,348,358,360,358,370,359,361,370,363,358,353,361,336,351,344,346,359,343,352,346,355,357,353,356,346,348,356,353,363,363,368,366,357,322,327,321,326,331,320,335,323,332,127,134,165,170,164,-1,0,0,0,0,0,0,0,0,0,0,0,0,0,0,0,0,0,0,0,0,0,0,0,0,0,0,0,0,0,0,0
"Ind106","5_0_3",365,365,359,358,357,350,362,362,365,359,367,377,379,373,383,372,376,353,371,357,356,361,354,351,356,356,366,353,359,366,368,358,357,360,359,370,361,363,361,367,361,357,362,376,369,370,371,370,364,362,356,360,363,348,353,363,360,350,344,349,370,381,359,356,357,359,363,358,374,365,365,360,356,359,372,365,366,360,362,367,366,369,341,363,366,373,364,375,376,372,359,355,361,359,355,352,365,357,370,347,350,343,348,351,349,-1,0,0,0,0,0,0,0,0,0,0,0,0,0,0,0,0,0,0,0,0,0,0,0,0,0,0,0,0,0,0
"Ind107","5_0_6",373,360,370,368,369,362,356,356,354,362,365,359,359,356,366,354,357,345,364,351,347,363,364,358,363,364,363,355,348,349,369,356,359,361,358,372,362,363,360,355,371,351,359,367,362,355,358,351,351,346,354,352,351,353,360,354,355,351,355,354,377,376,365,362,366,370,371,371,358,365,372,366,368,375,376,370,370,374,365,365,359,364,366,371,376,362,351,375,365,369,360,355,356,366,362,354,349,366,366,347,356,358,357,369,356,176,-1,0,0,0,0,0,0,0,0,0,0,0,0,0,0,0,0,0,0,0,0,0,0,0,0,0,0,0,0,0
"Ind108","5_0_14",368,363,369,364,369,360,352,352,354,362,363,350,350,347,361,350,351,349,358,347,342,355,354,345,356,363,366,360,362,368,372,356,359,371,366,384,376,366,366,359,370,352,357,365,354,359,356,355,354,345,356,353,352,351,364,357,354,360,353,352,380,370,362,359,365,372,373,366,358,366,367,362,355,366,367,370,359,365,354,358,361,365,361,374,377,353,353,362,366,362,363,360,364,362,366,358,353,362,366,343,358,354,351,363,358,175,47,-1,0,0,0,0,0,0,0,0,0,0,0,0,0,0,0,0,0,0,0,0,0,0,0,0,0,0,0,0
"Ind109","5_0_2",381,364,368,364,365,353,358,358,364,368,361,366,373,372,373,372,371,360,374,358,370,351,336,334,329,365,361,355,360,358,359,363,366,357,358,375,375,382,379,360,360,361,358,359,362,373,370,354,360,355,365,352,351,357,355,357,373,376,379,381,371,363,384,386,389,383,386,387,354,369,366,369,372,367,361,363,361,368,380,389,364,373,377,369,364,377,364,374,366,373,367,368,361,369,355,355,370,362,352,356,347,352,360,348,351,237,234,238,-1,0,0,0,0,0,0,0,0,0,0,0,0,0,0,0,0,0,0,0,0,0,0,0,0,0,0,0
"Ind110","5_0_7",368,372,375,382,377,348,353,353,344,351,361,372,375,373,369,369,369,366,369,361,347,348,351,345,345,370,377,371,370,378,375,368,370,364,365,366,368,381,378,367,366,375,372,350,363,354,361,365,350,357,368,345,344,359,361,359,363,361,365,358,366,355,355,357,358,357,360,367,363,369,382,381,366,371,377,373,370,364,370,365,366,372,370,364,367,368,367,372,380,355,348,350,357,362,352,351,383,372,356,359,352,352,351,346,358,302,299,305,301,-1,0,0,0,0,0,0,0,0,0,0,0,0,0,0,0,0,0,0,0,0,0,0,0,0,0,0
"Ind111","5_0_13",372,382,371,377,373,362,358,358,349,360,359,376,377,375,373,374,370,367,373,361,350,347,356,352,347,375,380,371,370,374,374,363,367,361,362,369,371,385,384,370,367,378,371,357,361,352,357,366,353,357,361,350,349,363,356,358,366,362,367,362,356,354,355,357,358,350,352,363,362,372,370,383,366,375,371,370,368,365,373,372,361,378,369,364,373,364,369,362,376,361,353,357,357,363,357,354,376,366,359,362,352,355,351,353,361,304,306,314,300,51,-1,0,0,0,0,0,0,0,0,0,0,0,0,0,0,0,0,0,0,0,0,0,0,0,0,0
"Ind112","5_0_4",370,379,374,377,374,350,357,357,340,358,359,378,376,376,372,373,376,374,365,361,352,357,359,354,354,373,374,369,366,376,372,364,371,362,361,372,372,379,382,365,365,370,369,356,365,352,361,354,353,358,360,348,347,357,360,359,368,366,364,361,358,353,361,363,366,360,362,371,359,362,378,380,370,372,370,371,367,361,373,364,366,371,368,368,371,376,371,360,374,345,352,354,360,359,354,354,372,366,363,363,354,361,359,354,367,296,294,302,291,49,62,-1,0,0,0,0,0,0,0,0,0,0,0,0,0,0,0,0,0,0,0,0,0,0,0,0
"Ind113","5_0_0",362,359,357,364,361,348,366,366,350,363,370,375,378,374,375,384,385,365,374,370,353,357,369,371,357,368,375,362,363,368,367,364,369,353,351,361,358,373,367,360,368,364,359,347,352,357,349,358,345,347,348,358,357,353,346,361,362,363,362,362,360,375,357,358,365,365,368,364,361,375,367,368,362,370,369,369,374,360,366,371,361,373,365,377,380,380,378,363,366,357,357,361,362,383,346,364,367,365,367,354,343,360,352,358,370,298,303,314,293,152,154,157,-1,0,0,0,0,0,0,0,0,0,0,0,0,0,0,0,0,0,0,0,0,0,0,0
"Ind114","5_0_5",362,359,358,363,362,347,365,365,349,364,369,375,376,372,375,384,384,366,373,371,352,357,370,370,358,366,373,360,361,366,365,364,367,351,349,361,357,373,367,359,366,364,358,346,353,356,348,359,345,347,348,360,359,353,346,361,362,365,364,364,358,373,357,358,365,365,368,366,363,376,367,367,361,369,369,369,374,359,365,370,360,373,364,376,379,379,377,362,365,356,357,361,362,383,346,364,367,365,367,354,343,360,352,358,371,297,303,314,293,150,153,155,2,-1,0,0,0,0,0,0,0,0,0,0,0,0,0,0,0,0,0,0,0,0,0,0
"Ind115","5_0_11",362,356,363,364,363,346,365,365,347,359,374,367,381,377,371,374,376,351,360,366,350,355,359,361,355,371,370,355,358,358,362,368,368,358,358,361,367,371,369,360,363,365,361,344,349,362,352,355,333,346,353,360,360,363,355,361,365,370,366,366,358,367,366,367,368,370,371,369,370,366,364,379,362,374,380,379,372,365,372,375,352,375,366,374,376,370,378,359,370,357,359,355,363,368,343,356,362,360,361,356,351,345,342,344,368,297,299,308,301,152,158,167,58,59,-1,0,0,0,0,0,0,0,0,0,0,0,0,0,0,0,0,0,0,0,0,0
"Ind116","5_0_1",354,363,358,363,358,340,351,351,339,364,372,374,375,373,376,382,386,355,372,367,354,373,356,365,363,359,372,368,374,373,365,364,370,362,360,370,367,377,373,362,366,367,357,357,358,352,344,362,348,348,352,359,360,357,348,359,362,362,363,368,357,369,361,360,365,368,371,365,365,369,371,371,367,374,371,373,374,363,367,372,365,379,366,374,372,382,382,367,365,357,355,357,366,377,352,364,357,360,370,344,340,357,349,354,368,299,308,312,293,159,165,157,57,57,88,-1,0,0,0,0,0,0,0,0,0,0,0,0,0,0,0,0,0,0,0,0
"Ind117","5_0_12",358,363,358,359,358,344,363,363,351,365,369,376,379,377,375,383,385,355,377,364,359,369,356,369,357,363,369,365,369,368,366,361,364,359,357,369,367,377,373,364,370,369,354,355,354,350,342,362,349,350,353,361,362,357,352,357,364,366,365,370,358,363,361,358,367,368,371,367,366,374,367,372,365,373,372,372,373,367,368,375,365,375,371,375,373,382,380,371,364,361,348,352,361,375,352,363,358,363,370,353,337,358,348,355,369,300,307,317,292,155,158,153,62,63,84,21,-1,0,0,0,0,0,0,0,0,0,0,0,0,0,0,0,0,0,0,0
"Ind118","5_0_10",362,367,370,376,375,356,360,360,359,360,365,379,386,390,376,374,375,364,368,359,374,365,361,354,354,371,379,372,373,371,373,359,371,382,381,366,371,366,369,354,359,359,362,368,370,353,351,364,348,340,339,362,362,363,361,335,352,334,340,339,360,374,357,355,365,357,359,354,376,371,370,369,365,361,370,375,378,366,371,377,361,362,367,375,385,378,386,375,372,360,368,366,371,357,359,363,357,348,371,354,350,349,353,343,345,282,287,291,307,206,207,210,232,232,233,220,226,-1,0,0,0,0,0,0,0,0,0,0,0,0,0,0,0,0,0,0
"Ind119","5_0_8",367,358,360,361,360,370,359,359,355,365,356,378,368,364,378,373,376,361,367,362,350,354,359,347,355,367,374,375,370,375,373,362,360,373,372,377,375,369,366,355,358,372,373,373,367,340,336,355,352,342,349,359,361,345,352,345,353,358,354,355,365,377,365,368,369,370,368,368,362,379,374,381,363,364,368,362,371,369,368,369,360,356,366,357,358,372,370,375,360,367,378,375,383,363,358,358,368,354,370,342,362,351,349,355,361,291,292,286,285,220,224,227,222,220,233,216,217,162,-1,0,0,0,0,0,0,0,0,0,0,0,0,0,0,0,0,0
"Ind120","5_0_9",368,371,365,370,362,372,375,375,378,372,388,356,367,367,366,354,352,356,357,372,372,364,351,359,349,361,384,378,382,386,382,384,382,384,385,363,365,368,367,357,370,379,359,365,366,352,353,356,355,352,347,343,342,340,344,349,349,353,341,346,369,378,371,375,374,368,371,365,385,361,373,372,375,380,380,384,380,377,363,367,374,358,360,377,373,362,364,352,347,350,353,351,352,353,352,363,358,353,362,352,359,347,348,348,351,291,300,304,302,240,235,241,233,233,232,224,224,227,237,-1,0,0,0,0,0,0,0,0,0,0,0,0,0,0,0,0
"Ind121","6_0_11",378,377,387,384,385,383,375,375,383,367,355,363,362,361,366,368,370,361,366,368,364,358,361,359,364,374,356,358,351,354,363,360,370,364,368,354,359,354,359,365,366,385,370,378,375,354,359,356,372,370,371,369,369,361,372,365,354,364,356,358,362,366,356,353,351,350,350,356,377,369,363,378,374,375,381,378,378,373,370,368,381,363,357,375,373,370,384,371,367,362,361,360,363,359,367,361,371,360,370,356,364,355,360,361,370,348,354,352,362,365,359,359,364,364,364,364,367,359,352,358,-1,0,0,0,0,0,0,0,0,0,0,0,0,0,0,0
"Ind122","6_0_0",376,376,384,379,381,381,369,369,378,364,355,361,356,355,366,366,368,359,360,366,361,355,366,362,365,373,359,361,354,357,361,361,373,364,368,353,357,352,357,361,365,384,368,379,378,353,354,357,374,370,373,371,371,359,368,364,352,364,360,362,367,365,350,349,351,352,350,352,378,368,363,382,374,372,375,372,372,372,370,370,381,362,358,378,376,376,386,374,368,363,362,361,366,361,367,364,375,357,368,353,360,350,361,361,367,353,351,351,365,371,364,365,362,362,363,361,366,360,355,360,15,-1,0,0,0,0,0,0,0,0,0,0,0,0,0,0
"Ind123","6_0_5",378,377,372,371,371,370,362,362,375,366,366,359,361,358,371,363,365,366,361,370,358,368,369,356,362,377,367,359,363,360,370,375,372,368,369,355,353,354,350,358,364,372,356,381,379,355,362,361,369,367,370,373,373,361,369,365,355,358,356,360,356,372,357,356,351,360,358,358,359,376,364,376,373,375,366,367,371,370,362,360,368,356,360,384,379,378,383,372,378,370,363,364,366,363,381,367,370,364,366,360,360,350,354,347,356,364,354,358,374,374,374,371,366,367,363,360,364,360,361,356,91,84,-1,0,0,0,0,0,0,0,0,0,0,0,0,0
"Ind124","6_0_6",380,376,370,369,367,371,373,373,367,374,364,363,355,359,366,361,359,376,352,362,371,376,365,359,359,360,357,359,360,360,361,367,367,363,362,360,364,358,360,357,358,371,368,382,383,358,357,364,364,368,365,360,358,359,359,357,354,360,358,364,353,360,352,349,360,354,357,355,369,360,359,363,372,378,387,384,379,371,372,366,365,354,349,373,372,363,370,345,357,358,374,373,368,370,384,374,377,366,375,354,358,358,353,355,354,351,356,354,370,373,365,366,350,351,345,356,358,363,374,347,149,145,152,-1,0,0,0,0,0,0,0,0,0,0,0,0
"Ind125","6_0_7",391,387,369,364,369,381,369,369,375,377,366,356,358,360,364,348,350,373,352,362,376,373,354,356,353,365,355,348,348,342,348,371,365,354,355,365,369,367,368,363,375,366,366,390,387,358,362,358,360,362,365,361,361,348,360,354,357,361,346,357,340,353,358,355,365,360,363,364,362,379,376,378,364,371,368,364,370,360,362,363,371,364,355,357,359,362,365,360,357,360,370,371,357,379,374,365,371,363,369,360,355,356,356,349,367,347,347,348,364,374,372,369,371,369,364,365,362,361,362,350,146,150,146,137,-1,0,0,0,0,0,0,0,0,0,0,0
"Ind126","6_0_9",374,378,382,378,374,382,372,372,375,375,366,353,351,354,363,358,360,374,348,369,379,380,359,357,356,359,356,353,351,346,349,369,370,361,368,366,371,365,362,362,370,371,367,382,380,363,362,362,355,368,363,359,357,360,359,368,357,363,355,355,344,352,353,350,357,355,358,365,374,373,365,373,372,368,377,373,377,376,369,362,377,365,363,364,364,364,366,359,354,357,365,367,362,375,374,375,366,359,360,366,357,352,355,360,365,361,350,355,361,369,370,371,360,358,352,360,359,360,368,348,127,130,142,127,85,-1,0,0,0,0,0,0,0,0,0,0
"Ind127","6_0_4",377,379,386,385,383,371,372,372,372,371,378,374,379,374,369,369,365,366,369,359,373,364,356,357,361,348,363,365,360,358,367,376,353,360,361,358,358,363,357,363,379,374,372,387,382,361,364,371,357,361,359,367,369,360,361,362,356,356,364,358,351,362,368,365,364,367,368,358,358,363,370,357,368,365,366,361,367,365,360,358,378,362,369,369,373,363,369,370,379,361,374,374,360,382,361,368,370,373,368,368,360,350,367,348,368,354,365,363,375,358,361,361,369,368,374,368,369,352,369,355,211,214,204,212,198,208,-1,0,0,0,0,0,0,0,0,0
"Ind128","6_0_12",380,383,375,379,376,377,373,373,378,379,381,370,376,371,374,367,367,366,375,362,368,369,367,364,360,352,374,373,373,373,365,363,365,364,369,361,352,364,362,360,368,384,378,373,372,367,374,367,363,370,370,366,366,353,366,367,353,365,364,368,363,359,355,352,353,349,348,335,361,374,387,356,356,361,366,361,364,358,360,366,382,368,368,377,377,366,373,375,387,348,374,375,378,381,358,362,378,377,362,362,348,364,369,358,352,352,360,361,366,351,358,360,365,363,375,369,374,353,365,346,216,217,219,205,213,212,108,-1,0,0,0,0,0,0,0,0
"Ind129","6_0_8",375,376,368,368,373,379,384,384,376,374,375,365,369,369,369,373,374,366,372,373,377,371,364,358,352,369,362,366,362,358,366,361,361,358,356,364,363,378,370,362,367,386,367,390,390,358,358,351,370,364,360,360,362,357,368,347,359,363,362,361,342,351,350,346,359,358,362,358,367,365,378,373,365,356,361,355,359,369,366,369,363,363,352,360,361,352,352,373,368,368,367,361,361,367,369,365,378,366,371,361,358,363,363,363,368,363,359,365,353,365,368,363,357,357,361,349,341,369,364,346,223,224,221,221,222,228,226,243,-1,0,0,0,0,0,0,0
"Ind130","6_0_10",374,378,371,367,377,376,385,385,379,375,369,374,354,355,378,369,371,397,371,371,395,381,378,373,363,368,372,370,371,362,376,369,366,361,365,357,359,359,359,364,378,371,373,386,393,376,370,350,358,360,362,383,383,360,355,350,349,350,352,348,341,368,336,334,339,340,343,352,351,369,369,363,370,374,377,379,379,372,368,367,353,367,360,367,369,360,360,364,357,359,365,371,359,362,371,367,372,368,363,371,377,365,367,353,376,366,367,364,358,360,366,361,361,361,365,371,369,362,364,358,220,222,214,212,194,204,212,234,187,-1,0,0,0,0,0,0
"Ind131","6_0_1",389,378,371,374,376,380,373,373,383,376,364,374,373,373,377,375,377,369,382,367,362,379,374,362,364,375,373,381,386,384,370,373,365,373,373,364,358,370,366,369,370,370,375,375,377,371,368,356,371,366,362,371,371,362,381,354,363,370,361,365,363,363,352,351,355,346,348,351,356,369,378,370,361,363,367,366,364,366,357,359,366,352,350,369,377,358,363,367,379,363,364,366,361,367,380,378,374,371,375,376,372,372,375,378,378,352,360,352,352,359,364,363,367,368,374,369,370,357,357,351,199,201,201,204,209,211,224,209,207,227,-1,0,0,0,0,0
"Ind132","6_0_2",382,378,369,371,376,381,374,374,385,374,365,375,379,378,378,380,381,375,377,369,372,382,371,366,369,368,382,386,389,383,375,365,370,374,376,365,364,378,372,372,374,372,378,375,377,362,365,364,373,360,358,379,379,364,384,362,365,371,367,370,361,363,354,353,354,345,345,345,363,370,376,373,362,358,365,365,365,363,355,357,367,353,350,366,374,357,358,368,378,370,361,363,360,361,374,369,367,372,367,376,370,371,374,379,378,352,359,354,352,360,361,360,375,376,378,374,373,355,359,355,198,194,196,218,211,205,222,203,207,210,42,-1,0,0,0,0
"Ind133","6_0_14",388,371,375,369,376,379,374,374,379,375,362,374,376,376,373,374,375,371,385,368,368,381,368,356,363,368,375,376,383,383,371,365,368,367,373,366,364,380,374,370,372,376,372,378,380,368,371,369,378,367,367,369,369,354,374,363,357,363,363,374,362,362,354,354,357,353,351,349,355,367,378,372,374,365,369,369,365,371,358,355,365,356,357,363,371,363,364,372,387,365,362,360,349,371,372,372,373,372,369,382,369,374,373,380,371,346,358,357,342,357,361,355,368,369,379,371,370,366,357,353,205,199,195,213,214,214,225,206,207,225,50,34,-1,0,0,0
"Ind134","6_0_13",387,388,365,366,366,373,379,379,385,371,368,374,377,373,362,371,371,379,371,369,371,382,368,366,363,362,368,365,365,365,381,367,367,362,359,370,369,376,371,362,370,369,369,376,367,354,354,364,367,358,354,379,380,363,370,367,367,368,372,370,347,353,365,366,354,355,359,354,371,376,365,363,365,379,373,365,370,370,361,359,379,351,353,382,385,369,366,377,375,368,372,369,361,359,374,376,358,365,370,356,357,363,369,354,369,353,357,359,367,376,379,378,365,366,369,361,363,377,359,355,209,217,199,208,203,206,200,222,222,227,184,184,191,-1,0,0
"Ind135","6_0_3",372,377,364,364,370,378,362,362,361,361,356,354,357,359,366,355,358,374,367,360,367,373,344,358,346,372,365,367,369,372,362,345,358,360,357,351,347,353,353,350,363,374,377,368,378,371,369,358,347,347,358,364,364,345,349,342,350,343,342,344,361,368,363,363,352,358,352,350,359,367,355,368,352,343,354,352,353,351,349,356,358,332,341,358,360,357,356,365,357,360,378,381,380,374,363,357,378,365,366,361,356,340,359,351,363,350,353,362,371,362,371,367,367,365,370,370,369,363,361,356,261,258,259,274,265,252,275,260,290,278,251,246,251,266,-1,0
"Ind136","0_0_0",373,387,374,366,376,368,373,373,375,373,358,369,372,371,378,366,370,370,387,367,375,371,374,379,372,369,377,379,376,377,379,372,385,377,379,372,373,374,375,360,373,369,373,365,369,361,370,365,371,360,362,363,362,359,364,359,362,367,363,357,354,352,360,361,357,351,351,356,351,359,351,368,362,361,360,355,352,364,372,369,357,365,361,349,355,352,353,362,361,361,357,359,362,360,365,364,373,359,356,348,344,345,334,346,349,369,372,375,364,390,379,385,358,359,368,370,374,391,379,382,364,361,363,372,373,376,372,368,354,356,365,360,357,363,372,-1
