"","Description","Ind1","Ind2","Ind3","Ind4","Ind5","Ind6","Ind7","Ind8","Ind9","Ind10","Ind11","Ind12","Ind13","Ind14","Ind15","Ind16","Ind17"
"Ind1","6_0_0",-1,0,0,0,0,0,0,0,0,0,0,0,0,0,0,0,0
"Ind2","6_0_1",5,-1,0,0,0,0,0,0,0,0,0,0,0,0,0,0,0
"Ind3","3_0_1",59,56,-1,0,0,0,0,0,0,0,0,0,0,0,0,0,0
"Ind4","3_0_0",58,55,19,-1,0,0,0,0,0,0,0,0,0,0,0,0,0
"Ind5","4_0_1",58,55,46,42,-1,0,0,0,0,0,0,0,0,0,0,0,0
"Ind6","4_0_0",54,51,43,36,18,-1,0,0,0,0,0,0,0,0,0,0,0
"Ind7","8_0_0",74,71,86,82,90,89,-1,0,0,0,0,0,0,0,0,0,0
"Ind8","8_0_1",75,72,87,83,91,90,3,-1,0,0,0,0,0,0,0,0,0
"Ind9","7_0_1",65,62,74,74,72,75,49,50,-1,0,0,0,0,0,0,0,0
"Ind10","7_0_0",63,62,74,72,68,69,49,50,10,-1,0,0,0,0,0,0,0
"Ind11","1_0_1",116,112,109,109,111,107,128,131,118,113,-1,0,0,0,0,0,0
"Ind12","1_0_0",119,115,116,116,119,117,130,133,121,118,22,-1,0,0,0,0,0
"Ind13","5_0_0",95,90,95,96,106,103,101,104,95,93,92,97,-1,0,0,0,0
"Ind14","5_0_1",96,91,96,99,108,105,104,107,98,96,93,98,5,-1,0,0,0
"Ind15","2_0_0",110,105,109,110,114,113,113,116,105,103,93,93,46,49,-1,0,0
"Ind16","2_0_1",108,103,105,106,112,111,114,117,105,103,93,92,50,53,22,-1,0
"Ind17","0_0_0",125,120,122,126,121,125,134,136,126,124,131,130,123,125,125,127,-1
