"","Description","Ind1","Ind2","Ind3","Ind4","Ind5","Ind6","Ind7","Ind8","Ind9","Ind10","Ind11","Ind12","Ind13","Ind14","Ind15","Ind16","Ind17"
"Ind1","0_0_0",-1,0,0,0,0,0,0,0,0,0,0,0,0,0,0,0,0
"Ind2","7_0_0",136,-1,0,0,0,0,0,0,0,0,0,0,0,0,0,0,0
"Ind3","7_0_1",137,17,-1,0,0,0,0,0,0,0,0,0,0,0,0,0,0
"Ind4","8_0_1",127,69,68,-1,0,0,0,0,0,0,0,0,0,0,0,0,0
"Ind5","8_0_0",128,61,64,24,-1,0,0,0,0,0,0,0,0,0,0,0,0
"Ind6","2_0_0",128,90,86,74,71,-1,0,0,0,0,0,0,0,0,0,0,0
"Ind7","5_0_1",136,88,83,77,72,52,-1,0,0,0,0,0,0,0,0,0,0
"Ind8","5_0_0",136,87,84,78,75,56,4,-1,0,0,0,0,0,0,0,0,0
"Ind9","2_0_1",129,90,85,76,72,45,42,44,-1,0,0,0,0,0,0,0,0
"Ind10","6_0_0",124,76,71,77,72,70,83,87,78,-1,0,0,0,0,0,0,0
"Ind11","6_0_1",127,79,76,85,78,76,90,92,81,14,-1,0,0,0,0,0,0
"Ind12","4_0_0",133,91,93,92,88,93,100,104,91,81,86,-1,0,0,0,0,0
"Ind13","4_0_1",138,92,96,92,90,93,102,104,91,84,87,10,-1,0,0,0,0
"Ind14","3_0_1",130,80,81,79,82,84,93,95,89,74,78,39,40,-1,0,0,0
"Ind15","3_0_0",134,84,84,77,85,82,87,89,84,73,77,43,44,24,-1,0,0
"Ind16","1_0_1",134,86,85,80,78,77,89,93,78,77,79,58,59,57,52,-1,0
"Ind17","1_0_0",134,87,86,82,79,81,91,95,82,77,81,62,63,61,56,8,-1
