"","Description","Ind1","Ind2","Ind3","Ind4","Ind5","Ind6","Ind7","Ind8","Ind9","Ind10","Ind11","Ind12","Ind13","Ind14","Ind15","Ind16","Ind17","Ind18","Ind19","Ind20","Ind21","Ind22","Ind23","Ind24","Ind25","Ind26","Ind27","Ind28","Ind29","Ind30","Ind31","Ind32","Ind33","Ind34","Ind35","Ind36","Ind37"
"Ind1","0_0_0",-1,0,0,0,0,0,0,0,0,0,0,0,0,0,0,0,0,0,0,0,0,0,0,0,0,0,0,0,0,0,0,0,0,0,0,0,0
"Ind2","1_0_0",234,-1,0,0,0,0,0,0,0,0,0,0,0,0,0,0,0,0,0,0,0,0,0,0,0,0,0,0,0,0,0,0,0,0,0,0,0
"Ind3","1_0_1",235,6,-1,0,0,0,0,0,0,0,0,0,0,0,0,0,0,0,0,0,0,0,0,0,0,0,0,0,0,0,0,0,0,0,0,0,0
"Ind4","2_0_2",238,47,47,-1,0,0,0,0,0,0,0,0,0,0,0,0,0,0,0,0,0,0,0,0,0,0,0,0,0,0,0,0,0,0,0,0,0
"Ind5","1_0_2",237,59,59,26,-1,0,0,0,0,0,0,0,0,0,0,0,0,0,0,0,0,0,0,0,0,0,0,0,0,0,0,0,0,0,0,0,0
"Ind6","2_0_1",243,47,47,14,27,-1,0,0,0,0,0,0,0,0,0,0,0,0,0,0,0,0,0,0,0,0,0,0,0,0,0,0,0,0,0,0,0
"Ind7","2_0_0",243,50,50,16,27,4,-1,0,0,0,0,0,0,0,0,0,0,0,0,0,0,0,0,0,0,0,0,0,0,0,0,0,0,0,0,0,0
"Ind8","7_0_1",231,208,210,207,213,213,211,-1,0,0,0,0,0,0,0,0,0,0,0,0,0,0,0,0,0,0,0,0,0,0,0,0,0,0,0,0,0
"Ind9","7_0_2",237,206,206,201,207,206,205,27,-1,0,0,0,0,0,0,0,0,0,0,0,0,0,0,0,0,0,0,0,0,0,0,0,0,0,0,0,0
"Ind10","10_0_1",231,200,204,200,203,204,202,25,33,-1,0,0,0,0,0,0,0,0,0,0,0,0,0,0,0,0,0,0,0,0,0,0,0,0,0,0,0
"Ind11","10_0_0",230,208,212,204,209,212,210,25,31,10,-1,0,0,0,0,0,0,0,0,0,0,0,0,0,0,0,0,0,0,0,0,0,0,0,0,0,0
"Ind12","12_0_2",232,205,209,203,208,209,207,26,32,13,11,-1,0,0,0,0,0,0,0,0,0,0,0,0,0,0,0,0,0,0,0,0,0,0,0,0,0
"Ind13","12_0_1",232,201,205,202,207,205,203,29,31,20,18,19,-1,0,0,0,0,0,0,0,0,0,0,0,0,0,0,0,0,0,0,0,0,0,0,0,0
"Ind14","12_0_0",228,202,206,200,205,206,204,26,28,17,17,18,19,-1,0,0,0,0,0,0,0,0,0,0,0,0,0,0,0,0,0,0,0,0,0,0,0
"Ind15","10_0_2",230,204,208,202,207,208,206,22,26,13,11,12,13,12,-1,0,0,0,0,0,0,0,0,0,0,0,0,0,0,0,0,0,0,0,0,0,0
"Ind16","7_0_0",235,204,208,202,208,206,204,24,35,23,20,22,23,24,18,-1,0,0,0,0,0,0,0,0,0,0,0,0,0,0,0,0,0,0,0,0,0
"Ind17","6_0_1",233,213,217,208,210,213,211,49,57,48,43,47,44,47,43,39,-1,0,0,0,0,0,0,0,0,0,0,0,0,0,0,0,0,0,0,0,0
"Ind18","6_0_0",233,204,208,205,209,208,206,39,45,38,35,37,34,37,33,29,14,-1,0,0,0,0,0,0,0,0,0,0,0,0,0,0,0,0,0,0,0
"Ind19","6_0_2",233,203,207,204,208,207,205,38,44,39,36,38,35,36,34,30,15,3,-1,0,0,0,0,0,0,0,0,0,0,0,0,0,0,0,0,0,0
"Ind20","5_0_0",233,199,203,192,197,193,193,53,59,48,50,49,54,49,49,45,69,59,58,-1,0,0,0,0,0,0,0,0,0,0,0,0,0,0,0,0,0
"Ind21","4_0_2",232,200,204,193,198,194,194,54,60,49,51,50,55,50,50,46,70,60,59,1,-1,0,0,0,0,0,0,0,0,0,0,0,0,0,0,0,0
"Ind22","4_0_1",234,203,207,196,199,197,197,61,65,56,56,55,58,56,55,51,73,63,64,20,21,-1,0,0,0,0,0,0,0,0,0,0,0,0,0,0,0
"Ind23","5_0_2",233,204,208,197,200,198,198,60,66,55,55,54,57,55,54,50,72,62,63,19,20,1,-1,0,0,0,0,0,0,0,0,0,0,0,0,0,0
"Ind24","5_0_1",230,200,204,192,197,193,193,59,65,56,56,53,58,52,55,51,73,63,62,18,19,14,13,-1,0,0,0,0,0,0,0,0,0,0,0,0,0
"Ind25","4_0_0",232,204,208,195,200,198,198,59,65,58,58,57,60,54,57,53,74,65,64,22,23,18,17,12,-1,0,0,0,0,0,0,0,0,0,0,0,0
"Ind26","8_0_0",223,194,196,196,198,198,196,79,80,71,73,76,76,72,70,74,90,82,81,81,82,92,91,86,89,-1,0,0,0,0,0,0,0,0,0,0,0
"Ind27","9_0_2",229,202,204,200,206,206,204,80,83,80,78,81,77,79,73,75,93,87,86,86,87,93,92,88,93,45,-1,0,0,0,0,0,0,0,0,0,0
"Ind28","9_0_1",231,203,205,201,207,207,205,80,85,80,80,83,79,81,75,77,95,89,88,88,89,95,94,90,95,47,6,-1,0,0,0,0,0,0,0,0,0
"Ind29","11_0_1",223,201,203,194,201,198,196,86,85,78,78,81,79,79,73,81,95,88,88,85,86,95,94,89,95,64,61,60,-1,0,0,0,0,0,0,0,0
"Ind30","8_0_2",222,196,200,190,194,194,192,84,83,77,77,80,78,76,74,78,89,82,82,77,78,87,86,81,87,61,62,62,31,-1,0,0,0,0,0,0,0
"Ind31","8_0_1",220,197,201,191,195,195,193,79,80,72,74,77,75,73,71,75,86,79,79,72,73,82,81,76,81,58,59,61,30,9,-1,0,0,0,0,0,0
"Ind32","3_0_2",230,204,206,203,208,208,206,87,86,81,81,84,79,83,80,81,94,88,87,84,85,92,91,88,91,75,79,79,72,69,65,-1,0,0,0,0,0
"Ind33","11_0_0",231,200,202,201,208,206,204,85,86,79,79,82,77,81,80,79,92,84,83,82,83,90,89,86,88,77,81,79,70,67,67,24,-1,0,0,0,0
"Ind34","11_0_2",237,202,204,203,208,206,204,87,88,82,82,85,82,84,83,81,94,88,87,83,84,91,90,87,88,81,81,79,74,71,69,26,14,-1,0,0,0
"Ind35","3_0_1",230,203,205,205,210,210,208,81,82,75,75,78,75,77,76,75,90,82,81,80,81,88,87,84,86,75,77,77,68,67,65,16,16,18,-1,0,0
"Ind36","3_0_0",235,198,200,200,205,205,203,86,83,78,78,79,74,80,79,80,93,85,84,83,84,91,90,87,89,79,79,79,74,69,69,20,20,26,14,-1,0
"Ind37","9_0_0",234,207,209,207,214,212,210,91,90,87,87,89,85,89,88,83,100,92,91,90,91,98,97,94,96,91,93,93,86,81,81,32,32,38,28,28,-1
