"","Description","Ind1","Ind2","Ind3","Ind4","Ind5","Ind6","Ind7","Ind8","Ind9","Ind10","Ind11","Ind12","Ind13","Ind14","Ind15","Ind16","Ind17","Ind18","Ind19","Ind20","Ind21","Ind22","Ind23","Ind24","Ind25","Ind26","Ind27","Ind28","Ind29","Ind30","Ind31","Ind32","Ind33","Ind34","Ind35","Ind36","Ind37","Ind38","Ind39","Ind40","Ind41","Ind42","Ind43","Ind44","Ind45","Ind46","Ind47","Ind48","Ind49","Ind50","Ind51","Ind52","Ind53","Ind54","Ind55","Ind56","Ind57","Ind58"
"Ind1","0_0_0",-1,0,0,0,0,0,0,0,0,0,0,0,0,0,0,0,0,0,0,0,0,0,0,0,0,0,0,0,0,0,0,0,0,0,0,0,0,0,0,0,0,0,0,0,0,0,0,0,0,0,0,0,0,0,0,0,0,0
"Ind2","14_0_0",149,-1,0,0,0,0,0,0,0,0,0,0,0,0,0,0,0,0,0,0,0,0,0,0,0,0,0,0,0,0,0,0,0,0,0,0,0,0,0,0,0,0,0,0,0,0,0,0,0,0,0,0,0,0,0,0,0,0
"Ind3","14_0_2",149,0,-1,0,0,0,0,0,0,0,0,0,0,0,0,0,0,0,0,0,0,0,0,0,0,0,0,0,0,0,0,0,0,0,0,0,0,0,0,0,0,0,0,0,0,0,0,0,0,0,0,0,0,0,0,0,0,0
"Ind4","8_0_0",149,0,0,-1,0,0,0,0,0,0,0,0,0,0,0,0,0,0,0,0,0,0,0,0,0,0,0,0,0,0,0,0,0,0,0,0,0,0,0,0,0,0,0,0,0,0,0,0,0,0,0,0,0,0,0,0,0,0
"Ind5","8_0_1",149,0,0,0,-1,0,0,0,0,0,0,0,0,0,0,0,0,0,0,0,0,0,0,0,0,0,0,0,0,0,0,0,0,0,0,0,0,0,0,0,0,0,0,0,0,0,0,0,0,0,0,0,0,0,0,0,0,0
"Ind6","7_0_1",149,0,0,0,0,-1,0,0,0,0,0,0,0,0,0,0,0,0,0,0,0,0,0,0,0,0,0,0,0,0,0,0,0,0,0,0,0,0,0,0,0,0,0,0,0,0,0,0,0,0,0,0,0,0,0,0,0,0
"Ind7","7_0_0",149,0,0,0,0,0,-1,0,0,0,0,0,0,0,0,0,0,0,0,0,0,0,0,0,0,0,0,0,0,0,0,0,0,0,0,0,0,0,0,0,0,0,0,0,0,0,0,0,0,0,0,0,0,0,0,0,0,0
"Ind8","7_0_2",149,0,0,0,0,0,0,-1,0,0,0,0,0,0,0,0,0,0,0,0,0,0,0,0,0,0,0,0,0,0,0,0,0,0,0,0,0,0,0,0,0,0,0,0,0,0,0,0,0,0,0,0,0,0,0,0,0,0
"Ind9","14_0_1",149,0,0,0,0,0,0,0,-1,0,0,0,0,0,0,0,0,0,0,0,0,0,0,0,0,0,0,0,0,0,0,0,0,0,0,0,0,0,0,0,0,0,0,0,0,0,0,0,0,0,0,0,0,0,0,0,0,0
"Ind10","8_0_2",149,0,0,0,0,0,0,0,0,-1,0,0,0,0,0,0,0,0,0,0,0,0,0,0,0,0,0,0,0,0,0,0,0,0,0,0,0,0,0,0,0,0,0,0,0,0,0,0,0,0,0,0,0,0,0,0,0,0
"Ind11","1_0_2",149,0,0,0,0,0,0,0,0,0,-1,0,0,0,0,0,0,0,0,0,0,0,0,0,0,0,0,0,0,0,0,0,0,0,0,0,0,0,0,0,0,0,0,0,0,0,0,0,0,0,0,0,0,0,0,0,0,0
"Ind12","1_0_1",148,1,1,1,1,1,1,1,1,1,1,-1,0,0,0,0,0,0,0,0,0,0,0,0,0,0,0,0,0,0,0,0,0,0,0,0,0,0,0,0,0,0,0,0,0,0,0,0,0,0,0,0,0,0,0,0,0,0
"Ind13","1_0_0",148,1,1,1,1,1,1,1,1,1,1,0,-1,0,0,0,0,0,0,0,0,0,0,0,0,0,0,0,0,0,0,0,0,0,0,0,0,0,0,0,0,0,0,0,0,0,0,0,0,0,0,0,0,0,0,0,0,0
"Ind14","3_0_1",151,2,2,2,2,2,2,2,2,2,2,3,3,-1,0,0,0,0,0,0,0,0,0,0,0,0,0,0,0,0,0,0,0,0,0,0,0,0,0,0,0,0,0,0,0,0,0,0,0,0,0,0,0,0,0,0,0,0
"Ind15","3_0_0",151,2,2,2,2,2,2,2,2,2,2,3,3,0,-1,0,0,0,0,0,0,0,0,0,0,0,0,0,0,0,0,0,0,0,0,0,0,0,0,0,0,0,0,0,0,0,0,0,0,0,0,0,0,0,0,0,0,0
"Ind16","2_0_0",151,4,4,4,4,4,4,4,4,4,4,5,5,2,2,-1,0,0,0,0,0,0,0,0,0,0,0,0,0,0,0,0,0,0,0,0,0,0,0,0,0,0,0,0,0,0,0,0,0,0,0,0,0,0,0,0,0,0
"Ind17","3_0_2",151,2,2,2,2,2,2,2,2,2,2,3,3,0,0,2,-1,0,0,0,0,0,0,0,0,0,0,0,0,0,0,0,0,0,0,0,0,0,0,0,0,0,0,0,0,0,0,0,0,0,0,0,0,0,0,0,0,0
"Ind18","2_0_2",151,2,2,2,2,2,2,2,2,2,2,3,3,0,0,2,0,-1,0,0,0,0,0,0,0,0,0,0,0,0,0,0,0,0,0,0,0,0,0,0,0,0,0,0,0,0,0,0,0,0,0,0,0,0,0,0,0,0
"Ind19","2_0_1",151,2,2,2,2,2,2,2,2,2,2,3,3,0,0,2,0,0,-1,0,0,0,0,0,0,0,0,0,0,0,0,0,0,0,0,0,0,0,0,0,0,0,0,0,0,0,0,0,0,0,0,0,0,0,0,0,0,0
"Ind20","6_0_2",151,2,2,2,2,2,2,2,2,2,2,3,3,2,2,4,2,2,2,-1,0,0,0,0,0,0,0,0,0,0,0,0,0,0,0,0,0,0,0,0,0,0,0,0,0,0,0,0,0,0,0,0,0,0,0,0,0,0
"Ind21","6_0_1",152,5,5,5,5,5,5,5,5,5,5,6,6,5,5,7,5,5,5,3,-1,0,0,0,0,0,0,0,0,0,0,0,0,0,0,0,0,0,0,0,0,0,0,0,0,0,0,0,0,0,0,0,0,0,0,0,0,0
"Ind22","6_0_0",151,4,4,4,4,4,4,4,4,4,4,5,5,4,4,6,4,4,4,2,1,-1,0,0,0,0,0,0,0,0,0,0,0,0,0,0,0,0,0,0,0,0,0,0,0,0,0,0,0,0,0,0,0,0,0,0,0,0
"Ind23","13_0_0",149,3,3,3,3,3,3,3,3,3,3,4,4,3,3,5,3,3,3,3,6,5,-1,0,0,0,0,0,0,0,0,0,0,0,0,0,0,0,0,0,0,0,0,0,0,0,0,0,0,0,0,0,0,0,0,0,0,0
"Ind24","13_0_1",149,3,3,3,3,3,3,3,3,3,3,4,4,3,3,5,3,3,3,3,6,5,0,-1,0,0,0,0,0,0,0,0,0,0,0,0,0,0,0,0,0,0,0,0,0,0,0,0,0,0,0,0,0,0,0,0,0,0
"Ind25","13_0_2",149,2,2,2,2,2,2,2,2,2,2,3,3,2,2,4,2,2,2,2,5,4,3,3,-1,0,0,0,0,0,0,0,0,0,0,0,0,0,0,0,0,0,0,0,0,0,0,0,0,0,0,0,0,0,0,0,0,0
"Ind26","11_0_1",153,5,5,5,5,5,5,5,5,5,5,6,6,7,7,9,7,7,7,7,10,9,8,8,7,-1,0,0,0,0,0,0,0,0,0,0,0,0,0,0,0,0,0,0,0,0,0,0,0,0,0,0,0,0,0,0,0,0
"Ind27","11_0_2",153,5,5,5,5,5,5,5,5,5,5,6,6,7,7,9,7,7,7,7,10,9,8,8,7,0,-1,0,0,0,0,0,0,0,0,0,0,0,0,0,0,0,0,0,0,0,0,0,0,0,0,0,0,0,0,0,0,0
"Ind28","11_0_0",153,5,5,5,5,5,5,5,5,5,5,6,6,7,7,9,7,7,7,7,10,9,8,8,7,0,0,-1,0,0,0,0,0,0,0,0,0,0,0,0,0,0,0,0,0,0,0,0,0,0,0,0,0,0,0,0,0,0
"Ind29","9_0_0",149,4,4,4,4,4,4,4,4,4,4,5,5,6,6,8,6,6,6,6,9,8,7,7,6,9,9,9,-1,0,0,0,0,0,0,0,0,0,0,0,0,0,0,0,0,0,0,0,0,0,0,0,0,0,0,0,0,0
"Ind30","9_0_1",149,4,4,4,4,4,4,4,4,4,4,5,5,6,6,8,6,6,6,6,9,8,7,7,6,9,9,9,0,-1,0,0,0,0,0,0,0,0,0,0,0,0,0,0,0,0,0,0,0,0,0,0,0,0,0,0,0,0
"Ind31","9_0_2",149,4,4,4,4,4,4,4,4,4,4,5,5,6,6,8,6,6,6,6,9,8,7,7,6,9,9,9,0,0,-1,0,0,0,0,0,0,0,0,0,0,0,0,0,0,0,0,0,0,0,0,0,0,0,0,0,0,0
"Ind32","4_0_2",148,5,5,5,5,5,5,5,5,5,5,6,6,7,7,9,7,7,7,7,10,9,8,8,7,10,10,10,5,5,5,-1,0,0,0,0,0,0,0,0,0,0,0,0,0,0,0,0,0,0,0,0,0,0,0,0,0,0
"Ind33","4_0_1",149,4,4,4,4,4,4,4,4,4,4,5,5,6,6,8,6,6,6,6,9,8,7,7,6,9,9,9,4,4,4,1,-1,0,0,0,0,0,0,0,0,0,0,0,0,0,0,0,0,0,0,0,0,0,0,0,0,0
"Ind34","4_0_0",148,3,3,3,3,3,3,3,3,3,3,4,4,5,5,7,5,5,5,5,8,7,6,6,5,8,8,8,3,3,3,2,1,-1,0,0,0,0,0,0,0,0,0,0,0,0,0,0,0,0,0,0,0,0,0,0,0,0
"Ind35","12_0_0",150,3,3,3,3,3,3,3,3,3,3,4,4,5,5,7,5,5,5,5,8,7,6,6,5,8,8,8,3,3,3,4,3,2,-1,0,0,0,0,0,0,0,0,0,0,0,0,0,0,0,0,0,0,0,0,0,0,0
"Ind36","12_0_1",149,4,4,4,4,4,4,4,4,4,4,5,5,6,6,8,6,6,6,6,9,8,7,7,6,9,9,9,4,4,4,5,4,3,1,-1,0,0,0,0,0,0,0,0,0,0,0,0,0,0,0,0,0,0,0,0,0,0
"Ind37","12_0_2",150,3,3,3,3,3,3,3,3,3,3,4,4,5,5,7,5,5,5,5,8,7,6,6,5,8,8,8,3,3,3,4,3,2,0,1,-1,0,0,0,0,0,0,0,0,0,0,0,0,0,0,0,0,0,0,0,0,0
"Ind38","5_0_2",145,6,6,6,6,6,6,6,6,6,6,7,7,8,8,10,8,8,8,8,11,10,9,9,8,11,11,11,6,6,6,7,6,5,5,6,5,-1,0,0,0,0,0,0,0,0,0,0,0,0,0,0,0,0,0,0,0,0
"Ind39","5_0_0",145,6,6,6,6,6,6,6,6,6,6,7,7,8,8,10,8,8,8,8,11,10,9,9,8,11,11,11,6,6,6,7,6,5,5,6,5,0,-1,0,0,0,0,0,0,0,0,0,0,0,0,0,0,0,0,0,0,0
"Ind40","5_0_1",146,7,7,7,7,7,7,7,7,7,7,8,8,9,9,11,9,9,9,9,12,11,10,10,9,12,12,12,7,7,7,8,7,6,6,7,6,1,1,-1,0,0,0,0,0,0,0,0,0,0,0,0,0,0,0,0,0,0
"Ind41","10_0_1",148,12,12,12,12,12,12,12,12,12,12,13,13,14,14,16,14,14,14,14,17,16,15,15,14,15,15,15,16,16,16,17,16,15,15,16,15,16,16,17,-1,0,0,0,0,0,0,0,0,0,0,0,0,0,0,0,0,0
"Ind42","10_0_2",148,12,12,12,12,12,12,12,12,12,12,13,13,14,14,16,14,14,14,14,17,16,15,15,14,15,15,15,16,16,16,17,16,15,15,16,15,16,16,17,0,-1,0,0,0,0,0,0,0,0,0,0,0,0,0,0,0,0
"Ind43","10_0_0",148,12,12,12,12,12,12,12,12,12,12,13,13,14,14,16,14,14,14,14,17,16,15,15,14,15,15,15,16,16,16,17,16,15,15,16,15,16,16,17,0,0,-1,0,0,0,0,0,0,0,0,0,0,0,0,0,0,0
"Ind44","19_0_2",142,84,84,84,84,84,84,84,84,84,84,85,85,86,86,88,86,86,86,86,89,88,84,84,86,89,89,89,84,84,84,87,86,85,85,86,85,82,82,83,86,86,86,-1,0,0,0,0,0,0,0,0,0,0,0,0,0,0
"Ind45","19_0_1",142,84,84,84,84,84,84,84,84,84,84,85,85,86,86,88,86,86,86,86,89,88,84,84,86,89,89,89,84,84,84,87,86,85,85,86,85,82,82,83,86,86,86,0,-1,0,0,0,0,0,0,0,0,0,0,0,0,0
"Ind46","19_0_0",142,84,84,84,84,84,84,84,84,84,84,85,85,86,86,88,86,86,86,86,89,88,84,84,86,89,89,89,84,84,84,87,86,85,85,86,85,82,82,83,86,86,86,0,0,-1,0,0,0,0,0,0,0,0,0,0,0,0
"Ind47","17_0_2",139,87,87,87,87,87,87,87,87,87,87,86,86,89,89,91,89,89,89,89,92,91,87,87,89,92,92,92,87,87,87,88,89,88,88,89,88,85,85,86,89,89,89,7,7,7,-1,0,0,0,0,0,0,0,0,0,0,0
"Ind48","17_0_1",139,87,87,87,87,87,87,87,87,87,87,86,86,89,89,91,89,89,89,89,92,91,87,87,89,92,92,92,87,87,87,88,89,88,88,89,88,85,85,86,89,89,89,7,7,7,0,-1,0,0,0,0,0,0,0,0,0,0
"Ind49","17_0_0",139,87,87,87,87,87,87,87,87,87,87,86,86,89,89,91,89,89,89,89,92,91,87,87,89,92,92,92,87,87,87,88,89,88,88,89,88,85,85,86,89,89,89,7,7,7,0,0,-1,0,0,0,0,0,0,0,0,0
"Ind50","16_0_1",141,87,87,87,87,87,87,87,87,87,87,86,86,89,89,91,89,89,89,89,92,91,87,87,89,92,92,92,87,87,87,88,89,88,88,89,88,85,85,86,89,89,89,7,7,7,2,2,2,-1,0,0,0,0,0,0,0,0
"Ind51","16_0_0",141,87,87,87,87,87,87,87,87,87,87,86,86,89,89,91,89,89,89,89,92,91,87,87,89,92,92,92,87,87,87,88,89,88,88,89,88,85,85,86,89,89,89,7,7,7,2,2,2,0,-1,0,0,0,0,0,0,0
"Ind52","16_0_2",141,87,87,87,87,87,87,87,87,87,87,86,86,89,89,91,89,89,89,89,92,91,87,87,89,92,92,92,87,87,87,88,89,88,88,89,88,85,85,86,89,89,89,7,7,7,2,2,2,0,0,-1,0,0,0,0,0,0
"Ind53","15_0_2",139,85,85,85,85,85,85,85,85,85,85,84,84,87,87,89,87,87,87,87,90,89,85,85,87,90,90,90,85,85,85,86,87,86,86,87,86,83,83,84,87,87,87,5,5,5,2,2,2,2,2,2,-1,0,0,0,0,0
"Ind54","15_0_0",139,84,84,84,84,84,84,84,84,84,84,83,83,86,86,88,86,86,86,86,89,88,84,84,86,89,89,89,84,84,84,85,86,85,85,86,85,82,82,83,86,86,86,7,7,7,4,4,4,4,4,4,2,-1,0,0,0,0
"Ind55","15_0_1",140,85,85,85,85,85,85,85,85,85,85,84,84,87,87,89,87,87,87,87,90,89,85,85,87,90,90,90,85,85,85,86,87,86,86,87,86,83,83,84,87,87,87,6,6,6,3,3,3,3,3,3,1,1,-1,0,0,0
"Ind56","18_0_0",139,85,85,85,85,85,85,85,85,85,85,84,84,87,87,89,87,87,87,87,90,89,85,85,87,90,90,90,85,85,85,86,87,86,86,87,86,83,83,84,87,87,87,5,5,5,2,2,2,2,2,2,0,2,1,-1,0,0
"Ind57","18_0_2",140,84,84,84,84,84,84,84,84,84,84,83,83,86,86,88,86,86,86,86,89,88,84,84,86,89,89,89,84,84,84,85,86,85,85,86,85,82,82,83,86,86,86,6,6,6,3,3,3,3,3,3,1,3,2,1,-1,0
"Ind58","18_0_1",139,85,85,85,85,85,85,85,85,85,85,84,84,87,87,89,87,87,87,87,90,89,85,85,87,90,90,90,85,85,85,86,87,86,86,87,86,83,83,84,87,87,87,5,5,5,2,2,2,2,2,2,0,2,1,0,1,-1
