[TYPE] NUCLEOTIDE 1 

[SETTINGS]
    [fastaextension] fasta  

[MODEL] csSim_unlinked_1
    [submodel] GTR 0.084460 0.017894 0.020227 0.032625 0.030439 
    [statefreq] 0.606283 0.094500 0.011421 0.287795 
[rates] 0 22.683848 0 

[MODEL] csSim_unlinked_2
    [submodel] GTR 0.103995 0.006000 0.008090 0.059097 0.043354 
    [statefreq] 0.033351 0.716244 0.163333 0.087072 
[rates] 0 2.807698 0 

[MODEL] csSim_unlinked_3
    [submodel] GTR 0.103042 0.008235 0.020775 0.017881 0.028024 
    [statefreq] 0.510188 0.103674 0.162941 0.223196 
[rates] 0 9.788456 0 

[MODEL] csSim_unlinked_4
    [submodel] GTR 0.085992 0.008153 0.014536 0.018530 0.055383 
    [statefreq] 0.167587 0.049568 0.380033 0.402812 
[rates] 0 10.475695 0 

[MODEL] csSim_unlinked_5
    [submodel] GTR 0.101625 0.019084 0.009833 0.042898 0.042986 
    [statefreq] 0.176218 0.043199 0.506596 0.273987 
[rates] 0 6.442711 0 

[MODEL] csSim_unlinked_6
    [submodel] GTR 0.064276 0.013626 0.007312 0.016381 0.042391 
    [statefreq] 0.114785 0.081852 0.638640 0.164723 
[rates] 0 11.298140 0 

[MODEL] csSim_unlinked_7
    [submodel] GTR 0.140816 0.004233 0.010640 0.037313 0.039026 
    [statefreq] 0.007720 0.227001 0.187483 0.577797 
[rates] 0 7.906266 0 

[MODEL] csSim_unlinked_8
    [submodel] GTR 0.107324 0.009406 0.029387 0.041013 0.058097 
    [statefreq] 0.111060 0.163494 0.422083 0.303362 
[rates] 0 31.233577 0 

[MODEL] csSim_unlinked_9
    [submodel] GTR 0.099683 0.004989 0.020018 0.056030 0.052307 
    [statefreq] 0.576728 0.039928 0.003968 0.379375 
[rates] 0 0.565560 0 

[MODEL] csSim_unlinked_10
    [submodel] GTR 0.088394 0.003562 0.015413 0.025116 0.042934 
    [statefreq] 0.104946 0.382742 0.213314 0.298998 
[rates] 0 10.741727 0 


[TREE] T01 (0_0_0:0.03981046,((1_0_5:0.00000803,((1_0_3:0.00000086,1_0_2:0.00000100):0.00000320,((1_0_1:0.00000090,(1_0_6:0.00000038,1_0_4:0.00000085):0.00000096):0.00000199,1_0_0:0.00000303):0.00000049):0.00000063):0.03574350,(((((7_0_2:0.00000033,7_0_0:0.00000018):0.00000394,(7_0_5:0.00000056,7_0_6:0.00000041):0.00000097):0.00000841,(7_0_4:0.00000174,7_0_3:0.00000530):0.00001445):0.00000262,7_0_1:0.00001478):0.02749189,((((4_0_3:0.00000133,4_0_0:0.00000123):0.00000385,(((4_0_5:0.00000053,4_0_2:0.00000126):0.00000004,4_0_1:0.00000230):0.00000187,(4_0_6:0.00000009,4_0_4:0.00000039):0.00000169):0.00000174):0.01655055,(6_0_2:0.00004664,(6_0_0:0.00000918,(6_0_3:0.00000817,((6_0_6:0.00000064,6_0_5:0.00000337):0.00000085,(6_0_4:0.00000023,6_0_1:0.00000003):0.00002567):0.00000188):0.00001163):0.00001965):0.02969789):0.00623109,((5_0_1:0.00000422,(((5_0_4:0.00000047,5_0_2:0.00000032):0.00000739,5_0_3:0.00000365):0.00000381,((5_0_5:0.00000185,5_0_0:0.00000205):0.00000091,5_0_6:0.00000343):0.00000302):0.00000033):0.03893483,((((2_0_2:0.00000638,((2_0_3:0.00000273,(2_0_5:0.00000037,2_0_6:0.00000015):0.00000005):0.00000110,2_0_0:0.00000341):0.00001014):0.00000420,2_0_4:0.00000611):0.00000897,2_0_1:0.00000771):0.01410324,(3_0_5:0.00001427,(3_0_6:0.00000947,((3_0_4:0.00000096,(3_0_1:0.00000090,3_0_2:0.00000025):0.00000221):0.00000063,(3_0_3:0.00000039,3_0_0:0.00000122):0.00000473):0.00000923):0.00000183):0.01752644):0.01807042):0.00081799):0.01719265):0.05664317):0.10905805);
[TREE] T02 ((((1_0_2:0.00000169,((1_0_4:0.00000022,1_0_3:0.00000006):0.00000596,((1_0_0:0.00000011,1_0_1:0.00000020):0.00000409,1_0_5:0.00000441):0.00000250):0.00000001):0.00000223,1_0_6:0.00000821):0.06345263,(((7_0_3:0.00000318,((7_0_2:0.00000056,7_0_5:0.00000162):0.00000070,(7_0_0:0.00000006,7_0_4:0.00000048):0.00000055):0.00000106):0.00000506,(7_0_1:0.00001999,7_0_6:0.00002041):0.00000245):0.07447418,(((((4_0_6:0.00000061,4_0_3:0.00000004):0.00000151,(4_0_4:0.00000197,4_0_2:0.00000361):0.00000016):0.00001626,((4_0_0:0.00000011,4_0_5:0.00000026):0.00001037,4_0_1:0.00000657):0.00007652):0.08539005,(6_0_3:0.00001826,(((((6_0_4:0.00000013,6_0_1:0.00000015):0.00000095,6_0_0:0.00000221):0.00000107,6_0_5:0.00000486):0.00000058,6_0_6:0.00000234):0.00000164,6_0_2:0.00001068):0.00001051):0.03555857):0.00307070,(((3_0_1:0.00001648,((3_0_3:0.00000196,(3_0_2:0.00000091,(3_0_6:0.00000032,3_0_4:0.00000106):0.00000027):0.00000096):0.00000173,(3_0_0:0.00000759,3_0_5:0.00000168):0.00000221):0.00001317):0.00661641,((((2_0_2:0.00000116,(2_0_5:0.00000071,2_0_1:0.00000168):0.00000262):0.00000024,2_0_3:0.00000121):0.00000020,(2_0_6:0.00000445,2_0_0:0.00000481):0.00000013):0.00000054,2_0_4:0.00000549):0.00736419):0.04223225,((5_0_4:0.00000090,(5_0_3:0.00000326,5_0_2:0.00000071):0.00000152):0.00004136,((5_0_6:0.00000011,5_0_5:0.00000143):0.00001054,(5_0_0:0.00000018,5_0_1:0.00000015):0.00000602):0.00011082):0.04389376):0.00285043):0.01183361):0.04605107):0.03031409,0_0_0:0.10901710);
[TREE] T03 (0_0_0:0.14548866,(((((((((4_0_4:0.00000017,4_0_6:0.00000006):0.00000026,4_0_5:0.00000015):0.00000446,4_0_0:0.00000197):0.00000703,(4_0_1:0.00000202,4_0_3:0.00000026):0.00000373):0.00002488,4_0_2:0.00000744):0.02051930,(((6_0_0:0.00000040,6_0_1:0.00000059):0.00000115,6_0_5:0.00000485):0.00001274,(6_0_3:0.00000708,((6_0_6:0.00000025,6_0_4:0.00000044):0.00000102,6_0_2:0.00000030):0.00000163):0.00001565):0.00444622):0.00700463,((((3_0_6:0.00001336,3_0_1:0.00000834):0.00001131,((3_0_5:0.00000018,3_0_4:0.00000013):0.00000349,(3_0_3:0.00000092,(3_0_2:0.00000014,3_0_0:0.00000021):0.00000006):0.00000584):0.00001464):0.01698856,(2_0_3:0.00000369,((2_0_0:0.00000229,((2_0_1:0.00000090,2_0_6:0.00000028):0.00000011,2_0_4:0.00000171):0.00000147):0.00000548,(2_0_2:0.00000009,2_0_5:0.00000310):0.00000079):0.00000154):0.04375100):0.00883586,(((5_0_0:0.00000029,(5_0_1:0.00000110,(5_0_2:0.00000013,5_0_4:0.00000006):0.00000095):0.00000073):0.00000166,(5_0_6:0.00000038,5_0_3:0.00000021):0.00000251):0.00000160,5_0_5:0.00000903):0.00945967):0.00089855):0.00508559,((((7_0_1:0.00000088,7_0_6:0.00000063):0.00000005,7_0_2:0.00000079):0.00000013,7_0_0:0.00000095):0.00001228,(7_0_5:0.00002143,(7_0_3:0.00000056,7_0_4:0.00000312):0.00000672):0.00000467):0.04433508):0.04729617,(((1_0_3:0.00000749,(1_0_4:0.00000177,1_0_2:0.00000048):0.00000756):0.00000963,(1_0_1:0.00000057,1_0_0:0.00000043):0.00001432):0.00002211,(1_0_6:0.00000146,1_0_5:0.00000165):0.00004979):0.10019829):0.03948872);
[TREE] T04 (((((1_0_4:0.00000087,1_0_1:0.00000390):0.00000058,(1_0_6:0.00000379,(1_0_2:0.00000013,1_0_5:0.00000207):0.00000048):0.00001330):0.00003183,(1_0_3:0.00000019,1_0_0:0.00000043):0.00000286):0.06778384,((((7_0_6:0.00000016,7_0_3:0.00000035):0.00000147,7_0_1:0.00000085):0.00001034,(7_0_0:0.00001974,((7_0_4:0.00000002,7_0_5:0.00000004):0.00000016,7_0_2:0.00000493):0.00000473):0.00000247):0.04194000,((((6_0_2:0.00001487,(6_0_0:0.00000387,(6_0_5:0.00000171,6_0_4:0.00000111):0.00000992):0.00000268):0.00000393,(6_0_6:0.00002109,(6_0_1:0.00000387,6_0_3:0.00000826):0.00000627):0.00004512):0.02726431,((4_0_3:0.00000591,(4_0_1:0.00000083,4_0_5:0.00000066):0.00000032):0.00006499,(4_0_6:0.00000055,(4_0_4:0.00000053,(4_0_2:0.00000019,4_0_0:0.00000068):0.00000148):0.00000203):0.00001034):0.01997921):0.00128919,(((((5_0_5:0.00000000,5_0_2:0.00000006):0.00000400,5_0_4:0.00000350):0.00000104,(5_0_3:0.00000022,5_0_1:0.00000041):0.00000523):0.00000739,(5_0_0:0.00001637,5_0_6:0.00000174):0.00001353):0.00928588,(((2_0_3:0.00000100,(2_0_0:0.00000006,2_0_6:0.00000004):0.00000216):0.00001793,(((2_0_4:0.00000105,2_0_2:0.00000098):0.00000058,2_0_1:0.00000125):0.00000368,2_0_5:0.00001052):0.00000158):0.02608297,((3_0_0:0.00000096,(3_0_6:0.00000089,3_0_2:0.00000073):0.00000083):0.00000188,((3_0_1:0.00000216,(3_0_5:0.00000062,3_0_4:0.00000040):0.00000149):0.00000785,3_0_3:0.00001512):0.00000042):0.01637330):0.01198975):0.00176557):0.01978064):0.06339077):0.02666129,0_0_0:0.07094335);
[TREE] T05 (((((((4_0_6:0.00000028,(4_0_1:0.00000072,4_0_5:0.00000115):0.00000072):0.00001574,(4_0_2:0.00001072,((4_0_0:0.00000007,4_0_4:0.00000015):0.00000363,4_0_3:0.00000241):0.00000256):0.00000753):0.00593561,(((6_0_3:0.00000439,(6_0_5:0.00000230,6_0_0:0.00000142):0.00000103):0.00000456,(6_0_2:0.00000502,6_0_1:0.00000717):0.00000562):0.00001812,(6_0_6:0.00000293,6_0_4:0.00000241):0.00008799):0.01902332):0.03303200,(((3_0_1:0.00000731,((3_0_3:0.00000511,(3_0_6:0.00000036,3_0_0:0.00000004):0.00000098):0.00000183,(3_0_2:0.00000180,(3_0_5:0.00000286,3_0_4:0.00000013):0.00000102):0.00000800):0.00000020):0.01988836,((2_0_6:0.00000358,2_0_4:0.00000193):0.00000626,(2_0_5:0.00000187,(((2_0_2:0.00000105,2_0_3:0.00000003):0.00000041,2_0_0:0.00000208):0.00000521,2_0_1:0.00000618):0.00000198):0.00000764):0.00128940):0.01585913,((5_0_1:0.00001375,5_0_5:0.00000512):0.00000248,(5_0_2:0.00001540,((5_0_4:0.00000205,5_0_3:0.00000104):0.00000042,(5_0_0:0.00000014,5_0_6:0.00000004):0.00000046):0.00000700):0.00000339):0.00630616):0.00041109):0.01512132,(((7_0_5:0.00000467,(7_0_2:0.00000003,7_0_6:0.00000001):0.00000990):0.00000038,7_0_4:0.00000852):0.00000169,((7_0_3:0.00000003,7_0_1:0.00000002):0.00000292,7_0_0:0.00000307):0.00001248):0.02412904):0.00788596,((1_0_1:0.00000066,(1_0_2:0.00000011,1_0_6:0.00000017):0.00000073):0.00002992,((1_0_3:0.00000025,(1_0_5:0.00000052,1_0_4:0.00000160):0.00000001):0.00000061,1_0_0:0.00000095):0.00001220):0.03395789):0.02799288,0_0_0:0.02859008);
[TREE] T06 ((((1_0_2:0.00000438,1_0_5:0.00003731):0.00002123,(((1_0_6:0.00000038,1_0_1:0.00000042):0.00000004,(1_0_4:0.00000042,1_0_0:0.00000037):0.00000042):0.00000160,1_0_3:0.00000123):0.00001390):0.14608726,(((7_0_4:0.00000194,(7_0_6:0.00000083,7_0_5:0.00000036):0.00000013):0.00001822,((7_0_3:0.00000117,7_0_0:0.00000205):0.00000963,(7_0_1:0.00000072,7_0_2:0.00000181):0.00000592):0.00000352):0.09302684,((((5_0_2:0.00000449,(5_0_4:0.00000004,5_0_3:0.00000005):0.00001084):0.00002501,(((5_0_5:0.00000213,5_0_0:0.00000137):0.00000001,5_0_6:0.00000222):0.00000021,5_0_1:0.00000272):0.00001513):0.00720698,(((3_0_6:0.00000076,(3_0_1:0.00000089,(3_0_4:0.00000030,3_0_2:0.00000025):0.00000289):0.00000002):0.00002200,((3_0_3:0.00000350,3_0_5:0.00000067):0.00001370,3_0_0:0.00001516):0.00000430):0.00541985,(((2_0_4:0.00000380,(2_0_2:0.00000066,2_0_5:0.00000087):0.00000026):0.00000035,((2_0_3:0.00000001,2_0_6:0.00000000):0.00000292,2_0_0:0.00000159):0.00000048):0.00000454,2_0_1:0.00000226):0.01164227):0.01483962):0.00102733,(((4_0_4:0.00000022,4_0_6:0.00000056):0.00000684,((((4_0_1:0.00000015,4_0_5:0.00000027):0.00000099,4_0_3:0.00000008):0.00000078,4_0_2:0.00000140):0.00000166,4_0_0:0.00000266):0.00001978):0.02080052,((6_0_6:0.00000962,6_0_5:0.00000093):0.00000975,((6_0_1:0.00000226,(6_0_3:0.00000004,6_0_2:0.00000020):0.00000288):0.00001452,(6_0_4:0.00000628,6_0_0:0.00000375):0.00000972):0.00000131):0.02424279):0.00663694):0.00190020):0.05372052):0.03791701,0_0_0:0.30393176);
[TREE] T07 (0_0_0:0.09115323,((((((4_0_2:0.00000332,((4_0_4:0.00000032,4_0_1:0.00000012):0.00000077,4_0_0:0.00000153):0.00000207):0.00000909,((4_0_6:0.00000060,4_0_5:0.00000067):0.00000005,4_0_3:0.00000090):0.00003108):0.02835596,(6_0_6:0.00001161,((((6_0_3:0.00000008,6_0_5:0.00000002):0.00000090,(6_0_2:0.00000003,6_0_4:0.00000051):0.00000023):0.00000111,6_0_0:0.00000096):0.00000735,6_0_1:0.00000316):0.00000492):0.00592368):0.01232800,((5_0_2:0.00001549,((5_0_1:0.00000046,((5_0_0:0.00000041,(5_0_4:0.00000015,5_0_6:0.00000006):0.00000124):0.00000230,5_0_5:0.00001014):0.00000057):0.00000289,5_0_3:0.00001991):0.00000229):0.02436530,((((3_0_1:0.00000227,3_0_2:0.00000035):0.00000089,(3_0_6:0.00000261,3_0_0:0.00000112):0.00000119):0.00000805,(3_0_4:0.00001094,(3_0_3:0.00000188,3_0_5:0.00000182):0.00000249):0.00000629):0.00253937,(((2_0_2:0.00000060,2_0_6:0.00000044):0.00000897,(2_0_0:0.00000164,(2_0_5:0.00000014,2_0_4:0.00000034):0.00000059):0.00001574):0.00001631,(2_0_3:0.00000737,2_0_1:0.00000116):0.00000322):0.00719647):0.00898405):0.00165647):0.01388971,((7_0_0:0.00000600,(7_0_3:0.00000083,7_0_1:0.00000087):0.00000293):0.00002144,(7_0_5:0.00000792,(7_0_4:0.00000101,(7_0_6:0.00000033,7_0_2:0.00000020):0.00000187):0.00000125):0.00001155):0.04117393):0.01868470,(1_0_2:0.00000734,(1_0_6:0.00000216,((1_0_1:0.00000040,1_0_4:0.00000047):0.00000472,(1_0_0:0.00000109,(1_0_5:0.00000060,1_0_3:0.00000039):0.00000078):0.00000221):0.00000403):0.00000187):0.11525943):0.04686378);
[TREE] T08 (((((((((5_0_3:0.00000023,(5_0_5:0.00000015,5_0_6:0.00000075):0.00000017):0.00000218,(5_0_0:0.00000005,5_0_2:0.00000012):0.00000204):0.00000043,5_0_4:0.00000336):0.00000359,5_0_1:0.00000721):0.02058631,((((2_0_1:0.00000049,2_0_5:0.00000160):0.00000457,((2_0_6:0.00000094,2_0_2:0.00000055):0.00000029,2_0_0:0.00000126):0.00000362):0.00000219,(2_0_4:0.00000304,2_0_3:0.00000188):0.00000018):0.01768981,(3_0_1:0.00001912,(((3_0_2:0.00000008,3_0_0:0.00000020):0.00000022,((3_0_5:0.00000001,3_0_3:0.00000002):0.00000106,3_0_6:0.00000074):0.00000068):0.00000370,3_0_4:0.00000640):0.00000985):0.00655536):0.00291802):0.00176264,(((6_0_1:0.00000781,(((6_0_3:0.00000041,6_0_4:0.00000012):0.00000225,6_0_5:0.00000109):0.00000171,6_0_2:0.00000205):0.00000051):0.00000107,(6_0_0:0.00000024,6_0_6:0.00000042):0.00000334):0.01078301,(((4_0_3:0.00000094,((4_0_2:0.00000015,4_0_5:0.00000131):0.00000037,4_0_6:0.00000083):0.00000054):0.00000199,4_0_0:0.00000538):0.00001135,(4_0_1:0.00000008,4_0_4:0.00000003):0.00004109):0.00687079):0.00538115):0.01134296,(((7_0_4:0.00000072,7_0_2:0.00000012):0.00000173,(7_0_6:0.00000030,(7_0_1:0.00000085,(7_0_5:0.00000212,7_0_3:0.00000126):0.00000127):0.00000095):0.00000243):0.00000348,7_0_0:0.00000993):0.04591894):0.01699847,(((1_0_5:0.00000123,((1_0_2:0.00000034,1_0_3:0.00000002):0.00000123,(1_0_4:0.00000049,1_0_0:0.00000029):0.00000054):0.00000052):0.00000117,1_0_1:0.00000510):0.00000914,1_0_6:0.00000847):0.05571110):0.12006532,0_0_0:0.22114181);
[TREE] T09 (0_0_0:0.14837177,((((7_0_6:0.00000515,((7_0_4:0.00000092,7_0_5:0.00000057):0.00000077,7_0_0:0.00000386):0.00000097):0.00000151,(7_0_2:0.00000242,(7_0_1:0.00000051,7_0_3:0.00000153):0.00000066):0.00000796):0.02403102,((((5_0_0:0.00000444,(((5_0_4:0.00000027,5_0_3:0.00000043):0.00000055,5_0_1:0.00000038):0.00000116,5_0_6:0.00000470):0.00000605):0.00000349,(5_0_2:0.00000018,5_0_5:0.00000050):0.00003216):0.01607219,((((3_0_0:0.00000093,3_0_4:0.00000060):0.00000551,(3_0_6:0.00000044,3_0_1:0.00000071):0.00000500):0.00000016,(3_0_3:0.00000058,(3_0_5:0.00000020,3_0_2:0.00000027):0.00000013):0.00000527):0.01108371,((2_0_4:0.00001105,((2_0_1:0.00000094,2_0_6:0.00000215):0.00000000,2_0_0:0.00000192):0.00000268):0.00000256,((2_0_3:0.00000655,2_0_5:0.00000343):0.00000169,2_0_2:0.00000241):0.00001026):0.01398620):0.03426037):0.00298580,((((4_0_4:0.00000032,4_0_1:0.00000029):0.00000031,4_0_0:0.00000062):0.00003208,((4_0_5:0.00000001,4_0_3:0.00000001):0.00000581,(4_0_6:0.00000039,4_0_2:0.00000015):0.00000553):0.00001368):0.01491812,(((6_0_4:0.00000001,6_0_1:0.00000002):0.00000499,(6_0_2:0.00000005,6_0_0:0.00000011):0.00000336):0.00000246,(6_0_3:0.00000065,(6_0_6:0.00000022,6_0_5:0.00000012):0.00000007):0.00000429):0.00280490):0.01491555):0.00229620):0.03746505,((1_0_0:0.00000300,1_0_4:0.00000024):0.00003145,(((1_0_1:0.00000077,1_0_2:0.00000050):0.00000135,(1_0_6:0.00000021,1_0_3:0.00000056):0.00000030):0.00002769,1_0_5:0.00001151):0.00001348):0.15885564):0.10262741);
[TREE] T10 (0_0_0:0.07538105,((((1_0_1:0.00000265,(1_0_4:0.00000142,1_0_5:0.00000056):0.00000133):0.00000269,(1_0_0:0.00000030,1_0_3:0.00000051):0.00000702):0.00000966,(1_0_6:0.00000001,1_0_2:0.00000002):0.00000215):0.05915906,((((((4_0_2:0.00000030,(4_0_6:0.00000015,4_0_4:0.00000091):0.00000010):0.00000186,(4_0_3:0.00000077,4_0_0:0.00000135):0.00000011):0.00000344,(4_0_5:0.00000049,4_0_1:0.00000093):0.00002185):0.01470233,(6_0_1:0.00000575,(6_0_3:0.00000115,(6_0_5:0.00000019,((6_0_2:0.00000065,(6_0_4:0.00000002,6_0_0:0.00000012):0.00000035):0.00000025,6_0_6:0.00000055):0.00000019):0.00000018):0.00000171):0.01778032):0.00766183,(((((((2_0_4:0.00000034,2_0_2:0.00000007):0.00000141,2_0_6:0.00000123):0.00000144,2_0_3:0.00000277):0.00000406,(2_0_5:0.00000082,2_0_0:0.00000041):0.00000228):0.00000054,2_0_1:0.00000113):0.00171583,(3_0_2:0.00003762,(3_0_6:0.00000431,((((3_0_0:0.00000030,3_0_3:0.00000024):0.00000067,3_0_1:0.00000041):0.00000034,3_0_4:0.00000605):0.00000100,3_0_5:0.00000025):0.00000022):0.00002091):0.00369594):0.02014021,((5_0_2:0.00000912,(5_0_6:0.00000023,5_0_3:0.00000022):0.00000484):0.00000793,(((5_0_4:0.00000011,5_0_5:0.00000015):0.00000213,5_0_0:0.00000180):0.00000227,5_0_1:0.00000697):0.00000291):0.04539876):0.00381354):0.00436221,(((7_0_6:0.00000027,7_0_3:0.00000036):0.00001665,((7_0_4:0.00000131,7_0_2:0.00000073):0.00000031,(7_0_1:0.00000086,7_0_5:0.00000041):0.00000118):0.00001079):0.00002480,7_0_0:0.00004074):0.01270056):0.07927809):0.08996984);

[PARTITIONS] csSimUnlinked_01 [T01 csSim_unlinked_1 500]
[PARTITIONS] csSimUnlinked_02 [T02 csSim_unlinked_2 500]
[PARTITIONS] csSimUnlinked_03 [T03 csSim_unlinked_3 500]
[PARTITIONS] csSimUnlinked_04 [T04 csSim_unlinked_4 500]
[PARTITIONS] csSimUnlinked_05 [T05 csSim_unlinked_5 500]
[PARTITIONS] csSimUnlinked_06 [T06 csSim_unlinked_6 500]
[PARTITIONS] csSimUnlinked_07 [T07 csSim_unlinked_7 500]
[PARTITIONS] csSimUnlinked_08 [T08 csSim_unlinked_8 500]
[PARTITIONS] csSimUnlinked_09 [T09 csSim_unlinked_9 500]
[PARTITIONS] csSimUnlinked_10 [T10 csSim_unlinked_10 500]

[EVOLVE] csSimUnlinked_01 1 data_01
csSimUnlinked_02 1 data_02
csSimUnlinked_03 1 data_03
csSimUnlinked_04 1 data_04
csSimUnlinked_05 1 data_05
csSimUnlinked_06 1 data_06
csSimUnlinked_07 1 data_07
csSimUnlinked_08 1 data_08
csSimUnlinked_09 1 data_09
csSimUnlinked_10 1 data_10
