"","Description","Ind1","Ind2","Ind3","Ind4","Ind5","Ind6","Ind7","Ind8","Ind9","Ind10","Ind11","Ind12","Ind13","Ind14","Ind15","Ind16","Ind17","Ind18","Ind19","Ind20","Ind21","Ind22","Ind23","Ind24","Ind25","Ind26","Ind27","Ind28","Ind29","Ind30","Ind31","Ind32","Ind33","Ind34","Ind35","Ind36","Ind37","Ind38","Ind39","Ind40","Ind41","Ind42","Ind43","Ind44","Ind45","Ind46","Ind47","Ind48","Ind49","Ind50","Ind51","Ind52","Ind53","Ind54","Ind55","Ind56","Ind57","Ind58","Ind59","Ind60","Ind61","Ind62","Ind63","Ind64","Ind65","Ind66","Ind67","Ind68","Ind69","Ind70","Ind71","Ind72","Ind73","Ind74","Ind75","Ind76","Ind77","Ind78","Ind79","Ind80","Ind81","Ind82","Ind83","Ind84","Ind85","Ind86","Ind87","Ind88","Ind89","Ind90","Ind91","Ind92","Ind93","Ind94","Ind95","Ind96","Ind97","Ind98","Ind99","Ind100","Ind101","Ind102","Ind103","Ind104","Ind105","Ind106","Ind107","Ind108","Ind109","Ind110","Ind111","Ind112","Ind113","Ind114","Ind115","Ind116","Ind117","Ind118","Ind119","Ind120","Ind121","Ind122","Ind123","Ind124","Ind125","Ind126","Ind127","Ind128","Ind129","Ind130","Ind131","Ind132","Ind133","Ind134","Ind135","Ind136","Ind137","Ind138","Ind139","Ind140","Ind141","Ind142","Ind143","Ind144","Ind145","Ind146","Ind147","Ind148","Ind149","Ind150","Ind151","Ind152","Ind153","Ind154","Ind155","Ind156","Ind157","Ind158","Ind159","Ind160","Ind161","Ind162","Ind163","Ind164","Ind165","Ind166","Ind167","Ind168","Ind169","Ind170","Ind171","Ind172"
"Ind1","0_0_0",-1,0,0,0,0,0,0,0,0,0,0,0,0,0,0,0,0,0,0,0,0,0,0,0,0,0,0,0,0,0,0,0,0,0,0,0,0,0,0,0,0,0,0,0,0,0,0,0,0,0,0,0,0,0,0,0,0,0,0,0,0,0,0,0,0,0,0,0,0,0,0,0,0,0,0,0,0,0,0,0,0,0,0,0,0,0,0,0,0,0,0,0,0,0,0,0,0,0,0,0,0,0,0,0,0,0,0,0,0,0,0,0,0,0,0,0,0,0,0,0,0,0,0,0,0,0,0,0,0,0,0,0,0,0,0,0,0,0,0,0,0,0,0,0,0,0,0,0,0,0,0,0,0,0,0,0,0,0,0,0,0,0,0,0,0,0,0,0,0,0,0,0
"Ind2","2_0_4",67,-1,0,0,0,0,0,0,0,0,0,0,0,0,0,0,0,0,0,0,0,0,0,0,0,0,0,0,0,0,0,0,0,0,0,0,0,0,0,0,0,0,0,0,0,0,0,0,0,0,0,0,0,0,0,0,0,0,0,0,0,0,0,0,0,0,0,0,0,0,0,0,0,0,0,0,0,0,0,0,0,0,0,0,0,0,0,0,0,0,0,0,0,0,0,0,0,0,0,0,0,0,0,0,0,0,0,0,0,0,0,0,0,0,0,0,0,0,0,0,0,0,0,0,0,0,0,0,0,0,0,0,0,0,0,0,0,0,0,0,0,0,0,0,0,0,0,0,0,0,0,0,0,0,0,0,0,0,0,0,0,0,0,0,0,0,0,0,0,0,0,0
"Ind3","2_0_8",67,0,-1,0,0,0,0,0,0,0,0,0,0,0,0,0,0,0,0,0,0,0,0,0,0,0,0,0,0,0,0,0,0,0,0,0,0,0,0,0,0,0,0,0,0,0,0,0,0,0,0,0,0,0,0,0,0,0,0,0,0,0,0,0,0,0,0,0,0,0,0,0,0,0,0,0,0,0,0,0,0,0,0,0,0,0,0,0,0,0,0,0,0,0,0,0,0,0,0,0,0,0,0,0,0,0,0,0,0,0,0,0,0,0,0,0,0,0,0,0,0,0,0,0,0,0,0,0,0,0,0,0,0,0,0,0,0,0,0,0,0,0,0,0,0,0,0,0,0,0,0,0,0,0,0,0,0,0,0,0,0,0,0,0,0,0,0,0,0,0,0,0
"Ind4","2_0_3",67,0,0,-1,0,0,0,0,0,0,0,0,0,0,0,0,0,0,0,0,0,0,0,0,0,0,0,0,0,0,0,0,0,0,0,0,0,0,0,0,0,0,0,0,0,0,0,0,0,0,0,0,0,0,0,0,0,0,0,0,0,0,0,0,0,0,0,0,0,0,0,0,0,0,0,0,0,0,0,0,0,0,0,0,0,0,0,0,0,0,0,0,0,0,0,0,0,0,0,0,0,0,0,0,0,0,0,0,0,0,0,0,0,0,0,0,0,0,0,0,0,0,0,0,0,0,0,0,0,0,0,0,0,0,0,0,0,0,0,0,0,0,0,0,0,0,0,0,0,0,0,0,0,0,0,0,0,0,0,0,0,0,0,0,0,0,0,0,0,0,0,0
"Ind5","2_0_2",67,0,0,0,-1,0,0,0,0,0,0,0,0,0,0,0,0,0,0,0,0,0,0,0,0,0,0,0,0,0,0,0,0,0,0,0,0,0,0,0,0,0,0,0,0,0,0,0,0,0,0,0,0,0,0,0,0,0,0,0,0,0,0,0,0,0,0,0,0,0,0,0,0,0,0,0,0,0,0,0,0,0,0,0,0,0,0,0,0,0,0,0,0,0,0,0,0,0,0,0,0,0,0,0,0,0,0,0,0,0,0,0,0,0,0,0,0,0,0,0,0,0,0,0,0,0,0,0,0,0,0,0,0,0,0,0,0,0,0,0,0,0,0,0,0,0,0,0,0,0,0,0,0,0,0,0,0,0,0,0,0,0,0,0,0,0,0,0,0,0,0,0
"Ind6","2_0_5",67,0,0,0,0,-1,0,0,0,0,0,0,0,0,0,0,0,0,0,0,0,0,0,0,0,0,0,0,0,0,0,0,0,0,0,0,0,0,0,0,0,0,0,0,0,0,0,0,0,0,0,0,0,0,0,0,0,0,0,0,0,0,0,0,0,0,0,0,0,0,0,0,0,0,0,0,0,0,0,0,0,0,0,0,0,0,0,0,0,0,0,0,0,0,0,0,0,0,0,0,0,0,0,0,0,0,0,0,0,0,0,0,0,0,0,0,0,0,0,0,0,0,0,0,0,0,0,0,0,0,0,0,0,0,0,0,0,0,0,0,0,0,0,0,0,0,0,0,0,0,0,0,0,0,0,0,0,0,0,0,0,0,0,0,0,0,0,0,0,0,0,0
"Ind7","2_0_0",67,0,0,0,0,0,-1,0,0,0,0,0,0,0,0,0,0,0,0,0,0,0,0,0,0,0,0,0,0,0,0,0,0,0,0,0,0,0,0,0,0,0,0,0,0,0,0,0,0,0,0,0,0,0,0,0,0,0,0,0,0,0,0,0,0,0,0,0,0,0,0,0,0,0,0,0,0,0,0,0,0,0,0,0,0,0,0,0,0,0,0,0,0,0,0,0,0,0,0,0,0,0,0,0,0,0,0,0,0,0,0,0,0,0,0,0,0,0,0,0,0,0,0,0,0,0,0,0,0,0,0,0,0,0,0,0,0,0,0,0,0,0,0,0,0,0,0,0,0,0,0,0,0,0,0,0,0,0,0,0,0,0,0,0,0,0,0,0,0,0,0,0
"Ind8","2_0_7",67,0,0,0,0,0,0,-1,0,0,0,0,0,0,0,0,0,0,0,0,0,0,0,0,0,0,0,0,0,0,0,0,0,0,0,0,0,0,0,0,0,0,0,0,0,0,0,0,0,0,0,0,0,0,0,0,0,0,0,0,0,0,0,0,0,0,0,0,0,0,0,0,0,0,0,0,0,0,0,0,0,0,0,0,0,0,0,0,0,0,0,0,0,0,0,0,0,0,0,0,0,0,0,0,0,0,0,0,0,0,0,0,0,0,0,0,0,0,0,0,0,0,0,0,0,0,0,0,0,0,0,0,0,0,0,0,0,0,0,0,0,0,0,0,0,0,0,0,0,0,0,0,0,0,0,0,0,0,0,0,0,0,0,0,0,0,0,0,0,0,0,0
"Ind9","2_0_6",67,0,0,0,0,0,0,0,-1,0,0,0,0,0,0,0,0,0,0,0,0,0,0,0,0,0,0,0,0,0,0,0,0,0,0,0,0,0,0,0,0,0,0,0,0,0,0,0,0,0,0,0,0,0,0,0,0,0,0,0,0,0,0,0,0,0,0,0,0,0,0,0,0,0,0,0,0,0,0,0,0,0,0,0,0,0,0,0,0,0,0,0,0,0,0,0,0,0,0,0,0,0,0,0,0,0,0,0,0,0,0,0,0,0,0,0,0,0,0,0,0,0,0,0,0,0,0,0,0,0,0,0,0,0,0,0,0,0,0,0,0,0,0,0,0,0,0,0,0,0,0,0,0,0,0,0,0,0,0,0,0,0,0,0,0,0,0,0,0,0,0,0
"Ind10","2_0_1",67,0,0,0,0,0,0,0,0,-1,0,0,0,0,0,0,0,0,0,0,0,0,0,0,0,0,0,0,0,0,0,0,0,0,0,0,0,0,0,0,0,0,0,0,0,0,0,0,0,0,0,0,0,0,0,0,0,0,0,0,0,0,0,0,0,0,0,0,0,0,0,0,0,0,0,0,0,0,0,0,0,0,0,0,0,0,0,0,0,0,0,0,0,0,0,0,0,0,0,0,0,0,0,0,0,0,0,0,0,0,0,0,0,0,0,0,0,0,0,0,0,0,0,0,0,0,0,0,0,0,0,0,0,0,0,0,0,0,0,0,0,0,0,0,0,0,0,0,0,0,0,0,0,0,0,0,0,0,0,0,0,0,0,0,0,0,0,0,0,0,0,0
"Ind11","1_0_4",71,40,40,40,40,40,40,40,40,40,-1,0,0,0,0,0,0,0,0,0,0,0,0,0,0,0,0,0,0,0,0,0,0,0,0,0,0,0,0,0,0,0,0,0,0,0,0,0,0,0,0,0,0,0,0,0,0,0,0,0,0,0,0,0,0,0,0,0,0,0,0,0,0,0,0,0,0,0,0,0,0,0,0,0,0,0,0,0,0,0,0,0,0,0,0,0,0,0,0,0,0,0,0,0,0,0,0,0,0,0,0,0,0,0,0,0,0,0,0,0,0,0,0,0,0,0,0,0,0,0,0,0,0,0,0,0,0,0,0,0,0,0,0,0,0,0,0,0,0,0,0,0,0,0,0,0,0,0,0,0,0,0,0,0,0,0,0,0,0,0,0,0
"Ind12","1_0_2",71,40,40,40,40,40,40,40,40,40,0,-1,0,0,0,0,0,0,0,0,0,0,0,0,0,0,0,0,0,0,0,0,0,0,0,0,0,0,0,0,0,0,0,0,0,0,0,0,0,0,0,0,0,0,0,0,0,0,0,0,0,0,0,0,0,0,0,0,0,0,0,0,0,0,0,0,0,0,0,0,0,0,0,0,0,0,0,0,0,0,0,0,0,0,0,0,0,0,0,0,0,0,0,0,0,0,0,0,0,0,0,0,0,0,0,0,0,0,0,0,0,0,0,0,0,0,0,0,0,0,0,0,0,0,0,0,0,0,0,0,0,0,0,0,0,0,0,0,0,0,0,0,0,0,0,0,0,0,0,0,0,0,0,0,0,0,0,0,0,0,0,0
"Ind13","1_0_0",71,40,40,40,40,40,40,40,40,40,0,0,-1,0,0,0,0,0,0,0,0,0,0,0,0,0,0,0,0,0,0,0,0,0,0,0,0,0,0,0,0,0,0,0,0,0,0,0,0,0,0,0,0,0,0,0,0,0,0,0,0,0,0,0,0,0,0,0,0,0,0,0,0,0,0,0,0,0,0,0,0,0,0,0,0,0,0,0,0,0,0,0,0,0,0,0,0,0,0,0,0,0,0,0,0,0,0,0,0,0,0,0,0,0,0,0,0,0,0,0,0,0,0,0,0,0,0,0,0,0,0,0,0,0,0,0,0,0,0,0,0,0,0,0,0,0,0,0,0,0,0,0,0,0,0,0,0,0,0,0,0,0,0,0,0,0,0,0,0,0,0,0
"Ind14","1_0_1",71,40,40,40,40,40,40,40,40,40,0,0,0,-1,0,0,0,0,0,0,0,0,0,0,0,0,0,0,0,0,0,0,0,0,0,0,0,0,0,0,0,0,0,0,0,0,0,0,0,0,0,0,0,0,0,0,0,0,0,0,0,0,0,0,0,0,0,0,0,0,0,0,0,0,0,0,0,0,0,0,0,0,0,0,0,0,0,0,0,0,0,0,0,0,0,0,0,0,0,0,0,0,0,0,0,0,0,0,0,0,0,0,0,0,0,0,0,0,0,0,0,0,0,0,0,0,0,0,0,0,0,0,0,0,0,0,0,0,0,0,0,0,0,0,0,0,0,0,0,0,0,0,0,0,0,0,0,0,0,0,0,0,0,0,0,0,0,0,0,0,0,0
"Ind15","1_0_7",71,40,40,40,40,40,40,40,40,40,0,0,0,0,-1,0,0,0,0,0,0,0,0,0,0,0,0,0,0,0,0,0,0,0,0,0,0,0,0,0,0,0,0,0,0,0,0,0,0,0,0,0,0,0,0,0,0,0,0,0,0,0,0,0,0,0,0,0,0,0,0,0,0,0,0,0,0,0,0,0,0,0,0,0,0,0,0,0,0,0,0,0,0,0,0,0,0,0,0,0,0,0,0,0,0,0,0,0,0,0,0,0,0,0,0,0,0,0,0,0,0,0,0,0,0,0,0,0,0,0,0,0,0,0,0,0,0,0,0,0,0,0,0,0,0,0,0,0,0,0,0,0,0,0,0,0,0,0,0,0,0,0,0,0,0,0,0,0,0,0,0,0
"Ind16","1_0_6",71,40,40,40,40,40,40,40,40,40,0,0,0,0,0,-1,0,0,0,0,0,0,0,0,0,0,0,0,0,0,0,0,0,0,0,0,0,0,0,0,0,0,0,0,0,0,0,0,0,0,0,0,0,0,0,0,0,0,0,0,0,0,0,0,0,0,0,0,0,0,0,0,0,0,0,0,0,0,0,0,0,0,0,0,0,0,0,0,0,0,0,0,0,0,0,0,0,0,0,0,0,0,0,0,0,0,0,0,0,0,0,0,0,0,0,0,0,0,0,0,0,0,0,0,0,0,0,0,0,0,0,0,0,0,0,0,0,0,0,0,0,0,0,0,0,0,0,0,0,0,0,0,0,0,0,0,0,0,0,0,0,0,0,0,0,0,0,0,0,0,0,0
"Ind17","1_0_5",71,40,40,40,40,40,40,40,40,40,0,0,0,0,0,0,-1,0,0,0,0,0,0,0,0,0,0,0,0,0,0,0,0,0,0,0,0,0,0,0,0,0,0,0,0,0,0,0,0,0,0,0,0,0,0,0,0,0,0,0,0,0,0,0,0,0,0,0,0,0,0,0,0,0,0,0,0,0,0,0,0,0,0,0,0,0,0,0,0,0,0,0,0,0,0,0,0,0,0,0,0,0,0,0,0,0,0,0,0,0,0,0,0,0,0,0,0,0,0,0,0,0,0,0,0,0,0,0,0,0,0,0,0,0,0,0,0,0,0,0,0,0,0,0,0,0,0,0,0,0,0,0,0,0,0,0,0,0,0,0,0,0,0,0,0,0,0,0,0,0,0,0
"Ind18","1_0_3",71,40,40,40,40,40,40,40,40,40,0,0,0,0,0,0,0,-1,0,0,0,0,0,0,0,0,0,0,0,0,0,0,0,0,0,0,0,0,0,0,0,0,0,0,0,0,0,0,0,0,0,0,0,0,0,0,0,0,0,0,0,0,0,0,0,0,0,0,0,0,0,0,0,0,0,0,0,0,0,0,0,0,0,0,0,0,0,0,0,0,0,0,0,0,0,0,0,0,0,0,0,0,0,0,0,0,0,0,0,0,0,0,0,0,0,0,0,0,0,0,0,0,0,0,0,0,0,0,0,0,0,0,0,0,0,0,0,0,0,0,0,0,0,0,0,0,0,0,0,0,0,0,0,0,0,0,0,0,0,0,0,0,0,0,0,0,0,0,0,0,0,0
"Ind19","1_0_8",71,40,40,40,40,40,40,40,40,40,0,0,0,0,0,0,0,0,-1,0,0,0,0,0,0,0,0,0,0,0,0,0,0,0,0,0,0,0,0,0,0,0,0,0,0,0,0,0,0,0,0,0,0,0,0,0,0,0,0,0,0,0,0,0,0,0,0,0,0,0,0,0,0,0,0,0,0,0,0,0,0,0,0,0,0,0,0,0,0,0,0,0,0,0,0,0,0,0,0,0,0,0,0,0,0,0,0,0,0,0,0,0,0,0,0,0,0,0,0,0,0,0,0,0,0,0,0,0,0,0,0,0,0,0,0,0,0,0,0,0,0,0,0,0,0,0,0,0,0,0,0,0,0,0,0,0,0,0,0,0,0,0,0,0,0,0,0,0,0,0,0,0
"Ind20","17_0_4",80,50,50,50,50,50,50,50,50,50,48,48,48,48,48,48,48,48,48,-1,0,0,0,0,0,0,0,0,0,0,0,0,0,0,0,0,0,0,0,0,0,0,0,0,0,0,0,0,0,0,0,0,0,0,0,0,0,0,0,0,0,0,0,0,0,0,0,0,0,0,0,0,0,0,0,0,0,0,0,0,0,0,0,0,0,0,0,0,0,0,0,0,0,0,0,0,0,0,0,0,0,0,0,0,0,0,0,0,0,0,0,0,0,0,0,0,0,0,0,0,0,0,0,0,0,0,0,0,0,0,0,0,0,0,0,0,0,0,0,0,0,0,0,0,0,0,0,0,0,0,0,0,0,0,0,0,0,0,0,0,0,0,0,0,0,0,0,0,0,0,0,0
"Ind21","17_0_6",80,50,50,50,50,50,50,50,50,50,48,48,48,48,48,48,48,48,48,0,-1,0,0,0,0,0,0,0,0,0,0,0,0,0,0,0,0,0,0,0,0,0,0,0,0,0,0,0,0,0,0,0,0,0,0,0,0,0,0,0,0,0,0,0,0,0,0,0,0,0,0,0,0,0,0,0,0,0,0,0,0,0,0,0,0,0,0,0,0,0,0,0,0,0,0,0,0,0,0,0,0,0,0,0,0,0,0,0,0,0,0,0,0,0,0,0,0,0,0,0,0,0,0,0,0,0,0,0,0,0,0,0,0,0,0,0,0,0,0,0,0,0,0,0,0,0,0,0,0,0,0,0,0,0,0,0,0,0,0,0,0,0,0,0,0,0,0,0,0,0,0,0
"Ind22","17_0_5",80,50,50,50,50,50,50,50,50,50,48,48,48,48,48,48,48,48,48,0,0,-1,0,0,0,0,0,0,0,0,0,0,0,0,0,0,0,0,0,0,0,0,0,0,0,0,0,0,0,0,0,0,0,0,0,0,0,0,0,0,0,0,0,0,0,0,0,0,0,0,0,0,0,0,0,0,0,0,0,0,0,0,0,0,0,0,0,0,0,0,0,0,0,0,0,0,0,0,0,0,0,0,0,0,0,0,0,0,0,0,0,0,0,0,0,0,0,0,0,0,0,0,0,0,0,0,0,0,0,0,0,0,0,0,0,0,0,0,0,0,0,0,0,0,0,0,0,0,0,0,0,0,0,0,0,0,0,0,0,0,0,0,0,0,0,0,0,0,0,0,0,0
"Ind23","17_0_8",79,49,49,49,49,49,49,49,49,49,47,47,47,47,47,47,47,47,47,1,1,1,-1,0,0,0,0,0,0,0,0,0,0,0,0,0,0,0,0,0,0,0,0,0,0,0,0,0,0,0,0,0,0,0,0,0,0,0,0,0,0,0,0,0,0,0,0,0,0,0,0,0,0,0,0,0,0,0,0,0,0,0,0,0,0,0,0,0,0,0,0,0,0,0,0,0,0,0,0,0,0,0,0,0,0,0,0,0,0,0,0,0,0,0,0,0,0,0,0,0,0,0,0,0,0,0,0,0,0,0,0,0,0,0,0,0,0,0,0,0,0,0,0,0,0,0,0,0,0,0,0,0,0,0,0,0,0,0,0,0,0,0,0,0,0,0,0,0,0,0,0,0
"Ind24","17_0_1",79,49,49,49,49,49,49,49,49,49,47,47,47,47,47,47,47,47,47,1,1,1,0,-1,0,0,0,0,0,0,0,0,0,0,0,0,0,0,0,0,0,0,0,0,0,0,0,0,0,0,0,0,0,0,0,0,0,0,0,0,0,0,0,0,0,0,0,0,0,0,0,0,0,0,0,0,0,0,0,0,0,0,0,0,0,0,0,0,0,0,0,0,0,0,0,0,0,0,0,0,0,0,0,0,0,0,0,0,0,0,0,0,0,0,0,0,0,0,0,0,0,0,0,0,0,0,0,0,0,0,0,0,0,0,0,0,0,0,0,0,0,0,0,0,0,0,0,0,0,0,0,0,0,0,0,0,0,0,0,0,0,0,0,0,0,0,0,0,0,0,0,0
"Ind25","17_0_2",79,49,49,49,49,49,49,49,49,49,47,47,47,47,47,47,47,47,47,1,1,1,0,0,-1,0,0,0,0,0,0,0,0,0,0,0,0,0,0,0,0,0,0,0,0,0,0,0,0,0,0,0,0,0,0,0,0,0,0,0,0,0,0,0,0,0,0,0,0,0,0,0,0,0,0,0,0,0,0,0,0,0,0,0,0,0,0,0,0,0,0,0,0,0,0,0,0,0,0,0,0,0,0,0,0,0,0,0,0,0,0,0,0,0,0,0,0,0,0,0,0,0,0,0,0,0,0,0,0,0,0,0,0,0,0,0,0,0,0,0,0,0,0,0,0,0,0,0,0,0,0,0,0,0,0,0,0,0,0,0,0,0,0,0,0,0,0,0,0,0,0,0
"Ind26","17_0_3",79,49,49,49,49,49,49,49,49,49,47,47,47,47,47,47,47,47,47,1,1,1,0,0,0,-1,0,0,0,0,0,0,0,0,0,0,0,0,0,0,0,0,0,0,0,0,0,0,0,0,0,0,0,0,0,0,0,0,0,0,0,0,0,0,0,0,0,0,0,0,0,0,0,0,0,0,0,0,0,0,0,0,0,0,0,0,0,0,0,0,0,0,0,0,0,0,0,0,0,0,0,0,0,0,0,0,0,0,0,0,0,0,0,0,0,0,0,0,0,0,0,0,0,0,0,0,0,0,0,0,0,0,0,0,0,0,0,0,0,0,0,0,0,0,0,0,0,0,0,0,0,0,0,0,0,0,0,0,0,0,0,0,0,0,0,0,0,0,0,0,0,0
"Ind27","17_0_0",79,49,49,49,49,49,49,49,49,49,47,47,47,47,47,47,47,47,47,1,1,1,0,0,0,0,-1,0,0,0,0,0,0,0,0,0,0,0,0,0,0,0,0,0,0,0,0,0,0,0,0,0,0,0,0,0,0,0,0,0,0,0,0,0,0,0,0,0,0,0,0,0,0,0,0,0,0,0,0,0,0,0,0,0,0,0,0,0,0,0,0,0,0,0,0,0,0,0,0,0,0,0,0,0,0,0,0,0,0,0,0,0,0,0,0,0,0,0,0,0,0,0,0,0,0,0,0,0,0,0,0,0,0,0,0,0,0,0,0,0,0,0,0,0,0,0,0,0,0,0,0,0,0,0,0,0,0,0,0,0,0,0,0,0,0,0,0,0,0,0,0,0
"Ind28","17_0_7",79,49,49,49,49,49,49,49,49,49,47,47,47,47,47,47,47,47,47,1,1,1,0,0,0,0,0,-1,0,0,0,0,0,0,0,0,0,0,0,0,0,0,0,0,0,0,0,0,0,0,0,0,0,0,0,0,0,0,0,0,0,0,0,0,0,0,0,0,0,0,0,0,0,0,0,0,0,0,0,0,0,0,0,0,0,0,0,0,0,0,0,0,0,0,0,0,0,0,0,0,0,0,0,0,0,0,0,0,0,0,0,0,0,0,0,0,0,0,0,0,0,0,0,0,0,0,0,0,0,0,0,0,0,0,0,0,0,0,0,0,0,0,0,0,0,0,0,0,0,0,0,0,0,0,0,0,0,0,0,0,0,0,0,0,0,0,0,0,0,0,0,0
"Ind29","6_0_8",76,48,48,48,48,48,48,48,48,48,46,46,46,46,46,46,46,46,46,4,4,4,3,3,3,3,3,3,-1,0,0,0,0,0,0,0,0,0,0,0,0,0,0,0,0,0,0,0,0,0,0,0,0,0,0,0,0,0,0,0,0,0,0,0,0,0,0,0,0,0,0,0,0,0,0,0,0,0,0,0,0,0,0,0,0,0,0,0,0,0,0,0,0,0,0,0,0,0,0,0,0,0,0,0,0,0,0,0,0,0,0,0,0,0,0,0,0,0,0,0,0,0,0,0,0,0,0,0,0,0,0,0,0,0,0,0,0,0,0,0,0,0,0,0,0,0,0,0,0,0,0,0,0,0,0,0,0,0,0,0,0,0,0,0,0,0,0,0,0,0,0,0
"Ind30","6_0_1",76,48,48,48,48,48,48,48,48,48,46,46,46,46,46,46,46,46,46,4,4,4,3,3,3,3,3,3,0,-1,0,0,0,0,0,0,0,0,0,0,0,0,0,0,0,0,0,0,0,0,0,0,0,0,0,0,0,0,0,0,0,0,0,0,0,0,0,0,0,0,0,0,0,0,0,0,0,0,0,0,0,0,0,0,0,0,0,0,0,0,0,0,0,0,0,0,0,0,0,0,0,0,0,0,0,0,0,0,0,0,0,0,0,0,0,0,0,0,0,0,0,0,0,0,0,0,0,0,0,0,0,0,0,0,0,0,0,0,0,0,0,0,0,0,0,0,0,0,0,0,0,0,0,0,0,0,0,0,0,0,0,0,0,0,0,0,0,0,0,0,0,0
"Ind31","6_0_5",76,48,48,48,48,48,48,48,48,48,46,46,46,46,46,46,46,46,46,4,4,4,3,3,3,3,3,3,0,0,-1,0,0,0,0,0,0,0,0,0,0,0,0,0,0,0,0,0,0,0,0,0,0,0,0,0,0,0,0,0,0,0,0,0,0,0,0,0,0,0,0,0,0,0,0,0,0,0,0,0,0,0,0,0,0,0,0,0,0,0,0,0,0,0,0,0,0,0,0,0,0,0,0,0,0,0,0,0,0,0,0,0,0,0,0,0,0,0,0,0,0,0,0,0,0,0,0,0,0,0,0,0,0,0,0,0,0,0,0,0,0,0,0,0,0,0,0,0,0,0,0,0,0,0,0,0,0,0,0,0,0,0,0,0,0,0,0,0,0,0,0,0
"Ind32","6_0_3",76,48,48,48,48,48,48,48,48,48,46,46,46,46,46,46,46,46,46,4,4,4,3,3,3,3,3,3,0,0,0,-1,0,0,0,0,0,0,0,0,0,0,0,0,0,0,0,0,0,0,0,0,0,0,0,0,0,0,0,0,0,0,0,0,0,0,0,0,0,0,0,0,0,0,0,0,0,0,0,0,0,0,0,0,0,0,0,0,0,0,0,0,0,0,0,0,0,0,0,0,0,0,0,0,0,0,0,0,0,0,0,0,0,0,0,0,0,0,0,0,0,0,0,0,0,0,0,0,0,0,0,0,0,0,0,0,0,0,0,0,0,0,0,0,0,0,0,0,0,0,0,0,0,0,0,0,0,0,0,0,0,0,0,0,0,0,0,0,0,0,0,0
"Ind33","6_0_4",76,48,48,48,48,48,48,48,48,48,46,46,46,46,46,46,46,46,46,4,4,4,3,3,3,3,3,3,0,0,0,0,-1,0,0,0,0,0,0,0,0,0,0,0,0,0,0,0,0,0,0,0,0,0,0,0,0,0,0,0,0,0,0,0,0,0,0,0,0,0,0,0,0,0,0,0,0,0,0,0,0,0,0,0,0,0,0,0,0,0,0,0,0,0,0,0,0,0,0,0,0,0,0,0,0,0,0,0,0,0,0,0,0,0,0,0,0,0,0,0,0,0,0,0,0,0,0,0,0,0,0,0,0,0,0,0,0,0,0,0,0,0,0,0,0,0,0,0,0,0,0,0,0,0,0,0,0,0,0,0,0,0,0,0,0,0,0,0,0,0,0,0
"Ind34","6_0_0",76,48,48,48,48,48,48,48,48,48,46,46,46,46,46,46,46,46,46,4,4,4,3,3,3,3,3,3,0,0,0,0,0,-1,0,0,0,0,0,0,0,0,0,0,0,0,0,0,0,0,0,0,0,0,0,0,0,0,0,0,0,0,0,0,0,0,0,0,0,0,0,0,0,0,0,0,0,0,0,0,0,0,0,0,0,0,0,0,0,0,0,0,0,0,0,0,0,0,0,0,0,0,0,0,0,0,0,0,0,0,0,0,0,0,0,0,0,0,0,0,0,0,0,0,0,0,0,0,0,0,0,0,0,0,0,0,0,0,0,0,0,0,0,0,0,0,0,0,0,0,0,0,0,0,0,0,0,0,0,0,0,0,0,0,0,0,0,0,0,0,0,0
"Ind35","6_0_7",76,48,48,48,48,48,48,48,48,48,46,46,46,46,46,46,46,46,46,4,4,4,3,3,3,3,3,3,0,0,0,0,0,0,-1,0,0,0,0,0,0,0,0,0,0,0,0,0,0,0,0,0,0,0,0,0,0,0,0,0,0,0,0,0,0,0,0,0,0,0,0,0,0,0,0,0,0,0,0,0,0,0,0,0,0,0,0,0,0,0,0,0,0,0,0,0,0,0,0,0,0,0,0,0,0,0,0,0,0,0,0,0,0,0,0,0,0,0,0,0,0,0,0,0,0,0,0,0,0,0,0,0,0,0,0,0,0,0,0,0,0,0,0,0,0,0,0,0,0,0,0,0,0,0,0,0,0,0,0,0,0,0,0,0,0,0,0,0,0,0,0,0
"Ind36","6_0_6",76,48,48,48,48,48,48,48,48,48,46,46,46,46,46,46,46,46,46,4,4,4,3,3,3,3,3,3,0,0,0,0,0,0,0,-1,0,0,0,0,0,0,0,0,0,0,0,0,0,0,0,0,0,0,0,0,0,0,0,0,0,0,0,0,0,0,0,0,0,0,0,0,0,0,0,0,0,0,0,0,0,0,0,0,0,0,0,0,0,0,0,0,0,0,0,0,0,0,0,0,0,0,0,0,0,0,0,0,0,0,0,0,0,0,0,0,0,0,0,0,0,0,0,0,0,0,0,0,0,0,0,0,0,0,0,0,0,0,0,0,0,0,0,0,0,0,0,0,0,0,0,0,0,0,0,0,0,0,0,0,0,0,0,0,0,0,0,0,0,0,0,0
"Ind37","6_0_2",76,48,48,48,48,48,48,48,48,48,46,46,46,46,46,46,46,46,46,4,4,4,3,3,3,3,3,3,0,0,0,0,0,0,0,0,-1,0,0,0,0,0,0,0,0,0,0,0,0,0,0,0,0,0,0,0,0,0,0,0,0,0,0,0,0,0,0,0,0,0,0,0,0,0,0,0,0,0,0,0,0,0,0,0,0,0,0,0,0,0,0,0,0,0,0,0,0,0,0,0,0,0,0,0,0,0,0,0,0,0,0,0,0,0,0,0,0,0,0,0,0,0,0,0,0,0,0,0,0,0,0,0,0,0,0,0,0,0,0,0,0,0,0,0,0,0,0,0,0,0,0,0,0,0,0,0,0,0,0,0,0,0,0,0,0,0,0,0,0,0,0,0
"Ind38","11_0_5",78,46,46,46,46,46,46,46,46,46,42,42,42,42,42,42,42,42,42,23,23,23,22,22,22,22,22,22,21,21,21,21,21,21,21,21,21,-1,0,0,0,0,0,0,0,0,0,0,0,0,0,0,0,0,0,0,0,0,0,0,0,0,0,0,0,0,0,0,0,0,0,0,0,0,0,0,0,0,0,0,0,0,0,0,0,0,0,0,0,0,0,0,0,0,0,0,0,0,0,0,0,0,0,0,0,0,0,0,0,0,0,0,0,0,0,0,0,0,0,0,0,0,0,0,0,0,0,0,0,0,0,0,0,0,0,0,0,0,0,0,0,0,0,0,0,0,0,0,0,0,0,0,0,0,0,0,0,0,0,0,0,0,0,0,0,0,0,0,0,0,0,0
"Ind39","11_0_1",78,46,46,46,46,46,46,46,46,46,42,42,42,42,42,42,42,42,42,23,23,23,22,22,22,22,22,22,21,21,21,21,21,21,21,21,21,0,-1,0,0,0,0,0,0,0,0,0,0,0,0,0,0,0,0,0,0,0,0,0,0,0,0,0,0,0,0,0,0,0,0,0,0,0,0,0,0,0,0,0,0,0,0,0,0,0,0,0,0,0,0,0,0,0,0,0,0,0,0,0,0,0,0,0,0,0,0,0,0,0,0,0,0,0,0,0,0,0,0,0,0,0,0,0,0,0,0,0,0,0,0,0,0,0,0,0,0,0,0,0,0,0,0,0,0,0,0,0,0,0,0,0,0,0,0,0,0,0,0,0,0,0,0,0,0,0,0,0,0,0,0,0
"Ind40","11_0_4",78,46,46,46,46,46,46,46,46,46,42,42,42,42,42,42,42,42,42,23,23,23,22,22,22,22,22,22,21,21,21,21,21,21,21,21,21,0,0,-1,0,0,0,0,0,0,0,0,0,0,0,0,0,0,0,0,0,0,0,0,0,0,0,0,0,0,0,0,0,0,0,0,0,0,0,0,0,0,0,0,0,0,0,0,0,0,0,0,0,0,0,0,0,0,0,0,0,0,0,0,0,0,0,0,0,0,0,0,0,0,0,0,0,0,0,0,0,0,0,0,0,0,0,0,0,0,0,0,0,0,0,0,0,0,0,0,0,0,0,0,0,0,0,0,0,0,0,0,0,0,0,0,0,0,0,0,0,0,0,0,0,0,0,0,0,0,0,0,0,0,0,0
"Ind41","11_0_0",78,46,46,46,46,46,46,46,46,46,42,42,42,42,42,42,42,42,42,23,23,23,22,22,22,22,22,22,21,21,21,21,21,21,21,21,21,0,0,0,-1,0,0,0,0,0,0,0,0,0,0,0,0,0,0,0,0,0,0,0,0,0,0,0,0,0,0,0,0,0,0,0,0,0,0,0,0,0,0,0,0,0,0,0,0,0,0,0,0,0,0,0,0,0,0,0,0,0,0,0,0,0,0,0,0,0,0,0,0,0,0,0,0,0,0,0,0,0,0,0,0,0,0,0,0,0,0,0,0,0,0,0,0,0,0,0,0,0,0,0,0,0,0,0,0,0,0,0,0,0,0,0,0,0,0,0,0,0,0,0,0,0,0,0,0,0,0,0,0,0,0,0
"Ind42","11_0_6",78,46,46,46,46,46,46,46,46,46,42,42,42,42,42,42,42,42,42,23,23,23,22,22,22,22,22,22,21,21,21,21,21,21,21,21,21,0,0,0,0,-1,0,0,0,0,0,0,0,0,0,0,0,0,0,0,0,0,0,0,0,0,0,0,0,0,0,0,0,0,0,0,0,0,0,0,0,0,0,0,0,0,0,0,0,0,0,0,0,0,0,0,0,0,0,0,0,0,0,0,0,0,0,0,0,0,0,0,0,0,0,0,0,0,0,0,0,0,0,0,0,0,0,0,0,0,0,0,0,0,0,0,0,0,0,0,0,0,0,0,0,0,0,0,0,0,0,0,0,0,0,0,0,0,0,0,0,0,0,0,0,0,0,0,0,0,0,0,0,0,0,0
"Ind43","11_0_2",78,46,46,46,46,46,46,46,46,46,42,42,42,42,42,42,42,42,42,23,23,23,22,22,22,22,22,22,21,21,21,21,21,21,21,21,21,0,0,0,0,0,-1,0,0,0,0,0,0,0,0,0,0,0,0,0,0,0,0,0,0,0,0,0,0,0,0,0,0,0,0,0,0,0,0,0,0,0,0,0,0,0,0,0,0,0,0,0,0,0,0,0,0,0,0,0,0,0,0,0,0,0,0,0,0,0,0,0,0,0,0,0,0,0,0,0,0,0,0,0,0,0,0,0,0,0,0,0,0,0,0,0,0,0,0,0,0,0,0,0,0,0,0,0,0,0,0,0,0,0,0,0,0,0,0,0,0,0,0,0,0,0,0,0,0,0,0,0,0,0,0,0
"Ind44","11_0_3",78,46,46,46,46,46,46,46,46,46,42,42,42,42,42,42,42,42,42,23,23,23,22,22,22,22,22,22,21,21,21,21,21,21,21,21,21,0,0,0,0,0,0,-1,0,0,0,0,0,0,0,0,0,0,0,0,0,0,0,0,0,0,0,0,0,0,0,0,0,0,0,0,0,0,0,0,0,0,0,0,0,0,0,0,0,0,0,0,0,0,0,0,0,0,0,0,0,0,0,0,0,0,0,0,0,0,0,0,0,0,0,0,0,0,0,0,0,0,0,0,0,0,0,0,0,0,0,0,0,0,0,0,0,0,0,0,0,0,0,0,0,0,0,0,0,0,0,0,0,0,0,0,0,0,0,0,0,0,0,0,0,0,0,0,0,0,0,0,0,0,0,0
"Ind45","11_0_8",78,46,46,46,46,46,46,46,46,46,42,42,42,42,42,42,42,42,42,23,23,23,22,22,22,22,22,22,21,21,21,21,21,21,21,21,21,0,0,0,0,0,0,0,-1,0,0,0,0,0,0,0,0,0,0,0,0,0,0,0,0,0,0,0,0,0,0,0,0,0,0,0,0,0,0,0,0,0,0,0,0,0,0,0,0,0,0,0,0,0,0,0,0,0,0,0,0,0,0,0,0,0,0,0,0,0,0,0,0,0,0,0,0,0,0,0,0,0,0,0,0,0,0,0,0,0,0,0,0,0,0,0,0,0,0,0,0,0,0,0,0,0,0,0,0,0,0,0,0,0,0,0,0,0,0,0,0,0,0,0,0,0,0,0,0,0,0,0,0,0,0,0
"Ind46","11_0_7",78,46,46,46,46,46,46,46,46,46,42,42,42,42,42,42,42,42,42,23,23,23,22,22,22,22,22,22,21,21,21,21,21,21,21,21,21,0,0,0,0,0,0,0,0,-1,0,0,0,0,0,0,0,0,0,0,0,0,0,0,0,0,0,0,0,0,0,0,0,0,0,0,0,0,0,0,0,0,0,0,0,0,0,0,0,0,0,0,0,0,0,0,0,0,0,0,0,0,0,0,0,0,0,0,0,0,0,0,0,0,0,0,0,0,0,0,0,0,0,0,0,0,0,0,0,0,0,0,0,0,0,0,0,0,0,0,0,0,0,0,0,0,0,0,0,0,0,0,0,0,0,0,0,0,0,0,0,0,0,0,0,0,0,0,0,0,0,0,0,0,0,0
"Ind47","4_0_1",76,46,46,46,46,46,46,46,46,46,42,42,42,42,42,42,42,42,42,25,25,25,24,24,24,24,24,24,25,25,25,25,25,25,25,25,25,24,24,24,24,24,24,24,24,24,-1,0,0,0,0,0,0,0,0,0,0,0,0,0,0,0,0,0,0,0,0,0,0,0,0,0,0,0,0,0,0,0,0,0,0,0,0,0,0,0,0,0,0,0,0,0,0,0,0,0,0,0,0,0,0,0,0,0,0,0,0,0,0,0,0,0,0,0,0,0,0,0,0,0,0,0,0,0,0,0,0,0,0,0,0,0,0,0,0,0,0,0,0,0,0,0,0,0,0,0,0,0,0,0,0,0,0,0,0,0,0,0,0,0,0,0,0,0,0,0,0,0,0,0,0,0
"Ind48","4_0_7",76,46,46,46,46,46,46,46,46,46,42,42,42,42,42,42,42,42,42,25,25,25,24,24,24,24,24,24,25,25,25,25,25,25,25,25,25,24,24,24,24,24,24,24,24,24,0,-1,0,0,0,0,0,0,0,0,0,0,0,0,0,0,0,0,0,0,0,0,0,0,0,0,0,0,0,0,0,0,0,0,0,0,0,0,0,0,0,0,0,0,0,0,0,0,0,0,0,0,0,0,0,0,0,0,0,0,0,0,0,0,0,0,0,0,0,0,0,0,0,0,0,0,0,0,0,0,0,0,0,0,0,0,0,0,0,0,0,0,0,0,0,0,0,0,0,0,0,0,0,0,0,0,0,0,0,0,0,0,0,0,0,0,0,0,0,0,0,0,0,0,0,0
"Ind49","4_0_0",76,46,46,46,46,46,46,46,46,46,42,42,42,42,42,42,42,42,42,25,25,25,24,24,24,24,24,24,25,25,25,25,25,25,25,25,25,24,24,24,24,24,24,24,24,24,0,0,-1,0,0,0,0,0,0,0,0,0,0,0,0,0,0,0,0,0,0,0,0,0,0,0,0,0,0,0,0,0,0,0,0,0,0,0,0,0,0,0,0,0,0,0,0,0,0,0,0,0,0,0,0,0,0,0,0,0,0,0,0,0,0,0,0,0,0,0,0,0,0,0,0,0,0,0,0,0,0,0,0,0,0,0,0,0,0,0,0,0,0,0,0,0,0,0,0,0,0,0,0,0,0,0,0,0,0,0,0,0,0,0,0,0,0,0,0,0,0,0,0,0,0,0
"Ind50","4_0_8",76,46,46,46,46,46,46,46,46,46,42,42,42,42,42,42,42,42,42,25,25,25,24,24,24,24,24,24,25,25,25,25,25,25,25,25,25,24,24,24,24,24,24,24,24,24,0,0,0,-1,0,0,0,0,0,0,0,0,0,0,0,0,0,0,0,0,0,0,0,0,0,0,0,0,0,0,0,0,0,0,0,0,0,0,0,0,0,0,0,0,0,0,0,0,0,0,0,0,0,0,0,0,0,0,0,0,0,0,0,0,0,0,0,0,0,0,0,0,0,0,0,0,0,0,0,0,0,0,0,0,0,0,0,0,0,0,0,0,0,0,0,0,0,0,0,0,0,0,0,0,0,0,0,0,0,0,0,0,0,0,0,0,0,0,0,0,0,0,0,0,0,0
"Ind51","4_0_3",76,46,46,46,46,46,46,46,46,46,42,42,42,42,42,42,42,42,42,25,25,25,24,24,24,24,24,24,25,25,25,25,25,25,25,25,25,24,24,24,24,24,24,24,24,24,0,0,0,0,-1,0,0,0,0,0,0,0,0,0,0,0,0,0,0,0,0,0,0,0,0,0,0,0,0,0,0,0,0,0,0,0,0,0,0,0,0,0,0,0,0,0,0,0,0,0,0,0,0,0,0,0,0,0,0,0,0,0,0,0,0,0,0,0,0,0,0,0,0,0,0,0,0,0,0,0,0,0,0,0,0,0,0,0,0,0,0,0,0,0,0,0,0,0,0,0,0,0,0,0,0,0,0,0,0,0,0,0,0,0,0,0,0,0,0,0,0,0,0,0,0,0
"Ind52","4_0_6",76,46,46,46,46,46,46,46,46,46,42,42,42,42,42,42,42,42,42,25,25,25,24,24,24,24,24,24,25,25,25,25,25,25,25,25,25,24,24,24,24,24,24,24,24,24,0,0,0,0,0,-1,0,0,0,0,0,0,0,0,0,0,0,0,0,0,0,0,0,0,0,0,0,0,0,0,0,0,0,0,0,0,0,0,0,0,0,0,0,0,0,0,0,0,0,0,0,0,0,0,0,0,0,0,0,0,0,0,0,0,0,0,0,0,0,0,0,0,0,0,0,0,0,0,0,0,0,0,0,0,0,0,0,0,0,0,0,0,0,0,0,0,0,0,0,0,0,0,0,0,0,0,0,0,0,0,0,0,0,0,0,0,0,0,0,0,0,0,0,0,0,0
"Ind53","4_0_2",76,46,46,46,46,46,46,46,46,46,42,42,42,42,42,42,42,42,42,25,25,25,24,24,24,24,24,24,25,25,25,25,25,25,25,25,25,24,24,24,24,24,24,24,24,24,0,0,0,0,0,0,-1,0,0,0,0,0,0,0,0,0,0,0,0,0,0,0,0,0,0,0,0,0,0,0,0,0,0,0,0,0,0,0,0,0,0,0,0,0,0,0,0,0,0,0,0,0,0,0,0,0,0,0,0,0,0,0,0,0,0,0,0,0,0,0,0,0,0,0,0,0,0,0,0,0,0,0,0,0,0,0,0,0,0,0,0,0,0,0,0,0,0,0,0,0,0,0,0,0,0,0,0,0,0,0,0,0,0,0,0,0,0,0,0,0,0,0,0,0,0,0
"Ind54","4_0_4",76,46,46,46,46,46,46,46,46,46,42,42,42,42,42,42,42,42,42,25,25,25,24,24,24,24,24,24,25,25,25,25,25,25,25,25,25,24,24,24,24,24,24,24,24,24,0,0,0,0,0,0,0,-1,0,0,0,0,0,0,0,0,0,0,0,0,0,0,0,0,0,0,0,0,0,0,0,0,0,0,0,0,0,0,0,0,0,0,0,0,0,0,0,0,0,0,0,0,0,0,0,0,0,0,0,0,0,0,0,0,0,0,0,0,0,0,0,0,0,0,0,0,0,0,0,0,0,0,0,0,0,0,0,0,0,0,0,0,0,0,0,0,0,0,0,0,0,0,0,0,0,0,0,0,0,0,0,0,0,0,0,0,0,0,0,0,0,0,0,0,0,0
"Ind55","4_0_5",76,46,46,46,46,46,46,46,46,46,42,42,42,42,42,42,42,42,42,25,25,25,24,24,24,24,24,24,25,25,25,25,25,25,25,25,25,24,24,24,24,24,24,24,24,24,0,0,0,0,0,0,0,0,-1,0,0,0,0,0,0,0,0,0,0,0,0,0,0,0,0,0,0,0,0,0,0,0,0,0,0,0,0,0,0,0,0,0,0,0,0,0,0,0,0,0,0,0,0,0,0,0,0,0,0,0,0,0,0,0,0,0,0,0,0,0,0,0,0,0,0,0,0,0,0,0,0,0,0,0,0,0,0,0,0,0,0,0,0,0,0,0,0,0,0,0,0,0,0,0,0,0,0,0,0,0,0,0,0,0,0,0,0,0,0,0,0,0,0,0,0,0
"Ind56","3_0_2",76,44,44,44,44,44,44,44,44,44,40,40,40,40,40,40,40,40,40,21,21,21,20,20,20,20,20,20,21,21,21,21,21,21,21,21,21,20,20,20,20,20,20,20,20,20,6,6,6,6,6,6,6,6,6,-1,0,0,0,0,0,0,0,0,0,0,0,0,0,0,0,0,0,0,0,0,0,0,0,0,0,0,0,0,0,0,0,0,0,0,0,0,0,0,0,0,0,0,0,0,0,0,0,0,0,0,0,0,0,0,0,0,0,0,0,0,0,0,0,0,0,0,0,0,0,0,0,0,0,0,0,0,0,0,0,0,0,0,0,0,0,0,0,0,0,0,0,0,0,0,0,0,0,0,0,0,0,0,0,0,0,0,0,0,0,0,0,0,0,0,0,0
"Ind57","3_0_1",76,44,44,44,44,44,44,44,44,44,40,40,40,40,40,40,40,40,40,21,21,21,20,20,20,20,20,20,21,21,21,21,21,21,21,21,21,20,20,20,20,20,20,20,20,20,6,6,6,6,6,6,6,6,6,0,-1,0,0,0,0,0,0,0,0,0,0,0,0,0,0,0,0,0,0,0,0,0,0,0,0,0,0,0,0,0,0,0,0,0,0,0,0,0,0,0,0,0,0,0,0,0,0,0,0,0,0,0,0,0,0,0,0,0,0,0,0,0,0,0,0,0,0,0,0,0,0,0,0,0,0,0,0,0,0,0,0,0,0,0,0,0,0,0,0,0,0,0,0,0,0,0,0,0,0,0,0,0,0,0,0,0,0,0,0,0,0,0,0,0,0,0
"Ind58","3_0_0",76,44,44,44,44,44,44,44,44,44,40,40,40,40,40,40,40,40,40,21,21,21,20,20,20,20,20,20,21,21,21,21,21,21,21,21,21,20,20,20,20,20,20,20,20,20,6,6,6,6,6,6,6,6,6,0,0,-1,0,0,0,0,0,0,0,0,0,0,0,0,0,0,0,0,0,0,0,0,0,0,0,0,0,0,0,0,0,0,0,0,0,0,0,0,0,0,0,0,0,0,0,0,0,0,0,0,0,0,0,0,0,0,0,0,0,0,0,0,0,0,0,0,0,0,0,0,0,0,0,0,0,0,0,0,0,0,0,0,0,0,0,0,0,0,0,0,0,0,0,0,0,0,0,0,0,0,0,0,0,0,0,0,0,0,0,0,0,0,0,0,0,0
"Ind59","3_0_7",76,44,44,44,44,44,44,44,44,44,40,40,40,40,40,40,40,40,40,21,21,21,20,20,20,20,20,20,21,21,21,21,21,21,21,21,21,20,20,20,20,20,20,20,20,20,6,6,6,6,6,6,6,6,6,0,0,0,-1,0,0,0,0,0,0,0,0,0,0,0,0,0,0,0,0,0,0,0,0,0,0,0,0,0,0,0,0,0,0,0,0,0,0,0,0,0,0,0,0,0,0,0,0,0,0,0,0,0,0,0,0,0,0,0,0,0,0,0,0,0,0,0,0,0,0,0,0,0,0,0,0,0,0,0,0,0,0,0,0,0,0,0,0,0,0,0,0,0,0,0,0,0,0,0,0,0,0,0,0,0,0,0,0,0,0,0,0,0,0,0,0,0
"Ind60","3_0_3",76,44,44,44,44,44,44,44,44,44,40,40,40,40,40,40,40,40,40,21,21,21,20,20,20,20,20,20,21,21,21,21,21,21,21,21,21,20,20,20,20,20,20,20,20,20,6,6,6,6,6,6,6,6,6,0,0,0,0,-1,0,0,0,0,0,0,0,0,0,0,0,0,0,0,0,0,0,0,0,0,0,0,0,0,0,0,0,0,0,0,0,0,0,0,0,0,0,0,0,0,0,0,0,0,0,0,0,0,0,0,0,0,0,0,0,0,0,0,0,0,0,0,0,0,0,0,0,0,0,0,0,0,0,0,0,0,0,0,0,0,0,0,0,0,0,0,0,0,0,0,0,0,0,0,0,0,0,0,0,0,0,0,0,0,0,0,0,0,0,0,0,0
"Ind61","3_0_5",76,44,44,44,44,44,44,44,44,44,40,40,40,40,40,40,40,40,40,21,21,21,20,20,20,20,20,20,21,21,21,21,21,21,21,21,21,20,20,20,20,20,20,20,20,20,6,6,6,6,6,6,6,6,6,0,0,0,0,0,-1,0,0,0,0,0,0,0,0,0,0,0,0,0,0,0,0,0,0,0,0,0,0,0,0,0,0,0,0,0,0,0,0,0,0,0,0,0,0,0,0,0,0,0,0,0,0,0,0,0,0,0,0,0,0,0,0,0,0,0,0,0,0,0,0,0,0,0,0,0,0,0,0,0,0,0,0,0,0,0,0,0,0,0,0,0,0,0,0,0,0,0,0,0,0,0,0,0,0,0,0,0,0,0,0,0,0,0,0,0,0,0
"Ind62","3_0_6",76,44,44,44,44,44,44,44,44,44,40,40,40,40,40,40,40,40,40,21,21,21,20,20,20,20,20,20,21,21,21,21,21,21,21,21,21,20,20,20,20,20,20,20,20,20,6,6,6,6,6,6,6,6,6,0,0,0,0,0,0,-1,0,0,0,0,0,0,0,0,0,0,0,0,0,0,0,0,0,0,0,0,0,0,0,0,0,0,0,0,0,0,0,0,0,0,0,0,0,0,0,0,0,0,0,0,0,0,0,0,0,0,0,0,0,0,0,0,0,0,0,0,0,0,0,0,0,0,0,0,0,0,0,0,0,0,0,0,0,0,0,0,0,0,0,0,0,0,0,0,0,0,0,0,0,0,0,0,0,0,0,0,0,0,0,0,0,0,0,0,0,0
"Ind63","3_0_8",76,44,44,44,44,44,44,44,44,44,40,40,40,40,40,40,40,40,40,21,21,21,20,20,20,20,20,20,21,21,21,21,21,21,21,21,21,20,20,20,20,20,20,20,20,20,6,6,6,6,6,6,6,6,6,0,0,0,0,0,0,0,-1,0,0,0,0,0,0,0,0,0,0,0,0,0,0,0,0,0,0,0,0,0,0,0,0,0,0,0,0,0,0,0,0,0,0,0,0,0,0,0,0,0,0,0,0,0,0,0,0,0,0,0,0,0,0,0,0,0,0,0,0,0,0,0,0,0,0,0,0,0,0,0,0,0,0,0,0,0,0,0,0,0,0,0,0,0,0,0,0,0,0,0,0,0,0,0,0,0,0,0,0,0,0,0,0,0,0,0,0,0
"Ind64","3_0_4",76,44,44,44,44,44,44,44,44,44,40,40,40,40,40,40,40,40,40,21,21,21,20,20,20,20,20,20,21,21,21,21,21,21,21,21,21,20,20,20,20,20,20,20,20,20,6,6,6,6,6,6,6,6,6,0,0,0,0,0,0,0,0,-1,0,0,0,0,0,0,0,0,0,0,0,0,0,0,0,0,0,0,0,0,0,0,0,0,0,0,0,0,0,0,0,0,0,0,0,0,0,0,0,0,0,0,0,0,0,0,0,0,0,0,0,0,0,0,0,0,0,0,0,0,0,0,0,0,0,0,0,0,0,0,0,0,0,0,0,0,0,0,0,0,0,0,0,0,0,0,0,0,0,0,0,0,0,0,0,0,0,0,0,0,0,0,0,0,0,0,0,0
"Ind65","15_0_2",69,40,40,40,40,40,40,40,40,40,42,42,42,42,42,42,42,42,42,43,43,43,42,42,42,42,42,42,41,41,41,41,41,41,41,41,41,39,39,39,39,39,39,39,39,39,43,43,43,43,43,43,43,43,43,39,39,39,39,39,39,39,39,39,-1,0,0,0,0,0,0,0,0,0,0,0,0,0,0,0,0,0,0,0,0,0,0,0,0,0,0,0,0,0,0,0,0,0,0,0,0,0,0,0,0,0,0,0,0,0,0,0,0,0,0,0,0,0,0,0,0,0,0,0,0,0,0,0,0,0,0,0,0,0,0,0,0,0,0,0,0,0,0,0,0,0,0,0,0,0,0,0,0,0,0,0,0,0,0,0,0,0,0,0,0,0,0,0,0,0,0,0
"Ind66","15_0_7",69,40,40,40,40,40,40,40,40,40,42,42,42,42,42,42,42,42,42,43,43,43,42,42,42,42,42,42,41,41,41,41,41,41,41,41,41,39,39,39,39,39,39,39,39,39,43,43,43,43,43,43,43,43,43,39,39,39,39,39,39,39,39,39,0,-1,0,0,0,0,0,0,0,0,0,0,0,0,0,0,0,0,0,0,0,0,0,0,0,0,0,0,0,0,0,0,0,0,0,0,0,0,0,0,0,0,0,0,0,0,0,0,0,0,0,0,0,0,0,0,0,0,0,0,0,0,0,0,0,0,0,0,0,0,0,0,0,0,0,0,0,0,0,0,0,0,0,0,0,0,0,0,0,0,0,0,0,0,0,0,0,0,0,0,0,0,0,0,0,0,0,0
"Ind67","15_0_6",69,40,40,40,40,40,40,40,40,40,42,42,42,42,42,42,42,42,42,43,43,43,42,42,42,42,42,42,41,41,41,41,41,41,41,41,41,39,39,39,39,39,39,39,39,39,43,43,43,43,43,43,43,43,43,39,39,39,39,39,39,39,39,39,0,0,-1,0,0,0,0,0,0,0,0,0,0,0,0,0,0,0,0,0,0,0,0,0,0,0,0,0,0,0,0,0,0,0,0,0,0,0,0,0,0,0,0,0,0,0,0,0,0,0,0,0,0,0,0,0,0,0,0,0,0,0,0,0,0,0,0,0,0,0,0,0,0,0,0,0,0,0,0,0,0,0,0,0,0,0,0,0,0,0,0,0,0,0,0,0,0,0,0,0,0,0,0,0,0,0,0,0
"Ind68","15_0_1",69,40,40,40,40,40,40,40,40,40,42,42,42,42,42,42,42,42,42,43,43,43,42,42,42,42,42,42,41,41,41,41,41,41,41,41,41,39,39,39,39,39,39,39,39,39,43,43,43,43,43,43,43,43,43,39,39,39,39,39,39,39,39,39,0,0,0,-1,0,0,0,0,0,0,0,0,0,0,0,0,0,0,0,0,0,0,0,0,0,0,0,0,0,0,0,0,0,0,0,0,0,0,0,0,0,0,0,0,0,0,0,0,0,0,0,0,0,0,0,0,0,0,0,0,0,0,0,0,0,0,0,0,0,0,0,0,0,0,0,0,0,0,0,0,0,0,0,0,0,0,0,0,0,0,0,0,0,0,0,0,0,0,0,0,0,0,0,0,0,0,0,0
"Ind69","15_0_0",69,40,40,40,40,40,40,40,40,40,42,42,42,42,42,42,42,42,42,43,43,43,42,42,42,42,42,42,41,41,41,41,41,41,41,41,41,39,39,39,39,39,39,39,39,39,43,43,43,43,43,43,43,43,43,39,39,39,39,39,39,39,39,39,0,0,0,0,-1,0,0,0,0,0,0,0,0,0,0,0,0,0,0,0,0,0,0,0,0,0,0,0,0,0,0,0,0,0,0,0,0,0,0,0,0,0,0,0,0,0,0,0,0,0,0,0,0,0,0,0,0,0,0,0,0,0,0,0,0,0,0,0,0,0,0,0,0,0,0,0,0,0,0,0,0,0,0,0,0,0,0,0,0,0,0,0,0,0,0,0,0,0,0,0,0,0,0,0,0,0,0,0
"Ind70","15_0_3",69,40,40,40,40,40,40,40,40,40,42,42,42,42,42,42,42,42,42,43,43,43,42,42,42,42,42,42,41,41,41,41,41,41,41,41,41,39,39,39,39,39,39,39,39,39,43,43,43,43,43,43,43,43,43,39,39,39,39,39,39,39,39,39,0,0,0,0,0,-1,0,0,0,0,0,0,0,0,0,0,0,0,0,0,0,0,0,0,0,0,0,0,0,0,0,0,0,0,0,0,0,0,0,0,0,0,0,0,0,0,0,0,0,0,0,0,0,0,0,0,0,0,0,0,0,0,0,0,0,0,0,0,0,0,0,0,0,0,0,0,0,0,0,0,0,0,0,0,0,0,0,0,0,0,0,0,0,0,0,0,0,0,0,0,0,0,0,0,0,0,0,0
"Ind71","15_0_8",69,40,40,40,40,40,40,40,40,40,42,42,42,42,42,42,42,42,42,43,43,43,42,42,42,42,42,42,41,41,41,41,41,41,41,41,41,39,39,39,39,39,39,39,39,39,43,43,43,43,43,43,43,43,43,39,39,39,39,39,39,39,39,39,0,0,0,0,0,0,-1,0,0,0,0,0,0,0,0,0,0,0,0,0,0,0,0,0,0,0,0,0,0,0,0,0,0,0,0,0,0,0,0,0,0,0,0,0,0,0,0,0,0,0,0,0,0,0,0,0,0,0,0,0,0,0,0,0,0,0,0,0,0,0,0,0,0,0,0,0,0,0,0,0,0,0,0,0,0,0,0,0,0,0,0,0,0,0,0,0,0,0,0,0,0,0,0,0,0,0,0,0
"Ind72","15_0_5",69,40,40,40,40,40,40,40,40,40,42,42,42,42,42,42,42,42,42,43,43,43,42,42,42,42,42,42,41,41,41,41,41,41,41,41,41,39,39,39,39,39,39,39,39,39,43,43,43,43,43,43,43,43,43,39,39,39,39,39,39,39,39,39,0,0,0,0,0,0,0,-1,0,0,0,0,0,0,0,0,0,0,0,0,0,0,0,0,0,0,0,0,0,0,0,0,0,0,0,0,0,0,0,0,0,0,0,0,0,0,0,0,0,0,0,0,0,0,0,0,0,0,0,0,0,0,0,0,0,0,0,0,0,0,0,0,0,0,0,0,0,0,0,0,0,0,0,0,0,0,0,0,0,0,0,0,0,0,0,0,0,0,0,0,0,0,0,0,0,0,0,0
"Ind73","15_0_4",69,40,40,40,40,40,40,40,40,40,42,42,42,42,42,42,42,42,42,43,43,43,42,42,42,42,42,42,41,41,41,41,41,41,41,41,41,39,39,39,39,39,39,39,39,39,43,43,43,43,43,43,43,43,43,39,39,39,39,39,39,39,39,39,0,0,0,0,0,0,0,0,-1,0,0,0,0,0,0,0,0,0,0,0,0,0,0,0,0,0,0,0,0,0,0,0,0,0,0,0,0,0,0,0,0,0,0,0,0,0,0,0,0,0,0,0,0,0,0,0,0,0,0,0,0,0,0,0,0,0,0,0,0,0,0,0,0,0,0,0,0,0,0,0,0,0,0,0,0,0,0,0,0,0,0,0,0,0,0,0,0,0,0,0,0,0,0,0,0,0,0,0
"Ind74","16_0_4",59,37,37,37,37,37,37,37,37,37,35,35,35,35,35,35,35,35,35,39,39,39,38,38,38,38,38,38,37,37,37,37,37,37,37,37,37,39,39,39,39,39,39,39,39,39,41,41,41,41,41,41,41,41,41,37,37,37,37,37,37,37,37,37,17,17,17,17,17,17,17,17,17,-1,0,0,0,0,0,0,0,0,0,0,0,0,0,0,0,0,0,0,0,0,0,0,0,0,0,0,0,0,0,0,0,0,0,0,0,0,0,0,0,0,0,0,0,0,0,0,0,0,0,0,0,0,0,0,0,0,0,0,0,0,0,0,0,0,0,0,0,0,0,0,0,0,0,0,0,0,0,0,0,0,0,0,0,0,0,0,0,0,0,0,0,0,0,0,0,0,0,0
"Ind75","16_0_0",59,37,37,37,37,37,37,37,37,37,35,35,35,35,35,35,35,35,35,39,39,39,38,38,38,38,38,38,37,37,37,37,37,37,37,37,37,39,39,39,39,39,39,39,39,39,41,41,41,41,41,41,41,41,41,37,37,37,37,37,37,37,37,37,17,17,17,17,17,17,17,17,17,0,-1,0,0,0,0,0,0,0,0,0,0,0,0,0,0,0,0,0,0,0,0,0,0,0,0,0,0,0,0,0,0,0,0,0,0,0,0,0,0,0,0,0,0,0,0,0,0,0,0,0,0,0,0,0,0,0,0,0,0,0,0,0,0,0,0,0,0,0,0,0,0,0,0,0,0,0,0,0,0,0,0,0,0,0,0,0,0,0,0,0,0,0,0,0,0,0,0,0
"Ind76","16_0_8",59,37,37,37,37,37,37,37,37,37,35,35,35,35,35,35,35,35,35,39,39,39,38,38,38,38,38,38,37,37,37,37,37,37,37,37,37,39,39,39,39,39,39,39,39,39,41,41,41,41,41,41,41,41,41,37,37,37,37,37,37,37,37,37,17,17,17,17,17,17,17,17,17,0,0,-1,0,0,0,0,0,0,0,0,0,0,0,0,0,0,0,0,0,0,0,0,0,0,0,0,0,0,0,0,0,0,0,0,0,0,0,0,0,0,0,0,0,0,0,0,0,0,0,0,0,0,0,0,0,0,0,0,0,0,0,0,0,0,0,0,0,0,0,0,0,0,0,0,0,0,0,0,0,0,0,0,0,0,0,0,0,0,0,0,0,0,0,0,0,0,0,0
"Ind77","16_0_5",59,37,37,37,37,37,37,37,37,37,35,35,35,35,35,35,35,35,35,39,39,39,38,38,38,38,38,38,37,37,37,37,37,37,37,37,37,39,39,39,39,39,39,39,39,39,41,41,41,41,41,41,41,41,41,37,37,37,37,37,37,37,37,37,17,17,17,17,17,17,17,17,17,0,0,0,-1,0,0,0,0,0,0,0,0,0,0,0,0,0,0,0,0,0,0,0,0,0,0,0,0,0,0,0,0,0,0,0,0,0,0,0,0,0,0,0,0,0,0,0,0,0,0,0,0,0,0,0,0,0,0,0,0,0,0,0,0,0,0,0,0,0,0,0,0,0,0,0,0,0,0,0,0,0,0,0,0,0,0,0,0,0,0,0,0,0,0,0,0,0,0,0
"Ind78","16_0_3",59,37,37,37,37,37,37,37,37,37,35,35,35,35,35,35,35,35,35,39,39,39,38,38,38,38,38,38,37,37,37,37,37,37,37,37,37,39,39,39,39,39,39,39,39,39,41,41,41,41,41,41,41,41,41,37,37,37,37,37,37,37,37,37,17,17,17,17,17,17,17,17,17,0,0,0,0,-1,0,0,0,0,0,0,0,0,0,0,0,0,0,0,0,0,0,0,0,0,0,0,0,0,0,0,0,0,0,0,0,0,0,0,0,0,0,0,0,0,0,0,0,0,0,0,0,0,0,0,0,0,0,0,0,0,0,0,0,0,0,0,0,0,0,0,0,0,0,0,0,0,0,0,0,0,0,0,0,0,0,0,0,0,0,0,0,0,0,0,0,0,0,0
"Ind79","16_0_2",59,37,37,37,37,37,37,37,37,37,35,35,35,35,35,35,35,35,35,39,39,39,38,38,38,38,38,38,37,37,37,37,37,37,37,37,37,39,39,39,39,39,39,39,39,39,41,41,41,41,41,41,41,41,41,37,37,37,37,37,37,37,37,37,17,17,17,17,17,17,17,17,17,0,0,0,0,0,-1,0,0,0,0,0,0,0,0,0,0,0,0,0,0,0,0,0,0,0,0,0,0,0,0,0,0,0,0,0,0,0,0,0,0,0,0,0,0,0,0,0,0,0,0,0,0,0,0,0,0,0,0,0,0,0,0,0,0,0,0,0,0,0,0,0,0,0,0,0,0,0,0,0,0,0,0,0,0,0,0,0,0,0,0,0,0,0,0,0,0,0,0,0
"Ind80","16_0_7",59,37,37,37,37,37,37,37,37,37,35,35,35,35,35,35,35,35,35,39,39,39,38,38,38,38,38,38,37,37,37,37,37,37,37,37,37,39,39,39,39,39,39,39,39,39,41,41,41,41,41,41,41,41,41,37,37,37,37,37,37,37,37,37,17,17,17,17,17,17,17,17,17,0,0,0,0,0,0,-1,0,0,0,0,0,0,0,0,0,0,0,0,0,0,0,0,0,0,0,0,0,0,0,0,0,0,0,0,0,0,0,0,0,0,0,0,0,0,0,0,0,0,0,0,0,0,0,0,0,0,0,0,0,0,0,0,0,0,0,0,0,0,0,0,0,0,0,0,0,0,0,0,0,0,0,0,0,0,0,0,0,0,0,0,0,0,0,0,0,0,0,0
"Ind81","16_0_1",59,37,37,37,37,37,37,37,37,37,35,35,35,35,35,35,35,35,35,39,39,39,38,38,38,38,38,38,37,37,37,37,37,37,37,37,37,39,39,39,39,39,39,39,39,39,41,41,41,41,41,41,41,41,41,37,37,37,37,37,37,37,37,37,17,17,17,17,17,17,17,17,17,0,0,0,0,0,0,0,-1,0,0,0,0,0,0,0,0,0,0,0,0,0,0,0,0,0,0,0,0,0,0,0,0,0,0,0,0,0,0,0,0,0,0,0,0,0,0,0,0,0,0,0,0,0,0,0,0,0,0,0,0,0,0,0,0,0,0,0,0,0,0,0,0,0,0,0,0,0,0,0,0,0,0,0,0,0,0,0,0,0,0,0,0,0,0,0,0,0,0,0
"Ind82","16_0_6",59,37,37,37,37,37,37,37,37,37,35,35,35,35,35,35,35,35,35,39,39,39,38,38,38,38,38,38,37,37,37,37,37,37,37,37,37,39,39,39,39,39,39,39,39,39,41,41,41,41,41,41,41,41,41,37,37,37,37,37,37,37,37,37,17,17,17,17,17,17,17,17,17,0,0,0,0,0,0,0,0,-1,0,0,0,0,0,0,0,0,0,0,0,0,0,0,0,0,0,0,0,0,0,0,0,0,0,0,0,0,0,0,0,0,0,0,0,0,0,0,0,0,0,0,0,0,0,0,0,0,0,0,0,0,0,0,0,0,0,0,0,0,0,0,0,0,0,0,0,0,0,0,0,0,0,0,0,0,0,0,0,0,0,0,0,0,0,0,0,0,0,0
"Ind83","9_0_4",68,42,42,42,42,42,42,42,42,42,38,38,38,38,38,38,38,38,38,48,48,48,47,47,47,47,47,47,46,46,46,46,46,46,46,46,46,44,44,44,44,44,44,44,44,44,43,43,43,43,43,43,43,43,43,39,39,39,39,39,39,39,39,39,34,34,34,34,34,34,34,34,34,21,21,21,21,21,21,21,21,21,-1,0,0,0,0,0,0,0,0,0,0,0,0,0,0,0,0,0,0,0,0,0,0,0,0,0,0,0,0,0,0,0,0,0,0,0,0,0,0,0,0,0,0,0,0,0,0,0,0,0,0,0,0,0,0,0,0,0,0,0,0,0,0,0,0,0,0,0,0,0,0,0,0,0,0,0,0,0,0,0,0,0,0,0,0,0,0,0,0,0
"Ind84","9_0_1",68,42,42,42,42,42,42,42,42,42,38,38,38,38,38,38,38,38,38,48,48,48,47,47,47,47,47,47,46,46,46,46,46,46,46,46,46,44,44,44,44,44,44,44,44,44,43,43,43,43,43,43,43,43,43,39,39,39,39,39,39,39,39,39,34,34,34,34,34,34,34,34,34,21,21,21,21,21,21,21,21,21,0,-1,0,0,0,0,0,0,0,0,0,0,0,0,0,0,0,0,0,0,0,0,0,0,0,0,0,0,0,0,0,0,0,0,0,0,0,0,0,0,0,0,0,0,0,0,0,0,0,0,0,0,0,0,0,0,0,0,0,0,0,0,0,0,0,0,0,0,0,0,0,0,0,0,0,0,0,0,0,0,0,0,0,0,0,0,0,0,0,0
"Ind85","9_0_7",68,42,42,42,42,42,42,42,42,42,38,38,38,38,38,38,38,38,38,48,48,48,47,47,47,47,47,47,46,46,46,46,46,46,46,46,46,44,44,44,44,44,44,44,44,44,43,43,43,43,43,43,43,43,43,39,39,39,39,39,39,39,39,39,34,34,34,34,34,34,34,34,34,21,21,21,21,21,21,21,21,21,0,0,-1,0,0,0,0,0,0,0,0,0,0,0,0,0,0,0,0,0,0,0,0,0,0,0,0,0,0,0,0,0,0,0,0,0,0,0,0,0,0,0,0,0,0,0,0,0,0,0,0,0,0,0,0,0,0,0,0,0,0,0,0,0,0,0,0,0,0,0,0,0,0,0,0,0,0,0,0,0,0,0,0,0,0,0,0,0,0,0
"Ind86","9_0_8",68,42,42,42,42,42,42,42,42,42,38,38,38,38,38,38,38,38,38,48,48,48,47,47,47,47,47,47,46,46,46,46,46,46,46,46,46,44,44,44,44,44,44,44,44,44,43,43,43,43,43,43,43,43,43,39,39,39,39,39,39,39,39,39,34,34,34,34,34,34,34,34,34,21,21,21,21,21,21,21,21,21,0,0,0,-1,0,0,0,0,0,0,0,0,0,0,0,0,0,0,0,0,0,0,0,0,0,0,0,0,0,0,0,0,0,0,0,0,0,0,0,0,0,0,0,0,0,0,0,0,0,0,0,0,0,0,0,0,0,0,0,0,0,0,0,0,0,0,0,0,0,0,0,0,0,0,0,0,0,0,0,0,0,0,0,0,0,0,0,0,0,0
"Ind87","9_0_5",68,42,42,42,42,42,42,42,42,42,38,38,38,38,38,38,38,38,38,48,48,48,47,47,47,47,47,47,46,46,46,46,46,46,46,46,46,44,44,44,44,44,44,44,44,44,43,43,43,43,43,43,43,43,43,39,39,39,39,39,39,39,39,39,34,34,34,34,34,34,34,34,34,21,21,21,21,21,21,21,21,21,0,0,0,0,-1,0,0,0,0,0,0,0,0,0,0,0,0,0,0,0,0,0,0,0,0,0,0,0,0,0,0,0,0,0,0,0,0,0,0,0,0,0,0,0,0,0,0,0,0,0,0,0,0,0,0,0,0,0,0,0,0,0,0,0,0,0,0,0,0,0,0,0,0,0,0,0,0,0,0,0,0,0,0,0,0,0,0,0,0,0
"Ind88","9_0_0",68,42,42,42,42,42,42,42,42,42,38,38,38,38,38,38,38,38,38,48,48,48,47,47,47,47,47,47,46,46,46,46,46,46,46,46,46,44,44,44,44,44,44,44,44,44,43,43,43,43,43,43,43,43,43,39,39,39,39,39,39,39,39,39,34,34,34,34,34,34,34,34,34,21,21,21,21,21,21,21,21,21,0,0,0,0,0,-1,0,0,0,0,0,0,0,0,0,0,0,0,0,0,0,0,0,0,0,0,0,0,0,0,0,0,0,0,0,0,0,0,0,0,0,0,0,0,0,0,0,0,0,0,0,0,0,0,0,0,0,0,0,0,0,0,0,0,0,0,0,0,0,0,0,0,0,0,0,0,0,0,0,0,0,0,0,0,0,0,0,0,0,0
"Ind89","9_0_2",68,42,42,42,42,42,42,42,42,42,38,38,38,38,38,38,38,38,38,48,48,48,47,47,47,47,47,47,46,46,46,46,46,46,46,46,46,44,44,44,44,44,44,44,44,44,43,43,43,43,43,43,43,43,43,39,39,39,39,39,39,39,39,39,34,34,34,34,34,34,34,34,34,21,21,21,21,21,21,21,21,21,0,0,0,0,0,0,-1,0,0,0,0,0,0,0,0,0,0,0,0,0,0,0,0,0,0,0,0,0,0,0,0,0,0,0,0,0,0,0,0,0,0,0,0,0,0,0,0,0,0,0,0,0,0,0,0,0,0,0,0,0,0,0,0,0,0,0,0,0,0,0,0,0,0,0,0,0,0,0,0,0,0,0,0,0,0,0,0,0,0,0
"Ind90","9_0_3",68,42,42,42,42,42,42,42,42,42,38,38,38,38,38,38,38,38,38,48,48,48,47,47,47,47,47,47,46,46,46,46,46,46,46,46,46,44,44,44,44,44,44,44,44,44,43,43,43,43,43,43,43,43,43,39,39,39,39,39,39,39,39,39,34,34,34,34,34,34,34,34,34,21,21,21,21,21,21,21,21,21,0,0,0,0,0,0,0,-1,0,0,0,0,0,0,0,0,0,0,0,0,0,0,0,0,0,0,0,0,0,0,0,0,0,0,0,0,0,0,0,0,0,0,0,0,0,0,0,0,0,0,0,0,0,0,0,0,0,0,0,0,0,0,0,0,0,0,0,0,0,0,0,0,0,0,0,0,0,0,0,0,0,0,0,0,0,0,0,0,0,0
"Ind91","9_0_6",68,42,42,42,42,42,42,42,42,42,38,38,38,38,38,38,38,38,38,48,48,48,47,47,47,47,47,47,46,46,46,46,46,46,46,46,46,44,44,44,44,44,44,44,44,44,43,43,43,43,43,43,43,43,43,39,39,39,39,39,39,39,39,39,34,34,34,34,34,34,34,34,34,21,21,21,21,21,21,21,21,21,0,0,0,0,0,0,0,0,-1,0,0,0,0,0,0,0,0,0,0,0,0,0,0,0,0,0,0,0,0,0,0,0,0,0,0,0,0,0,0,0,0,0,0,0,0,0,0,0,0,0,0,0,0,0,0,0,0,0,0,0,0,0,0,0,0,0,0,0,0,0,0,0,0,0,0,0,0,0,0,0,0,0,0,0,0,0,0,0,0,0
"Ind92","5_0_2",69,38,38,38,38,38,38,38,38,38,32,32,32,32,32,32,32,32,32,44,44,44,43,43,43,43,43,43,42,42,42,42,42,42,42,42,42,40,40,40,40,40,40,40,40,40,40,40,40,40,40,40,40,40,40,36,36,36,36,36,36,36,36,36,30,30,30,30,30,30,30,30,30,19,19,19,19,19,19,19,19,19,8,8,8,8,8,8,8,8,8,-1,0,0,0,0,0,0,0,0,0,0,0,0,0,0,0,0,0,0,0,0,0,0,0,0,0,0,0,0,0,0,0,0,0,0,0,0,0,0,0,0,0,0,0,0,0,0,0,0,0,0,0,0,0,0,0,0,0,0,0,0,0,0,0,0,0,0,0,0,0,0,0,0,0,0,0,0,0,0,0,0
"Ind93","5_0_6",69,38,38,38,38,38,38,38,38,38,32,32,32,32,32,32,32,32,32,44,44,44,43,43,43,43,43,43,42,42,42,42,42,42,42,42,42,40,40,40,40,40,40,40,40,40,40,40,40,40,40,40,40,40,40,36,36,36,36,36,36,36,36,36,30,30,30,30,30,30,30,30,30,19,19,19,19,19,19,19,19,19,8,8,8,8,8,8,8,8,8,0,-1,0,0,0,0,0,0,0,0,0,0,0,0,0,0,0,0,0,0,0,0,0,0,0,0,0,0,0,0,0,0,0,0,0,0,0,0,0,0,0,0,0,0,0,0,0,0,0,0,0,0,0,0,0,0,0,0,0,0,0,0,0,0,0,0,0,0,0,0,0,0,0,0,0,0,0,0,0,0,0
"Ind94","5_0_1",69,38,38,38,38,38,38,38,38,38,32,32,32,32,32,32,32,32,32,44,44,44,43,43,43,43,43,43,42,42,42,42,42,42,42,42,42,40,40,40,40,40,40,40,40,40,40,40,40,40,40,40,40,40,40,36,36,36,36,36,36,36,36,36,30,30,30,30,30,30,30,30,30,19,19,19,19,19,19,19,19,19,8,8,8,8,8,8,8,8,8,0,0,-1,0,0,0,0,0,0,0,0,0,0,0,0,0,0,0,0,0,0,0,0,0,0,0,0,0,0,0,0,0,0,0,0,0,0,0,0,0,0,0,0,0,0,0,0,0,0,0,0,0,0,0,0,0,0,0,0,0,0,0,0,0,0,0,0,0,0,0,0,0,0,0,0,0,0,0,0,0,0
"Ind95","5_0_8",69,38,38,38,38,38,38,38,38,38,32,32,32,32,32,32,32,32,32,44,44,44,43,43,43,43,43,43,42,42,42,42,42,42,42,42,42,40,40,40,40,40,40,40,40,40,40,40,40,40,40,40,40,40,40,36,36,36,36,36,36,36,36,36,30,30,30,30,30,30,30,30,30,19,19,19,19,19,19,19,19,19,8,8,8,8,8,8,8,8,8,0,0,0,-1,0,0,0,0,0,0,0,0,0,0,0,0,0,0,0,0,0,0,0,0,0,0,0,0,0,0,0,0,0,0,0,0,0,0,0,0,0,0,0,0,0,0,0,0,0,0,0,0,0,0,0,0,0,0,0,0,0,0,0,0,0,0,0,0,0,0,0,0,0,0,0,0,0,0,0,0,0
"Ind96","5_0_7",69,38,38,38,38,38,38,38,38,38,32,32,32,32,32,32,32,32,32,44,44,44,43,43,43,43,43,43,42,42,42,42,42,42,42,42,42,40,40,40,40,40,40,40,40,40,40,40,40,40,40,40,40,40,40,36,36,36,36,36,36,36,36,36,30,30,30,30,30,30,30,30,30,19,19,19,19,19,19,19,19,19,8,8,8,8,8,8,8,8,8,0,0,0,0,-1,0,0,0,0,0,0,0,0,0,0,0,0,0,0,0,0,0,0,0,0,0,0,0,0,0,0,0,0,0,0,0,0,0,0,0,0,0,0,0,0,0,0,0,0,0,0,0,0,0,0,0,0,0,0,0,0,0,0,0,0,0,0,0,0,0,0,0,0,0,0,0,0,0,0,0,0
"Ind97","5_0_0",69,38,38,38,38,38,38,38,38,38,32,32,32,32,32,32,32,32,32,44,44,44,43,43,43,43,43,43,42,42,42,42,42,42,42,42,42,40,40,40,40,40,40,40,40,40,40,40,40,40,40,40,40,40,40,36,36,36,36,36,36,36,36,36,30,30,30,30,30,30,30,30,30,19,19,19,19,19,19,19,19,19,8,8,8,8,8,8,8,8,8,0,0,0,0,0,-1,0,0,0,0,0,0,0,0,0,0,0,0,0,0,0,0,0,0,0,0,0,0,0,0,0,0,0,0,0,0,0,0,0,0,0,0,0,0,0,0,0,0,0,0,0,0,0,0,0,0,0,0,0,0,0,0,0,0,0,0,0,0,0,0,0,0,0,0,0,0,0,0,0,0,0
"Ind98","5_0_5",69,38,38,38,38,38,38,38,38,38,32,32,32,32,32,32,32,32,32,44,44,44,43,43,43,43,43,43,42,42,42,42,42,42,42,42,42,40,40,40,40,40,40,40,40,40,40,40,40,40,40,40,40,40,40,36,36,36,36,36,36,36,36,36,30,30,30,30,30,30,30,30,30,19,19,19,19,19,19,19,19,19,8,8,8,8,8,8,8,8,8,0,0,0,0,0,0,-1,0,0,0,0,0,0,0,0,0,0,0,0,0,0,0,0,0,0,0,0,0,0,0,0,0,0,0,0,0,0,0,0,0,0,0,0,0,0,0,0,0,0,0,0,0,0,0,0,0,0,0,0,0,0,0,0,0,0,0,0,0,0,0,0,0,0,0,0,0,0,0,0,0,0
"Ind99","5_0_4",69,38,38,38,38,38,38,38,38,38,32,32,32,32,32,32,32,32,32,44,44,44,43,43,43,43,43,43,42,42,42,42,42,42,42,42,42,40,40,40,40,40,40,40,40,40,40,40,40,40,40,40,40,40,40,36,36,36,36,36,36,36,36,36,30,30,30,30,30,30,30,30,30,19,19,19,19,19,19,19,19,19,8,8,8,8,8,8,8,8,8,0,0,0,0,0,0,0,-1,0,0,0,0,0,0,0,0,0,0,0,0,0,0,0,0,0,0,0,0,0,0,0,0,0,0,0,0,0,0,0,0,0,0,0,0,0,0,0,0,0,0,0,0,0,0,0,0,0,0,0,0,0,0,0,0,0,0,0,0,0,0,0,0,0,0,0,0,0,0,0,0,0
"Ind100","5_0_3",69,38,38,38,38,38,38,38,38,38,32,32,32,32,32,32,32,32,32,44,44,44,43,43,43,43,43,43,42,42,42,42,42,42,42,42,42,40,40,40,40,40,40,40,40,40,40,40,40,40,40,40,40,40,40,36,36,36,36,36,36,36,36,36,30,30,30,30,30,30,30,30,30,19,19,19,19,19,19,19,19,19,8,8,8,8,8,8,8,8,8,0,0,0,0,0,0,0,0,-1,0,0,0,0,0,0,0,0,0,0,0,0,0,0,0,0,0,0,0,0,0,0,0,0,0,0,0,0,0,0,0,0,0,0,0,0,0,0,0,0,0,0,0,0,0,0,0,0,0,0,0,0,0,0,0,0,0,0,0,0,0,0,0,0,0,0,0,0,0,0,0,0
"Ind101","12_0_8",69,38,38,38,38,38,38,38,38,38,32,32,32,32,32,32,32,32,32,38,38,38,37,37,37,37,37,37,38,38,38,38,38,38,38,38,38,38,38,38,38,38,38,38,38,38,38,38,38,38,38,38,38,38,38,34,34,34,34,34,34,34,34,34,32,32,32,32,32,32,32,32,32,25,25,25,25,25,25,25,25,25,30,30,30,30,30,30,30,30,30,26,26,26,26,26,26,26,26,26,-1,0,0,0,0,0,0,0,0,0,0,0,0,0,0,0,0,0,0,0,0,0,0,0,0,0,0,0,0,0,0,0,0,0,0,0,0,0,0,0,0,0,0,0,0,0,0,0,0,0,0,0,0,0,0,0,0,0,0,0,0,0,0,0,0,0,0,0,0,0,0,0
"Ind102","12_0_2",69,38,38,38,38,38,38,38,38,38,32,32,32,32,32,32,32,32,32,38,38,38,37,37,37,37,37,37,38,38,38,38,38,38,38,38,38,38,38,38,38,38,38,38,38,38,38,38,38,38,38,38,38,38,38,34,34,34,34,34,34,34,34,34,32,32,32,32,32,32,32,32,32,25,25,25,25,25,25,25,25,25,30,30,30,30,30,30,30,30,30,26,26,26,26,26,26,26,26,26,0,-1,0,0,0,0,0,0,0,0,0,0,0,0,0,0,0,0,0,0,0,0,0,0,0,0,0,0,0,0,0,0,0,0,0,0,0,0,0,0,0,0,0,0,0,0,0,0,0,0,0,0,0,0,0,0,0,0,0,0,0,0,0,0,0,0,0,0,0,0,0,0
"Ind103","12_0_6",69,38,38,38,38,38,38,38,38,38,32,32,32,32,32,32,32,32,32,38,38,38,37,37,37,37,37,37,38,38,38,38,38,38,38,38,38,38,38,38,38,38,38,38,38,38,38,38,38,38,38,38,38,38,38,34,34,34,34,34,34,34,34,34,32,32,32,32,32,32,32,32,32,25,25,25,25,25,25,25,25,25,30,30,30,30,30,30,30,30,30,26,26,26,26,26,26,26,26,26,0,0,-1,0,0,0,0,0,0,0,0,0,0,0,0,0,0,0,0,0,0,0,0,0,0,0,0,0,0,0,0,0,0,0,0,0,0,0,0,0,0,0,0,0,0,0,0,0,0,0,0,0,0,0,0,0,0,0,0,0,0,0,0,0,0,0,0,0,0,0,0,0
"Ind104","12_0_4",69,38,38,38,38,38,38,38,38,38,32,32,32,32,32,32,32,32,32,38,38,38,37,37,37,37,37,37,38,38,38,38,38,38,38,38,38,38,38,38,38,38,38,38,38,38,38,38,38,38,38,38,38,38,38,34,34,34,34,34,34,34,34,34,32,32,32,32,32,32,32,32,32,25,25,25,25,25,25,25,25,25,30,30,30,30,30,30,30,30,30,26,26,26,26,26,26,26,26,26,0,0,0,-1,0,0,0,0,0,0,0,0,0,0,0,0,0,0,0,0,0,0,0,0,0,0,0,0,0,0,0,0,0,0,0,0,0,0,0,0,0,0,0,0,0,0,0,0,0,0,0,0,0,0,0,0,0,0,0,0,0,0,0,0,0,0,0,0,0,0,0,0
"Ind105","12_0_0",69,38,38,38,38,38,38,38,38,38,32,32,32,32,32,32,32,32,32,38,38,38,37,37,37,37,37,37,38,38,38,38,38,38,38,38,38,38,38,38,38,38,38,38,38,38,38,38,38,38,38,38,38,38,38,34,34,34,34,34,34,34,34,34,32,32,32,32,32,32,32,32,32,25,25,25,25,25,25,25,25,25,30,30,30,30,30,30,30,30,30,26,26,26,26,26,26,26,26,26,0,0,0,0,-1,0,0,0,0,0,0,0,0,0,0,0,0,0,0,0,0,0,0,0,0,0,0,0,0,0,0,0,0,0,0,0,0,0,0,0,0,0,0,0,0,0,0,0,0,0,0,0,0,0,0,0,0,0,0,0,0,0,0,0,0,0,0,0,0,0,0,0
"Ind106","12_0_7",69,38,38,38,38,38,38,38,38,38,32,32,32,32,32,32,32,32,32,38,38,38,37,37,37,37,37,37,38,38,38,38,38,38,38,38,38,38,38,38,38,38,38,38,38,38,38,38,38,38,38,38,38,38,38,34,34,34,34,34,34,34,34,34,32,32,32,32,32,32,32,32,32,25,25,25,25,25,25,25,25,25,30,30,30,30,30,30,30,30,30,26,26,26,26,26,26,26,26,26,0,0,0,0,0,-1,0,0,0,0,0,0,0,0,0,0,0,0,0,0,0,0,0,0,0,0,0,0,0,0,0,0,0,0,0,0,0,0,0,0,0,0,0,0,0,0,0,0,0,0,0,0,0,0,0,0,0,0,0,0,0,0,0,0,0,0,0,0,0,0,0,0
"Ind107","12_0_1",69,38,38,38,38,38,38,38,38,38,32,32,32,32,32,32,32,32,32,38,38,38,37,37,37,37,37,37,38,38,38,38,38,38,38,38,38,38,38,38,38,38,38,38,38,38,38,38,38,38,38,38,38,38,38,34,34,34,34,34,34,34,34,34,32,32,32,32,32,32,32,32,32,25,25,25,25,25,25,25,25,25,30,30,30,30,30,30,30,30,30,26,26,26,26,26,26,26,26,26,0,0,0,0,0,0,-1,0,0,0,0,0,0,0,0,0,0,0,0,0,0,0,0,0,0,0,0,0,0,0,0,0,0,0,0,0,0,0,0,0,0,0,0,0,0,0,0,0,0,0,0,0,0,0,0,0,0,0,0,0,0,0,0,0,0,0,0,0,0,0,0,0
"Ind108","12_0_5",69,38,38,38,38,38,38,38,38,38,32,32,32,32,32,32,32,32,32,38,38,38,37,37,37,37,37,37,38,38,38,38,38,38,38,38,38,38,38,38,38,38,38,38,38,38,38,38,38,38,38,38,38,38,38,34,34,34,34,34,34,34,34,34,32,32,32,32,32,32,32,32,32,25,25,25,25,25,25,25,25,25,30,30,30,30,30,30,30,30,30,26,26,26,26,26,26,26,26,26,0,0,0,0,0,0,0,-1,0,0,0,0,0,0,0,0,0,0,0,0,0,0,0,0,0,0,0,0,0,0,0,0,0,0,0,0,0,0,0,0,0,0,0,0,0,0,0,0,0,0,0,0,0,0,0,0,0,0,0,0,0,0,0,0,0,0,0,0,0,0,0,0
"Ind109","12_0_3",69,38,38,38,38,38,38,38,38,38,32,32,32,32,32,32,32,32,32,38,38,38,37,37,37,37,37,37,38,38,38,38,38,38,38,38,38,38,38,38,38,38,38,38,38,38,38,38,38,38,38,38,38,38,38,34,34,34,34,34,34,34,34,34,32,32,32,32,32,32,32,32,32,25,25,25,25,25,25,25,25,25,30,30,30,30,30,30,30,30,30,26,26,26,26,26,26,26,26,26,0,0,0,0,0,0,0,0,-1,0,0,0,0,0,0,0,0,0,0,0,0,0,0,0,0,0,0,0,0,0,0,0,0,0,0,0,0,0,0,0,0,0,0,0,0,0,0,0,0,0,0,0,0,0,0,0,0,0,0,0,0,0,0,0,0,0,0,0,0,0,0,0
"Ind110","19_0_8",66,35,35,35,35,35,35,35,35,35,31,31,31,31,31,31,31,31,31,37,37,37,36,36,36,36,36,36,37,37,37,37,37,37,37,37,37,37,37,37,37,37,37,37,37,37,37,37,37,37,37,37,37,37,37,33,33,33,33,33,33,33,33,33,31,31,31,31,31,31,31,31,31,22,22,22,22,22,22,22,22,22,27,27,27,27,27,27,27,27,27,23,23,23,23,23,23,23,23,23,5,5,5,5,5,5,5,5,5,-1,0,0,0,0,0,0,0,0,0,0,0,0,0,0,0,0,0,0,0,0,0,0,0,0,0,0,0,0,0,0,0,0,0,0,0,0,0,0,0,0,0,0,0,0,0,0,0,0,0,0,0,0,0,0,0,0,0,0,0,0,0,0
"Ind111","19_0_1",66,35,35,35,35,35,35,35,35,35,31,31,31,31,31,31,31,31,31,37,37,37,36,36,36,36,36,36,37,37,37,37,37,37,37,37,37,37,37,37,37,37,37,37,37,37,37,37,37,37,37,37,37,37,37,33,33,33,33,33,33,33,33,33,31,31,31,31,31,31,31,31,31,22,22,22,22,22,22,22,22,22,27,27,27,27,27,27,27,27,27,23,23,23,23,23,23,23,23,23,5,5,5,5,5,5,5,5,5,0,-1,0,0,0,0,0,0,0,0,0,0,0,0,0,0,0,0,0,0,0,0,0,0,0,0,0,0,0,0,0,0,0,0,0,0,0,0,0,0,0,0,0,0,0,0,0,0,0,0,0,0,0,0,0,0,0,0,0,0,0,0,0
"Ind112","19_0_3",66,35,35,35,35,35,35,35,35,35,31,31,31,31,31,31,31,31,31,37,37,37,36,36,36,36,36,36,37,37,37,37,37,37,37,37,37,37,37,37,37,37,37,37,37,37,37,37,37,37,37,37,37,37,37,33,33,33,33,33,33,33,33,33,31,31,31,31,31,31,31,31,31,22,22,22,22,22,22,22,22,22,27,27,27,27,27,27,27,27,27,23,23,23,23,23,23,23,23,23,5,5,5,5,5,5,5,5,5,0,0,-1,0,0,0,0,0,0,0,0,0,0,0,0,0,0,0,0,0,0,0,0,0,0,0,0,0,0,0,0,0,0,0,0,0,0,0,0,0,0,0,0,0,0,0,0,0,0,0,0,0,0,0,0,0,0,0,0,0,0,0,0
"Ind113","19_0_4",66,35,35,35,35,35,35,35,35,35,31,31,31,31,31,31,31,31,31,37,37,37,36,36,36,36,36,36,37,37,37,37,37,37,37,37,37,37,37,37,37,37,37,37,37,37,37,37,37,37,37,37,37,37,37,33,33,33,33,33,33,33,33,33,31,31,31,31,31,31,31,31,31,22,22,22,22,22,22,22,22,22,27,27,27,27,27,27,27,27,27,23,23,23,23,23,23,23,23,23,5,5,5,5,5,5,5,5,5,0,0,0,-1,0,0,0,0,0,0,0,0,0,0,0,0,0,0,0,0,0,0,0,0,0,0,0,0,0,0,0,0,0,0,0,0,0,0,0,0,0,0,0,0,0,0,0,0,0,0,0,0,0,0,0,0,0,0,0,0,0,0,0
"Ind114","19_0_2",66,35,35,35,35,35,35,35,35,35,31,31,31,31,31,31,31,31,31,37,37,37,36,36,36,36,36,36,37,37,37,37,37,37,37,37,37,37,37,37,37,37,37,37,37,37,37,37,37,37,37,37,37,37,37,33,33,33,33,33,33,33,33,33,31,31,31,31,31,31,31,31,31,22,22,22,22,22,22,22,22,22,27,27,27,27,27,27,27,27,27,23,23,23,23,23,23,23,23,23,5,5,5,5,5,5,5,5,5,0,0,0,0,-1,0,0,0,0,0,0,0,0,0,0,0,0,0,0,0,0,0,0,0,0,0,0,0,0,0,0,0,0,0,0,0,0,0,0,0,0,0,0,0,0,0,0,0,0,0,0,0,0,0,0,0,0,0,0,0,0,0,0
"Ind115","19_0_6",66,35,35,35,35,35,35,35,35,35,31,31,31,31,31,31,31,31,31,37,37,37,36,36,36,36,36,36,37,37,37,37,37,37,37,37,37,37,37,37,37,37,37,37,37,37,37,37,37,37,37,37,37,37,37,33,33,33,33,33,33,33,33,33,31,31,31,31,31,31,31,31,31,22,22,22,22,22,22,22,22,22,27,27,27,27,27,27,27,27,27,23,23,23,23,23,23,23,23,23,5,5,5,5,5,5,5,5,5,0,0,0,0,0,-1,0,0,0,0,0,0,0,0,0,0,0,0,0,0,0,0,0,0,0,0,0,0,0,0,0,0,0,0,0,0,0,0,0,0,0,0,0,0,0,0,0,0,0,0,0,0,0,0,0,0,0,0,0,0,0,0,0
"Ind116","19_0_7",66,35,35,35,35,35,35,35,35,35,31,31,31,31,31,31,31,31,31,37,37,37,36,36,36,36,36,36,37,37,37,37,37,37,37,37,37,37,37,37,37,37,37,37,37,37,37,37,37,37,37,37,37,37,37,33,33,33,33,33,33,33,33,33,31,31,31,31,31,31,31,31,31,22,22,22,22,22,22,22,22,22,27,27,27,27,27,27,27,27,27,23,23,23,23,23,23,23,23,23,5,5,5,5,5,5,5,5,5,0,0,0,0,0,0,-1,0,0,0,0,0,0,0,0,0,0,0,0,0,0,0,0,0,0,0,0,0,0,0,0,0,0,0,0,0,0,0,0,0,0,0,0,0,0,0,0,0,0,0,0,0,0,0,0,0,0,0,0,0,0,0,0
"Ind117","19_0_5",66,35,35,35,35,35,35,35,35,35,31,31,31,31,31,31,31,31,31,37,37,37,36,36,36,36,36,36,37,37,37,37,37,37,37,37,37,37,37,37,37,37,37,37,37,37,37,37,37,37,37,37,37,37,37,33,33,33,33,33,33,33,33,33,31,31,31,31,31,31,31,31,31,22,22,22,22,22,22,22,22,22,27,27,27,27,27,27,27,27,27,23,23,23,23,23,23,23,23,23,5,5,5,5,5,5,5,5,5,0,0,0,0,0,0,0,-1,0,0,0,0,0,0,0,0,0,0,0,0,0,0,0,0,0,0,0,0,0,0,0,0,0,0,0,0,0,0,0,0,0,0,0,0,0,0,0,0,0,0,0,0,0,0,0,0,0,0,0,0,0,0,0
"Ind118","19_0_0",66,35,35,35,35,35,35,35,35,35,31,31,31,31,31,31,31,31,31,37,37,37,36,36,36,36,36,36,37,37,37,37,37,37,37,37,37,37,37,37,37,37,37,37,37,37,37,37,37,37,37,37,37,37,37,33,33,33,33,33,33,33,33,33,31,31,31,31,31,31,31,31,31,22,22,22,22,22,22,22,22,22,27,27,27,27,27,27,27,27,27,23,23,23,23,23,23,23,23,23,5,5,5,5,5,5,5,5,5,0,0,0,0,0,0,0,0,-1,0,0,0,0,0,0,0,0,0,0,0,0,0,0,0,0,0,0,0,0,0,0,0,0,0,0,0,0,0,0,0,0,0,0,0,0,0,0,0,0,0,0,0,0,0,0,0,0,0,0,0,0,0,0
"Ind119","7_0_6",71,36,36,36,36,36,36,36,36,36,34,34,34,34,34,34,34,34,34,33,33,33,34,34,34,34,34,34,35,35,35,35,35,35,35,35,35,35,35,35,35,35,35,35,35,35,35,35,35,35,35,35,35,35,35,31,31,31,31,31,31,31,31,31,34,34,34,34,34,34,34,34,34,25,25,25,25,25,25,25,25,25,30,30,30,30,30,30,30,30,30,26,26,26,26,26,26,26,26,26,14,14,14,14,14,14,14,14,14,13,13,13,13,13,13,13,13,13,-1,0,0,0,0,0,0,0,0,0,0,0,0,0,0,0,0,0,0,0,0,0,0,0,0,0,0,0,0,0,0,0,0,0,0,0,0,0,0,0,0,0,0,0,0,0,0,0,0,0,0,0,0,0
"Ind120","7_0_3",71,36,36,36,36,36,36,36,36,36,34,34,34,34,34,34,34,34,34,33,33,33,34,34,34,34,34,34,35,35,35,35,35,35,35,35,35,35,35,35,35,35,35,35,35,35,35,35,35,35,35,35,35,35,35,31,31,31,31,31,31,31,31,31,34,34,34,34,34,34,34,34,34,25,25,25,25,25,25,25,25,25,30,30,30,30,30,30,30,30,30,26,26,26,26,26,26,26,26,26,14,14,14,14,14,14,14,14,14,13,13,13,13,13,13,13,13,13,0,-1,0,0,0,0,0,0,0,0,0,0,0,0,0,0,0,0,0,0,0,0,0,0,0,0,0,0,0,0,0,0,0,0,0,0,0,0,0,0,0,0,0,0,0,0,0,0,0,0,0,0,0,0
"Ind121","7_0_7",71,36,36,36,36,36,36,36,36,36,34,34,34,34,34,34,34,34,34,33,33,33,34,34,34,34,34,34,35,35,35,35,35,35,35,35,35,35,35,35,35,35,35,35,35,35,35,35,35,35,35,35,35,35,35,31,31,31,31,31,31,31,31,31,34,34,34,34,34,34,34,34,34,25,25,25,25,25,25,25,25,25,30,30,30,30,30,30,30,30,30,26,26,26,26,26,26,26,26,26,14,14,14,14,14,14,14,14,14,13,13,13,13,13,13,13,13,13,0,0,-1,0,0,0,0,0,0,0,0,0,0,0,0,0,0,0,0,0,0,0,0,0,0,0,0,0,0,0,0,0,0,0,0,0,0,0,0,0,0,0,0,0,0,0,0,0,0,0,0,0,0,0
"Ind122","7_0_2",71,36,36,36,36,36,36,36,36,36,34,34,34,34,34,34,34,34,34,33,33,33,34,34,34,34,34,34,35,35,35,35,35,35,35,35,35,35,35,35,35,35,35,35,35,35,35,35,35,35,35,35,35,35,35,31,31,31,31,31,31,31,31,31,34,34,34,34,34,34,34,34,34,25,25,25,25,25,25,25,25,25,30,30,30,30,30,30,30,30,30,26,26,26,26,26,26,26,26,26,14,14,14,14,14,14,14,14,14,13,13,13,13,13,13,13,13,13,0,0,0,-1,0,0,0,0,0,0,0,0,0,0,0,0,0,0,0,0,0,0,0,0,0,0,0,0,0,0,0,0,0,0,0,0,0,0,0,0,0,0,0,0,0,0,0,0,0,0,0,0,0,0
"Ind123","7_0_4",71,36,36,36,36,36,36,36,36,36,34,34,34,34,34,34,34,34,34,33,33,33,34,34,34,34,34,34,35,35,35,35,35,35,35,35,35,35,35,35,35,35,35,35,35,35,35,35,35,35,35,35,35,35,35,31,31,31,31,31,31,31,31,31,34,34,34,34,34,34,34,34,34,25,25,25,25,25,25,25,25,25,30,30,30,30,30,30,30,30,30,26,26,26,26,26,26,26,26,26,14,14,14,14,14,14,14,14,14,13,13,13,13,13,13,13,13,13,0,0,0,0,-1,0,0,0,0,0,0,0,0,0,0,0,0,0,0,0,0,0,0,0,0,0,0,0,0,0,0,0,0,0,0,0,0,0,0,0,0,0,0,0,0,0,0,0,0,0,0,0,0,0
"Ind124","7_0_1",71,36,36,36,36,36,36,36,36,36,34,34,34,34,34,34,34,34,34,33,33,33,34,34,34,34,34,34,35,35,35,35,35,35,35,35,35,35,35,35,35,35,35,35,35,35,35,35,35,35,35,35,35,35,35,31,31,31,31,31,31,31,31,31,34,34,34,34,34,34,34,34,34,25,25,25,25,25,25,25,25,25,30,30,30,30,30,30,30,30,30,26,26,26,26,26,26,26,26,26,14,14,14,14,14,14,14,14,14,13,13,13,13,13,13,13,13,13,0,0,0,0,0,-1,0,0,0,0,0,0,0,0,0,0,0,0,0,0,0,0,0,0,0,0,0,0,0,0,0,0,0,0,0,0,0,0,0,0,0,0,0,0,0,0,0,0,0,0,0,0,0,0
"Ind125","7_0_0",71,36,36,36,36,36,36,36,36,36,34,34,34,34,34,34,34,34,34,33,33,33,34,34,34,34,34,34,35,35,35,35,35,35,35,35,35,35,35,35,35,35,35,35,35,35,35,35,35,35,35,35,35,35,35,31,31,31,31,31,31,31,31,31,34,34,34,34,34,34,34,34,34,25,25,25,25,25,25,25,25,25,30,30,30,30,30,30,30,30,30,26,26,26,26,26,26,26,26,26,14,14,14,14,14,14,14,14,14,13,13,13,13,13,13,13,13,13,0,0,0,0,0,0,-1,0,0,0,0,0,0,0,0,0,0,0,0,0,0,0,0,0,0,0,0,0,0,0,0,0,0,0,0,0,0,0,0,0,0,0,0,0,0,0,0,0,0,0,0,0,0,0
"Ind126","7_0_8",71,36,36,36,36,36,36,36,36,36,34,34,34,34,34,34,34,34,34,33,33,33,34,34,34,34,34,34,35,35,35,35,35,35,35,35,35,35,35,35,35,35,35,35,35,35,35,35,35,35,35,35,35,35,35,31,31,31,31,31,31,31,31,31,34,34,34,34,34,34,34,34,34,25,25,25,25,25,25,25,25,25,30,30,30,30,30,30,30,30,30,26,26,26,26,26,26,26,26,26,14,14,14,14,14,14,14,14,14,13,13,13,13,13,13,13,13,13,0,0,0,0,0,0,0,-1,0,0,0,0,0,0,0,0,0,0,0,0,0,0,0,0,0,0,0,0,0,0,0,0,0,0,0,0,0,0,0,0,0,0,0,0,0,0,0,0,0,0,0,0,0,0
"Ind127","7_0_5",71,36,36,36,36,36,36,36,36,36,34,34,34,34,34,34,34,34,34,33,33,33,34,34,34,34,34,34,35,35,35,35,35,35,35,35,35,35,35,35,35,35,35,35,35,35,35,35,35,35,35,35,35,35,35,31,31,31,31,31,31,31,31,31,34,34,34,34,34,34,34,34,34,25,25,25,25,25,25,25,25,25,30,30,30,30,30,30,30,30,30,26,26,26,26,26,26,26,26,26,14,14,14,14,14,14,14,14,14,13,13,13,13,13,13,13,13,13,0,0,0,0,0,0,0,0,-1,0,0,0,0,0,0,0,0,0,0,0,0,0,0,0,0,0,0,0,0,0,0,0,0,0,0,0,0,0,0,0,0,0,0,0,0,0,0,0,0,0,0,0,0,0
"Ind128","13_0_6",72,39,39,39,39,39,39,39,39,39,35,35,35,35,35,35,35,35,35,34,34,34,35,35,35,35,35,35,36,36,36,36,36,36,36,36,36,36,36,36,36,36,36,36,36,36,36,36,36,36,36,36,36,36,36,32,32,32,32,32,32,32,32,32,35,35,35,35,35,35,35,35,35,26,26,26,26,26,26,26,26,26,31,31,31,31,31,31,31,31,31,27,27,27,27,27,27,27,27,27,15,15,15,15,15,15,15,15,15,14,14,14,14,14,14,14,14,14,7,7,7,7,7,7,7,7,7,-1,0,0,0,0,0,0,0,0,0,0,0,0,0,0,0,0,0,0,0,0,0,0,0,0,0,0,0,0,0,0,0,0,0,0,0,0,0,0,0,0,0,0,0,0
"Ind129","13_0_4",72,39,39,39,39,39,39,39,39,39,35,35,35,35,35,35,35,35,35,34,34,34,35,35,35,35,35,35,36,36,36,36,36,36,36,36,36,36,36,36,36,36,36,36,36,36,36,36,36,36,36,36,36,36,36,32,32,32,32,32,32,32,32,32,35,35,35,35,35,35,35,35,35,26,26,26,26,26,26,26,26,26,31,31,31,31,31,31,31,31,31,27,27,27,27,27,27,27,27,27,15,15,15,15,15,15,15,15,15,14,14,14,14,14,14,14,14,14,7,7,7,7,7,7,7,7,7,0,-1,0,0,0,0,0,0,0,0,0,0,0,0,0,0,0,0,0,0,0,0,0,0,0,0,0,0,0,0,0,0,0,0,0,0,0,0,0,0,0,0,0,0,0
"Ind130","13_0_5",72,39,39,39,39,39,39,39,39,39,35,35,35,35,35,35,35,35,35,34,34,34,35,35,35,35,35,35,36,36,36,36,36,36,36,36,36,36,36,36,36,36,36,36,36,36,36,36,36,36,36,36,36,36,36,32,32,32,32,32,32,32,32,32,35,35,35,35,35,35,35,35,35,26,26,26,26,26,26,26,26,26,31,31,31,31,31,31,31,31,31,27,27,27,27,27,27,27,27,27,15,15,15,15,15,15,15,15,15,14,14,14,14,14,14,14,14,14,7,7,7,7,7,7,7,7,7,0,0,-1,0,0,0,0,0,0,0,0,0,0,0,0,0,0,0,0,0,0,0,0,0,0,0,0,0,0,0,0,0,0,0,0,0,0,0,0,0,0,0,0,0,0
"Ind131","13_0_2",72,39,39,39,39,39,39,39,39,39,35,35,35,35,35,35,35,35,35,34,34,34,35,35,35,35,35,35,36,36,36,36,36,36,36,36,36,36,36,36,36,36,36,36,36,36,36,36,36,36,36,36,36,36,36,32,32,32,32,32,32,32,32,32,35,35,35,35,35,35,35,35,35,26,26,26,26,26,26,26,26,26,31,31,31,31,31,31,31,31,31,27,27,27,27,27,27,27,27,27,15,15,15,15,15,15,15,15,15,14,14,14,14,14,14,14,14,14,7,7,7,7,7,7,7,7,7,0,0,0,-1,0,0,0,0,0,0,0,0,0,0,0,0,0,0,0,0,0,0,0,0,0,0,0,0,0,0,0,0,0,0,0,0,0,0,0,0,0,0,0,0,0
"Ind132","13_0_7",72,39,39,39,39,39,39,39,39,39,35,35,35,35,35,35,35,35,35,34,34,34,35,35,35,35,35,35,36,36,36,36,36,36,36,36,36,36,36,36,36,36,36,36,36,36,36,36,36,36,36,36,36,36,36,32,32,32,32,32,32,32,32,32,35,35,35,35,35,35,35,35,35,26,26,26,26,26,26,26,26,26,31,31,31,31,31,31,31,31,31,27,27,27,27,27,27,27,27,27,15,15,15,15,15,15,15,15,15,14,14,14,14,14,14,14,14,14,7,7,7,7,7,7,7,7,7,0,0,0,0,-1,0,0,0,0,0,0,0,0,0,0,0,0,0,0,0,0,0,0,0,0,0,0,0,0,0,0,0,0,0,0,0,0,0,0,0,0,0,0,0,0
"Ind133","13_0_3",72,39,39,39,39,39,39,39,39,39,35,35,35,35,35,35,35,35,35,34,34,34,35,35,35,35,35,35,36,36,36,36,36,36,36,36,36,36,36,36,36,36,36,36,36,36,36,36,36,36,36,36,36,36,36,32,32,32,32,32,32,32,32,32,35,35,35,35,35,35,35,35,35,26,26,26,26,26,26,26,26,26,31,31,31,31,31,31,31,31,31,27,27,27,27,27,27,27,27,27,15,15,15,15,15,15,15,15,15,14,14,14,14,14,14,14,14,14,7,7,7,7,7,7,7,7,7,0,0,0,0,0,-1,0,0,0,0,0,0,0,0,0,0,0,0,0,0,0,0,0,0,0,0,0,0,0,0,0,0,0,0,0,0,0,0,0,0,0,0,0,0,0
"Ind134","13_0_0",72,39,39,39,39,39,39,39,39,39,35,35,35,35,35,35,35,35,35,34,34,34,35,35,35,35,35,35,36,36,36,36,36,36,36,36,36,36,36,36,36,36,36,36,36,36,36,36,36,36,36,36,36,36,36,32,32,32,32,32,32,32,32,32,35,35,35,35,35,35,35,35,35,26,26,26,26,26,26,26,26,26,31,31,31,31,31,31,31,31,31,27,27,27,27,27,27,27,27,27,15,15,15,15,15,15,15,15,15,14,14,14,14,14,14,14,14,14,7,7,7,7,7,7,7,7,7,0,0,0,0,0,0,-1,0,0,0,0,0,0,0,0,0,0,0,0,0,0,0,0,0,0,0,0,0,0,0,0,0,0,0,0,0,0,0,0,0,0,0,0,0,0
"Ind135","13_0_1",72,39,39,39,39,39,39,39,39,39,35,35,35,35,35,35,35,35,35,34,34,34,35,35,35,35,35,35,36,36,36,36,36,36,36,36,36,36,36,36,36,36,36,36,36,36,36,36,36,36,36,36,36,36,36,32,32,32,32,32,32,32,32,32,35,35,35,35,35,35,35,35,35,26,26,26,26,26,26,26,26,26,31,31,31,31,31,31,31,31,31,27,27,27,27,27,27,27,27,27,15,15,15,15,15,15,15,15,15,14,14,14,14,14,14,14,14,14,7,7,7,7,7,7,7,7,7,0,0,0,0,0,0,0,-1,0,0,0,0,0,0,0,0,0,0,0,0,0,0,0,0,0,0,0,0,0,0,0,0,0,0,0,0,0,0,0,0,0,0,0,0,0
"Ind136","13_0_8",72,39,39,39,39,39,39,39,39,39,35,35,35,35,35,35,35,35,35,34,34,34,35,35,35,35,35,35,36,36,36,36,36,36,36,36,36,36,36,36,36,36,36,36,36,36,36,36,36,36,36,36,36,36,36,32,32,32,32,32,32,32,32,32,35,35,35,35,35,35,35,35,35,26,26,26,26,26,26,26,26,26,31,31,31,31,31,31,31,31,31,27,27,27,27,27,27,27,27,27,15,15,15,15,15,15,15,15,15,14,14,14,14,14,14,14,14,14,7,7,7,7,7,7,7,7,7,0,0,0,0,0,0,0,0,-1,0,0,0,0,0,0,0,0,0,0,0,0,0,0,0,0,0,0,0,0,0,0,0,0,0,0,0,0,0,0,0,0,0,0,0,0
"Ind137","10_0_4",66,39,39,39,39,39,39,39,39,39,35,35,35,35,35,35,35,35,35,38,38,38,37,37,37,37,37,37,36,36,36,36,36,36,36,36,36,38,38,38,38,38,38,38,38,38,34,34,34,34,34,34,34,34,34,30,30,30,30,30,30,30,30,30,31,31,31,31,31,31,31,31,31,20,20,20,20,20,20,20,20,20,27,27,27,27,27,27,27,27,27,23,23,23,23,23,23,23,23,23,23,23,23,23,23,23,23,23,23,20,20,20,20,20,20,20,20,20,23,23,23,23,23,23,23,23,23,24,24,24,24,24,24,24,24,24,-1,0,0,0,0,0,0,0,0,0,0,0,0,0,0,0,0,0,0,0,0,0,0,0,0,0,0,0,0,0,0,0,0,0,0,0
"Ind138","10_0_0",66,39,39,39,39,39,39,39,39,39,35,35,35,35,35,35,35,35,35,38,38,38,37,37,37,37,37,37,36,36,36,36,36,36,36,36,36,38,38,38,38,38,38,38,38,38,34,34,34,34,34,34,34,34,34,30,30,30,30,30,30,30,30,30,31,31,31,31,31,31,31,31,31,20,20,20,20,20,20,20,20,20,27,27,27,27,27,27,27,27,27,23,23,23,23,23,23,23,23,23,23,23,23,23,23,23,23,23,23,20,20,20,20,20,20,20,20,20,23,23,23,23,23,23,23,23,23,24,24,24,24,24,24,24,24,24,0,-1,0,0,0,0,0,0,0,0,0,0,0,0,0,0,0,0,0,0,0,0,0,0,0,0,0,0,0,0,0,0,0,0,0,0
"Ind139","10_0_5",66,39,39,39,39,39,39,39,39,39,35,35,35,35,35,35,35,35,35,38,38,38,37,37,37,37,37,37,36,36,36,36,36,36,36,36,36,38,38,38,38,38,38,38,38,38,34,34,34,34,34,34,34,34,34,30,30,30,30,30,30,30,30,30,31,31,31,31,31,31,31,31,31,20,20,20,20,20,20,20,20,20,27,27,27,27,27,27,27,27,27,23,23,23,23,23,23,23,23,23,23,23,23,23,23,23,23,23,23,20,20,20,20,20,20,20,20,20,23,23,23,23,23,23,23,23,23,24,24,24,24,24,24,24,24,24,0,0,-1,0,0,0,0,0,0,0,0,0,0,0,0,0,0,0,0,0,0,0,0,0,0,0,0,0,0,0,0,0,0,0,0,0
"Ind140","10_0_6",66,39,39,39,39,39,39,39,39,39,35,35,35,35,35,35,35,35,35,38,38,38,37,37,37,37,37,37,36,36,36,36,36,36,36,36,36,38,38,38,38,38,38,38,38,38,34,34,34,34,34,34,34,34,34,30,30,30,30,30,30,30,30,30,31,31,31,31,31,31,31,31,31,20,20,20,20,20,20,20,20,20,27,27,27,27,27,27,27,27,27,23,23,23,23,23,23,23,23,23,23,23,23,23,23,23,23,23,23,20,20,20,20,20,20,20,20,20,23,23,23,23,23,23,23,23,23,24,24,24,24,24,24,24,24,24,0,0,0,-1,0,0,0,0,0,0,0,0,0,0,0,0,0,0,0,0,0,0,0,0,0,0,0,0,0,0,0,0,0,0,0,0
"Ind141","10_0_8",66,39,39,39,39,39,39,39,39,39,35,35,35,35,35,35,35,35,35,38,38,38,37,37,37,37,37,37,36,36,36,36,36,36,36,36,36,38,38,38,38,38,38,38,38,38,34,34,34,34,34,34,34,34,34,30,30,30,30,30,30,30,30,30,31,31,31,31,31,31,31,31,31,20,20,20,20,20,20,20,20,20,27,27,27,27,27,27,27,27,27,23,23,23,23,23,23,23,23,23,23,23,23,23,23,23,23,23,23,20,20,20,20,20,20,20,20,20,23,23,23,23,23,23,23,23,23,24,24,24,24,24,24,24,24,24,0,0,0,0,-1,0,0,0,0,0,0,0,0,0,0,0,0,0,0,0,0,0,0,0,0,0,0,0,0,0,0,0,0,0,0,0
"Ind142","10_0_2",66,39,39,39,39,39,39,39,39,39,35,35,35,35,35,35,35,35,35,38,38,38,37,37,37,37,37,37,36,36,36,36,36,36,36,36,36,38,38,38,38,38,38,38,38,38,34,34,34,34,34,34,34,34,34,30,30,30,30,30,30,30,30,30,31,31,31,31,31,31,31,31,31,20,20,20,20,20,20,20,20,20,27,27,27,27,27,27,27,27,27,23,23,23,23,23,23,23,23,23,23,23,23,23,23,23,23,23,23,20,20,20,20,20,20,20,20,20,23,23,23,23,23,23,23,23,23,24,24,24,24,24,24,24,24,24,0,0,0,0,0,-1,0,0,0,0,0,0,0,0,0,0,0,0,0,0,0,0,0,0,0,0,0,0,0,0,0,0,0,0,0,0
"Ind143","10_0_3",66,39,39,39,39,39,39,39,39,39,35,35,35,35,35,35,35,35,35,38,38,38,37,37,37,37,37,37,36,36,36,36,36,36,36,36,36,38,38,38,38,38,38,38,38,38,34,34,34,34,34,34,34,34,34,30,30,30,30,30,30,30,30,30,31,31,31,31,31,31,31,31,31,20,20,20,20,20,20,20,20,20,27,27,27,27,27,27,27,27,27,23,23,23,23,23,23,23,23,23,23,23,23,23,23,23,23,23,23,20,20,20,20,20,20,20,20,20,23,23,23,23,23,23,23,23,23,24,24,24,24,24,24,24,24,24,0,0,0,0,0,0,-1,0,0,0,0,0,0,0,0,0,0,0,0,0,0,0,0,0,0,0,0,0,0,0,0,0,0,0,0,0
"Ind144","10_0_1",66,39,39,39,39,39,39,39,39,39,35,35,35,35,35,35,35,35,35,38,38,38,37,37,37,37,37,37,36,36,36,36,36,36,36,36,36,38,38,38,38,38,38,38,38,38,34,34,34,34,34,34,34,34,34,30,30,30,30,30,30,30,30,30,31,31,31,31,31,31,31,31,31,20,20,20,20,20,20,20,20,20,27,27,27,27,27,27,27,27,27,23,23,23,23,23,23,23,23,23,23,23,23,23,23,23,23,23,23,20,20,20,20,20,20,20,20,20,23,23,23,23,23,23,23,23,23,24,24,24,24,24,24,24,24,24,0,0,0,0,0,0,0,-1,0,0,0,0,0,0,0,0,0,0,0,0,0,0,0,0,0,0,0,0,0,0,0,0,0,0,0,0
"Ind145","10_0_7",66,39,39,39,39,39,39,39,39,39,35,35,35,35,35,35,35,35,35,38,38,38,37,37,37,37,37,37,36,36,36,36,36,36,36,36,36,38,38,38,38,38,38,38,38,38,34,34,34,34,34,34,34,34,34,30,30,30,30,30,30,30,30,30,31,31,31,31,31,31,31,31,31,20,20,20,20,20,20,20,20,20,27,27,27,27,27,27,27,27,27,23,23,23,23,23,23,23,23,23,23,23,23,23,23,23,23,23,23,20,20,20,20,20,20,20,20,20,23,23,23,23,23,23,23,23,23,24,24,24,24,24,24,24,24,24,0,0,0,0,0,0,0,0,-1,0,0,0,0,0,0,0,0,0,0,0,0,0,0,0,0,0,0,0,0,0,0,0,0,0,0,0
"Ind146","18_0_4",64,38,38,38,38,38,38,38,38,38,34,34,34,34,34,34,34,34,34,41,41,41,40,40,40,40,40,40,37,37,37,37,37,37,37,37,37,39,39,39,39,39,39,39,39,39,35,35,35,35,35,35,35,35,35,33,33,33,33,33,33,33,33,33,34,34,34,34,34,34,34,34,34,23,23,23,23,23,23,23,23,23,28,28,28,28,28,28,28,28,28,24,24,24,24,24,24,24,24,24,26,26,26,26,26,26,26,26,26,23,23,23,23,23,23,23,23,23,26,26,26,26,26,26,26,26,26,27,27,27,27,27,27,27,27,27,9,9,9,9,9,9,9,9,9,-1,0,0,0,0,0,0,0,0,0,0,0,0,0,0,0,0,0,0,0,0,0,0,0,0,0,0
"Ind147","18_0_8",63,37,37,37,37,37,37,37,37,37,33,33,33,33,33,33,33,33,33,40,40,40,39,39,39,39,39,39,36,36,36,36,36,36,36,36,36,38,38,38,38,38,38,38,38,38,36,36,36,36,36,36,36,36,36,32,32,32,32,32,32,32,32,32,33,33,33,33,33,33,33,33,33,22,22,22,22,22,22,22,22,22,27,27,27,27,27,27,27,27,27,23,23,23,23,23,23,23,23,23,25,25,25,25,25,25,25,25,25,22,22,22,22,22,22,22,22,22,25,25,25,25,25,25,25,25,25,26,26,26,26,26,26,26,26,26,8,8,8,8,8,8,8,8,8,1,-1,0,0,0,0,0,0,0,0,0,0,0,0,0,0,0,0,0,0,0,0,0,0,0,0,0
"Ind148","18_0_3",63,37,37,37,37,37,37,37,37,37,33,33,33,33,33,33,33,33,33,40,40,40,39,39,39,39,39,39,36,36,36,36,36,36,36,36,36,38,38,38,38,38,38,38,38,38,36,36,36,36,36,36,36,36,36,32,32,32,32,32,32,32,32,32,33,33,33,33,33,33,33,33,33,22,22,22,22,22,22,22,22,22,27,27,27,27,27,27,27,27,27,23,23,23,23,23,23,23,23,23,25,25,25,25,25,25,25,25,25,22,22,22,22,22,22,22,22,22,25,25,25,25,25,25,25,25,25,26,26,26,26,26,26,26,26,26,8,8,8,8,8,8,8,8,8,1,0,-1,0,0,0,0,0,0,0,0,0,0,0,0,0,0,0,0,0,0,0,0,0,0,0,0
"Ind149","18_0_7",63,37,37,37,37,37,37,37,37,37,33,33,33,33,33,33,33,33,33,40,40,40,39,39,39,39,39,39,36,36,36,36,36,36,36,36,36,38,38,38,38,38,38,38,38,38,36,36,36,36,36,36,36,36,36,32,32,32,32,32,32,32,32,32,33,33,33,33,33,33,33,33,33,22,22,22,22,22,22,22,22,22,27,27,27,27,27,27,27,27,27,23,23,23,23,23,23,23,23,23,25,25,25,25,25,25,25,25,25,22,22,22,22,22,22,22,22,22,25,25,25,25,25,25,25,25,25,26,26,26,26,26,26,26,26,26,8,8,8,8,8,8,8,8,8,1,0,0,-1,0,0,0,0,0,0,0,0,0,0,0,0,0,0,0,0,0,0,0,0,0,0,0
"Ind150","18_0_6",63,37,37,37,37,37,37,37,37,37,33,33,33,33,33,33,33,33,33,40,40,40,39,39,39,39,39,39,36,36,36,36,36,36,36,36,36,38,38,38,38,38,38,38,38,38,36,36,36,36,36,36,36,36,36,32,32,32,32,32,32,32,32,32,33,33,33,33,33,33,33,33,33,22,22,22,22,22,22,22,22,22,27,27,27,27,27,27,27,27,27,23,23,23,23,23,23,23,23,23,25,25,25,25,25,25,25,25,25,22,22,22,22,22,22,22,22,22,25,25,25,25,25,25,25,25,25,26,26,26,26,26,26,26,26,26,8,8,8,8,8,8,8,8,8,1,0,0,0,-1,0,0,0,0,0,0,0,0,0,0,0,0,0,0,0,0,0,0,0,0,0,0
"Ind151","18_0_2",63,37,37,37,37,37,37,37,37,37,33,33,33,33,33,33,33,33,33,40,40,40,39,39,39,39,39,39,36,36,36,36,36,36,36,36,36,38,38,38,38,38,38,38,38,38,36,36,36,36,36,36,36,36,36,32,32,32,32,32,32,32,32,32,33,33,33,33,33,33,33,33,33,22,22,22,22,22,22,22,22,22,27,27,27,27,27,27,27,27,27,23,23,23,23,23,23,23,23,23,25,25,25,25,25,25,25,25,25,22,22,22,22,22,22,22,22,22,25,25,25,25,25,25,25,25,25,26,26,26,26,26,26,26,26,26,8,8,8,8,8,8,8,8,8,1,0,0,0,0,-1,0,0,0,0,0,0,0,0,0,0,0,0,0,0,0,0,0,0,0,0,0
"Ind152","18_0_5",63,37,37,37,37,37,37,37,37,37,33,33,33,33,33,33,33,33,33,40,40,40,39,39,39,39,39,39,36,36,36,36,36,36,36,36,36,38,38,38,38,38,38,38,38,38,36,36,36,36,36,36,36,36,36,32,32,32,32,32,32,32,32,32,33,33,33,33,33,33,33,33,33,22,22,22,22,22,22,22,22,22,27,27,27,27,27,27,27,27,27,23,23,23,23,23,23,23,23,23,25,25,25,25,25,25,25,25,25,22,22,22,22,22,22,22,22,22,25,25,25,25,25,25,25,25,25,26,26,26,26,26,26,26,26,26,8,8,8,8,8,8,8,8,8,1,0,0,0,0,0,-1,0,0,0,0,0,0,0,0,0,0,0,0,0,0,0,0,0,0,0,0
"Ind153","18_0_1",63,37,37,37,37,37,37,37,37,37,33,33,33,33,33,33,33,33,33,40,40,40,39,39,39,39,39,39,36,36,36,36,36,36,36,36,36,38,38,38,38,38,38,38,38,38,36,36,36,36,36,36,36,36,36,32,32,32,32,32,32,32,32,32,33,33,33,33,33,33,33,33,33,22,22,22,22,22,22,22,22,22,27,27,27,27,27,27,27,27,27,23,23,23,23,23,23,23,23,23,25,25,25,25,25,25,25,25,25,22,22,22,22,22,22,22,22,22,25,25,25,25,25,25,25,25,25,26,26,26,26,26,26,26,26,26,8,8,8,8,8,8,8,8,8,1,0,0,0,0,0,0,-1,0,0,0,0,0,0,0,0,0,0,0,0,0,0,0,0,0,0,0
"Ind154","18_0_0",63,37,37,37,37,37,37,37,37,37,33,33,33,33,33,33,33,33,33,40,40,40,39,39,39,39,39,39,36,36,36,36,36,36,36,36,36,38,38,38,38,38,38,38,38,38,36,36,36,36,36,36,36,36,36,32,32,32,32,32,32,32,32,32,33,33,33,33,33,33,33,33,33,22,22,22,22,22,22,22,22,22,27,27,27,27,27,27,27,27,27,23,23,23,23,23,23,23,23,23,25,25,25,25,25,25,25,25,25,22,22,22,22,22,22,22,22,22,25,25,25,25,25,25,25,25,25,26,26,26,26,26,26,26,26,26,8,8,8,8,8,8,8,8,8,1,0,0,0,0,0,0,0,-1,0,0,0,0,0,0,0,0,0,0,0,0,0,0,0,0,0,0
"Ind155","8_0_6",63,37,37,37,37,37,37,37,37,37,33,33,33,33,33,33,33,33,33,40,40,40,39,39,39,39,39,39,36,36,36,36,36,36,36,36,36,38,38,38,38,38,38,38,38,38,36,36,36,36,36,36,36,36,36,32,32,32,32,32,32,32,32,32,33,33,33,33,33,33,33,33,33,22,22,22,22,22,22,22,22,22,27,27,27,27,27,27,27,27,27,23,23,23,23,23,23,23,23,23,25,25,25,25,25,25,25,25,25,22,22,22,22,22,22,22,22,22,25,25,25,25,25,25,25,25,25,26,26,26,26,26,26,26,26,26,8,8,8,8,8,8,8,8,8,1,0,0,0,0,0,0,0,0,-1,0,0,0,0,0,0,0,0,0,0,0,0,0,0,0,0,0
"Ind156","8_0_4",63,37,37,37,37,37,37,37,37,37,33,33,33,33,33,33,33,33,33,40,40,40,39,39,39,39,39,39,36,36,36,36,36,36,36,36,36,38,38,38,38,38,38,38,38,38,36,36,36,36,36,36,36,36,36,32,32,32,32,32,32,32,32,32,33,33,33,33,33,33,33,33,33,22,22,22,22,22,22,22,22,22,27,27,27,27,27,27,27,27,27,23,23,23,23,23,23,23,23,23,25,25,25,25,25,25,25,25,25,22,22,22,22,22,22,22,22,22,25,25,25,25,25,25,25,25,25,26,26,26,26,26,26,26,26,26,8,8,8,8,8,8,8,8,8,1,0,0,0,0,0,0,0,0,0,-1,0,0,0,0,0,0,0,0,0,0,0,0,0,0,0,0
"Ind157","8_0_5",63,37,37,37,37,37,37,37,37,37,33,33,33,33,33,33,33,33,33,40,40,40,39,39,39,39,39,39,36,36,36,36,36,36,36,36,36,38,38,38,38,38,38,38,38,38,36,36,36,36,36,36,36,36,36,32,32,32,32,32,32,32,32,32,33,33,33,33,33,33,33,33,33,22,22,22,22,22,22,22,22,22,27,27,27,27,27,27,27,27,27,23,23,23,23,23,23,23,23,23,25,25,25,25,25,25,25,25,25,22,22,22,22,22,22,22,22,22,25,25,25,25,25,25,25,25,25,26,26,26,26,26,26,26,26,26,8,8,8,8,8,8,8,8,8,1,0,0,0,0,0,0,0,0,0,0,-1,0,0,0,0,0,0,0,0,0,0,0,0,0,0,0
"Ind158","8_0_1",63,37,37,37,37,37,37,37,37,37,33,33,33,33,33,33,33,33,33,40,40,40,39,39,39,39,39,39,36,36,36,36,36,36,36,36,36,38,38,38,38,38,38,38,38,38,36,36,36,36,36,36,36,36,36,32,32,32,32,32,32,32,32,32,33,33,33,33,33,33,33,33,33,22,22,22,22,22,22,22,22,22,27,27,27,27,27,27,27,27,27,23,23,23,23,23,23,23,23,23,25,25,25,25,25,25,25,25,25,22,22,22,22,22,22,22,22,22,25,25,25,25,25,25,25,25,25,26,26,26,26,26,26,26,26,26,8,8,8,8,8,8,8,8,8,1,0,0,0,0,0,0,0,0,0,0,0,-1,0,0,0,0,0,0,0,0,0,0,0,0,0,0
"Ind159","8_0_0",63,37,37,37,37,37,37,37,37,37,33,33,33,33,33,33,33,33,33,40,40,40,39,39,39,39,39,39,36,36,36,36,36,36,36,36,36,38,38,38,38,38,38,38,38,38,36,36,36,36,36,36,36,36,36,32,32,32,32,32,32,32,32,32,33,33,33,33,33,33,33,33,33,22,22,22,22,22,22,22,22,22,27,27,27,27,27,27,27,27,27,23,23,23,23,23,23,23,23,23,25,25,25,25,25,25,25,25,25,22,22,22,22,22,22,22,22,22,25,25,25,25,25,25,25,25,25,26,26,26,26,26,26,26,26,26,8,8,8,8,8,8,8,8,8,1,0,0,0,0,0,0,0,0,0,0,0,0,-1,0,0,0,0,0,0,0,0,0,0,0,0,0
"Ind160","8_0_3",63,37,37,37,37,37,37,37,37,37,33,33,33,33,33,33,33,33,33,40,40,40,39,39,39,39,39,39,36,36,36,36,36,36,36,36,36,38,38,38,38,38,38,38,38,38,36,36,36,36,36,36,36,36,36,32,32,32,32,32,32,32,32,32,33,33,33,33,33,33,33,33,33,22,22,22,22,22,22,22,22,22,27,27,27,27,27,27,27,27,27,23,23,23,23,23,23,23,23,23,25,25,25,25,25,25,25,25,25,22,22,22,22,22,22,22,22,22,25,25,25,25,25,25,25,25,25,26,26,26,26,26,26,26,26,26,8,8,8,8,8,8,8,8,8,1,0,0,0,0,0,0,0,0,0,0,0,0,0,-1,0,0,0,0,0,0,0,0,0,0,0,0
"Ind161","8_0_7",63,37,37,37,37,37,37,37,37,37,33,33,33,33,33,33,33,33,33,40,40,40,39,39,39,39,39,39,36,36,36,36,36,36,36,36,36,38,38,38,38,38,38,38,38,38,36,36,36,36,36,36,36,36,36,32,32,32,32,32,32,32,32,32,33,33,33,33,33,33,33,33,33,22,22,22,22,22,22,22,22,22,27,27,27,27,27,27,27,27,27,23,23,23,23,23,23,23,23,23,25,25,25,25,25,25,25,25,25,22,22,22,22,22,22,22,22,22,25,25,25,25,25,25,25,25,25,26,26,26,26,26,26,26,26,26,8,8,8,8,8,8,8,8,8,1,0,0,0,0,0,0,0,0,0,0,0,0,0,0,-1,0,0,0,0,0,0,0,0,0,0,0
"Ind162","8_0_8",63,37,37,37,37,37,37,37,37,37,33,33,33,33,33,33,33,33,33,40,40,40,39,39,39,39,39,39,36,36,36,36,36,36,36,36,36,38,38,38,38,38,38,38,38,38,36,36,36,36,36,36,36,36,36,32,32,32,32,32,32,32,32,32,33,33,33,33,33,33,33,33,33,22,22,22,22,22,22,22,22,22,27,27,27,27,27,27,27,27,27,23,23,23,23,23,23,23,23,23,25,25,25,25,25,25,25,25,25,22,22,22,22,22,22,22,22,22,25,25,25,25,25,25,25,25,25,26,26,26,26,26,26,26,26,26,8,8,8,8,8,8,8,8,8,1,0,0,0,0,0,0,0,0,0,0,0,0,0,0,0,-1,0,0,0,0,0,0,0,0,0,0
"Ind163","8_0_2",63,37,37,37,37,37,37,37,37,37,33,33,33,33,33,33,33,33,33,40,40,40,39,39,39,39,39,39,36,36,36,36,36,36,36,36,36,38,38,38,38,38,38,38,38,38,36,36,36,36,36,36,36,36,36,32,32,32,32,32,32,32,32,32,33,33,33,33,33,33,33,33,33,22,22,22,22,22,22,22,22,22,27,27,27,27,27,27,27,27,27,23,23,23,23,23,23,23,23,23,25,25,25,25,25,25,25,25,25,22,22,22,22,22,22,22,22,22,25,25,25,25,25,25,25,25,25,26,26,26,26,26,26,26,26,26,8,8,8,8,8,8,8,8,8,1,0,0,0,0,0,0,0,0,0,0,0,0,0,0,0,0,-1,0,0,0,0,0,0,0,0,0
"Ind164","14_0_4",61,37,37,37,37,37,37,37,37,37,31,31,31,31,31,31,31,31,31,38,38,38,37,37,37,37,37,37,34,34,34,34,34,34,34,34,34,36,36,36,36,36,36,36,36,36,34,34,34,34,34,34,34,34,34,30,30,30,30,30,30,30,30,30,31,31,31,31,31,31,31,31,31,20,20,20,20,20,20,20,20,20,25,25,25,25,25,25,25,25,25,21,21,21,21,21,21,21,21,21,23,23,23,23,23,23,23,23,23,20,20,20,20,20,20,20,20,20,23,23,23,23,23,23,23,23,23,24,24,24,24,24,24,24,24,24,8,8,8,8,8,8,8,8,8,3,2,2,2,2,2,2,2,2,2,2,2,2,2,2,2,2,2,-1,0,0,0,0,0,0,0,0
"Ind165","14_0_0",61,37,37,37,37,37,37,37,37,37,31,31,31,31,31,31,31,31,31,38,38,38,37,37,37,37,37,37,34,34,34,34,34,34,34,34,34,36,36,36,36,36,36,36,36,36,34,34,34,34,34,34,34,34,34,30,30,30,30,30,30,30,30,30,31,31,31,31,31,31,31,31,31,20,20,20,20,20,20,20,20,20,25,25,25,25,25,25,25,25,25,21,21,21,21,21,21,21,21,21,23,23,23,23,23,23,23,23,23,20,20,20,20,20,20,20,20,20,23,23,23,23,23,23,23,23,23,24,24,24,24,24,24,24,24,24,8,8,8,8,8,8,8,8,8,3,2,2,2,2,2,2,2,2,2,2,2,2,2,2,2,2,2,0,-1,0,0,0,0,0,0,0
"Ind166","14_0_1",61,37,37,37,37,37,37,37,37,37,31,31,31,31,31,31,31,31,31,38,38,38,37,37,37,37,37,37,34,34,34,34,34,34,34,34,34,36,36,36,36,36,36,36,36,36,34,34,34,34,34,34,34,34,34,30,30,30,30,30,30,30,30,30,31,31,31,31,31,31,31,31,31,20,20,20,20,20,20,20,20,20,25,25,25,25,25,25,25,25,25,21,21,21,21,21,21,21,21,21,23,23,23,23,23,23,23,23,23,20,20,20,20,20,20,20,20,20,23,23,23,23,23,23,23,23,23,24,24,24,24,24,24,24,24,24,8,8,8,8,8,8,8,8,8,3,2,2,2,2,2,2,2,2,2,2,2,2,2,2,2,2,2,0,0,-1,0,0,0,0,0,0
"Ind167","14_0_7",61,37,37,37,37,37,37,37,37,37,31,31,31,31,31,31,31,31,31,38,38,38,37,37,37,37,37,37,34,34,34,34,34,34,34,34,34,36,36,36,36,36,36,36,36,36,34,34,34,34,34,34,34,34,34,30,30,30,30,30,30,30,30,30,31,31,31,31,31,31,31,31,31,20,20,20,20,20,20,20,20,20,25,25,25,25,25,25,25,25,25,21,21,21,21,21,21,21,21,21,23,23,23,23,23,23,23,23,23,20,20,20,20,20,20,20,20,20,23,23,23,23,23,23,23,23,23,24,24,24,24,24,24,24,24,24,8,8,8,8,8,8,8,8,8,3,2,2,2,2,2,2,2,2,2,2,2,2,2,2,2,2,2,0,0,0,-1,0,0,0,0,0
"Ind168","14_0_3",61,37,37,37,37,37,37,37,37,37,31,31,31,31,31,31,31,31,31,38,38,38,37,37,37,37,37,37,34,34,34,34,34,34,34,34,34,36,36,36,36,36,36,36,36,36,34,34,34,34,34,34,34,34,34,30,30,30,30,30,30,30,30,30,31,31,31,31,31,31,31,31,31,20,20,20,20,20,20,20,20,20,25,25,25,25,25,25,25,25,25,21,21,21,21,21,21,21,21,21,23,23,23,23,23,23,23,23,23,20,20,20,20,20,20,20,20,20,23,23,23,23,23,23,23,23,23,24,24,24,24,24,24,24,24,24,8,8,8,8,8,8,8,8,8,3,2,2,2,2,2,2,2,2,2,2,2,2,2,2,2,2,2,0,0,0,0,-1,0,0,0,0
"Ind169","14_0_2",61,37,37,37,37,37,37,37,37,37,31,31,31,31,31,31,31,31,31,38,38,38,37,37,37,37,37,37,34,34,34,34,34,34,34,34,34,36,36,36,36,36,36,36,36,36,34,34,34,34,34,34,34,34,34,30,30,30,30,30,30,30,30,30,31,31,31,31,31,31,31,31,31,20,20,20,20,20,20,20,20,20,25,25,25,25,25,25,25,25,25,21,21,21,21,21,21,21,21,21,23,23,23,23,23,23,23,23,23,20,20,20,20,20,20,20,20,20,23,23,23,23,23,23,23,23,23,24,24,24,24,24,24,24,24,24,8,8,8,8,8,8,8,8,8,3,2,2,2,2,2,2,2,2,2,2,2,2,2,2,2,2,2,0,0,0,0,0,-1,0,0,0
"Ind170","14_0_5",61,37,37,37,37,37,37,37,37,37,31,31,31,31,31,31,31,31,31,38,38,38,37,37,37,37,37,37,34,34,34,34,34,34,34,34,34,36,36,36,36,36,36,36,36,36,34,34,34,34,34,34,34,34,34,30,30,30,30,30,30,30,30,30,31,31,31,31,31,31,31,31,31,20,20,20,20,20,20,20,20,20,25,25,25,25,25,25,25,25,25,21,21,21,21,21,21,21,21,21,23,23,23,23,23,23,23,23,23,20,20,20,20,20,20,20,20,20,23,23,23,23,23,23,23,23,23,24,24,24,24,24,24,24,24,24,8,8,8,8,8,8,8,8,8,3,2,2,2,2,2,2,2,2,2,2,2,2,2,2,2,2,2,0,0,0,0,0,0,-1,0,0
"Ind171","14_0_8",61,37,37,37,37,37,37,37,37,37,31,31,31,31,31,31,31,31,31,38,38,38,37,37,37,37,37,37,34,34,34,34,34,34,34,34,34,36,36,36,36,36,36,36,36,36,34,34,34,34,34,34,34,34,34,30,30,30,30,30,30,30,30,30,31,31,31,31,31,31,31,31,31,20,20,20,20,20,20,20,20,20,25,25,25,25,25,25,25,25,25,21,21,21,21,21,21,21,21,21,23,23,23,23,23,23,23,23,23,20,20,20,20,20,20,20,20,20,23,23,23,23,23,23,23,23,23,24,24,24,24,24,24,24,24,24,8,8,8,8,8,8,8,8,8,3,2,2,2,2,2,2,2,2,2,2,2,2,2,2,2,2,2,0,0,0,0,0,0,0,-1,0
"Ind172","14_0_6",61,37,37,37,37,37,37,37,37,37,31,31,31,31,31,31,31,31,31,38,38,38,37,37,37,37,37,37,34,34,34,34,34,34,34,34,34,36,36,36,36,36,36,36,36,36,34,34,34,34,34,34,34,34,34,30,30,30,30,30,30,30,30,30,31,31,31,31,31,31,31,31,31,20,20,20,20,20,20,20,20,20,25,25,25,25,25,25,25,25,25,21,21,21,21,21,21,21,21,21,23,23,23,23,23,23,23,23,23,20,20,20,20,20,20,20,20,20,23,23,23,23,23,23,23,23,23,24,24,24,24,24,24,24,24,24,8,8,8,8,8,8,8,8,8,3,2,2,2,2,2,2,2,2,2,2,2,2,2,2,2,2,2,0,0,0,0,0,0,0,0,-1
