"","Description","Ind1","Ind2","Ind3","Ind4","Ind5","Ind6","Ind7","Ind8","Ind9","Ind10","Ind11","Ind12","Ind13","Ind14","Ind15","Ind16","Ind17","Ind18","Ind19","Ind20","Ind21","Ind22","Ind23","Ind24","Ind25","Ind26","Ind27","Ind28","Ind29","Ind30","Ind31","Ind32","Ind33","Ind34","Ind35","Ind36","Ind37","Ind38","Ind39","Ind40","Ind41","Ind42","Ind43","Ind44","Ind45","Ind46","Ind47","Ind48","Ind49","Ind50","Ind51","Ind52","Ind53","Ind54","Ind55","Ind56"
"Ind1","1_0_4",-1,0,0,0,0,0,0,0,0,0,0,0,0,0,0,0,0,0,0,0,0,0,0,0,0,0,0,0,0,0,0,0,0,0,0,0,0,0,0,0,0,0,0,0,0,0,0,0,0,0,0,0,0,0,0,0
"Ind2","1_0_1",0,-1,0,0,0,0,0,0,0,0,0,0,0,0,0,0,0,0,0,0,0,0,0,0,0,0,0,0,0,0,0,0,0,0,0,0,0,0,0,0,0,0,0,0,0,0,0,0,0,0,0,0,0,0,0,0
"Ind3","1_0_2",0,0,-1,0,0,0,0,0,0,0,0,0,0,0,0,0,0,0,0,0,0,0,0,0,0,0,0,0,0,0,0,0,0,0,0,0,0,0,0,0,0,0,0,0,0,0,0,0,0,0,0,0,0,0,0,0
"Ind4","1_0_0",0,0,0,-1,0,0,0,0,0,0,0,0,0,0,0,0,0,0,0,0,0,0,0,0,0,0,0,0,0,0,0,0,0,0,0,0,0,0,0,0,0,0,0,0,0,0,0,0,0,0,0,0,0,0,0,0
"Ind5","1_0_3",0,0,0,0,-1,0,0,0,0,0,0,0,0,0,0,0,0,0,0,0,0,0,0,0,0,0,0,0,0,0,0,0,0,0,0,0,0,0,0,0,0,0,0,0,0,0,0,0,0,0,0,0,0,0,0,0
"Ind6","3_0_0",71,71,71,71,71,-1,0,0,0,0,0,0,0,0,0,0,0,0,0,0,0,0,0,0,0,0,0,0,0,0,0,0,0,0,0,0,0,0,0,0,0,0,0,0,0,0,0,0,0,0,0,0,0,0,0,0
"Ind7","3_0_3",71,71,71,71,71,0,-1,0,0,0,0,0,0,0,0,0,0,0,0,0,0,0,0,0,0,0,0,0,0,0,0,0,0,0,0,0,0,0,0,0,0,0,0,0,0,0,0,0,0,0,0,0,0,0,0,0
"Ind8","3_0_2",71,71,71,71,71,0,0,-1,0,0,0,0,0,0,0,0,0,0,0,0,0,0,0,0,0,0,0,0,0,0,0,0,0,0,0,0,0,0,0,0,0,0,0,0,0,0,0,0,0,0,0,0,0,0,0,0
"Ind9","3_0_1",71,71,71,71,71,0,0,0,-1,0,0,0,0,0,0,0,0,0,0,0,0,0,0,0,0,0,0,0,0,0,0,0,0,0,0,0,0,0,0,0,0,0,0,0,0,0,0,0,0,0,0,0,0,0,0,0
"Ind10","3_0_4",71,71,71,71,71,0,0,0,0,-1,0,0,0,0,0,0,0,0,0,0,0,0,0,0,0,0,0,0,0,0,0,0,0,0,0,0,0,0,0,0,0,0,0,0,0,0,0,0,0,0,0,0,0,0,0,0
"Ind11","8_0_4",78,78,78,78,78,17,17,17,17,17,-1,0,0,0,0,0,0,0,0,0,0,0,0,0,0,0,0,0,0,0,0,0,0,0,0,0,0,0,0,0,0,0,0,0,0,0,0,0,0,0,0,0,0,0,0,0
"Ind12","8_0_1",78,78,78,78,78,17,17,17,17,17,0,-1,0,0,0,0,0,0,0,0,0,0,0,0,0,0,0,0,0,0,0,0,0,0,0,0,0,0,0,0,0,0,0,0,0,0,0,0,0,0,0,0,0,0,0,0
"Ind13","8_0_0",78,78,78,78,78,17,17,17,17,17,0,0,-1,0,0,0,0,0,0,0,0,0,0,0,0,0,0,0,0,0,0,0,0,0,0,0,0,0,0,0,0,0,0,0,0,0,0,0,0,0,0,0,0,0,0,0
"Ind14","8_0_3",78,78,78,78,78,17,17,17,17,17,0,0,0,-1,0,0,0,0,0,0,0,0,0,0,0,0,0,0,0,0,0,0,0,0,0,0,0,0,0,0,0,0,0,0,0,0,0,0,0,0,0,0,0,0,0,0
"Ind15","8_0_2",78,78,78,78,78,17,17,17,17,17,0,0,0,0,-1,0,0,0,0,0,0,0,0,0,0,0,0,0,0,0,0,0,0,0,0,0,0,0,0,0,0,0,0,0,0,0,0,0,0,0,0,0,0,0,0,0
"Ind16","4_0_0",79,79,79,79,79,18,18,18,18,18,1,1,1,1,1,-1,0,0,0,0,0,0,0,0,0,0,0,0,0,0,0,0,0,0,0,0,0,0,0,0,0,0,0,0,0,0,0,0,0,0,0,0,0,0,0,0
"Ind17","4_0_2",79,79,79,79,79,18,18,18,18,18,1,1,1,1,1,0,-1,0,0,0,0,0,0,0,0,0,0,0,0,0,0,0,0,0,0,0,0,0,0,0,0,0,0,0,0,0,0,0,0,0,0,0,0,0,0,0
"Ind18","4_0_3",79,79,79,79,79,18,18,18,18,18,1,1,1,1,1,0,0,-1,0,0,0,0,0,0,0,0,0,0,0,0,0,0,0,0,0,0,0,0,0,0,0,0,0,0,0,0,0,0,0,0,0,0,0,0,0,0
"Ind19","4_0_4",79,79,79,79,79,18,18,18,18,18,1,1,1,1,1,0,0,0,-1,0,0,0,0,0,0,0,0,0,0,0,0,0,0,0,0,0,0,0,0,0,0,0,0,0,0,0,0,0,0,0,0,0,0,0,0,0
"Ind20","4_0_1",79,79,79,79,79,18,18,18,18,18,1,1,1,1,1,0,0,0,0,-1,0,0,0,0,0,0,0,0,0,0,0,0,0,0,0,0,0,0,0,0,0,0,0,0,0,0,0,0,0,0,0,0,0,0,0,0
"Ind21","9_0_0",82,82,82,82,82,36,36,36,36,36,41,41,41,41,41,42,42,42,42,42,-1,0,0,0,0,0,0,0,0,0,0,0,0,0,0,0,0,0,0,0,0,0,0,0,0,0,0,0,0,0,0,0,0,0,0,0
"Ind22","9_0_2",82,82,82,82,82,36,36,36,36,36,41,41,41,41,41,42,42,42,42,42,0,-1,0,0,0,0,0,0,0,0,0,0,0,0,0,0,0,0,0,0,0,0,0,0,0,0,0,0,0,0,0,0,0,0,0,0
"Ind23","9_0_1",82,82,82,82,82,36,36,36,36,36,41,41,41,41,41,42,42,42,42,42,0,0,-1,0,0,0,0,0,0,0,0,0,0,0,0,0,0,0,0,0,0,0,0,0,0,0,0,0,0,0,0,0,0,0,0,0
"Ind24","9_0_3",82,82,82,82,82,36,36,36,36,36,41,41,41,41,41,42,42,42,42,42,0,0,0,-1,0,0,0,0,0,0,0,0,0,0,0,0,0,0,0,0,0,0,0,0,0,0,0,0,0,0,0,0,0,0,0,0
"Ind25","9_0_4",82,82,82,82,82,36,36,36,36,36,41,41,41,41,41,42,42,42,42,42,0,0,0,0,-1,0,0,0,0,0,0,0,0,0,0,0,0,0,0,0,0,0,0,0,0,0,0,0,0,0,0,0,0,0,0,0
"Ind26","11_0_4",81,81,81,81,81,35,35,35,35,35,42,42,42,42,42,43,43,43,43,43,5,5,5,5,5,-1,0,0,0,0,0,0,0,0,0,0,0,0,0,0,0,0,0,0,0,0,0,0,0,0,0,0,0,0,0,0
"Ind27","11_0_0",80,80,80,80,80,34,34,34,34,34,41,41,41,41,41,42,42,42,42,42,4,4,4,4,4,1,-1,0,0,0,0,0,0,0,0,0,0,0,0,0,0,0,0,0,0,0,0,0,0,0,0,0,0,0,0,0
"Ind28","11_0_2",80,80,80,80,80,34,34,34,34,34,41,41,41,41,41,42,42,42,42,42,4,4,4,4,4,1,0,-1,0,0,0,0,0,0,0,0,0,0,0,0,0,0,0,0,0,0,0,0,0,0,0,0,0,0,0,0
"Ind29","11_0_1",80,80,80,80,80,34,34,34,34,34,41,41,41,41,41,42,42,42,42,42,4,4,4,4,4,1,0,0,-1,0,0,0,0,0,0,0,0,0,0,0,0,0,0,0,0,0,0,0,0,0,0,0,0,0,0,0
"Ind30","11_0_3",80,80,80,80,80,34,34,34,34,34,41,41,41,41,41,42,42,42,42,42,4,4,4,4,4,1,0,0,0,-1,0,0,0,0,0,0,0,0,0,0,0,0,0,0,0,0,0,0,0,0,0,0,0,0,0,0
"Ind31","5_0_1",76,76,76,76,76,31,31,31,31,31,39,39,39,39,39,40,40,40,40,40,17,17,17,17,17,16,15,15,15,15,-1,0,0,0,0,0,0,0,0,0,0,0,0,0,0,0,0,0,0,0,0,0,0,0,0,0
"Ind32","5_0_2",76,76,76,76,76,31,31,31,31,31,39,39,39,39,39,40,40,40,40,40,17,17,17,17,17,16,15,15,15,15,0,-1,0,0,0,0,0,0,0,0,0,0,0,0,0,0,0,0,0,0,0,0,0,0,0,0
"Ind33","5_0_4",76,76,76,76,76,31,31,31,31,31,39,39,39,39,39,40,40,40,40,40,17,17,17,17,17,16,15,15,15,15,0,0,-1,0,0,0,0,0,0,0,0,0,0,0,0,0,0,0,0,0,0,0,0,0,0,0
"Ind34","5_0_0",76,76,76,76,76,31,31,31,31,31,39,39,39,39,39,40,40,40,40,40,17,17,17,17,17,16,15,15,15,15,0,0,0,-1,0,0,0,0,0,0,0,0,0,0,0,0,0,0,0,0,0,0,0,0,0,0
"Ind35","5_0_3",76,76,76,76,76,31,31,31,31,31,39,39,39,39,39,40,40,40,40,40,17,17,17,17,17,16,15,15,15,15,0,0,0,0,-1,0,0,0,0,0,0,0,0,0,0,0,0,0,0,0,0,0,0,0,0,0
"Ind36","6_0_3",106,106,106,106,106,57,57,57,57,57,63,63,63,63,63,62,62,62,62,62,69,69,69,69,69,68,67,67,67,67,64,64,64,64,64,-1,0,0,0,0,0,0,0,0,0,0,0,0,0,0,0,0,0,0,0,0
"Ind37","6_0_4",106,106,106,106,106,57,57,57,57,57,63,63,63,63,63,62,62,62,62,62,69,69,69,69,69,68,67,67,67,67,64,64,64,64,64,0,-1,0,0,0,0,0,0,0,0,0,0,0,0,0,0,0,0,0,0,0
"Ind38","6_0_2",106,106,106,106,106,57,57,57,57,57,63,63,63,63,63,62,62,62,62,62,69,69,69,69,69,68,67,67,67,67,64,64,64,64,64,0,0,-1,0,0,0,0,0,0,0,0,0,0,0,0,0,0,0,0,0,0
"Ind39","6_0_1",106,106,106,106,106,57,57,57,57,57,63,63,63,63,63,62,62,62,62,62,69,69,69,69,69,68,67,67,67,67,64,64,64,64,64,0,0,0,-1,0,0,0,0,0,0,0,0,0,0,0,0,0,0,0,0,0
"Ind40","6_0_0",106,106,106,106,106,57,57,57,57,57,63,63,63,63,63,62,62,62,62,62,69,69,69,69,69,68,67,67,67,67,64,64,64,64,64,0,0,0,0,-1,0,0,0,0,0,0,0,0,0,0,0,0,0,0,0,0
"Ind41","7_0_3",105,105,105,105,105,60,60,60,60,60,70,70,70,70,70,69,69,69,69,69,76,76,76,76,76,75,74,74,74,74,71,71,71,71,71,29,29,29,29,29,-1,0,0,0,0,0,0,0,0,0,0,0,0,0,0,0
"Ind42","7_0_4",105,105,105,105,105,60,60,60,60,60,70,70,70,70,70,69,69,69,69,69,76,76,76,76,76,75,74,74,74,74,71,71,71,71,71,29,29,29,29,29,0,-1,0,0,0,0,0,0,0,0,0,0,0,0,0,0
"Ind43","7_0_2",105,105,105,105,105,60,60,60,60,60,70,70,70,70,70,69,69,69,69,69,76,76,76,76,76,75,74,74,74,74,71,71,71,71,71,29,29,29,29,29,0,0,-1,0,0,0,0,0,0,0,0,0,0,0,0,0
"Ind44","7_0_1",105,105,105,105,105,60,60,60,60,60,70,70,70,70,70,69,69,69,69,69,76,76,76,76,76,75,74,74,74,74,71,71,71,71,71,29,29,29,29,29,0,0,0,-1,0,0,0,0,0,0,0,0,0,0,0,0
"Ind45","7_0_0",105,105,105,105,105,60,60,60,60,60,70,70,70,70,70,69,69,69,69,69,76,76,76,76,76,75,74,74,74,74,71,71,71,71,71,29,29,29,29,29,0,0,0,0,-1,0,0,0,0,0,0,0,0,0,0,0
"Ind46","10_0_4",87,87,87,87,87,41,41,41,41,41,52,52,52,52,52,53,53,53,53,53,64,64,64,64,64,63,62,62,62,62,59,59,59,59,59,70,70,70,70,70,76,76,76,76,76,-1,0,0,0,0,0,0,0,0,0,0
"Ind47","10_0_0",87,87,87,87,87,41,41,41,41,41,52,52,52,52,52,53,53,53,53,53,64,64,64,64,64,63,62,62,62,62,59,59,59,59,59,70,70,70,70,70,76,76,76,76,76,0,-1,0,0,0,0,0,0,0,0,0
"Ind48","10_0_3",87,87,87,87,87,41,41,41,41,41,52,52,52,52,52,53,53,53,53,53,64,64,64,64,64,63,62,62,62,62,59,59,59,59,59,70,70,70,70,70,76,76,76,76,76,0,0,-1,0,0,0,0,0,0,0,0
"Ind49","10_0_1",87,87,87,87,87,41,41,41,41,41,52,52,52,52,52,53,53,53,53,53,64,64,64,64,64,63,62,62,62,62,59,59,59,59,59,70,70,70,70,70,76,76,76,76,76,0,0,0,-1,0,0,0,0,0,0,0
"Ind50","10_0_2",87,87,87,87,87,41,41,41,41,41,52,52,52,52,52,53,53,53,53,53,64,64,64,64,64,63,62,62,62,62,59,59,59,59,59,70,70,70,70,70,76,76,76,76,76,0,0,0,0,-1,0,0,0,0,0,0
"Ind51","2_0_0",87,87,87,87,87,48,48,48,48,48,60,60,60,60,60,61,61,61,61,61,70,70,70,70,70,69,68,68,68,68,63,63,63,63,63,76,76,76,76,76,83,83,83,83,83,30,30,30,30,30,-1,0,0,0,0,0
"Ind52","2_0_2",87,87,87,87,87,48,48,48,48,48,60,60,60,60,60,61,61,61,61,61,70,70,70,70,70,69,68,68,68,68,63,63,63,63,63,76,76,76,76,76,83,83,83,83,83,30,30,30,30,30,0,-1,0,0,0,0
"Ind53","2_0_1",87,87,87,87,87,48,48,48,48,48,60,60,60,60,60,61,61,61,61,61,70,70,70,70,70,69,68,68,68,68,63,63,63,63,63,76,76,76,76,76,83,83,83,83,83,30,30,30,30,30,0,0,-1,0,0,0
"Ind54","2_0_4",87,87,87,87,87,48,48,48,48,48,60,60,60,60,60,61,61,61,61,61,70,70,70,70,70,69,68,68,68,68,63,63,63,63,63,76,76,76,76,76,83,83,83,83,83,30,30,30,30,30,0,0,0,-1,0,0
"Ind55","2_0_3",87,87,87,87,87,48,48,48,48,48,60,60,60,60,60,61,61,61,61,61,70,70,70,70,70,69,68,68,68,68,63,63,63,63,63,76,76,76,76,76,83,83,83,83,83,30,30,30,30,30,0,0,0,0,-1,0
"Ind56","0_0_0",124,124,124,124,124,85,85,85,85,85,89,89,89,89,89,89,89,89,89,89,95,95,95,95,95,97,96,96,96,96,92,92,92,92,92,108,108,108,108,108,109,109,109,109,109,103,103,103,103,103,113,113,113,113,113,-1
