"","Description","Ind1","Ind2","Ind3","Ind4","Ind5","Ind6","Ind7","Ind8","Ind9","Ind10","Ind11","Ind12","Ind13","Ind14","Ind15","Ind16","Ind17","Ind18","Ind19","Ind20","Ind21","Ind22","Ind23","Ind24","Ind25","Ind26","Ind27","Ind28","Ind29","Ind30","Ind31","Ind32","Ind33","Ind34","Ind35","Ind36","Ind37","Ind38","Ind39","Ind40","Ind41","Ind42","Ind43","Ind44","Ind45","Ind46","Ind47","Ind48","Ind49","Ind50","Ind51","Ind52","Ind53","Ind54","Ind55","Ind56","Ind57","Ind58","Ind59","Ind60","Ind61"
"Ind1","0_0_0",-1,0,0,0,0,0,0,0,0,0,0,0,0,0,0,0,0,0,0,0,0,0,0,0,0,0,0,0,0,0,0,0,0,0,0,0,0,0,0,0,0,0,0,0,0,0,0,0,0,0,0,0,0,0,0,0,0,0,0,0,0
"Ind2","4_0_5",75,-1,0,0,0,0,0,0,0,0,0,0,0,0,0,0,0,0,0,0,0,0,0,0,0,0,0,0,0,0,0,0,0,0,0,0,0,0,0,0,0,0,0,0,0,0,0,0,0,0,0,0,0,0,0,0,0,0,0,0,0
"Ind3","4_0_1",75,0,-1,0,0,0,0,0,0,0,0,0,0,0,0,0,0,0,0,0,0,0,0,0,0,0,0,0,0,0,0,0,0,0,0,0,0,0,0,0,0,0,0,0,0,0,0,0,0,0,0,0,0,0,0,0,0,0,0,0,0
"Ind4","4_0_4",75,0,0,-1,0,0,0,0,0,0,0,0,0,0,0,0,0,0,0,0,0,0,0,0,0,0,0,0,0,0,0,0,0,0,0,0,0,0,0,0,0,0,0,0,0,0,0,0,0,0,0,0,0,0,0,0,0,0,0,0,0
"Ind5","4_0_10",75,0,0,0,-1,0,0,0,0,0,0,0,0,0,0,0,0,0,0,0,0,0,0,0,0,0,0,0,0,0,0,0,0,0,0,0,0,0,0,0,0,0,0,0,0,0,0,0,0,0,0,0,0,0,0,0,0,0,0,0,0
"Ind6","4_0_6",75,0,0,0,0,-1,0,0,0,0,0,0,0,0,0,0,0,0,0,0,0,0,0,0,0,0,0,0,0,0,0,0,0,0,0,0,0,0,0,0,0,0,0,0,0,0,0,0,0,0,0,0,0,0,0,0,0,0,0,0,0
"Ind7","4_0_0",75,0,0,0,0,0,-1,0,0,0,0,0,0,0,0,0,0,0,0,0,0,0,0,0,0,0,0,0,0,0,0,0,0,0,0,0,0,0,0,0,0,0,0,0,0,0,0,0,0,0,0,0,0,0,0,0,0,0,0,0,0
"Ind8","4_0_7",75,0,0,0,0,0,0,-1,0,0,0,0,0,0,0,0,0,0,0,0,0,0,0,0,0,0,0,0,0,0,0,0,0,0,0,0,0,0,0,0,0,0,0,0,0,0,0,0,0,0,0,0,0,0,0,0,0,0,0,0,0
"Ind9","4_0_3",75,0,0,0,0,0,0,0,-1,0,0,0,0,0,0,0,0,0,0,0,0,0,0,0,0,0,0,0,0,0,0,0,0,0,0,0,0,0,0,0,0,0,0,0,0,0,0,0,0,0,0,0,0,0,0,0,0,0,0,0,0
"Ind10","4_0_2",76,1,1,1,1,1,1,1,1,-1,0,0,0,0,0,0,0,0,0,0,0,0,0,0,0,0,0,0,0,0,0,0,0,0,0,0,0,0,0,0,0,0,0,0,0,0,0,0,0,0,0,0,0,0,0,0,0,0,0,0,0
"Ind11","4_0_11",76,1,1,1,1,1,1,1,1,0,-1,0,0,0,0,0,0,0,0,0,0,0,0,0,0,0,0,0,0,0,0,0,0,0,0,0,0,0,0,0,0,0,0,0,0,0,0,0,0,0,0,0,0,0,0,0,0,0,0,0,0
"Ind12","4_0_9",76,1,1,1,1,1,1,1,1,0,0,-1,0,0,0,0,0,0,0,0,0,0,0,0,0,0,0,0,0,0,0,0,0,0,0,0,0,0,0,0,0,0,0,0,0,0,0,0,0,0,0,0,0,0,0,0,0,0,0,0,0
"Ind13","4_0_8",76,1,1,1,1,1,1,1,1,0,0,0,-1,0,0,0,0,0,0,0,0,0,0,0,0,0,0,0,0,0,0,0,0,0,0,0,0,0,0,0,0,0,0,0,0,0,0,0,0,0,0,0,0,0,0,0,0,0,0,0,0
"Ind14","5_0_10",74,3,3,3,3,3,3,3,3,4,4,4,4,-1,0,0,0,0,0,0,0,0,0,0,0,0,0,0,0,0,0,0,0,0,0,0,0,0,0,0,0,0,0,0,0,0,0,0,0,0,0,0,0,0,0,0,0,0,0,0,0
"Ind15","5_0_6",74,3,3,3,3,3,3,3,3,4,4,4,4,0,-1,0,0,0,0,0,0,0,0,0,0,0,0,0,0,0,0,0,0,0,0,0,0,0,0,0,0,0,0,0,0,0,0,0,0,0,0,0,0,0,0,0,0,0,0,0,0
"Ind16","5_0_3",74,3,3,3,3,3,3,3,3,4,4,4,4,0,0,-1,0,0,0,0,0,0,0,0,0,0,0,0,0,0,0,0,0,0,0,0,0,0,0,0,0,0,0,0,0,0,0,0,0,0,0,0,0,0,0,0,0,0,0,0,0
"Ind17","5_0_1",74,3,3,3,3,3,3,3,3,4,4,4,4,0,0,0,-1,0,0,0,0,0,0,0,0,0,0,0,0,0,0,0,0,0,0,0,0,0,0,0,0,0,0,0,0,0,0,0,0,0,0,0,0,0,0,0,0,0,0,0,0
"Ind18","5_0_4",74,3,3,3,3,3,3,3,3,4,4,4,4,0,0,0,0,-1,0,0,0,0,0,0,0,0,0,0,0,0,0,0,0,0,0,0,0,0,0,0,0,0,0,0,0,0,0,0,0,0,0,0,0,0,0,0,0,0,0,0,0
"Ind19","5_0_8",74,3,3,3,3,3,3,3,3,4,4,4,4,0,0,0,0,0,-1,0,0,0,0,0,0,0,0,0,0,0,0,0,0,0,0,0,0,0,0,0,0,0,0,0,0,0,0,0,0,0,0,0,0,0,0,0,0,0,0,0,0
"Ind20","5_0_5",74,3,3,3,3,3,3,3,3,4,4,4,4,0,0,0,0,0,0,-1,0,0,0,0,0,0,0,0,0,0,0,0,0,0,0,0,0,0,0,0,0,0,0,0,0,0,0,0,0,0,0,0,0,0,0,0,0,0,0,0,0
"Ind21","5_0_7",74,3,3,3,3,3,3,3,3,4,4,4,4,0,0,0,0,0,0,0,-1,0,0,0,0,0,0,0,0,0,0,0,0,0,0,0,0,0,0,0,0,0,0,0,0,0,0,0,0,0,0,0,0,0,0,0,0,0,0,0,0
"Ind22","5_0_2",74,3,3,3,3,3,3,3,3,4,4,4,4,0,0,0,0,0,0,0,0,-1,0,0,0,0,0,0,0,0,0,0,0,0,0,0,0,0,0,0,0,0,0,0,0,0,0,0,0,0,0,0,0,0,0,0,0,0,0,0,0
"Ind23","5_0_0",74,3,3,3,3,3,3,3,3,4,4,4,4,0,0,0,0,0,0,0,0,0,-1,0,0,0,0,0,0,0,0,0,0,0,0,0,0,0,0,0,0,0,0,0,0,0,0,0,0,0,0,0,0,0,0,0,0,0,0,0,0
"Ind24","5_0_11",74,3,3,3,3,3,3,3,3,4,4,4,4,0,0,0,0,0,0,0,0,0,0,-1,0,0,0,0,0,0,0,0,0,0,0,0,0,0,0,0,0,0,0,0,0,0,0,0,0,0,0,0,0,0,0,0,0,0,0,0,0
"Ind25","5_0_9",74,3,3,3,3,3,3,3,3,4,4,4,4,0,0,0,0,0,0,0,0,0,0,0,-1,0,0,0,0,0,0,0,0,0,0,0,0,0,0,0,0,0,0,0,0,0,0,0,0,0,0,0,0,0,0,0,0,0,0,0,0
"Ind26","1_0_11",87,31,31,31,31,31,31,31,31,32,32,32,32,30,30,30,30,30,30,30,30,30,30,30,30,-1,0,0,0,0,0,0,0,0,0,0,0,0,0,0,0,0,0,0,0,0,0,0,0,0,0,0,0,0,0,0,0,0,0,0,0
"Ind27","1_0_2",87,31,31,31,31,31,31,31,31,32,32,32,32,30,30,30,30,30,30,30,30,30,30,30,30,0,-1,0,0,0,0,0,0,0,0,0,0,0,0,0,0,0,0,0,0,0,0,0,0,0,0,0,0,0,0,0,0,0,0,0,0
"Ind28","1_0_0",87,31,31,31,31,31,31,31,31,32,32,32,32,30,30,30,30,30,30,30,30,30,30,30,30,0,0,-1,0,0,0,0,0,0,0,0,0,0,0,0,0,0,0,0,0,0,0,0,0,0,0,0,0,0,0,0,0,0,0,0,0
"Ind29","1_0_3",87,31,31,31,31,31,31,31,31,32,32,32,32,30,30,30,30,30,30,30,30,30,30,30,30,0,0,0,-1,0,0,0,0,0,0,0,0,0,0,0,0,0,0,0,0,0,0,0,0,0,0,0,0,0,0,0,0,0,0,0,0
"Ind30","1_0_9",87,31,31,31,31,31,31,31,31,32,32,32,32,30,30,30,30,30,30,30,30,30,30,30,30,0,0,0,0,-1,0,0,0,0,0,0,0,0,0,0,0,0,0,0,0,0,0,0,0,0,0,0,0,0,0,0,0,0,0,0,0
"Ind31","1_0_8",87,31,31,31,31,31,31,31,31,32,32,32,32,30,30,30,30,30,30,30,30,30,30,30,30,0,0,0,0,0,-1,0,0,0,0,0,0,0,0,0,0,0,0,0,0,0,0,0,0,0,0,0,0,0,0,0,0,0,0,0,0
"Ind32","1_0_4",87,31,31,31,31,31,31,31,31,32,32,32,32,30,30,30,30,30,30,30,30,30,30,30,30,0,0,0,0,0,0,-1,0,0,0,0,0,0,0,0,0,0,0,0,0,0,0,0,0,0,0,0,0,0,0,0,0,0,0,0,0
"Ind33","1_0_7",87,31,31,31,31,31,31,31,31,32,32,32,32,30,30,30,30,30,30,30,30,30,30,30,30,0,0,0,0,0,0,0,-1,0,0,0,0,0,0,0,0,0,0,0,0,0,0,0,0,0,0,0,0,0,0,0,0,0,0,0,0
"Ind34","1_0_10",87,31,31,31,31,31,31,31,31,32,32,32,32,30,30,30,30,30,30,30,30,30,30,30,30,0,0,0,0,0,0,0,0,-1,0,0,0,0,0,0,0,0,0,0,0,0,0,0,0,0,0,0,0,0,0,0,0,0,0,0,0
"Ind35","1_0_6",87,31,31,31,31,31,31,31,31,32,32,32,32,30,30,30,30,30,30,30,30,30,30,30,30,0,0,0,0,0,0,0,0,0,-1,0,0,0,0,0,0,0,0,0,0,0,0,0,0,0,0,0,0,0,0,0,0,0,0,0,0
"Ind36","1_0_1",87,31,31,31,31,31,31,31,31,32,32,32,32,30,30,30,30,30,30,30,30,30,30,30,30,0,0,0,0,0,0,0,0,0,0,-1,0,0,0,0,0,0,0,0,0,0,0,0,0,0,0,0,0,0,0,0,0,0,0,0,0
"Ind37","1_0_5",87,31,31,31,31,31,31,31,31,32,32,32,32,30,30,30,30,30,30,30,30,30,30,30,30,0,0,0,0,0,0,0,0,0,0,0,-1,0,0,0,0,0,0,0,0,0,0,0,0,0,0,0,0,0,0,0,0,0,0,0,0
"Ind38","2_0_6",96,48,48,48,48,48,48,48,48,49,49,49,49,47,47,47,47,47,47,47,47,47,47,47,47,63,63,63,63,63,63,63,63,63,63,63,63,-1,0,0,0,0,0,0,0,0,0,0,0,0,0,0,0,0,0,0,0,0,0,0,0
"Ind39","2_0_5",96,48,48,48,48,48,48,48,48,49,49,49,49,47,47,47,47,47,47,47,47,47,47,47,47,63,63,63,63,63,63,63,63,63,63,63,63,0,-1,0,0,0,0,0,0,0,0,0,0,0,0,0,0,0,0,0,0,0,0,0,0
"Ind40","2_0_0",96,48,48,48,48,48,48,48,48,49,49,49,49,47,47,47,47,47,47,47,47,47,47,47,47,63,63,63,63,63,63,63,63,63,63,63,63,0,0,-1,0,0,0,0,0,0,0,0,0,0,0,0,0,0,0,0,0,0,0,0,0
"Ind41","2_0_11",96,48,48,48,48,48,48,48,48,49,49,49,49,47,47,47,47,47,47,47,47,47,47,47,47,63,63,63,63,63,63,63,63,63,63,63,63,0,0,0,-1,0,0,0,0,0,0,0,0,0,0,0,0,0,0,0,0,0,0,0,0
"Ind42","2_0_8",96,48,48,48,48,48,48,48,48,49,49,49,49,47,47,47,47,47,47,47,47,47,47,47,47,63,63,63,63,63,63,63,63,63,63,63,63,0,0,0,0,-1,0,0,0,0,0,0,0,0,0,0,0,0,0,0,0,0,0,0,0
"Ind43","2_0_7",96,48,48,48,48,48,48,48,48,49,49,49,49,47,47,47,47,47,47,47,47,47,47,47,47,63,63,63,63,63,63,63,63,63,63,63,63,0,0,0,0,0,-1,0,0,0,0,0,0,0,0,0,0,0,0,0,0,0,0,0,0
"Ind44","2_0_3",96,48,48,48,48,48,48,48,48,49,49,49,49,47,47,47,47,47,47,47,47,47,47,47,47,63,63,63,63,63,63,63,63,63,63,63,63,0,0,0,0,0,0,-1,0,0,0,0,0,0,0,0,0,0,0,0,0,0,0,0,0
"Ind45","2_0_9",96,48,48,48,48,48,48,48,48,49,49,49,49,47,47,47,47,47,47,47,47,47,47,47,47,63,63,63,63,63,63,63,63,63,63,63,63,0,0,0,0,0,0,0,-1,0,0,0,0,0,0,0,0,0,0,0,0,0,0,0,0
"Ind46","2_0_4",96,48,48,48,48,48,48,48,48,49,49,49,49,47,47,47,47,47,47,47,47,47,47,47,47,63,63,63,63,63,63,63,63,63,63,63,63,0,0,0,0,0,0,0,0,-1,0,0,0,0,0,0,0,0,0,0,0,0,0,0,0
"Ind47","2_0_1",96,48,48,48,48,48,48,48,48,49,49,49,49,47,47,47,47,47,47,47,47,47,47,47,47,63,63,63,63,63,63,63,63,63,63,63,63,0,0,0,0,0,0,0,0,0,-1,0,0,0,0,0,0,0,0,0,0,0,0,0,0
"Ind48","2_0_10",96,48,48,48,48,48,48,48,48,49,49,49,49,47,47,47,47,47,47,47,47,47,47,47,47,63,63,63,63,63,63,63,63,63,63,63,63,0,0,0,0,0,0,0,0,0,0,-1,0,0,0,0,0,0,0,0,0,0,0,0,0
"Ind49","2_0_2",96,48,48,48,48,48,48,48,48,49,49,49,49,47,47,47,47,47,47,47,47,47,47,47,47,63,63,63,63,63,63,63,63,63,63,63,63,0,0,0,0,0,0,0,0,0,0,0,-1,0,0,0,0,0,0,0,0,0,0,0,0
"Ind50","3_0_1",86,25,25,25,25,25,25,25,25,26,26,26,26,24,24,24,24,24,24,24,24,24,24,24,24,44,44,44,44,44,44,44,44,44,44,44,44,44,44,44,44,44,44,44,44,44,44,44,44,-1,0,0,0,0,0,0,0,0,0,0,0
"Ind51","3_0_6",86,25,25,25,25,25,25,25,25,26,26,26,26,24,24,24,24,24,24,24,24,24,24,24,24,44,44,44,44,44,44,44,44,44,44,44,44,44,44,44,44,44,44,44,44,44,44,44,44,0,-1,0,0,0,0,0,0,0,0,0,0
"Ind52","3_0_0",86,25,25,25,25,25,25,25,25,26,26,26,26,24,24,24,24,24,24,24,24,24,24,24,24,44,44,44,44,44,44,44,44,44,44,44,44,44,44,44,44,44,44,44,44,44,44,44,44,0,0,-1,0,0,0,0,0,0,0,0,0
"Ind53","3_0_3",86,25,25,25,25,25,25,25,25,26,26,26,26,24,24,24,24,24,24,24,24,24,24,24,24,44,44,44,44,44,44,44,44,44,44,44,44,44,44,44,44,44,44,44,44,44,44,44,44,0,0,0,-1,0,0,0,0,0,0,0,0
"Ind54","3_0_9",86,25,25,25,25,25,25,25,25,26,26,26,26,24,24,24,24,24,24,24,24,24,24,24,24,44,44,44,44,44,44,44,44,44,44,44,44,44,44,44,44,44,44,44,44,44,44,44,44,0,0,0,0,-1,0,0,0,0,0,0,0
"Ind55","3_0_11",86,25,25,25,25,25,25,25,25,26,26,26,26,24,24,24,24,24,24,24,24,24,24,24,24,44,44,44,44,44,44,44,44,44,44,44,44,44,44,44,44,44,44,44,44,44,44,44,44,0,0,0,0,0,-1,0,0,0,0,0,0
"Ind56","3_0_7",86,25,25,25,25,25,25,25,25,26,26,26,26,24,24,24,24,24,24,24,24,24,24,24,24,44,44,44,44,44,44,44,44,44,44,44,44,44,44,44,44,44,44,44,44,44,44,44,44,0,0,0,0,0,0,-1,0,0,0,0,0
"Ind57","3_0_2",86,25,25,25,25,25,25,25,25,26,26,26,26,24,24,24,24,24,24,24,24,24,24,24,24,44,44,44,44,44,44,44,44,44,44,44,44,44,44,44,44,44,44,44,44,44,44,44,44,0,0,0,0,0,0,0,-1,0,0,0,0
"Ind58","3_0_8",86,25,25,25,25,25,25,25,25,26,26,26,26,24,24,24,24,24,24,24,24,24,24,24,24,44,44,44,44,44,44,44,44,44,44,44,44,44,44,44,44,44,44,44,44,44,44,44,44,0,0,0,0,0,0,0,0,-1,0,0,0
"Ind59","3_0_5",86,25,25,25,25,25,25,25,25,26,26,26,26,24,24,24,24,24,24,24,24,24,24,24,24,44,44,44,44,44,44,44,44,44,44,44,44,44,44,44,44,44,44,44,44,44,44,44,44,0,0,0,0,0,0,0,0,0,-1,0,0
"Ind60","3_0_10",86,25,25,25,25,25,25,25,25,26,26,26,26,24,24,24,24,24,24,24,24,24,24,24,24,44,44,44,44,44,44,44,44,44,44,44,44,44,44,44,44,44,44,44,44,44,44,44,44,0,0,0,0,0,0,0,0,0,0,-1,0
"Ind61","3_0_4",86,25,25,25,25,25,25,25,25,26,26,26,26,24,24,24,24,24,24,24,24,24,24,24,24,44,44,44,44,44,44,44,44,44,44,44,44,44,44,44,44,44,44,44,44,44,44,44,44,0,0,0,0,0,0,0,0,0,0,0,-1
