"","Description","Ind1","Ind2","Ind3","Ind4","Ind5","Ind6","Ind7","Ind8","Ind9","Ind10","Ind11","Ind12","Ind13","Ind14","Ind15","Ind16"
"Ind1","1_0_0",-1,0,0,0,0,0,0,0,0,0,0,0,0,0,0,0
"Ind2","1_0_2",0,-1,0,0,0,0,0,0,0,0,0,0,0,0,0,0
"Ind3","1_0_1",0,0,-1,0,0,0,0,0,0,0,0,0,0,0,0,0
"Ind4","3_0_0",0,0,0,-1,0,0,0,0,0,0,0,0,0,0,0,0
"Ind5","3_0_2",0,0,0,0,-1,0,0,0,0,0,0,0,0,0,0,0
"Ind6","3_0_1",0,0,0,0,0,-1,0,0,0,0,0,0,0,0,0,0
"Ind7","2_0_1",1,1,1,1,1,1,-1,0,0,0,0,0,0,0,0,0
"Ind8","2_0_0",1,1,1,1,1,1,0,-1,0,0,0,0,0,0,0,0
"Ind9","2_0_2",1,1,1,1,1,1,0,0,-1,0,0,0,0,0,0,0
"Ind10","4_0_2",1,1,1,1,1,1,2,2,2,-1,0,0,0,0,0,0
"Ind11","4_0_0",1,1,1,1,1,1,2,2,2,0,-1,0,0,0,0,0
"Ind12","4_0_1",1,1,1,1,1,1,2,2,2,0,0,-1,0,0,0,0
"Ind13","5_0_2",0,0,0,0,0,0,1,1,1,1,1,1,-1,0,0,0
"Ind14","5_0_1",0,0,0,0,0,0,1,1,1,1,1,1,0,-1,0,0
"Ind15","5_0_0",0,0,0,0,0,0,1,1,1,1,1,1,0,0,-1,0
"Ind16","0_0_0",2,2,2,2,2,2,1,1,1,3,3,3,2,2,2,-1
