"","Description","Ind1","Ind2","Ind3","Ind4","Ind5","Ind6","Ind7","Ind8","Ind9","Ind10","Ind11","Ind12","Ind13","Ind14","Ind15","Ind16","Ind17","Ind18","Ind19","Ind20","Ind21","Ind22","Ind23","Ind24","Ind25","Ind26","Ind27","Ind28","Ind29","Ind30","Ind31","Ind32","Ind33","Ind34","Ind35","Ind36","Ind37","Ind38","Ind39","Ind40","Ind41","Ind42","Ind43","Ind44","Ind45","Ind46","Ind47","Ind48","Ind49","Ind50","Ind51","Ind52"
"Ind1","17_0_2",-1,0,0,0,0,0,0,0,0,0,0,0,0,0,0,0,0,0,0,0,0,0,0,0,0,0,0,0,0,0,0,0,0,0,0,0,0,0,0,0,0,0,0,0,0,0,0,0,0,0,0,0
"Ind2","17_0_0",0,-1,0,0,0,0,0,0,0,0,0,0,0,0,0,0,0,0,0,0,0,0,0,0,0,0,0,0,0,0,0,0,0,0,0,0,0,0,0,0,0,0,0,0,0,0,0,0,0,0,0,0
"Ind3","17_0_1",0,0,-1,0,0,0,0,0,0,0,0,0,0,0,0,0,0,0,0,0,0,0,0,0,0,0,0,0,0,0,0,0,0,0,0,0,0,0,0,0,0,0,0,0,0,0,0,0,0,0,0,0
"Ind4","15_0_2",10,10,10,-1,0,0,0,0,0,0,0,0,0,0,0,0,0,0,0,0,0,0,0,0,0,0,0,0,0,0,0,0,0,0,0,0,0,0,0,0,0,0,0,0,0,0,0,0,0,0,0,0
"Ind5","15_0_1",11,11,11,1,-1,0,0,0,0,0,0,0,0,0,0,0,0,0,0,0,0,0,0,0,0,0,0,0,0,0,0,0,0,0,0,0,0,0,0,0,0,0,0,0,0,0,0,0,0,0,0,0
"Ind6","15_0_0",11,11,11,1,0,-1,0,0,0,0,0,0,0,0,0,0,0,0,0,0,0,0,0,0,0,0,0,0,0,0,0,0,0,0,0,0,0,0,0,0,0,0,0,0,0,0,0,0,0,0,0,0
"Ind7","13_0_0",13,13,13,5,6,6,-1,0,0,0,0,0,0,0,0,0,0,0,0,0,0,0,0,0,0,0,0,0,0,0,0,0,0,0,0,0,0,0,0,0,0,0,0,0,0,0,0,0,0,0,0,0
"Ind8","13_0_2",13,13,13,5,6,6,0,-1,0,0,0,0,0,0,0,0,0,0,0,0,0,0,0,0,0,0,0,0,0,0,0,0,0,0,0,0,0,0,0,0,0,0,0,0,0,0,0,0,0,0,0,0
"Ind9","13_0_1",13,13,13,5,6,6,0,0,-1,0,0,0,0,0,0,0,0,0,0,0,0,0,0,0,0,0,0,0,0,0,0,0,0,0,0,0,0,0,0,0,0,0,0,0,0,0,0,0,0,0,0,0
"Ind10","11_0_0",13,13,13,5,6,6,0,0,0,-1,0,0,0,0,0,0,0,0,0,0,0,0,0,0,0,0,0,0,0,0,0,0,0,0,0,0,0,0,0,0,0,0,0,0,0,0,0,0,0,0,0,0
"Ind11","11_0_2",13,13,13,5,6,6,0,0,0,0,-1,0,0,0,0,0,0,0,0,0,0,0,0,0,0,0,0,0,0,0,0,0,0,0,0,0,0,0,0,0,0,0,0,0,0,0,0,0,0,0,0,0
"Ind12","11_0_1",13,13,13,5,6,6,0,0,0,0,0,-1,0,0,0,0,0,0,0,0,0,0,0,0,0,0,0,0,0,0,0,0,0,0,0,0,0,0,0,0,0,0,0,0,0,0,0,0,0,0,0,0
"Ind13","14_0_1",13,13,13,5,6,6,0,0,0,0,0,0,-1,0,0,0,0,0,0,0,0,0,0,0,0,0,0,0,0,0,0,0,0,0,0,0,0,0,0,0,0,0,0,0,0,0,0,0,0,0,0,0
"Ind14","14_0_0",13,13,13,5,6,6,0,0,0,0,0,0,0,-1,0,0,0,0,0,0,0,0,0,0,0,0,0,0,0,0,0,0,0,0,0,0,0,0,0,0,0,0,0,0,0,0,0,0,0,0,0,0
"Ind15","14_0_2",13,13,13,5,6,6,0,0,0,0,0,0,0,0,-1,0,0,0,0,0,0,0,0,0,0,0,0,0,0,0,0,0,0,0,0,0,0,0,0,0,0,0,0,0,0,0,0,0,0,0,0,0
"Ind16","12_0_2",18,18,18,12,13,13,7,7,7,7,7,7,7,7,7,-1,0,0,0,0,0,0,0,0,0,0,0,0,0,0,0,0,0,0,0,0,0,0,0,0,0,0,0,0,0,0,0,0,0,0,0,0
"Ind17","12_0_0",18,18,18,12,13,13,7,7,7,7,7,7,7,7,7,0,-1,0,0,0,0,0,0,0,0,0,0,0,0,0,0,0,0,0,0,0,0,0,0,0,0,0,0,0,0,0,0,0,0,0,0,0
"Ind18","12_0_1",18,18,18,12,13,13,7,7,7,7,7,7,7,7,7,0,0,-1,0,0,0,0,0,0,0,0,0,0,0,0,0,0,0,0,0,0,0,0,0,0,0,0,0,0,0,0,0,0,0,0,0,0
"Ind19","10_0_2",13,13,13,5,6,6,2,2,2,2,2,2,2,2,2,9,9,9,-1,0,0,0,0,0,0,0,0,0,0,0,0,0,0,0,0,0,0,0,0,0,0,0,0,0,0,0,0,0,0,0,0,0
"Ind20","10_0_0",13,13,13,5,6,6,2,2,2,2,2,2,2,2,2,9,9,9,0,-1,0,0,0,0,0,0,0,0,0,0,0,0,0,0,0,0,0,0,0,0,0,0,0,0,0,0,0,0,0,0,0,0
"Ind21","10_0_1",13,13,13,5,6,6,2,2,2,2,2,2,2,2,2,9,9,9,0,0,-1,0,0,0,0,0,0,0,0,0,0,0,0,0,0,0,0,0,0,0,0,0,0,0,0,0,0,0,0,0,0,0
"Ind22","16_0_2",13,13,13,5,6,6,2,2,2,2,2,2,2,2,2,9,9,9,0,0,0,-1,0,0,0,0,0,0,0,0,0,0,0,0,0,0,0,0,0,0,0,0,0,0,0,0,0,0,0,0,0,0
"Ind23","16_0_0",13,13,13,5,6,6,2,2,2,2,2,2,2,2,2,9,9,9,0,0,0,0,-1,0,0,0,0,0,0,0,0,0,0,0,0,0,0,0,0,0,0,0,0,0,0,0,0,0,0,0,0,0
"Ind24","16_0_1",13,13,13,5,6,6,2,2,2,2,2,2,2,2,2,9,9,9,0,0,0,0,0,-1,0,0,0,0,0,0,0,0,0,0,0,0,0,0,0,0,0,0,0,0,0,0,0,0,0,0,0,0
"Ind25","2_0_1",22,22,22,14,13,13,17,17,17,17,17,17,17,17,17,22,22,22,17,17,17,17,17,17,-1,0,0,0,0,0,0,0,0,0,0,0,0,0,0,0,0,0,0,0,0,0,0,0,0,0,0,0
"Ind26","2_0_2",22,22,22,14,13,13,17,17,17,17,17,17,17,17,17,22,22,22,17,17,17,17,17,17,0,-1,0,0,0,0,0,0,0,0,0,0,0,0,0,0,0,0,0,0,0,0,0,0,0,0,0,0
"Ind27","2_0_0",22,22,22,14,13,13,17,17,17,17,17,17,17,17,17,22,22,22,17,17,17,17,17,17,0,0,-1,0,0,0,0,0,0,0,0,0,0,0,0,0,0,0,0,0,0,0,0,0,0,0,0,0
"Ind28","4_0_0",23,23,23,15,14,14,18,18,18,18,18,18,18,18,18,23,23,23,18,18,18,18,18,18,1,1,1,-1,0,0,0,0,0,0,0,0,0,0,0,0,0,0,0,0,0,0,0,0,0,0,0,0
"Ind29","4_0_2",23,23,23,15,14,14,18,18,18,18,18,18,18,18,18,23,23,23,18,18,18,18,18,18,1,1,1,0,-1,0,0,0,0,0,0,0,0,0,0,0,0,0,0,0,0,0,0,0,0,0,0,0
"Ind30","4_0_1",23,23,23,15,14,14,18,18,18,18,18,18,18,18,18,23,23,23,18,18,18,18,18,18,1,1,1,0,0,-1,0,0,0,0,0,0,0,0,0,0,0,0,0,0,0,0,0,0,0,0,0,0
"Ind31","8_0_0",20,20,20,12,13,13,11,11,11,11,11,11,11,11,11,18,18,18,11,11,11,11,11,11,16,16,16,17,17,17,-1,0,0,0,0,0,0,0,0,0,0,0,0,0,0,0,0,0,0,0,0,0
"Ind32","8_0_2",20,20,20,12,13,13,11,11,11,11,11,11,11,11,11,18,18,18,11,11,11,11,11,11,16,16,16,17,17,17,0,-1,0,0,0,0,0,0,0,0,0,0,0,0,0,0,0,0,0,0,0,0
"Ind33","8_0_1",20,20,20,12,13,13,11,11,11,11,11,11,11,11,11,18,18,18,11,11,11,11,11,11,16,16,16,17,17,17,0,0,-1,0,0,0,0,0,0,0,0,0,0,0,0,0,0,0,0,0,0,0
"Ind34","6_0_2",25,25,25,15,16,16,16,16,16,16,16,16,16,16,16,23,23,23,16,16,16,16,16,16,17,17,17,18,18,18,13,13,13,-1,0,0,0,0,0,0,0,0,0,0,0,0,0,0,0,0,0,0
"Ind35","6_0_1",25,25,25,15,16,16,16,16,16,16,16,16,16,16,16,23,23,23,16,16,16,16,16,16,17,17,17,18,18,18,13,13,13,0,-1,0,0,0,0,0,0,0,0,0,0,0,0,0,0,0,0,0
"Ind36","6_0_0",25,25,25,15,16,16,16,16,16,16,16,16,16,16,16,23,23,23,16,16,16,16,16,16,17,17,17,18,18,18,13,13,13,0,0,-1,0,0,0,0,0,0,0,0,0,0,0,0,0,0,0,0
"Ind37","9_0_0",20,20,20,10,11,11,11,11,11,11,11,11,11,11,11,17,17,17,11,11,11,11,11,11,12,12,12,13,13,13,8,8,8,9,9,9,-1,0,0,0,0,0,0,0,0,0,0,0,0,0,0,0
"Ind38","9_0_2",20,20,20,10,11,11,11,11,11,11,11,11,11,11,11,17,17,17,11,11,11,11,11,11,12,12,12,13,13,13,8,8,8,9,9,9,0,-1,0,0,0,0,0,0,0,0,0,0,0,0,0,0
"Ind39","9_0_1",19,19,19,9,10,10,10,10,10,10,10,10,10,10,10,16,16,16,10,10,10,10,10,10,11,11,11,12,12,12,7,7,7,8,8,8,1,1,-1,0,0,0,0,0,0,0,0,0,0,0,0,0
"Ind40","7_0_1",19,19,19,9,10,10,10,10,10,10,10,10,10,10,10,16,16,16,10,10,10,10,10,10,11,11,11,12,12,12,7,7,7,8,8,8,1,1,0,-1,0,0,0,0,0,0,0,0,0,0,0,0
"Ind41","7_0_0",19,19,19,9,10,10,10,10,10,10,10,10,10,10,10,16,16,16,10,10,10,10,10,10,11,11,11,12,12,12,7,7,7,8,8,8,1,1,0,0,-1,0,0,0,0,0,0,0,0,0,0,0
"Ind42","7_0_2",19,19,19,9,10,10,10,10,10,10,10,10,10,10,10,16,16,16,10,10,10,10,10,10,11,11,11,12,12,12,7,7,7,8,8,8,1,1,0,0,0,-1,0,0,0,0,0,0,0,0,0,0
"Ind43","5_0_0",23,23,23,13,14,14,14,14,14,14,14,14,14,14,14,21,21,21,14,14,14,14,14,14,13,13,13,14,14,14,11,11,11,11,11,11,7,7,6,6,6,6,-1,0,0,0,0,0,0,0,0,0
"Ind44","5_0_1",23,23,23,13,14,14,14,14,14,14,14,14,14,14,14,21,21,21,14,14,14,14,14,14,13,13,13,14,14,14,11,11,11,11,11,11,7,7,6,6,6,6,0,-1,0,0,0,0,0,0,0,0
"Ind45","5_0_2",23,23,23,13,14,14,14,14,14,14,14,14,14,14,14,21,21,21,14,14,14,14,14,14,13,13,13,14,14,14,11,11,11,11,11,11,7,7,6,6,6,6,0,0,-1,0,0,0,0,0,0,0
"Ind46","3_0_2",23,23,23,13,14,14,14,14,14,14,14,14,14,14,14,21,21,21,14,14,14,14,14,14,13,13,13,14,14,14,11,11,11,11,11,11,7,7,6,6,6,6,0,0,0,-1,0,0,0,0,0,0
"Ind47","3_0_1",23,23,23,13,14,14,14,14,14,14,14,14,14,14,14,21,21,21,14,14,14,14,14,14,13,13,13,14,14,14,11,11,11,11,11,11,7,7,6,6,6,6,0,0,0,0,-1,0,0,0,0,0
"Ind48","3_0_0",23,23,23,13,14,14,14,14,14,14,14,14,14,14,14,21,21,21,14,14,14,14,14,14,13,13,13,14,14,14,11,11,11,11,11,11,7,7,6,6,6,6,0,0,0,0,0,-1,0,0,0,0
"Ind49","1_0_1",25,25,25,17,18,18,18,18,18,18,18,18,18,18,18,25,25,25,18,18,18,18,18,18,17,17,17,18,18,18,15,15,15,16,16,16,11,11,10,10,10,10,10,10,10,10,10,10,-1,0,0,0
"Ind50","1_0_2",25,25,25,17,18,18,18,18,18,18,18,18,18,18,18,25,25,25,18,18,18,18,18,18,17,17,17,18,18,18,15,15,15,16,16,16,11,11,10,10,10,10,10,10,10,10,10,10,0,-1,0,0
"Ind51","1_0_0",25,25,25,17,18,18,18,18,18,18,18,18,18,18,18,25,25,25,18,18,18,18,18,18,17,17,17,18,18,18,15,15,15,16,16,16,11,11,10,10,10,10,10,10,10,10,10,10,0,0,-1,0
"Ind52","0_0_0",53,53,53,47,46,46,48,48,48,48,48,48,48,48,48,55,55,55,48,48,48,48,48,48,49,49,49,50,50,50,47,47,47,48,48,48,43,43,42,42,42,42,44,44,44,44,44,44,50,50,50,-1
