"","Description","Ind1","Ind2","Ind3","Ind4","Ind5","Ind6","Ind7","Ind8","Ind9"
"Ind1","3_0_0",-1,0,0,0,0,0,0,0,0
"Ind2","3_0_1",0,-1,0,0,0,0,0,0,0
"Ind3","4_0_1",0,0,-1,0,0,0,0,0,0
"Ind4","4_0_0",0,0,0,-1,0,0,0,0,0
"Ind5","2_0_1",1,1,1,1,-1,0,0,0,0
"Ind6","2_0_0",1,1,1,1,0,-1,0,0,0
"Ind7","1_0_1",21,21,21,21,20,20,-1,0,0
"Ind8","1_0_0",21,21,21,21,20,20,0,-1,0
"Ind9","0_0_0",46,46,46,46,45,45,43,43,-1
