"","Description","Ind1","Ind2","Ind3","Ind4","Ind5","Ind6","Ind7","Ind8","Ind9","Ind10","Ind11","Ind12","Ind13","Ind14","Ind15","Ind16","Ind17","Ind18","Ind19","Ind20","Ind21","Ind22","Ind23","Ind24","Ind25","Ind26","Ind27","Ind28","Ind29","Ind30","Ind31","Ind32","Ind33","Ind34","Ind35","Ind36","Ind37","Ind38","Ind39","Ind40","Ind41","Ind42","Ind43","Ind44","Ind45","Ind46","Ind47","Ind48","Ind49","Ind50","Ind51","Ind52","Ind53","Ind54","Ind55","Ind56","Ind57","Ind58","Ind59","Ind60","Ind61","Ind62","Ind63","Ind64","Ind65","Ind66","Ind67","Ind68","Ind69","Ind70","Ind71","Ind72","Ind73","Ind74","Ind75","Ind76","Ind77","Ind78","Ind79","Ind80","Ind81","Ind82","Ind83","Ind84","Ind85"
"Ind1","1_0_6",-1,0,0,0,0,0,0,0,0,0,0,0,0,0,0,0,0,0,0,0,0,0,0,0,0,0,0,0,0,0,0,0,0,0,0,0,0,0,0,0,0,0,0,0,0,0,0,0,0,0,0,0,0,0,0,0,0,0,0,0,0,0,0,0,0,0,0,0,0,0,0,0,0,0,0,0,0,0,0,0,0,0,0,0,0
"Ind2","1_0_7",0,-1,0,0,0,0,0,0,0,0,0,0,0,0,0,0,0,0,0,0,0,0,0,0,0,0,0,0,0,0,0,0,0,0,0,0,0,0,0,0,0,0,0,0,0,0,0,0,0,0,0,0,0,0,0,0,0,0,0,0,0,0,0,0,0,0,0,0,0,0,0,0,0,0,0,0,0,0,0,0,0,0,0,0,0
"Ind3","1_0_9",0,0,-1,0,0,0,0,0,0,0,0,0,0,0,0,0,0,0,0,0,0,0,0,0,0,0,0,0,0,0,0,0,0,0,0,0,0,0,0,0,0,0,0,0,0,0,0,0,0,0,0,0,0,0,0,0,0,0,0,0,0,0,0,0,0,0,0,0,0,0,0,0,0,0,0,0,0,0,0,0,0,0,0,0,0
"Ind4","1_0_2",0,0,0,-1,0,0,0,0,0,0,0,0,0,0,0,0,0,0,0,0,0,0,0,0,0,0,0,0,0,0,0,0,0,0,0,0,0,0,0,0,0,0,0,0,0,0,0,0,0,0,0,0,0,0,0,0,0,0,0,0,0,0,0,0,0,0,0,0,0,0,0,0,0,0,0,0,0,0,0,0,0,0,0,0,0
"Ind5","1_0_0",0,0,0,0,-1,0,0,0,0,0,0,0,0,0,0,0,0,0,0,0,0,0,0,0,0,0,0,0,0,0,0,0,0,0,0,0,0,0,0,0,0,0,0,0,0,0,0,0,0,0,0,0,0,0,0,0,0,0,0,0,0,0,0,0,0,0,0,0,0,0,0,0,0,0,0,0,0,0,0,0,0,0,0,0,0
"Ind6","1_0_3",0,0,0,0,0,-1,0,0,0,0,0,0,0,0,0,0,0,0,0,0,0,0,0,0,0,0,0,0,0,0,0,0,0,0,0,0,0,0,0,0,0,0,0,0,0,0,0,0,0,0,0,0,0,0,0,0,0,0,0,0,0,0,0,0,0,0,0,0,0,0,0,0,0,0,0,0,0,0,0,0,0,0,0,0,0
"Ind7","1_0_11",0,0,0,0,0,0,-1,0,0,0,0,0,0,0,0,0,0,0,0,0,0,0,0,0,0,0,0,0,0,0,0,0,0,0,0,0,0,0,0,0,0,0,0,0,0,0,0,0,0,0,0,0,0,0,0,0,0,0,0,0,0,0,0,0,0,0,0,0,0,0,0,0,0,0,0,0,0,0,0,0,0,0,0,0,0
"Ind8","1_0_5",0,0,0,0,0,0,0,-1,0,0,0,0,0,0,0,0,0,0,0,0,0,0,0,0,0,0,0,0,0,0,0,0,0,0,0,0,0,0,0,0,0,0,0,0,0,0,0,0,0,0,0,0,0,0,0,0,0,0,0,0,0,0,0,0,0,0,0,0,0,0,0,0,0,0,0,0,0,0,0,0,0,0,0,0,0
"Ind9","1_0_4",0,0,0,0,0,0,0,0,-1,0,0,0,0,0,0,0,0,0,0,0,0,0,0,0,0,0,0,0,0,0,0,0,0,0,0,0,0,0,0,0,0,0,0,0,0,0,0,0,0,0,0,0,0,0,0,0,0,0,0,0,0,0,0,0,0,0,0,0,0,0,0,0,0,0,0,0,0,0,0,0,0,0,0,0,0
"Ind10","1_0_1",0,0,0,0,0,0,0,0,0,-1,0,0,0,0,0,0,0,0,0,0,0,0,0,0,0,0,0,0,0,0,0,0,0,0,0,0,0,0,0,0,0,0,0,0,0,0,0,0,0,0,0,0,0,0,0,0,0,0,0,0,0,0,0,0,0,0,0,0,0,0,0,0,0,0,0,0,0,0,0,0,0,0,0,0,0
"Ind11","1_0_10",0,0,0,0,0,0,0,0,0,0,-1,0,0,0,0,0,0,0,0,0,0,0,0,0,0,0,0,0,0,0,0,0,0,0,0,0,0,0,0,0,0,0,0,0,0,0,0,0,0,0,0,0,0,0,0,0,0,0,0,0,0,0,0,0,0,0,0,0,0,0,0,0,0,0,0,0,0,0,0,0,0,0,0,0,0
"Ind12","1_0_8",0,0,0,0,0,0,0,0,0,0,0,-1,0,0,0,0,0,0,0,0,0,0,0,0,0,0,0,0,0,0,0,0,0,0,0,0,0,0,0,0,0,0,0,0,0,0,0,0,0,0,0,0,0,0,0,0,0,0,0,0,0,0,0,0,0,0,0,0,0,0,0,0,0,0,0,0,0,0,0,0,0,0,0,0,0
"Ind13","5_0_0",80,80,80,80,80,80,80,80,80,80,80,80,-1,0,0,0,0,0,0,0,0,0,0,0,0,0,0,0,0,0,0,0,0,0,0,0,0,0,0,0,0,0,0,0,0,0,0,0,0,0,0,0,0,0,0,0,0,0,0,0,0,0,0,0,0,0,0,0,0,0,0,0,0,0,0,0,0,0,0,0,0,0,0,0,0
"Ind14","5_0_7",80,80,80,80,80,80,80,80,80,80,80,80,0,-1,0,0,0,0,0,0,0,0,0,0,0,0,0,0,0,0,0,0,0,0,0,0,0,0,0,0,0,0,0,0,0,0,0,0,0,0,0,0,0,0,0,0,0,0,0,0,0,0,0,0,0,0,0,0,0,0,0,0,0,0,0,0,0,0,0,0,0,0,0,0,0
"Ind15","5_0_10",80,80,80,80,80,80,80,80,80,80,80,80,0,0,-1,0,0,0,0,0,0,0,0,0,0,0,0,0,0,0,0,0,0,0,0,0,0,0,0,0,0,0,0,0,0,0,0,0,0,0,0,0,0,0,0,0,0,0,0,0,0,0,0,0,0,0,0,0,0,0,0,0,0,0,0,0,0,0,0,0,0,0,0,0,0
"Ind16","5_0_8",80,80,80,80,80,80,80,80,80,80,80,80,0,0,0,-1,0,0,0,0,0,0,0,0,0,0,0,0,0,0,0,0,0,0,0,0,0,0,0,0,0,0,0,0,0,0,0,0,0,0,0,0,0,0,0,0,0,0,0,0,0,0,0,0,0,0,0,0,0,0,0,0,0,0,0,0,0,0,0,0,0,0,0,0,0
"Ind17","5_0_3",80,80,80,80,80,80,80,80,80,80,80,80,0,0,0,0,-1,0,0,0,0,0,0,0,0,0,0,0,0,0,0,0,0,0,0,0,0,0,0,0,0,0,0,0,0,0,0,0,0,0,0,0,0,0,0,0,0,0,0,0,0,0,0,0,0,0,0,0,0,0,0,0,0,0,0,0,0,0,0,0,0,0,0,0,0
"Ind18","5_0_1",80,80,80,80,80,80,80,80,80,80,80,80,0,0,0,0,0,-1,0,0,0,0,0,0,0,0,0,0,0,0,0,0,0,0,0,0,0,0,0,0,0,0,0,0,0,0,0,0,0,0,0,0,0,0,0,0,0,0,0,0,0,0,0,0,0,0,0,0,0,0,0,0,0,0,0,0,0,0,0,0,0,0,0,0,0
"Ind19","5_0_6",80,80,80,80,80,80,80,80,80,80,80,80,0,0,0,0,0,0,-1,0,0,0,0,0,0,0,0,0,0,0,0,0,0,0,0,0,0,0,0,0,0,0,0,0,0,0,0,0,0,0,0,0,0,0,0,0,0,0,0,0,0,0,0,0,0,0,0,0,0,0,0,0,0,0,0,0,0,0,0,0,0,0,0,0,0
"Ind20","5_0_11",80,80,80,80,80,80,80,80,80,80,80,80,0,0,0,0,0,0,0,-1,0,0,0,0,0,0,0,0,0,0,0,0,0,0,0,0,0,0,0,0,0,0,0,0,0,0,0,0,0,0,0,0,0,0,0,0,0,0,0,0,0,0,0,0,0,0,0,0,0,0,0,0,0,0,0,0,0,0,0,0,0,0,0,0,0
"Ind21","5_0_2",80,80,80,80,80,80,80,80,80,80,80,80,0,0,0,0,0,0,0,0,-1,0,0,0,0,0,0,0,0,0,0,0,0,0,0,0,0,0,0,0,0,0,0,0,0,0,0,0,0,0,0,0,0,0,0,0,0,0,0,0,0,0,0,0,0,0,0,0,0,0,0,0,0,0,0,0,0,0,0,0,0,0,0,0,0
"Ind22","5_0_5",80,80,80,80,80,80,80,80,80,80,80,80,0,0,0,0,0,0,0,0,0,-1,0,0,0,0,0,0,0,0,0,0,0,0,0,0,0,0,0,0,0,0,0,0,0,0,0,0,0,0,0,0,0,0,0,0,0,0,0,0,0,0,0,0,0,0,0,0,0,0,0,0,0,0,0,0,0,0,0,0,0,0,0,0,0
"Ind23","5_0_4",80,80,80,80,80,80,80,80,80,80,80,80,0,0,0,0,0,0,0,0,0,0,-1,0,0,0,0,0,0,0,0,0,0,0,0,0,0,0,0,0,0,0,0,0,0,0,0,0,0,0,0,0,0,0,0,0,0,0,0,0,0,0,0,0,0,0,0,0,0,0,0,0,0,0,0,0,0,0,0,0,0,0,0,0,0
"Ind24","5_0_9",80,80,80,80,80,80,80,80,80,80,80,80,0,0,0,0,0,0,0,0,0,0,0,-1,0,0,0,0,0,0,0,0,0,0,0,0,0,0,0,0,0,0,0,0,0,0,0,0,0,0,0,0,0,0,0,0,0,0,0,0,0,0,0,0,0,0,0,0,0,0,0,0,0,0,0,0,0,0,0,0,0,0,0,0,0
"Ind25","3_0_4",68,68,68,68,68,68,68,68,68,68,68,68,44,44,44,44,44,44,44,44,44,44,44,44,-1,0,0,0,0,0,0,0,0,0,0,0,0,0,0,0,0,0,0,0,0,0,0,0,0,0,0,0,0,0,0,0,0,0,0,0,0,0,0,0,0,0,0,0,0,0,0,0,0,0,0,0,0,0,0,0,0,0,0,0,0
"Ind26","3_0_5",68,68,68,68,68,68,68,68,68,68,68,68,44,44,44,44,44,44,44,44,44,44,44,44,0,-1,0,0,0,0,0,0,0,0,0,0,0,0,0,0,0,0,0,0,0,0,0,0,0,0,0,0,0,0,0,0,0,0,0,0,0,0,0,0,0,0,0,0,0,0,0,0,0,0,0,0,0,0,0,0,0,0,0,0,0
"Ind27","3_0_1",68,68,68,68,68,68,68,68,68,68,68,68,44,44,44,44,44,44,44,44,44,44,44,44,0,0,-1,0,0,0,0,0,0,0,0,0,0,0,0,0,0,0,0,0,0,0,0,0,0,0,0,0,0,0,0,0,0,0,0,0,0,0,0,0,0,0,0,0,0,0,0,0,0,0,0,0,0,0,0,0,0,0,0,0,0
"Ind28","3_0_0",68,68,68,68,68,68,68,68,68,68,68,68,44,44,44,44,44,44,44,44,44,44,44,44,0,0,0,-1,0,0,0,0,0,0,0,0,0,0,0,0,0,0,0,0,0,0,0,0,0,0,0,0,0,0,0,0,0,0,0,0,0,0,0,0,0,0,0,0,0,0,0,0,0,0,0,0,0,0,0,0,0,0,0,0,0
"Ind29","3_0_2",68,68,68,68,68,68,68,68,68,68,68,68,44,44,44,44,44,44,44,44,44,44,44,44,0,0,0,0,-1,0,0,0,0,0,0,0,0,0,0,0,0,0,0,0,0,0,0,0,0,0,0,0,0,0,0,0,0,0,0,0,0,0,0,0,0,0,0,0,0,0,0,0,0,0,0,0,0,0,0,0,0,0,0,0,0
"Ind30","3_0_9",68,68,68,68,68,68,68,68,68,68,68,68,44,44,44,44,44,44,44,44,44,44,44,44,0,0,0,0,0,-1,0,0,0,0,0,0,0,0,0,0,0,0,0,0,0,0,0,0,0,0,0,0,0,0,0,0,0,0,0,0,0,0,0,0,0,0,0,0,0,0,0,0,0,0,0,0,0,0,0,0,0,0,0,0,0
"Ind31","3_0_11",68,68,68,68,68,68,68,68,68,68,68,68,44,44,44,44,44,44,44,44,44,44,44,44,0,0,0,0,0,0,-1,0,0,0,0,0,0,0,0,0,0,0,0,0,0,0,0,0,0,0,0,0,0,0,0,0,0,0,0,0,0,0,0,0,0,0,0,0,0,0,0,0,0,0,0,0,0,0,0,0,0,0,0,0,0
"Ind32","3_0_8",68,68,68,68,68,68,68,68,68,68,68,68,44,44,44,44,44,44,44,44,44,44,44,44,0,0,0,0,0,0,0,-1,0,0,0,0,0,0,0,0,0,0,0,0,0,0,0,0,0,0,0,0,0,0,0,0,0,0,0,0,0,0,0,0,0,0,0,0,0,0,0,0,0,0,0,0,0,0,0,0,0,0,0,0,0
"Ind33","3_0_6",68,68,68,68,68,68,68,68,68,68,68,68,44,44,44,44,44,44,44,44,44,44,44,44,0,0,0,0,0,0,0,0,-1,0,0,0,0,0,0,0,0,0,0,0,0,0,0,0,0,0,0,0,0,0,0,0,0,0,0,0,0,0,0,0,0,0,0,0,0,0,0,0,0,0,0,0,0,0,0,0,0,0,0,0,0
"Ind34","3_0_7",68,68,68,68,68,68,68,68,68,68,68,68,44,44,44,44,44,44,44,44,44,44,44,44,0,0,0,0,0,0,0,0,0,-1,0,0,0,0,0,0,0,0,0,0,0,0,0,0,0,0,0,0,0,0,0,0,0,0,0,0,0,0,0,0,0,0,0,0,0,0,0,0,0,0,0,0,0,0,0,0,0,0,0,0,0
"Ind35","3_0_10",68,68,68,68,68,68,68,68,68,68,68,68,44,44,44,44,44,44,44,44,44,44,44,44,0,0,0,0,0,0,0,0,0,0,-1,0,0,0,0,0,0,0,0,0,0,0,0,0,0,0,0,0,0,0,0,0,0,0,0,0,0,0,0,0,0,0,0,0,0,0,0,0,0,0,0,0,0,0,0,0,0,0,0,0,0
"Ind36","3_0_3",68,68,68,68,68,68,68,68,68,68,68,68,44,44,44,44,44,44,44,44,44,44,44,44,0,0,0,0,0,0,0,0,0,0,0,-1,0,0,0,0,0,0,0,0,0,0,0,0,0,0,0,0,0,0,0,0,0,0,0,0,0,0,0,0,0,0,0,0,0,0,0,0,0,0,0,0,0,0,0,0,0,0,0,0,0
"Ind37","4_0_1",65,65,65,65,65,65,65,65,65,65,65,65,51,51,51,51,51,51,51,51,51,51,51,51,21,21,21,21,21,21,21,21,21,21,21,21,-1,0,0,0,0,0,0,0,0,0,0,0,0,0,0,0,0,0,0,0,0,0,0,0,0,0,0,0,0,0,0,0,0,0,0,0,0,0,0,0,0,0,0,0,0,0,0,0,0
"Ind38","4_0_9",65,65,65,65,65,65,65,65,65,65,65,65,51,51,51,51,51,51,51,51,51,51,51,51,21,21,21,21,21,21,21,21,21,21,21,21,0,-1,0,0,0,0,0,0,0,0,0,0,0,0,0,0,0,0,0,0,0,0,0,0,0,0,0,0,0,0,0,0,0,0,0,0,0,0,0,0,0,0,0,0,0,0,0,0,0
"Ind39","4_0_4",65,65,65,65,65,65,65,65,65,65,65,65,51,51,51,51,51,51,51,51,51,51,51,51,21,21,21,21,21,21,21,21,21,21,21,21,0,0,-1,0,0,0,0,0,0,0,0,0,0,0,0,0,0,0,0,0,0,0,0,0,0,0,0,0,0,0,0,0,0,0,0,0,0,0,0,0,0,0,0,0,0,0,0,0,0
"Ind40","4_0_3",66,66,66,66,66,66,66,66,66,66,66,66,52,52,52,52,52,52,52,52,52,52,52,52,22,22,22,22,22,22,22,22,22,22,22,22,1,1,1,-1,0,0,0,0,0,0,0,0,0,0,0,0,0,0,0,0,0,0,0,0,0,0,0,0,0,0,0,0,0,0,0,0,0,0,0,0,0,0,0,0,0,0,0,0,0
"Ind41","4_0_7",65,65,65,65,65,65,65,65,65,65,65,65,51,51,51,51,51,51,51,51,51,51,51,51,21,21,21,21,21,21,21,21,21,21,21,21,0,0,0,1,-1,0,0,0,0,0,0,0,0,0,0,0,0,0,0,0,0,0,0,0,0,0,0,0,0,0,0,0,0,0,0,0,0,0,0,0,0,0,0,0,0,0,0,0,0
"Ind42","4_0_10",65,65,65,65,65,65,65,65,65,65,65,65,51,51,51,51,51,51,51,51,51,51,51,51,21,21,21,21,21,21,21,21,21,21,21,21,0,0,0,1,0,-1,0,0,0,0,0,0,0,0,0,0,0,0,0,0,0,0,0,0,0,0,0,0,0,0,0,0,0,0,0,0,0,0,0,0,0,0,0,0,0,0,0,0,0
"Ind43","4_0_6",65,65,65,65,65,65,65,65,65,65,65,65,51,51,51,51,51,51,51,51,51,51,51,51,21,21,21,21,21,21,21,21,21,21,21,21,0,0,0,1,0,0,-1,0,0,0,0,0,0,0,0,0,0,0,0,0,0,0,0,0,0,0,0,0,0,0,0,0,0,0,0,0,0,0,0,0,0,0,0,0,0,0,0,0,0
"Ind44","4_0_0",65,65,65,65,65,65,65,65,65,65,65,65,51,51,51,51,51,51,51,51,51,51,51,51,21,21,21,21,21,21,21,21,21,21,21,21,0,0,0,1,0,0,0,-1,0,0,0,0,0,0,0,0,0,0,0,0,0,0,0,0,0,0,0,0,0,0,0,0,0,0,0,0,0,0,0,0,0,0,0,0,0,0,0,0,0
"Ind45","4_0_8",65,65,65,65,65,65,65,65,65,65,65,65,51,51,51,51,51,51,51,51,51,51,51,51,21,21,21,21,21,21,21,21,21,21,21,21,0,0,0,1,0,0,0,0,-1,0,0,0,0,0,0,0,0,0,0,0,0,0,0,0,0,0,0,0,0,0,0,0,0,0,0,0,0,0,0,0,0,0,0,0,0,0,0,0,0
"Ind46","4_0_2",65,65,65,65,65,65,65,65,65,65,65,65,51,51,51,51,51,51,51,51,51,51,51,51,21,21,21,21,21,21,21,21,21,21,21,21,0,0,0,1,0,0,0,0,0,-1,0,0,0,0,0,0,0,0,0,0,0,0,0,0,0,0,0,0,0,0,0,0,0,0,0,0,0,0,0,0,0,0,0,0,0,0,0,0,0
"Ind47","4_0_5",65,65,65,65,65,65,65,65,65,65,65,65,51,51,51,51,51,51,51,51,51,51,51,51,21,21,21,21,21,21,21,21,21,21,21,21,0,0,0,1,0,0,0,0,0,0,-1,0,0,0,0,0,0,0,0,0,0,0,0,0,0,0,0,0,0,0,0,0,0,0,0,0,0,0,0,0,0,0,0,0,0,0,0,0,0
"Ind48","4_0_11",65,65,65,65,65,65,65,65,65,65,65,65,51,51,51,51,51,51,51,51,51,51,51,51,21,21,21,21,21,21,21,21,21,21,21,21,0,0,0,1,0,0,0,0,0,0,0,-1,0,0,0,0,0,0,0,0,0,0,0,0,0,0,0,0,0,0,0,0,0,0,0,0,0,0,0,0,0,0,0,0,0,0,0,0,0
"Ind49","7_0_0",65,65,65,65,65,65,65,65,65,65,65,65,40,40,40,40,40,40,40,40,40,40,40,40,20,20,20,20,20,20,20,20,20,20,20,20,24,24,24,25,24,24,24,24,24,24,24,24,-1,0,0,0,0,0,0,0,0,0,0,0,0,0,0,0,0,0,0,0,0,0,0,0,0,0,0,0,0,0,0,0,0,0,0,0,0
"Ind50","7_0_2",65,65,65,65,65,65,65,65,65,65,65,65,40,40,40,40,40,40,40,40,40,40,40,40,20,20,20,20,20,20,20,20,20,20,20,20,24,24,24,25,24,24,24,24,24,24,24,24,0,-1,0,0,0,0,0,0,0,0,0,0,0,0,0,0,0,0,0,0,0,0,0,0,0,0,0,0,0,0,0,0,0,0,0,0,0
"Ind51","7_0_5",65,65,65,65,65,65,65,65,65,65,65,65,40,40,40,40,40,40,40,40,40,40,40,40,20,20,20,20,20,20,20,20,20,20,20,20,24,24,24,25,24,24,24,24,24,24,24,24,0,0,-1,0,0,0,0,0,0,0,0,0,0,0,0,0,0,0,0,0,0,0,0,0,0,0,0,0,0,0,0,0,0,0,0,0,0
"Ind52","7_0_8",65,65,65,65,65,65,65,65,65,65,65,65,40,40,40,40,40,40,40,40,40,40,40,40,20,20,20,20,20,20,20,20,20,20,20,20,24,24,24,25,24,24,24,24,24,24,24,24,0,0,0,-1,0,0,0,0,0,0,0,0,0,0,0,0,0,0,0,0,0,0,0,0,0,0,0,0,0,0,0,0,0,0,0,0,0
"Ind53","7_0_3",65,65,65,65,65,65,65,65,65,65,65,65,40,40,40,40,40,40,40,40,40,40,40,40,20,20,20,20,20,20,20,20,20,20,20,20,24,24,24,25,24,24,24,24,24,24,24,24,0,0,0,0,-1,0,0,0,0,0,0,0,0,0,0,0,0,0,0,0,0,0,0,0,0,0,0,0,0,0,0,0,0,0,0,0,0
"Ind54","7_0_1",65,65,65,65,65,65,65,65,65,65,65,65,40,40,40,40,40,40,40,40,40,40,40,40,20,20,20,20,20,20,20,20,20,20,20,20,24,24,24,25,24,24,24,24,24,24,24,24,0,0,0,0,0,-1,0,0,0,0,0,0,0,0,0,0,0,0,0,0,0,0,0,0,0,0,0,0,0,0,0,0,0,0,0,0,0
"Ind55","7_0_10",65,65,65,65,65,65,65,65,65,65,65,65,40,40,40,40,40,40,40,40,40,40,40,40,20,20,20,20,20,20,20,20,20,20,20,20,24,24,24,25,24,24,24,24,24,24,24,24,0,0,0,0,0,0,-1,0,0,0,0,0,0,0,0,0,0,0,0,0,0,0,0,0,0,0,0,0,0,0,0,0,0,0,0,0,0
"Ind56","7_0_11",65,65,65,65,65,65,65,65,65,65,65,65,40,40,40,40,40,40,40,40,40,40,40,40,20,20,20,20,20,20,20,20,20,20,20,20,24,24,24,25,24,24,24,24,24,24,24,24,0,0,0,0,0,0,0,-1,0,0,0,0,0,0,0,0,0,0,0,0,0,0,0,0,0,0,0,0,0,0,0,0,0,0,0,0,0
"Ind57","7_0_4",65,65,65,65,65,65,65,65,65,65,65,65,40,40,40,40,40,40,40,40,40,40,40,40,20,20,20,20,20,20,20,20,20,20,20,20,24,24,24,25,24,24,24,24,24,24,24,24,0,0,0,0,0,0,0,0,-1,0,0,0,0,0,0,0,0,0,0,0,0,0,0,0,0,0,0,0,0,0,0,0,0,0,0,0,0
"Ind58","7_0_9",65,65,65,65,65,65,65,65,65,65,65,65,40,40,40,40,40,40,40,40,40,40,40,40,20,20,20,20,20,20,20,20,20,20,20,20,24,24,24,25,24,24,24,24,24,24,24,24,0,0,0,0,0,0,0,0,0,-1,0,0,0,0,0,0,0,0,0,0,0,0,0,0,0,0,0,0,0,0,0,0,0,0,0,0,0
"Ind59","7_0_7",65,65,65,65,65,65,65,65,65,65,65,65,40,40,40,40,40,40,40,40,40,40,40,40,20,20,20,20,20,20,20,20,20,20,20,20,24,24,24,25,24,24,24,24,24,24,24,24,0,0,0,0,0,0,0,0,0,0,-1,0,0,0,0,0,0,0,0,0,0,0,0,0,0,0,0,0,0,0,0,0,0,0,0,0,0
"Ind60","7_0_6",65,65,65,65,65,65,65,65,65,65,65,65,40,40,40,40,40,40,40,40,40,40,40,40,20,20,20,20,20,20,20,20,20,20,20,20,24,24,24,25,24,24,24,24,24,24,24,24,0,0,0,0,0,0,0,0,0,0,0,-1,0,0,0,0,0,0,0,0,0,0,0,0,0,0,0,0,0,0,0,0,0,0,0,0,0
"Ind61","2_0_2",96,96,96,96,96,96,96,96,96,96,96,96,93,93,93,93,93,93,93,93,93,93,93,93,86,86,86,86,86,86,86,86,86,86,86,86,86,86,86,85,86,86,86,86,86,86,86,86,85,85,85,85,85,85,85,85,85,85,85,85,-1,0,0,0,0,0,0,0,0,0,0,0,0,0,0,0,0,0,0,0,0,0,0,0,0
"Ind62","2_0_9",96,96,96,96,96,96,96,96,96,96,96,96,93,93,93,93,93,93,93,93,93,93,93,93,86,86,86,86,86,86,86,86,86,86,86,86,86,86,86,85,86,86,86,86,86,86,86,86,85,85,85,85,85,85,85,85,85,85,85,85,0,-1,0,0,0,0,0,0,0,0,0,0,0,0,0,0,0,0,0,0,0,0,0,0,0
"Ind63","2_0_4",96,96,96,96,96,96,96,96,96,96,96,96,93,93,93,93,93,93,93,93,93,93,93,93,86,86,86,86,86,86,86,86,86,86,86,86,86,86,86,85,86,86,86,86,86,86,86,86,85,85,85,85,85,85,85,85,85,85,85,85,0,0,-1,0,0,0,0,0,0,0,0,0,0,0,0,0,0,0,0,0,0,0,0,0,0
"Ind64","2_0_11",96,96,96,96,96,96,96,96,96,96,96,96,93,93,93,93,93,93,93,93,93,93,93,93,86,86,86,86,86,86,86,86,86,86,86,86,86,86,86,85,86,86,86,86,86,86,86,86,85,85,85,85,85,85,85,85,85,85,85,85,0,0,0,-1,0,0,0,0,0,0,0,0,0,0,0,0,0,0,0,0,0,0,0,0,0
"Ind65","2_0_0",96,96,96,96,96,96,96,96,96,96,96,96,93,93,93,93,93,93,93,93,93,93,93,93,86,86,86,86,86,86,86,86,86,86,86,86,86,86,86,85,86,86,86,86,86,86,86,86,85,85,85,85,85,85,85,85,85,85,85,85,0,0,0,0,-1,0,0,0,0,0,0,0,0,0,0,0,0,0,0,0,0,0,0,0,0
"Ind66","2_0_7",96,96,96,96,96,96,96,96,96,96,96,96,93,93,93,93,93,93,93,93,93,93,93,93,86,86,86,86,86,86,86,86,86,86,86,86,86,86,86,85,86,86,86,86,86,86,86,86,85,85,85,85,85,85,85,85,85,85,85,85,0,0,0,0,0,-1,0,0,0,0,0,0,0,0,0,0,0,0,0,0,0,0,0,0,0
"Ind67","2_0_10",96,96,96,96,96,96,96,96,96,96,96,96,93,93,93,93,93,93,93,93,93,93,93,93,86,86,86,86,86,86,86,86,86,86,86,86,86,86,86,85,86,86,86,86,86,86,86,86,85,85,85,85,85,85,85,85,85,85,85,85,0,0,0,0,0,0,-1,0,0,0,0,0,0,0,0,0,0,0,0,0,0,0,0,0,0
"Ind68","2_0_1",96,96,96,96,96,96,96,96,96,96,96,96,93,93,93,93,93,93,93,93,93,93,93,93,86,86,86,86,86,86,86,86,86,86,86,86,86,86,86,85,86,86,86,86,86,86,86,86,85,85,85,85,85,85,85,85,85,85,85,85,0,0,0,0,0,0,0,-1,0,0,0,0,0,0,0,0,0,0,0,0,0,0,0,0,0
"Ind69","2_0_5",96,96,96,96,96,96,96,96,96,96,96,96,93,93,93,93,93,93,93,93,93,93,93,93,86,86,86,86,86,86,86,86,86,86,86,86,86,86,86,85,86,86,86,86,86,86,86,86,85,85,85,85,85,85,85,85,85,85,85,85,0,0,0,0,0,0,0,0,-1,0,0,0,0,0,0,0,0,0,0,0,0,0,0,0,0
"Ind70","2_0_3",96,96,96,96,96,96,96,96,96,96,96,96,93,93,93,93,93,93,93,93,93,93,93,93,86,86,86,86,86,86,86,86,86,86,86,86,86,86,86,85,86,86,86,86,86,86,86,86,85,85,85,85,85,85,85,85,85,85,85,85,0,0,0,0,0,0,0,0,0,-1,0,0,0,0,0,0,0,0,0,0,0,0,0,0,0
"Ind71","2_0_8",96,96,96,96,96,96,96,96,96,96,96,96,93,93,93,93,93,93,93,93,93,93,93,93,86,86,86,86,86,86,86,86,86,86,86,86,86,86,86,85,86,86,86,86,86,86,86,86,85,85,85,85,85,85,85,85,85,85,85,85,0,0,0,0,0,0,0,0,0,0,-1,0,0,0,0,0,0,0,0,0,0,0,0,0,0
"Ind72","2_0_6",96,96,96,96,96,96,96,96,96,96,96,96,93,93,93,93,93,93,93,93,93,93,93,93,86,86,86,86,86,86,86,86,86,86,86,86,86,86,86,85,86,86,86,86,86,86,86,86,85,85,85,85,85,85,85,85,85,85,85,85,0,0,0,0,0,0,0,0,0,0,0,-1,0,0,0,0,0,0,0,0,0,0,0,0,0
"Ind73","6_0_11",86,86,86,86,86,86,86,86,86,86,86,86,85,85,85,85,85,85,85,85,85,85,85,85,77,77,77,77,77,77,77,77,77,77,77,77,76,76,76,75,76,76,76,76,76,76,76,76,77,77,77,77,77,77,77,77,77,77,77,77,41,41,41,41,41,41,41,41,41,41,41,41,-1,0,0,0,0,0,0,0,0,0,0,0,0
"Ind74","6_0_8",86,86,86,86,86,86,86,86,86,86,86,86,85,85,85,85,85,85,85,85,85,85,85,85,77,77,77,77,77,77,77,77,77,77,77,77,76,76,76,75,76,76,76,76,76,76,76,76,77,77,77,77,77,77,77,77,77,77,77,77,41,41,41,41,41,41,41,41,41,41,41,41,0,-1,0,0,0,0,0,0,0,0,0,0,0
"Ind75","6_0_10",86,86,86,86,86,86,86,86,86,86,86,86,85,85,85,85,85,85,85,85,85,85,85,85,77,77,77,77,77,77,77,77,77,77,77,77,76,76,76,75,76,76,76,76,76,76,76,76,77,77,77,77,77,77,77,77,77,77,77,77,41,41,41,41,41,41,41,41,41,41,41,41,0,0,-1,0,0,0,0,0,0,0,0,0,0
"Ind76","6_0_2",86,86,86,86,86,86,86,86,86,86,86,86,85,85,85,85,85,85,85,85,85,85,85,85,77,77,77,77,77,77,77,77,77,77,77,77,76,76,76,75,76,76,76,76,76,76,76,76,77,77,77,77,77,77,77,77,77,77,77,77,41,41,41,41,41,41,41,41,41,41,41,41,0,0,0,-1,0,0,0,0,0,0,0,0,0
"Ind77","6_0_7",86,86,86,86,86,86,86,86,86,86,86,86,85,85,85,85,85,85,85,85,85,85,85,85,77,77,77,77,77,77,77,77,77,77,77,77,76,76,76,75,76,76,76,76,76,76,76,76,77,77,77,77,77,77,77,77,77,77,77,77,41,41,41,41,41,41,41,41,41,41,41,41,0,0,0,0,-1,0,0,0,0,0,0,0,0
"Ind78","6_0_1",86,86,86,86,86,86,86,86,86,86,86,86,85,85,85,85,85,85,85,85,85,85,85,85,77,77,77,77,77,77,77,77,77,77,77,77,76,76,76,75,76,76,76,76,76,76,76,76,77,77,77,77,77,77,77,77,77,77,77,77,41,41,41,41,41,41,41,41,41,41,41,41,0,0,0,0,0,-1,0,0,0,0,0,0,0
"Ind79","6_0_4",86,86,86,86,86,86,86,86,86,86,86,86,85,85,85,85,85,85,85,85,85,85,85,85,77,77,77,77,77,77,77,77,77,77,77,77,76,76,76,75,76,76,76,76,76,76,76,76,77,77,77,77,77,77,77,77,77,77,77,77,41,41,41,41,41,41,41,41,41,41,41,41,0,0,0,0,0,0,-1,0,0,0,0,0,0
"Ind80","6_0_9",86,86,86,86,86,86,86,86,86,86,86,86,85,85,85,85,85,85,85,85,85,85,85,85,77,77,77,77,77,77,77,77,77,77,77,77,76,76,76,75,76,76,76,76,76,76,76,76,77,77,77,77,77,77,77,77,77,77,77,77,41,41,41,41,41,41,41,41,41,41,41,41,0,0,0,0,0,0,0,-1,0,0,0,0,0
"Ind81","6_0_3",86,86,86,86,86,86,86,86,86,86,86,86,85,85,85,85,85,85,85,85,85,85,85,85,77,77,77,77,77,77,77,77,77,77,77,77,76,76,76,75,76,76,76,76,76,76,76,76,77,77,77,77,77,77,77,77,77,77,77,77,41,41,41,41,41,41,41,41,41,41,41,41,0,0,0,0,0,0,0,0,-1,0,0,0,0
"Ind82","6_0_0",86,86,86,86,86,86,86,86,86,86,86,86,85,85,85,85,85,85,85,85,85,85,85,85,77,77,77,77,77,77,77,77,77,77,77,77,76,76,76,75,76,76,76,76,76,76,76,76,77,77,77,77,77,77,77,77,77,77,77,77,41,41,41,41,41,41,41,41,41,41,41,41,0,0,0,0,0,0,0,0,0,-1,0,0,0
"Ind83","6_0_5",86,86,86,86,86,86,86,86,86,86,86,86,85,85,85,85,85,85,85,85,85,85,85,85,77,77,77,77,77,77,77,77,77,77,77,77,76,76,76,75,76,76,76,76,76,76,76,76,77,77,77,77,77,77,77,77,77,77,77,77,41,41,41,41,41,41,41,41,41,41,41,41,0,0,0,0,0,0,0,0,0,0,-1,0,0
"Ind84","6_0_6",86,86,86,86,86,86,86,86,86,86,86,86,85,85,85,85,85,85,85,85,85,85,85,85,77,77,77,77,77,77,77,77,77,77,77,77,76,76,76,75,76,76,76,76,76,76,76,76,77,77,77,77,77,77,77,77,77,77,77,77,41,41,41,41,41,41,41,41,41,41,41,41,0,0,0,0,0,0,0,0,0,0,0,-1,0
"Ind85","0_0_0",134,134,134,134,134,134,134,134,134,134,134,134,137,137,137,137,137,137,137,137,137,137,137,137,143,143,143,143,143,143,143,143,143,143,143,143,141,141,141,142,141,141,141,141,141,141,141,141,140,140,140,140,140,140,140,140,140,140,140,140,144,144,144,144,144,144,144,144,144,144,144,144,138,138,138,138,138,138,138,138,138,138,138,138,-1
