"","Description","Ind1","Ind2","Ind3","Ind4","Ind5","Ind6","Ind7","Ind8","Ind9","Ind10","Ind11","Ind12","Ind13","Ind14","Ind15","Ind16","Ind17","Ind18","Ind19","Ind20","Ind21","Ind22","Ind23","Ind24","Ind25","Ind26","Ind27","Ind28","Ind29","Ind30","Ind31","Ind32","Ind33","Ind34","Ind35","Ind36","Ind37","Ind38","Ind39","Ind40","Ind41"
"Ind1","0_0_0",-1,0,0,0,0,0,0,0,0,0,0,0,0,0,0,0,0,0,0,0,0,0,0,0,0,0,0,0,0,0,0,0,0,0,0,0,0,0,0,0,0
"Ind2","2_0_0",167,-1,0,0,0,0,0,0,0,0,0,0,0,0,0,0,0,0,0,0,0,0,0,0,0,0,0,0,0,0,0,0,0,0,0,0,0,0,0,0,0
"Ind3","2_0_1",167,0,-1,0,0,0,0,0,0,0,0,0,0,0,0,0,0,0,0,0,0,0,0,0,0,0,0,0,0,0,0,0,0,0,0,0,0,0,0,0,0
"Ind4","2_0_3",167,0,0,-1,0,0,0,0,0,0,0,0,0,0,0,0,0,0,0,0,0,0,0,0,0,0,0,0,0,0,0,0,0,0,0,0,0,0,0,0,0
"Ind5","2_0_2",167,0,0,0,-1,0,0,0,0,0,0,0,0,0,0,0,0,0,0,0,0,0,0,0,0,0,0,0,0,0,0,0,0,0,0,0,0,0,0,0,0
"Ind6","4_0_2",167,0,0,0,0,-1,0,0,0,0,0,0,0,0,0,0,0,0,0,0,0,0,0,0,0,0,0,0,0,0,0,0,0,0,0,0,0,0,0,0,0
"Ind7","4_0_0",167,0,0,0,0,0,-1,0,0,0,0,0,0,0,0,0,0,0,0,0,0,0,0,0,0,0,0,0,0,0,0,0,0,0,0,0,0,0,0,0,0
"Ind8","4_0_3",167,0,0,0,0,0,0,-1,0,0,0,0,0,0,0,0,0,0,0,0,0,0,0,0,0,0,0,0,0,0,0,0,0,0,0,0,0,0,0,0,0
"Ind9","4_0_1",167,0,0,0,0,0,0,0,-1,0,0,0,0,0,0,0,0,0,0,0,0,0,0,0,0,0,0,0,0,0,0,0,0,0,0,0,0,0,0,0,0
"Ind10","5_0_0",167,0,0,0,0,0,0,0,0,-1,0,0,0,0,0,0,0,0,0,0,0,0,0,0,0,0,0,0,0,0,0,0,0,0,0,0,0,0,0,0,0
"Ind11","5_0_1",167,0,0,0,0,0,0,0,0,0,-1,0,0,0,0,0,0,0,0,0,0,0,0,0,0,0,0,0,0,0,0,0,0,0,0,0,0,0,0,0,0
"Ind12","5_0_3",167,0,0,0,0,0,0,0,0,0,0,-1,0,0,0,0,0,0,0,0,0,0,0,0,0,0,0,0,0,0,0,0,0,0,0,0,0,0,0,0,0
"Ind13","5_0_2",167,0,0,0,0,0,0,0,0,0,0,0,-1,0,0,0,0,0,0,0,0,0,0,0,0,0,0,0,0,0,0,0,0,0,0,0,0,0,0,0,0
"Ind14","3_0_0",166,1,1,1,1,1,1,1,1,1,1,1,1,-1,0,0,0,0,0,0,0,0,0,0,0,0,0,0,0,0,0,0,0,0,0,0,0,0,0,0,0
"Ind15","3_0_3",166,1,1,1,1,1,1,1,1,1,1,1,1,0,-1,0,0,0,0,0,0,0,0,0,0,0,0,0,0,0,0,0,0,0,0,0,0,0,0,0,0
"Ind16","3_0_2",166,1,1,1,1,1,1,1,1,1,1,1,1,0,0,-1,0,0,0,0,0,0,0,0,0,0,0,0,0,0,0,0,0,0,0,0,0,0,0,0,0
"Ind17","3_0_1",166,1,1,1,1,1,1,1,1,1,1,1,1,0,0,0,-1,0,0,0,0,0,0,0,0,0,0,0,0,0,0,0,0,0,0,0,0,0,0,0,0
"Ind18","1_0_2",166,1,1,1,1,1,1,1,1,1,1,1,1,0,0,0,0,-1,0,0,0,0,0,0,0,0,0,0,0,0,0,0,0,0,0,0,0,0,0,0,0
"Ind19","1_0_3",166,1,1,1,1,1,1,1,1,1,1,1,1,0,0,0,0,0,-1,0,0,0,0,0,0,0,0,0,0,0,0,0,0,0,0,0,0,0,0,0,0
"Ind20","1_0_1",166,1,1,1,1,1,1,1,1,1,1,1,1,0,0,0,0,0,0,-1,0,0,0,0,0,0,0,0,0,0,0,0,0,0,0,0,0,0,0,0,0
"Ind21","1_0_0",166,1,1,1,1,1,1,1,1,1,1,1,1,0,0,0,0,0,0,0,-1,0,0,0,0,0,0,0,0,0,0,0,0,0,0,0,0,0,0,0,0
"Ind22","9_0_0",147,53,53,53,53,53,53,53,53,53,53,53,53,53,53,53,53,53,53,53,53,-1,0,0,0,0,0,0,0,0,0,0,0,0,0,0,0,0,0,0,0
"Ind23","9_0_1",147,53,53,53,53,53,53,53,53,53,53,53,53,53,53,53,53,53,53,53,53,0,-1,0,0,0,0,0,0,0,0,0,0,0,0,0,0,0,0,0,0
"Ind24","9_0_3",147,53,53,53,53,53,53,53,53,53,53,53,53,53,53,53,53,53,53,53,53,0,0,-1,0,0,0,0,0,0,0,0,0,0,0,0,0,0,0,0,0
"Ind25","9_0_2",147,53,53,53,53,53,53,53,53,53,53,53,53,53,53,53,53,53,53,53,53,0,0,0,-1,0,0,0,0,0,0,0,0,0,0,0,0,0,0,0,0
"Ind26","8_0_2",147,53,53,53,53,53,53,53,53,53,53,53,53,53,53,53,53,53,53,53,53,0,0,0,0,-1,0,0,0,0,0,0,0,0,0,0,0,0,0,0,0
"Ind27","8_0_1",147,53,53,53,53,53,53,53,53,53,53,53,53,53,53,53,53,53,53,53,53,0,0,0,0,0,-1,0,0,0,0,0,0,0,0,0,0,0,0,0,0
"Ind28","8_0_3",147,53,53,53,53,53,53,53,53,53,53,53,53,53,53,53,53,53,53,53,53,0,0,0,0,0,0,-1,0,0,0,0,0,0,0,0,0,0,0,0,0
"Ind29","8_0_0",147,53,53,53,53,53,53,53,53,53,53,53,53,53,53,53,53,53,53,53,53,0,0,0,0,0,0,0,-1,0,0,0,0,0,0,0,0,0,0,0,0
"Ind30","7_0_2",149,57,57,57,57,57,57,57,57,57,57,57,57,57,57,57,57,57,57,57,57,4,4,4,4,4,4,4,4,-1,0,0,0,0,0,0,0,0,0,0,0
"Ind31","7_0_0",149,57,57,57,57,57,57,57,57,57,57,57,57,57,57,57,57,57,57,57,57,4,4,4,4,4,4,4,4,0,-1,0,0,0,0,0,0,0,0,0,0
"Ind32","7_0_1",149,57,57,57,57,57,57,57,57,57,57,57,57,57,57,57,57,57,57,57,57,4,4,4,4,4,4,4,4,0,0,-1,0,0,0,0,0,0,0,0,0
"Ind33","7_0_3",149,57,57,57,57,57,57,57,57,57,57,57,57,57,57,57,57,57,57,57,57,4,4,4,4,4,4,4,4,0,0,0,-1,0,0,0,0,0,0,0,0
"Ind34","6_0_0",146,54,54,54,54,54,54,54,54,54,54,54,54,54,54,54,54,54,54,54,54,1,1,1,1,1,1,1,1,5,5,5,5,-1,0,0,0,0,0,0,0
"Ind35","6_0_1",146,54,54,54,54,54,54,54,54,54,54,54,54,54,54,54,54,54,54,54,54,1,1,1,1,1,1,1,1,5,5,5,5,0,-1,0,0,0,0,0,0
"Ind36","6_0_3",146,54,54,54,54,54,54,54,54,54,54,54,54,54,54,54,54,54,54,54,54,1,1,1,1,1,1,1,1,5,5,5,5,0,0,-1,0,0,0,0,0
"Ind37","6_0_2",146,54,54,54,54,54,54,54,54,54,54,54,54,54,54,54,54,54,54,54,54,1,1,1,1,1,1,1,1,5,5,5,5,0,0,0,-1,0,0,0,0
"Ind38","10_0_0",146,54,54,54,54,54,54,54,54,54,54,54,54,54,54,54,54,54,54,54,54,1,1,1,1,1,1,1,1,5,5,5,5,0,0,0,0,-1,0,0,0
"Ind39","10_0_2",146,54,54,54,54,54,54,54,54,54,54,54,54,54,54,54,54,54,54,54,54,1,1,1,1,1,1,1,1,5,5,5,5,0,0,0,0,0,-1,0,0
"Ind40","10_0_3",146,54,54,54,54,54,54,54,54,54,54,54,54,54,54,54,54,54,54,54,54,1,1,1,1,1,1,1,1,5,5,5,5,0,0,0,0,0,0,-1,0
"Ind41","10_0_1",146,54,54,54,54,54,54,54,54,54,54,54,54,54,54,54,54,54,54,54,54,1,1,1,1,1,1,1,1,5,5,5,5,0,0,0,0,0,0,0,-1
