"","Description","Ind1","Ind2","Ind3","Ind4","Ind5","Ind6","Ind7","Ind8","Ind9","Ind10","Ind11","Ind12","Ind13","Ind14","Ind15","Ind16","Ind17","Ind18","Ind19","Ind20","Ind21","Ind22","Ind23","Ind24","Ind25","Ind26","Ind27","Ind28","Ind29","Ind30","Ind31","Ind32","Ind33","Ind34","Ind35","Ind36","Ind37","Ind38","Ind39","Ind40","Ind41","Ind42","Ind43","Ind44","Ind45","Ind46","Ind47","Ind48","Ind49","Ind50","Ind51","Ind52","Ind53","Ind54","Ind55","Ind56","Ind57","Ind58","Ind59","Ind60","Ind61","Ind62","Ind63","Ind64","Ind65","Ind66","Ind67","Ind68","Ind69","Ind70","Ind71","Ind72","Ind73"
"Ind1","2_0_7",-1,0,0,0,0,0,0,0,0,0,0,0,0,0,0,0,0,0,0,0,0,0,0,0,0,0,0,0,0,0,0,0,0,0,0,0,0,0,0,0,0,0,0,0,0,0,0,0,0,0,0,0,0,0,0,0,0,0,0,0,0,0,0,0,0,0,0,0,0,0,0,0,0
"Ind2","2_0_2",0,-1,0,0,0,0,0,0,0,0,0,0,0,0,0,0,0,0,0,0,0,0,0,0,0,0,0,0,0,0,0,0,0,0,0,0,0,0,0,0,0,0,0,0,0,0,0,0,0,0,0,0,0,0,0,0,0,0,0,0,0,0,0,0,0,0,0,0,0,0,0,0,0
"Ind3","2_0_3",0,0,-1,0,0,0,0,0,0,0,0,0,0,0,0,0,0,0,0,0,0,0,0,0,0,0,0,0,0,0,0,0,0,0,0,0,0,0,0,0,0,0,0,0,0,0,0,0,0,0,0,0,0,0,0,0,0,0,0,0,0,0,0,0,0,0,0,0,0,0,0,0,0
"Ind4","2_0_6",0,0,0,-1,0,0,0,0,0,0,0,0,0,0,0,0,0,0,0,0,0,0,0,0,0,0,0,0,0,0,0,0,0,0,0,0,0,0,0,0,0,0,0,0,0,0,0,0,0,0,0,0,0,0,0,0,0,0,0,0,0,0,0,0,0,0,0,0,0,0,0,0,0
"Ind5","2_0_1",0,0,0,0,-1,0,0,0,0,0,0,0,0,0,0,0,0,0,0,0,0,0,0,0,0,0,0,0,0,0,0,0,0,0,0,0,0,0,0,0,0,0,0,0,0,0,0,0,0,0,0,0,0,0,0,0,0,0,0,0,0,0,0,0,0,0,0,0,0,0,0,0,0
"Ind6","2_0_0",0,0,0,0,0,-1,0,0,0,0,0,0,0,0,0,0,0,0,0,0,0,0,0,0,0,0,0,0,0,0,0,0,0,0,0,0,0,0,0,0,0,0,0,0,0,0,0,0,0,0,0,0,0,0,0,0,0,0,0,0,0,0,0,0,0,0,0,0,0,0,0,0,0
"Ind7","2_0_4",0,0,0,0,0,0,-1,0,0,0,0,0,0,0,0,0,0,0,0,0,0,0,0,0,0,0,0,0,0,0,0,0,0,0,0,0,0,0,0,0,0,0,0,0,0,0,0,0,0,0,0,0,0,0,0,0,0,0,0,0,0,0,0,0,0,0,0,0,0,0,0,0,0
"Ind8","2_0_8",0,0,0,0,0,0,0,-1,0,0,0,0,0,0,0,0,0,0,0,0,0,0,0,0,0,0,0,0,0,0,0,0,0,0,0,0,0,0,0,0,0,0,0,0,0,0,0,0,0,0,0,0,0,0,0,0,0,0,0,0,0,0,0,0,0,0,0,0,0,0,0,0,0
"Ind9","2_0_5",0,0,0,0,0,0,0,0,-1,0,0,0,0,0,0,0,0,0,0,0,0,0,0,0,0,0,0,0,0,0,0,0,0,0,0,0,0,0,0,0,0,0,0,0,0,0,0,0,0,0,0,0,0,0,0,0,0,0,0,0,0,0,0,0,0,0,0,0,0,0,0,0,0
"Ind10","3_0_5",13,13,13,13,13,13,13,13,13,-1,0,0,0,0,0,0,0,0,0,0,0,0,0,0,0,0,0,0,0,0,0,0,0,0,0,0,0,0,0,0,0,0,0,0,0,0,0,0,0,0,0,0,0,0,0,0,0,0,0,0,0,0,0,0,0,0,0,0,0,0,0,0,0
"Ind11","3_0_0",13,13,13,13,13,13,13,13,13,0,-1,0,0,0,0,0,0,0,0,0,0,0,0,0,0,0,0,0,0,0,0,0,0,0,0,0,0,0,0,0,0,0,0,0,0,0,0,0,0,0,0,0,0,0,0,0,0,0,0,0,0,0,0,0,0,0,0,0,0,0,0,0,0
"Ind12","3_0_6",13,13,13,13,13,13,13,13,13,0,0,-1,0,0,0,0,0,0,0,0,0,0,0,0,0,0,0,0,0,0,0,0,0,0,0,0,0,0,0,0,0,0,0,0,0,0,0,0,0,0,0,0,0,0,0,0,0,0,0,0,0,0,0,0,0,0,0,0,0,0,0,0,0
"Ind13","3_0_4",13,13,13,13,13,13,13,13,13,0,0,0,-1,0,0,0,0,0,0,0,0,0,0,0,0,0,0,0,0,0,0,0,0,0,0,0,0,0,0,0,0,0,0,0,0,0,0,0,0,0,0,0,0,0,0,0,0,0,0,0,0,0,0,0,0,0,0,0,0,0,0,0,0
"Ind14","3_0_2",13,13,13,13,13,13,13,13,13,0,0,0,0,-1,0,0,0,0,0,0,0,0,0,0,0,0,0,0,0,0,0,0,0,0,0,0,0,0,0,0,0,0,0,0,0,0,0,0,0,0,0,0,0,0,0,0,0,0,0,0,0,0,0,0,0,0,0,0,0,0,0,0,0
"Ind15","3_0_1",13,13,13,13,13,13,13,13,13,0,0,0,0,0,-1,0,0,0,0,0,0,0,0,0,0,0,0,0,0,0,0,0,0,0,0,0,0,0,0,0,0,0,0,0,0,0,0,0,0,0,0,0,0,0,0,0,0,0,0,0,0,0,0,0,0,0,0,0,0,0,0,0,0
"Ind16","3_0_8",13,13,13,13,13,13,13,13,13,0,0,0,0,0,0,-1,0,0,0,0,0,0,0,0,0,0,0,0,0,0,0,0,0,0,0,0,0,0,0,0,0,0,0,0,0,0,0,0,0,0,0,0,0,0,0,0,0,0,0,0,0,0,0,0,0,0,0,0,0,0,0,0,0
"Ind17","3_0_3",13,13,13,13,13,13,13,13,13,0,0,0,0,0,0,0,-1,0,0,0,0,0,0,0,0,0,0,0,0,0,0,0,0,0,0,0,0,0,0,0,0,0,0,0,0,0,0,0,0,0,0,0,0,0,0,0,0,0,0,0,0,0,0,0,0,0,0,0,0,0,0,0,0
"Ind18","3_0_7",13,13,13,13,13,13,13,13,13,0,0,0,0,0,0,0,0,-1,0,0,0,0,0,0,0,0,0,0,0,0,0,0,0,0,0,0,0,0,0,0,0,0,0,0,0,0,0,0,0,0,0,0,0,0,0,0,0,0,0,0,0,0,0,0,0,0,0,0,0,0,0,0,0
"Ind19","4_0_6",31,31,31,31,31,31,31,31,31,24,24,24,24,24,24,24,24,24,-1,0,0,0,0,0,0,0,0,0,0,0,0,0,0,0,0,0,0,0,0,0,0,0,0,0,0,0,0,0,0,0,0,0,0,0,0,0,0,0,0,0,0,0,0,0,0,0,0,0,0,0,0,0,0
"Ind20","4_0_0",31,31,31,31,31,31,31,31,31,24,24,24,24,24,24,24,24,24,0,-1,0,0,0,0,0,0,0,0,0,0,0,0,0,0,0,0,0,0,0,0,0,0,0,0,0,0,0,0,0,0,0,0,0,0,0,0,0,0,0,0,0,0,0,0,0,0,0,0,0,0,0,0,0
"Ind21","4_0_3",31,31,31,31,31,31,31,31,31,24,24,24,24,24,24,24,24,24,0,0,-1,0,0,0,0,0,0,0,0,0,0,0,0,0,0,0,0,0,0,0,0,0,0,0,0,0,0,0,0,0,0,0,0,0,0,0,0,0,0,0,0,0,0,0,0,0,0,0,0,0,0,0,0
"Ind22","4_0_8",31,31,31,31,31,31,31,31,31,24,24,24,24,24,24,24,24,24,0,0,0,-1,0,0,0,0,0,0,0,0,0,0,0,0,0,0,0,0,0,0,0,0,0,0,0,0,0,0,0,0,0,0,0,0,0,0,0,0,0,0,0,0,0,0,0,0,0,0,0,0,0,0,0
"Ind23","4_0_7",31,31,31,31,31,31,31,31,31,24,24,24,24,24,24,24,24,24,0,0,0,0,-1,0,0,0,0,0,0,0,0,0,0,0,0,0,0,0,0,0,0,0,0,0,0,0,0,0,0,0,0,0,0,0,0,0,0,0,0,0,0,0,0,0,0,0,0,0,0,0,0,0,0
"Ind24","4_0_5",31,31,31,31,31,31,31,31,31,24,24,24,24,24,24,24,24,24,0,0,0,0,0,-1,0,0,0,0,0,0,0,0,0,0,0,0,0,0,0,0,0,0,0,0,0,0,0,0,0,0,0,0,0,0,0,0,0,0,0,0,0,0,0,0,0,0,0,0,0,0,0,0,0
"Ind25","4_0_1",31,31,31,31,31,31,31,31,31,24,24,24,24,24,24,24,24,24,0,0,0,0,0,0,-1,0,0,0,0,0,0,0,0,0,0,0,0,0,0,0,0,0,0,0,0,0,0,0,0,0,0,0,0,0,0,0,0,0,0,0,0,0,0,0,0,0,0,0,0,0,0,0,0
"Ind26","4_0_2",31,31,31,31,31,31,31,31,31,24,24,24,24,24,24,24,24,24,0,0,0,0,0,0,0,-1,0,0,0,0,0,0,0,0,0,0,0,0,0,0,0,0,0,0,0,0,0,0,0,0,0,0,0,0,0,0,0,0,0,0,0,0,0,0,0,0,0,0,0,0,0,0,0
"Ind27","4_0_4",31,31,31,31,31,31,31,31,31,24,24,24,24,24,24,24,24,24,0,0,0,0,0,0,0,0,-1,0,0,0,0,0,0,0,0,0,0,0,0,0,0,0,0,0,0,0,0,0,0,0,0,0,0,0,0,0,0,0,0,0,0,0,0,0,0,0,0,0,0,0,0,0,0
"Ind28","5_0_5",34,34,34,34,34,34,34,34,34,28,28,28,28,28,28,28,28,28,17,17,17,17,17,17,17,17,17,-1,0,0,0,0,0,0,0,0,0,0,0,0,0,0,0,0,0,0,0,0,0,0,0,0,0,0,0,0,0,0,0,0,0,0,0,0,0,0,0,0,0,0,0,0,0
"Ind29","5_0_1",34,34,34,34,34,34,34,34,34,28,28,28,28,28,28,28,28,28,17,17,17,17,17,17,17,17,17,0,-1,0,0,0,0,0,0,0,0,0,0,0,0,0,0,0,0,0,0,0,0,0,0,0,0,0,0,0,0,0,0,0,0,0,0,0,0,0,0,0,0,0,0,0,0
"Ind30","5_0_3",34,34,34,34,34,34,34,34,34,28,28,28,28,28,28,28,28,28,17,17,17,17,17,17,17,17,17,0,0,-1,0,0,0,0,0,0,0,0,0,0,0,0,0,0,0,0,0,0,0,0,0,0,0,0,0,0,0,0,0,0,0,0,0,0,0,0,0,0,0,0,0,0,0
"Ind31","5_0_8",34,34,34,34,34,34,34,34,34,28,28,28,28,28,28,28,28,28,17,17,17,17,17,17,17,17,17,0,0,0,-1,0,0,0,0,0,0,0,0,0,0,0,0,0,0,0,0,0,0,0,0,0,0,0,0,0,0,0,0,0,0,0,0,0,0,0,0,0,0,0,0,0,0
"Ind32","5_0_6",34,34,34,34,34,34,34,34,34,28,28,28,28,28,28,28,28,28,17,17,17,17,17,17,17,17,17,0,0,0,0,-1,0,0,0,0,0,0,0,0,0,0,0,0,0,0,0,0,0,0,0,0,0,0,0,0,0,0,0,0,0,0,0,0,0,0,0,0,0,0,0,0,0
"Ind33","5_0_2",34,34,34,34,34,34,34,34,34,28,28,28,28,28,28,28,28,28,17,17,17,17,17,17,17,17,17,0,0,0,0,0,-1,0,0,0,0,0,0,0,0,0,0,0,0,0,0,0,0,0,0,0,0,0,0,0,0,0,0,0,0,0,0,0,0,0,0,0,0,0,0,0,0
"Ind34","5_0_4",34,34,34,34,34,34,34,34,34,28,28,28,28,28,28,28,28,28,17,17,17,17,17,17,17,17,17,0,0,0,0,0,0,-1,0,0,0,0,0,0,0,0,0,0,0,0,0,0,0,0,0,0,0,0,0,0,0,0,0,0,0,0,0,0,0,0,0,0,0,0,0,0,0
"Ind35","5_0_7",34,34,34,34,34,34,34,34,34,28,28,28,28,28,28,28,28,28,17,17,17,17,17,17,17,17,17,0,0,0,0,0,0,0,-1,0,0,0,0,0,0,0,0,0,0,0,0,0,0,0,0,0,0,0,0,0,0,0,0,0,0,0,0,0,0,0,0,0,0,0,0,0,0
"Ind36","5_0_0",34,34,34,34,34,34,34,34,34,28,28,28,28,28,28,28,28,28,17,17,17,17,17,17,17,17,17,0,0,0,0,0,0,0,0,-1,0,0,0,0,0,0,0,0,0,0,0,0,0,0,0,0,0,0,0,0,0,0,0,0,0,0,0,0,0,0,0,0,0,0,0,0,0
"Ind37","6_0_8",35,35,35,35,35,35,35,35,35,31,31,31,31,31,31,31,31,31,20,20,20,20,20,20,20,20,20,3,3,3,3,3,3,3,3,3,-1,0,0,0,0,0,0,0,0,0,0,0,0,0,0,0,0,0,0,0,0,0,0,0,0,0,0,0,0,0,0,0,0,0,0,0,0
"Ind38","6_0_7",35,35,35,35,35,35,35,35,35,31,31,31,31,31,31,31,31,31,20,20,20,20,20,20,20,20,20,3,3,3,3,3,3,3,3,3,0,-1,0,0,0,0,0,0,0,0,0,0,0,0,0,0,0,0,0,0,0,0,0,0,0,0,0,0,0,0,0,0,0,0,0,0,0
"Ind39","6_0_1",35,35,35,35,35,35,35,35,35,31,31,31,31,31,31,31,31,31,20,20,20,20,20,20,20,20,20,3,3,3,3,3,3,3,3,3,0,0,-1,0,0,0,0,0,0,0,0,0,0,0,0,0,0,0,0,0,0,0,0,0,0,0,0,0,0,0,0,0,0,0,0,0,0
"Ind40","6_0_5",35,35,35,35,35,35,35,35,35,31,31,31,31,31,31,31,31,31,20,20,20,20,20,20,20,20,20,3,3,3,3,3,3,3,3,3,0,0,0,-1,0,0,0,0,0,0,0,0,0,0,0,0,0,0,0,0,0,0,0,0,0,0,0,0,0,0,0,0,0,0,0,0,0
"Ind41","6_0_4",35,35,35,35,35,35,35,35,35,31,31,31,31,31,31,31,31,31,20,20,20,20,20,20,20,20,20,3,3,3,3,3,3,3,3,3,0,0,0,0,-1,0,0,0,0,0,0,0,0,0,0,0,0,0,0,0,0,0,0,0,0,0,0,0,0,0,0,0,0,0,0,0,0
"Ind42","6_0_6",35,35,35,35,35,35,35,35,35,31,31,31,31,31,31,31,31,31,20,20,20,20,20,20,20,20,20,3,3,3,3,3,3,3,3,3,0,0,0,0,0,-1,0,0,0,0,0,0,0,0,0,0,0,0,0,0,0,0,0,0,0,0,0,0,0,0,0,0,0,0,0,0,0
"Ind43","6_0_3",35,35,35,35,35,35,35,35,35,31,31,31,31,31,31,31,31,31,20,20,20,20,20,20,20,20,20,3,3,3,3,3,3,3,3,3,0,0,0,0,0,0,-1,0,0,0,0,0,0,0,0,0,0,0,0,0,0,0,0,0,0,0,0,0,0,0,0,0,0,0,0,0,0
"Ind44","6_0_0",35,35,35,35,35,35,35,35,35,31,31,31,31,31,31,31,31,31,20,20,20,20,20,20,20,20,20,3,3,3,3,3,3,3,3,3,0,0,0,0,0,0,0,-1,0,0,0,0,0,0,0,0,0,0,0,0,0,0,0,0,0,0,0,0,0,0,0,0,0,0,0,0,0
"Ind45","6_0_2",35,35,35,35,35,35,35,35,35,31,31,31,31,31,31,31,31,31,20,20,20,20,20,20,20,20,20,3,3,3,3,3,3,3,3,3,0,0,0,0,0,0,0,0,-1,0,0,0,0,0,0,0,0,0,0,0,0,0,0,0,0,0,0,0,0,0,0,0,0,0,0,0,0
"Ind46","1_0_1",35,35,35,35,35,35,35,35,35,31,31,31,31,31,31,31,31,31,20,20,20,20,20,20,20,20,20,3,3,3,3,3,3,3,3,3,6,6,6,6,6,6,6,6,6,-1,0,0,0,0,0,0,0,0,0,0,0,0,0,0,0,0,0,0,0,0,0,0,0,0,0,0,0
"Ind47","1_0_8",35,35,35,35,35,35,35,35,35,31,31,31,31,31,31,31,31,31,20,20,20,20,20,20,20,20,20,3,3,3,3,3,3,3,3,3,6,6,6,6,6,6,6,6,6,0,-1,0,0,0,0,0,0,0,0,0,0,0,0,0,0,0,0,0,0,0,0,0,0,0,0,0,0
"Ind48","1_0_2",35,35,35,35,35,35,35,35,35,31,31,31,31,31,31,31,31,31,20,20,20,20,20,20,20,20,20,3,3,3,3,3,3,3,3,3,6,6,6,6,6,6,6,6,6,0,0,-1,0,0,0,0,0,0,0,0,0,0,0,0,0,0,0,0,0,0,0,0,0,0,0,0,0
"Ind49","1_0_3",35,35,35,35,35,35,35,35,35,31,31,31,31,31,31,31,31,31,20,20,20,20,20,20,20,20,20,3,3,3,3,3,3,3,3,3,6,6,6,6,6,6,6,6,6,0,0,0,-1,0,0,0,0,0,0,0,0,0,0,0,0,0,0,0,0,0,0,0,0,0,0,0,0
"Ind50","1_0_5",35,35,35,35,35,35,35,35,35,31,31,31,31,31,31,31,31,31,20,20,20,20,20,20,20,20,20,3,3,3,3,3,3,3,3,3,6,6,6,6,6,6,6,6,6,0,0,0,0,-1,0,0,0,0,0,0,0,0,0,0,0,0,0,0,0,0,0,0,0,0,0,0,0
"Ind51","1_0_4",35,35,35,35,35,35,35,35,35,31,31,31,31,31,31,31,31,31,20,20,20,20,20,20,20,20,20,3,3,3,3,3,3,3,3,3,6,6,6,6,6,6,6,6,6,0,0,0,0,0,-1,0,0,0,0,0,0,0,0,0,0,0,0,0,0,0,0,0,0,0,0,0,0
"Ind52","1_0_7",35,35,35,35,35,35,35,35,35,31,31,31,31,31,31,31,31,31,20,20,20,20,20,20,20,20,20,3,3,3,3,3,3,3,3,3,6,6,6,6,6,6,6,6,6,0,0,0,0,0,0,-1,0,0,0,0,0,0,0,0,0,0,0,0,0,0,0,0,0,0,0,0,0
"Ind53","1_0_6",35,35,35,35,35,35,35,35,35,31,31,31,31,31,31,31,31,31,20,20,20,20,20,20,20,20,20,3,3,3,3,3,3,3,3,3,6,6,6,6,6,6,6,6,6,0,0,0,0,0,0,0,-1,0,0,0,0,0,0,0,0,0,0,0,0,0,0,0,0,0,0,0,0
"Ind54","1_0_0",35,35,35,35,35,35,35,35,35,31,31,31,31,31,31,31,31,31,20,20,20,20,20,20,20,20,20,3,3,3,3,3,3,3,3,3,6,6,6,6,6,6,6,6,6,0,0,0,0,0,0,0,0,-1,0,0,0,0,0,0,0,0,0,0,0,0,0,0,0,0,0,0,0
"Ind55","8_0_0",39,39,39,39,39,39,39,39,39,34,34,34,34,34,34,34,34,34,37,37,37,37,37,37,37,37,37,38,38,38,38,38,38,38,38,38,38,38,38,38,38,38,38,38,38,39,39,39,39,39,39,39,39,39,-1,0,0,0,0,0,0,0,0,0,0,0,0,0,0,0,0,0,0
"Ind56","8_0_1",39,39,39,39,39,39,39,39,39,34,34,34,34,34,34,34,34,34,37,37,37,37,37,37,37,37,37,38,38,38,38,38,38,38,38,38,38,38,38,38,38,38,38,38,38,39,39,39,39,39,39,39,39,39,0,-1,0,0,0,0,0,0,0,0,0,0,0,0,0,0,0,0,0
"Ind57","8_0_2",39,39,39,39,39,39,39,39,39,34,34,34,34,34,34,34,34,34,37,37,37,37,37,37,37,37,37,38,38,38,38,38,38,38,38,38,38,38,38,38,38,38,38,38,38,39,39,39,39,39,39,39,39,39,0,0,-1,0,0,0,0,0,0,0,0,0,0,0,0,0,0,0,0
"Ind58","8_0_3",39,39,39,39,39,39,39,39,39,34,34,34,34,34,34,34,34,34,37,37,37,37,37,37,37,37,37,38,38,38,38,38,38,38,38,38,38,38,38,38,38,38,38,38,38,39,39,39,39,39,39,39,39,39,0,0,0,-1,0,0,0,0,0,0,0,0,0,0,0,0,0,0,0
"Ind59","8_0_4",39,39,39,39,39,39,39,39,39,34,34,34,34,34,34,34,34,34,37,37,37,37,37,37,37,37,37,38,38,38,38,38,38,38,38,38,38,38,38,38,38,38,38,38,38,39,39,39,39,39,39,39,39,39,0,0,0,0,-1,0,0,0,0,0,0,0,0,0,0,0,0,0,0
"Ind60","8_0_7",39,39,39,39,39,39,39,39,39,34,34,34,34,34,34,34,34,34,37,37,37,37,37,37,37,37,37,38,38,38,38,38,38,38,38,38,38,38,38,38,38,38,38,38,38,39,39,39,39,39,39,39,39,39,0,0,0,0,0,-1,0,0,0,0,0,0,0,0,0,0,0,0,0
"Ind61","8_0_5",39,39,39,39,39,39,39,39,39,34,34,34,34,34,34,34,34,34,37,37,37,37,37,37,37,37,37,38,38,38,38,38,38,38,38,38,38,38,38,38,38,38,38,38,38,39,39,39,39,39,39,39,39,39,0,0,0,0,0,0,-1,0,0,0,0,0,0,0,0,0,0,0,0
"Ind62","8_0_6",39,39,39,39,39,39,39,39,39,34,34,34,34,34,34,34,34,34,37,37,37,37,37,37,37,37,37,38,38,38,38,38,38,38,38,38,38,38,38,38,38,38,38,38,38,39,39,39,39,39,39,39,39,39,0,0,0,0,0,0,0,-1,0,0,0,0,0,0,0,0,0,0,0
"Ind63","8_0_8",39,39,39,39,39,39,39,39,39,34,34,34,34,34,34,34,34,34,37,37,37,37,37,37,37,37,37,38,38,38,38,38,38,38,38,38,38,38,38,38,38,38,38,38,38,39,39,39,39,39,39,39,39,39,0,0,0,0,0,0,0,0,-1,0,0,0,0,0,0,0,0,0,0
"Ind64","7_0_0",36,36,36,36,36,36,36,36,36,31,31,31,31,31,31,31,31,31,34,34,34,34,34,34,34,34,34,35,35,35,35,35,35,35,35,35,35,35,35,35,35,35,35,35,35,36,36,36,36,36,36,36,36,36,3,3,3,3,3,3,3,3,3,-1,0,0,0,0,0,0,0,0,0
"Ind65","7_0_8",36,36,36,36,36,36,36,36,36,31,31,31,31,31,31,31,31,31,34,34,34,34,34,34,34,34,34,35,35,35,35,35,35,35,35,35,35,35,35,35,35,35,35,35,35,36,36,36,36,36,36,36,36,36,3,3,3,3,3,3,3,3,3,0,-1,0,0,0,0,0,0,0,0
"Ind66","7_0_7",36,36,36,36,36,36,36,36,36,31,31,31,31,31,31,31,31,31,34,34,34,34,34,34,34,34,34,35,35,35,35,35,35,35,35,35,35,35,35,35,35,35,35,35,35,36,36,36,36,36,36,36,36,36,3,3,3,3,3,3,3,3,3,0,0,-1,0,0,0,0,0,0,0
"Ind67","7_0_4",36,36,36,36,36,36,36,36,36,31,31,31,31,31,31,31,31,31,34,34,34,34,34,34,34,34,34,35,35,35,35,35,35,35,35,35,35,35,35,35,35,35,35,35,35,36,36,36,36,36,36,36,36,36,3,3,3,3,3,3,3,3,3,0,0,0,-1,0,0,0,0,0,0
"Ind68","7_0_3",36,36,36,36,36,36,36,36,36,31,31,31,31,31,31,31,31,31,34,34,34,34,34,34,34,34,34,35,35,35,35,35,35,35,35,35,35,35,35,35,35,35,35,35,35,36,36,36,36,36,36,36,36,36,3,3,3,3,3,3,3,3,3,0,0,0,0,-1,0,0,0,0,0
"Ind69","7_0_1",36,36,36,36,36,36,36,36,36,31,31,31,31,31,31,31,31,31,34,34,34,34,34,34,34,34,34,35,35,35,35,35,35,35,35,35,35,35,35,35,35,35,35,35,35,36,36,36,36,36,36,36,36,36,3,3,3,3,3,3,3,3,3,0,0,0,0,0,-1,0,0,0,0
"Ind70","7_0_5",36,36,36,36,36,36,36,36,36,31,31,31,31,31,31,31,31,31,34,34,34,34,34,34,34,34,34,35,35,35,35,35,35,35,35,35,35,35,35,35,35,35,35,35,35,36,36,36,36,36,36,36,36,36,3,3,3,3,3,3,3,3,3,0,0,0,0,0,0,-1,0,0,0
"Ind71","7_0_6",36,36,36,36,36,36,36,36,36,31,31,31,31,31,31,31,31,31,34,34,34,34,34,34,34,34,34,35,35,35,35,35,35,35,35,35,35,35,35,35,35,35,35,35,35,36,36,36,36,36,36,36,36,36,3,3,3,3,3,3,3,3,3,0,0,0,0,0,0,0,-1,0,0
"Ind72","7_0_2",36,36,36,36,36,36,36,36,36,31,31,31,31,31,31,31,31,31,34,34,34,34,34,34,34,34,34,35,35,35,35,35,35,35,35,35,35,35,35,35,35,35,35,35,35,36,36,36,36,36,36,36,36,36,3,3,3,3,3,3,3,3,3,0,0,0,0,0,0,0,0,-1,0
"Ind73","0_0_0",58,58,58,58,58,58,58,58,58,56,56,56,56,56,56,56,56,56,54,54,54,54,54,54,54,54,54,57,57,57,57,57,57,57,57,57,58,58,58,58,58,58,58,58,58,56,56,56,56,56,56,56,56,56,59,59,59,59,59,59,59,59,59,56,56,56,56,56,56,56,56,56,-1
