********************************************************************************
INDELible V1.03 by Will Fletcher : Simulation began at: Sat Dec  3 19:26:41 2016
********************************************************************************

  * Block 1 was completed in 0.25 seconds.

********************************************************************************


  * Block 2 was completed in 0.24 seconds.

********************************************************************************


  * Block 3 was completed in 0.24 seconds.

********************************************************************************


  * Block 4 was completed in 0.24 seconds.

********************************************************************************


  * Block 5 was completed in 0.25 seconds.

********************************************************************************


  * Block 6 was completed in 0.23 seconds.

********************************************************************************


  * Block 7 was completed in 0.25 seconds.

********************************************************************************


  * Block 8 was completed in 0.24 seconds.

********************************************************************************


  * Block 9 was completed in 0.25 seconds.

********************************************************************************


  * Block 10 was completed in 0.24 seconds.

********************************************************************************

  * Simulation completed. Whole batch took: 2.46 seconds.

INDELible V1.03 Simulations completed at: Sat Dec  3 19:26:44 2016

********************************************************************************


 Original Control File 

-----------------------


[TYPE] NUCLEOTIDE 1 

[SETTINGS]
    [fastaextension] fasta  

[MODEL] csSim_unlinked_1
    [submodel] GTR 0.130996 0.005205 0.017592 0.033745 0.027586 
    [statefreq] 0.243472 0.284762 0.015468 0.456298 
[rates] 0 16.048178 0 

[MODEL] csSim_unlinked_2
    [submodel] GTR 0.108363 0.012866 0.020966 0.013579 0.041351 
    [statefreq] 0.087083 0.459096 0.009761 0.444059 
[rates] 0 29.932306 0 

[MODEL] csSim_unlinked_3
    [submodel] GTR 0.088340 0.004049 0.021928 0.023107 0.029722 
    [statefreq] 0.117374 0.351175 0.482683 0.048768 
[rates] 0 50.316030 0 

[MODEL] csSim_unlinked_4
    [submodel] GTR 0.110316 0.010412 0.015920 0.014509 0.030648 
    [statefreq] 0.261144 0.125008 0.333208 0.280639 
[rates] 0 15.188239 0 

[MODEL] csSim_unlinked_5
    [submodel] GTR 0.090346 0.007192 0.013079 0.043597 0.028777 
    [statefreq] 0.153030 0.353241 0.346196 0.147532 
[rates] 0 3.640182 0 

[MODEL] csSim_unlinked_6
    [submodel] GTR 0.093268 0.003820 0.023431 0.023060 0.039447 
    [statefreq] 0.480078 0.090491 0.414015 0.015416 
[rates] 0 10.388293 0 

[MODEL] csSim_unlinked_7
    [submodel] GTR 0.089373 0.006678 0.035329 0.019567 0.064462 
    [statefreq] 0.030479 0.198381 0.131229 0.639911 
[rates] 0 27.050899 0 

[MODEL] csSim_unlinked_8
    [submodel] GTR 0.125679 0.022303 0.030086 0.007237 0.026984 
    [statefreq] 0.485390 0.067713 0.099197 0.347699 
[rates] 0 23.736511 0 

[MODEL] csSim_unlinked_9
    [submodel] GTR 0.124257 0.008884 0.010488 0.046722 0.040051 
    [statefreq] 0.107871 0.055109 0.307425 0.529595 
[rates] 0 34.684488 0 

[MODEL] csSim_unlinked_10
    [submodel] GTR 0.107622 0.021064 0.008682 0.018561 0.061462 
    [statefreq] 0.768402 0.019007 0.085126 0.127465 
[rates] 0 58.452756 0 


[TREE] T01 (0_0_0:0.05180491,((((2_0_8:0.00000477,((2_0_15:0.00000035,(2_0_12:0.00000003,2_0_9:0.00000005):0.00000055):0.00000156,(2_0_6:0.00000220,((2_0_4:0.00000008,2_0_5:0.00000011):0.00000221,2_0_3:0.00000101):0.00000006):0.00000676):0.00001168):0.00000307,((2_0_1:0.00000243,((2_0_14:0.00000074,2_0_13:0.00000183):0.00000082,2_0_0:0.00000135):0.00000367):0.00000161,(((2_0_7:0.00000483,2_0_11:0.00000867):0.00000384,2_0_10:0.00000513):0.00000760,2_0_2:0.00000887):0.00000692):0.00000457):0.01697075,(((4_0_1:0.00000932,(((((4_0_10:0.00000185,4_0_3:0.00000124):0.00000289,4_0_15:0.00000457):0.00000771,(4_0_6:0.00000029,4_0_0:0.00000023):0.00001476):0.00000008,((4_0_9:0.00000322,((4_0_8:0.00000019,4_0_12:0.00000022):0.00000457,((4_0_11:0.00000093,4_0_14:0.00000126):0.00000122,4_0_13:0.00000050):0.00000004):0.00000116):0.00000480,4_0_7:0.00001071):0.00000035):0.00000404,(4_0_5:0.00000325,(4_0_2:0.00000007,4_0_4:0.00000003):0.00000491):0.00001139):0.00000285):0.00403763,((((6_0_12:0.00000002,6_0_5:0.00000005):0.00000070,(6_0_2:0.00000034,6_0_8:0.00000029):0.00000088):0.00000837,(6_0_14:0.00000632,((6_0_3:0.00000207,6_0_11:0.00000179):0.00000054,6_0_13:0.00000367):0.00000149):0.00000755):0.00001763,(6_0_6:0.00002692,(((6_0_9:0.00000001,6_0_10:0.00000003):0.00000683,(6_0_1:0.00000269,6_0_4:0.00000289):0.00000590):0.00000720,((6_0_0:0.00000102,6_0_15:0.00000036):0.00000190,6_0_7:0.00000124):0.00000818):0.00000245):0.00001823):0.00429906):0.02800096,(((((5_0_0:0.00000057,5_0_2:0.00000124):0.00002176,(5_0_13:0.00000479,(5_0_7:0.00000156,5_0_9:0.00000723):0.00000362):0.00000671):0.00001363,(((((3_0_8:0.00000002,3_0_0:0.00000001):0.00000687,(3_0_10:0.00000010,3_0_6:0.00000010):0.00000366):0.00000128,3_0_1:0.00001129):0.00000034,(3_0_7:0.00000728,3_0_12:0.00000376):0.00000478):0.00000306,(3_0_9:0.00000043,(3_0_11:0.00000030,3_0_3:0.00000138):0.00000022):0.00000533):0.00003058):0.00000541,((((((5_0_3:0.00000760,(5_0_1:0.00000297,5_0_14:0.00000223):0.00000293):0.00000122,(5_0_10:0.00000129,(5_0_8:0.00000033,5_0_15:0.00000056):0.00000062):0.00000711):0.00000227,5_0_11:0.00000379):0.00000167,5_0_4:0.00000647):0.00000173,5_0_12:0.00001510):0.00000329,(5_0_5:0.00000031,5_0_6:0.00000044):0.00002860):0.00001407):0.00000264,((3_0_14:0.00000092,(3_0_15:0.00000305,3_0_5:0.00000445):0.00000109):0.00000719,((3_0_13:0.00000033,3_0_2:0.00000029):0.00000021,3_0_4:0.00000116):0.00000391):0.00003357):0.00979005):0.00687669):0.00723855,((1_0_15:0.00000060,1_0_13:0.00000044):0.00007470,(((((((1_0_14:0.00000353,(1_0_1:0.00000015,1_0_9:0.00000027):0.00000331):0.00000375,1_0_2:0.00000348):0.00000584,(1_0_11:0.00000318,(1_0_0:0.00000048,1_0_10:0.00000065):0.00000453):0.00000596):0.00000078,1_0_8:0.00001684):0.00000478,(1_0_4:0.00000606,1_0_7:0.00000279):0.00001192):0.00000066,(1_0_6:0.00000259,1_0_3:0.00000437):0.00001208):0.00001751,(1_0_12:0.00000124,1_0_5:0.00000207):0.00003874):0.00007540):0.03707448):0.05323298);
[TREE] T02 (0_0_0:0.11086730,(((1_0_7:0.00008248,((1_0_10:0.00000007,1_0_4:0.00000011):0.00000880,(1_0_9:0.00000009,1_0_2:0.00000026):0.00002338):0.00001519):0.00001614,(1_0_11:0.00001888,(((1_0_15:0.00000134,1_0_14:0.00000419):0.00000119,(1_0_12:0.00000048,1_0_13:0.00000133):0.00000046):0.00000423,(((((1_0_3:0.00000109,1_0_1:0.00000257):0.00000091,1_0_6:0.00000261):0.00000376,1_0_0:0.00000809):0.00000077,1_0_8:0.00001077):0.00000177,1_0_5:0.00001270):0.00000681):0.00000012):0.00003657):0.05354083,(((((((5_0_14:0.00000086,5_0_6:0.00000196):0.00000308,((5_0_3:0.00000238,5_0_12:0.00000312):0.00000255,(5_0_0:0.00000125,5_0_15:0.00000152):0.00000327):0.00000108):0.00003206,(5_0_11:0.00003114,(5_0_8:0.00000313,(5_0_2:0.00000694,((5_0_7:0.00000010,5_0_13:0.00000010):0.00000101,5_0_9:0.00000274):0.00000286):0.00001767):0.00000077):0.00000225):0.00000108,((5_0_10:0.00000069,5_0_5:0.00000070):0.00000534,(5_0_1:0.00000079,5_0_4:0.00000233):0.00000208):0.00003104):0.00006495,((3_0_9:0.00000092,3_0_10:0.00000150):0.00001975,(((((3_0_8:0.00000016,3_0_7:0.00000012):0.00000063,(3_0_14:0.00000200,3_0_13:0.00000184):0.00000004):0.00000034,(3_0_12:0.00000159,3_0_2:0.00000235):0.00000052):0.00000214,((3_0_0:0.00000281,3_0_11:0.00000435):0.00000005,3_0_1:0.00000178):0.00000144):0.00000519,(3_0_4:0.00001478,((3_0_6:0.00000115,(3_0_5:0.00000012,3_0_15:0.00000011):0.00000039):0.00000238,3_0_3:0.00000192):0.00000891):0.00000419):0.00000312):0.00004179):0.01604642,(((6_0_5:0.00001669,(6_0_6:0.00001013,((6_0_10:0.00000034,6_0_0:0.00000071):0.00000106,6_0_13:0.00000116):0.00000306):0.00000296):0.00004492,(((6_0_4:0.00000274,(6_0_2:0.00000526,6_0_7:0.00000240):0.00000133):0.00000439,(6_0_9:0.00000477,(6_0_14:0.00000121,(6_0_15:0.00000037,6_0_1:0.00000055):0.00000140):0.00000102):0.00000695):0.00001373,(6_0_11:0.00001012,((6_0_8:0.00000550,6_0_3:0.00001165):0.00000093,6_0_12:0.00000397):0.00000096):0.00001247):0.00001957):0.00446317,((4_0_9:0.00000591,4_0_4:0.00000465):0.00002093,(((4_0_12:0.00000630,((4_0_3:0.00000006,4_0_6:0.00000003):0.00000097,4_0_15:0.00000098):0.00001750):0.00000164,((4_0_7:0.00000074,4_0_13:0.00000104):0.00000421,4_0_2:0.00000222):0.00001372):0.00001134,((4_0_10:0.00000111,4_0_0:0.00000228):0.00000186,(4_0_11:0.00000195,((4_0_14:0.00000074,4_0_5:0.00000111):0.00000044,(4_0_1:0.00000003,4_0_8:0.00000003):0.00000039):0.00000154):0.00000127):0.00001515):0.00001018):0.00160998):0.00530938):0.00918306,(2_0_11:0.00010869,((((2_0_6:0.00000018,2_0_10:0.00000017):0.00000791,(2_0_4:0.00000398,(2_0_9:0.00000083,2_0_14:0.00000130):0.00000102):0.00000504):0.00000495,(2_0_8:0.00000743,(((2_0_1:0.00000062,2_0_13:0.00000027):0.00000397,((2_0_0:0.00000270,2_0_12:0.00000194):0.00000010,(2_0_7:0.00000265,2_0_15:0.00000109):0.00000117):0.00000001):0.00000281,(2_0_3:0.00000053,2_0_5:0.00000095):0.00000233):0.00001192):0.00000781):0.00001995,2_0_2:0.00002187):0.00001943):0.00875257):0.01958825):0.04423345);
[TREE] T03 (((((1_0_0:0.00000181,1_0_6:0.00000457):0.00002172,1_0_15:0.00001811):0.00005992,((((1_0_14:0.00000347,((1_0_2:0.00000087,1_0_5:0.00000031):0.00000194,1_0_4:0.00000191):0.00000006):0.00000041,(1_0_12:0.00000095,(1_0_3:0.00000190,(1_0_9:0.00000035,1_0_8:0.00000098):0.00000052):0.00000169):0.00000037):0.00000046,1_0_10:0.00000257):0.00003414,((1_0_7:0.00000242,(1_0_1:0.00000000,1_0_13:0.00000000):0.00000075):0.00000891,1_0_11:0.00000992):0.00002992):0.00006668):0.02236876,(((2_0_6:0.00000984,((2_0_3:0.00000333,2_0_7:0.00000126):0.00000200,(2_0_2:0.00000040,2_0_4:0.00000016):0.00000023):0.00000660):0.00000128,((2_0_5:0.00000414,2_0_9:0.00000242):0.00000252,((2_0_13:0.00000175,(2_0_8:0.00000243,2_0_0:0.00000391):0.00000025):0.00000163,((2_0_1:0.00000048,2_0_15:0.00000031):0.00000469,((2_0_12:0.00000005,2_0_10:0.00000008):0.00000423,(2_0_11:0.00000185,2_0_14:0.00000096):0.00000050):0.00000023):0.00000028):0.00000131):0.00001320):0.03234067,(((((((5_0_5:0.00000063,(5_0_6:0.00000033,5_0_11:0.00000026):0.00000096):0.00000429,5_0_10:0.00000111):0.00000470,((5_0_13:0.00000208,5_0_2:0.00000075):0.00000396,5_0_4:0.00000491):0.00000001):0.00001144,(5_0_15:0.00001757,((5_0_14:0.00000715,5_0_3:0.00000332):0.00000404,(((5_0_12:0.00000222,5_0_0:0.00000167):0.00000391,(5_0_7:0.00000052,5_0_9:0.00000069):0.00000172):0.00000008,5_0_1:0.00001545):0.00000195):0.00002235):0.00000482):0.00000589,5_0_8:0.00001261):0.00000830,((3_0_15:0.00002373,((3_0_12:0.00000067,3_0_11:0.00000054):0.00000013,(3_0_10:0.00000058,(3_0_7:0.00000005,3_0_6:0.00000011):0.00000098):0.00000067):0.00003418):0.00002940,(((3_0_14:0.00000437,(3_0_3:0.00000056,3_0_1:0.00000141):0.00000800):0.00000154,(3_0_5:0.00000252,3_0_0:0.00000508):0.00000428):0.00002448,(3_0_4:0.00000287,((3_0_8:0.00000150,3_0_2:0.00000079):0.00000692,(3_0_9:0.00000003,3_0_13:0.00000005):0.00000663):0.00000005):0.00002883):0.00000734):0.00002324):0.04036177,((((4_0_14:0.00000198,(4_0_1:0.00000114,4_0_5:0.00000179):0.00000052):0.00000185,(((4_0_2:0.00000003,4_0_9:0.00000069):0.00000334,(4_0_3:0.00000003,4_0_6:0.00000011):0.00000450):0.00000058,(4_0_8:0.00000271,4_0_4:0.00000063):0.00000167):0.00000537):0.00005667,((4_0_11:0.00001900,(4_0_13:0.00000982,(4_0_10:0.00000146,4_0_0:0.00000150):0.00000342):0.00001595):0.00002598,(4_0_7:0.00001370,(4_0_15:0.00000060,4_0_12:0.00000124):0.00000846):0.00001253):0.00001181):0.00282246,((((6_0_1:0.00000797,(6_0_8:0.00000176,(6_0_14:0.00000068,6_0_6:0.00000127):0.00000436):0.00000335):0.00000382,6_0_10:0.00001194):0.00000199,((6_0_2:0.00000475,6_0_0:0.00000215):0.00000087,6_0_13:0.00000615):0.00000407):0.00021485,((6_0_5:0.00000191,(6_0_11:0.00000006,6_0_7:0.00000020):0.00000162):0.00000743,(6_0_12:0.00000362,((6_0_4:0.00000118,(6_0_15:0.00000048,6_0_9:0.00000134):0.00000023):0.00000017,6_0_3:0.00000101):0.00000117):0.00000241):0.00009547):0.00214296):0.01107648):0.01094427):0.01421506):0.06859605,0_0_0:0.05839243);
[TREE] T04 (0_0_0:0.05991360,(((((2_0_5:0.00000438,((2_0_0:0.00000091,2_0_1:0.00000131):0.00000604,((2_0_11:0.00001118,(2_0_8:0.00000127,(2_0_9:0.00000057,2_0_10:0.00000048):0.00000003):0.00000651):0.00000041,(2_0_4:0.00000357,(2_0_2:0.00000051,2_0_7:0.00000071):0.00000594):0.00000203):0.00000147):0.00000279):0.00000600,((2_0_12:0.00000859,2_0_15:0.00000196):0.00000518,(2_0_6:0.00000259,(2_0_3:0.00000090,2_0_13:0.00000051):0.00000127):0.00000378):0.00000477):0.00001085,2_0_14:0.00008340):0.05591309,(((((((((6_0_13:0.00000026,6_0_1:0.00000039):0.00000136,6_0_14:0.00000299):0.00000109,(6_0_11:0.00000020,(6_0_10:0.00000000,6_0_6:0.00000000):0.00000005):0.00000697):0.00000101,((6_0_9:0.00000336,((6_0_3:0.00000019,6_0_0:0.00000020):0.00000032,6_0_4:0.00000050):0.00000200):0.00000116,6_0_12:0.00000180):0.00000126):0.00000305,6_0_5:0.00000759):0.00001344,6_0_2:0.00000925):0.00005866,((6_0_7:0.00000236,6_0_15:0.00000120):0.00000092,6_0_8:0.00000096):0.00005417):0.00524392,(((4_0_13:0.00000025,4_0_7:0.00000027):0.00001234,(4_0_6:0.00000693,(4_0_1:0.00000210,4_0_5:0.00000488):0.00000143):0.00000412):0.00003494,(((4_0_0:0.00000122,4_0_3:0.00000189):0.00000113,((4_0_12:0.00000038,(4_0_11:0.00000035,4_0_15:0.00000094):0.00000009):0.00000314,4_0_2:0.00000167):0.00000053):0.00000522,(4_0_8:0.00000749,((4_0_10:0.00000082,4_0_14:0.00000099):0.00000048,(4_0_9:0.00000006,4_0_4:0.00000067):0.00000262):0.00000247):0.00000012):0.00005969):0.00296757):0.02941067,(((((3_0_3:0.00000033,3_0_13:0.00000056):0.00000167,3_0_9:0.00000202):0.00001077,(3_0_15:0.00001729,((3_0_11:0.00001082,3_0_4:0.00001580):0.00000263,((((3_0_10:0.00000055,3_0_2:0.00000020):0.00000121,3_0_14:0.00000080):0.00000010,(3_0_7:0.00000133,3_0_8:0.00000053):0.00000056):0.00000064,((3_0_6:0.00000032,3_0_12:0.00000074):0.00000019,3_0_5:0.00000142):0.00000165):0.00000443):0.00000007):0.00000283):0.00000179,(3_0_1:0.00000526,3_0_0:0.00001425):0.00000567):0.00013564,((5_0_2:0.00000753,((5_0_7:0.00000182,5_0_3:0.00000193):0.00000279,(5_0_8:0.00000530,(5_0_4:0.00000123,5_0_15:0.00000076):0.00000318):0.00000010):0.00000232):0.00000780,(((5_0_12:0.00000752,(5_0_11:0.00000154,5_0_6:0.00000219):0.00000078):0.00000125,(5_0_1:0.00000231,((5_0_0:0.00000005,5_0_14:0.00000008):0.00000291,5_0_13:0.00000598):0.00000156):0.00000610):0.00000629,((5_0_9:0.00000336,5_0_5:0.00000385):0.00000219,5_0_10:0.00000686):0.00001300):0.00000653):0.00005035):0.00222622):0.00810403):0.01241230,(((1_0_14:0.00000885,1_0_4:0.00000472):0.00000205,((1_0_12:0.00000121,(1_0_5:0.00000028,1_0_9:0.00000029):0.00000329):0.00000086,1_0_13:0.00000243):0.00000190):0.00002147,((1_0_3:0.00000247,1_0_1:0.00000443):0.00000624,(((1_0_15:0.00000027,1_0_6:0.00000034):0.00000094,1_0_0:0.00000267):0.00000809,((1_0_2:0.00000060,(1_0_8:0.00000045,1_0_11:0.00000027):0.00000144):0.00000127,(1_0_7:0.00000086,1_0_10:0.00000206):0.00000550):0.00000227):0.00000107):0.00002532):0.09472580):0.03367824);
[TREE] T05 (0_0_0:0.12282318,((((1_0_7:0.00000377,(1_0_5:0.00000530,((1_0_13:0.00000490,1_0_0:0.00000059):0.00000004,((1_0_11:0.00000031,1_0_9:0.00000009):0.00000054,1_0_10:0.00000224):0.00000250):0.00000278):0.00000007):0.00000196,1_0_6:0.00000680):0.00001134,(1_0_15:0.00000847,((1_0_12:0.00000828,1_0_8:0.00000161):0.00000165,((1_0_4:0.00000358,(1_0_14:0.00000047,1_0_2:0.00000077):0.00000298):0.00000252,(1_0_3:0.00000039,1_0_1:0.00000050):0.00000231):0.00000193):0.00000001):0.00005106):0.08268338,(((((((6_0_0:0.00000061,6_0_12:0.00000043):0.00000110,6_0_15:0.00000051):0.00002902,((6_0_11:0.00000549,6_0_10:0.00000364):0.00000048,(6_0_4:0.00000154,((6_0_8:0.00000377,6_0_14:0.00000161):0.00000005,(6_0_9:0.00000109,6_0_2:0.00000132):0.00000092):0.00000389):0.00000237):0.00001387):0.00003839,(6_0_13:0.00000965,((6_0_7:0.00000441,6_0_5:0.00000291):0.00001422,(6_0_3:0.00000616,(6_0_6:0.00000024,6_0_1:0.00000022):0.00000773):0.00000142):0.00000139):0.00003961):0.00355609,((((4_0_8:0.00000247,(((4_0_4:0.00000052,4_0_7:0.00000053):0.00000047,4_0_10:0.00000049):0.00000014,4_0_3:0.00000073):0.00000030):0.00000393,(4_0_6:0.00000039,4_0_11:0.00000121):0.00000396):0.00004300,((4_0_14:0.00000411,4_0_13:0.00000170):0.00000067,4_0_0:0.00000204):0.00000629):0.00000019,(4_0_2:0.00000860,(((4_0_1:0.00000222,4_0_9:0.00000276):0.00001826,(4_0_12:0.00000516,4_0_15:0.00000275):0.00000854):0.00000090,4_0_5:0.00001308):0.00000138):0.00001142):0.00083116):0.02388950,(((((((5_0_12:0.00000205,(5_0_6:0.00000089,5_0_7:0.00000125):0.00000194):0.00000039,(5_0_10:0.00000460,((5_0_14:0.00000033,5_0_13:0.00000057):0.00000178,(5_0_0:0.00000207,5_0_2:0.00000046):0.00000157):0.00000045):0.00000187):0.00000327,(5_0_9:0.00000168,5_0_5:0.00000151):0.00000401):0.00000419,5_0_11:0.00000229):0.00000636,((5_0_3:0.00000188,(5_0_1:0.00000142,5_0_4:0.00000153):0.00000183):0.00000133,(5_0_15:0.00000007,5_0_8:0.00000077):0.00000544):0.00000296):0.00001363,((((3_0_15:0.00000128,3_0_9:0.00000091):0.00000625,((3_0_5:0.00000115,3_0_14:0.00000032):0.00000680,3_0_2:0.00000283):0.00000177):0.00000107,(3_0_3:0.00000555,3_0_6:0.00000544):0.00000311):0.00000352,3_0_10:0.00000947):0.00000894):0.00009551,(((3_0_11:0.00000646,3_0_7:0.00000695):0.00000677,3_0_8:0.00000664):0.00000224,((3_0_0:0.00000187,(3_0_4:0.00000121,(3_0_1:0.00000068,3_0_12:0.00000071):0.00000041):0.00000012):0.00000021,3_0_13:0.00000219):0.00000414):0.00011525):0.03000410):0.00408290,(((2_0_1:0.00000267,(2_0_5:0.00000314,((2_0_15:0.00000065,2_0_10:0.00000060):0.00000223,2_0_14:0.00000253):0.00000012):0.00000478):0.00000167,((((2_0_4:0.00000554,(2_0_13:0.00000125,2_0_0:0.00000025):0.00000576):0.00000076,(2_0_7:0.00000411,2_0_2:0.00000554):0.00000135):0.00000170,(2_0_8:0.00000276,2_0_6:0.00000104):0.00000119):0.00000279,(2_0_3:0.00000341,2_0_9:0.00000220):0.00000507):0.00000075):0.00001628,(2_0_12:0.00001506,2_0_11:0.00000369):0.00001254):0.03903450):0.00965764):0.04737065);
[TREE] T06 (0_0_0:0.09858105,((((2_0_6:0.00000274,((2_0_15:0.00000011,2_0_4:0.00000004):0.00000016,(2_0_3:0.00000006,2_0_5:0.00000010):0.00000010):0.00000125):0.00003757,(((((2_0_7:0.00000581,2_0_1:0.00000679):0.00000010,(2_0_2:0.00000132,2_0_8:0.00000071):0.00000180):0.00000025,((2_0_9:0.00000136,2_0_0:0.00000141):0.00000300,2_0_12:0.00000328):0.00000105):0.00000059,((2_0_11:0.00000297,2_0_10:0.00000151):0.00000045,2_0_14:0.00000239):0.00000194):0.00000647,2_0_13:0.00000993):0.00000742):0.01059185,(((((((4_0_11:0.00000034,4_0_15:0.00000019):0.00000000,4_0_2:0.00000012):0.00001422,(4_0_14:0.00000501,4_0_3:0.00000805):0.00000013):0.00000396,((4_0_7:0.00000297,((4_0_1:0.00000221,4_0_12:0.00000169):0.00000585,(4_0_0:0.00000398,((4_0_9:0.00000060,4_0_6:0.00000018):0.00000092,4_0_13:0.00000464):0.00000126):0.00000135):0.00000076):0.00000277,(4_0_5:0.00000103,4_0_4:0.00000068):0.00000299):0.00000198):0.00001562,(4_0_10:0.00000313,4_0_8:0.00000355):0.00001235):0.00489352,(((6_0_8:0.00000847,((6_0_15:0.00000006,6_0_0:0.00000009):0.00000264,(6_0_2:0.00000075,6_0_10:0.00000228):0.00000003):0.00001392):0.00002812,((((6_0_4:0.00000233,(6_0_3:0.00000150,6_0_5:0.00000142):0.00000068):0.00000287,6_0_1:0.00000276):0.00000058,(((6_0_13:0.00000148,6_0_11:0.00000197):0.00000261,6_0_9:0.00000330):0.00000313,6_0_6:0.00000205):0.00000206):0.00003833,(6_0_12:0.00000131,6_0_7:0.00000379):0.00001432):0.00000973):0.00000652,6_0_14:0.00004331):0.00507844):0.02538105,((((3_0_14:0.00000252,3_0_10:0.00000037):0.00001562,(((3_0_13:0.00000493,((3_0_4:0.00000922,(3_0_0:0.00000141,3_0_9:0.00000134):0.00000585):0.00000010,3_0_2:0.00000282):0.00000049):0.00000617,3_0_7:0.00000379):0.00000360,(3_0_8:0.00000873,3_0_1:0.00001668):0.00000641):0.00000468):0.00001660,((5_0_0:0.00000914,5_0_9:0.00000671):0.00001732,5_0_11:0.00003203):0.00003282):0.00001136,(((3_0_12:0.00000187,3_0_11:0.00000559):0.00000628,((3_0_5:0.00000431,3_0_6:0.00000234):0.00000490,(3_0_15:0.00000116,3_0_3:0.00000043):0.00000312):0.00000680):0.00001306,(((5_0_7:0.00000071,(5_0_15:0.00000007,5_0_14:0.00000005):0.00000036):0.00000332,5_0_3:0.00000280):0.00000113,((5_0_5:0.00000256,5_0_2:0.00000117):0.00000474,(((5_0_6:0.00000087,(5_0_12:0.00000018,5_0_13:0.00000045):0.00000068):0.00000021,((5_0_8:0.00000007,5_0_1:0.00000013):0.00000043,5_0_4:0.00000058):0.00000011):0.00000014,5_0_10:0.00000175):0.00000745):0.00000021):0.00003729):0.00002825):0.02589247):0.01396706):0.00660138,((1_0_12:0.00002559,((((((1_0_14:0.00000172,(1_0_2:0.00000040,1_0_8:0.00000036):0.00000241):0.00000071,1_0_6:0.00000649):0.00000048,1_0_7:0.00000219):0.00000345,(1_0_4:0.00000065,1_0_3:0.00000086):0.00000352):0.00000249,(1_0_13:0.00002230,1_0_0:0.00001265):0.00000378):0.00003239,(1_0_10:0.00000403,1_0_9:0.00000473):0.00005313):0.00000047):0.00006704,((1_0_11:0.00000218,(1_0_15:0.00000089,1_0_1:0.00000127):0.00000377):0.00000055,1_0_5:0.00000364):0.00004448):0.03433838):0.03692723);
[TREE] T07 ((((((2_0_9:0.00000026,2_0_0:0.00000039):0.00003991,((2_0_6:0.00000014,2_0_11:0.00000032):0.00004138,(2_0_4:0.00001524,(2_0_12:0.00000624,(2_0_5:0.00000123,2_0_10:0.00000102):0.00000177):0.00000228):0.00000686):0.00001060):0.00001626,(2_0_7:0.00000678,((2_0_1:0.00000232,(2_0_14:0.00000022,2_0_8:0.00000021):0.00000110):0.00000147,((2_0_3:0.00000109,2_0_2:0.00000110):0.00000030,(2_0_13:0.00000056,2_0_15:0.00000151):0.00000246):0.00000008):0.00000085):0.00003883):0.02321133,(((((5_0_2:0.00000542,5_0_13:0.00000155):0.00004974,(((5_0_1:0.00000402,((5_0_12:0.00000282,5_0_8:0.00000231):0.00000388,((5_0_4:0.00000181,(5_0_6:0.00000061,5_0_15:0.00000201):0.00000134):0.00000260,(5_0_14:0.00000077,(5_0_10:0.00000090,5_0_0:0.00000026):0.00000045):0.00000183):0.00000384):0.00000015):0.00000681,(5_0_3:0.00001558,(5_0_9:0.00000087,5_0_7:0.00000084):0.00000867):0.00000378):0.00000456,(5_0_11:0.00000110,5_0_5:0.00000026):0.00002489):0.00001240):0.00000680,(3_0_1:0.00003466,(3_0_13:0.00000066,3_0_2:0.00000181):0.00003938):0.00003051):0.00003876,(((3_0_0:0.00000060,(3_0_10:0.00000031,3_0_3:0.00000012):0.00000089):0.00000068,3_0_4:0.00000245):0.00002478,((3_0_8:0.00000306,(3_0_12:0.00000209,3_0_14:0.00000111):0.00000191):0.00000644,((3_0_7:0.00000156,(3_0_9:0.00000038,(3_0_6:0.00000051,3_0_15:0.00000019):0.00000009):0.00000008):0.00000474,(3_0_11:0.00000330,3_0_5:0.00000228):0.00000080):0.00000142):0.00003334):0.00008319):0.04220200,(((((4_0_10:0.00000287,((4_0_1:0.00000031,(4_0_11:0.00000027,4_0_7:0.00000028):0.00000018):0.00000037,4_0_14:0.00000087):0.00000022):0.00000121,4_0_8:0.00000167):0.00000465,(4_0_0:0.00000310,4_0_4:0.00000186):0.00000221):0.00002335,((4_0_5:0.00000151,4_0_2:0.00000251):0.00001642,(4_0_15:0.00000416,(((4_0_3:0.00000228,(4_0_6:0.00000181,4_0_9:0.00000272):0.00000025):0.00000067,4_0_12:0.00000685):0.00000070,4_0_13:0.00000270):0.00000156):0.00000882):0.00002538):0.00237943,((((6_0_13:0.00000217,(6_0_3:0.00000022,6_0_2:0.00000059):0.00000234):0.00000255,6_0_0:0.00000455):0.00000961,(6_0_1:0.00001628,((6_0_12:0.00000878,(6_0_9:0.00000115,(6_0_14:0.00000045,6_0_5:0.00000053):0.00000027):0.00000804):0.00000029,6_0_7:0.00001395):0.00000055):0.00000318):0.00006439,(6_0_4:0.00000371,(((6_0_8:0.00000025,6_0_10:0.00000004):0.00000224,6_0_15:0.00000247):0.00000182,(6_0_6:0.00000305,6_0_11:0.00000123):0.00000099):0.00000051):0.00010214):0.00303108):0.03151588):0.02682944):0.00925108,((((((1_0_0:0.00000249,1_0_12:0.00000268):0.00000866,(1_0_5:0.00000224,(1_0_14:0.00000308,1_0_15:0.00000316):0.00000070):0.00001198):0.00000251,1_0_11:0.00001815):0.00000758,((1_0_7:0.00000250,1_0_13:0.00000121):0.00000189,(1_0_2:0.00000304,(1_0_8:0.00000345,1_0_9:0.00000086):0.00000284):0.00000075):0.00001498):0.00000560,(1_0_10:0.00000056,1_0_1:0.00000084):0.00001086):0.00000545,(1_0_4:0.00000515,(1_0_3:0.00000439,1_0_6:0.00000245):0.00000092):0.00003171):0.07128686):0.03209469,0_0_0:0.14105299);
[TREE] T08 (((((1_0_14:0.00000389,(1_0_2:0.00000614,1_0_12:0.00000406):0.00000109):0.00000539,(1_0_8:0.00000051,1_0_0:0.00000015):0.00000591):0.00000397,((((1_0_13:0.00000506,((1_0_4:0.00000469,1_0_9:0.00000227):0.00000072,(1_0_15:0.00000245,(1_0_1:0.00000041,1_0_11:0.00000028):0.00000059):0.00000097):0.00000007):0.00000102,1_0_10:0.00000632):0.00000000,(1_0_7:0.00000132,(1_0_6:0.00000072,1_0_5:0.00000019):0.00000271):0.00000252):0.00000276,1_0_3:0.00000511):0.00000606):0.08897940,(((((((2_0_1:0.00000042,2_0_3:0.00000021):0.00000327,(2_0_2:0.00000150,(2_0_11:0.00000267,((2_0_6:0.00000057,(2_0_0:0.00000003,2_0_15:0.00000003):0.00000066):0.00000017,2_0_9:0.00000034):0.00000073):0.00000015):0.00000222):0.00000026,(((2_0_10:0.00000074,2_0_8:0.00000048):0.00000083,2_0_13:0.00000171):0.00000078,2_0_7:0.00000220):0.00000071):0.00000130,2_0_5:0.00001141):0.00000111,(2_0_12:0.00000178,2_0_14:0.00000011):0.00001235):0.00004964,2_0_4:0.00000451):0.03997697,(((((((4_0_15:0.00000144,4_0_6:0.00000261):0.00000728,(4_0_0:0.00000259,4_0_11:0.00000338):0.00000672):0.00000027,((4_0_4:0.00000214,4_0_3:0.00000268):0.00000166,(4_0_1:0.00000163,(((4_0_2:0.00000066,4_0_12:0.00000086):0.00000006,4_0_14:0.00000032):0.00000044,4_0_8:0.00000093):0.00000157):0.00000350):0.00000044):0.00000944,(4_0_5:0.00000262,4_0_10:0.00000232):0.00002178):0.00000325,(4_0_9:0.00000416,(4_0_7:0.00000125,4_0_13:0.00000158):0.00000749):0.00002740):0.00183907,((((6_0_7:0.00000031,6_0_6:0.00000005):0.00001326,(6_0_8:0.00000414,(((6_0_14:0.00000044,6_0_12:0.00000048):0.00000059,6_0_4:0.00000098):0.00000058,6_0_9:0.00000145):0.00000124):0.00000833):0.00001816,6_0_13:0.00002727):0.00000034,(((6_0_3:0.00000237,(6_0_5:0.00000165,(6_0_2:0.00000063,6_0_11:0.00000038):0.00000104):0.00000102):0.00000012,(6_0_10:0.00000076,6_0_1:0.00000123):0.00000069):0.00000260,(6_0_0:0.00000822,6_0_15:0.00000450):0.00000609):0.00002751):0.00556202):0.00593165,((5_0_4:0.00001882,((((5_0_9:0.00000252,((5_0_14:0.00000062,5_0_0:0.00000137):0.00000018,5_0_10:0.00000052):0.00000024):0.00000097,5_0_7:0.00000584):0.00000394,((5_0_13:0.00000759,(5_0_8:0.00000075,5_0_12:0.00000038):0.00000847):0.00000008,(5_0_2:0.00000273,5_0_1:0.00000167):0.00000170):0.00000359):0.00000309,((5_0_15:0.00000073,5_0_11:0.00000059):0.00001056,(5_0_5:0.00000055,5_0_6:0.00000038):0.00000756):0.00000874):0.00001483):0.00002759,((((3_0_12:0.00000025,3_0_15:0.00000022):0.00000944,3_0_4:0.00000917):0.00000687,((((3_0_8:0.00000194,(3_0_6:0.00000128,3_0_0:0.00000176):0.00000001):0.00000037,3_0_3:0.00000264):0.00000173,3_0_9:0.00000474):0.00000316,(((3_0_2:0.00000007,3_0_10:0.00000004):0.00000348,(3_0_11:0.00000187,(3_0_13:0.00000055,(3_0_5:0.00000018,3_0_1:0.00000009):0.00000107):0.00000099):0.00000295):0.00000131,(3_0_14:0.00000608,3_0_7:0.00000279):0.00000122):0.00000259):0.00001170):0.00005952,5_0_3:0.00004793):0.00002032):0.01748823):0.01761142):0.01128223):0.01122799,0_0_0:0.13831153);
[TREE] T09 (0_0_0:0.14017658,(((2_0_6:0.00001916,((((2_0_13:0.00000152,2_0_1:0.00000198):0.00000763,(2_0_10:0.00000095,(2_0_0:0.00000145,(2_0_5:0.00000265,2_0_15:0.00000158):0.00000023):0.00000032):0.00000219):0.00000287,(2_0_11:0.00000163,((2_0_2:0.00000014,2_0_9:0.00000108):0.00000141,(2_0_14:0.00000012,2_0_4:0.00000051):0.00000110):0.00000303):0.00000397):0.00000914,(((2_0_12:0.00000001,2_0_8:0.00000001):0.00000031,2_0_7:0.00000150):0.00000984,2_0_3:0.00000744):0.00002460):0.00000666):0.07048521,((((((((5_0_12:0.00000172,(5_0_5:0.00000044,5_0_3:0.00000035):0.00000243):0.00000288,(5_0_14:0.00000158,5_0_0:0.00000122):0.00000245):0.00000100,5_0_10:0.00000761):0.00000597,(5_0_7:0.00000323,5_0_1:0.00000230):0.00000965):0.00000402,(5_0_2:0.00000171,5_0_8:0.00000292):0.00001055):0.00001419,((3_0_8:0.00000590,((3_0_3:0.00000121,3_0_6:0.00000225):0.00000032,3_0_14:0.00000281):0.00000244):0.00000149,((((3_0_5:0.00000009,3_0_4:0.00000104):0.00000751,(((3_0_13:0.00000067,3_0_2:0.00000016):0.00000070,3_0_10:0.00000099):0.00000605,3_0_1:0.00000532):0.00000038):0.00000062,((3_0_15:0.00000208,3_0_7:0.00000058):0.00000337,(3_0_9:0.00000165,(3_0_12:0.00000020,3_0_0:0.00000021):0.00000345):0.00000151):0.00000091):0.00000017,3_0_11:0.00000643):0.00000249):0.00002848):0.00001796,((5_0_13:0.00001177,(5_0_6:0.00000187,(5_0_4:0.00000024,5_0_15:0.00000016):0.00000394):0.00000030):0.00003948,(5_0_9:0.00000108,5_0_11:0.00000074):0.00005118):0.00000746):0.00986346,(((((4_0_9:0.00000000,4_0_6:0.00000001):0.00000331,4_0_4:0.00000408):0.00000257,((4_0_5:0.00000985,4_0_15:0.00000643):0.00000190,((4_0_10:0.00000079,4_0_14:0.00000128):0.00000143,((4_0_11:0.00000151,((4_0_2:0.00000036,4_0_0:0.00000018):0.00000058,4_0_7:0.00000111):0.00000244):0.00000063,(4_0_3:0.00000262,4_0_8:0.00000349):0.00000142):0.00000022):0.00001549):0.00000037):0.00002223,((4_0_13:0.00000205,4_0_1:0.00000133):0.00001789,4_0_12:0.00003165):0.00000708):0.00348668,((((6_0_9:0.00000484,(6_0_8:0.00000072,6_0_1:0.00000013):0.00000429):0.00000129,(((6_0_10:0.00000022,((6_0_13:0.00000023,(6_0_7:0.00000035,(6_0_11:0.00000007,(6_0_4:0.00000003,6_0_15:0.00000005):0.00000003):0.00000018):0.00000004):0.00000012,6_0_0:0.00000027):0.00000200):0.00000003,6_0_6:0.00000107):0.00000151,6_0_3:0.00000581):0.00000187):0.00000409,6_0_5:0.00001868):0.00000898,((6_0_14:0.00000198,6_0_2:0.00000103):0.00000379,6_0_12:0.00001872):0.00000026):0.00091356):0.01879776):0.02188701):0.00610376,((1_0_14:0.00000056,1_0_15:0.00000112):0.00007245,(((1_0_11:0.00000065,1_0_7:0.00000051):0.00000025,1_0_5:0.00000167):0.00002666,(((1_0_6:0.00000029,1_0_0:0.00000034):0.00000638,(1_0_10:0.00000276,(1_0_8:0.00000090,1_0_3:0.00000096):0.00000620):0.00000294):0.00000913,(1_0_13:0.00000688,(1_0_2:0.00000678,((1_0_12:0.00000103,1_0_4:0.00000230):0.00000211,(1_0_1:0.00000023,1_0_9:0.00000044):0.00000487):0.00000015):0.00000013):0.00001871):0.00000187):0.00004023):0.02521841):0.02548896);
[TREE] T10 (0_0_0:0.11986370,(((((2_0_8:0.00000244,2_0_12:0.00000063):0.00001194,((2_0_3:0.00000025,2_0_4:0.00000023):0.00000172,2_0_1:0.00000658):0.00001042):0.00001211,((2_0_14:0.00000101,(2_0_11:0.00000075,2_0_2:0.00000024):0.00000058):0.00000320,(((2_0_15:0.00000005,2_0_13:0.00000005):0.00000147,(2_0_7:0.00000036,(2_0_9:0.00000022,(2_0_10:0.00000009,2_0_0:0.00000012):0.00000031):0.00000027):0.00000013):0.00000210,(2_0_6:0.00000105,2_0_5:0.00000114):0.00000214):0.00000826):0.00003217):0.03435943,(((((((4_0_2:0.00000067,4_0_6:0.00000088):0.00000104,4_0_5:0.00000564):0.00000232,4_0_1:0.00000275):0.00000015,4_0_12:0.00000303):0.00003246,(((4_0_4:0.00000732,4_0_8:0.00000195):0.00000122,(4_0_3:0.00000007,4_0_9:0.00000006):0.00001416):0.00000517,(((4_0_13:0.00000036,((4_0_15:0.00000010,4_0_14:0.00000012):0.00000006,4_0_7:0.00000033):0.00000071):0.00000096,4_0_0:0.00000320):0.00001056,(4_0_10:0.00000172,4_0_11:0.00000194):0.00000679):0.00000231):0.00000731):0.00419385,((6_0_3:0.00001887,6_0_9:0.00002214):0.00002586,(((6_0_8:0.00000590,(6_0_7:0.00000155,(6_0_12:0.00000110,6_0_0:0.00000352):0.00000021):0.00000153):0.00000291,((6_0_10:0.00000277,(6_0_14:0.00000324,6_0_5:0.00000468):0.00000093):0.00000832,(6_0_13:0.00000065,((6_0_2:0.00000010,6_0_1:0.00000015):0.00000048,(6_0_15:0.00000008,6_0_4:0.00000010):0.00000045):0.00000311):0.00001053):0.00000148):0.00000262,(6_0_11:0.00000026,6_0_6:0.00000100):0.00001521):0.00001658):0.00333718):0.02704872,(((((5_0_7:0.00000409,5_0_10:0.00000179):0.00000010,5_0_5:0.00000262):0.00001159,(((5_0_0:0.00000015,5_0_14:0.00000030):0.00000045,5_0_1:0.00000123):0.00000297,((5_0_15:0.00000126,5_0_9:0.00000139):0.00000068,5_0_6:0.00000278):0.00000108):0.00000350):0.00002236,((5_0_4:0.00001182,(5_0_12:0.00000276,5_0_3:0.00000146):0.00001136):0.00000338,(((5_0_8:0.00000016,5_0_11:0.00000010):0.00000466,5_0_13:0.00000856):0.00000412,5_0_2:0.00000770):0.00000948):0.00006096):0.00002229,(((3_0_3:0.00000120,3_0_6:0.00000250):0.00002056,(((3_0_2:0.00000006,3_0_5:0.00000005):0.00001598,(3_0_7:0.00000870,(3_0_8:0.00000309,(3_0_12:0.00000170,3_0_13:0.00000200):0.00000629):0.00000011):0.00000076):0.00000173,(3_0_4:0.00000248,(3_0_9:0.00000184,3_0_11:0.00000146):0.00000008):0.00001506):0.00000210):0.00003243,((3_0_0:0.00000313,3_0_1:0.00000284):0.00000358,((3_0_15:0.00000107,3_0_14:0.00000164):0.00000142,3_0_10:0.00000284):0.00000270):0.00003310):0.00003064):0.01535992):0.01421328):0.00319222,((((1_0_10:0.00000214,((1_0_12:0.00000152,(1_0_15:0.00000313,1_0_1:0.00000269):0.00000004):0.00000098,((1_0_5:0.00000002,1_0_2:0.00000001):0.00000213,1_0_9:0.00000161):0.00000137):0.00000083):0.00000401,(1_0_4:0.00000227,(1_0_14:0.00000201,1_0_3:0.00000215):0.00000016):0.00000368):0.00002672,1_0_0:0.00005691):0.00000259,((1_0_11:0.00000204,(1_0_13:0.00000824,(1_0_7:0.00000115,1_0_8:0.00000193):0.00000169):0.00000043):0.00001300,1_0_6:0.00000235):0.00001939):0.05424654):0.04606802);

[PARTITIONS] csSimUnlinked_01 [T01 csSim_unlinked_1 500]
[PARTITIONS] csSimUnlinked_02 [T02 csSim_unlinked_2 500]
[PARTITIONS] csSimUnlinked_03 [T03 csSim_unlinked_3 500]
[PARTITIONS] csSimUnlinked_04 [T04 csSim_unlinked_4 500]
[PARTITIONS] csSimUnlinked_05 [T05 csSim_unlinked_5 500]
[PARTITIONS] csSimUnlinked_06 [T06 csSim_unlinked_6 500]
[PARTITIONS] csSimUnlinked_07 [T07 csSim_unlinked_7 500]
[PARTITIONS] csSimUnlinked_08 [T08 csSim_unlinked_8 500]
[PARTITIONS] csSimUnlinked_09 [T09 csSim_unlinked_9 500]
[PARTITIONS] csSimUnlinked_10 [T10 csSim_unlinked_10 500]

[EVOLVE] csSimUnlinked_01 1 data_01
csSimUnlinked_02 1 data_02
csSimUnlinked_03 1 data_03
csSimUnlinked_04 1 data_04
csSimUnlinked_05 1 data_05
csSimUnlinked_06 1 data_06
csSimUnlinked_07 1 data_07
csSimUnlinked_08 1 data_08
csSimUnlinked_09 1 data_09
csSimUnlinked_10 1 data_10
