Tree file : INDELible V1.03 (best viewed cut and paste in e.g. excel)

N.B. Simulation blocks with no random trees will have their trees printed for the first replicate only.

FILE	TREE	NTAXA	REP	PART	LENGTH	DEPTH	MAX PAIRWISE DISTANCE	TREE STRING

data_01	T01	25	1	1	0.702608	0.553745	0.652199	(((((3_0_0:0.00003187,3_0_3:0.00001516):0.00018036,((3_0_2:0.00001888,3_0_1:0.00000724):0.00030394,(1_0_1:0.00001752,((1_0_3:0.00001392,1_0_0:0.00001428):0.00000969,1_0_2:0.00005316):0.00001963):0.00009156):0.00009999):0.00075485,((((2_0_2:0.00005549,2_0_1:0.00000357):0.00026456,((5_0_0:0.00002120,5_0_2:0.00001945):0.00015493,(2_0_3:0.00000010,2_0_0:0.00000030):0.00016656):0.00001338):0.00011354,(5_0_1:0.00004886,5_0_3:0.00009370):0.00025283):0.00049585,(4_0_3:0.00005150,(4_0_0:0.00000927,(4_0_2:0.00000056,4_0_1:0.00000022):0.00000747):0.00006211):0.00054248):0.00066879):0.04558993,(((6_0_1:0.00002336,6_0_3:0.00002752):0.00002612,6_0_0:0.00004615):0.00001779,6_0_2:0.00010505):0.25180974):0.30182982,0_0_0:0.09845392);

data_02	T02	25	1	1	0.788548	0.378347	0.68343	(((((3_0_0:0.00009286,((3_0_2:0.00000003,3_0_1:0.00000001):0.00001494,3_0_3:0.00002007):0.00003335):0.00010613,((1_0_1:0.00001624,1_0_2:0.00002861):0.00003362,(1_0_3:0.00000014,1_0_0:0.00000006):0.00008771):0.00017485):0.00078908,(((4_0_1:0.00005131,4_0_0:0.00001516):0.00004560,(4_0_2:0.00001865,4_0_3:0.00002440):0.00001555):0.00056509,(((((2_0_1:0.00000902,2_0_3:0.00001025):0.00000434,2_0_2:0.00001856):0.00008897,2_0_0:0.00014042):0.00001206,5_0_1:0.00025117):0.00000025,(5_0_0:0.00004849,(5_0_3:0.00000185,5_0_2:0.00000901):0.00003236):0.00019612):0.00072235):0.00020061):0.10115831,((6_0_0:0.00002126,6_0_1:0.00000498):0.00004451,(6_0_2:0.00001998,6_0_3:0.00000983):0.00008804):0.17796087):0.12701468,0_0_0:0.37834652);

data_03	T03	25	1	1	0.558859	0.246996	0.490638	(0_0_0:0.24364246,(((((3_0_3:0.00001474,3_0_2:0.00002601):0.00001059,(3_0_1:0.00003176,3_0_0:0.00001318):0.00001157):0.00005709,((1_0_0:0.00003414,(1_0_1:0.00000512,1_0_3:0.00000571):0.00001275):0.00002493,1_0_2:0.00005244):0.00021236):0.00115000,(((((5_0_0:0.00001909,5_0_1:0.00000442):0.00000273,5_0_2:0.00003104):0.00001656,5_0_3:0.00015984):0.00010744,(2_0_3:0.00002268,(2_0_0:0.00002828,(2_0_2:0.00002016,2_0_1:0.00003438):0.00000424):0.00007005):0.00018999):0.00105674,(4_0_3:0.00007004,((4_0_2:0.00003073,4_0_0:0.00002857):0.00017353,4_0_1:0.00004273):0.00000539):0.00105356):0.00051909):0.15935913,((6_0_3:0.00009118,6_0_2:0.00013889):0.00003951,(6_0_1:0.00000178,6_0_0:0.00000184):0.00015153):0.06431716):0.08576231);

data_04	T04	25	1	1	0.562093	0.415827	0.493287	((((((3_0_3:0.00000772,3_0_1:0.00000421):0.00001395,(3_0_0:0.00000509,3_0_2:0.00001551):0.00005336):0.00012046,((1_0_0:0.00001463,1_0_1:0.00002024):0.00002159,(1_0_3:0.00004623,1_0_2:0.00001003):0.00004479):0.00014898):0.00043032,((((5_0_1:0.00002300,((5_0_3:0.00001000,5_0_2:0.00000535):0.00002272,5_0_0:0.00000743):0.00001620):0.00030866,(2_0_1:0.00003217,2_0_3:0.00005955):0.00012727):0.00007374,(2_0_2:0.00008024,2_0_0:0.00003152):0.00020798):0.00107280,((4_0_3:0.00002290,4_0_0:0.00001653):0.00008004,(4_0_2:0.00004320,4_0_1:0.00005763):0.00002912):0.00051443):0.00021127):0.29687930,(6_0_0:0.00008262,(6_0_1:0.00001059,(6_0_2:0.00000428,6_0_3:0.00000870):0.00002032):0.00002355):0.06636094):0.11723242,0_0_0:0.07745968);

data_05	T05	25	1	1	0.572339	0.362687	0.496223	(0_0_0:0.13353626,(((((4_0_2:0.00004217,(4_0_3:0.00003647,4_0_1:0.00000988):0.00000319):0.00002470,4_0_0:0.00005397):0.00045472,(((5_0_0:0.00000784,(5_0_3:0.00000520,5_0_1:0.00000439):0.00000239):0.00004379,5_0_2:0.00003822):0.00025397,(2_0_3:0.00017491,((2_0_0:0.00000058,2_0_2:0.00000038):0.00000182,2_0_1:0.00000173):0.00008588):0.00088618):0.00049650):0.00035004,(((3_0_1:0.00002320,(3_0_0:0.00001273,3_0_3:0.00001222):0.00000636):0.00003232,3_0_2:0.00010861):0.00008541,((1_0_2:0.00000430,1_0_0:0.00000531):0.00014467,(1_0_1:0.00001401,1_0_3:0.00001489):0.00008926):0.00004884):0.00065187):0.18256938,((6_0_1:0.00003842,6_0_0:0.00002517):0.00001245,(6_0_2:0.00000955,6_0_3:0.00000609):0.00002027):0.07367900):0.17820988);

data_06	T06	25	1	1	0.480855	0.300119	0.437102	((((((2_0_0:0.00004946,((2_0_1:0.00000080,2_0_2:0.00000091):0.00001003,2_0_3:0.00001061):0.00006756):0.00017546,((5_0_0:0.00000058,5_0_1:0.00000118):0.00001295,(5_0_2:0.00000584,5_0_3:0.00000437):0.00001857):0.00047534):0.00097520,((4_0_2:0.00002835,4_0_1:0.00003329):0.00008128,(4_0_3:0.00000185,4_0_0:0.00000863):0.00025296):0.00062386):0.00050294,(((((3_0_2:0.00003029,3_0_0:0.00001746):0.00002185,3_0_3:0.00001548):0.00012615,3_0_1:0.00012347):0.00002404,(1_0_3:0.00001122,1_0_1:0.00002716):0.00004746):0.00003592,(1_0_2:0.00007449,1_0_0:0.00004361):0.00010036):0.00173444):0.12548575,((6_0_2:0.00003587,(6_0_3:0.00000397,6_0_0:0.00000664):0.00008933):0.00008198,6_0_1:0.00004352):0.03969448):0.17265515,0_0_0:0.13698322);

data_07	T07	25	1	1	0.669642	0.288132	0.50654	((((6_0_0:0.00000798,6_0_1:0.00000474):0.00013759,(6_0_3:0.00003617,6_0_2:0.00006667):0.00014846):0.21732025,(((((2_0_3:0.00005952,(2_0_0:0.00001954,2_0_1:0.00003363):0.00001561):0.00000187,2_0_2:0.00004933):0.00034590,(5_0_2:0.00025846,(5_0_3:0.00003206,(5_0_1:0.00000461,5_0_0:0.00000858):0.00008385):0.00008357):0.00004560):0.00069529,((4_0_1:0.00000482,4_0_0:0.00000114):0.00001636,(4_0_2:0.00000001,4_0_3:0.00000002):0.00001911):0.00059067):0.00037889,(1_0_0:0.00005254,(((3_0_0:0.00003503,3_0_3:0.00000980):0.00006470,(3_0_2:0.00000174,3_0_1:0.00000357):0.00009796):0.00000742,(1_0_3:0.00002028,(1_0_2:0.00000246,1_0_1:0.00000528):0.00000429):0.00008096):0.00000325):0.00212519):0.15765167):0.07059687,0_0_0:0.21840824);

data_08	T08	25	1	1	0.336967	0.151962	0.273105	((((((3_0_2:0.00002701,3_0_0:0.00001565):0.00003688,3_0_3:0.00010710):0.00006725,(((1_0_0:0.00000334,1_0_2:0.00001538):0.00001111,(1_0_3:0.00001037,1_0_1:0.00002447):0.00001124):0.00020626,3_0_1:0.00010433):0.00012538):0.00074814,((4_0_3:0.00013035,(4_0_1:0.00011083,(4_0_0:0.00000399,4_0_2:0.00000181):0.00004096):0.00013051):0.00056504,(((5_0_3:0.00002289,(5_0_2:0.00004589,5_0_1:0.00000910):0.00000609):0.00000404,5_0_0:0.00004260):0.00013275,(2_0_2:0.00001811,(2_0_0:0.00004679,(2_0_1:0.00004705,2_0_3:0.00003016):0.00001139):0.00004451):0.00012955):0.00059744):0.00042922):0.07894930,(((6_0_3:0.00003513,6_0_2:0.00001571):0.00005960,6_0_0:0.00008969):0.00001865,6_0_1:0.00011905):0.06066783):0.07175401,0_0_0:0.12114301);

data_09	T09	25	1	1	0.800472	0.454482	0.750522	(0_0_0:0.29603941,((((((3_0_1:0.00001786,(3_0_0:0.00000680,3_0_2:0.00001005):0.00000084):0.00005514,3_0_3:0.00012076):0.00007854,1_0_1:0.00019938):0.00015448,(1_0_3:0.00000397,(1_0_0:0.00000092,1_0_2:0.00000100):0.00000237):0.00011745):0.00149694,(((4_0_1:0.00003807,4_0_3:0.00003995):0.00017214,(4_0_0:0.00009498,4_0_2:0.00012184):0.00011344):0.00115886,((((2_0_3:0.00000739,2_0_2:0.00000119):0.00012411,2_0_1:0.00005897):0.00001903,2_0_0:0.00011521):0.00013232,(((5_0_2:0.00001351,5_0_0:0.00001283):0.00006965,5_0_3:0.00004446):0.00002213,5_0_1:0.00018414):0.00010332):0.00078779):0.00051507):0.04337715,((6_0_0:0.00003385,6_0_1:0.00003868):0.00028001,(6_0_3:0.00001474,6_0_2:0.00000344):0.00041388):0.15225834):0.30179537);

data_10	T10	25	1	1	0.813512	0.477266	0.741629	((((((2_0_3:0.00010399,(2_0_0:0.00003096,(2_0_2:0.00000658,2_0_1:0.00000271):0.00000591):0.00017565):0.00008196,(5_0_3:0.00014342,((5_0_1:0.00000763,5_0_2:0.00000313):0.00002600,5_0_0:0.00002342):0.00001344):0.00011247):0.00083114,(4_0_2:0.00010422,(4_0_0:0.00002467,(4_0_1:0.00002316,4_0_3:0.00002299):0.00002802):0.00008317):0.00164033):0.00024788,((1_0_1:0.00003629,(1_0_0:0.00000699,(1_0_3:0.00000264,1_0_2:0.00000222):0.00000058):0.00008305):0.00010857,((3_0_2:0.00002271,(3_0_1:0.00001519,3_0_0:0.00001678):0.00000578):0.00005920,3_0_3:0.00001873):0.00008224):0.00170293):0.06572324,(((6_0_0:0.00003166,6_0_2:0.00003031):0.00002729,6_0_1:0.00002339):0.00014008,6_0_3:0.00029883):0.34082564):0.13614175,0_0_0:0.26436319);
