[TYPE] NUCLEOTIDE 1 

[SETTINGS]
    [fastaextension] fasta  

[MODEL] csSim_unlinked_1
    [submodel] GTR 0.124698 0.001770 0.016628 0.026358 0.038130 
    [statefreq] 0.280548 0.208730 0.410362 0.100360 
[rates] 0 38.134814 0 

[MODEL] csSim_unlinked_2
    [submodel] GTR 0.119301 0.020313 0.022800 0.025554 0.033250 
    [statefreq] 0.282319 0.298762 0.327179 0.091741 
[rates] 0 15.111237 0 

[MODEL] csSim_unlinked_3
    [submodel] GTR 0.093206 0.006257 0.015726 0.021661 0.054464 
    [statefreq] 0.393400 0.191294 0.304867 0.110439 
[rates] 0 16.259571 0 

[MODEL] csSim_unlinked_4
    [submodel] GTR 0.080504 0.013892 0.035304 0.037786 0.039930 
    [statefreq] 0.321988 0.345358 0.256742 0.075912 
[rates] 0 5.774201 0 

[MODEL] csSim_unlinked_5
    [submodel] GTR 0.034319 0.006409 0.045325 0.028299 0.028805 
    [statefreq] 0.504490 0.477268 0.016130 0.002111 
[rates] 0 22.221516 0 

[MODEL] csSim_unlinked_6
    [submodel] GTR 0.125522 0.003109 0.038596 0.009397 0.031265 
    [statefreq] 0.366934 0.187003 0.370449 0.075614 
[rates] 0 50.146421 0 

[MODEL] csSim_unlinked_7
    [submodel] GTR 0.128482 0.009246 0.018113 0.034778 0.043311 
    [statefreq] 0.181310 0.412851 0.284111 0.121729 
[rates] 0 60.501874 0 

[MODEL] csSim_unlinked_8
    [submodel] GTR 0.095203 0.022026 0.005459 0.028590 0.068355 
    [statefreq] 0.374224 0.454960 0.142603 0.028212 
[rates] 0 5.364541 0 

[MODEL] csSim_unlinked_9
    [submodel] GTR 0.093619 0.002862 0.017942 0.028239 0.054692 
    [statefreq] 0.095609 0.087775 0.657584 0.159032 
[rates] 0 14.441225 0 

[MODEL] csSim_unlinked_10
    [submodel] GTR 0.098478 0.019593 0.030673 0.020314 0.030068 
    [statefreq] 0.250885 0.230909 0.186055 0.332151 
[rates] 0 5.635387 0 


[TREE] T01 (0_0_0:0.02058297,((((15_0_2:0.00000500,(15_0_1:0.00000266,15_0_0:0.00000182):0.00000068):0.00032690,((14_0_2:0.00000129,14_0_1:0.00000255):0.00000131,14_0_0:0.00000218):0.00042397):0.00196857,(16_0_2:0.00000840,(16_0_1:0.00000253,16_0_0:0.00000673):0.00000688):0.00218924):0.00681144,((((6_0_0:0.00000159,6_0_2:0.00000118):0.00000731,6_0_1:0.00002598):0.00026444,(12_0_2:0.00001099,(12_0_1:0.00000122,12_0_0:0.00000785):0.00000758):0.00056417):0.00311577,((((1_0_0:0.00001844,(1_0_1:0.00000687,1_0_2:0.00000523):0.00000382):0.00061025,(((((8_0_2:0.00000034,8_0_0:0.00000045):0.00001109,8_0_1:0.00001781):0.00013239,((7_0_2:0.00000242,7_0_0:0.00000218):0.00001695,7_0_1:0.00002143):0.00009049):0.00016702,(9_0_0:0.00000678,(9_0_1:0.00000689,9_0_2:0.00000150):0.00001282):0.00017496):0.00058533,(((4_0_1:0.00000269,4_0_0:0.00001085):0.00000187,4_0_2:0.00001622):0.00003470,(11_0_0:0.00000763,(11_0_2:0.00000002,11_0_1:0.00000001):0.00000577):0.00010138):0.00096568):0.00029583):0.00002350,((2_0_1:0.00000762,(2_0_0:0.00000586,2_0_2:0.00000846):0.00000519):0.00002600,(13_0_0:0.00001127,(13_0_1:0.00000374,13_0_2:0.00000522):0.00000439):0.00003091):0.00097241):0.00150183,((((10_0_0:0.00000033,10_0_1:0.00000014):0.00000932,10_0_2:0.00000702):0.00009846,((3_0_1:0.00002323,3_0_0:0.00001098):0.00000092,3_0_2:0.00000976):0.00006805):0.00061440,((5_0_0:0.00000276,5_0_1:0.00000840):0.00000190,5_0_2:0.00001060):0.00047627):0.00137007):0.00196720):0.00457664):0.00557651);
[TREE] T02 (0_0_0:0.01187034,(((((5_0_2:0.00000089,(5_0_1:0.00000451,5_0_0:0.00000274):0.00000144):0.00080040,(((3_0_1:0.00000247,3_0_0:0.00000118):0.00001319,3_0_2:0.00001307):0.00012608,(10_0_1:0.00005284,(10_0_2:0.00000145,10_0_0:0.00000125):0.00006286):0.00010127):0.00071173):0.00067399,((((13_0_2:0.00001034,13_0_0:0.00000640):0.00000298,13_0_1:0.00000609):0.00005946,(2_0_0:0.00000277,(2_0_1:0.00000005,2_0_2:0.00000008):0.00000301):0.00003664):0.00028740,((((4_0_1:0.00000200,(4_0_2:0.00000006,4_0_0:0.00000005):0.00000173):0.00020159,(11_0_0:0.00002564,(11_0_1:0.00000562,11_0_2:0.00000347):0.00001711):0.00004570):0.00113148,(((9_0_2:0.00000100,9_0_1:0.00000109):0.00000185,9_0_0:0.00000538):0.00027315,((7_0_1:0.00001450,(7_0_2:0.00000241,7_0_0:0.00000659):0.00000830):0.00012248,(8_0_2:0.00001265,(8_0_1:0.00000335,8_0_0:0.00000298):0.00000416):0.00006412):0.00016015):0.00057963):0.00036051,(1_0_0:0.00001633,(1_0_2:0.00000364,1_0_1:0.00000298):0.00001002):0.00037288):0.00002171):0.00149127):0.00075265,((6_0_0:0.00001314,(6_0_1:0.00000381,6_0_2:0.00000928):0.00000420):0.00056058,((12_0_1:0.00000389,12_0_2:0.00000096):0.00000708,12_0_0:0.00001480):0.00033578):0.00311348):0.00202028,(((16_0_2:0.00000038,16_0_0:0.00000127):0.00000590,16_0_1:0.00000719):0.00055800,(((15_0_1:0.00000015,15_0_2:0.00000057):0.00000238,15_0_0:0.00000626):0.00041362,((14_0_2:0.00000040,14_0_1:0.00000048):0.00000238,14_0_0:0.00000581):0.00085017):0.00161144):0.00344504):0.00568797);
[TREE] T03 ((((16_0_2:0.00001612,(16_0_0:0.00000052,16_0_1:0.00000100):0.00000644):0.00148024,(((14_0_0:0.00000381,14_0_2:0.00000457):0.00000240,14_0_1:0.00000149):0.00026830,(15_0_1:0.00000353,(15_0_2:0.00000214,15_0_0:0.00000191):0.00000337):0.00050549):0.00086443):0.00389889,(((12_0_2:0.00000046,(12_0_0:0.00000023,12_0_1:0.00000005):0.00000107):0.00030969,(6_0_2:0.00002343,(6_0_0:0.00000036,6_0_1:0.00000196):0.00000777):0.00092644):0.00305962,(((((1_0_1:0.00000060,1_0_0:0.00000138):0.00000240,1_0_2:0.00000405):0.00169217,(((((8_0_2:0.00000330,8_0_0:0.00000350):0.00000100,8_0_1:0.00000482):0.00017020,(7_0_1:0.00000680,(7_0_2:0.00000148,7_0_0:0.00000184):0.00000223):0.00006041):0.00017592,((9_0_1:0.00001168,9_0_2:0.00000637):0.00000150,9_0_0:0.00001119):0.00034084):0.00067765,((4_0_0:0.00000749,(4_0_1:0.00000062,4_0_2:0.00000122):0.00000383):0.00007580,(11_0_0:0.00001954,(11_0_2:0.00000028,11_0_1:0.00000053):0.00001727):0.00012026):0.00095835):0.00026977):0.00002078,((13_0_2:0.00000236,(13_0_1:0.00000179,13_0_0:0.00000034):0.00000104):0.00002399,((2_0_2:0.00000190,2_0_0:0.00000075):0.00000554,2_0_1:0.00001394):0.00005707):0.00032809):0.00168699,((((3_0_1:0.00000147,3_0_0:0.00000193):0.00001653,3_0_2:0.00003635):0.00013994,((10_0_0:0.00000063,10_0_1:0.00000054):0.00000311,10_0_2:0.00000921):0.00031714):0.00039962,((5_0_2:0.00000191,5_0_1:0.00000139):0.00001939,5_0_0:0.00001909):0.00057843):0.00166482):0.00203694):0.00686336):0.00400872,0_0_0:0.04756608);
[TREE] T04 (0_0_0:0.00726980,(((((14_0_0:0.00000069,14_0_2:0.00000017):0.00000902,14_0_1:0.00003333):0.00128337,((15_0_0:0.00000463,15_0_2:0.00000671):0.00002450,15_0_1:0.00001203):0.00114669):0.00076608,((16_0_1:0.00000587,16_0_2:0.00000759):0.00000103,16_0_0:0.00000756):0.00186596):0.00913508,((((6_0_0:0.00000202,6_0_1:0.00000124):0.00000001,6_0_2:0.00000088):0.00033375,(12_0_1:0.00000759,(12_0_2:0.00000265,12_0_0:0.00000112):0.00000264):0.00056983):0.00245143,((((10_0_2:0.00001526,(10_0_0:0.00000066,10_0_1:0.00000027):0.00000837):0.00009640,(3_0_1:0.00001559,(3_0_2:0.00000152,3_0_0:0.00000273):0.00001860):0.00011042):0.00051541,(5_0_0:0.00000063,(5_0_2:0.00000047,5_0_1:0.00000027):0.00000015):0.00132205):0.00034828,(((13_0_1:0.00000851,(13_0_2:0.00000027,13_0_0:0.00000077):0.00001133):0.00003290,((2_0_1:0.00000020,2_0_2:0.00000010):0.00000046,2_0_0:0.00000177):0.00007679):0.00055272,((1_0_0:0.00000085,(1_0_1:0.00000240,1_0_2:0.00000113):0.00000006):0.00115162,(((4_0_0:0.00000510,(4_0_1:0.00000754,4_0_2:0.00000532):0.00000035):0.00007219,((11_0_0:0.00000455,11_0_1:0.00000268):0.00000310,11_0_2:0.00001004):0.00012340):0.00033983,(((8_0_0:0.00001251,(8_0_2:0.00000256,8_0_1:0.00000656):0.00000707):0.00006937,((7_0_2:0.00000291,7_0_1:0.00000820):0.00000184,7_0_0:0.00000294):0.00012506):0.00025410,((9_0_2:0.00000737,9_0_1:0.00000603):0.00000364,9_0_0:0.00002580):0.00044015):0.00056595):0.00031532):0.00004163):0.00113195):0.00071287):0.00439146):0.01428995);
[TREE] T05 (0_0_0:0.02036755,((((16_0_1:0.00000010,16_0_0:0.00000012):0.00000135,16_0_2:0.00000388):0.00053470,(((14_0_0:0.00000082,14_0_1:0.00000107):0.00000804,14_0_2:0.00000649):0.00045892,((15_0_2:0.00000530,15_0_0:0.00000781):0.00001589,15_0_1:0.00002338):0.00044819):0.00116563):0.00852363,((((((((7_0_2:0.00001562,(7_0_1:0.00000890,7_0_0:0.00000378):0.00000454):0.00008234,((8_0_2:0.00000462,8_0_0:0.00000228):0.00003222,8_0_1:0.00002372):0.00005296):0.00046333,(9_0_2:0.00000476,(9_0_1:0.00000703,9_0_0:0.00000283):0.00000206):0.00025462):0.00048066,((4_0_1:0.00000350,(4_0_2:0.00000292,4_0_0:0.00000633):0.00000416):0.00006782,((11_0_2:0.00000192,11_0_1:0.00000428):0.00000022,11_0_0:0.00000651):0.00007245):0.00091070):0.00011326,((1_0_1:0.00000283,1_0_0:0.00000178):0.00000769,1_0_2:0.00001685):0.00122314):0.00002755,(((2_0_2:0.00000207,2_0_0:0.00000209):0.00000784,2_0_1:0.00000534):0.00006373,((13_0_0:0.00000555,13_0_2:0.00001345):0.00002373,13_0_1:0.00003815):0.00005658):0.00080882):0.00074510,((((10_0_1:0.00000661,10_0_2:0.00000159):0.00000040,10_0_0:0.00001009):0.00006435,((3_0_1:0.00000104,3_0_0:0.00000065):0.00000370,3_0_2:0.00000384):0.00009950):0.00053448,((5_0_0:0.00000130,5_0_1:0.00000276):0.00000440,5_0_2:0.00000345):0.00086155):0.00180624):0.00234283,(((12_0_2:0.00000508,12_0_1:0.00000455):0.00001621,12_0_0:0.00000817):0.00059473,((6_0_1:0.00000268,6_0_2:0.00000056):0.00000282,6_0_0:0.00000418):0.00036291):0.00624277):0.00471233):0.01042735);
[TREE] T06 (0_0_0:0.00956022,((((16_0_1:0.00000264,16_0_2:0.00000679):0.00000885,16_0_0:0.00000515):0.00185588,((15_0_1:0.00000145,(15_0_2:0.00000104,15_0_0:0.00000052):0.00000048):0.00070318,(14_0_2:0.00000596,(14_0_0:0.00000086,14_0_1:0.00000076):0.00000931):0.00016097):0.00056826):0.00312571,(((6_0_2:0.00002210,(6_0_1:0.00000081,6_0_0:0.00000159):0.00000973):0.00011336,((12_0_1:0.00000834,12_0_2:0.00001089):0.00000717,12_0_0:0.00001519):0.00048036):0.00252341,((((((((8_0_0:0.00000063,8_0_2:0.00000116):0.00000947,8_0_1:0.00000724):0.00009676,(7_0_2:0.00000073,(7_0_1:0.00000016,7_0_0:0.00000018):0.00000036):0.00008141):0.00017877,(9_0_0:0.00000216,(9_0_1:0.00000202,9_0_2:0.00000096):0.00000045):0.00041819):0.00027928,(((11_0_1:0.00000229,11_0_0:0.00000366):0.00000511,11_0_2:0.00000988):0.00011170,(4_0_2:0.00000632,(4_0_1:0.00000233,4_0_0:0.00000297):0.00000163):0.00007944):0.00061101):0.00012700,((1_0_2:0.00000120,1_0_1:0.00000170):0.00001227,1_0_0:0.00000995):0.00093200):0.00002919,((13_0_1:0.00000221,(13_0_2:0.00000203,13_0_0:0.00000318):0.00000028):0.00003702,(2_0_1:0.00001614,(2_0_0:0.00000035,2_0_2:0.00000073):0.00007315):0.00002969):0.00106779):0.00172454,(((5_0_2:0.00000343,5_0_0:0.00000095):0.00000539,5_0_1:0.00000520):0.00163634,((3_0_2:0.00001299,(3_0_0:0.00000153,3_0_1:0.00000184):0.00002434):0.00006054,((10_0_0:0.00000053,10_0_2:0.00000014):0.00000697,10_0_1:0.00000311):0.00014479):0.00086496):0.00082574):0.00230292):0.00627377):0.00918787);
[TREE] T07 (0_0_0:0.01614470,(((((12_0_1:0.00000005,12_0_0:0.00000013):0.00001215,12_0_2:0.00001536):0.00050743,((6_0_1:0.00000130,6_0_0:0.00000319):0.00000805,6_0_2:0.00000985):0.00067738):0.00179597,((((5_0_2:0.00000216,5_0_1:0.00000422):0.00000908,5_0_0:0.00001325):0.00093498,(((10_0_0:0.00000078,10_0_2:0.00000103):0.00000087,10_0_1:0.00000073):0.00027640,((3_0_2:0.00000331,3_0_1:0.00000576):0.00000398,3_0_0:0.00000900):0.00012166):0.00042523):0.00201420,((((13_0_1:0.00000404,13_0_0:0.00000108):0.00000066,13_0_2:0.00000319):0.00004262,((2_0_1:0.00000394,2_0_2:0.00000287):0.00000072,2_0_0:0.00000354):0.00005514):0.00109101,(((1_0_2:0.00000092,1_0_1:0.00000154):0.00000340,1_0_0:0.00000474):0.00038477,((((9_0_0:0.00000060,9_0_2:0.00000139):0.00000967,9_0_1:0.00001542):0.00021496,(((8_0_1:0.00000345,8_0_0:0.00000901):0.00002186,8_0_2:0.00002041):0.00002019,((7_0_2:0.00000188,7_0_0:0.00000101):0.00001548,7_0_1:0.00001859):0.00002902):0.00002650):0.00052529,((11_0_2:0.00000768,(11_0_1:0.00000033,11_0_0:0.00000042):0.00001958):0.00006488,((4_0_0:0.00000039,4_0_1:0.00000040):0.00000071,4_0_2:0.00000103):0.00008503):0.00059801):0.00043315):0.00001798):0.00064976):0.00219587):0.00380182,(((14_0_2:0.00001450,(14_0_0:0.00000050,14_0_1:0.00000124):0.00006364):0.00050407,((15_0_0:0.00000078,15_0_2:0.00000046):0.00001624,15_0_1:0.00001771):0.00036745):0.00057237,((16_0_2:0.00000508,16_0_0:0.00000127):0.00001254,16_0_1:0.00000841):0.00214034):0.00263803):0.00561107);
[TREE] T08 (0_0_0:0.01746020,(((((((10_0_2:0.00000503,10_0_0:0.00000752):0.00000270,10_0_1:0.00000263):0.00005896,((3_0_0:0.00000982,3_0_2:0.00000533):0.00002447,3_0_1:0.00002210):0.00013912):0.00109773,(5_0_2:0.00000176,(5_0_1:0.00000257,5_0_0:0.00000222):0.00000024):0.00108203):0.00345447,((((2_0_1:0.00000122,2_0_2:0.00000260):0.00001422,2_0_0:0.00002700):0.00005195,((13_0_0:0.00000299,13_0_1:0.00000200):0.00000111,13_0_2:0.00000207):0.00005140):0.00049060,(((1_0_0:0.00000172,1_0_2:0.00000109):0.00001244,1_0_1:0.00000786):0.00035809,(((((7_0_2:0.00000165,7_0_1:0.00000205):0.00000437,7_0_0:0.00000889):0.00009769,(8_0_1:0.00002309,(8_0_0:0.00000160,8_0_2:0.00000446):0.00000755):0.00011775):0.00010637,((9_0_2:0.00000325,9_0_0:0.00000584):0.00000949,9_0_1:0.00003430):0.00027484):0.00069972,((11_0_1:0.00002027,(11_0_2:0.00000125,11_0_0:0.00000243):0.00003957):0.00004257,(4_0_0:0.00000947,(4_0_1:0.00000664,4_0_2:0.00001014):0.00000579):0.00008316):0.00029086):0.00014148):0.00001699):0.00092502):0.00108485,(((12_0_2:0.00000095,12_0_0:0.00000034):0.00000253,12_0_1:0.00000324):0.00085066,(6_0_2:0.00001272,(6_0_0:0.00000484,6_0_1:0.00000227):0.00001083):0.00066389):0.00235154):0.00560169,((((15_0_2:0.00000013,15_0_1:0.00000006):0.00000382,15_0_0:0.00000117):0.00038052,((14_0_2:0.00000208,14_0_0:0.00000253):0.00000793,14_0_1:0.00000572):0.00046797):0.00114173,(16_0_2:0.00000929,(16_0_0:0.00000102,16_0_1:0.00000105):0.00000530):0.00164532):0.00738171):0.00708429);
[TREE] T09 (((((15_0_2:0.00000713,(15_0_1:0.00000164,15_0_0:0.00000200):0.00001647):0.00069809,((14_0_0:0.00000574,14_0_2:0.00000777):0.00000640,14_0_1:0.00002463):0.00050420):0.00059363,(16_0_0:0.00001328,(16_0_1:0.00000507,16_0_2:0.00000774):0.00000680):0.00143527):0.01335241,(((((2_0_0:0.00000335,(2_0_1:0.00000256,2_0_2:0.00000316):0.00000084):0.00002824,(13_0_1:0.00001513,(13_0_0:0.00000147,13_0_2:0.00000131):0.00001541):0.00007622):0.00048502,(((1_0_2:0.00000038,1_0_0:0.00000006):0.00000180,1_0_1:0.00000084):0.00176601,((((4_0_2:0.00000617,4_0_1:0.00000410):0.00000116,4_0_0:0.00000601):0.00015860,((11_0_1:0.00000084,11_0_0:0.00000112):0.00000523,11_0_2:0.00000844):0.00014798):0.00055386,(((8_0_0:0.00000716,(8_0_1:0.00000006,8_0_2:0.00000008):0.00000672):0.00008926,((7_0_2:0.00000599,7_0_0:0.00000380):0.00000201,7_0_1:0.00000430):0.00008535):0.00025356,(9_0_2:0.00000962,(9_0_0:0.00000179,9_0_1:0.00000648):0.00000820):0.00040301):0.00086121):0.00014591):0.00004777):0.00122472,((((3_0_0:0.00001212,3_0_2:0.00001065):0.00000488,3_0_1:0.00002092):0.00018108,(10_0_1:0.00001635,(10_0_0:0.00000086,10_0_2:0.00000110):0.00001702):0.00008162):0.00058056,(5_0_2:0.00000510,(5_0_0:0.00000061,5_0_1:0.00000038):0.00000303):0.00062032):0.00065826):0.00124423,((6_0_1:0.00001227,(6_0_2:0.00000005,6_0_0:0.00000006):0.00000990):0.00052692,(12_0_2:0.00002067,(12_0_1:0.00000507,12_0_0:0.00000150):0.00000986):0.00053183):0.00813233):0.00404426):0.00701507,0_0_0:0.01205950);
[TREE] T10 (0_0_0:0.01129482,(((((6_0_1:0.00000059,6_0_0:0.00000041):0.00001025,6_0_2:0.00001097):0.00040658,(12_0_2:0.00000933,(12_0_0:0.00000003,12_0_1:0.00000008):0.00000144):0.00057124):0.00103196,((((((9_0_1:0.00000150,(9_0_0:0.00000125,9_0_2:0.00000035):0.00000488):0.00014925,(((7_0_2:0.00000008,7_0_1:0.00000031):0.00000205,7_0_0:0.00000906):0.00009359,((8_0_0:0.00000317,8_0_2:0.00000935):0.00000327,8_0_1:0.00001542):0.00002120):0.00007496):0.00030572,(((4_0_1:0.00000329,4_0_0:0.00000218):0.00000346,4_0_2:0.00001033):0.00007972,((11_0_1:0.00000145,11_0_0:0.00000045):0.00000709,11_0_2:0.00001030):0.00006905):0.00083195):0.00036606,((1_0_1:0.00000092,1_0_2:0.00000089):0.00000403,1_0_0:0.00000468):0.00110892):0.00003911,(((2_0_2:0.00000119,2_0_0:0.00000115):0.00000534,2_0_1:0.00000852):0.00007442,(13_0_0:0.00000287,(13_0_1:0.00000260,13_0_2:0.00000302):0.00000607):0.00006464):0.00192021):0.00171504,((5_0_0:0.00001940,(5_0_2:0.00000486,5_0_1:0.00001070):0.00000300):0.00131738,(((3_0_1:0.00000145,3_0_0:0.00000368):0.00000132,3_0_2:0.00000134):0.00006194,(10_0_1:0.00001556,(10_0_0:0.00000644,10_0_2:0.00000896):0.00000594):0.00008666):0.00056969):0.00118793):0.00132738):0.00370428,((16_0_1:0.00000219,(16_0_0:0.00000231,16_0_2:0.00000186):0.00000003):0.00149553,(((15_0_2:0.00000181,15_0_0:0.00000354):0.00001318,15_0_1:0.00000732):0.00051180,((14_0_1:0.00000019,14_0_2:0.00000075):0.00002666,14_0_0:0.00001134):0.00045951):0.00081435):0.00802621):0.01859621);

[PARTITIONS] csSimUnlinked_01 [T01 csSim_unlinked_1 500]
[PARTITIONS] csSimUnlinked_02 [T02 csSim_unlinked_2 500]
[PARTITIONS] csSimUnlinked_03 [T03 csSim_unlinked_3 500]
[PARTITIONS] csSimUnlinked_04 [T04 csSim_unlinked_4 500]
[PARTITIONS] csSimUnlinked_05 [T05 csSim_unlinked_5 500]
[PARTITIONS] csSimUnlinked_06 [T06 csSim_unlinked_6 500]
[PARTITIONS] csSimUnlinked_07 [T07 csSim_unlinked_7 500]
[PARTITIONS] csSimUnlinked_08 [T08 csSim_unlinked_8 500]
[PARTITIONS] csSimUnlinked_09 [T09 csSim_unlinked_9 500]
[PARTITIONS] csSimUnlinked_10 [T10 csSim_unlinked_10 500]

[EVOLVE] csSimUnlinked_01 1 data_01
csSimUnlinked_02 1 data_02
csSimUnlinked_03 1 data_03
csSimUnlinked_04 1 data_04
csSimUnlinked_05 1 data_05
csSimUnlinked_06 1 data_06
csSimUnlinked_07 1 data_07
csSimUnlinked_08 1 data_08
csSimUnlinked_09 1 data_09
csSimUnlinked_10 1 data_10
