"","Description","Ind1","Ind2","Ind3","Ind4","Ind5","Ind6","Ind7","Ind8","Ind9","Ind10","Ind11","Ind12","Ind13","Ind14","Ind15","Ind16","Ind17","Ind18","Ind19","Ind20","Ind21","Ind22","Ind23","Ind24","Ind25","Ind26","Ind27","Ind28","Ind29","Ind30","Ind31","Ind32","Ind33","Ind34","Ind35","Ind36","Ind37","Ind38","Ind39","Ind40","Ind41","Ind42","Ind43","Ind44","Ind45","Ind46","Ind47","Ind48","Ind49","Ind50","Ind51","Ind52","Ind53","Ind54","Ind55","Ind56","Ind57","Ind58","Ind59","Ind60","Ind61","Ind62","Ind63","Ind64","Ind65","Ind66","Ind67","Ind68","Ind69","Ind70","Ind71","Ind72","Ind73","Ind74","Ind75","Ind76","Ind77","Ind78","Ind79","Ind80","Ind81","Ind82","Ind83","Ind84","Ind85","Ind86","Ind87","Ind88","Ind89","Ind90","Ind91","Ind92","Ind93","Ind94","Ind95","Ind96","Ind97","Ind98","Ind99","Ind100","Ind101","Ind102","Ind103","Ind104","Ind105","Ind106","Ind107","Ind108","Ind109","Ind110","Ind111","Ind112","Ind113","Ind114","Ind115","Ind116","Ind117","Ind118","Ind119","Ind120","Ind121","Ind122","Ind123","Ind124","Ind125","Ind126","Ind127","Ind128","Ind129","Ind130","Ind131","Ind132","Ind133","Ind134","Ind135","Ind136"
"Ind1","0_0_0",-1,0,0,0,0,0,0,0,0,0,0,0,0,0,0,0,0,0,0,0,0,0,0,0,0,0,0,0,0,0,0,0,0,0,0,0,0,0,0,0,0,0,0,0,0,0,0,0,0,0,0,0,0,0,0,0,0,0,0,0,0,0,0,0,0,0,0,0,0,0,0,0,0,0,0,0,0,0,0,0,0,0,0,0,0,0,0,0,0,0,0,0,0,0,0,0,0,0,0,0,0,0,0,0,0,0,0,0,0,0,0,0,0,0,0,0,0,0,0,0,0,0,0,0,0,0,0,0,0,0,0,0,0,0,0,0
"Ind2","7_0_3",66,-1,0,0,0,0,0,0,0,0,0,0,0,0,0,0,0,0,0,0,0,0,0,0,0,0,0,0,0,0,0,0,0,0,0,0,0,0,0,0,0,0,0,0,0,0,0,0,0,0,0,0,0,0,0,0,0,0,0,0,0,0,0,0,0,0,0,0,0,0,0,0,0,0,0,0,0,0,0,0,0,0,0,0,0,0,0,0,0,0,0,0,0,0,0,0,0,0,0,0,0,0,0,0,0,0,0,0,0,0,0,0,0,0,0,0,0,0,0,0,0,0,0,0,0,0,0,0,0,0,0,0,0,0,0,0
"Ind3","7_0_4",67,1,-1,0,0,0,0,0,0,0,0,0,0,0,0,0,0,0,0,0,0,0,0,0,0,0,0,0,0,0,0,0,0,0,0,0,0,0,0,0,0,0,0,0,0,0,0,0,0,0,0,0,0,0,0,0,0,0,0,0,0,0,0,0,0,0,0,0,0,0,0,0,0,0,0,0,0,0,0,0,0,0,0,0,0,0,0,0,0,0,0,0,0,0,0,0,0,0,0,0,0,0,0,0,0,0,0,0,0,0,0,0,0,0,0,0,0,0,0,0,0,0,0,0,0,0,0,0,0,0,0,0,0,0,0,0
"Ind4","7_0_7",66,0,1,-1,0,0,0,0,0,0,0,0,0,0,0,0,0,0,0,0,0,0,0,0,0,0,0,0,0,0,0,0,0,0,0,0,0,0,0,0,0,0,0,0,0,0,0,0,0,0,0,0,0,0,0,0,0,0,0,0,0,0,0,0,0,0,0,0,0,0,0,0,0,0,0,0,0,0,0,0,0,0,0,0,0,0,0,0,0,0,0,0,0,0,0,0,0,0,0,0,0,0,0,0,0,0,0,0,0,0,0,0,0,0,0,0,0,0,0,0,0,0,0,0,0,0,0,0,0,0,0,0,0,0,0,0
"Ind5","7_0_10",66,0,1,0,-1,0,0,0,0,0,0,0,0,0,0,0,0,0,0,0,0,0,0,0,0,0,0,0,0,0,0,0,0,0,0,0,0,0,0,0,0,0,0,0,0,0,0,0,0,0,0,0,0,0,0,0,0,0,0,0,0,0,0,0,0,0,0,0,0,0,0,0,0,0,0,0,0,0,0,0,0,0,0,0,0,0,0,0,0,0,0,0,0,0,0,0,0,0,0,0,0,0,0,0,0,0,0,0,0,0,0,0,0,0,0,0,0,0,0,0,0,0,0,0,0,0,0,0,0,0,0,0,0,0,0,0
"Ind6","7_0_2",66,0,1,0,0,-1,0,0,0,0,0,0,0,0,0,0,0,0,0,0,0,0,0,0,0,0,0,0,0,0,0,0,0,0,0,0,0,0,0,0,0,0,0,0,0,0,0,0,0,0,0,0,0,0,0,0,0,0,0,0,0,0,0,0,0,0,0,0,0,0,0,0,0,0,0,0,0,0,0,0,0,0,0,0,0,0,0,0,0,0,0,0,0,0,0,0,0,0,0,0,0,0,0,0,0,0,0,0,0,0,0,0,0,0,0,0,0,0,0,0,0,0,0,0,0,0,0,0,0,0,0,0,0,0,0,0
"Ind7","7_0_0",66,0,1,0,0,0,-1,0,0,0,0,0,0,0,0,0,0,0,0,0,0,0,0,0,0,0,0,0,0,0,0,0,0,0,0,0,0,0,0,0,0,0,0,0,0,0,0,0,0,0,0,0,0,0,0,0,0,0,0,0,0,0,0,0,0,0,0,0,0,0,0,0,0,0,0,0,0,0,0,0,0,0,0,0,0,0,0,0,0,0,0,0,0,0,0,0,0,0,0,0,0,0,0,0,0,0,0,0,0,0,0,0,0,0,0,0,0,0,0,0,0,0,0,0,0,0,0,0,0,0,0,0,0,0,0,0
"Ind8","7_0_5",65,1,2,1,1,1,1,-1,0,0,0,0,0,0,0,0,0,0,0,0,0,0,0,0,0,0,0,0,0,0,0,0,0,0,0,0,0,0,0,0,0,0,0,0,0,0,0,0,0,0,0,0,0,0,0,0,0,0,0,0,0,0,0,0,0,0,0,0,0,0,0,0,0,0,0,0,0,0,0,0,0,0,0,0,0,0,0,0,0,0,0,0,0,0,0,0,0,0,0,0,0,0,0,0,0,0,0,0,0,0,0,0,0,0,0,0,0,0,0,0,0,0,0,0,0,0,0,0,0,0,0,0,0,0,0,0
"Ind9","7_0_8",65,1,2,1,1,1,1,0,-1,0,0,0,0,0,0,0,0,0,0,0,0,0,0,0,0,0,0,0,0,0,0,0,0,0,0,0,0,0,0,0,0,0,0,0,0,0,0,0,0,0,0,0,0,0,0,0,0,0,0,0,0,0,0,0,0,0,0,0,0,0,0,0,0,0,0,0,0,0,0,0,0,0,0,0,0,0,0,0,0,0,0,0,0,0,0,0,0,0,0,0,0,0,0,0,0,0,0,0,0,0,0,0,0,0,0,0,0,0,0,0,0,0,0,0,0,0,0,0,0,0,0,0,0,0,0,0
"Ind10","7_0_6",65,1,2,1,1,1,1,0,0,-1,0,0,0,0,0,0,0,0,0,0,0,0,0,0,0,0,0,0,0,0,0,0,0,0,0,0,0,0,0,0,0,0,0,0,0,0,0,0,0,0,0,0,0,0,0,0,0,0,0,0,0,0,0,0,0,0,0,0,0,0,0,0,0,0,0,0,0,0,0,0,0,0,0,0,0,0,0,0,0,0,0,0,0,0,0,0,0,0,0,0,0,0,0,0,0,0,0,0,0,0,0,0,0,0,0,0,0,0,0,0,0,0,0,0,0,0,0,0,0,0,0,0,0,0,0,0
"Ind11","7_0_11",65,1,2,1,1,1,1,0,0,0,-1,0,0,0,0,0,0,0,0,0,0,0,0,0,0,0,0,0,0,0,0,0,0,0,0,0,0,0,0,0,0,0,0,0,0,0,0,0,0,0,0,0,0,0,0,0,0,0,0,0,0,0,0,0,0,0,0,0,0,0,0,0,0,0,0,0,0,0,0,0,0,0,0,0,0,0,0,0,0,0,0,0,0,0,0,0,0,0,0,0,0,0,0,0,0,0,0,0,0,0,0,0,0,0,0,0,0,0,0,0,0,0,0,0,0,0,0,0,0,0,0,0,0,0,0,0
"Ind12","7_0_1",65,1,2,1,1,1,1,0,0,0,0,-1,0,0,0,0,0,0,0,0,0,0,0,0,0,0,0,0,0,0,0,0,0,0,0,0,0,0,0,0,0,0,0,0,0,0,0,0,0,0,0,0,0,0,0,0,0,0,0,0,0,0,0,0,0,0,0,0,0,0,0,0,0,0,0,0,0,0,0,0,0,0,0,0,0,0,0,0,0,0,0,0,0,0,0,0,0,0,0,0,0,0,0,0,0,0,0,0,0,0,0,0,0,0,0,0,0,0,0,0,0,0,0,0,0,0,0,0,0,0,0,0,0,0,0,0
"Ind13","7_0_9",65,1,2,1,1,1,1,0,0,0,0,0,-1,0,0,0,0,0,0,0,0,0,0,0,0,0,0,0,0,0,0,0,0,0,0,0,0,0,0,0,0,0,0,0,0,0,0,0,0,0,0,0,0,0,0,0,0,0,0,0,0,0,0,0,0,0,0,0,0,0,0,0,0,0,0,0,0,0,0,0,0,0,0,0,0,0,0,0,0,0,0,0,0,0,0,0,0,0,0,0,0,0,0,0,0,0,0,0,0,0,0,0,0,0,0,0,0,0,0,0,0,0,0,0,0,0,0,0,0,0,0,0,0,0,0,0
"Ind14","7_0_14",65,1,2,1,1,1,1,0,0,0,0,0,0,-1,0,0,0,0,0,0,0,0,0,0,0,0,0,0,0,0,0,0,0,0,0,0,0,0,0,0,0,0,0,0,0,0,0,0,0,0,0,0,0,0,0,0,0,0,0,0,0,0,0,0,0,0,0,0,0,0,0,0,0,0,0,0,0,0,0,0,0,0,0,0,0,0,0,0,0,0,0,0,0,0,0,0,0,0,0,0,0,0,0,0,0,0,0,0,0,0,0,0,0,0,0,0,0,0,0,0,0,0,0,0,0,0,0,0,0,0,0,0,0,0,0,0
"Ind15","7_0_12",65,1,2,1,1,1,1,0,0,0,0,0,0,0,-1,0,0,0,0,0,0,0,0,0,0,0,0,0,0,0,0,0,0,0,0,0,0,0,0,0,0,0,0,0,0,0,0,0,0,0,0,0,0,0,0,0,0,0,0,0,0,0,0,0,0,0,0,0,0,0,0,0,0,0,0,0,0,0,0,0,0,0,0,0,0,0,0,0,0,0,0,0,0,0,0,0,0,0,0,0,0,0,0,0,0,0,0,0,0,0,0,0,0,0,0,0,0,0,0,0,0,0,0,0,0,0,0,0,0,0,0,0,0,0,0,0
"Ind16","7_0_13",65,1,2,1,1,1,1,0,0,0,0,0,0,0,0,-1,0,0,0,0,0,0,0,0,0,0,0,0,0,0,0,0,0,0,0,0,0,0,0,0,0,0,0,0,0,0,0,0,0,0,0,0,0,0,0,0,0,0,0,0,0,0,0,0,0,0,0,0,0,0,0,0,0,0,0,0,0,0,0,0,0,0,0,0,0,0,0,0,0,0,0,0,0,0,0,0,0,0,0,0,0,0,0,0,0,0,0,0,0,0,0,0,0,0,0,0,0,0,0,0,0,0,0,0,0,0,0,0,0,0,0,0,0,0,0,0
"Ind17","9_0_11",66,6,7,6,6,6,6,5,5,5,5,5,5,5,5,5,-1,0,0,0,0,0,0,0,0,0,0,0,0,0,0,0,0,0,0,0,0,0,0,0,0,0,0,0,0,0,0,0,0,0,0,0,0,0,0,0,0,0,0,0,0,0,0,0,0,0,0,0,0,0,0,0,0,0,0,0,0,0,0,0,0,0,0,0,0,0,0,0,0,0,0,0,0,0,0,0,0,0,0,0,0,0,0,0,0,0,0,0,0,0,0,0,0,0,0,0,0,0,0,0,0,0,0,0,0,0,0,0,0,0,0,0,0,0,0,0
"Ind18","9_0_7",66,6,7,6,6,6,6,5,5,5,5,5,5,5,5,5,0,-1,0,0,0,0,0,0,0,0,0,0,0,0,0,0,0,0,0,0,0,0,0,0,0,0,0,0,0,0,0,0,0,0,0,0,0,0,0,0,0,0,0,0,0,0,0,0,0,0,0,0,0,0,0,0,0,0,0,0,0,0,0,0,0,0,0,0,0,0,0,0,0,0,0,0,0,0,0,0,0,0,0,0,0,0,0,0,0,0,0,0,0,0,0,0,0,0,0,0,0,0,0,0,0,0,0,0,0,0,0,0,0,0,0,0,0,0,0,0
"Ind19","9_0_6",66,6,7,6,6,6,6,5,5,5,5,5,5,5,5,5,0,0,-1,0,0,0,0,0,0,0,0,0,0,0,0,0,0,0,0,0,0,0,0,0,0,0,0,0,0,0,0,0,0,0,0,0,0,0,0,0,0,0,0,0,0,0,0,0,0,0,0,0,0,0,0,0,0,0,0,0,0,0,0,0,0,0,0,0,0,0,0,0,0,0,0,0,0,0,0,0,0,0,0,0,0,0,0,0,0,0,0,0,0,0,0,0,0,0,0,0,0,0,0,0,0,0,0,0,0,0,0,0,0,0,0,0,0,0,0,0
"Ind20","9_0_8",66,6,7,6,6,6,6,5,5,5,5,5,5,5,5,5,0,0,0,-1,0,0,0,0,0,0,0,0,0,0,0,0,0,0,0,0,0,0,0,0,0,0,0,0,0,0,0,0,0,0,0,0,0,0,0,0,0,0,0,0,0,0,0,0,0,0,0,0,0,0,0,0,0,0,0,0,0,0,0,0,0,0,0,0,0,0,0,0,0,0,0,0,0,0,0,0,0,0,0,0,0,0,0,0,0,0,0,0,0,0,0,0,0,0,0,0,0,0,0,0,0,0,0,0,0,0,0,0,0,0,0,0,0,0,0,0
"Ind21","9_0_4",66,6,7,6,6,6,6,5,5,5,5,5,5,5,5,5,0,0,0,0,-1,0,0,0,0,0,0,0,0,0,0,0,0,0,0,0,0,0,0,0,0,0,0,0,0,0,0,0,0,0,0,0,0,0,0,0,0,0,0,0,0,0,0,0,0,0,0,0,0,0,0,0,0,0,0,0,0,0,0,0,0,0,0,0,0,0,0,0,0,0,0,0,0,0,0,0,0,0,0,0,0,0,0,0,0,0,0,0,0,0,0,0,0,0,0,0,0,0,0,0,0,0,0,0,0,0,0,0,0,0,0,0,0,0,0,0
"Ind22","9_0_13",65,5,6,5,5,5,5,4,4,4,4,4,4,4,4,4,1,1,1,1,1,-1,0,0,0,0,0,0,0,0,0,0,0,0,0,0,0,0,0,0,0,0,0,0,0,0,0,0,0,0,0,0,0,0,0,0,0,0,0,0,0,0,0,0,0,0,0,0,0,0,0,0,0,0,0,0,0,0,0,0,0,0,0,0,0,0,0,0,0,0,0,0,0,0,0,0,0,0,0,0,0,0,0,0,0,0,0,0,0,0,0,0,0,0,0,0,0,0,0,0,0,0,0,0,0,0,0,0,0,0,0,0,0,0,0,0
"Ind23","9_0_2",65,5,6,5,5,5,5,4,4,4,4,4,4,4,4,4,1,1,1,1,1,0,-1,0,0,0,0,0,0,0,0,0,0,0,0,0,0,0,0,0,0,0,0,0,0,0,0,0,0,0,0,0,0,0,0,0,0,0,0,0,0,0,0,0,0,0,0,0,0,0,0,0,0,0,0,0,0,0,0,0,0,0,0,0,0,0,0,0,0,0,0,0,0,0,0,0,0,0,0,0,0,0,0,0,0,0,0,0,0,0,0,0,0,0,0,0,0,0,0,0,0,0,0,0,0,0,0,0,0,0,0,0,0,0,0,0
"Ind24","9_0_12",65,5,6,5,5,5,5,4,4,4,4,4,4,4,4,4,1,1,1,1,1,0,0,-1,0,0,0,0,0,0,0,0,0,0,0,0,0,0,0,0,0,0,0,0,0,0,0,0,0,0,0,0,0,0,0,0,0,0,0,0,0,0,0,0,0,0,0,0,0,0,0,0,0,0,0,0,0,0,0,0,0,0,0,0,0,0,0,0,0,0,0,0,0,0,0,0,0,0,0,0,0,0,0,0,0,0,0,0,0,0,0,0,0,0,0,0,0,0,0,0,0,0,0,0,0,0,0,0,0,0,0,0,0,0,0,0
"Ind25","9_0_5",65,5,6,5,5,5,5,4,4,4,4,4,4,4,4,4,1,1,1,1,1,0,0,0,-1,0,0,0,0,0,0,0,0,0,0,0,0,0,0,0,0,0,0,0,0,0,0,0,0,0,0,0,0,0,0,0,0,0,0,0,0,0,0,0,0,0,0,0,0,0,0,0,0,0,0,0,0,0,0,0,0,0,0,0,0,0,0,0,0,0,0,0,0,0,0,0,0,0,0,0,0,0,0,0,0,0,0,0,0,0,0,0,0,0,0,0,0,0,0,0,0,0,0,0,0,0,0,0,0,0,0,0,0,0,0,0
"Ind26","9_0_1",65,5,6,5,5,5,5,4,4,4,4,4,4,4,4,4,1,1,1,1,1,0,0,0,0,-1,0,0,0,0,0,0,0,0,0,0,0,0,0,0,0,0,0,0,0,0,0,0,0,0,0,0,0,0,0,0,0,0,0,0,0,0,0,0,0,0,0,0,0,0,0,0,0,0,0,0,0,0,0,0,0,0,0,0,0,0,0,0,0,0,0,0,0,0,0,0,0,0,0,0,0,0,0,0,0,0,0,0,0,0,0,0,0,0,0,0,0,0,0,0,0,0,0,0,0,0,0,0,0,0,0,0,0,0,0,0
"Ind27","9_0_9",65,5,6,5,5,5,5,4,4,4,4,4,4,4,4,4,1,1,1,1,1,0,0,0,0,0,-1,0,0,0,0,0,0,0,0,0,0,0,0,0,0,0,0,0,0,0,0,0,0,0,0,0,0,0,0,0,0,0,0,0,0,0,0,0,0,0,0,0,0,0,0,0,0,0,0,0,0,0,0,0,0,0,0,0,0,0,0,0,0,0,0,0,0,0,0,0,0,0,0,0,0,0,0,0,0,0,0,0,0,0,0,0,0,0,0,0,0,0,0,0,0,0,0,0,0,0,0,0,0,0,0,0,0,0,0,0
"Ind28","9_0_0",66,6,7,6,6,6,6,5,5,5,5,5,5,5,5,5,2,2,2,2,2,1,1,1,1,1,1,-1,0,0,0,0,0,0,0,0,0,0,0,0,0,0,0,0,0,0,0,0,0,0,0,0,0,0,0,0,0,0,0,0,0,0,0,0,0,0,0,0,0,0,0,0,0,0,0,0,0,0,0,0,0,0,0,0,0,0,0,0,0,0,0,0,0,0,0,0,0,0,0,0,0,0,0,0,0,0,0,0,0,0,0,0,0,0,0,0,0,0,0,0,0,0,0,0,0,0,0,0,0,0,0,0,0,0,0,0
"Ind29","9_0_14",65,5,6,5,5,5,5,4,4,4,4,4,4,4,4,4,1,1,1,1,1,0,0,0,0,0,0,1,-1,0,0,0,0,0,0,0,0,0,0,0,0,0,0,0,0,0,0,0,0,0,0,0,0,0,0,0,0,0,0,0,0,0,0,0,0,0,0,0,0,0,0,0,0,0,0,0,0,0,0,0,0,0,0,0,0,0,0,0,0,0,0,0,0,0,0,0,0,0,0,0,0,0,0,0,0,0,0,0,0,0,0,0,0,0,0,0,0,0,0,0,0,0,0,0,0,0,0,0,0,0,0,0,0,0,0,0
"Ind30","9_0_10",65,5,6,5,5,5,5,4,4,4,4,4,4,4,4,4,1,1,1,1,1,0,0,0,0,0,0,1,0,-1,0,0,0,0,0,0,0,0,0,0,0,0,0,0,0,0,0,0,0,0,0,0,0,0,0,0,0,0,0,0,0,0,0,0,0,0,0,0,0,0,0,0,0,0,0,0,0,0,0,0,0,0,0,0,0,0,0,0,0,0,0,0,0,0,0,0,0,0,0,0,0,0,0,0,0,0,0,0,0,0,0,0,0,0,0,0,0,0,0,0,0,0,0,0,0,0,0,0,0,0,0,0,0,0,0,0
"Ind31","9_0_3",65,5,6,5,5,5,5,4,4,4,4,4,4,4,4,4,1,1,1,1,1,0,0,0,0,0,0,1,0,0,-1,0,0,0,0,0,0,0,0,0,0,0,0,0,0,0,0,0,0,0,0,0,0,0,0,0,0,0,0,0,0,0,0,0,0,0,0,0,0,0,0,0,0,0,0,0,0,0,0,0,0,0,0,0,0,0,0,0,0,0,0,0,0,0,0,0,0,0,0,0,0,0,0,0,0,0,0,0,0,0,0,0,0,0,0,0,0,0,0,0,0,0,0,0,0,0,0,0,0,0,0,0,0,0,0,0
"Ind32","8_0_5",66,10,11,10,10,10,10,9,9,9,9,9,9,9,9,9,8,8,8,8,8,7,7,7,7,7,7,8,7,7,7,-1,0,0,0,0,0,0,0,0,0,0,0,0,0,0,0,0,0,0,0,0,0,0,0,0,0,0,0,0,0,0,0,0,0,0,0,0,0,0,0,0,0,0,0,0,0,0,0,0,0,0,0,0,0,0,0,0,0,0,0,0,0,0,0,0,0,0,0,0,0,0,0,0,0,0,0,0,0,0,0,0,0,0,0,0,0,0,0,0,0,0,0,0,0,0,0,0,0,0,0,0,0,0,0,0
"Ind33","8_0_14",66,10,11,10,10,10,10,9,9,9,9,9,9,9,9,9,8,8,8,8,8,7,7,7,7,7,7,8,7,7,7,0,-1,0,0,0,0,0,0,0,0,0,0,0,0,0,0,0,0,0,0,0,0,0,0,0,0,0,0,0,0,0,0,0,0,0,0,0,0,0,0,0,0,0,0,0,0,0,0,0,0,0,0,0,0,0,0,0,0,0,0,0,0,0,0,0,0,0,0,0,0,0,0,0,0,0,0,0,0,0,0,0,0,0,0,0,0,0,0,0,0,0,0,0,0,0,0,0,0,0,0,0,0,0,0,0
"Ind34","8_0_1",66,10,11,10,10,10,10,9,9,9,9,9,9,9,9,9,8,8,8,8,8,7,7,7,7,7,7,8,7,7,7,0,0,-1,0,0,0,0,0,0,0,0,0,0,0,0,0,0,0,0,0,0,0,0,0,0,0,0,0,0,0,0,0,0,0,0,0,0,0,0,0,0,0,0,0,0,0,0,0,0,0,0,0,0,0,0,0,0,0,0,0,0,0,0,0,0,0,0,0,0,0,0,0,0,0,0,0,0,0,0,0,0,0,0,0,0,0,0,0,0,0,0,0,0,0,0,0,0,0,0,0,0,0,0,0,0
"Ind35","8_0_11",66,10,11,10,10,10,10,9,9,9,9,9,9,9,9,9,8,8,8,8,8,7,7,7,7,7,7,8,7,7,7,0,0,0,-1,0,0,0,0,0,0,0,0,0,0,0,0,0,0,0,0,0,0,0,0,0,0,0,0,0,0,0,0,0,0,0,0,0,0,0,0,0,0,0,0,0,0,0,0,0,0,0,0,0,0,0,0,0,0,0,0,0,0,0,0,0,0,0,0,0,0,0,0,0,0,0,0,0,0,0,0,0,0,0,0,0,0,0,0,0,0,0,0,0,0,0,0,0,0,0,0,0,0,0,0,0
"Ind36","8_0_6",66,10,11,10,10,10,10,9,9,9,9,9,9,9,9,9,8,8,8,8,8,7,7,7,7,7,7,8,7,7,7,0,0,0,0,-1,0,0,0,0,0,0,0,0,0,0,0,0,0,0,0,0,0,0,0,0,0,0,0,0,0,0,0,0,0,0,0,0,0,0,0,0,0,0,0,0,0,0,0,0,0,0,0,0,0,0,0,0,0,0,0,0,0,0,0,0,0,0,0,0,0,0,0,0,0,0,0,0,0,0,0,0,0,0,0,0,0,0,0,0,0,0,0,0,0,0,0,0,0,0,0,0,0,0,0,0
"Ind37","8_0_10",66,10,11,10,10,10,10,9,9,9,9,9,9,9,9,9,8,8,8,8,8,7,7,7,7,7,7,8,7,7,7,0,0,0,0,0,-1,0,0,0,0,0,0,0,0,0,0,0,0,0,0,0,0,0,0,0,0,0,0,0,0,0,0,0,0,0,0,0,0,0,0,0,0,0,0,0,0,0,0,0,0,0,0,0,0,0,0,0,0,0,0,0,0,0,0,0,0,0,0,0,0,0,0,0,0,0,0,0,0,0,0,0,0,0,0,0,0,0,0,0,0,0,0,0,0,0,0,0,0,0,0,0,0,0,0,0
"Ind38","8_0_2",66,10,11,10,10,10,10,9,9,9,9,9,9,9,9,9,8,8,8,8,8,7,7,7,7,7,7,8,7,7,7,0,0,0,0,0,0,-1,0,0,0,0,0,0,0,0,0,0,0,0,0,0,0,0,0,0,0,0,0,0,0,0,0,0,0,0,0,0,0,0,0,0,0,0,0,0,0,0,0,0,0,0,0,0,0,0,0,0,0,0,0,0,0,0,0,0,0,0,0,0,0,0,0,0,0,0,0,0,0,0,0,0,0,0,0,0,0,0,0,0,0,0,0,0,0,0,0,0,0,0,0,0,0,0,0,0
"Ind39","8_0_4",66,10,11,10,10,10,10,9,9,9,9,9,9,9,9,9,8,8,8,8,8,7,7,7,7,7,7,8,7,7,7,0,0,0,0,0,0,0,-1,0,0,0,0,0,0,0,0,0,0,0,0,0,0,0,0,0,0,0,0,0,0,0,0,0,0,0,0,0,0,0,0,0,0,0,0,0,0,0,0,0,0,0,0,0,0,0,0,0,0,0,0,0,0,0,0,0,0,0,0,0,0,0,0,0,0,0,0,0,0,0,0,0,0,0,0,0,0,0,0,0,0,0,0,0,0,0,0,0,0,0,0,0,0,0,0,0
"Ind40","8_0_9",66,10,11,10,10,10,10,9,9,9,9,9,9,9,9,9,8,8,8,8,8,7,7,7,7,7,7,8,7,7,7,0,0,0,0,0,0,0,0,-1,0,0,0,0,0,0,0,0,0,0,0,0,0,0,0,0,0,0,0,0,0,0,0,0,0,0,0,0,0,0,0,0,0,0,0,0,0,0,0,0,0,0,0,0,0,0,0,0,0,0,0,0,0,0,0,0,0,0,0,0,0,0,0,0,0,0,0,0,0,0,0,0,0,0,0,0,0,0,0,0,0,0,0,0,0,0,0,0,0,0,0,0,0,0,0,0
"Ind41","8_0_8",66,10,11,10,10,10,10,9,9,9,9,9,9,9,9,9,8,8,8,8,8,7,7,7,7,7,7,8,7,7,7,0,0,0,0,0,0,0,0,0,-1,0,0,0,0,0,0,0,0,0,0,0,0,0,0,0,0,0,0,0,0,0,0,0,0,0,0,0,0,0,0,0,0,0,0,0,0,0,0,0,0,0,0,0,0,0,0,0,0,0,0,0,0,0,0,0,0,0,0,0,0,0,0,0,0,0,0,0,0,0,0,0,0,0,0,0,0,0,0,0,0,0,0,0,0,0,0,0,0,0,0,0,0,0,0,0
"Ind42","8_0_7",66,10,11,10,10,10,10,9,9,9,9,9,9,9,9,9,8,8,8,8,8,7,7,7,7,7,7,8,7,7,7,0,0,0,0,0,0,0,0,0,0,-1,0,0,0,0,0,0,0,0,0,0,0,0,0,0,0,0,0,0,0,0,0,0,0,0,0,0,0,0,0,0,0,0,0,0,0,0,0,0,0,0,0,0,0,0,0,0,0,0,0,0,0,0,0,0,0,0,0,0,0,0,0,0,0,0,0,0,0,0,0,0,0,0,0,0,0,0,0,0,0,0,0,0,0,0,0,0,0,0,0,0,0,0,0,0
"Ind43","8_0_3",66,10,11,10,10,10,10,9,9,9,9,9,9,9,9,9,8,8,8,8,8,7,7,7,7,7,7,8,7,7,7,0,0,0,0,0,0,0,0,0,0,0,-1,0,0,0,0,0,0,0,0,0,0,0,0,0,0,0,0,0,0,0,0,0,0,0,0,0,0,0,0,0,0,0,0,0,0,0,0,0,0,0,0,0,0,0,0,0,0,0,0,0,0,0,0,0,0,0,0,0,0,0,0,0,0,0,0,0,0,0,0,0,0,0,0,0,0,0,0,0,0,0,0,0,0,0,0,0,0,0,0,0,0,0,0,0
"Ind44","8_0_13",66,10,11,10,10,10,10,9,9,9,9,9,9,9,9,9,8,8,8,8,8,7,7,7,7,7,7,8,7,7,7,0,0,0,0,0,0,0,0,0,0,0,0,-1,0,0,0,0,0,0,0,0,0,0,0,0,0,0,0,0,0,0,0,0,0,0,0,0,0,0,0,0,0,0,0,0,0,0,0,0,0,0,0,0,0,0,0,0,0,0,0,0,0,0,0,0,0,0,0,0,0,0,0,0,0,0,0,0,0,0,0,0,0,0,0,0,0,0,0,0,0,0,0,0,0,0,0,0,0,0,0,0,0,0,0,0
"Ind45","8_0_0",66,10,11,10,10,10,10,9,9,9,9,9,9,9,9,9,8,8,8,8,8,7,7,7,7,7,7,8,7,7,7,0,0,0,0,0,0,0,0,0,0,0,0,0,-1,0,0,0,0,0,0,0,0,0,0,0,0,0,0,0,0,0,0,0,0,0,0,0,0,0,0,0,0,0,0,0,0,0,0,0,0,0,0,0,0,0,0,0,0,0,0,0,0,0,0,0,0,0,0,0,0,0,0,0,0,0,0,0,0,0,0,0,0,0,0,0,0,0,0,0,0,0,0,0,0,0,0,0,0,0,0,0,0,0,0,0
"Ind46","8_0_12",66,10,11,10,10,10,10,9,9,9,9,9,9,9,9,9,8,8,8,8,8,7,7,7,7,7,7,8,7,7,7,0,0,0,0,0,0,0,0,0,0,0,0,0,0,-1,0,0,0,0,0,0,0,0,0,0,0,0,0,0,0,0,0,0,0,0,0,0,0,0,0,0,0,0,0,0,0,0,0,0,0,0,0,0,0,0,0,0,0,0,0,0,0,0,0,0,0,0,0,0,0,0,0,0,0,0,0,0,0,0,0,0,0,0,0,0,0,0,0,0,0,0,0,0,0,0,0,0,0,0,0,0,0,0,0,0
"Ind47","5_0_14",108,78,77,78,78,78,78,77,77,77,77,77,77,77,77,77,78,78,78,78,78,77,77,77,77,77,77,78,77,77,77,76,76,76,76,76,76,76,76,76,76,76,76,76,76,76,-1,0,0,0,0,0,0,0,0,0,0,0,0,0,0,0,0,0,0,0,0,0,0,0,0,0,0,0,0,0,0,0,0,0,0,0,0,0,0,0,0,0,0,0,0,0,0,0,0,0,0,0,0,0,0,0,0,0,0,0,0,0,0,0,0,0,0,0,0,0,0,0,0,0,0,0,0,0,0,0,0,0,0,0,0,0,0,0,0,0
"Ind48","5_0_3",108,78,77,78,78,78,78,77,77,77,77,77,77,77,77,77,78,78,78,78,78,77,77,77,77,77,77,78,77,77,77,76,76,76,76,76,76,76,76,76,76,76,76,76,76,76,0,-1,0,0,0,0,0,0,0,0,0,0,0,0,0,0,0,0,0,0,0,0,0,0,0,0,0,0,0,0,0,0,0,0,0,0,0,0,0,0,0,0,0,0,0,0,0,0,0,0,0,0,0,0,0,0,0,0,0,0,0,0,0,0,0,0,0,0,0,0,0,0,0,0,0,0,0,0,0,0,0,0,0,0,0,0,0,0,0,0
"Ind49","5_0_2",108,78,77,78,78,78,78,77,77,77,77,77,77,77,77,77,78,78,78,78,78,77,77,77,77,77,77,78,77,77,77,76,76,76,76,76,76,76,76,76,76,76,76,76,76,76,0,0,-1,0,0,0,0,0,0,0,0,0,0,0,0,0,0,0,0,0,0,0,0,0,0,0,0,0,0,0,0,0,0,0,0,0,0,0,0,0,0,0,0,0,0,0,0,0,0,0,0,0,0,0,0,0,0,0,0,0,0,0,0,0,0,0,0,0,0,0,0,0,0,0,0,0,0,0,0,0,0,0,0,0,0,0,0,0,0,0
"Ind50","5_0_1",108,78,77,78,78,78,78,77,77,77,77,77,77,77,77,77,78,78,78,78,78,77,77,77,77,77,77,78,77,77,77,76,76,76,76,76,76,76,76,76,76,76,76,76,76,76,0,0,0,-1,0,0,0,0,0,0,0,0,0,0,0,0,0,0,0,0,0,0,0,0,0,0,0,0,0,0,0,0,0,0,0,0,0,0,0,0,0,0,0,0,0,0,0,0,0,0,0,0,0,0,0,0,0,0,0,0,0,0,0,0,0,0,0,0,0,0,0,0,0,0,0,0,0,0,0,0,0,0,0,0,0,0,0,0,0,0
"Ind51","5_0_5",108,78,77,78,78,78,78,77,77,77,77,77,77,77,77,77,78,78,78,78,78,77,77,77,77,77,77,78,77,77,77,76,76,76,76,76,76,76,76,76,76,76,76,76,76,76,0,0,0,0,-1,0,0,0,0,0,0,0,0,0,0,0,0,0,0,0,0,0,0,0,0,0,0,0,0,0,0,0,0,0,0,0,0,0,0,0,0,0,0,0,0,0,0,0,0,0,0,0,0,0,0,0,0,0,0,0,0,0,0,0,0,0,0,0,0,0,0,0,0,0,0,0,0,0,0,0,0,0,0,0,0,0,0,0,0,0
"Ind52","5_0_12",108,78,77,78,78,78,78,77,77,77,77,77,77,77,77,77,78,78,78,78,78,77,77,77,77,77,77,78,77,77,77,76,76,76,76,76,76,76,76,76,76,76,76,76,76,76,0,0,0,0,0,-1,0,0,0,0,0,0,0,0,0,0,0,0,0,0,0,0,0,0,0,0,0,0,0,0,0,0,0,0,0,0,0,0,0,0,0,0,0,0,0,0,0,0,0,0,0,0,0,0,0,0,0,0,0,0,0,0,0,0,0,0,0,0,0,0,0,0,0,0,0,0,0,0,0,0,0,0,0,0,0,0,0,0,0,0
"Ind53","5_0_8",108,78,77,78,78,78,78,77,77,77,77,77,77,77,77,77,78,78,78,78,78,77,77,77,77,77,77,78,77,77,77,76,76,76,76,76,76,76,76,76,76,76,76,76,76,76,0,0,0,0,0,0,-1,0,0,0,0,0,0,0,0,0,0,0,0,0,0,0,0,0,0,0,0,0,0,0,0,0,0,0,0,0,0,0,0,0,0,0,0,0,0,0,0,0,0,0,0,0,0,0,0,0,0,0,0,0,0,0,0,0,0,0,0,0,0,0,0,0,0,0,0,0,0,0,0,0,0,0,0,0,0,0,0,0,0,0
"Ind54","5_0_13",108,78,77,78,78,78,78,77,77,77,77,77,77,77,77,77,78,78,78,78,78,77,77,77,77,77,77,78,77,77,77,76,76,76,76,76,76,76,76,76,76,76,76,76,76,76,0,0,0,0,0,0,0,-1,0,0,0,0,0,0,0,0,0,0,0,0,0,0,0,0,0,0,0,0,0,0,0,0,0,0,0,0,0,0,0,0,0,0,0,0,0,0,0,0,0,0,0,0,0,0,0,0,0,0,0,0,0,0,0,0,0,0,0,0,0,0,0,0,0,0,0,0,0,0,0,0,0,0,0,0,0,0,0,0,0,0
"Ind55","5_0_7",108,78,77,78,78,78,78,77,77,77,77,77,77,77,77,77,78,78,78,78,78,77,77,77,77,77,77,78,77,77,77,76,76,76,76,76,76,76,76,76,76,76,76,76,76,76,0,0,0,0,0,0,0,0,-1,0,0,0,0,0,0,0,0,0,0,0,0,0,0,0,0,0,0,0,0,0,0,0,0,0,0,0,0,0,0,0,0,0,0,0,0,0,0,0,0,0,0,0,0,0,0,0,0,0,0,0,0,0,0,0,0,0,0,0,0,0,0,0,0,0,0,0,0,0,0,0,0,0,0,0,0,0,0,0,0,0
"Ind56","5_0_0",108,78,77,78,78,78,78,77,77,77,77,77,77,77,77,77,78,78,78,78,78,77,77,77,77,77,77,78,77,77,77,76,76,76,76,76,76,76,76,76,76,76,76,76,76,76,0,0,0,0,0,0,0,0,0,-1,0,0,0,0,0,0,0,0,0,0,0,0,0,0,0,0,0,0,0,0,0,0,0,0,0,0,0,0,0,0,0,0,0,0,0,0,0,0,0,0,0,0,0,0,0,0,0,0,0,0,0,0,0,0,0,0,0,0,0,0,0,0,0,0,0,0,0,0,0,0,0,0,0,0,0,0,0,0,0,0
"Ind57","5_0_4",108,78,77,78,78,78,78,77,77,77,77,77,77,77,77,77,78,78,78,78,78,77,77,77,77,77,77,78,77,77,77,76,76,76,76,76,76,76,76,76,76,76,76,76,76,76,0,0,0,0,0,0,0,0,0,0,-1,0,0,0,0,0,0,0,0,0,0,0,0,0,0,0,0,0,0,0,0,0,0,0,0,0,0,0,0,0,0,0,0,0,0,0,0,0,0,0,0,0,0,0,0,0,0,0,0,0,0,0,0,0,0,0,0,0,0,0,0,0,0,0,0,0,0,0,0,0,0,0,0,0,0,0,0,0,0,0
"Ind58","5_0_6",108,78,77,78,78,78,78,77,77,77,77,77,77,77,77,77,78,78,78,78,78,77,77,77,77,77,77,78,77,77,77,76,76,76,76,76,76,76,76,76,76,76,76,76,76,76,0,0,0,0,0,0,0,0,0,0,0,-1,0,0,0,0,0,0,0,0,0,0,0,0,0,0,0,0,0,0,0,0,0,0,0,0,0,0,0,0,0,0,0,0,0,0,0,0,0,0,0,0,0,0,0,0,0,0,0,0,0,0,0,0,0,0,0,0,0,0,0,0,0,0,0,0,0,0,0,0,0,0,0,0,0,0,0,0,0,0
"Ind59","5_0_9",108,78,77,78,78,78,78,77,77,77,77,77,77,77,77,77,78,78,78,78,78,77,77,77,77,77,77,78,77,77,77,76,76,76,76,76,76,76,76,76,76,76,76,76,76,76,0,0,0,0,0,0,0,0,0,0,0,0,-1,0,0,0,0,0,0,0,0,0,0,0,0,0,0,0,0,0,0,0,0,0,0,0,0,0,0,0,0,0,0,0,0,0,0,0,0,0,0,0,0,0,0,0,0,0,0,0,0,0,0,0,0,0,0,0,0,0,0,0,0,0,0,0,0,0,0,0,0,0,0,0,0,0,0,0,0,0
"Ind60","5_0_11",108,78,77,78,78,78,78,77,77,77,77,77,77,77,77,77,78,78,78,78,78,77,77,77,77,77,77,78,77,77,77,76,76,76,76,76,76,76,76,76,76,76,76,76,76,76,0,0,0,0,0,0,0,0,0,0,0,0,0,-1,0,0,0,0,0,0,0,0,0,0,0,0,0,0,0,0,0,0,0,0,0,0,0,0,0,0,0,0,0,0,0,0,0,0,0,0,0,0,0,0,0,0,0,0,0,0,0,0,0,0,0,0,0,0,0,0,0,0,0,0,0,0,0,0,0,0,0,0,0,0,0,0,0,0,0,0
"Ind61","5_0_10",107,77,76,77,77,77,77,76,76,76,76,76,76,76,76,76,77,77,77,77,77,76,76,76,76,76,76,77,76,76,76,75,75,75,75,75,75,75,75,75,75,75,75,75,75,75,1,1,1,1,1,1,1,1,1,1,1,1,1,1,-1,0,0,0,0,0,0,0,0,0,0,0,0,0,0,0,0,0,0,0,0,0,0,0,0,0,0,0,0,0,0,0,0,0,0,0,0,0,0,0,0,0,0,0,0,0,0,0,0,0,0,0,0,0,0,0,0,0,0,0,0,0,0,0,0,0,0,0,0,0,0,0,0,0,0,0
"Ind62","4_0_5",95,65,64,65,65,65,65,64,64,64,64,64,64,64,64,64,67,67,67,67,67,66,66,66,66,66,66,67,66,66,66,71,71,71,71,71,71,71,71,71,71,71,71,71,71,71,84,84,84,84,84,84,84,84,84,84,84,84,84,84,83,-1,0,0,0,0,0,0,0,0,0,0,0,0,0,0,0,0,0,0,0,0,0,0,0,0,0,0,0,0,0,0,0,0,0,0,0,0,0,0,0,0,0,0,0,0,0,0,0,0,0,0,0,0,0,0,0,0,0,0,0,0,0,0,0,0,0,0,0,0,0,0,0,0,0,0
"Ind63","4_0_13",95,65,64,65,65,65,65,64,64,64,64,64,64,64,64,64,67,67,67,67,67,66,66,66,66,66,66,67,66,66,66,71,71,71,71,71,71,71,71,71,71,71,71,71,71,71,84,84,84,84,84,84,84,84,84,84,84,84,84,84,83,0,-1,0,0,0,0,0,0,0,0,0,0,0,0,0,0,0,0,0,0,0,0,0,0,0,0,0,0,0,0,0,0,0,0,0,0,0,0,0,0,0,0,0,0,0,0,0,0,0,0,0,0,0,0,0,0,0,0,0,0,0,0,0,0,0,0,0,0,0,0,0,0,0,0,0
"Ind64","4_0_12",94,64,63,64,64,64,64,63,63,63,63,63,63,63,63,63,66,66,66,66,66,65,65,65,65,65,65,66,65,65,65,70,70,70,70,70,70,70,70,70,70,70,70,70,70,70,83,83,83,83,83,83,83,83,83,83,83,83,83,83,82,1,1,-1,0,0,0,0,0,0,0,0,0,0,0,0,0,0,0,0,0,0,0,0,0,0,0,0,0,0,0,0,0,0,0,0,0,0,0,0,0,0,0,0,0,0,0,0,0,0,0,0,0,0,0,0,0,0,0,0,0,0,0,0,0,0,0,0,0,0,0,0,0,0,0,0
"Ind65","4_0_4",95,65,64,65,65,65,65,64,64,64,64,64,64,64,64,64,67,67,67,67,67,66,66,66,66,66,66,67,66,66,66,71,71,71,71,71,71,71,71,71,71,71,71,71,71,71,84,84,84,84,84,84,84,84,84,84,84,84,84,84,83,0,0,1,-1,0,0,0,0,0,0,0,0,0,0,0,0,0,0,0,0,0,0,0,0,0,0,0,0,0,0,0,0,0,0,0,0,0,0,0,0,0,0,0,0,0,0,0,0,0,0,0,0,0,0,0,0,0,0,0,0,0,0,0,0,0,0,0,0,0,0,0,0,0,0,0
"Ind66","4_0_7",95,65,64,65,65,65,65,64,64,64,64,64,64,64,64,64,67,67,67,67,67,66,66,66,66,66,66,67,66,66,66,71,71,71,71,71,71,71,71,71,71,71,71,71,71,71,84,84,84,84,84,84,84,84,84,84,84,84,84,84,83,0,0,1,0,-1,0,0,0,0,0,0,0,0,0,0,0,0,0,0,0,0,0,0,0,0,0,0,0,0,0,0,0,0,0,0,0,0,0,0,0,0,0,0,0,0,0,0,0,0,0,0,0,0,0,0,0,0,0,0,0,0,0,0,0,0,0,0,0,0,0,0,0,0,0,0
"Ind67","4_0_6",95,65,64,65,65,65,65,64,64,64,64,64,64,64,64,64,67,67,67,67,67,66,66,66,66,66,66,67,66,66,66,71,71,71,71,71,71,71,71,71,71,71,71,71,71,71,84,84,84,84,84,84,84,84,84,84,84,84,84,84,83,0,0,1,0,0,-1,0,0,0,0,0,0,0,0,0,0,0,0,0,0,0,0,0,0,0,0,0,0,0,0,0,0,0,0,0,0,0,0,0,0,0,0,0,0,0,0,0,0,0,0,0,0,0,0,0,0,0,0,0,0,0,0,0,0,0,0,0,0,0,0,0,0,0,0,0
"Ind68","4_0_14",95,65,64,65,65,65,65,64,64,64,64,64,64,64,64,64,67,67,67,67,67,66,66,66,66,66,66,67,66,66,66,71,71,71,71,71,71,71,71,71,71,71,71,71,71,71,84,84,84,84,84,84,84,84,84,84,84,84,84,84,83,0,0,1,0,0,0,-1,0,0,0,0,0,0,0,0,0,0,0,0,0,0,0,0,0,0,0,0,0,0,0,0,0,0,0,0,0,0,0,0,0,0,0,0,0,0,0,0,0,0,0,0,0,0,0,0,0,0,0,0,0,0,0,0,0,0,0,0,0,0,0,0,0,0,0,0
"Ind69","4_0_8",95,65,64,65,65,65,65,64,64,64,64,64,64,64,64,64,67,67,67,67,67,66,66,66,66,66,66,67,66,66,66,71,71,71,71,71,71,71,71,71,71,71,71,71,71,71,84,84,84,84,84,84,84,84,84,84,84,84,84,84,83,0,0,1,0,0,0,0,-1,0,0,0,0,0,0,0,0,0,0,0,0,0,0,0,0,0,0,0,0,0,0,0,0,0,0,0,0,0,0,0,0,0,0,0,0,0,0,0,0,0,0,0,0,0,0,0,0,0,0,0,0,0,0,0,0,0,0,0,0,0,0,0,0,0,0,0
"Ind70","4_0_2",95,65,64,65,65,65,65,64,64,64,64,64,64,64,64,64,67,67,67,67,67,66,66,66,66,66,66,67,66,66,66,71,71,71,71,71,71,71,71,71,71,71,71,71,71,71,84,84,84,84,84,84,84,84,84,84,84,84,84,84,83,0,0,1,0,0,0,0,0,-1,0,0,0,0,0,0,0,0,0,0,0,0,0,0,0,0,0,0,0,0,0,0,0,0,0,0,0,0,0,0,0,0,0,0,0,0,0,0,0,0,0,0,0,0,0,0,0,0,0,0,0,0,0,0,0,0,0,0,0,0,0,0,0,0,0,0
"Ind71","4_0_10",96,66,65,66,66,66,66,65,65,65,65,65,65,65,65,65,68,68,68,68,68,67,67,67,67,67,67,68,67,67,67,72,72,72,72,72,72,72,72,72,72,72,72,72,72,72,85,85,85,85,85,85,85,85,85,85,85,85,85,85,84,1,1,2,1,1,1,1,1,1,-1,0,0,0,0,0,0,0,0,0,0,0,0,0,0,0,0,0,0,0,0,0,0,0,0,0,0,0,0,0,0,0,0,0,0,0,0,0,0,0,0,0,0,0,0,0,0,0,0,0,0,0,0,0,0,0,0,0,0,0,0,0,0,0,0,0
"Ind72","4_0_3",95,65,64,65,65,65,65,64,64,64,64,64,64,64,64,64,67,67,67,67,67,66,66,66,66,66,66,67,66,66,66,71,71,71,71,71,71,71,71,71,71,71,71,71,71,71,84,84,84,84,84,84,84,84,84,84,84,84,84,84,83,0,0,1,0,0,0,0,0,0,1,-1,0,0,0,0,0,0,0,0,0,0,0,0,0,0,0,0,0,0,0,0,0,0,0,0,0,0,0,0,0,0,0,0,0,0,0,0,0,0,0,0,0,0,0,0,0,0,0,0,0,0,0,0,0,0,0,0,0,0,0,0,0,0,0,0
"Ind73","4_0_11",95,65,64,65,65,65,65,64,64,64,64,64,64,64,64,64,67,67,67,67,67,66,66,66,66,66,66,67,66,66,66,71,71,71,71,71,71,71,71,71,71,71,71,71,71,71,84,84,84,84,84,84,84,84,84,84,84,84,84,84,83,0,0,1,0,0,0,0,0,0,1,0,-1,0,0,0,0,0,0,0,0,0,0,0,0,0,0,0,0,0,0,0,0,0,0,0,0,0,0,0,0,0,0,0,0,0,0,0,0,0,0,0,0,0,0,0,0,0,0,0,0,0,0,0,0,0,0,0,0,0,0,0,0,0,0,0
"Ind74","4_0_0",95,65,64,65,65,65,65,64,64,64,64,64,64,64,64,64,67,67,67,67,67,66,66,66,66,66,66,67,66,66,66,71,71,71,71,71,71,71,71,71,71,71,71,71,71,71,84,84,84,84,84,84,84,84,84,84,84,84,84,84,83,0,0,1,0,0,0,0,0,0,1,0,0,-1,0,0,0,0,0,0,0,0,0,0,0,0,0,0,0,0,0,0,0,0,0,0,0,0,0,0,0,0,0,0,0,0,0,0,0,0,0,0,0,0,0,0,0,0,0,0,0,0,0,0,0,0,0,0,0,0,0,0,0,0,0,0
"Ind75","4_0_9",95,65,64,65,65,65,65,64,64,64,64,64,64,64,64,64,67,67,67,67,67,66,66,66,66,66,66,67,66,66,66,71,71,71,71,71,71,71,71,71,71,71,71,71,71,71,84,84,84,84,84,84,84,84,84,84,84,84,84,84,83,0,0,1,0,0,0,0,0,0,1,0,0,0,-1,0,0,0,0,0,0,0,0,0,0,0,0,0,0,0,0,0,0,0,0,0,0,0,0,0,0,0,0,0,0,0,0,0,0,0,0,0,0,0,0,0,0,0,0,0,0,0,0,0,0,0,0,0,0,0,0,0,0,0,0,0
"Ind76","4_0_1",95,65,64,65,65,65,65,64,64,64,64,64,64,64,64,64,67,67,67,67,67,66,66,66,66,66,66,67,66,66,66,71,71,71,71,71,71,71,71,71,71,71,71,71,71,71,84,84,84,84,84,84,84,84,84,84,84,84,84,84,83,0,0,1,0,0,0,0,0,0,1,0,0,0,0,-1,0,0,0,0,0,0,0,0,0,0,0,0,0,0,0,0,0,0,0,0,0,0,0,0,0,0,0,0,0,0,0,0,0,0,0,0,0,0,0,0,0,0,0,0,0,0,0,0,0,0,0,0,0,0,0,0,0,0,0,0
"Ind77","2_0_4",78,36,35,36,36,36,36,35,35,35,35,35,35,35,35,35,40,40,40,40,40,39,39,39,39,39,39,40,39,39,39,44,44,44,44,44,44,44,44,44,44,44,44,44,44,44,64,64,64,64,64,64,64,64,64,64,64,64,64,64,63,45,45,44,45,45,45,45,45,45,46,45,45,45,45,45,-1,0,0,0,0,0,0,0,0,0,0,0,0,0,0,0,0,0,0,0,0,0,0,0,0,0,0,0,0,0,0,0,0,0,0,0,0,0,0,0,0,0,0,0,0,0,0,0,0,0,0,0,0,0,0,0,0,0,0,0
"Ind78","2_0_13",78,36,35,36,36,36,36,35,35,35,35,35,35,35,35,35,40,40,40,40,40,39,39,39,39,39,39,40,39,39,39,44,44,44,44,44,44,44,44,44,44,44,44,44,44,44,64,64,64,64,64,64,64,64,64,64,64,64,64,64,63,45,45,44,45,45,45,45,45,45,46,45,45,45,45,45,0,-1,0,0,0,0,0,0,0,0,0,0,0,0,0,0,0,0,0,0,0,0,0,0,0,0,0,0,0,0,0,0,0,0,0,0,0,0,0,0,0,0,0,0,0,0,0,0,0,0,0,0,0,0,0,0,0,0,0,0
"Ind79","2_0_1",78,36,35,36,36,36,36,35,35,35,35,35,35,35,35,35,40,40,40,40,40,39,39,39,39,39,39,40,39,39,39,44,44,44,44,44,44,44,44,44,44,44,44,44,44,44,64,64,64,64,64,64,64,64,64,64,64,64,64,64,63,45,45,44,45,45,45,45,45,45,46,45,45,45,45,45,0,0,-1,0,0,0,0,0,0,0,0,0,0,0,0,0,0,0,0,0,0,0,0,0,0,0,0,0,0,0,0,0,0,0,0,0,0,0,0,0,0,0,0,0,0,0,0,0,0,0,0,0,0,0,0,0,0,0,0,0
"Ind80","2_0_3",78,36,35,36,36,36,36,35,35,35,35,35,35,35,35,35,40,40,40,40,40,39,39,39,39,39,39,40,39,39,39,44,44,44,44,44,44,44,44,44,44,44,44,44,44,44,64,64,64,64,64,64,64,64,64,64,64,64,64,64,63,45,45,44,45,45,45,45,45,45,46,45,45,45,45,45,0,0,0,-1,0,0,0,0,0,0,0,0,0,0,0,0,0,0,0,0,0,0,0,0,0,0,0,0,0,0,0,0,0,0,0,0,0,0,0,0,0,0,0,0,0,0,0,0,0,0,0,0,0,0,0,0,0,0,0,0
"Ind81","2_0_9",78,36,35,36,36,36,36,35,35,35,35,35,35,35,35,35,40,40,40,40,40,39,39,39,39,39,39,40,39,39,39,44,44,44,44,44,44,44,44,44,44,44,44,44,44,44,64,64,64,64,64,64,64,64,64,64,64,64,64,64,63,45,45,44,45,45,45,45,45,45,46,45,45,45,45,45,0,0,0,0,-1,0,0,0,0,0,0,0,0,0,0,0,0,0,0,0,0,0,0,0,0,0,0,0,0,0,0,0,0,0,0,0,0,0,0,0,0,0,0,0,0,0,0,0,0,0,0,0,0,0,0,0,0,0,0,0
"Ind82","2_0_10",77,35,34,35,35,35,35,34,34,34,34,34,34,34,34,34,39,39,39,39,39,38,38,38,38,38,38,39,38,38,38,43,43,43,43,43,43,43,43,43,43,43,43,43,43,43,63,63,63,63,63,63,63,63,63,63,63,63,63,63,62,44,44,43,44,44,44,44,44,44,45,44,44,44,44,44,1,1,1,1,1,-1,0,0,0,0,0,0,0,0,0,0,0,0,0,0,0,0,0,0,0,0,0,0,0,0,0,0,0,0,0,0,0,0,0,0,0,0,0,0,0,0,0,0,0,0,0,0,0,0,0,0,0,0,0,0
"Ind83","2_0_7",77,35,34,35,35,35,35,34,34,34,34,34,34,34,34,34,39,39,39,39,39,38,38,38,38,38,38,39,38,38,38,43,43,43,43,43,43,43,43,43,43,43,43,43,43,43,63,63,63,63,63,63,63,63,63,63,63,63,63,63,62,44,44,43,44,44,44,44,44,44,45,44,44,44,44,44,1,1,1,1,1,0,-1,0,0,0,0,0,0,0,0,0,0,0,0,0,0,0,0,0,0,0,0,0,0,0,0,0,0,0,0,0,0,0,0,0,0,0,0,0,0,0,0,0,0,0,0,0,0,0,0,0,0,0,0,0
"Ind84","2_0_12",77,35,34,35,35,35,35,34,34,34,34,34,34,34,34,34,39,39,39,39,39,38,38,38,38,38,38,39,38,38,38,43,43,43,43,43,43,43,43,43,43,43,43,43,43,43,63,63,63,63,63,63,63,63,63,63,63,63,63,63,62,44,44,43,44,44,44,44,44,44,45,44,44,44,44,44,1,1,1,1,1,0,0,-1,0,0,0,0,0,0,0,0,0,0,0,0,0,0,0,0,0,0,0,0,0,0,0,0,0,0,0,0,0,0,0,0,0,0,0,0,0,0,0,0,0,0,0,0,0,0,0,0,0,0,0,0
"Ind85","2_0_14",77,35,34,35,35,35,35,34,34,34,34,34,34,34,34,34,39,39,39,39,39,38,38,38,38,38,38,39,38,38,38,43,43,43,43,43,43,43,43,43,43,43,43,43,43,43,63,63,63,63,63,63,63,63,63,63,63,63,63,63,62,44,44,43,44,44,44,44,44,44,45,44,44,44,44,44,1,1,1,1,1,0,0,0,-1,0,0,0,0,0,0,0,0,0,0,0,0,0,0,0,0,0,0,0,0,0,0,0,0,0,0,0,0,0,0,0,0,0,0,0,0,0,0,0,0,0,0,0,0,0,0,0,0,0,0,0
"Ind86","2_0_11",77,35,34,35,35,35,35,34,34,34,34,34,34,34,34,34,39,39,39,39,39,38,38,38,38,38,38,39,38,38,38,43,43,43,43,43,43,43,43,43,43,43,43,43,43,43,63,63,63,63,63,63,63,63,63,63,63,63,63,63,62,44,44,43,44,44,44,44,44,44,45,44,44,44,44,44,1,1,1,1,1,0,0,0,0,-1,0,0,0,0,0,0,0,0,0,0,0,0,0,0,0,0,0,0,0,0,0,0,0,0,0,0,0,0,0,0,0,0,0,0,0,0,0,0,0,0,0,0,0,0,0,0,0,0,0,0
"Ind87","2_0_6",77,35,34,35,35,35,35,34,34,34,34,34,34,34,34,34,39,39,39,39,39,38,38,38,38,38,38,39,38,38,38,43,43,43,43,43,43,43,43,43,43,43,43,43,43,43,63,63,63,63,63,63,63,63,63,63,63,63,63,63,62,44,44,43,44,44,44,44,44,44,45,44,44,44,44,44,1,1,1,1,1,0,0,0,0,0,-1,0,0,0,0,0,0,0,0,0,0,0,0,0,0,0,0,0,0,0,0,0,0,0,0,0,0,0,0,0,0,0,0,0,0,0,0,0,0,0,0,0,0,0,0,0,0,0,0,0
"Ind88","2_0_2",77,35,34,35,35,35,35,34,34,34,34,34,34,34,34,34,39,39,39,39,39,38,38,38,38,38,38,39,38,38,38,43,43,43,43,43,43,43,43,43,43,43,43,43,43,43,63,63,63,63,63,63,63,63,63,63,63,63,63,63,62,44,44,43,44,44,44,44,44,44,45,44,44,44,44,44,1,1,1,1,1,0,0,0,0,0,0,-1,0,0,0,0,0,0,0,0,0,0,0,0,0,0,0,0,0,0,0,0,0,0,0,0,0,0,0,0,0,0,0,0,0,0,0,0,0,0,0,0,0,0,0,0,0,0,0,0
"Ind89","2_0_8",77,35,34,35,35,35,35,34,34,34,34,34,34,34,34,34,39,39,39,39,39,38,38,38,38,38,38,39,38,38,38,43,43,43,43,43,43,43,43,43,43,43,43,43,43,43,63,63,63,63,63,63,63,63,63,63,63,63,63,63,62,44,44,43,44,44,44,44,44,44,45,44,44,44,44,44,1,1,1,1,1,0,0,0,0,0,0,0,-1,0,0,0,0,0,0,0,0,0,0,0,0,0,0,0,0,0,0,0,0,0,0,0,0,0,0,0,0,0,0,0,0,0,0,0,0,0,0,0,0,0,0,0,0,0,0,0
"Ind90","2_0_0",77,35,34,35,35,35,35,34,34,34,34,34,34,34,34,34,39,39,39,39,39,38,38,38,38,38,38,39,38,38,38,43,43,43,43,43,43,43,43,43,43,43,43,43,43,43,63,63,63,63,63,63,63,63,63,63,63,63,63,63,62,44,44,43,44,44,44,44,44,44,45,44,44,44,44,44,1,1,1,1,1,0,0,0,0,0,0,0,0,-1,0,0,0,0,0,0,0,0,0,0,0,0,0,0,0,0,0,0,0,0,0,0,0,0,0,0,0,0,0,0,0,0,0,0,0,0,0,0,0,0,0,0,0,0,0,0
"Ind91","2_0_5",77,35,34,35,35,35,35,34,34,34,34,34,34,34,34,34,39,39,39,39,39,38,38,38,38,38,38,39,38,38,38,43,43,43,43,43,43,43,43,43,43,43,43,43,43,43,63,63,63,63,63,63,63,63,63,63,63,63,63,63,62,44,44,43,44,44,44,44,44,44,45,44,44,44,44,44,1,1,1,1,1,0,0,0,0,0,0,0,0,0,-1,0,0,0,0,0,0,0,0,0,0,0,0,0,0,0,0,0,0,0,0,0,0,0,0,0,0,0,0,0,0,0,0,0,0,0,0,0,0,0,0,0,0,0,0,0
"Ind92","1_0_14",74,30,31,30,30,30,30,29,29,29,29,29,29,29,29,29,34,34,34,34,34,33,33,33,33,33,33,34,33,33,33,36,36,36,36,36,36,36,36,36,36,36,36,36,36,36,60,60,60,60,60,60,60,60,60,60,60,60,60,60,61,55,55,54,55,55,55,55,55,55,56,55,55,55,55,55,22,22,22,22,22,21,21,21,21,21,21,21,21,21,21,-1,0,0,0,0,0,0,0,0,0,0,0,0,0,0,0,0,0,0,0,0,0,0,0,0,0,0,0,0,0,0,0,0,0,0,0,0,0,0,0,0,0,0,0,0
"Ind93","1_0_8",74,30,31,30,30,30,30,29,29,29,29,29,29,29,29,29,34,34,34,34,34,33,33,33,33,33,33,34,33,33,33,36,36,36,36,36,36,36,36,36,36,36,36,36,36,36,60,60,60,60,60,60,60,60,60,60,60,60,60,60,61,55,55,54,55,55,55,55,55,55,56,55,55,55,55,55,22,22,22,22,22,21,21,21,21,21,21,21,21,21,21,0,-1,0,0,0,0,0,0,0,0,0,0,0,0,0,0,0,0,0,0,0,0,0,0,0,0,0,0,0,0,0,0,0,0,0,0,0,0,0,0,0,0,0,0,0
"Ind94","1_0_6",74,30,31,30,30,30,30,29,29,29,29,29,29,29,29,29,34,34,34,34,34,33,33,33,33,33,33,34,33,33,33,36,36,36,36,36,36,36,36,36,36,36,36,36,36,36,60,60,60,60,60,60,60,60,60,60,60,60,60,60,61,55,55,54,55,55,55,55,55,55,56,55,55,55,55,55,22,22,22,22,22,21,21,21,21,21,21,21,21,21,21,0,0,-1,0,0,0,0,0,0,0,0,0,0,0,0,0,0,0,0,0,0,0,0,0,0,0,0,0,0,0,0,0,0,0,0,0,0,0,0,0,0,0,0,0,0
"Ind95","1_0_4",74,30,31,30,30,30,30,29,29,29,29,29,29,29,29,29,34,34,34,34,34,33,33,33,33,33,33,34,33,33,33,36,36,36,36,36,36,36,36,36,36,36,36,36,36,36,60,60,60,60,60,60,60,60,60,60,60,60,60,60,61,55,55,54,55,55,55,55,55,55,56,55,55,55,55,55,22,22,22,22,22,21,21,21,21,21,21,21,21,21,21,0,0,0,-1,0,0,0,0,0,0,0,0,0,0,0,0,0,0,0,0,0,0,0,0,0,0,0,0,0,0,0,0,0,0,0,0,0,0,0,0,0,0,0,0,0
"Ind96","1_0_2",74,30,31,30,30,30,30,29,29,29,29,29,29,29,29,29,34,34,34,34,34,33,33,33,33,33,33,34,33,33,33,36,36,36,36,36,36,36,36,36,36,36,36,36,36,36,60,60,60,60,60,60,60,60,60,60,60,60,60,60,61,55,55,54,55,55,55,55,55,55,56,55,55,55,55,55,22,22,22,22,22,21,21,21,21,21,21,21,21,21,21,0,0,0,0,-1,0,0,0,0,0,0,0,0,0,0,0,0,0,0,0,0,0,0,0,0,0,0,0,0,0,0,0,0,0,0,0,0,0,0,0,0,0,0,0,0
"Ind97","1_0_7",74,30,31,30,30,30,30,29,29,29,29,29,29,29,29,29,34,34,34,34,34,33,33,33,33,33,33,34,33,33,33,36,36,36,36,36,36,36,36,36,36,36,36,36,36,36,60,60,60,60,60,60,60,60,60,60,60,60,60,60,61,55,55,54,55,55,55,55,55,55,56,55,55,55,55,55,22,22,22,22,22,21,21,21,21,21,21,21,21,21,21,0,0,0,0,0,-1,0,0,0,0,0,0,0,0,0,0,0,0,0,0,0,0,0,0,0,0,0,0,0,0,0,0,0,0,0,0,0,0,0,0,0,0,0,0,0
"Ind98","1_0_5",74,30,31,30,30,30,30,29,29,29,29,29,29,29,29,29,34,34,34,34,34,33,33,33,33,33,33,34,33,33,33,36,36,36,36,36,36,36,36,36,36,36,36,36,36,36,60,60,60,60,60,60,60,60,60,60,60,60,60,60,61,55,55,54,55,55,55,55,55,55,56,55,55,55,55,55,22,22,22,22,22,21,21,21,21,21,21,21,21,21,21,0,0,0,0,0,0,-1,0,0,0,0,0,0,0,0,0,0,0,0,0,0,0,0,0,0,0,0,0,0,0,0,0,0,0,0,0,0,0,0,0,0,0,0,0,0
"Ind99","1_0_9",76,32,33,32,32,32,32,31,31,31,31,31,31,31,31,31,34,34,34,34,34,33,33,33,33,33,33,34,33,33,33,36,36,36,36,36,36,36,36,36,36,36,36,36,36,36,62,62,62,62,62,62,62,62,62,62,62,62,62,62,63,57,57,56,57,57,57,57,57,57,58,57,57,57,57,57,24,24,24,24,24,23,23,23,23,23,23,23,23,23,23,2,2,2,2,2,2,2,-1,0,0,0,0,0,0,0,0,0,0,0,0,0,0,0,0,0,0,0,0,0,0,0,0,0,0,0,0,0,0,0,0,0,0,0,0,0
"Ind100","1_0_3",74,30,31,30,30,30,30,29,29,29,29,29,29,29,29,29,34,34,34,34,34,33,33,33,33,33,33,34,33,33,33,36,36,36,36,36,36,36,36,36,36,36,36,36,36,36,60,60,60,60,60,60,60,60,60,60,60,60,60,60,61,55,55,54,55,55,55,55,55,55,56,55,55,55,55,55,22,22,22,22,22,21,21,21,21,21,21,21,21,21,21,0,0,0,0,0,0,0,2,-1,0,0,0,0,0,0,0,0,0,0,0,0,0,0,0,0,0,0,0,0,0,0,0,0,0,0,0,0,0,0,0,0,0,0,0,0
"Ind101","1_0_13",74,30,31,30,30,30,30,29,29,29,29,29,29,29,29,29,34,34,34,34,34,33,33,33,33,33,33,34,33,33,33,36,36,36,36,36,36,36,36,36,36,36,36,36,36,36,60,60,60,60,60,60,60,60,60,60,60,60,60,60,61,55,55,54,55,55,55,55,55,55,56,55,55,55,55,55,22,22,22,22,22,21,21,21,21,21,21,21,21,21,21,0,0,0,0,0,0,0,2,0,-1,0,0,0,0,0,0,0,0,0,0,0,0,0,0,0,0,0,0,0,0,0,0,0,0,0,0,0,0,0,0,0,0,0,0,0
"Ind102","1_0_0",74,30,31,30,30,30,30,29,29,29,29,29,29,29,29,29,34,34,34,34,34,33,33,33,33,33,33,34,33,33,33,36,36,36,36,36,36,36,36,36,36,36,36,36,36,36,60,60,60,60,60,60,60,60,60,60,60,60,60,60,61,55,55,54,55,55,55,55,55,55,56,55,55,55,55,55,22,22,22,22,22,21,21,21,21,21,21,21,21,21,21,0,0,0,0,0,0,0,2,0,0,-1,0,0,0,0,0,0,0,0,0,0,0,0,0,0,0,0,0,0,0,0,0,0,0,0,0,0,0,0,0,0,0,0,0,0
"Ind103","1_0_11",74,30,31,30,30,30,30,29,29,29,29,29,29,29,29,29,34,34,34,34,34,33,33,33,33,33,33,34,33,33,33,36,36,36,36,36,36,36,36,36,36,36,36,36,36,36,60,60,60,60,60,60,60,60,60,60,60,60,60,60,61,55,55,54,55,55,55,55,55,55,56,55,55,55,55,55,22,22,22,22,22,21,21,21,21,21,21,21,21,21,21,0,0,0,0,0,0,0,2,0,0,0,-1,0,0,0,0,0,0,0,0,0,0,0,0,0,0,0,0,0,0,0,0,0,0,0,0,0,0,0,0,0,0,0,0,0
"Ind104","1_0_10",74,30,31,30,30,30,30,29,29,29,29,29,29,29,29,29,34,34,34,34,34,33,33,33,33,33,33,34,33,33,33,36,36,36,36,36,36,36,36,36,36,36,36,36,36,36,60,60,60,60,60,60,60,60,60,60,60,60,60,60,61,55,55,54,55,55,55,55,55,55,56,55,55,55,55,55,22,22,22,22,22,21,21,21,21,21,21,21,21,21,21,0,0,0,0,0,0,0,2,0,0,0,0,-1,0,0,0,0,0,0,0,0,0,0,0,0,0,0,0,0,0,0,0,0,0,0,0,0,0,0,0,0,0,0,0,0
"Ind105","1_0_1",74,30,31,30,30,30,30,29,29,29,29,29,29,29,29,29,34,34,34,34,34,33,33,33,33,33,33,34,33,33,33,36,36,36,36,36,36,36,36,36,36,36,36,36,36,36,60,60,60,60,60,60,60,60,60,60,60,60,60,60,61,55,55,54,55,55,55,55,55,55,56,55,55,55,55,55,22,22,22,22,22,21,21,21,21,21,21,21,21,21,21,0,0,0,0,0,0,0,2,0,0,0,0,0,-1,0,0,0,0,0,0,0,0,0,0,0,0,0,0,0,0,0,0,0,0,0,0,0,0,0,0,0,0,0,0,0
"Ind106","1_0_12",74,30,31,30,30,30,30,29,29,29,29,29,29,29,29,29,34,34,34,34,34,33,33,33,33,33,33,34,33,33,33,36,36,36,36,36,36,36,36,36,36,36,36,36,36,36,60,60,60,60,60,60,60,60,60,60,60,60,60,60,61,55,55,54,55,55,55,55,55,55,56,55,55,55,55,55,22,22,22,22,22,21,21,21,21,21,21,21,21,21,21,0,0,0,0,0,0,0,2,0,0,0,0,0,0,-1,0,0,0,0,0,0,0,0,0,0,0,0,0,0,0,0,0,0,0,0,0,0,0,0,0,0,0,0,0,0
"Ind107","6_0_12",75,31,32,31,31,31,31,30,30,30,30,30,30,30,30,30,33,33,33,33,33,34,34,34,34,34,34,35,34,34,34,37,37,37,37,37,37,37,37,37,37,37,37,37,37,37,61,61,61,61,61,61,61,61,61,61,61,61,61,61,62,56,56,55,56,56,56,56,56,56,57,56,56,56,56,56,23,23,23,23,23,22,22,22,22,22,22,22,22,22,22,1,1,1,1,1,1,1,3,1,1,1,1,1,1,1,-1,0,0,0,0,0,0,0,0,0,0,0,0,0,0,0,0,0,0,0,0,0,0,0,0,0,0,0,0,0
"Ind108","6_0_1",75,31,32,31,31,31,31,30,30,30,30,30,30,30,30,30,33,33,33,33,33,34,34,34,34,34,34,35,34,34,34,37,37,37,37,37,37,37,37,37,37,37,37,37,37,37,61,61,61,61,61,61,61,61,61,61,61,61,61,61,62,56,56,55,56,56,56,56,56,56,57,56,56,56,56,56,23,23,23,23,23,22,22,22,22,22,22,22,22,22,22,1,1,1,1,1,1,1,3,1,1,1,1,1,1,1,0,-1,0,0,0,0,0,0,0,0,0,0,0,0,0,0,0,0,0,0,0,0,0,0,0,0,0,0,0,0
"Ind109","6_0_13",75,31,32,31,31,31,31,30,30,30,30,30,30,30,30,30,33,33,33,33,33,34,34,34,34,34,34,35,34,34,34,37,37,37,37,37,37,37,37,37,37,37,37,37,37,37,61,61,61,61,61,61,61,61,61,61,61,61,61,61,62,56,56,55,56,56,56,56,56,56,57,56,56,56,56,56,23,23,23,23,23,22,22,22,22,22,22,22,22,22,22,1,1,1,1,1,1,1,3,1,1,1,1,1,1,1,0,0,-1,0,0,0,0,0,0,0,0,0,0,0,0,0,0,0,0,0,0,0,0,0,0,0,0,0,0,0
"Ind110","6_0_4",75,31,32,31,31,31,31,30,30,30,30,30,30,30,30,30,33,33,33,33,33,34,34,34,34,34,34,35,34,34,34,37,37,37,37,37,37,37,37,37,37,37,37,37,37,37,61,61,61,61,61,61,61,61,61,61,61,61,61,61,62,56,56,55,56,56,56,56,56,56,57,56,56,56,56,56,23,23,23,23,23,22,22,22,22,22,22,22,22,22,22,1,1,1,1,1,1,1,3,1,1,1,1,1,1,1,0,0,0,-1,0,0,0,0,0,0,0,0,0,0,0,0,0,0,0,0,0,0,0,0,0,0,0,0,0,0
"Ind111","6_0_6",75,31,32,31,31,31,31,30,30,30,30,30,30,30,30,30,33,33,33,33,33,34,34,34,34,34,34,35,34,34,34,37,37,37,37,37,37,37,37,37,37,37,37,37,37,37,61,61,61,61,61,61,61,61,61,61,61,61,61,61,62,56,56,55,56,56,56,56,56,56,57,56,56,56,56,56,23,23,23,23,23,22,22,22,22,22,22,22,22,22,22,1,1,1,1,1,1,1,3,1,1,1,1,1,1,1,0,0,0,0,-1,0,0,0,0,0,0,0,0,0,0,0,0,0,0,0,0,0,0,0,0,0,0,0,0,0
"Ind112","6_0_0",75,31,32,31,31,31,31,30,30,30,30,30,30,30,30,30,33,33,33,33,33,34,34,34,34,34,34,35,34,34,34,37,37,37,37,37,37,37,37,37,37,37,37,37,37,37,61,61,61,61,61,61,61,61,61,61,61,61,61,61,62,56,56,55,56,56,56,56,56,56,57,56,56,56,56,56,23,23,23,23,23,22,22,22,22,22,22,22,22,22,22,1,1,1,1,1,1,1,3,1,1,1,1,1,1,1,0,0,0,0,0,-1,0,0,0,0,0,0,0,0,0,0,0,0,0,0,0,0,0,0,0,0,0,0,0,0
"Ind113","6_0_7",76,32,33,32,32,32,32,31,31,31,31,31,31,31,31,31,34,34,34,34,34,35,35,35,35,35,35,36,35,35,35,38,38,38,38,38,38,38,38,38,38,38,38,38,38,38,62,62,62,62,62,62,62,62,62,62,62,62,62,62,63,56,56,55,56,56,56,56,56,56,57,56,56,56,56,56,24,24,24,24,24,23,23,23,23,23,23,23,23,23,23,2,2,2,2,2,2,2,4,2,2,2,2,2,2,2,1,1,1,1,1,1,-1,0,0,0,0,0,0,0,0,0,0,0,0,0,0,0,0,0,0,0,0,0,0,0
"Ind114","6_0_9",76,32,33,32,32,32,32,31,31,31,31,31,31,31,31,31,34,34,34,34,34,35,35,35,35,35,35,36,35,35,35,38,38,38,38,38,38,38,38,38,38,38,38,38,38,38,62,62,62,62,62,62,62,62,62,62,62,62,62,62,63,56,56,55,56,56,56,56,56,56,57,56,56,56,56,56,24,24,24,24,24,23,23,23,23,23,23,23,23,23,23,2,2,2,2,2,2,2,4,2,2,2,2,2,2,2,1,1,1,1,1,1,0,-1,0,0,0,0,0,0,0,0,0,0,0,0,0,0,0,0,0,0,0,0,0,0
"Ind115","6_0_10",75,31,32,31,31,31,31,30,30,30,30,30,30,30,30,30,33,33,33,33,33,34,34,34,34,34,34,35,34,34,34,37,37,37,37,37,37,37,37,37,37,37,37,37,37,37,61,61,61,61,61,61,61,61,61,61,61,61,61,61,62,56,56,55,56,56,56,56,56,56,57,56,56,56,56,56,23,23,23,23,23,22,22,22,22,22,22,22,22,22,22,1,1,1,1,1,1,1,3,1,1,1,1,1,1,1,0,0,0,0,0,0,1,1,-1,0,0,0,0,0,0,0,0,0,0,0,0,0,0,0,0,0,0,0,0,0
"Ind116","6_0_5",75,31,32,31,31,31,31,30,30,30,30,30,30,30,30,30,33,33,33,33,33,34,34,34,34,34,34,35,34,34,34,37,37,37,37,37,37,37,37,37,37,37,37,37,37,37,61,61,61,61,61,61,61,61,61,61,61,61,61,61,62,56,56,55,56,56,56,56,56,56,57,56,56,56,56,56,23,23,23,23,23,22,22,22,22,22,22,22,22,22,22,1,1,1,1,1,1,1,3,1,1,1,1,1,1,1,0,0,0,0,0,0,1,1,0,-1,0,0,0,0,0,0,0,0,0,0,0,0,0,0,0,0,0,0,0,0
"Ind117","6_0_14",75,31,32,31,31,31,31,30,30,30,30,30,30,30,30,30,33,33,33,33,33,34,34,34,34,34,34,35,34,34,34,37,37,37,37,37,37,37,37,37,37,37,37,37,37,37,61,61,61,61,61,61,61,61,61,61,61,61,61,61,62,56,56,55,56,56,56,56,56,56,57,56,56,56,56,56,23,23,23,23,23,22,22,22,22,22,22,22,22,22,22,1,1,1,1,1,1,1,3,1,1,1,1,1,1,1,0,0,0,0,0,0,1,1,0,0,-1,0,0,0,0,0,0,0,0,0,0,0,0,0,0,0,0,0,0,0
"Ind118","6_0_2",75,31,32,31,31,31,31,30,30,30,30,30,30,30,30,30,33,33,33,33,33,34,34,34,34,34,34,35,34,34,34,37,37,37,37,37,37,37,37,37,37,37,37,37,37,37,61,61,61,61,61,61,61,61,61,61,61,61,61,61,62,56,56,55,56,56,56,56,56,56,57,56,56,56,56,56,23,23,23,23,23,22,22,22,22,22,22,22,22,22,22,1,1,1,1,1,1,1,3,1,1,1,1,1,1,1,0,0,0,0,0,0,1,1,0,0,0,-1,0,0,0,0,0,0,0,0,0,0,0,0,0,0,0,0,0,0
"Ind119","6_0_8",75,31,32,31,31,31,31,30,30,30,30,30,30,30,30,30,33,33,33,33,33,34,34,34,34,34,34,35,34,34,34,37,37,37,37,37,37,37,37,37,37,37,37,37,37,37,61,61,61,61,61,61,61,61,61,61,61,61,61,61,62,56,56,55,56,56,56,56,56,56,57,56,56,56,56,56,23,23,23,23,23,22,22,22,22,22,22,22,22,22,22,1,1,1,1,1,1,1,3,1,1,1,1,1,1,1,0,0,0,0,0,0,1,1,0,0,0,0,-1,0,0,0,0,0,0,0,0,0,0,0,0,0,0,0,0,0
"Ind120","6_0_11",75,31,32,31,31,31,31,30,30,30,30,30,30,30,30,30,33,33,33,33,33,34,34,34,34,34,34,35,34,34,34,37,37,37,37,37,37,37,37,37,37,37,37,37,37,37,61,61,61,61,61,61,61,61,61,61,61,61,61,61,62,56,56,55,56,56,56,56,56,56,57,56,56,56,56,56,23,23,23,23,23,22,22,22,22,22,22,22,22,22,22,1,1,1,1,1,1,1,3,1,1,1,1,1,1,1,0,0,0,0,0,0,1,1,0,0,0,0,0,-1,0,0,0,0,0,0,0,0,0,0,0,0,0,0,0,0
"Ind121","6_0_3",75,31,32,31,31,31,31,30,30,30,30,30,30,30,30,30,33,33,33,33,33,34,34,34,34,34,34,35,34,34,34,37,37,37,37,37,37,37,37,37,37,37,37,37,37,37,61,61,61,61,61,61,61,61,61,61,61,61,61,61,62,56,56,55,56,56,56,56,56,56,57,56,56,56,56,56,23,23,23,23,23,22,22,22,22,22,22,22,22,22,22,1,1,1,1,1,1,1,3,1,1,1,1,1,1,1,0,0,0,0,0,0,1,1,0,0,0,0,0,0,-1,0,0,0,0,0,0,0,0,0,0,0,0,0,0,0
"Ind122","3_0_2",78,36,37,36,36,36,36,35,35,35,35,35,35,35,35,35,40,40,40,40,40,39,39,39,39,39,39,40,39,39,39,42,42,42,42,42,42,42,42,42,42,42,42,42,42,42,64,64,64,64,64,64,64,64,64,64,64,64,64,64,65,57,57,56,57,57,57,57,57,57,58,57,57,57,57,57,26,26,26,26,26,25,25,25,25,25,25,25,25,25,25,6,6,6,6,6,6,6,8,6,6,6,6,6,6,6,7,7,7,7,7,7,8,8,7,7,7,7,7,7,7,-1,0,0,0,0,0,0,0,0,0,0,0,0,0,0
"Ind123","3_0_12",78,36,37,36,36,36,36,35,35,35,35,35,35,35,35,35,40,40,40,40,40,39,39,39,39,39,39,40,39,39,39,42,42,42,42,42,42,42,42,42,42,42,42,42,42,42,64,64,64,64,64,64,64,64,64,64,64,64,64,64,65,57,57,56,57,57,57,57,57,57,58,57,57,57,57,57,26,26,26,26,26,25,25,25,25,25,25,25,25,25,25,6,6,6,6,6,6,6,8,6,6,6,6,6,6,6,7,7,7,7,7,7,8,8,7,7,7,7,7,7,7,0,-1,0,0,0,0,0,0,0,0,0,0,0,0,0
"Ind124","3_0_6",78,36,37,36,36,36,36,35,35,35,35,35,35,35,35,35,40,40,40,40,40,39,39,39,39,39,39,40,39,39,39,42,42,42,42,42,42,42,42,42,42,42,42,42,42,42,64,64,64,64,64,64,64,64,64,64,64,64,64,64,65,57,57,56,57,57,57,57,57,57,58,57,57,57,57,57,26,26,26,26,26,25,25,25,25,25,25,25,25,25,25,6,6,6,6,6,6,6,8,6,6,6,6,6,6,6,7,7,7,7,7,7,8,8,7,7,7,7,7,7,7,0,0,-1,0,0,0,0,0,0,0,0,0,0,0,0
"Ind125","3_0_7",78,36,37,36,36,36,36,35,35,35,35,35,35,35,35,35,40,40,40,40,40,39,39,39,39,39,39,40,39,39,39,42,42,42,42,42,42,42,42,42,42,42,42,42,42,42,64,64,64,64,64,64,64,64,64,64,64,64,64,64,65,57,57,56,57,57,57,57,57,57,58,57,57,57,57,57,26,26,26,26,26,25,25,25,25,25,25,25,25,25,25,6,6,6,6,6,6,6,8,6,6,6,6,6,6,6,7,7,7,7,7,7,8,8,7,7,7,7,7,7,7,0,0,0,-1,0,0,0,0,0,0,0,0,0,0,0
"Ind126","3_0_10",78,36,37,36,36,36,36,35,35,35,35,35,35,35,35,35,40,40,40,40,40,39,39,39,39,39,39,40,39,39,39,42,42,42,42,42,42,42,42,42,42,42,42,42,42,42,64,64,64,64,64,64,64,64,64,64,64,64,64,64,65,57,57,56,57,57,57,57,57,57,58,57,57,57,57,57,26,26,26,26,26,25,25,25,25,25,25,25,25,25,25,6,6,6,6,6,6,6,8,6,6,6,6,6,6,6,7,7,7,7,7,7,8,8,7,7,7,7,7,7,7,0,0,0,0,-1,0,0,0,0,0,0,0,0,0,0
"Ind127","3_0_4",78,36,37,36,36,36,36,35,35,35,35,35,35,35,35,35,40,40,40,40,40,39,39,39,39,39,39,40,39,39,39,42,42,42,42,42,42,42,42,42,42,42,42,42,42,42,64,64,64,64,64,64,64,64,64,64,64,64,64,64,65,57,57,56,57,57,57,57,57,57,58,57,57,57,57,57,26,26,26,26,26,25,25,25,25,25,25,25,25,25,25,6,6,6,6,6,6,6,8,6,6,6,6,6,6,6,7,7,7,7,7,7,8,8,7,7,7,7,7,7,7,0,0,0,0,0,-1,0,0,0,0,0,0,0,0,0
"Ind128","3_0_1",78,36,37,36,36,36,36,35,35,35,35,35,35,35,35,35,40,40,40,40,40,39,39,39,39,39,39,40,39,39,39,42,42,42,42,42,42,42,42,42,42,42,42,42,42,42,64,64,64,64,64,64,64,64,64,64,64,64,64,64,65,57,57,56,57,57,57,57,57,57,58,57,57,57,57,57,26,26,26,26,26,25,25,25,25,25,25,25,25,25,25,6,6,6,6,6,6,6,8,6,6,6,6,6,6,6,7,7,7,7,7,7,8,8,7,7,7,7,7,7,7,0,0,0,0,0,0,-1,0,0,0,0,0,0,0,0
"Ind129","3_0_9",78,36,37,36,36,36,36,35,35,35,35,35,35,35,35,35,40,40,40,40,40,39,39,39,39,39,39,40,39,39,39,42,42,42,42,42,42,42,42,42,42,42,42,42,42,42,64,64,64,64,64,64,64,64,64,64,64,64,64,64,65,57,57,56,57,57,57,57,57,57,58,57,57,57,57,57,26,26,26,26,26,25,25,25,25,25,25,25,25,25,25,6,6,6,6,6,6,6,8,6,6,6,6,6,6,6,7,7,7,7,7,7,8,8,7,7,7,7,7,7,7,0,0,0,0,0,0,0,-1,0,0,0,0,0,0,0
"Ind130","3_0_3",78,36,37,36,36,36,36,35,35,35,35,35,35,35,35,35,40,40,40,40,40,39,39,39,39,39,39,40,39,39,39,42,42,42,42,42,42,42,42,42,42,42,42,42,42,42,64,64,64,64,64,64,64,64,64,64,64,64,64,64,65,57,57,56,57,57,57,57,57,57,58,57,57,57,57,57,26,26,26,26,26,25,25,25,25,25,25,25,25,25,25,6,6,6,6,6,6,6,8,6,6,6,6,6,6,6,7,7,7,7,7,7,8,8,7,7,7,7,7,7,7,0,0,0,0,0,0,0,0,-1,0,0,0,0,0,0
"Ind131","3_0_8",78,36,37,36,36,36,36,35,35,35,35,35,35,35,35,35,40,40,40,40,40,39,39,39,39,39,39,40,39,39,39,42,42,42,42,42,42,42,42,42,42,42,42,42,42,42,64,64,64,64,64,64,64,64,64,64,64,64,64,64,65,57,57,56,57,57,57,57,57,57,58,57,57,57,57,57,26,26,26,26,26,25,25,25,25,25,25,25,25,25,25,6,6,6,6,6,6,6,8,6,6,6,6,6,6,6,7,7,7,7,7,7,8,8,7,7,7,7,7,7,7,0,0,0,0,0,0,0,0,0,-1,0,0,0,0,0
"Ind132","3_0_13",78,36,37,36,36,36,36,35,35,35,35,35,35,35,35,35,40,40,40,40,40,39,39,39,39,39,39,40,39,39,39,42,42,42,42,42,42,42,42,42,42,42,42,42,42,42,64,64,64,64,64,64,64,64,64,64,64,64,64,64,65,57,57,56,57,57,57,57,57,57,58,57,57,57,57,57,26,26,26,26,26,25,25,25,25,25,25,25,25,25,25,6,6,6,6,6,6,6,8,6,6,6,6,6,6,6,7,7,7,7,7,7,8,8,7,7,7,7,7,7,7,0,0,0,0,0,0,0,0,0,0,-1,0,0,0,0
"Ind133","3_0_0",78,36,37,36,36,36,36,35,35,35,35,35,35,35,35,35,40,40,40,40,40,39,39,39,39,39,39,40,39,39,39,42,42,42,42,42,42,42,42,42,42,42,42,42,42,42,64,64,64,64,64,64,64,64,64,64,64,64,64,64,65,57,57,56,57,57,57,57,57,57,58,57,57,57,57,57,26,26,26,26,26,25,25,25,25,25,25,25,25,25,25,6,6,6,6,6,6,6,8,6,6,6,6,6,6,6,7,7,7,7,7,7,8,8,7,7,7,7,7,7,7,0,0,0,0,0,0,0,0,0,0,0,-1,0,0,0
"Ind134","3_0_11",78,36,37,36,36,36,36,35,35,35,35,35,35,35,35,35,40,40,40,40,40,39,39,39,39,39,39,40,39,39,39,42,42,42,42,42,42,42,42,42,42,42,42,42,42,42,64,64,64,64,64,64,64,64,64,64,64,64,64,64,65,57,57,56,57,57,57,57,57,57,58,57,57,57,57,57,26,26,26,26,26,25,25,25,25,25,25,25,25,25,25,6,6,6,6,6,6,6,8,6,6,6,6,6,6,6,7,7,7,7,7,7,8,8,7,7,7,7,7,7,7,0,0,0,0,0,0,0,0,0,0,0,0,-1,0,0
"Ind135","3_0_14",78,36,37,36,36,36,36,35,35,35,35,35,35,35,35,35,40,40,40,40,40,39,39,39,39,39,39,40,39,39,39,42,42,42,42,42,42,42,42,42,42,42,42,42,42,42,64,64,64,64,64,64,64,64,64,64,64,64,64,64,65,57,57,56,57,57,57,57,57,57,58,57,57,57,57,57,26,26,26,26,26,25,25,25,25,25,25,25,25,25,25,6,6,6,6,6,6,6,8,6,6,6,6,6,6,6,7,7,7,7,7,7,8,8,7,7,7,7,7,7,7,0,0,0,0,0,0,0,0,0,0,0,0,0,-1,0
"Ind136","3_0_5",78,36,37,36,36,36,36,35,35,35,35,35,35,35,35,35,40,40,40,40,40,39,39,39,39,39,39,40,39,39,39,42,42,42,42,42,42,42,42,42,42,42,42,42,42,42,64,64,64,64,64,64,64,64,64,64,64,64,64,64,65,57,57,56,57,57,57,57,57,57,58,57,57,57,57,57,26,26,26,26,26,25,25,25,25,25,25,25,25,25,25,6,6,6,6,6,6,6,8,6,6,6,6,6,6,6,7,7,7,7,7,7,8,8,7,7,7,7,7,7,7,0,0,0,0,0,0,0,0,0,0,0,0,0,0,-1
