"","Description","Ind1","Ind2","Ind3","Ind4","Ind5","Ind6","Ind7","Ind8","Ind9","Ind10","Ind11","Ind12","Ind13","Ind14","Ind15","Ind16","Ind17","Ind18","Ind19","Ind20","Ind21","Ind22","Ind23","Ind24","Ind25","Ind26","Ind27","Ind28","Ind29","Ind30","Ind31","Ind32","Ind33","Ind34","Ind35","Ind36","Ind37","Ind38","Ind39","Ind40","Ind41","Ind42","Ind43","Ind44","Ind45","Ind46","Ind47","Ind48","Ind49","Ind50","Ind51","Ind52","Ind53","Ind54","Ind55","Ind56","Ind57","Ind58","Ind59","Ind60","Ind61","Ind62","Ind63","Ind64","Ind65","Ind66","Ind67","Ind68","Ind69","Ind70","Ind71","Ind72","Ind73","Ind74","Ind75","Ind76","Ind77","Ind78","Ind79","Ind80","Ind81","Ind82","Ind83","Ind84","Ind85","Ind86","Ind87","Ind88","Ind89","Ind90","Ind91","Ind92","Ind93","Ind94","Ind95","Ind96","Ind97","Ind98","Ind99","Ind100"
"Ind1","0_0_0",-1,0,0,0,0,0,0,0,0,0,0,0,0,0,0,0,0,0,0,0,0,0,0,0,0,0,0,0,0,0,0,0,0,0,0,0,0,0,0,0,0,0,0,0,0,0,0,0,0,0,0,0,0,0,0,0,0,0,0,0,0,0,0,0,0,0,0,0,0,0,0,0,0,0,0,0,0,0,0,0,0,0,0,0,0,0,0,0,0,0,0,0,0,0,0,0,0,0,0,0
"Ind2","7_0_7",51,-1,0,0,0,0,0,0,0,0,0,0,0,0,0,0,0,0,0,0,0,0,0,0,0,0,0,0,0,0,0,0,0,0,0,0,0,0,0,0,0,0,0,0,0,0,0,0,0,0,0,0,0,0,0,0,0,0,0,0,0,0,0,0,0,0,0,0,0,0,0,0,0,0,0,0,0,0,0,0,0,0,0,0,0,0,0,0,0,0,0,0,0,0,0,0,0,0,0,0
"Ind3","7_0_4",51,0,-1,0,0,0,0,0,0,0,0,0,0,0,0,0,0,0,0,0,0,0,0,0,0,0,0,0,0,0,0,0,0,0,0,0,0,0,0,0,0,0,0,0,0,0,0,0,0,0,0,0,0,0,0,0,0,0,0,0,0,0,0,0,0,0,0,0,0,0,0,0,0,0,0,0,0,0,0,0,0,0,0,0,0,0,0,0,0,0,0,0,0,0,0,0,0,0,0,0
"Ind4","7_0_2",51,0,0,-1,0,0,0,0,0,0,0,0,0,0,0,0,0,0,0,0,0,0,0,0,0,0,0,0,0,0,0,0,0,0,0,0,0,0,0,0,0,0,0,0,0,0,0,0,0,0,0,0,0,0,0,0,0,0,0,0,0,0,0,0,0,0,0,0,0,0,0,0,0,0,0,0,0,0,0,0,0,0,0,0,0,0,0,0,0,0,0,0,0,0,0,0,0,0,0,0
"Ind5","7_0_9",51,0,0,0,-1,0,0,0,0,0,0,0,0,0,0,0,0,0,0,0,0,0,0,0,0,0,0,0,0,0,0,0,0,0,0,0,0,0,0,0,0,0,0,0,0,0,0,0,0,0,0,0,0,0,0,0,0,0,0,0,0,0,0,0,0,0,0,0,0,0,0,0,0,0,0,0,0,0,0,0,0,0,0,0,0,0,0,0,0,0,0,0,0,0,0,0,0,0,0,0
"Ind6","7_0_6",51,0,0,0,0,-1,0,0,0,0,0,0,0,0,0,0,0,0,0,0,0,0,0,0,0,0,0,0,0,0,0,0,0,0,0,0,0,0,0,0,0,0,0,0,0,0,0,0,0,0,0,0,0,0,0,0,0,0,0,0,0,0,0,0,0,0,0,0,0,0,0,0,0,0,0,0,0,0,0,0,0,0,0,0,0,0,0,0,0,0,0,0,0,0,0,0,0,0,0,0
"Ind7","7_0_8",51,0,0,0,0,0,-1,0,0,0,0,0,0,0,0,0,0,0,0,0,0,0,0,0,0,0,0,0,0,0,0,0,0,0,0,0,0,0,0,0,0,0,0,0,0,0,0,0,0,0,0,0,0,0,0,0,0,0,0,0,0,0,0,0,0,0,0,0,0,0,0,0,0,0,0,0,0,0,0,0,0,0,0,0,0,0,0,0,0,0,0,0,0,0,0,0,0,0,0,0
"Ind8","7_0_0",51,0,0,0,0,0,0,-1,0,0,0,0,0,0,0,0,0,0,0,0,0,0,0,0,0,0,0,0,0,0,0,0,0,0,0,0,0,0,0,0,0,0,0,0,0,0,0,0,0,0,0,0,0,0,0,0,0,0,0,0,0,0,0,0,0,0,0,0,0,0,0,0,0,0,0,0,0,0,0,0,0,0,0,0,0,0,0,0,0,0,0,0,0,0,0,0,0,0,0,0
"Ind9","7_0_1",51,0,0,0,0,0,0,0,-1,0,0,0,0,0,0,0,0,0,0,0,0,0,0,0,0,0,0,0,0,0,0,0,0,0,0,0,0,0,0,0,0,0,0,0,0,0,0,0,0,0,0,0,0,0,0,0,0,0,0,0,0,0,0,0,0,0,0,0,0,0,0,0,0,0,0,0,0,0,0,0,0,0,0,0,0,0,0,0,0,0,0,0,0,0,0,0,0,0,0,0
"Ind10","7_0_3",52,1,1,1,1,1,1,1,1,-1,0,0,0,0,0,0,0,0,0,0,0,0,0,0,0,0,0,0,0,0,0,0,0,0,0,0,0,0,0,0,0,0,0,0,0,0,0,0,0,0,0,0,0,0,0,0,0,0,0,0,0,0,0,0,0,0,0,0,0,0,0,0,0,0,0,0,0,0,0,0,0,0,0,0,0,0,0,0,0,0,0,0,0,0,0,0,0,0,0,0
"Ind11","7_0_10",52,1,1,1,1,1,1,1,1,0,-1,0,0,0,0,0,0,0,0,0,0,0,0,0,0,0,0,0,0,0,0,0,0,0,0,0,0,0,0,0,0,0,0,0,0,0,0,0,0,0,0,0,0,0,0,0,0,0,0,0,0,0,0,0,0,0,0,0,0,0,0,0,0,0,0,0,0,0,0,0,0,0,0,0,0,0,0,0,0,0,0,0,0,0,0,0,0,0,0,0
"Ind12","7_0_5",52,1,1,1,1,1,1,1,1,0,0,-1,0,0,0,0,0,0,0,0,0,0,0,0,0,0,0,0,0,0,0,0,0,0,0,0,0,0,0,0,0,0,0,0,0,0,0,0,0,0,0,0,0,0,0,0,0,0,0,0,0,0,0,0,0,0,0,0,0,0,0,0,0,0,0,0,0,0,0,0,0,0,0,0,0,0,0,0,0,0,0,0,0,0,0,0,0,0,0,0
"Ind13","8_0_1",54,3,3,3,3,3,3,3,3,4,4,4,-1,0,0,0,0,0,0,0,0,0,0,0,0,0,0,0,0,0,0,0,0,0,0,0,0,0,0,0,0,0,0,0,0,0,0,0,0,0,0,0,0,0,0,0,0,0,0,0,0,0,0,0,0,0,0,0,0,0,0,0,0,0,0,0,0,0,0,0,0,0,0,0,0,0,0,0,0,0,0,0,0,0,0,0,0,0,0,0
"Ind14","8_0_4",54,3,3,3,3,3,3,3,3,4,4,4,0,-1,0,0,0,0,0,0,0,0,0,0,0,0,0,0,0,0,0,0,0,0,0,0,0,0,0,0,0,0,0,0,0,0,0,0,0,0,0,0,0,0,0,0,0,0,0,0,0,0,0,0,0,0,0,0,0,0,0,0,0,0,0,0,0,0,0,0,0,0,0,0,0,0,0,0,0,0,0,0,0,0,0,0,0,0,0,0
"Ind15","8_0_3",54,3,3,3,3,3,3,3,3,4,4,4,0,0,-1,0,0,0,0,0,0,0,0,0,0,0,0,0,0,0,0,0,0,0,0,0,0,0,0,0,0,0,0,0,0,0,0,0,0,0,0,0,0,0,0,0,0,0,0,0,0,0,0,0,0,0,0,0,0,0,0,0,0,0,0,0,0,0,0,0,0,0,0,0,0,0,0,0,0,0,0,0,0,0,0,0,0,0,0,0
"Ind16","8_0_5",54,3,3,3,3,3,3,3,3,4,4,4,4,4,4,-1,0,0,0,0,0,0,0,0,0,0,0,0,0,0,0,0,0,0,0,0,0,0,0,0,0,0,0,0,0,0,0,0,0,0,0,0,0,0,0,0,0,0,0,0,0,0,0,0,0,0,0,0,0,0,0,0,0,0,0,0,0,0,0,0,0,0,0,0,0,0,0,0,0,0,0,0,0,0,0,0,0,0,0,0
"Ind17","8_0_7",54,3,3,3,3,3,3,3,3,4,4,4,4,4,4,0,-1,0,0,0,0,0,0,0,0,0,0,0,0,0,0,0,0,0,0,0,0,0,0,0,0,0,0,0,0,0,0,0,0,0,0,0,0,0,0,0,0,0,0,0,0,0,0,0,0,0,0,0,0,0,0,0,0,0,0,0,0,0,0,0,0,0,0,0,0,0,0,0,0,0,0,0,0,0,0,0,0,0,0,0
"Ind18","8_0_10",54,3,3,3,3,3,3,3,3,4,4,4,4,4,4,0,0,-1,0,0,0,0,0,0,0,0,0,0,0,0,0,0,0,0,0,0,0,0,0,0,0,0,0,0,0,0,0,0,0,0,0,0,0,0,0,0,0,0,0,0,0,0,0,0,0,0,0,0,0,0,0,0,0,0,0,0,0,0,0,0,0,0,0,0,0,0,0,0,0,0,0,0,0,0,0,0,0,0,0,0
"Ind19","8_0_8",54,3,3,3,3,3,3,3,3,4,4,4,4,4,4,0,0,0,-1,0,0,0,0,0,0,0,0,0,0,0,0,0,0,0,0,0,0,0,0,0,0,0,0,0,0,0,0,0,0,0,0,0,0,0,0,0,0,0,0,0,0,0,0,0,0,0,0,0,0,0,0,0,0,0,0,0,0,0,0,0,0,0,0,0,0,0,0,0,0,0,0,0,0,0,0,0,0,0,0,0
"Ind20","8_0_0",54,3,3,3,3,3,3,3,3,4,4,4,4,4,4,0,0,0,0,-1,0,0,0,0,0,0,0,0,0,0,0,0,0,0,0,0,0,0,0,0,0,0,0,0,0,0,0,0,0,0,0,0,0,0,0,0,0,0,0,0,0,0,0,0,0,0,0,0,0,0,0,0,0,0,0,0,0,0,0,0,0,0,0,0,0,0,0,0,0,0,0,0,0,0,0,0,0,0,0,0
"Ind21","8_0_6",54,3,3,3,3,3,3,3,3,4,4,4,4,4,4,0,0,0,0,0,-1,0,0,0,0,0,0,0,0,0,0,0,0,0,0,0,0,0,0,0,0,0,0,0,0,0,0,0,0,0,0,0,0,0,0,0,0,0,0,0,0,0,0,0,0,0,0,0,0,0,0,0,0,0,0,0,0,0,0,0,0,0,0,0,0,0,0,0,0,0,0,0,0,0,0,0,0,0,0,0
"Ind22","8_0_9",54,3,3,3,3,3,3,3,3,4,4,4,4,4,4,0,0,0,0,0,0,-1,0,0,0,0,0,0,0,0,0,0,0,0,0,0,0,0,0,0,0,0,0,0,0,0,0,0,0,0,0,0,0,0,0,0,0,0,0,0,0,0,0,0,0,0,0,0,0,0,0,0,0,0,0,0,0,0,0,0,0,0,0,0,0,0,0,0,0,0,0,0,0,0,0,0,0,0,0,0
"Ind23","8_0_2",54,3,3,3,3,3,3,3,3,4,4,4,4,4,4,0,0,0,0,0,0,0,-1,0,0,0,0,0,0,0,0,0,0,0,0,0,0,0,0,0,0,0,0,0,0,0,0,0,0,0,0,0,0,0,0,0,0,0,0,0,0,0,0,0,0,0,0,0,0,0,0,0,0,0,0,0,0,0,0,0,0,0,0,0,0,0,0,0,0,0,0,0,0,0,0,0,0,0,0,0
"Ind24","9_0_3",50,9,9,9,9,9,9,9,9,8,8,8,12,12,12,12,12,12,12,12,12,12,12,-1,0,0,0,0,0,0,0,0,0,0,0,0,0,0,0,0,0,0,0,0,0,0,0,0,0,0,0,0,0,0,0,0,0,0,0,0,0,0,0,0,0,0,0,0,0,0,0,0,0,0,0,0,0,0,0,0,0,0,0,0,0,0,0,0,0,0,0,0,0,0,0,0,0,0,0,0
"Ind25","9_0_7",50,9,9,9,9,9,9,9,9,8,8,8,12,12,12,12,12,12,12,12,12,12,12,0,-1,0,0,0,0,0,0,0,0,0,0,0,0,0,0,0,0,0,0,0,0,0,0,0,0,0,0,0,0,0,0,0,0,0,0,0,0,0,0,0,0,0,0,0,0,0,0,0,0,0,0,0,0,0,0,0,0,0,0,0,0,0,0,0,0,0,0,0,0,0,0,0,0,0,0,0
"Ind26","9_0_10",50,9,9,9,9,9,9,9,9,8,8,8,12,12,12,12,12,12,12,12,12,12,12,0,0,-1,0,0,0,0,0,0,0,0,0,0,0,0,0,0,0,0,0,0,0,0,0,0,0,0,0,0,0,0,0,0,0,0,0,0,0,0,0,0,0,0,0,0,0,0,0,0,0,0,0,0,0,0,0,0,0,0,0,0,0,0,0,0,0,0,0,0,0,0,0,0,0,0,0,0
"Ind27","9_0_2",50,9,9,9,9,9,9,9,9,8,8,8,12,12,12,12,12,12,12,12,12,12,12,0,0,0,-1,0,0,0,0,0,0,0,0,0,0,0,0,0,0,0,0,0,0,0,0,0,0,0,0,0,0,0,0,0,0,0,0,0,0,0,0,0,0,0,0,0,0,0,0,0,0,0,0,0,0,0,0,0,0,0,0,0,0,0,0,0,0,0,0,0,0,0,0,0,0,0,0,0
"Ind28","9_0_6",50,9,9,9,9,9,9,9,9,8,8,8,12,12,12,12,12,12,12,12,12,12,12,0,0,0,0,-1,0,0,0,0,0,0,0,0,0,0,0,0,0,0,0,0,0,0,0,0,0,0,0,0,0,0,0,0,0,0,0,0,0,0,0,0,0,0,0,0,0,0,0,0,0,0,0,0,0,0,0,0,0,0,0,0,0,0,0,0,0,0,0,0,0,0,0,0,0,0,0,0
"Ind29","9_0_1",50,9,9,9,9,9,9,9,9,8,8,8,12,12,12,12,12,12,12,12,12,12,12,0,0,0,0,0,-1,0,0,0,0,0,0,0,0,0,0,0,0,0,0,0,0,0,0,0,0,0,0,0,0,0,0,0,0,0,0,0,0,0,0,0,0,0,0,0,0,0,0,0,0,0,0,0,0,0,0,0,0,0,0,0,0,0,0,0,0,0,0,0,0,0,0,0,0,0,0,0
"Ind30","9_0_0",47,10,10,10,10,10,10,10,10,11,11,11,13,13,13,13,13,13,13,13,13,13,13,3,3,3,3,3,3,-1,0,0,0,0,0,0,0,0,0,0,0,0,0,0,0,0,0,0,0,0,0,0,0,0,0,0,0,0,0,0,0,0,0,0,0,0,0,0,0,0,0,0,0,0,0,0,0,0,0,0,0,0,0,0,0,0,0,0,0,0,0,0,0,0,0,0,0,0,0,0
"Ind31","9_0_9",47,10,10,10,10,10,10,10,10,11,11,11,13,13,13,13,13,13,13,13,13,13,13,3,3,3,3,3,3,0,-1,0,0,0,0,0,0,0,0,0,0,0,0,0,0,0,0,0,0,0,0,0,0,0,0,0,0,0,0,0,0,0,0,0,0,0,0,0,0,0,0,0,0,0,0,0,0,0,0,0,0,0,0,0,0,0,0,0,0,0,0,0,0,0,0,0,0,0,0,0
"Ind32","9_0_4",47,10,10,10,10,10,10,10,10,11,11,11,13,13,13,13,13,13,13,13,13,13,13,3,3,3,3,3,3,0,0,-1,0,0,0,0,0,0,0,0,0,0,0,0,0,0,0,0,0,0,0,0,0,0,0,0,0,0,0,0,0,0,0,0,0,0,0,0,0,0,0,0,0,0,0,0,0,0,0,0,0,0,0,0,0,0,0,0,0,0,0,0,0,0,0,0,0,0,0,0
"Ind33","9_0_5",47,10,10,10,10,10,10,10,10,11,11,11,13,13,13,13,13,13,13,13,13,13,13,3,3,3,3,3,3,0,0,0,-1,0,0,0,0,0,0,0,0,0,0,0,0,0,0,0,0,0,0,0,0,0,0,0,0,0,0,0,0,0,0,0,0,0,0,0,0,0,0,0,0,0,0,0,0,0,0,0,0,0,0,0,0,0,0,0,0,0,0,0,0,0,0,0,0,0,0,0
"Ind34","9_0_8",47,10,10,10,10,10,10,10,10,11,11,11,13,13,13,13,13,13,13,13,13,13,13,3,3,3,3,3,3,0,0,0,0,-1,0,0,0,0,0,0,0,0,0,0,0,0,0,0,0,0,0,0,0,0,0,0,0,0,0,0,0,0,0,0,0,0,0,0,0,0,0,0,0,0,0,0,0,0,0,0,0,0,0,0,0,0,0,0,0,0,0,0,0,0,0,0,0,0,0,0
"Ind35","4_0_9",47,34,34,34,34,34,34,34,34,35,35,35,37,37,37,37,37,37,37,37,37,37,37,31,31,31,31,31,31,32,32,32,32,32,-1,0,0,0,0,0,0,0,0,0,0,0,0,0,0,0,0,0,0,0,0,0,0,0,0,0,0,0,0,0,0,0,0,0,0,0,0,0,0,0,0,0,0,0,0,0,0,0,0,0,0,0,0,0,0,0,0,0,0,0,0,0,0,0,0,0
"Ind36","4_0_0",47,34,34,34,34,34,34,34,34,35,35,35,37,37,37,37,37,37,37,37,37,37,37,31,31,31,31,31,31,32,32,32,32,32,0,-1,0,0,0,0,0,0,0,0,0,0,0,0,0,0,0,0,0,0,0,0,0,0,0,0,0,0,0,0,0,0,0,0,0,0,0,0,0,0,0,0,0,0,0,0,0,0,0,0,0,0,0,0,0,0,0,0,0,0,0,0,0,0,0,0
"Ind37","4_0_3",47,34,34,34,34,34,34,34,34,35,35,35,37,37,37,37,37,37,37,37,37,37,37,31,31,31,31,31,31,32,32,32,32,32,0,0,-1,0,0,0,0,0,0,0,0,0,0,0,0,0,0,0,0,0,0,0,0,0,0,0,0,0,0,0,0,0,0,0,0,0,0,0,0,0,0,0,0,0,0,0,0,0,0,0,0,0,0,0,0,0,0,0,0,0,0,0,0,0,0,0
"Ind38","4_0_1",46,33,33,33,33,33,33,33,33,34,34,34,36,36,36,36,36,36,36,36,36,36,36,30,30,30,30,30,30,31,31,31,31,31,1,1,1,-1,0,0,0,0,0,0,0,0,0,0,0,0,0,0,0,0,0,0,0,0,0,0,0,0,0,0,0,0,0,0,0,0,0,0,0,0,0,0,0,0,0,0,0,0,0,0,0,0,0,0,0,0,0,0,0,0,0,0,0,0,0,0
"Ind39","4_0_7",46,33,33,33,33,33,33,33,33,34,34,34,36,36,36,36,36,36,36,36,36,36,36,30,30,30,30,30,30,31,31,31,31,31,1,1,1,0,-1,0,0,0,0,0,0,0,0,0,0,0,0,0,0,0,0,0,0,0,0,0,0,0,0,0,0,0,0,0,0,0,0,0,0,0,0,0,0,0,0,0,0,0,0,0,0,0,0,0,0,0,0,0,0,0,0,0,0,0,0,0
"Ind40","4_0_5",46,33,33,33,33,33,33,33,33,34,34,34,36,36,36,36,36,36,36,36,36,36,36,30,30,30,30,30,30,31,31,31,31,31,1,1,1,0,0,-1,0,0,0,0,0,0,0,0,0,0,0,0,0,0,0,0,0,0,0,0,0,0,0,0,0,0,0,0,0,0,0,0,0,0,0,0,0,0,0,0,0,0,0,0,0,0,0,0,0,0,0,0,0,0,0,0,0,0,0,0
"Ind41","4_0_10",46,33,33,33,33,33,33,33,33,34,34,34,36,36,36,36,36,36,36,36,36,36,36,30,30,30,30,30,30,31,31,31,31,31,1,1,1,0,0,0,-1,0,0,0,0,0,0,0,0,0,0,0,0,0,0,0,0,0,0,0,0,0,0,0,0,0,0,0,0,0,0,0,0,0,0,0,0,0,0,0,0,0,0,0,0,0,0,0,0,0,0,0,0,0,0,0,0,0,0,0
"Ind42","4_0_2",45,34,34,34,34,34,34,34,34,35,35,35,37,37,37,37,37,37,37,37,37,37,37,31,31,31,31,31,31,32,32,32,32,32,2,2,2,1,1,1,1,-1,0,0,0,0,0,0,0,0,0,0,0,0,0,0,0,0,0,0,0,0,0,0,0,0,0,0,0,0,0,0,0,0,0,0,0,0,0,0,0,0,0,0,0,0,0,0,0,0,0,0,0,0,0,0,0,0,0,0
"Ind43","4_0_4",46,33,33,33,33,33,33,33,33,34,34,34,36,36,36,36,36,36,36,36,36,36,36,30,30,30,30,30,30,31,31,31,31,31,1,1,1,0,0,0,0,1,-1,0,0,0,0,0,0,0,0,0,0,0,0,0,0,0,0,0,0,0,0,0,0,0,0,0,0,0,0,0,0,0,0,0,0,0,0,0,0,0,0,0,0,0,0,0,0,0,0,0,0,0,0,0,0,0,0,0
"Ind44","4_0_8",46,33,33,33,33,33,33,33,33,34,34,34,36,36,36,36,36,36,36,36,36,36,36,30,30,30,30,30,30,31,31,31,31,31,1,1,1,0,0,0,0,1,0,-1,0,0,0,0,0,0,0,0,0,0,0,0,0,0,0,0,0,0,0,0,0,0,0,0,0,0,0,0,0,0,0,0,0,0,0,0,0,0,0,0,0,0,0,0,0,0,0,0,0,0,0,0,0,0,0,0
"Ind45","4_0_6",46,33,33,33,33,33,33,33,33,34,34,34,36,36,36,36,36,36,36,36,36,36,36,30,30,30,30,30,30,31,31,31,31,31,1,1,1,0,0,0,0,1,0,0,-1,0,0,0,0,0,0,0,0,0,0,0,0,0,0,0,0,0,0,0,0,0,0,0,0,0,0,0,0,0,0,0,0,0,0,0,0,0,0,0,0,0,0,0,0,0,0,0,0,0,0,0,0,0,0,0
"Ind46","1_0_8",50,39,39,39,39,39,39,39,39,40,40,40,42,42,42,42,42,42,42,42,42,42,42,36,36,36,36,36,36,37,37,37,37,37,7,7,7,6,6,6,6,7,6,6,6,-1,0,0,0,0,0,0,0,0,0,0,0,0,0,0,0,0,0,0,0,0,0,0,0,0,0,0,0,0,0,0,0,0,0,0,0,0,0,0,0,0,0,0,0,0,0,0,0,0,0,0,0,0,0,0
"Ind47","1_0_4",50,39,39,39,39,39,39,39,39,40,40,40,42,42,42,42,42,42,42,42,42,42,42,36,36,36,36,36,36,37,37,37,37,37,7,7,7,6,6,6,6,7,6,6,6,0,-1,0,0,0,0,0,0,0,0,0,0,0,0,0,0,0,0,0,0,0,0,0,0,0,0,0,0,0,0,0,0,0,0,0,0,0,0,0,0,0,0,0,0,0,0,0,0,0,0,0,0,0,0,0
"Ind48","1_0_5",50,39,39,39,39,39,39,39,39,40,40,40,42,42,42,42,42,42,42,42,42,42,42,36,36,36,36,36,36,37,37,37,37,37,7,7,7,6,6,6,6,7,6,6,6,0,0,-1,0,0,0,0,0,0,0,0,0,0,0,0,0,0,0,0,0,0,0,0,0,0,0,0,0,0,0,0,0,0,0,0,0,0,0,0,0,0,0,0,0,0,0,0,0,0,0,0,0,0,0,0
"Ind49","1_0_6",50,39,39,39,39,39,39,39,39,40,40,40,42,42,42,42,42,42,42,42,42,42,42,36,36,36,36,36,36,37,37,37,37,37,7,7,7,6,6,6,6,7,6,6,6,0,0,0,-1,0,0,0,0,0,0,0,0,0,0,0,0,0,0,0,0,0,0,0,0,0,0,0,0,0,0,0,0,0,0,0,0,0,0,0,0,0,0,0,0,0,0,0,0,0,0,0,0,0,0,0
"Ind50","1_0_0",50,39,39,39,39,39,39,39,39,40,40,40,42,42,42,42,42,42,42,42,42,42,42,36,36,36,36,36,36,37,37,37,37,37,7,7,7,6,6,6,6,7,6,6,6,0,0,0,0,-1,0,0,0,0,0,0,0,0,0,0,0,0,0,0,0,0,0,0,0,0,0,0,0,0,0,0,0,0,0,0,0,0,0,0,0,0,0,0,0,0,0,0,0,0,0,0,0,0,0,0
"Ind51","1_0_10",50,39,39,39,39,39,39,39,39,40,40,40,42,42,42,42,42,42,42,42,42,42,42,36,36,36,36,36,36,37,37,37,37,37,7,7,7,6,6,6,6,7,6,6,6,0,0,0,0,0,-1,0,0,0,0,0,0,0,0,0,0,0,0,0,0,0,0,0,0,0,0,0,0,0,0,0,0,0,0,0,0,0,0,0,0,0,0,0,0,0,0,0,0,0,0,0,0,0,0,0
"Ind52","1_0_7",51,40,40,40,40,40,40,40,40,41,41,41,43,43,43,43,43,43,43,43,43,43,43,37,37,37,37,37,37,38,38,38,38,38,8,8,8,7,7,7,7,8,7,7,7,1,1,1,1,1,1,-1,0,0,0,0,0,0,0,0,0,0,0,0,0,0,0,0,0,0,0,0,0,0,0,0,0,0,0,0,0,0,0,0,0,0,0,0,0,0,0,0,0,0,0,0,0,0,0,0
"Ind53","1_0_2",51,40,40,40,40,40,40,40,40,41,41,41,43,43,43,43,43,43,43,43,43,43,43,37,37,37,37,37,37,38,38,38,38,38,8,8,8,7,7,7,7,8,7,7,7,1,1,1,1,1,1,0,-1,0,0,0,0,0,0,0,0,0,0,0,0,0,0,0,0,0,0,0,0,0,0,0,0,0,0,0,0,0,0,0,0,0,0,0,0,0,0,0,0,0,0,0,0,0,0,0
"Ind54","1_0_9",50,39,39,39,39,39,39,39,39,40,40,40,42,42,42,42,42,42,42,42,42,42,42,38,38,38,38,38,38,39,39,39,39,39,9,9,9,8,8,8,8,9,8,8,8,2,2,2,2,2,2,1,1,-1,0,0,0,0,0,0,0,0,0,0,0,0,0,0,0,0,0,0,0,0,0,0,0,0,0,0,0,0,0,0,0,0,0,0,0,0,0,0,0,0,0,0,0,0,0,0
"Ind55","1_0_3",50,39,39,39,39,39,39,39,39,40,40,40,42,42,42,42,42,42,42,42,42,42,42,38,38,38,38,38,38,39,39,39,39,39,9,9,9,8,8,8,8,9,8,8,8,2,2,2,2,2,2,1,1,0,-1,0,0,0,0,0,0,0,0,0,0,0,0,0,0,0,0,0,0,0,0,0,0,0,0,0,0,0,0,0,0,0,0,0,0,0,0,0,0,0,0,0,0,0,0,0
"Ind56","1_0_1",50,41,41,41,41,41,41,41,41,42,42,42,44,44,44,44,44,44,44,44,44,44,44,38,38,38,38,38,38,39,39,39,39,39,9,9,9,8,8,8,8,9,8,8,8,2,2,2,2,2,2,3,3,4,4,-1,0,0,0,0,0,0,0,0,0,0,0,0,0,0,0,0,0,0,0,0,0,0,0,0,0,0,0,0,0,0,0,0,0,0,0,0,0,0,0,0,0,0,0,0
"Ind57","3_0_9",49,36,36,36,36,36,36,36,36,37,37,37,39,39,39,39,39,39,39,39,39,39,39,35,35,35,35,35,35,36,36,36,36,36,12,12,12,11,11,11,11,12,11,11,11,13,13,13,13,13,13,14,14,15,15,15,-1,0,0,0,0,0,0,0,0,0,0,0,0,0,0,0,0,0,0,0,0,0,0,0,0,0,0,0,0,0,0,0,0,0,0,0,0,0,0,0,0,0,0,0
"Ind58","3_0_2",49,36,36,36,36,36,36,36,36,37,37,37,39,39,39,39,39,39,39,39,39,39,39,35,35,35,35,35,35,36,36,36,36,36,12,12,12,11,11,11,11,12,11,11,11,13,13,13,13,13,13,14,14,15,15,15,0,-1,0,0,0,0,0,0,0,0,0,0,0,0,0,0,0,0,0,0,0,0,0,0,0,0,0,0,0,0,0,0,0,0,0,0,0,0,0,0,0,0,0,0
"Ind59","3_0_0",48,35,35,35,35,35,35,35,35,36,36,36,38,38,38,38,38,38,38,38,38,38,38,34,34,34,34,34,34,35,35,35,35,35,11,11,11,10,10,10,10,11,10,10,10,12,12,12,12,12,12,13,13,14,14,14,1,1,-1,0,0,0,0,0,0,0,0,0,0,0,0,0,0,0,0,0,0,0,0,0,0,0,0,0,0,0,0,0,0,0,0,0,0,0,0,0,0,0,0,0
"Ind60","3_0_10",48,35,35,35,35,35,35,35,35,36,36,36,38,38,38,38,38,38,38,38,38,38,38,34,34,34,34,34,34,35,35,35,35,35,11,11,11,10,10,10,10,11,10,10,10,12,12,12,12,12,12,13,13,14,14,14,1,1,0,-1,0,0,0,0,0,0,0,0,0,0,0,0,0,0,0,0,0,0,0,0,0,0,0,0,0,0,0,0,0,0,0,0,0,0,0,0,0,0,0,0
"Ind61","3_0_3",48,33,33,33,33,33,33,33,33,34,34,34,36,36,36,36,36,36,36,36,36,36,36,32,32,32,32,32,32,33,33,33,33,33,9,9,9,8,8,8,8,9,8,8,8,12,12,12,12,12,12,13,13,14,14,14,3,3,2,2,-1,0,0,0,0,0,0,0,0,0,0,0,0,0,0,0,0,0,0,0,0,0,0,0,0,0,0,0,0,0,0,0,0,0,0,0,0,0,0,0
"Ind62","3_0_5",48,33,33,33,33,33,33,33,33,34,34,34,36,36,36,36,36,36,36,36,36,36,36,32,32,32,32,32,32,33,33,33,33,33,9,9,9,8,8,8,8,9,8,8,8,12,12,12,12,12,12,13,13,14,14,14,3,3,2,2,0,-1,0,0,0,0,0,0,0,0,0,0,0,0,0,0,0,0,0,0,0,0,0,0,0,0,0,0,0,0,0,0,0,0,0,0,0,0,0,0
"Ind63","3_0_1",48,33,33,33,33,33,33,33,33,34,34,34,36,36,36,36,36,36,36,36,36,36,36,32,32,32,32,32,32,33,33,33,33,33,9,9,9,8,8,8,8,9,8,8,8,12,12,12,12,12,12,13,13,14,14,14,3,3,2,2,0,0,-1,0,0,0,0,0,0,0,0,0,0,0,0,0,0,0,0,0,0,0,0,0,0,0,0,0,0,0,0,0,0,0,0,0,0,0,0,0
"Ind64","3_0_4",48,33,33,33,33,33,33,33,33,34,34,34,36,36,36,36,36,36,36,36,36,36,36,32,32,32,32,32,32,33,33,33,33,33,9,9,9,8,8,8,8,9,8,8,8,12,12,12,12,12,12,13,13,14,14,14,3,3,2,2,0,0,0,-1,0,0,0,0,0,0,0,0,0,0,0,0,0,0,0,0,0,0,0,0,0,0,0,0,0,0,0,0,0,0,0,0,0,0,0,0
"Ind65","3_0_6",48,33,33,33,33,33,33,33,33,34,34,34,36,36,36,36,36,36,36,36,36,36,36,32,32,32,32,32,32,33,33,33,33,33,9,9,9,8,8,8,8,9,8,8,8,12,12,12,12,12,12,13,13,14,14,14,3,3,2,2,0,0,0,0,-1,0,0,0,0,0,0,0,0,0,0,0,0,0,0,0,0,0,0,0,0,0,0,0,0,0,0,0,0,0,0,0,0,0,0,0
"Ind66","3_0_7",48,33,33,33,33,33,33,33,33,34,34,34,36,36,36,36,36,36,36,36,36,36,36,32,32,32,32,32,32,33,33,33,33,33,9,9,9,8,8,8,8,9,8,8,8,12,12,12,12,12,12,13,13,14,14,14,3,3,2,2,0,0,0,0,0,-1,0,0,0,0,0,0,0,0,0,0,0,0,0,0,0,0,0,0,0,0,0,0,0,0,0,0,0,0,0,0,0,0,0,0
"Ind67","3_0_8",48,33,33,33,33,33,33,33,33,34,34,34,36,36,36,36,36,36,36,36,36,36,36,32,32,32,32,32,32,33,33,33,33,33,9,9,9,8,8,8,8,9,8,8,8,12,12,12,12,12,12,13,13,14,14,14,3,3,2,2,0,0,0,0,0,0,-1,0,0,0,0,0,0,0,0,0,0,0,0,0,0,0,0,0,0,0,0,0,0,0,0,0,0,0,0,0,0,0,0,0
"Ind68","5_0_0",48,27,27,27,27,27,27,27,27,28,28,28,30,30,30,30,30,30,30,30,30,30,30,28,28,28,28,28,28,29,29,29,29,29,27,27,27,26,26,26,26,27,26,26,26,32,32,32,32,32,32,33,33,32,32,32,29,29,30,30,28,28,28,28,28,28,28,-1,0,0,0,0,0,0,0,0,0,0,0,0,0,0,0,0,0,0,0,0,0,0,0,0,0,0,0,0,0,0,0,0
"Ind69","5_0_4",48,27,27,27,27,27,27,27,27,28,28,28,30,30,30,30,30,30,30,30,30,30,30,28,28,28,28,28,28,29,29,29,29,29,27,27,27,26,26,26,26,27,26,26,26,32,32,32,32,32,32,33,33,32,32,32,29,29,30,30,28,28,28,28,28,28,28,0,-1,0,0,0,0,0,0,0,0,0,0,0,0,0,0,0,0,0,0,0,0,0,0,0,0,0,0,0,0,0,0,0
"Ind70","5_0_7",47,26,26,26,26,26,26,26,26,27,27,27,29,29,29,29,29,29,29,29,29,29,29,27,27,27,27,27,27,28,28,28,28,28,26,26,26,25,25,25,25,26,25,25,25,31,31,31,31,31,31,32,32,31,31,31,28,28,29,29,27,27,27,27,27,27,27,1,1,-1,0,0,0,0,0,0,0,0,0,0,0,0,0,0,0,0,0,0,0,0,0,0,0,0,0,0,0,0,0,0
"Ind71","5_0_8",47,26,26,26,26,26,26,26,26,27,27,27,29,29,29,29,29,29,29,29,29,29,29,27,27,27,27,27,27,28,28,28,28,28,26,26,26,25,25,25,25,26,25,25,25,31,31,31,31,31,31,32,32,31,31,31,28,28,29,29,27,27,27,27,27,27,27,1,1,0,-1,0,0,0,0,0,0,0,0,0,0,0,0,0,0,0,0,0,0,0,0,0,0,0,0,0,0,0,0,0
"Ind72","5_0_10",47,26,26,26,26,26,26,26,26,27,27,27,29,29,29,29,29,29,29,29,29,29,29,27,27,27,27,27,27,28,28,28,28,28,26,26,26,25,25,25,25,26,25,25,25,31,31,31,31,31,31,32,32,31,31,31,28,28,29,29,27,27,27,27,27,27,27,1,1,0,0,-1,0,0,0,0,0,0,0,0,0,0,0,0,0,0,0,0,0,0,0,0,0,0,0,0,0,0,0,0
"Ind73","5_0_9",47,26,26,26,26,26,26,26,26,27,27,27,29,29,29,29,29,29,29,29,29,29,29,27,27,27,27,27,27,28,28,28,28,28,26,26,26,25,25,25,25,26,25,25,25,31,31,31,31,31,31,32,32,31,31,31,28,28,29,29,27,27,27,27,27,27,27,1,1,0,0,0,-1,0,0,0,0,0,0,0,0,0,0,0,0,0,0,0,0,0,0,0,0,0,0,0,0,0,0,0
"Ind74","5_0_6",47,26,26,26,26,26,26,26,26,27,27,27,29,29,29,29,29,29,29,29,29,29,29,27,27,27,27,27,27,28,28,28,28,28,26,26,26,25,25,25,25,26,25,25,25,31,31,31,31,31,31,32,32,31,31,31,28,28,29,29,27,27,27,27,27,27,27,1,1,0,0,0,0,-1,0,0,0,0,0,0,0,0,0,0,0,0,0,0,0,0,0,0,0,0,0,0,0,0,0,0
"Ind75","5_0_2",47,26,26,26,26,26,26,26,26,27,27,27,29,29,29,29,29,29,29,29,29,29,29,27,27,27,27,27,27,28,28,28,28,28,26,26,26,25,25,25,25,26,25,25,25,31,31,31,31,31,31,32,32,31,31,31,28,28,29,29,27,27,27,27,27,27,27,1,1,0,0,0,0,0,-1,0,0,0,0,0,0,0,0,0,0,0,0,0,0,0,0,0,0,0,0,0,0,0,0,0
"Ind76","5_0_3",47,26,26,26,26,26,26,26,26,27,27,27,29,29,29,29,29,29,29,29,29,29,29,27,27,27,27,27,27,28,28,28,28,28,26,26,26,25,25,25,25,26,25,25,25,31,31,31,31,31,31,32,32,31,31,31,28,28,29,29,27,27,27,27,27,27,27,1,1,0,0,0,0,0,0,-1,0,0,0,0,0,0,0,0,0,0,0,0,0,0,0,0,0,0,0,0,0,0,0,0
"Ind77","5_0_5",47,26,26,26,26,26,26,26,26,27,27,27,29,29,29,29,29,29,29,29,29,29,29,27,27,27,27,27,27,28,28,28,28,28,26,26,26,25,25,25,25,26,25,25,25,31,31,31,31,31,31,32,32,31,31,31,28,28,29,29,27,27,27,27,27,27,27,1,1,0,0,0,0,0,0,0,-1,0,0,0,0,0,0,0,0,0,0,0,0,0,0,0,0,0,0,0,0,0,0,0
"Ind78","5_0_1",48,27,27,27,27,27,27,27,27,28,28,28,30,30,30,30,30,30,30,30,30,30,30,28,28,28,28,28,28,29,29,29,29,29,27,27,27,26,26,26,26,27,26,26,26,32,32,32,32,32,32,33,33,32,32,32,29,29,30,30,28,28,28,28,28,28,28,2,2,1,1,1,1,1,1,1,1,-1,0,0,0,0,0,0,0,0,0,0,0,0,0,0,0,0,0,0,0,0,0,0
"Ind79","6_0_9",43,28,28,28,28,28,28,28,28,29,29,29,31,31,31,31,31,31,31,31,31,31,31,27,27,27,27,27,27,28,28,28,28,28,20,20,20,19,19,19,19,20,19,19,19,25,25,25,25,25,25,26,26,25,25,25,24,24,23,23,21,21,21,21,21,21,21,13,13,12,12,12,12,12,12,12,12,13,-1,0,0,0,0,0,0,0,0,0,0,0,0,0,0,0,0,0,0,0,0,0
"Ind80","6_0_6",43,28,28,28,28,28,28,28,28,29,29,29,31,31,31,31,31,31,31,31,31,31,31,27,27,27,27,27,27,28,28,28,28,28,20,20,20,19,19,19,19,20,19,19,19,25,25,25,25,25,25,26,26,25,25,25,24,24,23,23,21,21,21,21,21,21,21,13,13,12,12,12,12,12,12,12,12,13,0,-1,0,0,0,0,0,0,0,0,0,0,0,0,0,0,0,0,0,0,0,0
"Ind81","6_0_4",43,28,28,28,28,28,28,28,28,29,29,29,31,31,31,31,31,31,31,31,31,31,31,27,27,27,27,27,27,28,28,28,28,28,20,20,20,19,19,19,19,20,19,19,19,25,25,25,25,25,25,26,26,25,25,25,24,24,23,23,21,21,21,21,21,21,21,13,13,12,12,12,12,12,12,12,12,13,2,2,-1,0,0,0,0,0,0,0,0,0,0,0,0,0,0,0,0,0,0,0
"Ind82","6_0_10",43,28,28,28,28,28,28,28,28,29,29,29,31,31,31,31,31,31,31,31,31,31,31,27,27,27,27,27,27,28,28,28,28,28,20,20,20,19,19,19,19,20,19,19,19,25,25,25,25,25,25,26,26,25,25,25,24,24,23,23,21,21,21,21,21,21,21,13,13,12,12,12,12,12,12,12,12,13,2,2,0,-1,0,0,0,0,0,0,0,0,0,0,0,0,0,0,0,0,0,0
"Ind83","6_0_5",43,28,28,28,28,28,28,28,28,29,29,29,31,31,31,31,31,31,31,31,31,31,31,27,27,27,27,27,27,28,28,28,28,28,20,20,20,19,19,19,19,20,19,19,19,25,25,25,25,25,25,26,26,25,25,25,24,24,23,23,21,21,21,21,21,21,21,13,13,12,12,12,12,12,12,12,12,13,2,2,0,0,-1,0,0,0,0,0,0,0,0,0,0,0,0,0,0,0,0,0
"Ind84","6_0_1",43,28,28,28,28,28,28,28,28,29,29,29,31,31,31,31,31,31,31,31,31,31,31,27,27,27,27,27,27,28,28,28,28,28,20,20,20,19,19,19,19,20,19,19,19,25,25,25,25,25,25,26,26,25,25,25,24,24,23,23,21,21,21,21,21,21,21,13,13,12,12,12,12,12,12,12,12,13,2,2,0,0,0,-1,0,0,0,0,0,0,0,0,0,0,0,0,0,0,0,0
"Ind85","6_0_8",43,28,28,28,28,28,28,28,28,29,29,29,31,31,31,31,31,31,31,31,31,31,31,27,27,27,27,27,27,28,28,28,28,28,20,20,20,19,19,19,19,20,19,19,19,25,25,25,25,25,25,26,26,25,25,25,24,24,23,23,21,21,21,21,21,21,21,13,13,12,12,12,12,12,12,12,12,13,2,2,2,2,2,2,-1,0,0,0,0,0,0,0,0,0,0,0,0,0,0,0
"Ind86","6_0_2",43,28,28,28,28,28,28,28,28,29,29,29,31,31,31,31,31,31,31,31,31,31,31,27,27,27,27,27,27,28,28,28,28,28,20,20,20,19,19,19,19,20,19,19,19,25,25,25,25,25,25,26,26,25,25,25,24,24,23,23,21,21,21,21,21,21,21,13,13,12,12,12,12,12,12,12,12,13,2,2,2,2,2,2,0,-1,0,0,0,0,0,0,0,0,0,0,0,0,0,0
"Ind87","6_0_3",43,28,28,28,28,28,28,28,28,29,29,29,31,31,31,31,31,31,31,31,31,31,31,27,27,27,27,27,27,28,28,28,28,28,20,20,20,19,19,19,19,20,19,19,19,25,25,25,25,25,25,26,26,25,25,25,24,24,23,23,21,21,21,21,21,21,21,13,13,12,12,12,12,12,12,12,12,13,2,2,2,2,2,2,0,0,-1,0,0,0,0,0,0,0,0,0,0,0,0,0
"Ind88","6_0_7",43,28,28,28,28,28,28,28,28,29,29,29,31,31,31,31,31,31,31,31,31,31,31,27,27,27,27,27,27,28,28,28,28,28,20,20,20,19,19,19,19,20,19,19,19,25,25,25,25,25,25,26,26,25,25,25,24,24,23,23,21,21,21,21,21,21,21,13,13,12,12,12,12,12,12,12,12,13,2,2,2,2,2,2,0,0,0,-1,0,0,0,0,0,0,0,0,0,0,0,0
"Ind89","6_0_0",44,29,29,29,29,29,29,29,29,30,30,30,32,32,32,32,32,32,32,32,32,32,32,28,28,28,28,28,28,29,29,29,29,29,21,21,21,20,20,20,20,21,20,20,20,26,26,26,26,26,26,27,27,26,26,26,25,25,24,24,22,22,22,22,22,22,22,14,14,13,13,13,13,13,13,13,13,14,3,3,3,3,3,3,1,1,1,1,-1,0,0,0,0,0,0,0,0,0,0,0
"Ind90","2_0_5",46,29,29,29,29,29,29,29,29,30,30,30,32,32,32,32,32,32,32,32,32,32,32,28,28,28,28,28,28,29,29,29,29,29,22,22,22,21,21,21,21,22,21,21,21,27,27,27,27,27,27,28,28,27,27,27,26,26,25,25,23,23,23,23,23,23,23,14,14,13,13,13,13,13,13,13,13,14,5,5,5,5,5,5,5,5,5,5,6,-1,0,0,0,0,0,0,0,0,0,0
"Ind91","2_0_7",46,29,29,29,29,29,29,29,29,30,30,30,32,32,32,32,32,32,32,32,32,32,32,28,28,28,28,28,28,29,29,29,29,29,22,22,22,21,21,21,21,22,21,21,21,27,27,27,27,27,27,28,28,27,27,27,26,26,25,25,23,23,23,23,23,23,23,14,14,13,13,13,13,13,13,13,13,14,5,5,5,5,5,5,5,5,5,5,6,0,-1,0,0,0,0,0,0,0,0,0
"Ind92","2_0_8",46,27,27,27,27,27,27,27,27,28,28,28,30,30,30,30,30,30,30,30,30,30,30,26,26,26,26,26,26,27,27,27,27,27,23,23,23,22,22,22,22,23,22,22,22,28,28,28,28,28,28,29,29,28,28,28,27,27,26,26,24,24,24,24,24,24,24,14,14,13,13,13,13,13,13,13,13,14,5,5,5,5,5,5,5,5,5,5,6,2,2,-1,0,0,0,0,0,0,0,0
"Ind93","2_0_9",46,27,27,27,27,27,27,27,27,28,28,28,30,30,30,30,30,30,30,30,30,30,30,26,26,26,26,26,26,27,27,27,27,27,23,23,23,22,22,22,22,23,22,22,22,28,28,28,28,28,28,29,29,28,28,28,27,27,26,26,24,24,24,24,24,24,24,14,14,13,13,13,13,13,13,13,13,14,5,5,5,5,5,5,5,5,5,5,6,2,2,0,-1,0,0,0,0,0,0,0
"Ind94","2_0_4",46,27,27,27,27,27,27,27,27,28,28,28,30,30,30,30,30,30,30,30,30,30,30,26,26,26,26,26,26,27,27,27,27,27,23,23,23,22,22,22,22,23,22,22,22,28,28,28,28,28,28,29,29,28,28,28,27,27,26,26,24,24,24,24,24,24,24,14,14,13,13,13,13,13,13,13,13,14,5,5,5,5,5,5,5,5,5,5,6,2,2,0,0,-1,0,0,0,0,0,0
"Ind95","2_0_3",46,27,27,27,27,27,27,27,27,28,28,28,30,30,30,30,30,30,30,30,30,30,30,26,26,26,26,26,26,27,27,27,27,27,23,23,23,22,22,22,22,23,22,22,22,28,28,28,28,28,28,29,29,28,28,28,27,27,26,26,24,24,24,24,24,24,24,14,14,13,13,13,13,13,13,13,13,14,5,5,5,5,5,5,5,5,5,5,6,2,2,0,0,0,-1,0,0,0,0,0
"Ind96","2_0_10",46,27,27,27,27,27,27,27,27,28,28,28,30,30,30,30,30,30,30,30,30,30,30,26,26,26,26,26,26,27,27,27,27,27,23,23,23,22,22,22,22,23,22,22,22,28,28,28,28,28,28,29,29,28,28,28,27,27,26,26,24,24,24,24,24,24,24,14,14,13,13,13,13,13,13,13,13,14,5,5,5,5,5,5,5,5,5,5,6,2,2,0,0,0,0,-1,0,0,0,0
"Ind97","2_0_2",46,27,27,27,27,27,27,27,27,28,28,28,30,30,30,30,30,30,30,30,30,30,30,26,26,26,26,26,26,27,27,27,27,27,23,23,23,22,22,22,22,23,22,22,22,28,28,28,28,28,28,29,29,28,28,28,27,27,26,26,24,24,24,24,24,24,24,14,14,13,13,13,13,13,13,13,13,14,5,5,5,5,5,5,5,5,5,5,6,2,2,0,0,0,0,0,-1,0,0,0
"Ind98","2_0_0",45,28,28,28,28,28,28,28,28,29,29,29,31,31,31,31,31,31,31,31,31,31,31,27,27,27,27,27,27,28,28,28,28,28,22,22,22,21,21,21,21,22,21,21,21,27,27,27,27,27,27,28,28,27,27,27,26,26,25,25,23,23,23,23,23,23,23,13,13,12,12,12,12,12,12,12,12,13,4,4,4,4,4,4,4,4,4,4,5,1,1,1,1,1,1,1,1,-1,0,0
"Ind99","2_0_6",45,28,28,28,28,28,28,28,28,29,29,29,31,31,31,31,31,31,31,31,31,31,31,27,27,27,27,27,27,28,28,28,28,28,22,22,22,21,21,21,21,22,21,21,21,27,27,27,27,27,27,28,28,27,27,27,26,26,25,25,23,23,23,23,23,23,23,13,13,12,12,12,12,12,12,12,12,13,4,4,4,4,4,4,4,4,4,4,5,1,1,1,1,1,1,1,1,0,-1,0
"Ind100","2_0_1",45,28,28,28,28,28,28,28,28,29,29,29,31,31,31,31,31,31,31,31,31,31,31,27,27,27,27,27,27,28,28,28,28,28,22,22,22,21,21,21,21,22,21,21,21,27,27,27,27,27,27,28,28,27,27,27,26,26,25,25,23,23,23,23,23,23,23,13,13,12,12,12,12,12,12,12,12,13,4,4,4,4,4,4,4,4,4,4,5,1,1,1,1,1,1,1,1,0,0,-1
