"","Description","Ind1","Ind2","Ind3","Ind4","Ind5","Ind6","Ind7","Ind8","Ind9","Ind10","Ind11","Ind12","Ind13","Ind14","Ind15","Ind16","Ind17","Ind18","Ind19","Ind20","Ind21","Ind22","Ind23","Ind24","Ind25","Ind26","Ind27","Ind28","Ind29","Ind30","Ind31","Ind32","Ind33","Ind34","Ind35","Ind36","Ind37","Ind38","Ind39","Ind40","Ind41","Ind42","Ind43","Ind44","Ind45","Ind46","Ind47","Ind48","Ind49","Ind50","Ind51","Ind52","Ind53","Ind54","Ind55","Ind56","Ind57","Ind58","Ind59","Ind60","Ind61","Ind62","Ind63","Ind64","Ind65","Ind66","Ind67","Ind68","Ind69","Ind70","Ind71","Ind72","Ind73","Ind74","Ind75","Ind76","Ind77","Ind78","Ind79","Ind80","Ind81","Ind82","Ind83","Ind84","Ind85","Ind86","Ind87","Ind88","Ind89","Ind90","Ind91","Ind92","Ind93","Ind94","Ind95","Ind96","Ind97","Ind98","Ind99","Ind100","Ind101","Ind102","Ind103","Ind104","Ind105","Ind106","Ind107","Ind108","Ind109","Ind110","Ind111","Ind112","Ind113","Ind114","Ind115","Ind116","Ind117","Ind118","Ind119","Ind120","Ind121"
"Ind1","0_0_0",-1,0,0,0,0,0,0,0,0,0,0,0,0,0,0,0,0,0,0,0,0,0,0,0,0,0,0,0,0,0,0,0,0,0,0,0,0,0,0,0,0,0,0,0,0,0,0,0,0,0,0,0,0,0,0,0,0,0,0,0,0,0,0,0,0,0,0,0,0,0,0,0,0,0,0,0,0,0,0,0,0,0,0,0,0,0,0,0,0,0,0,0,0,0,0,0,0,0,0,0,0,0,0,0,0,0,0,0,0,0,0,0,0,0,0,0,0,0,0,0,0
"Ind2","7_0_2",115,-1,0,0,0,0,0,0,0,0,0,0,0,0,0,0,0,0,0,0,0,0,0,0,0,0,0,0,0,0,0,0,0,0,0,0,0,0,0,0,0,0,0,0,0,0,0,0,0,0,0,0,0,0,0,0,0,0,0,0,0,0,0,0,0,0,0,0,0,0,0,0,0,0,0,0,0,0,0,0,0,0,0,0,0,0,0,0,0,0,0,0,0,0,0,0,0,0,0,0,0,0,0,0,0,0,0,0,0,0,0,0,0,0,0,0,0,0,0,0,0
"Ind3","7_0_4",115,0,-1,0,0,0,0,0,0,0,0,0,0,0,0,0,0,0,0,0,0,0,0,0,0,0,0,0,0,0,0,0,0,0,0,0,0,0,0,0,0,0,0,0,0,0,0,0,0,0,0,0,0,0,0,0,0,0,0,0,0,0,0,0,0,0,0,0,0,0,0,0,0,0,0,0,0,0,0,0,0,0,0,0,0,0,0,0,0,0,0,0,0,0,0,0,0,0,0,0,0,0,0,0,0,0,0,0,0,0,0,0,0,0,0,0,0,0,0,0,0
"Ind4","7_0_3",115,0,0,-1,0,0,0,0,0,0,0,0,0,0,0,0,0,0,0,0,0,0,0,0,0,0,0,0,0,0,0,0,0,0,0,0,0,0,0,0,0,0,0,0,0,0,0,0,0,0,0,0,0,0,0,0,0,0,0,0,0,0,0,0,0,0,0,0,0,0,0,0,0,0,0,0,0,0,0,0,0,0,0,0,0,0,0,0,0,0,0,0,0,0,0,0,0,0,0,0,0,0,0,0,0,0,0,0,0,0,0,0,0,0,0,0,0,0,0,0,0
"Ind5","7_0_0",115,0,0,0,-1,0,0,0,0,0,0,0,0,0,0,0,0,0,0,0,0,0,0,0,0,0,0,0,0,0,0,0,0,0,0,0,0,0,0,0,0,0,0,0,0,0,0,0,0,0,0,0,0,0,0,0,0,0,0,0,0,0,0,0,0,0,0,0,0,0,0,0,0,0,0,0,0,0,0,0,0,0,0,0,0,0,0,0,0,0,0,0,0,0,0,0,0,0,0,0,0,0,0,0,0,0,0,0,0,0,0,0,0,0,0,0,0,0,0,0,0
"Ind6","7_0_1",114,1,1,1,1,-1,0,0,0,0,0,0,0,0,0,0,0,0,0,0,0,0,0,0,0,0,0,0,0,0,0,0,0,0,0,0,0,0,0,0,0,0,0,0,0,0,0,0,0,0,0,0,0,0,0,0,0,0,0,0,0,0,0,0,0,0,0,0,0,0,0,0,0,0,0,0,0,0,0,0,0,0,0,0,0,0,0,0,0,0,0,0,0,0,0,0,0,0,0,0,0,0,0,0,0,0,0,0,0,0,0,0,0,0,0,0,0,0,0,0,0
"Ind7","7_0_5",113,2,2,2,2,1,-1,0,0,0,0,0,0,0,0,0,0,0,0,0,0,0,0,0,0,0,0,0,0,0,0,0,0,0,0,0,0,0,0,0,0,0,0,0,0,0,0,0,0,0,0,0,0,0,0,0,0,0,0,0,0,0,0,0,0,0,0,0,0,0,0,0,0,0,0,0,0,0,0,0,0,0,0,0,0,0,0,0,0,0,0,0,0,0,0,0,0,0,0,0,0,0,0,0,0,0,0,0,0,0,0,0,0,0,0,0,0,0,0,0,0
"Ind8","5_0_4",115,0,0,0,0,1,2,-1,0,0,0,0,0,0,0,0,0,0,0,0,0,0,0,0,0,0,0,0,0,0,0,0,0,0,0,0,0,0,0,0,0,0,0,0,0,0,0,0,0,0,0,0,0,0,0,0,0,0,0,0,0,0,0,0,0,0,0,0,0,0,0,0,0,0,0,0,0,0,0,0,0,0,0,0,0,0,0,0,0,0,0,0,0,0,0,0,0,0,0,0,0,0,0,0,0,0,0,0,0,0,0,0,0,0,0,0,0,0,0,0,0
"Ind9","5_0_1",115,0,0,0,0,1,2,0,-1,0,0,0,0,0,0,0,0,0,0,0,0,0,0,0,0,0,0,0,0,0,0,0,0,0,0,0,0,0,0,0,0,0,0,0,0,0,0,0,0,0,0,0,0,0,0,0,0,0,0,0,0,0,0,0,0,0,0,0,0,0,0,0,0,0,0,0,0,0,0,0,0,0,0,0,0,0,0,0,0,0,0,0,0,0,0,0,0,0,0,0,0,0,0,0,0,0,0,0,0,0,0,0,0,0,0,0,0,0,0,0,0
"Ind10","5_0_5",115,0,0,0,0,1,2,0,0,-1,0,0,0,0,0,0,0,0,0,0,0,0,0,0,0,0,0,0,0,0,0,0,0,0,0,0,0,0,0,0,0,0,0,0,0,0,0,0,0,0,0,0,0,0,0,0,0,0,0,0,0,0,0,0,0,0,0,0,0,0,0,0,0,0,0,0,0,0,0,0,0,0,0,0,0,0,0,0,0,0,0,0,0,0,0,0,0,0,0,0,0,0,0,0,0,0,0,0,0,0,0,0,0,0,0,0,0,0,0,0,0
"Ind11","5_0_3",115,0,0,0,0,1,2,0,0,0,-1,0,0,0,0,0,0,0,0,0,0,0,0,0,0,0,0,0,0,0,0,0,0,0,0,0,0,0,0,0,0,0,0,0,0,0,0,0,0,0,0,0,0,0,0,0,0,0,0,0,0,0,0,0,0,0,0,0,0,0,0,0,0,0,0,0,0,0,0,0,0,0,0,0,0,0,0,0,0,0,0,0,0,0,0,0,0,0,0,0,0,0,0,0,0,0,0,0,0,0,0,0,0,0,0,0,0,0,0,0,0
"Ind12","5_0_0",115,0,0,0,0,1,2,0,0,0,0,-1,0,0,0,0,0,0,0,0,0,0,0,0,0,0,0,0,0,0,0,0,0,0,0,0,0,0,0,0,0,0,0,0,0,0,0,0,0,0,0,0,0,0,0,0,0,0,0,0,0,0,0,0,0,0,0,0,0,0,0,0,0,0,0,0,0,0,0,0,0,0,0,0,0,0,0,0,0,0,0,0,0,0,0,0,0,0,0,0,0,0,0,0,0,0,0,0,0,0,0,0,0,0,0,0,0,0,0,0,0
"Ind13","5_0_2",115,0,0,0,0,1,2,0,0,0,0,0,-1,0,0,0,0,0,0,0,0,0,0,0,0,0,0,0,0,0,0,0,0,0,0,0,0,0,0,0,0,0,0,0,0,0,0,0,0,0,0,0,0,0,0,0,0,0,0,0,0,0,0,0,0,0,0,0,0,0,0,0,0,0,0,0,0,0,0,0,0,0,0,0,0,0,0,0,0,0,0,0,0,0,0,0,0,0,0,0,0,0,0,0,0,0,0,0,0,0,0,0,0,0,0,0,0,0,0,0,0
"Ind14","8_0_2",113,8,8,8,8,9,10,8,8,8,8,8,8,-1,0,0,0,0,0,0,0,0,0,0,0,0,0,0,0,0,0,0,0,0,0,0,0,0,0,0,0,0,0,0,0,0,0,0,0,0,0,0,0,0,0,0,0,0,0,0,0,0,0,0,0,0,0,0,0,0,0,0,0,0,0,0,0,0,0,0,0,0,0,0,0,0,0,0,0,0,0,0,0,0,0,0,0,0,0,0,0,0,0,0,0,0,0,0,0,0,0,0,0,0,0,0,0,0,0,0,0
"Ind15","8_0_1",113,8,8,8,8,9,10,8,8,8,8,8,8,0,-1,0,0,0,0,0,0,0,0,0,0,0,0,0,0,0,0,0,0,0,0,0,0,0,0,0,0,0,0,0,0,0,0,0,0,0,0,0,0,0,0,0,0,0,0,0,0,0,0,0,0,0,0,0,0,0,0,0,0,0,0,0,0,0,0,0,0,0,0,0,0,0,0,0,0,0,0,0,0,0,0,0,0,0,0,0,0,0,0,0,0,0,0,0,0,0,0,0,0,0,0,0,0,0,0,0,0
"Ind16","8_0_3",112,7,7,7,7,8,9,7,7,7,7,7,7,1,1,-1,0,0,0,0,0,0,0,0,0,0,0,0,0,0,0,0,0,0,0,0,0,0,0,0,0,0,0,0,0,0,0,0,0,0,0,0,0,0,0,0,0,0,0,0,0,0,0,0,0,0,0,0,0,0,0,0,0,0,0,0,0,0,0,0,0,0,0,0,0,0,0,0,0,0,0,0,0,0,0,0,0,0,0,0,0,0,0,0,0,0,0,0,0,0,0,0,0,0,0,0,0,0,0,0,0
"Ind17","8_0_5",112,7,7,7,7,8,9,7,7,7,7,7,7,1,1,0,-1,0,0,0,0,0,0,0,0,0,0,0,0,0,0,0,0,0,0,0,0,0,0,0,0,0,0,0,0,0,0,0,0,0,0,0,0,0,0,0,0,0,0,0,0,0,0,0,0,0,0,0,0,0,0,0,0,0,0,0,0,0,0,0,0,0,0,0,0,0,0,0,0,0,0,0,0,0,0,0,0,0,0,0,0,0,0,0,0,0,0,0,0,0,0,0,0,0,0,0,0,0,0,0,0
"Ind18","8_0_4",112,7,7,7,7,8,9,7,7,7,7,7,7,1,1,0,0,-1,0,0,0,0,0,0,0,0,0,0,0,0,0,0,0,0,0,0,0,0,0,0,0,0,0,0,0,0,0,0,0,0,0,0,0,0,0,0,0,0,0,0,0,0,0,0,0,0,0,0,0,0,0,0,0,0,0,0,0,0,0,0,0,0,0,0,0,0,0,0,0,0,0,0,0,0,0,0,0,0,0,0,0,0,0,0,0,0,0,0,0,0,0,0,0,0,0,0,0,0,0,0,0
"Ind19","8_0_0",112,7,7,7,7,8,9,7,7,7,7,7,7,1,1,0,0,0,-1,0,0,0,0,0,0,0,0,0,0,0,0,0,0,0,0,0,0,0,0,0,0,0,0,0,0,0,0,0,0,0,0,0,0,0,0,0,0,0,0,0,0,0,0,0,0,0,0,0,0,0,0,0,0,0,0,0,0,0,0,0,0,0,0,0,0,0,0,0,0,0,0,0,0,0,0,0,0,0,0,0,0,0,0,0,0,0,0,0,0,0,0,0,0,0,0,0,0,0,0,0,0
"Ind20","3_0_2",112,9,9,9,9,10,11,9,9,9,9,9,9,3,3,2,2,2,2,-1,0,0,0,0,0,0,0,0,0,0,0,0,0,0,0,0,0,0,0,0,0,0,0,0,0,0,0,0,0,0,0,0,0,0,0,0,0,0,0,0,0,0,0,0,0,0,0,0,0,0,0,0,0,0,0,0,0,0,0,0,0,0,0,0,0,0,0,0,0,0,0,0,0,0,0,0,0,0,0,0,0,0,0,0,0,0,0,0,0,0,0,0,0,0,0,0,0,0,0,0,0
"Ind21","3_0_1",112,9,9,9,9,10,11,9,9,9,9,9,9,3,3,2,2,2,2,0,-1,0,0,0,0,0,0,0,0,0,0,0,0,0,0,0,0,0,0,0,0,0,0,0,0,0,0,0,0,0,0,0,0,0,0,0,0,0,0,0,0,0,0,0,0,0,0,0,0,0,0,0,0,0,0,0,0,0,0,0,0,0,0,0,0,0,0,0,0,0,0,0,0,0,0,0,0,0,0,0,0,0,0,0,0,0,0,0,0,0,0,0,0,0,0,0,0,0,0,0,0
"Ind22","3_0_4",111,8,8,8,8,9,10,8,8,8,8,8,8,2,2,1,1,1,1,1,1,-1,0,0,0,0,0,0,0,0,0,0,0,0,0,0,0,0,0,0,0,0,0,0,0,0,0,0,0,0,0,0,0,0,0,0,0,0,0,0,0,0,0,0,0,0,0,0,0,0,0,0,0,0,0,0,0,0,0,0,0,0,0,0,0,0,0,0,0,0,0,0,0,0,0,0,0,0,0,0,0,0,0,0,0,0,0,0,0,0,0,0,0,0,0,0,0,0,0,0,0
"Ind23","3_0_5",111,8,8,8,8,9,10,8,8,8,8,8,8,2,2,1,1,1,1,1,1,0,-1,0,0,0,0,0,0,0,0,0,0,0,0,0,0,0,0,0,0,0,0,0,0,0,0,0,0,0,0,0,0,0,0,0,0,0,0,0,0,0,0,0,0,0,0,0,0,0,0,0,0,0,0,0,0,0,0,0,0,0,0,0,0,0,0,0,0,0,0,0,0,0,0,0,0,0,0,0,0,0,0,0,0,0,0,0,0,0,0,0,0,0,0,0,0,0,0,0,0
"Ind24","3_0_0",111,8,8,8,8,9,10,8,8,8,8,8,8,2,2,1,1,1,1,1,1,0,0,-1,0,0,0,0,0,0,0,0,0,0,0,0,0,0,0,0,0,0,0,0,0,0,0,0,0,0,0,0,0,0,0,0,0,0,0,0,0,0,0,0,0,0,0,0,0,0,0,0,0,0,0,0,0,0,0,0,0,0,0,0,0,0,0,0,0,0,0,0,0,0,0,0,0,0,0,0,0,0,0,0,0,0,0,0,0,0,0,0,0,0,0,0,0,0,0,0,0
"Ind25","3_0_3",111,8,8,8,8,9,10,8,8,8,8,8,8,2,2,1,1,1,1,1,1,0,0,0,-1,0,0,0,0,0,0,0,0,0,0,0,0,0,0,0,0,0,0,0,0,0,0,0,0,0,0,0,0,0,0,0,0,0,0,0,0,0,0,0,0,0,0,0,0,0,0,0,0,0,0,0,0,0,0,0,0,0,0,0,0,0,0,0,0,0,0,0,0,0,0,0,0,0,0,0,0,0,0,0,0,0,0,0,0,0,0,0,0,0,0,0,0,0,0,0,0
"Ind26","6_0_0",111,7,7,7,7,8,9,7,7,7,7,7,7,3,3,2,2,2,2,4,4,3,3,3,3,-1,0,0,0,0,0,0,0,0,0,0,0,0,0,0,0,0,0,0,0,0,0,0,0,0,0,0,0,0,0,0,0,0,0,0,0,0,0,0,0,0,0,0,0,0,0,0,0,0,0,0,0,0,0,0,0,0,0,0,0,0,0,0,0,0,0,0,0,0,0,0,0,0,0,0,0,0,0,0,0,0,0,0,0,0,0,0,0,0,0,0,0,0,0,0,0
"Ind27","6_0_3",111,7,7,7,7,8,9,7,7,7,7,7,7,3,3,2,2,2,2,4,4,3,3,3,3,0,-1,0,0,0,0,0,0,0,0,0,0,0,0,0,0,0,0,0,0,0,0,0,0,0,0,0,0,0,0,0,0,0,0,0,0,0,0,0,0,0,0,0,0,0,0,0,0,0,0,0,0,0,0,0,0,0,0,0,0,0,0,0,0,0,0,0,0,0,0,0,0,0,0,0,0,0,0,0,0,0,0,0,0,0,0,0,0,0,0,0,0,0,0,0,0
"Ind28","6_0_4",111,7,7,7,7,8,9,7,7,7,7,7,7,3,3,2,2,2,2,4,4,3,3,3,3,0,0,-1,0,0,0,0,0,0,0,0,0,0,0,0,0,0,0,0,0,0,0,0,0,0,0,0,0,0,0,0,0,0,0,0,0,0,0,0,0,0,0,0,0,0,0,0,0,0,0,0,0,0,0,0,0,0,0,0,0,0,0,0,0,0,0,0,0,0,0,0,0,0,0,0,0,0,0,0,0,0,0,0,0,0,0,0,0,0,0,0,0,0,0,0,0
"Ind29","6_0_5",111,7,7,7,7,8,9,7,7,7,7,7,7,3,3,2,2,2,2,4,4,3,3,3,3,0,0,0,-1,0,0,0,0,0,0,0,0,0,0,0,0,0,0,0,0,0,0,0,0,0,0,0,0,0,0,0,0,0,0,0,0,0,0,0,0,0,0,0,0,0,0,0,0,0,0,0,0,0,0,0,0,0,0,0,0,0,0,0,0,0,0,0,0,0,0,0,0,0,0,0,0,0,0,0,0,0,0,0,0,0,0,0,0,0,0,0,0,0,0,0,0
"Ind30","6_0_1",112,8,8,8,8,9,10,8,8,8,8,8,8,4,4,3,3,3,3,5,5,4,4,4,4,1,1,1,1,-1,0,0,0,0,0,0,0,0,0,0,0,0,0,0,0,0,0,0,0,0,0,0,0,0,0,0,0,0,0,0,0,0,0,0,0,0,0,0,0,0,0,0,0,0,0,0,0,0,0,0,0,0,0,0,0,0,0,0,0,0,0,0,0,0,0,0,0,0,0,0,0,0,0,0,0,0,0,0,0,0,0,0,0,0,0,0,0,0,0,0,0
"Ind31","6_0_2",112,8,8,8,8,9,10,8,8,8,8,8,8,4,4,3,3,3,3,5,5,4,4,4,4,1,1,1,1,0,-1,0,0,0,0,0,0,0,0,0,0,0,0,0,0,0,0,0,0,0,0,0,0,0,0,0,0,0,0,0,0,0,0,0,0,0,0,0,0,0,0,0,0,0,0,0,0,0,0,0,0,0,0,0,0,0,0,0,0,0,0,0,0,0,0,0,0,0,0,0,0,0,0,0,0,0,0,0,0,0,0,0,0,0,0,0,0,0,0,0,0
"Ind32","1_0_5",111,8,8,8,8,9,10,8,8,8,8,8,8,4,4,3,3,3,3,5,5,4,4,4,4,3,3,3,3,4,4,-1,0,0,0,0,0,0,0,0,0,0,0,0,0,0,0,0,0,0,0,0,0,0,0,0,0,0,0,0,0,0,0,0,0,0,0,0,0,0,0,0,0,0,0,0,0,0,0,0,0,0,0,0,0,0,0,0,0,0,0,0,0,0,0,0,0,0,0,0,0,0,0,0,0,0,0,0,0,0,0,0,0,0,0,0,0,0,0,0,0
"Ind33","1_0_3",111,8,8,8,8,9,10,8,8,8,8,8,8,4,4,3,3,3,3,5,5,4,4,4,4,3,3,3,3,4,4,0,-1,0,0,0,0,0,0,0,0,0,0,0,0,0,0,0,0,0,0,0,0,0,0,0,0,0,0,0,0,0,0,0,0,0,0,0,0,0,0,0,0,0,0,0,0,0,0,0,0,0,0,0,0,0,0,0,0,0,0,0,0,0,0,0,0,0,0,0,0,0,0,0,0,0,0,0,0,0,0,0,0,0,0,0,0,0,0,0,0
"Ind34","2_0_4",111,8,8,8,8,9,10,8,8,8,8,8,8,4,4,3,3,3,3,5,5,4,4,4,4,3,3,3,3,4,4,0,0,-1,0,0,0,0,0,0,0,0,0,0,0,0,0,0,0,0,0,0,0,0,0,0,0,0,0,0,0,0,0,0,0,0,0,0,0,0,0,0,0,0,0,0,0,0,0,0,0,0,0,0,0,0,0,0,0,0,0,0,0,0,0,0,0,0,0,0,0,0,0,0,0,0,0,0,0,0,0,0,0,0,0,0,0,0,0,0,0
"Ind35","2_0_0",112,7,7,7,7,8,9,7,7,7,7,7,7,3,3,2,2,2,2,4,4,3,3,3,3,2,2,2,2,3,3,1,1,1,-1,0,0,0,0,0,0,0,0,0,0,0,0,0,0,0,0,0,0,0,0,0,0,0,0,0,0,0,0,0,0,0,0,0,0,0,0,0,0,0,0,0,0,0,0,0,0,0,0,0,0,0,0,0,0,0,0,0,0,0,0,0,0,0,0,0,0,0,0,0,0,0,0,0,0,0,0,0,0,0,0,0,0,0,0,0,0
"Ind36","1_0_0",113,8,8,8,8,9,10,8,8,8,8,8,8,4,4,3,3,3,3,5,5,4,4,4,4,3,3,3,3,4,4,2,2,2,1,-1,0,0,0,0,0,0,0,0,0,0,0,0,0,0,0,0,0,0,0,0,0,0,0,0,0,0,0,0,0,0,0,0,0,0,0,0,0,0,0,0,0,0,0,0,0,0,0,0,0,0,0,0,0,0,0,0,0,0,0,0,0,0,0,0,0,0,0,0,0,0,0,0,0,0,0,0,0,0,0,0,0,0,0,0,0
"Ind37","2_0_1",112,7,7,7,7,8,9,7,7,7,7,7,7,3,3,2,2,2,2,4,4,3,3,3,3,2,2,2,2,3,3,1,1,1,0,1,-1,0,0,0,0,0,0,0,0,0,0,0,0,0,0,0,0,0,0,0,0,0,0,0,0,0,0,0,0,0,0,0,0,0,0,0,0,0,0,0,0,0,0,0,0,0,0,0,0,0,0,0,0,0,0,0,0,0,0,0,0,0,0,0,0,0,0,0,0,0,0,0,0,0,0,0,0,0,0,0,0,0,0,0,0
"Ind38","1_0_4",113,8,8,8,8,9,10,8,8,8,8,8,8,4,4,3,3,3,3,5,5,4,4,4,4,3,3,3,3,4,4,2,2,2,1,2,1,-1,0,0,0,0,0,0,0,0,0,0,0,0,0,0,0,0,0,0,0,0,0,0,0,0,0,0,0,0,0,0,0,0,0,0,0,0,0,0,0,0,0,0,0,0,0,0,0,0,0,0,0,0,0,0,0,0,0,0,0,0,0,0,0,0,0,0,0,0,0,0,0,0,0,0,0,0,0,0,0,0,0,0,0
"Ind39","1_0_1",112,9,9,9,9,10,9,9,9,9,9,9,9,5,5,4,4,4,4,6,6,5,5,5,5,4,4,4,4,5,5,3,3,3,2,3,2,3,-1,0,0,0,0,0,0,0,0,0,0,0,0,0,0,0,0,0,0,0,0,0,0,0,0,0,0,0,0,0,0,0,0,0,0,0,0,0,0,0,0,0,0,0,0,0,0,0,0,0,0,0,0,0,0,0,0,0,0,0,0,0,0,0,0,0,0,0,0,0,0,0,0,0,0,0,0,0,0,0,0,0,0
"Ind40","1_0_2",112,9,9,9,9,10,9,9,9,9,9,9,9,5,5,4,4,4,4,6,6,5,5,5,5,4,4,4,4,5,5,3,3,3,2,3,2,3,0,-1,0,0,0,0,0,0,0,0,0,0,0,0,0,0,0,0,0,0,0,0,0,0,0,0,0,0,0,0,0,0,0,0,0,0,0,0,0,0,0,0,0,0,0,0,0,0,0,0,0,0,0,0,0,0,0,0,0,0,0,0,0,0,0,0,0,0,0,0,0,0,0,0,0,0,0,0,0,0,0,0,0
"Ind41","2_0_5",112,9,9,9,9,10,9,9,9,9,9,9,9,5,5,4,4,4,4,6,6,5,5,5,5,4,4,4,4,5,5,3,3,3,2,3,2,3,0,0,-1,0,0,0,0,0,0,0,0,0,0,0,0,0,0,0,0,0,0,0,0,0,0,0,0,0,0,0,0,0,0,0,0,0,0,0,0,0,0,0,0,0,0,0,0,0,0,0,0,0,0,0,0,0,0,0,0,0,0,0,0,0,0,0,0,0,0,0,0,0,0,0,0,0,0,0,0,0,0,0,0
"Ind42","2_0_2",112,9,9,9,9,10,9,9,9,9,9,9,9,5,5,4,4,4,4,6,6,5,5,5,5,4,4,4,4,5,5,3,3,3,2,3,2,3,0,0,0,-1,0,0,0,0,0,0,0,0,0,0,0,0,0,0,0,0,0,0,0,0,0,0,0,0,0,0,0,0,0,0,0,0,0,0,0,0,0,0,0,0,0,0,0,0,0,0,0,0,0,0,0,0,0,0,0,0,0,0,0,0,0,0,0,0,0,0,0,0,0,0,0,0,0,0,0,0,0,0,0
"Ind43","2_0_3",112,9,9,9,9,10,9,9,9,9,9,9,9,5,5,4,4,4,4,6,6,5,5,5,5,4,4,4,4,5,5,3,3,3,2,3,2,3,0,0,0,0,-1,0,0,0,0,0,0,0,0,0,0,0,0,0,0,0,0,0,0,0,0,0,0,0,0,0,0,0,0,0,0,0,0,0,0,0,0,0,0,0,0,0,0,0,0,0,0,0,0,0,0,0,0,0,0,0,0,0,0,0,0,0,0,0,0,0,0,0,0,0,0,0,0,0,0,0,0,0,0
"Ind44","4_0_4",112,7,7,7,7,8,9,7,7,7,7,7,7,3,3,2,2,2,2,4,4,3,3,3,3,2,2,2,2,3,3,3,3,3,2,3,2,3,4,4,4,4,4,-1,0,0,0,0,0,0,0,0,0,0,0,0,0,0,0,0,0,0,0,0,0,0,0,0,0,0,0,0,0,0,0,0,0,0,0,0,0,0,0,0,0,0,0,0,0,0,0,0,0,0,0,0,0,0,0,0,0,0,0,0,0,0,0,0,0,0,0,0,0,0,0,0,0,0,0,0,0
"Ind45","4_0_2",112,7,7,7,7,8,9,7,7,7,7,7,7,3,3,2,2,2,2,4,4,3,3,3,3,2,2,2,2,3,3,3,3,3,2,3,2,3,4,4,4,4,4,0,-1,0,0,0,0,0,0,0,0,0,0,0,0,0,0,0,0,0,0,0,0,0,0,0,0,0,0,0,0,0,0,0,0,0,0,0,0,0,0,0,0,0,0,0,0,0,0,0,0,0,0,0,0,0,0,0,0,0,0,0,0,0,0,0,0,0,0,0,0,0,0,0,0,0,0,0,0
"Ind46","4_0_3",112,7,7,7,7,8,9,7,7,7,7,7,7,3,3,2,2,2,2,4,4,3,3,3,3,2,2,2,2,3,3,3,3,3,2,3,2,3,4,4,4,4,4,0,0,-1,0,0,0,0,0,0,0,0,0,0,0,0,0,0,0,0,0,0,0,0,0,0,0,0,0,0,0,0,0,0,0,0,0,0,0,0,0,0,0,0,0,0,0,0,0,0,0,0,0,0,0,0,0,0,0,0,0,0,0,0,0,0,0,0,0,0,0,0,0,0,0,0,0,0,0
"Ind47","4_0_0",112,7,7,7,7,8,9,7,7,7,7,7,7,3,3,2,2,2,2,4,4,3,3,3,3,2,2,2,2,3,3,3,3,3,2,3,2,3,4,4,4,4,4,0,0,0,-1,0,0,0,0,0,0,0,0,0,0,0,0,0,0,0,0,0,0,0,0,0,0,0,0,0,0,0,0,0,0,0,0,0,0,0,0,0,0,0,0,0,0,0,0,0,0,0,0,0,0,0,0,0,0,0,0,0,0,0,0,0,0,0,0,0,0,0,0,0,0,0,0,0,0
"Ind48","4_0_1",112,7,7,7,7,8,9,7,7,7,7,7,7,3,3,2,2,2,2,4,4,3,3,3,3,2,2,2,2,3,3,3,3,3,2,3,2,3,4,4,4,4,4,0,0,0,0,-1,0,0,0,0,0,0,0,0,0,0,0,0,0,0,0,0,0,0,0,0,0,0,0,0,0,0,0,0,0,0,0,0,0,0,0,0,0,0,0,0,0,0,0,0,0,0,0,0,0,0,0,0,0,0,0,0,0,0,0,0,0,0,0,0,0,0,0,0,0,0,0,0,0
"Ind49","4_0_5",112,7,7,7,7,8,9,7,7,7,7,7,7,3,3,2,2,2,2,4,4,3,3,3,3,2,2,2,2,3,3,3,3,3,2,3,2,3,4,4,4,4,4,0,0,0,0,0,-1,0,0,0,0,0,0,0,0,0,0,0,0,0,0,0,0,0,0,0,0,0,0,0,0,0,0,0,0,0,0,0,0,0,0,0,0,0,0,0,0,0,0,0,0,0,0,0,0,0,0,0,0,0,0,0,0,0,0,0,0,0,0,0,0,0,0,0,0,0,0,0,0
"Ind50","19_0_2",113,97,97,97,97,98,97,97,97,97,97,97,97,91,91,90,90,90,90,90,90,89,89,89,89,92,92,92,92,93,93,91,91,91,92,93,92,93,92,92,92,92,92,90,90,90,90,90,90,-1,0,0,0,0,0,0,0,0,0,0,0,0,0,0,0,0,0,0,0,0,0,0,0,0,0,0,0,0,0,0,0,0,0,0,0,0,0,0,0,0,0,0,0,0,0,0,0,0,0,0,0,0,0,0,0,0,0,0,0,0,0,0,0,0,0,0,0,0,0,0,0
"Ind51","19_0_0",113,97,97,97,97,98,97,97,97,97,97,97,97,91,91,90,90,90,90,90,90,89,89,89,89,92,92,92,92,93,93,91,91,91,92,93,92,93,92,92,92,92,92,90,90,90,90,90,90,0,-1,0,0,0,0,0,0,0,0,0,0,0,0,0,0,0,0,0,0,0,0,0,0,0,0,0,0,0,0,0,0,0,0,0,0,0,0,0,0,0,0,0,0,0,0,0,0,0,0,0,0,0,0,0,0,0,0,0,0,0,0,0,0,0,0,0,0,0,0,0,0
"Ind52","12_0_0",113,97,97,97,97,98,97,97,97,97,97,97,97,91,91,90,90,90,90,90,90,89,89,89,89,92,92,92,92,93,93,91,91,91,92,93,92,93,92,92,92,92,92,90,90,90,90,90,90,0,0,-1,0,0,0,0,0,0,0,0,0,0,0,0,0,0,0,0,0,0,0,0,0,0,0,0,0,0,0,0,0,0,0,0,0,0,0,0,0,0,0,0,0,0,0,0,0,0,0,0,0,0,0,0,0,0,0,0,0,0,0,0,0,0,0,0,0,0,0,0,0
"Ind53","12_0_4",113,97,97,97,97,98,97,97,97,97,97,97,97,91,91,90,90,90,90,90,90,89,89,89,89,92,92,92,92,93,93,91,91,91,92,93,92,93,92,92,92,92,92,90,90,90,90,90,90,0,0,0,-1,0,0,0,0,0,0,0,0,0,0,0,0,0,0,0,0,0,0,0,0,0,0,0,0,0,0,0,0,0,0,0,0,0,0,0,0,0,0,0,0,0,0,0,0,0,0,0,0,0,0,0,0,0,0,0,0,0,0,0,0,0,0,0,0,0,0,0,0
"Ind54","12_0_3",113,97,97,97,97,98,97,97,97,97,97,97,97,91,91,90,90,90,90,90,90,89,89,89,89,92,92,92,92,93,93,91,91,91,92,93,92,93,92,92,92,92,92,90,90,90,90,90,90,0,0,0,0,-1,0,0,0,0,0,0,0,0,0,0,0,0,0,0,0,0,0,0,0,0,0,0,0,0,0,0,0,0,0,0,0,0,0,0,0,0,0,0,0,0,0,0,0,0,0,0,0,0,0,0,0,0,0,0,0,0,0,0,0,0,0,0,0,0,0,0,0
"Ind55","12_0_1",113,97,97,97,97,98,97,97,97,97,97,97,97,91,91,90,90,90,90,90,90,89,89,89,89,92,92,92,92,93,93,91,91,91,92,93,92,93,92,92,92,92,92,90,90,90,90,90,90,0,0,0,0,0,-1,0,0,0,0,0,0,0,0,0,0,0,0,0,0,0,0,0,0,0,0,0,0,0,0,0,0,0,0,0,0,0,0,0,0,0,0,0,0,0,0,0,0,0,0,0,0,0,0,0,0,0,0,0,0,0,0,0,0,0,0,0,0,0,0,0,0
"Ind56","12_0_2",113,97,97,97,97,98,97,97,97,97,97,97,97,91,91,90,90,90,90,90,90,89,89,89,89,92,92,92,92,93,93,91,91,91,92,93,92,93,92,92,92,92,92,90,90,90,90,90,90,0,0,0,0,0,0,-1,0,0,0,0,0,0,0,0,0,0,0,0,0,0,0,0,0,0,0,0,0,0,0,0,0,0,0,0,0,0,0,0,0,0,0,0,0,0,0,0,0,0,0,0,0,0,0,0,0,0,0,0,0,0,0,0,0,0,0,0,0,0,0,0,0
"Ind57","12_0_5",113,97,97,97,97,98,97,97,97,97,97,97,97,91,91,90,90,90,90,90,90,89,89,89,89,92,92,92,92,93,93,91,91,91,92,93,92,93,92,92,92,92,92,90,90,90,90,90,90,0,0,0,0,0,0,0,-1,0,0,0,0,0,0,0,0,0,0,0,0,0,0,0,0,0,0,0,0,0,0,0,0,0,0,0,0,0,0,0,0,0,0,0,0,0,0,0,0,0,0,0,0,0,0,0,0,0,0,0,0,0,0,0,0,0,0,0,0,0,0,0,0
"Ind58","19_0_3",113,97,97,97,97,98,97,97,97,97,97,97,97,91,91,90,90,90,90,90,90,89,89,89,89,92,92,92,92,93,93,91,91,91,92,93,92,93,92,92,92,92,92,90,90,90,90,90,90,0,0,0,0,0,0,0,0,-1,0,0,0,0,0,0,0,0,0,0,0,0,0,0,0,0,0,0,0,0,0,0,0,0,0,0,0,0,0,0,0,0,0,0,0,0,0,0,0,0,0,0,0,0,0,0,0,0,0,0,0,0,0,0,0,0,0,0,0,0,0,0,0
"Ind59","19_0_1",113,97,97,97,97,98,97,97,97,97,97,97,97,91,91,90,90,90,90,90,90,89,89,89,89,92,92,92,92,93,93,91,91,91,92,93,92,93,92,92,92,92,92,90,90,90,90,90,90,0,0,0,0,0,0,0,0,0,-1,0,0,0,0,0,0,0,0,0,0,0,0,0,0,0,0,0,0,0,0,0,0,0,0,0,0,0,0,0,0,0,0,0,0,0,0,0,0,0,0,0,0,0,0,0,0,0,0,0,0,0,0,0,0,0,0,0,0,0,0,0,0
"Ind60","19_0_5",113,97,97,97,97,98,97,97,97,97,97,97,97,91,91,90,90,90,90,90,90,89,89,89,89,92,92,92,92,93,93,91,91,91,92,93,92,93,92,92,92,92,92,90,90,90,90,90,90,0,0,0,0,0,0,0,0,0,0,-1,0,0,0,0,0,0,0,0,0,0,0,0,0,0,0,0,0,0,0,0,0,0,0,0,0,0,0,0,0,0,0,0,0,0,0,0,0,0,0,0,0,0,0,0,0,0,0,0,0,0,0,0,0,0,0,0,0,0,0,0,0
"Ind61","19_0_4",113,97,97,97,97,98,97,97,97,97,97,97,97,91,91,90,90,90,90,90,90,89,89,89,89,92,92,92,92,93,93,91,91,91,92,93,92,93,92,92,92,92,92,90,90,90,90,90,90,0,0,0,0,0,0,0,0,0,0,0,-1,0,0,0,0,0,0,0,0,0,0,0,0,0,0,0,0,0,0,0,0,0,0,0,0,0,0,0,0,0,0,0,0,0,0,0,0,0,0,0,0,0,0,0,0,0,0,0,0,0,0,0,0,0,0,0,0,0,0,0,0
"Ind62","20_0_2",111,95,95,95,95,96,95,95,95,95,95,95,95,89,89,88,88,88,88,88,88,87,87,87,87,90,90,90,90,91,91,89,89,89,90,91,90,91,90,90,90,90,90,88,88,88,88,88,88,5,5,5,5,5,5,5,5,5,5,5,5,-1,0,0,0,0,0,0,0,0,0,0,0,0,0,0,0,0,0,0,0,0,0,0,0,0,0,0,0,0,0,0,0,0,0,0,0,0,0,0,0,0,0,0,0,0,0,0,0,0,0,0,0,0,0,0,0,0,0,0,0
"Ind63","20_0_3",111,95,95,95,95,96,95,95,95,95,95,95,95,89,89,88,88,88,88,88,88,87,87,87,87,90,90,90,90,91,91,89,89,89,90,91,90,91,90,90,90,90,90,88,88,88,88,88,88,5,5,5,5,5,5,5,5,5,5,5,5,0,-1,0,0,0,0,0,0,0,0,0,0,0,0,0,0,0,0,0,0,0,0,0,0,0,0,0,0,0,0,0,0,0,0,0,0,0,0,0,0,0,0,0,0,0,0,0,0,0,0,0,0,0,0,0,0,0,0,0,0
"Ind64","20_0_5",111,95,95,95,95,96,95,95,95,95,95,95,95,89,89,88,88,88,88,88,88,87,87,87,87,90,90,90,90,91,91,89,89,89,90,91,90,91,90,90,90,90,90,88,88,88,88,88,88,5,5,5,5,5,5,5,5,5,5,5,5,0,0,-1,0,0,0,0,0,0,0,0,0,0,0,0,0,0,0,0,0,0,0,0,0,0,0,0,0,0,0,0,0,0,0,0,0,0,0,0,0,0,0,0,0,0,0,0,0,0,0,0,0,0,0,0,0,0,0,0,0
"Ind65","20_0_0",111,95,95,95,95,96,95,95,95,95,95,95,95,89,89,88,88,88,88,88,88,87,87,87,87,90,90,90,90,91,91,89,89,89,90,91,90,91,90,90,90,90,90,88,88,88,88,88,88,5,5,5,5,5,5,5,5,5,5,5,5,0,0,0,-1,0,0,0,0,0,0,0,0,0,0,0,0,0,0,0,0,0,0,0,0,0,0,0,0,0,0,0,0,0,0,0,0,0,0,0,0,0,0,0,0,0,0,0,0,0,0,0,0,0,0,0,0,0,0,0,0
"Ind66","20_0_1",111,95,95,95,95,96,95,95,95,95,95,95,95,89,89,88,88,88,88,88,88,87,87,87,87,90,90,90,90,91,91,89,89,89,90,91,90,91,90,90,90,90,90,88,88,88,88,88,88,5,5,5,5,5,5,5,5,5,5,5,5,0,0,0,0,-1,0,0,0,0,0,0,0,0,0,0,0,0,0,0,0,0,0,0,0,0,0,0,0,0,0,0,0,0,0,0,0,0,0,0,0,0,0,0,0,0,0,0,0,0,0,0,0,0,0,0,0,0,0,0,0
"Ind67","20_0_4",111,95,95,95,95,96,95,95,95,95,95,95,95,89,89,88,88,88,88,88,88,87,87,87,87,90,90,90,90,91,91,89,89,89,90,91,90,91,90,90,90,90,90,88,88,88,88,88,88,6,6,6,6,6,6,6,6,6,6,6,6,1,1,1,1,1,-1,0,0,0,0,0,0,0,0,0,0,0,0,0,0,0,0,0,0,0,0,0,0,0,0,0,0,0,0,0,0,0,0,0,0,0,0,0,0,0,0,0,0,0,0,0,0,0,0,0,0,0,0,0,0
"Ind68","14_0_4",111,95,95,95,95,96,95,95,95,95,95,95,95,89,89,88,88,88,88,88,88,87,87,87,87,90,90,90,90,91,91,89,89,89,90,91,90,91,90,90,90,90,90,88,88,88,88,88,88,5,5,5,5,5,5,5,5,5,5,5,5,2,2,2,2,2,3,-1,0,0,0,0,0,0,0,0,0,0,0,0,0,0,0,0,0,0,0,0,0,0,0,0,0,0,0,0,0,0,0,0,0,0,0,0,0,0,0,0,0,0,0,0,0,0,0,0,0,0,0,0,0
"Ind69","14_0_2",111,95,95,95,95,96,95,95,95,95,95,95,95,89,89,88,88,88,88,88,88,87,87,87,87,90,90,90,90,91,91,89,89,89,90,91,90,91,90,90,90,90,90,88,88,88,88,88,88,5,5,5,5,5,5,5,5,5,5,5,5,2,2,2,2,2,3,0,-1,0,0,0,0,0,0,0,0,0,0,0,0,0,0,0,0,0,0,0,0,0,0,0,0,0,0,0,0,0,0,0,0,0,0,0,0,0,0,0,0,0,0,0,0,0,0,0,0,0,0,0,0
"Ind70","14_0_1",111,95,95,95,95,96,95,95,95,95,95,95,95,89,89,88,88,88,88,88,88,87,87,87,87,90,90,90,90,91,91,89,89,89,90,91,90,91,90,90,90,90,90,88,88,88,88,88,88,5,5,5,5,5,5,5,5,5,5,5,5,2,2,2,2,2,3,0,0,-1,0,0,0,0,0,0,0,0,0,0,0,0,0,0,0,0,0,0,0,0,0,0,0,0,0,0,0,0,0,0,0,0,0,0,0,0,0,0,0,0,0,0,0,0,0,0,0,0,0,0,0
"Ind71","14_0_3",111,95,95,95,95,96,95,95,95,95,95,95,95,89,89,88,88,88,88,88,88,87,87,87,87,90,90,90,90,91,91,89,89,89,90,91,90,91,90,90,90,90,90,88,88,88,88,88,88,5,5,5,5,5,5,5,5,5,5,5,5,2,2,2,2,2,3,0,0,0,-1,0,0,0,0,0,0,0,0,0,0,0,0,0,0,0,0,0,0,0,0,0,0,0,0,0,0,0,0,0,0,0,0,0,0,0,0,0,0,0,0,0,0,0,0,0,0,0,0,0,0
"Ind72","14_0_0",111,95,95,95,95,96,95,95,95,95,95,95,95,89,89,88,88,88,88,88,88,87,87,87,87,90,90,90,90,91,91,89,89,89,90,91,90,91,90,90,90,90,90,88,88,88,88,88,88,5,5,5,5,5,5,5,5,5,5,5,5,2,2,2,2,2,3,0,0,0,0,-1,0,0,0,0,0,0,0,0,0,0,0,0,0,0,0,0,0,0,0,0,0,0,0,0,0,0,0,0,0,0,0,0,0,0,0,0,0,0,0,0,0,0,0,0,0,0,0,0,0
"Ind73","14_0_5",111,95,95,95,95,96,95,95,95,95,95,95,95,89,89,88,88,88,88,88,88,87,87,87,87,90,90,90,90,91,91,89,89,89,90,91,90,91,90,90,90,90,90,88,88,88,88,88,88,5,5,5,5,5,5,5,5,5,5,5,5,2,2,2,2,2,3,0,0,0,0,0,-1,0,0,0,0,0,0,0,0,0,0,0,0,0,0,0,0,0,0,0,0,0,0,0,0,0,0,0,0,0,0,0,0,0,0,0,0,0,0,0,0,0,0,0,0,0,0,0,0
"Ind74","17_0_3",111,95,95,95,95,94,93,95,95,95,95,95,95,89,89,88,88,88,88,88,88,87,87,87,87,90,90,90,90,91,91,89,89,89,90,91,90,91,90,90,90,90,90,88,88,88,88,88,88,5,5,5,5,5,5,5,5,5,5,5,5,4,4,4,4,4,5,4,4,4,4,4,4,-1,0,0,0,0,0,0,0,0,0,0,0,0,0,0,0,0,0,0,0,0,0,0,0,0,0,0,0,0,0,0,0,0,0,0,0,0,0,0,0,0,0,0,0,0,0,0,0
"Ind75","17_0_4",112,96,96,96,96,95,94,96,96,96,96,96,96,90,90,89,89,89,89,89,89,88,88,88,88,91,91,91,91,92,92,90,90,90,91,92,91,92,91,91,91,91,91,89,89,89,89,89,89,4,4,4,4,4,4,4,4,4,4,4,4,3,3,3,3,3,4,3,3,3,3,3,3,1,-1,0,0,0,0,0,0,0,0,0,0,0,0,0,0,0,0,0,0,0,0,0,0,0,0,0,0,0,0,0,0,0,0,0,0,0,0,0,0,0,0,0,0,0,0,0,0
"Ind76","17_0_1",112,96,96,96,96,95,94,96,96,96,96,96,96,90,90,89,89,89,89,89,89,88,88,88,88,91,91,91,91,92,92,90,90,90,91,92,91,92,91,91,91,91,91,89,89,89,89,89,89,4,4,4,4,4,4,4,4,4,4,4,4,3,3,3,3,3,4,3,3,3,3,3,3,1,0,-1,0,0,0,0,0,0,0,0,0,0,0,0,0,0,0,0,0,0,0,0,0,0,0,0,0,0,0,0,0,0,0,0,0,0,0,0,0,0,0,0,0,0,0,0,0
"Ind77","17_0_5",112,96,96,96,96,95,94,96,96,96,96,96,96,90,90,89,89,89,89,89,89,88,88,88,88,91,91,91,91,92,92,90,90,90,91,92,91,92,91,91,91,91,91,89,89,89,89,89,89,4,4,4,4,4,4,4,4,4,4,4,4,3,3,3,3,3,4,3,3,3,3,3,3,1,0,0,-1,0,0,0,0,0,0,0,0,0,0,0,0,0,0,0,0,0,0,0,0,0,0,0,0,0,0,0,0,0,0,0,0,0,0,0,0,0,0,0,0,0,0,0,0
"Ind78","15_0_2",112,96,96,96,96,95,94,96,96,96,96,96,96,90,90,89,89,89,89,89,89,88,88,88,88,91,91,91,91,92,92,90,90,90,91,92,91,92,91,91,91,91,91,89,89,89,89,89,89,4,4,4,4,4,4,4,4,4,4,4,4,3,3,3,3,3,4,3,3,3,3,3,3,1,0,0,0,-1,0,0,0,0,0,0,0,0,0,0,0,0,0,0,0,0,0,0,0,0,0,0,0,0,0,0,0,0,0,0,0,0,0,0,0,0,0,0,0,0,0,0,0
"Ind79","15_0_3",112,96,96,96,96,95,94,96,96,96,96,96,96,90,90,89,89,89,89,89,89,88,88,88,88,91,91,91,91,92,92,90,90,90,91,92,91,92,91,91,91,91,91,89,89,89,89,89,89,4,4,4,4,4,4,4,4,4,4,4,4,3,3,3,3,3,4,3,3,3,3,3,3,1,0,0,0,0,-1,0,0,0,0,0,0,0,0,0,0,0,0,0,0,0,0,0,0,0,0,0,0,0,0,0,0,0,0,0,0,0,0,0,0,0,0,0,0,0,0,0,0
"Ind80","17_0_2",113,95,95,95,95,94,93,95,95,95,95,95,95,91,91,90,90,90,90,90,90,89,89,89,89,92,92,92,92,93,93,91,91,91,92,93,92,93,92,92,92,92,92,90,90,90,90,90,90,5,5,5,5,5,5,5,5,5,5,5,5,4,4,4,4,4,5,4,4,4,4,4,4,2,1,1,1,1,1,-1,0,0,0,0,0,0,0,0,0,0,0,0,0,0,0,0,0,0,0,0,0,0,0,0,0,0,0,0,0,0,0,0,0,0,0,0,0,0,0,0,0
"Ind81","17_0_0",113,95,95,95,95,94,93,95,95,95,95,95,95,91,91,90,90,90,90,90,90,89,89,89,89,92,92,92,92,93,93,91,91,91,92,93,92,93,92,92,92,92,92,90,90,90,90,90,90,5,5,5,5,5,5,5,5,5,5,5,5,4,4,4,4,4,5,4,4,4,4,4,4,2,1,1,1,1,1,0,-1,0,0,0,0,0,0,0,0,0,0,0,0,0,0,0,0,0,0,0,0,0,0,0,0,0,0,0,0,0,0,0,0,0,0,0,0,0,0,0,0
"Ind82","15_0_5",112,97,97,97,97,96,95,97,97,97,97,97,97,91,91,90,90,90,90,90,90,89,89,89,89,92,92,92,92,93,93,91,91,91,92,93,92,93,92,92,92,92,92,90,90,90,90,90,90,5,5,5,5,5,5,5,5,5,5,5,5,4,4,4,4,4,5,4,4,4,4,4,4,2,1,1,1,1,1,2,2,-1,0,0,0,0,0,0,0,0,0,0,0,0,0,0,0,0,0,0,0,0,0,0,0,0,0,0,0,0,0,0,0,0,0,0,0,0,0,0,0
"Ind83","15_0_0",112,97,97,97,97,96,95,97,97,97,97,97,97,91,91,90,90,90,90,90,90,89,89,89,89,92,92,92,92,93,93,91,91,91,92,93,92,93,92,92,92,92,92,90,90,90,90,90,90,5,5,5,5,5,5,5,5,5,5,5,5,4,4,4,4,4,5,4,4,4,4,4,4,2,1,1,1,1,1,2,2,0,-1,0,0,0,0,0,0,0,0,0,0,0,0,0,0,0,0,0,0,0,0,0,0,0,0,0,0,0,0,0,0,0,0,0,0,0,0,0,0
"Ind84","15_0_4",112,97,97,97,97,96,95,97,97,97,97,97,97,91,91,90,90,90,90,90,90,89,89,89,89,92,92,92,92,93,93,91,91,91,92,93,92,93,92,92,92,92,92,90,90,90,90,90,90,5,5,5,5,5,5,5,5,5,5,5,5,4,4,4,4,4,5,4,4,4,4,4,4,2,1,1,1,1,1,2,2,0,0,-1,0,0,0,0,0,0,0,0,0,0,0,0,0,0,0,0,0,0,0,0,0,0,0,0,0,0,0,0,0,0,0,0,0,0,0,0,0
"Ind85","15_0_1",113,98,98,98,98,97,96,98,98,98,98,98,98,92,92,91,91,91,91,91,91,90,90,90,90,93,93,93,93,94,94,92,92,92,93,94,93,94,93,93,93,93,93,91,91,91,91,91,91,6,6,6,6,6,6,6,6,6,6,6,6,5,5,5,5,5,6,5,5,5,5,5,5,3,2,2,2,2,2,3,3,1,1,1,-1,0,0,0,0,0,0,0,0,0,0,0,0,0,0,0,0,0,0,0,0,0,0,0,0,0,0,0,0,0,0,0,0,0,0,0,0
"Ind86","13_0_3",112,96,96,96,96,95,94,96,96,96,96,96,96,90,90,89,89,89,89,89,89,88,88,88,88,91,91,91,91,92,92,90,90,90,91,92,91,92,91,91,91,91,91,89,89,89,89,89,89,4,4,4,4,4,4,4,4,4,4,4,4,3,3,3,3,3,4,3,3,3,3,3,3,1,0,0,0,0,0,1,1,1,1,1,2,-1,0,0,0,0,0,0,0,0,0,0,0,0,0,0,0,0,0,0,0,0,0,0,0,0,0,0,0,0,0,0,0,0,0,0,0
"Ind87","13_0_0",113,97,97,97,97,96,95,97,97,97,97,97,97,91,91,90,90,90,90,90,90,89,89,89,89,92,92,92,92,93,93,91,91,91,92,93,92,93,92,92,92,92,92,90,90,90,90,90,90,5,5,5,5,5,5,5,5,5,5,5,5,4,4,4,4,4,5,4,4,4,4,4,4,2,1,1,1,1,1,2,2,2,2,2,2,1,-1,0,0,0,0,0,0,0,0,0,0,0,0,0,0,0,0,0,0,0,0,0,0,0,0,0,0,0,0,0,0,0,0,0,0
"Ind88","13_0_1",113,97,97,97,97,96,95,97,97,97,97,97,97,91,91,90,90,90,90,90,90,89,89,89,89,92,92,92,92,93,93,91,91,91,92,93,92,93,92,92,92,92,92,90,90,90,90,90,90,5,5,5,5,5,5,5,5,5,5,5,5,4,4,4,4,4,5,4,4,4,4,4,4,2,1,1,1,1,1,2,2,2,2,2,2,1,0,-1,0,0,0,0,0,0,0,0,0,0,0,0,0,0,0,0,0,0,0,0,0,0,0,0,0,0,0,0,0,0,0,0,0
"Ind89","13_0_4",113,97,97,97,97,96,95,97,97,97,97,97,97,91,91,90,90,90,90,90,90,89,89,89,89,92,92,92,92,93,93,91,91,91,92,93,92,93,92,92,92,92,92,90,90,90,90,90,90,5,5,5,5,5,5,5,5,5,5,5,5,4,4,4,4,4,5,4,4,4,4,4,4,2,1,1,1,1,1,2,2,2,2,2,2,1,0,0,-1,0,0,0,0,0,0,0,0,0,0,0,0,0,0,0,0,0,0,0,0,0,0,0,0,0,0,0,0,0,0,0,0
"Ind90","13_0_2",113,97,97,97,97,96,95,97,97,97,97,97,97,91,91,90,90,90,90,90,90,89,89,89,89,92,92,92,92,93,93,91,91,91,92,93,92,93,92,92,92,92,92,90,90,90,90,90,90,5,5,5,5,5,5,5,5,5,5,5,5,4,4,4,4,4,5,4,4,4,4,4,4,2,1,1,1,1,1,2,2,2,2,2,2,1,0,0,0,-1,0,0,0,0,0,0,0,0,0,0,0,0,0,0,0,0,0,0,0,0,0,0,0,0,0,0,0,0,0,0,0
"Ind91","13_0_5",112,96,96,96,96,95,94,96,96,96,96,96,96,90,90,89,89,89,89,89,89,88,88,88,88,91,91,91,91,92,92,90,90,90,91,92,91,92,91,91,91,91,91,89,89,89,89,89,89,4,4,4,4,4,4,4,4,4,4,4,4,3,3,3,3,3,4,3,3,3,3,3,3,1,0,0,0,0,0,1,1,1,1,1,2,0,1,1,1,1,-1,0,0,0,0,0,0,0,0,0,0,0,0,0,0,0,0,0,0,0,0,0,0,0,0,0,0,0,0,0,0
"Ind92","18_0_5",112,96,96,96,96,95,94,96,96,96,96,96,96,90,90,89,89,89,89,89,89,88,88,88,88,91,91,91,91,92,92,90,90,90,91,92,91,92,91,91,91,91,91,89,89,89,89,89,89,4,4,4,4,4,4,4,4,4,4,4,4,3,3,3,3,3,4,3,3,3,3,3,3,1,0,0,0,0,0,1,1,1,1,1,2,0,1,1,1,1,0,-1,0,0,0,0,0,0,0,0,0,0,0,0,0,0,0,0,0,0,0,0,0,0,0,0,0,0,0,0,0
"Ind93","18_0_0",112,96,96,96,96,95,94,96,96,96,96,96,96,90,90,89,89,89,89,89,89,88,88,88,88,91,91,91,91,92,92,90,90,90,91,92,91,92,91,91,91,91,91,89,89,89,89,89,89,4,4,4,4,4,4,4,4,4,4,4,4,3,3,3,3,3,4,3,3,3,3,3,3,1,0,0,0,0,0,1,1,1,1,1,2,0,1,1,1,1,0,0,-1,0,0,0,0,0,0,0,0,0,0,0,0,0,0,0,0,0,0,0,0,0,0,0,0,0,0,0,0
"Ind94","18_0_2",112,96,96,96,96,95,94,96,96,96,96,96,96,90,90,89,89,89,89,89,89,88,88,88,88,91,91,91,91,92,92,90,90,90,91,92,91,92,91,91,91,91,91,89,89,89,89,89,89,4,4,4,4,4,4,4,4,4,4,4,4,3,3,3,3,3,4,3,3,3,3,3,3,1,0,0,0,0,0,1,1,1,1,1,2,0,1,1,1,1,0,0,0,-1,0,0,0,0,0,0,0,0,0,0,0,0,0,0,0,0,0,0,0,0,0,0,0,0,0,0,0
"Ind95","18_0_3",112,96,96,96,96,95,94,96,96,96,96,96,96,90,90,89,89,89,89,89,89,88,88,88,88,91,91,91,91,92,92,90,90,90,91,92,91,92,91,91,91,91,91,89,89,89,89,89,89,4,4,4,4,4,4,4,4,4,4,4,4,3,3,3,3,3,4,3,3,3,3,3,3,1,0,0,0,0,0,1,1,1,1,1,2,0,1,1,1,1,0,0,0,0,-1,0,0,0,0,0,0,0,0,0,0,0,0,0,0,0,0,0,0,0,0,0,0,0,0,0,0
"Ind96","18_0_1",112,96,96,96,96,95,94,96,96,96,96,96,96,90,90,89,89,89,89,89,89,88,88,88,88,91,91,91,91,92,92,90,90,90,91,92,91,92,91,91,91,91,91,89,89,89,89,89,89,4,4,4,4,4,4,4,4,4,4,4,4,3,3,3,3,3,4,3,3,3,3,3,3,1,0,0,0,0,0,1,1,1,1,1,2,0,1,1,1,1,0,0,0,0,0,-1,0,0,0,0,0,0,0,0,0,0,0,0,0,0,0,0,0,0,0,0,0,0,0,0,0
"Ind97","18_0_4",112,96,96,96,96,95,94,96,96,96,96,96,96,90,90,89,89,89,89,89,89,88,88,88,88,91,91,91,91,92,92,90,90,90,91,92,91,92,91,91,91,91,91,89,89,89,89,89,89,4,4,4,4,4,4,4,4,4,4,4,4,3,3,3,3,3,4,3,3,3,3,3,3,1,0,0,0,0,0,1,1,1,1,1,2,0,1,1,1,1,0,0,0,0,0,0,-1,0,0,0,0,0,0,0,0,0,0,0,0,0,0,0,0,0,0,0,0,0,0,0,0
"Ind98","16_0_2",111,93,93,93,93,92,91,93,93,93,93,93,93,87,87,86,86,86,86,86,86,85,85,85,85,88,88,88,88,89,89,87,87,87,88,89,88,89,88,88,88,88,88,86,86,86,86,86,86,7,7,7,7,7,7,7,7,7,7,7,7,6,6,6,6,6,7,6,6,6,6,6,6,4,3,3,3,3,3,4,4,4,4,4,5,3,4,4,4,4,3,3,3,3,3,3,3,-1,0,0,0,0,0,0,0,0,0,0,0,0,0,0,0,0,0,0,0,0,0,0,0
"Ind99","16_0_5",111,93,93,93,93,92,91,93,93,93,93,93,93,87,87,86,86,86,86,86,86,85,85,85,85,88,88,88,88,89,89,87,87,87,88,89,88,89,88,88,88,88,88,86,86,86,86,86,86,7,7,7,7,7,7,7,7,7,7,7,7,6,6,6,6,6,7,6,6,6,6,6,6,4,3,3,3,3,3,4,4,4,4,4,5,3,4,4,4,4,3,3,3,3,3,3,3,0,-1,0,0,0,0,0,0,0,0,0,0,0,0,0,0,0,0,0,0,0,0,0,0
"Ind100","16_0_4",111,93,93,93,93,92,91,93,93,93,93,93,93,87,87,86,86,86,86,86,86,85,85,85,85,88,88,88,88,89,89,87,87,87,88,89,88,89,88,88,88,88,88,86,86,86,86,86,86,7,7,7,7,7,7,7,7,7,7,7,7,6,6,6,6,6,7,6,6,6,6,6,6,4,3,3,3,3,3,4,4,4,4,4,5,3,4,4,4,4,3,3,3,3,3,3,3,0,0,-1,0,0,0,0,0,0,0,0,0,0,0,0,0,0,0,0,0,0,0,0,0
"Ind101","16_0_0",111,93,93,93,93,92,91,93,93,93,93,93,93,87,87,86,86,86,86,86,86,85,85,85,85,88,88,88,88,89,89,87,87,87,88,89,88,89,88,88,88,88,88,86,86,86,86,86,86,7,7,7,7,7,7,7,7,7,7,7,7,6,6,6,6,6,7,6,6,6,6,6,6,4,3,3,3,3,3,4,4,4,4,4,5,3,4,4,4,4,3,3,3,3,3,3,3,0,0,0,-1,0,0,0,0,0,0,0,0,0,0,0,0,0,0,0,0,0,0,0,0
"Ind102","16_0_1",111,93,93,93,93,92,91,93,93,93,93,93,93,87,87,86,86,86,86,86,86,85,85,85,85,88,88,88,88,89,89,87,87,87,88,89,88,89,88,88,88,88,88,86,86,86,86,86,86,7,7,7,7,7,7,7,7,7,7,7,7,6,6,6,6,6,7,6,6,6,6,6,6,4,3,3,3,3,3,4,4,4,4,4,5,3,4,4,4,4,3,3,3,3,3,3,3,0,0,0,0,-1,0,0,0,0,0,0,0,0,0,0,0,0,0,0,0,0,0,0,0
"Ind103","16_0_3",111,93,93,93,93,92,91,93,93,93,93,93,93,87,87,86,86,86,86,86,86,85,85,85,85,88,88,88,88,89,89,87,87,87,88,89,88,89,88,88,88,88,88,86,86,86,86,86,86,7,7,7,7,7,7,7,7,7,7,7,7,6,6,6,6,6,7,6,6,6,6,6,6,4,3,3,3,3,3,4,4,4,4,4,5,3,4,4,4,4,3,3,3,3,3,3,3,0,0,0,0,0,-1,0,0,0,0,0,0,0,0,0,0,0,0,0,0,0,0,0,0
"Ind104","11_0_0",117,96,96,96,96,95,94,96,96,96,96,96,96,90,90,89,89,89,89,89,89,88,88,88,88,91,91,91,91,92,92,90,90,90,91,92,91,92,91,91,91,91,91,89,89,89,89,89,89,9,9,9,9,9,9,9,9,9,9,9,9,8,8,8,8,8,9,8,8,8,8,8,8,6,5,5,5,5,5,6,6,6,6,6,7,5,6,6,6,6,5,5,5,5,5,5,5,8,8,8,8,8,8,-1,0,0,0,0,0,0,0,0,0,0,0,0,0,0,0,0,0
"Ind105","11_0_5",117,96,96,96,96,95,94,96,96,96,96,96,96,90,90,89,89,89,89,89,89,88,88,88,88,91,91,91,91,92,92,90,90,90,91,92,91,92,91,91,91,91,91,89,89,89,89,89,89,9,9,9,9,9,9,9,9,9,9,9,9,8,8,8,8,8,9,8,8,8,8,8,8,6,5,5,5,5,5,6,6,6,6,6,7,5,6,6,6,6,5,5,5,5,5,5,5,8,8,8,8,8,8,0,-1,0,0,0,0,0,0,0,0,0,0,0,0,0,0,0,0
"Ind106","11_0_2",117,97,97,97,97,96,95,97,97,97,97,97,97,91,91,90,90,90,90,90,90,89,89,89,89,92,92,92,92,93,93,91,91,91,92,93,92,93,92,92,92,92,92,90,90,90,90,90,90,9,9,9,9,9,9,9,9,9,9,9,9,8,8,8,8,8,9,8,8,8,8,8,8,6,5,5,5,5,5,6,6,6,6,6,7,5,6,6,6,6,5,5,5,5,5,5,5,8,8,8,8,8,8,2,2,-1,0,0,0,0,0,0,0,0,0,0,0,0,0,0,0
"Ind107","11_0_3",116,96,96,96,96,95,94,96,96,96,96,96,96,90,90,89,89,89,89,89,89,88,88,88,88,91,91,91,91,92,92,90,90,90,91,92,91,92,91,91,91,91,91,89,89,89,89,89,89,8,8,8,8,8,8,8,8,8,8,8,8,7,7,7,7,7,8,7,7,7,7,7,7,5,4,4,4,4,4,5,5,5,5,5,6,4,5,5,5,5,4,4,4,4,4,4,4,7,7,7,7,7,7,1,1,1,-1,0,0,0,0,0,0,0,0,0,0,0,0,0,0
"Ind108","11_0_4",116,96,96,96,96,95,94,96,96,96,96,96,96,90,90,89,89,89,89,89,89,88,88,88,88,91,91,91,91,92,92,90,90,90,91,92,91,92,91,91,91,91,91,89,89,89,89,89,89,8,8,8,8,8,8,8,8,8,8,8,8,7,7,7,7,7,8,7,7,7,7,7,7,5,4,4,4,4,4,5,5,5,5,5,6,4,5,5,5,5,4,4,4,4,4,4,4,7,7,7,7,7,7,1,1,1,0,-1,0,0,0,0,0,0,0,0,0,0,0,0,0
"Ind109","11_0_1",116,96,96,96,96,95,94,96,96,96,96,96,96,90,90,89,89,89,89,89,89,88,88,88,88,91,91,91,91,92,92,90,90,90,91,92,91,92,91,91,91,91,91,89,89,89,89,89,89,8,8,8,8,8,8,8,8,8,8,8,8,7,7,7,7,7,8,7,7,7,7,7,7,5,4,4,4,4,4,5,5,5,5,5,6,4,5,5,5,5,4,4,4,4,4,4,4,7,7,7,7,7,7,1,1,1,0,0,-1,0,0,0,0,0,0,0,0,0,0,0,0
"Ind110","10_0_3",114,94,94,94,94,93,92,94,94,94,94,94,94,88,88,87,87,87,87,87,87,86,86,86,86,89,89,89,89,90,90,88,88,88,89,90,89,90,89,89,89,89,89,87,87,87,87,87,87,8,8,8,8,8,8,8,8,8,8,8,8,7,7,7,7,7,8,7,7,7,7,7,7,5,4,4,4,4,4,5,5,5,5,5,6,4,5,5,5,5,4,4,4,4,4,4,4,7,7,7,7,7,7,5,5,5,4,4,4,-1,0,0,0,0,0,0,0,0,0,0,0
"Ind111","9_0_1",114,94,94,94,94,93,92,94,94,94,94,94,94,88,88,87,87,87,87,87,87,86,86,86,86,89,89,89,89,90,90,88,88,88,89,90,89,90,89,89,89,89,89,87,87,87,87,87,87,8,8,8,8,8,8,8,8,8,8,8,8,7,7,7,7,7,8,7,7,7,7,7,7,5,4,4,4,4,4,5,5,5,5,5,6,4,5,5,5,5,4,4,4,4,4,4,4,7,7,7,7,7,7,5,5,5,4,4,4,0,-1,0,0,0,0,0,0,0,0,0,0
"Ind112","9_0_2",114,94,94,94,94,93,92,94,94,94,94,94,94,88,88,87,87,87,87,87,87,86,86,86,86,89,89,89,89,90,90,88,88,88,89,90,89,90,89,89,89,89,89,87,87,87,87,87,87,8,8,8,8,8,8,8,8,8,8,8,8,7,7,7,7,7,8,7,7,7,7,7,7,5,4,4,4,4,4,5,5,5,5,5,6,4,5,5,5,5,4,4,4,4,4,4,4,7,7,7,7,7,7,5,5,5,4,4,4,0,0,-1,0,0,0,0,0,0,0,0,0
"Ind113","10_0_2",114,94,94,94,94,93,92,94,94,94,94,94,94,88,88,87,87,87,87,87,87,86,86,86,86,89,89,89,89,90,90,88,88,88,89,90,89,90,89,89,89,89,89,87,87,87,87,87,87,8,8,8,8,8,8,8,8,8,8,8,8,7,7,7,7,7,8,7,7,7,7,7,7,5,4,4,4,4,4,5,5,5,5,5,6,4,5,5,5,5,4,4,4,4,4,4,4,7,7,7,7,7,7,5,5,5,4,4,4,0,0,0,-1,0,0,0,0,0,0,0,0
"Ind114","10_0_5",114,94,94,94,94,93,92,94,94,94,94,94,94,88,88,87,87,87,87,87,87,86,86,86,86,89,89,89,89,90,90,88,88,88,89,90,89,90,89,89,89,89,89,87,87,87,87,87,87,8,8,8,8,8,8,8,8,8,8,8,8,7,7,7,7,7,8,7,7,7,7,7,7,5,4,4,4,4,4,5,5,5,5,5,6,4,5,5,5,5,4,4,4,4,4,4,4,7,7,7,7,7,7,5,5,5,4,4,4,0,0,0,0,-1,0,0,0,0,0,0,0
"Ind115","10_0_1",114,94,94,94,94,93,92,94,94,94,94,94,94,88,88,87,87,87,87,87,87,86,86,86,86,89,89,89,89,90,90,88,88,88,89,90,89,90,89,89,89,89,89,87,87,87,87,87,87,8,8,8,8,8,8,8,8,8,8,8,8,7,7,7,7,7,8,7,7,7,7,7,7,5,4,4,4,4,4,5,5,5,5,5,6,4,5,5,5,5,4,4,4,4,4,4,4,7,7,7,7,7,7,5,5,5,4,4,4,0,0,0,0,0,-1,0,0,0,0,0,0
"Ind116","10_0_0",114,94,94,94,94,93,92,94,94,94,94,94,94,88,88,87,87,87,87,87,87,86,86,86,86,89,89,89,89,90,90,88,88,88,89,90,89,90,89,89,89,89,89,87,87,87,87,87,87,8,8,8,8,8,8,8,8,8,8,8,8,7,7,7,7,7,8,7,7,7,7,7,7,5,4,4,4,4,4,5,5,5,5,5,6,4,5,5,5,5,4,4,4,4,4,4,4,7,7,7,7,7,7,5,5,5,4,4,4,0,0,0,0,0,0,-1,0,0,0,0,0
"Ind117","9_0_3",114,94,94,94,94,93,92,94,94,94,94,94,94,88,88,87,87,87,87,87,87,86,86,86,86,89,89,89,89,90,90,88,88,88,89,90,89,90,89,89,89,89,89,87,87,87,87,87,87,8,8,8,8,8,8,8,8,8,8,8,8,7,7,7,7,7,8,7,7,7,7,7,7,5,4,4,4,4,4,5,5,5,5,5,6,4,5,5,5,5,4,4,4,4,4,4,4,7,7,7,7,7,7,5,5,5,4,4,4,0,0,0,0,0,0,0,-1,0,0,0,0
"Ind118","9_0_0",114,94,94,94,94,93,92,94,94,94,94,94,94,88,88,87,87,87,87,87,87,86,86,86,86,89,89,89,89,90,90,88,88,88,89,90,89,90,89,89,89,89,89,87,87,87,87,87,87,8,8,8,8,8,8,8,8,8,8,8,8,7,7,7,7,7,8,7,7,7,7,7,7,5,4,4,4,4,4,5,5,5,5,5,6,4,5,5,5,5,4,4,4,4,4,4,4,7,7,7,7,7,7,5,5,5,4,4,4,0,0,0,0,0,0,0,0,-1,0,0,0
"Ind119","9_0_4",114,94,94,94,94,93,92,94,94,94,94,94,94,88,88,87,87,87,87,87,87,86,86,86,86,89,89,89,89,90,90,88,88,88,89,90,89,90,89,89,89,89,89,87,87,87,87,87,87,8,8,8,8,8,8,8,8,8,8,8,8,7,7,7,7,7,8,7,7,7,7,7,7,5,4,4,4,4,4,5,5,5,5,5,6,4,5,5,5,5,4,4,4,4,4,4,4,7,7,7,7,7,7,5,5,5,4,4,4,0,0,0,0,0,0,0,0,0,-1,0,0
"Ind120","9_0_5",114,94,94,94,94,93,92,94,94,94,94,94,94,88,88,87,87,87,87,87,87,86,86,86,86,89,89,89,89,90,90,88,88,88,89,90,89,90,89,89,89,89,89,87,87,87,87,87,87,8,8,8,8,8,8,8,8,8,8,8,8,7,7,7,7,7,8,7,7,7,7,7,7,5,4,4,4,4,4,5,5,5,5,5,6,4,5,5,5,5,4,4,4,4,4,4,4,7,7,7,7,7,7,5,5,5,4,4,4,0,0,0,0,0,0,0,0,0,0,-1,0
"Ind121","10_0_4",113,95,95,95,95,94,93,95,95,95,95,95,95,89,89,88,88,88,88,88,88,87,87,87,87,90,90,90,90,91,91,89,89,89,90,91,90,91,90,90,90,90,90,88,88,88,88,88,88,9,9,9,9,9,9,9,9,9,9,9,9,8,8,8,8,8,9,8,8,8,8,8,8,6,5,5,5,5,5,6,6,6,6,6,7,5,6,6,6,6,5,5,5,5,5,5,5,8,8,8,8,8,8,6,6,6,5,5,5,1,1,1,1,1,1,1,1,1,1,1,-1
