"","Description","Ind1","Ind2","Ind3","Ind4","Ind5","Ind6","Ind7","Ind8","Ind9","Ind10","Ind11","Ind12","Ind13","Ind14","Ind15","Ind16","Ind17","Ind18","Ind19","Ind20","Ind21","Ind22","Ind23","Ind24","Ind25","Ind26","Ind27","Ind28","Ind29","Ind30","Ind31","Ind32","Ind33"
"Ind1","0_0_0",-1,0,0,0,0,0,0,0,0,0,0,0,0,0,0,0,0,0,0,0,0,0,0,0,0,0,0,0,0,0,0,0,0
"Ind2","5_0_0",120,-1,0,0,0,0,0,0,0,0,0,0,0,0,0,0,0,0,0,0,0,0,0,0,0,0,0,0,0,0,0,0,0
"Ind3","5_0_1",120,0,-1,0,0,0,0,0,0,0,0,0,0,0,0,0,0,0,0,0,0,0,0,0,0,0,0,0,0,0,0,0,0
"Ind4","13_0_1",121,3,3,-1,0,0,0,0,0,0,0,0,0,0,0,0,0,0,0,0,0,0,0,0,0,0,0,0,0,0,0,0,0
"Ind5","13_0_0",121,3,3,0,-1,0,0,0,0,0,0,0,0,0,0,0,0,0,0,0,0,0,0,0,0,0,0,0,0,0,0,0,0
"Ind6","9_0_0",120,4,4,1,1,-1,0,0,0,0,0,0,0,0,0,0,0,0,0,0,0,0,0,0,0,0,0,0,0,0,0,0,0
"Ind7","9_0_1",120,4,4,1,1,2,-1,0,0,0,0,0,0,0,0,0,0,0,0,0,0,0,0,0,0,0,0,0,0,0,0,0,0
"Ind8","10_0_0",122,4,4,1,1,2,2,-1,0,0,0,0,0,0,0,0,0,0,0,0,0,0,0,0,0,0,0,0,0,0,0,0,0
"Ind9","10_0_1",121,3,3,0,0,1,1,1,-1,0,0,0,0,0,0,0,0,0,0,0,0,0,0,0,0,0,0,0,0,0,0,0,0
"Ind10","2_0_0",112,17,17,18,18,19,19,19,18,-1,0,0,0,0,0,0,0,0,0,0,0,0,0,0,0,0,0,0,0,0,0,0,0
"Ind11","2_0_1",112,17,17,18,18,19,19,19,18,0,-1,0,0,0,0,0,0,0,0,0,0,0,0,0,0,0,0,0,0,0,0,0,0
"Ind12","3_0_1",118,32,32,33,33,34,34,34,33,21,21,-1,0,0,0,0,0,0,0,0,0,0,0,0,0,0,0,0,0,0,0,0,0
"Ind13","3_0_0",117,31,31,32,32,33,33,33,32,20,20,1,-1,0,0,0,0,0,0,0,0,0,0,0,0,0,0,0,0,0,0,0,0
"Ind14","8_0_0",116,30,30,31,31,32,32,32,31,19,19,4,3,-1,0,0,0,0,0,0,0,0,0,0,0,0,0,0,0,0,0,0,0
"Ind15","8_0_1",116,30,30,31,31,32,32,32,31,19,19,4,3,0,-1,0,0,0,0,0,0,0,0,0,0,0,0,0,0,0,0,0,0
"Ind16","12_0_1",117,31,31,32,32,33,33,33,32,20,20,5,4,1,1,-1,0,0,0,0,0,0,0,0,0,0,0,0,0,0,0,0,0
"Ind17","12_0_0",116,30,30,31,31,32,32,32,31,19,19,4,3,0,0,1,-1,0,0,0,0,0,0,0,0,0,0,0,0,0,0,0,0
"Ind18","6_0_1",112,25,25,26,26,27,27,27,26,14,14,17,16,15,15,16,15,-1,0,0,0,0,0,0,0,0,0,0,0,0,0,0,0
"Ind19","6_0_0",112,25,25,26,26,27,27,27,26,14,14,17,16,15,15,16,15,0,-1,0,0,0,0,0,0,0,0,0,0,0,0,0,0
"Ind20","16_0_1",108,17,17,18,18,19,19,19,18,6,6,15,14,13,13,14,13,8,8,-1,0,0,0,0,0,0,0,0,0,0,0,0,0
"Ind21","16_0_0",109,18,18,19,19,20,20,20,19,7,7,16,15,14,14,15,14,9,9,1,-1,0,0,0,0,0,0,0,0,0,0,0,0
"Ind22","15_0_0",108,20,20,21,21,22,20,22,21,9,9,18,17,16,16,17,16,11,11,3,4,-1,0,0,0,0,0,0,0,0,0,0,0
"Ind23","11_0_0",108,20,20,21,21,22,20,22,21,9,9,18,17,16,16,17,16,11,11,3,4,0,-1,0,0,0,0,0,0,0,0,0,0
"Ind24","15_0_1",108,20,20,21,21,22,20,22,21,9,9,18,17,16,16,17,16,11,11,3,4,0,0,-1,0,0,0,0,0,0,0,0,0
"Ind25","11_0_1",107,21,21,22,22,23,21,23,22,10,10,19,18,17,17,18,17,12,12,4,5,1,1,1,-1,0,0,0,0,0,0,0,0
"Ind26","7_0_1",109,21,21,22,22,23,21,23,22,10,10,19,18,17,17,18,17,12,12,4,5,1,1,1,2,-1,0,0,0,0,0,0,0
"Ind27","7_0_0",111,23,23,24,24,25,23,25,24,12,12,21,20,19,19,20,19,14,14,6,7,3,3,3,4,2,-1,0,0,0,0,0,0
"Ind28","14_0_1",107,20,20,21,21,22,22,22,21,9,9,18,17,16,16,17,16,11,11,3,4,6,6,6,5,7,9,-1,0,0,0,0,0
"Ind29","14_0_0",108,19,19,20,20,21,21,21,20,8,8,17,16,15,15,16,15,10,10,2,3,5,5,5,4,6,8,1,-1,0,0,0,0
"Ind30","4_0_0",107,18,18,19,19,20,20,20,19,7,7,18,17,16,16,17,16,11,11,3,4,6,6,6,7,7,9,6,5,-1,0,0,0
"Ind31","4_0_1",107,18,18,19,19,20,20,20,19,7,7,18,17,16,16,17,16,11,11,3,4,6,6,6,7,7,9,6,5,0,-1,0,0
"Ind32","1_0_1",115,40,40,41,41,42,40,42,41,31,31,43,43,42,42,43,42,37,37,29,30,30,30,30,31,31,33,32,31,30,30,-1,0
"Ind33","1_0_0",115,40,40,41,41,42,40,42,41,31,31,43,43,42,42,43,42,37,37,29,30,30,30,30,31,31,33,32,31,30,30,0,-1
