"","Description","Ind1","Ind2","Ind3","Ind4","Ind5","Ind6","Ind7","Ind8","Ind9","Ind10","Ind11","Ind12","Ind13","Ind14","Ind15","Ind16","Ind17","Ind18","Ind19","Ind20","Ind21","Ind22","Ind23","Ind24","Ind25","Ind26","Ind27","Ind28","Ind29","Ind30","Ind31","Ind32","Ind33","Ind34","Ind35","Ind36","Ind37","Ind38","Ind39","Ind40","Ind41","Ind42","Ind43","Ind44","Ind45","Ind46","Ind47","Ind48","Ind49","Ind50","Ind51","Ind52","Ind53","Ind54","Ind55","Ind56","Ind57","Ind58","Ind59","Ind60","Ind61","Ind62","Ind63","Ind64","Ind65","Ind66","Ind67","Ind68","Ind69","Ind70","Ind71","Ind72","Ind73","Ind74","Ind75","Ind76","Ind77","Ind78","Ind79","Ind80","Ind81","Ind82","Ind83","Ind84","Ind85","Ind86","Ind87","Ind88","Ind89","Ind90","Ind91","Ind92","Ind93","Ind94","Ind95","Ind96","Ind97","Ind98","Ind99","Ind100","Ind101","Ind102","Ind103","Ind104","Ind105","Ind106","Ind107","Ind108","Ind109","Ind110","Ind111","Ind112","Ind113","Ind114","Ind115","Ind116","Ind117","Ind118","Ind119","Ind120","Ind121","Ind122","Ind123","Ind124","Ind125","Ind126","Ind127","Ind128","Ind129","Ind130","Ind131","Ind132","Ind133","Ind134","Ind135","Ind136","Ind137","Ind138","Ind139","Ind140","Ind141","Ind142","Ind143","Ind144","Ind145","Ind146","Ind147","Ind148","Ind149","Ind150","Ind151","Ind152","Ind153","Ind154","Ind155","Ind156","Ind157","Ind158","Ind159","Ind160","Ind161","Ind162","Ind163","Ind164","Ind165","Ind166","Ind167","Ind168","Ind169","Ind170","Ind171","Ind172","Ind173","Ind174","Ind175","Ind176","Ind177","Ind178","Ind179","Ind180","Ind181","Ind182","Ind183","Ind184","Ind185","Ind186","Ind187","Ind188","Ind189","Ind190","Ind191","Ind192","Ind193"
"Ind1","0_0_0",-1,0,0,0,0,0,0,0,0,0,0,0,0,0,0,0,0,0,0,0,0,0,0,0,0,0,0,0,0,0,0,0,0,0,0,0,0,0,0,0,0,0,0,0,0,0,0,0,0,0,0,0,0,0,0,0,0,0,0,0,0,0,0,0,0,0,0,0,0,0,0,0,0,0,0,0,0,0,0,0,0,0,0,0,0,0,0,0,0,0,0,0,0,0,0,0,0,0,0,0,0,0,0,0,0,0,0,0,0,0,0,0,0,0,0,0,0,0,0,0,0,0,0,0,0,0,0,0,0,0,0,0,0,0,0,0,0,0,0,0,0,0,0,0,0,0,0,0,0,0,0,0,0,0,0,0,0,0,0,0,0,0,0,0,0,0,0,0,0,0,0,0,0,0,0,0,0,0,0,0,0,0,0,0,0,0,0,0,0,0,0,0,0
"Ind2","16_0_7",84,-1,0,0,0,0,0,0,0,0,0,0,0,0,0,0,0,0,0,0,0,0,0,0,0,0,0,0,0,0,0,0,0,0,0,0,0,0,0,0,0,0,0,0,0,0,0,0,0,0,0,0,0,0,0,0,0,0,0,0,0,0,0,0,0,0,0,0,0,0,0,0,0,0,0,0,0,0,0,0,0,0,0,0,0,0,0,0,0,0,0,0,0,0,0,0,0,0,0,0,0,0,0,0,0,0,0,0,0,0,0,0,0,0,0,0,0,0,0,0,0,0,0,0,0,0,0,0,0,0,0,0,0,0,0,0,0,0,0,0,0,0,0,0,0,0,0,0,0,0,0,0,0,0,0,0,0,0,0,0,0,0,0,0,0,0,0,0,0,0,0,0,0,0,0,0,0,0,0,0,0,0,0,0,0,0,0,0,0,0,0,0,0
"Ind3","16_0_5",85,1,-1,0,0,0,0,0,0,0,0,0,0,0,0,0,0,0,0,0,0,0,0,0,0,0,0,0,0,0,0,0,0,0,0,0,0,0,0,0,0,0,0,0,0,0,0,0,0,0,0,0,0,0,0,0,0,0,0,0,0,0,0,0,0,0,0,0,0,0,0,0,0,0,0,0,0,0,0,0,0,0,0,0,0,0,0,0,0,0,0,0,0,0,0,0,0,0,0,0,0,0,0,0,0,0,0,0,0,0,0,0,0,0,0,0,0,0,0,0,0,0,0,0,0,0,0,0,0,0,0,0,0,0,0,0,0,0,0,0,0,0,0,0,0,0,0,0,0,0,0,0,0,0,0,0,0,0,0,0,0,0,0,0,0,0,0,0,0,0,0,0,0,0,0,0,0,0,0,0,0,0,0,0,0,0,0,0,0,0,0,0,0
"Ind4","16_0_0",85,1,0,-1,0,0,0,0,0,0,0,0,0,0,0,0,0,0,0,0,0,0,0,0,0,0,0,0,0,0,0,0,0,0,0,0,0,0,0,0,0,0,0,0,0,0,0,0,0,0,0,0,0,0,0,0,0,0,0,0,0,0,0,0,0,0,0,0,0,0,0,0,0,0,0,0,0,0,0,0,0,0,0,0,0,0,0,0,0,0,0,0,0,0,0,0,0,0,0,0,0,0,0,0,0,0,0,0,0,0,0,0,0,0,0,0,0,0,0,0,0,0,0,0,0,0,0,0,0,0,0,0,0,0,0,0,0,0,0,0,0,0,0,0,0,0,0,0,0,0,0,0,0,0,0,0,0,0,0,0,0,0,0,0,0,0,0,0,0,0,0,0,0,0,0,0,0,0,0,0,0,0,0,0,0,0,0,0,0,0,0,0,0
"Ind5","16_0_2",86,2,1,1,-1,0,0,0,0,0,0,0,0,0,0,0,0,0,0,0,0,0,0,0,0,0,0,0,0,0,0,0,0,0,0,0,0,0,0,0,0,0,0,0,0,0,0,0,0,0,0,0,0,0,0,0,0,0,0,0,0,0,0,0,0,0,0,0,0,0,0,0,0,0,0,0,0,0,0,0,0,0,0,0,0,0,0,0,0,0,0,0,0,0,0,0,0,0,0,0,0,0,0,0,0,0,0,0,0,0,0,0,0,0,0,0,0,0,0,0,0,0,0,0,0,0,0,0,0,0,0,0,0,0,0,0,0,0,0,0,0,0,0,0,0,0,0,0,0,0,0,0,0,0,0,0,0,0,0,0,0,0,0,0,0,0,0,0,0,0,0,0,0,0,0,0,0,0,0,0,0,0,0,0,0,0,0,0,0,0,0,0,0
"Ind6","16_0_10",85,1,0,0,1,-1,0,0,0,0,0,0,0,0,0,0,0,0,0,0,0,0,0,0,0,0,0,0,0,0,0,0,0,0,0,0,0,0,0,0,0,0,0,0,0,0,0,0,0,0,0,0,0,0,0,0,0,0,0,0,0,0,0,0,0,0,0,0,0,0,0,0,0,0,0,0,0,0,0,0,0,0,0,0,0,0,0,0,0,0,0,0,0,0,0,0,0,0,0,0,0,0,0,0,0,0,0,0,0,0,0,0,0,0,0,0,0,0,0,0,0,0,0,0,0,0,0,0,0,0,0,0,0,0,0,0,0,0,0,0,0,0,0,0,0,0,0,0,0,0,0,0,0,0,0,0,0,0,0,0,0,0,0,0,0,0,0,0,0,0,0,0,0,0,0,0,0,0,0,0,0,0,0,0,0,0,0,0,0,0,0,0,0
"Ind7","16_0_3",85,1,0,0,1,0,-1,0,0,0,0,0,0,0,0,0,0,0,0,0,0,0,0,0,0,0,0,0,0,0,0,0,0,0,0,0,0,0,0,0,0,0,0,0,0,0,0,0,0,0,0,0,0,0,0,0,0,0,0,0,0,0,0,0,0,0,0,0,0,0,0,0,0,0,0,0,0,0,0,0,0,0,0,0,0,0,0,0,0,0,0,0,0,0,0,0,0,0,0,0,0,0,0,0,0,0,0,0,0,0,0,0,0,0,0,0,0,0,0,0,0,0,0,0,0,0,0,0,0,0,0,0,0,0,0,0,0,0,0,0,0,0,0,0,0,0,0,0,0,0,0,0,0,0,0,0,0,0,0,0,0,0,0,0,0,0,0,0,0,0,0,0,0,0,0,0,0,0,0,0,0,0,0,0,0,0,0,0,0,0,0,0,0
"Ind8","16_0_8",85,1,0,0,1,0,0,-1,0,0,0,0,0,0,0,0,0,0,0,0,0,0,0,0,0,0,0,0,0,0,0,0,0,0,0,0,0,0,0,0,0,0,0,0,0,0,0,0,0,0,0,0,0,0,0,0,0,0,0,0,0,0,0,0,0,0,0,0,0,0,0,0,0,0,0,0,0,0,0,0,0,0,0,0,0,0,0,0,0,0,0,0,0,0,0,0,0,0,0,0,0,0,0,0,0,0,0,0,0,0,0,0,0,0,0,0,0,0,0,0,0,0,0,0,0,0,0,0,0,0,0,0,0,0,0,0,0,0,0,0,0,0,0,0,0,0,0,0,0,0,0,0,0,0,0,0,0,0,0,0,0,0,0,0,0,0,0,0,0,0,0,0,0,0,0,0,0,0,0,0,0,0,0,0,0,0,0,0,0,0,0,0,0
"Ind9","16_0_6",85,1,0,0,1,0,0,0,-1,0,0,0,0,0,0,0,0,0,0,0,0,0,0,0,0,0,0,0,0,0,0,0,0,0,0,0,0,0,0,0,0,0,0,0,0,0,0,0,0,0,0,0,0,0,0,0,0,0,0,0,0,0,0,0,0,0,0,0,0,0,0,0,0,0,0,0,0,0,0,0,0,0,0,0,0,0,0,0,0,0,0,0,0,0,0,0,0,0,0,0,0,0,0,0,0,0,0,0,0,0,0,0,0,0,0,0,0,0,0,0,0,0,0,0,0,0,0,0,0,0,0,0,0,0,0,0,0,0,0,0,0,0,0,0,0,0,0,0,0,0,0,0,0,0,0,0,0,0,0,0,0,0,0,0,0,0,0,0,0,0,0,0,0,0,0,0,0,0,0,0,0,0,0,0,0,0,0,0,0,0,0,0,0
"Ind10","16_0_9",85,1,0,0,1,0,0,0,0,-1,0,0,0,0,0,0,0,0,0,0,0,0,0,0,0,0,0,0,0,0,0,0,0,0,0,0,0,0,0,0,0,0,0,0,0,0,0,0,0,0,0,0,0,0,0,0,0,0,0,0,0,0,0,0,0,0,0,0,0,0,0,0,0,0,0,0,0,0,0,0,0,0,0,0,0,0,0,0,0,0,0,0,0,0,0,0,0,0,0,0,0,0,0,0,0,0,0,0,0,0,0,0,0,0,0,0,0,0,0,0,0,0,0,0,0,0,0,0,0,0,0,0,0,0,0,0,0,0,0,0,0,0,0,0,0,0,0,0,0,0,0,0,0,0,0,0,0,0,0,0,0,0,0,0,0,0,0,0,0,0,0,0,0,0,0,0,0,0,0,0,0,0,0,0,0,0,0,0,0,0,0,0,0
"Ind11","16_0_11",85,1,0,0,1,0,0,0,0,0,-1,0,0,0,0,0,0,0,0,0,0,0,0,0,0,0,0,0,0,0,0,0,0,0,0,0,0,0,0,0,0,0,0,0,0,0,0,0,0,0,0,0,0,0,0,0,0,0,0,0,0,0,0,0,0,0,0,0,0,0,0,0,0,0,0,0,0,0,0,0,0,0,0,0,0,0,0,0,0,0,0,0,0,0,0,0,0,0,0,0,0,0,0,0,0,0,0,0,0,0,0,0,0,0,0,0,0,0,0,0,0,0,0,0,0,0,0,0,0,0,0,0,0,0,0,0,0,0,0,0,0,0,0,0,0,0,0,0,0,0,0,0,0,0,0,0,0,0,0,0,0,0,0,0,0,0,0,0,0,0,0,0,0,0,0,0,0,0,0,0,0,0,0,0,0,0,0,0,0,0,0,0,0
"Ind12","16_0_1",85,1,0,0,1,0,0,0,0,0,0,-1,0,0,0,0,0,0,0,0,0,0,0,0,0,0,0,0,0,0,0,0,0,0,0,0,0,0,0,0,0,0,0,0,0,0,0,0,0,0,0,0,0,0,0,0,0,0,0,0,0,0,0,0,0,0,0,0,0,0,0,0,0,0,0,0,0,0,0,0,0,0,0,0,0,0,0,0,0,0,0,0,0,0,0,0,0,0,0,0,0,0,0,0,0,0,0,0,0,0,0,0,0,0,0,0,0,0,0,0,0,0,0,0,0,0,0,0,0,0,0,0,0,0,0,0,0,0,0,0,0,0,0,0,0,0,0,0,0,0,0,0,0,0,0,0,0,0,0,0,0,0,0,0,0,0,0,0,0,0,0,0,0,0,0,0,0,0,0,0,0,0,0,0,0,0,0,0,0,0,0,0,0
"Ind13","16_0_4",85,1,0,0,1,0,0,0,0,0,0,0,-1,0,0,0,0,0,0,0,0,0,0,0,0,0,0,0,0,0,0,0,0,0,0,0,0,0,0,0,0,0,0,0,0,0,0,0,0,0,0,0,0,0,0,0,0,0,0,0,0,0,0,0,0,0,0,0,0,0,0,0,0,0,0,0,0,0,0,0,0,0,0,0,0,0,0,0,0,0,0,0,0,0,0,0,0,0,0,0,0,0,0,0,0,0,0,0,0,0,0,0,0,0,0,0,0,0,0,0,0,0,0,0,0,0,0,0,0,0,0,0,0,0,0,0,0,0,0,0,0,0,0,0,0,0,0,0,0,0,0,0,0,0,0,0,0,0,0,0,0,0,0,0,0,0,0,0,0,0,0,0,0,0,0,0,0,0,0,0,0,0,0,0,0,0,0,0,0,0,0,0,0
"Ind14","10_0_11",83,48,49,49,50,49,49,49,49,49,49,49,49,-1,0,0,0,0,0,0,0,0,0,0,0,0,0,0,0,0,0,0,0,0,0,0,0,0,0,0,0,0,0,0,0,0,0,0,0,0,0,0,0,0,0,0,0,0,0,0,0,0,0,0,0,0,0,0,0,0,0,0,0,0,0,0,0,0,0,0,0,0,0,0,0,0,0,0,0,0,0,0,0,0,0,0,0,0,0,0,0,0,0,0,0,0,0,0,0,0,0,0,0,0,0,0,0,0,0,0,0,0,0,0,0,0,0,0,0,0,0,0,0,0,0,0,0,0,0,0,0,0,0,0,0,0,0,0,0,0,0,0,0,0,0,0,0,0,0,0,0,0,0,0,0,0,0,0,0,0,0,0,0,0,0,0,0,0,0,0,0,0,0,0,0,0,0,0,0,0,0,0,0
"Ind15","10_0_7",83,48,49,49,50,49,49,49,49,49,49,49,49,0,-1,0,0,0,0,0,0,0,0,0,0,0,0,0,0,0,0,0,0,0,0,0,0,0,0,0,0,0,0,0,0,0,0,0,0,0,0,0,0,0,0,0,0,0,0,0,0,0,0,0,0,0,0,0,0,0,0,0,0,0,0,0,0,0,0,0,0,0,0,0,0,0,0,0,0,0,0,0,0,0,0,0,0,0,0,0,0,0,0,0,0,0,0,0,0,0,0,0,0,0,0,0,0,0,0,0,0,0,0,0,0,0,0,0,0,0,0,0,0,0,0,0,0,0,0,0,0,0,0,0,0,0,0,0,0,0,0,0,0,0,0,0,0,0,0,0,0,0,0,0,0,0,0,0,0,0,0,0,0,0,0,0,0,0,0,0,0,0,0,0,0,0,0,0,0,0,0,0,0
"Ind16","10_0_6",83,48,49,49,50,49,49,49,49,49,49,49,49,0,0,-1,0,0,0,0,0,0,0,0,0,0,0,0,0,0,0,0,0,0,0,0,0,0,0,0,0,0,0,0,0,0,0,0,0,0,0,0,0,0,0,0,0,0,0,0,0,0,0,0,0,0,0,0,0,0,0,0,0,0,0,0,0,0,0,0,0,0,0,0,0,0,0,0,0,0,0,0,0,0,0,0,0,0,0,0,0,0,0,0,0,0,0,0,0,0,0,0,0,0,0,0,0,0,0,0,0,0,0,0,0,0,0,0,0,0,0,0,0,0,0,0,0,0,0,0,0,0,0,0,0,0,0,0,0,0,0,0,0,0,0,0,0,0,0,0,0,0,0,0,0,0,0,0,0,0,0,0,0,0,0,0,0,0,0,0,0,0,0,0,0,0,0,0,0,0,0,0,0
"Ind17","10_0_4",83,48,49,49,50,49,49,49,49,49,49,49,49,0,0,0,-1,0,0,0,0,0,0,0,0,0,0,0,0,0,0,0,0,0,0,0,0,0,0,0,0,0,0,0,0,0,0,0,0,0,0,0,0,0,0,0,0,0,0,0,0,0,0,0,0,0,0,0,0,0,0,0,0,0,0,0,0,0,0,0,0,0,0,0,0,0,0,0,0,0,0,0,0,0,0,0,0,0,0,0,0,0,0,0,0,0,0,0,0,0,0,0,0,0,0,0,0,0,0,0,0,0,0,0,0,0,0,0,0,0,0,0,0,0,0,0,0,0,0,0,0,0,0,0,0,0,0,0,0,0,0,0,0,0,0,0,0,0,0,0,0,0,0,0,0,0,0,0,0,0,0,0,0,0,0,0,0,0,0,0,0,0,0,0,0,0,0,0,0,0,0,0,0
"Ind18","10_0_5",83,48,49,49,50,49,49,49,49,49,49,49,49,0,0,0,0,-1,0,0,0,0,0,0,0,0,0,0,0,0,0,0,0,0,0,0,0,0,0,0,0,0,0,0,0,0,0,0,0,0,0,0,0,0,0,0,0,0,0,0,0,0,0,0,0,0,0,0,0,0,0,0,0,0,0,0,0,0,0,0,0,0,0,0,0,0,0,0,0,0,0,0,0,0,0,0,0,0,0,0,0,0,0,0,0,0,0,0,0,0,0,0,0,0,0,0,0,0,0,0,0,0,0,0,0,0,0,0,0,0,0,0,0,0,0,0,0,0,0,0,0,0,0,0,0,0,0,0,0,0,0,0,0,0,0,0,0,0,0,0,0,0,0,0,0,0,0,0,0,0,0,0,0,0,0,0,0,0,0,0,0,0,0,0,0,0,0,0,0,0,0,0,0
"Ind19","10_0_10",82,47,48,48,49,48,48,48,48,48,48,48,48,1,1,1,1,1,-1,0,0,0,0,0,0,0,0,0,0,0,0,0,0,0,0,0,0,0,0,0,0,0,0,0,0,0,0,0,0,0,0,0,0,0,0,0,0,0,0,0,0,0,0,0,0,0,0,0,0,0,0,0,0,0,0,0,0,0,0,0,0,0,0,0,0,0,0,0,0,0,0,0,0,0,0,0,0,0,0,0,0,0,0,0,0,0,0,0,0,0,0,0,0,0,0,0,0,0,0,0,0,0,0,0,0,0,0,0,0,0,0,0,0,0,0,0,0,0,0,0,0,0,0,0,0,0,0,0,0,0,0,0,0,0,0,0,0,0,0,0,0,0,0,0,0,0,0,0,0,0,0,0,0,0,0,0,0,0,0,0,0,0,0,0,0,0,0,0,0,0,0,0,0
"Ind20","10_0_3",82,47,48,48,49,48,48,48,48,48,48,48,48,1,1,1,1,1,0,-1,0,0,0,0,0,0,0,0,0,0,0,0,0,0,0,0,0,0,0,0,0,0,0,0,0,0,0,0,0,0,0,0,0,0,0,0,0,0,0,0,0,0,0,0,0,0,0,0,0,0,0,0,0,0,0,0,0,0,0,0,0,0,0,0,0,0,0,0,0,0,0,0,0,0,0,0,0,0,0,0,0,0,0,0,0,0,0,0,0,0,0,0,0,0,0,0,0,0,0,0,0,0,0,0,0,0,0,0,0,0,0,0,0,0,0,0,0,0,0,0,0,0,0,0,0,0,0,0,0,0,0,0,0,0,0,0,0,0,0,0,0,0,0,0,0,0,0,0,0,0,0,0,0,0,0,0,0,0,0,0,0,0,0,0,0,0,0,0,0,0,0,0,0
"Ind21","10_0_9",82,47,48,48,49,48,48,48,48,48,48,48,48,1,1,1,1,1,0,0,-1,0,0,0,0,0,0,0,0,0,0,0,0,0,0,0,0,0,0,0,0,0,0,0,0,0,0,0,0,0,0,0,0,0,0,0,0,0,0,0,0,0,0,0,0,0,0,0,0,0,0,0,0,0,0,0,0,0,0,0,0,0,0,0,0,0,0,0,0,0,0,0,0,0,0,0,0,0,0,0,0,0,0,0,0,0,0,0,0,0,0,0,0,0,0,0,0,0,0,0,0,0,0,0,0,0,0,0,0,0,0,0,0,0,0,0,0,0,0,0,0,0,0,0,0,0,0,0,0,0,0,0,0,0,0,0,0,0,0,0,0,0,0,0,0,0,0,0,0,0,0,0,0,0,0,0,0,0,0,0,0,0,0,0,0,0,0,0,0,0,0,0,0
"Ind22","10_0_2",80,47,48,48,49,48,48,48,48,48,48,48,48,3,3,3,3,3,2,2,2,-1,0,0,0,0,0,0,0,0,0,0,0,0,0,0,0,0,0,0,0,0,0,0,0,0,0,0,0,0,0,0,0,0,0,0,0,0,0,0,0,0,0,0,0,0,0,0,0,0,0,0,0,0,0,0,0,0,0,0,0,0,0,0,0,0,0,0,0,0,0,0,0,0,0,0,0,0,0,0,0,0,0,0,0,0,0,0,0,0,0,0,0,0,0,0,0,0,0,0,0,0,0,0,0,0,0,0,0,0,0,0,0,0,0,0,0,0,0,0,0,0,0,0,0,0,0,0,0,0,0,0,0,0,0,0,0,0,0,0,0,0,0,0,0,0,0,0,0,0,0,0,0,0,0,0,0,0,0,0,0,0,0,0,0,0,0,0,0,0,0,0,0
"Ind23","10_0_0",80,47,48,48,49,48,48,48,48,48,48,48,48,3,3,3,3,3,2,2,2,0,-1,0,0,0,0,0,0,0,0,0,0,0,0,0,0,0,0,0,0,0,0,0,0,0,0,0,0,0,0,0,0,0,0,0,0,0,0,0,0,0,0,0,0,0,0,0,0,0,0,0,0,0,0,0,0,0,0,0,0,0,0,0,0,0,0,0,0,0,0,0,0,0,0,0,0,0,0,0,0,0,0,0,0,0,0,0,0,0,0,0,0,0,0,0,0,0,0,0,0,0,0,0,0,0,0,0,0,0,0,0,0,0,0,0,0,0,0,0,0,0,0,0,0,0,0,0,0,0,0,0,0,0,0,0,0,0,0,0,0,0,0,0,0,0,0,0,0,0,0,0,0,0,0,0,0,0,0,0,0,0,0,0,0,0,0,0,0,0,0,0,0
"Ind24","10_0_1",80,47,48,48,49,48,48,48,48,48,48,48,48,3,3,3,3,3,2,2,2,0,0,-1,0,0,0,0,0,0,0,0,0,0,0,0,0,0,0,0,0,0,0,0,0,0,0,0,0,0,0,0,0,0,0,0,0,0,0,0,0,0,0,0,0,0,0,0,0,0,0,0,0,0,0,0,0,0,0,0,0,0,0,0,0,0,0,0,0,0,0,0,0,0,0,0,0,0,0,0,0,0,0,0,0,0,0,0,0,0,0,0,0,0,0,0,0,0,0,0,0,0,0,0,0,0,0,0,0,0,0,0,0,0,0,0,0,0,0,0,0,0,0,0,0,0,0,0,0,0,0,0,0,0,0,0,0,0,0,0,0,0,0,0,0,0,0,0,0,0,0,0,0,0,0,0,0,0,0,0,0,0,0,0,0,0,0,0,0,0,0,0,0
"Ind25","10_0_8",80,47,48,48,49,48,48,48,48,48,48,48,48,3,3,3,3,3,2,2,2,0,0,0,-1,0,0,0,0,0,0,0,0,0,0,0,0,0,0,0,0,0,0,0,0,0,0,0,0,0,0,0,0,0,0,0,0,0,0,0,0,0,0,0,0,0,0,0,0,0,0,0,0,0,0,0,0,0,0,0,0,0,0,0,0,0,0,0,0,0,0,0,0,0,0,0,0,0,0,0,0,0,0,0,0,0,0,0,0,0,0,0,0,0,0,0,0,0,0,0,0,0,0,0,0,0,0,0,0,0,0,0,0,0,0,0,0,0,0,0,0,0,0,0,0,0,0,0,0,0,0,0,0,0,0,0,0,0,0,0,0,0,0,0,0,0,0,0,0,0,0,0,0,0,0,0,0,0,0,0,0,0,0,0,0,0,0,0,0,0,0,0,0
"Ind26","8_0_2",81,46,47,47,48,47,47,47,47,47,47,47,47,2,2,2,2,2,1,1,1,1,1,1,1,-1,0,0,0,0,0,0,0,0,0,0,0,0,0,0,0,0,0,0,0,0,0,0,0,0,0,0,0,0,0,0,0,0,0,0,0,0,0,0,0,0,0,0,0,0,0,0,0,0,0,0,0,0,0,0,0,0,0,0,0,0,0,0,0,0,0,0,0,0,0,0,0,0,0,0,0,0,0,0,0,0,0,0,0,0,0,0,0,0,0,0,0,0,0,0,0,0,0,0,0,0,0,0,0,0,0,0,0,0,0,0,0,0,0,0,0,0,0,0,0,0,0,0,0,0,0,0,0,0,0,0,0,0,0,0,0,0,0,0,0,0,0,0,0,0,0,0,0,0,0,0,0,0,0,0,0,0,0,0,0,0,0,0,0,0,0,0,0
"Ind27","8_0_1",81,46,47,47,48,47,47,47,47,47,47,47,47,2,2,2,2,2,1,1,1,1,1,1,1,0,-1,0,0,0,0,0,0,0,0,0,0,0,0,0,0,0,0,0,0,0,0,0,0,0,0,0,0,0,0,0,0,0,0,0,0,0,0,0,0,0,0,0,0,0,0,0,0,0,0,0,0,0,0,0,0,0,0,0,0,0,0,0,0,0,0,0,0,0,0,0,0,0,0,0,0,0,0,0,0,0,0,0,0,0,0,0,0,0,0,0,0,0,0,0,0,0,0,0,0,0,0,0,0,0,0,0,0,0,0,0,0,0,0,0,0,0,0,0,0,0,0,0,0,0,0,0,0,0,0,0,0,0,0,0,0,0,0,0,0,0,0,0,0,0,0,0,0,0,0,0,0,0,0,0,0,0,0,0,0,0,0,0,0,0,0,0,0
"Ind28","8_0_3",81,46,47,47,48,47,47,47,47,47,47,47,47,2,2,2,2,2,1,1,1,1,1,1,1,0,0,-1,0,0,0,0,0,0,0,0,0,0,0,0,0,0,0,0,0,0,0,0,0,0,0,0,0,0,0,0,0,0,0,0,0,0,0,0,0,0,0,0,0,0,0,0,0,0,0,0,0,0,0,0,0,0,0,0,0,0,0,0,0,0,0,0,0,0,0,0,0,0,0,0,0,0,0,0,0,0,0,0,0,0,0,0,0,0,0,0,0,0,0,0,0,0,0,0,0,0,0,0,0,0,0,0,0,0,0,0,0,0,0,0,0,0,0,0,0,0,0,0,0,0,0,0,0,0,0,0,0,0,0,0,0,0,0,0,0,0,0,0,0,0,0,0,0,0,0,0,0,0,0,0,0,0,0,0,0,0,0,0,0,0,0,0,0
"Ind29","8_0_6",81,46,47,47,48,47,47,47,47,47,47,47,47,2,2,2,2,2,1,1,1,1,1,1,1,0,0,0,-1,0,0,0,0,0,0,0,0,0,0,0,0,0,0,0,0,0,0,0,0,0,0,0,0,0,0,0,0,0,0,0,0,0,0,0,0,0,0,0,0,0,0,0,0,0,0,0,0,0,0,0,0,0,0,0,0,0,0,0,0,0,0,0,0,0,0,0,0,0,0,0,0,0,0,0,0,0,0,0,0,0,0,0,0,0,0,0,0,0,0,0,0,0,0,0,0,0,0,0,0,0,0,0,0,0,0,0,0,0,0,0,0,0,0,0,0,0,0,0,0,0,0,0,0,0,0,0,0,0,0,0,0,0,0,0,0,0,0,0,0,0,0,0,0,0,0,0,0,0,0,0,0,0,0,0,0,0,0,0,0,0,0,0,0
"Ind30","8_0_4",81,46,47,47,48,47,47,47,47,47,47,47,47,2,2,2,2,2,1,1,1,1,1,1,1,0,0,0,0,-1,0,0,0,0,0,0,0,0,0,0,0,0,0,0,0,0,0,0,0,0,0,0,0,0,0,0,0,0,0,0,0,0,0,0,0,0,0,0,0,0,0,0,0,0,0,0,0,0,0,0,0,0,0,0,0,0,0,0,0,0,0,0,0,0,0,0,0,0,0,0,0,0,0,0,0,0,0,0,0,0,0,0,0,0,0,0,0,0,0,0,0,0,0,0,0,0,0,0,0,0,0,0,0,0,0,0,0,0,0,0,0,0,0,0,0,0,0,0,0,0,0,0,0,0,0,0,0,0,0,0,0,0,0,0,0,0,0,0,0,0,0,0,0,0,0,0,0,0,0,0,0,0,0,0,0,0,0,0,0,0,0,0,0
"Ind31","8_0_5",80,47,48,48,49,48,48,48,48,48,48,48,48,3,3,3,3,3,2,2,2,2,2,2,2,1,1,1,1,1,-1,0,0,0,0,0,0,0,0,0,0,0,0,0,0,0,0,0,0,0,0,0,0,0,0,0,0,0,0,0,0,0,0,0,0,0,0,0,0,0,0,0,0,0,0,0,0,0,0,0,0,0,0,0,0,0,0,0,0,0,0,0,0,0,0,0,0,0,0,0,0,0,0,0,0,0,0,0,0,0,0,0,0,0,0,0,0,0,0,0,0,0,0,0,0,0,0,0,0,0,0,0,0,0,0,0,0,0,0,0,0,0,0,0,0,0,0,0,0,0,0,0,0,0,0,0,0,0,0,0,0,0,0,0,0,0,0,0,0,0,0,0,0,0,0,0,0,0,0,0,0,0,0,0,0,0,0,0,0,0,0,0,0
"Ind32","8_0_9",81,46,47,47,48,47,47,47,47,47,47,47,47,2,2,2,2,2,1,1,1,1,1,1,1,0,0,0,0,0,1,-1,0,0,0,0,0,0,0,0,0,0,0,0,0,0,0,0,0,0,0,0,0,0,0,0,0,0,0,0,0,0,0,0,0,0,0,0,0,0,0,0,0,0,0,0,0,0,0,0,0,0,0,0,0,0,0,0,0,0,0,0,0,0,0,0,0,0,0,0,0,0,0,0,0,0,0,0,0,0,0,0,0,0,0,0,0,0,0,0,0,0,0,0,0,0,0,0,0,0,0,0,0,0,0,0,0,0,0,0,0,0,0,0,0,0,0,0,0,0,0,0,0,0,0,0,0,0,0,0,0,0,0,0,0,0,0,0,0,0,0,0,0,0,0,0,0,0,0,0,0,0,0,0,0,0,0,0,0,0,0,0,0
"Ind33","8_0_0",81,46,47,47,48,47,47,47,47,47,47,47,47,2,2,2,2,2,1,1,1,1,1,1,1,0,0,0,0,0,1,0,-1,0,0,0,0,0,0,0,0,0,0,0,0,0,0,0,0,0,0,0,0,0,0,0,0,0,0,0,0,0,0,0,0,0,0,0,0,0,0,0,0,0,0,0,0,0,0,0,0,0,0,0,0,0,0,0,0,0,0,0,0,0,0,0,0,0,0,0,0,0,0,0,0,0,0,0,0,0,0,0,0,0,0,0,0,0,0,0,0,0,0,0,0,0,0,0,0,0,0,0,0,0,0,0,0,0,0,0,0,0,0,0,0,0,0,0,0,0,0,0,0,0,0,0,0,0,0,0,0,0,0,0,0,0,0,0,0,0,0,0,0,0,0,0,0,0,0,0,0,0,0,0,0,0,0,0,0,0,0,0,0
"Ind34","8_0_10",81,46,47,47,48,47,47,47,47,47,47,47,47,2,2,2,2,2,1,1,1,1,1,1,1,0,0,0,0,0,1,0,0,-1,0,0,0,0,0,0,0,0,0,0,0,0,0,0,0,0,0,0,0,0,0,0,0,0,0,0,0,0,0,0,0,0,0,0,0,0,0,0,0,0,0,0,0,0,0,0,0,0,0,0,0,0,0,0,0,0,0,0,0,0,0,0,0,0,0,0,0,0,0,0,0,0,0,0,0,0,0,0,0,0,0,0,0,0,0,0,0,0,0,0,0,0,0,0,0,0,0,0,0,0,0,0,0,0,0,0,0,0,0,0,0,0,0,0,0,0,0,0,0,0,0,0,0,0,0,0,0,0,0,0,0,0,0,0,0,0,0,0,0,0,0,0,0,0,0,0,0,0,0,0,0,0,0,0,0,0,0,0,0
"Ind35","8_0_8",81,46,47,47,48,47,47,47,47,47,47,47,47,2,2,2,2,2,1,1,1,1,1,1,1,0,0,0,0,0,1,0,0,0,-1,0,0,0,0,0,0,0,0,0,0,0,0,0,0,0,0,0,0,0,0,0,0,0,0,0,0,0,0,0,0,0,0,0,0,0,0,0,0,0,0,0,0,0,0,0,0,0,0,0,0,0,0,0,0,0,0,0,0,0,0,0,0,0,0,0,0,0,0,0,0,0,0,0,0,0,0,0,0,0,0,0,0,0,0,0,0,0,0,0,0,0,0,0,0,0,0,0,0,0,0,0,0,0,0,0,0,0,0,0,0,0,0,0,0,0,0,0,0,0,0,0,0,0,0,0,0,0,0,0,0,0,0,0,0,0,0,0,0,0,0,0,0,0,0,0,0,0,0,0,0,0,0,0,0,0,0,0,0
"Ind36","8_0_7",81,46,47,47,48,47,47,47,47,47,47,47,47,2,2,2,2,2,1,1,1,1,1,1,1,0,0,0,0,0,1,0,0,0,0,-1,0,0,0,0,0,0,0,0,0,0,0,0,0,0,0,0,0,0,0,0,0,0,0,0,0,0,0,0,0,0,0,0,0,0,0,0,0,0,0,0,0,0,0,0,0,0,0,0,0,0,0,0,0,0,0,0,0,0,0,0,0,0,0,0,0,0,0,0,0,0,0,0,0,0,0,0,0,0,0,0,0,0,0,0,0,0,0,0,0,0,0,0,0,0,0,0,0,0,0,0,0,0,0,0,0,0,0,0,0,0,0,0,0,0,0,0,0,0,0,0,0,0,0,0,0,0,0,0,0,0,0,0,0,0,0,0,0,0,0,0,0,0,0,0,0,0,0,0,0,0,0,0,0,0,0,0,0
"Ind37","8_0_11",81,46,47,47,48,47,47,47,47,47,47,47,47,2,2,2,2,2,1,1,1,1,1,1,1,0,0,0,0,0,1,0,0,0,0,0,-1,0,0,0,0,0,0,0,0,0,0,0,0,0,0,0,0,0,0,0,0,0,0,0,0,0,0,0,0,0,0,0,0,0,0,0,0,0,0,0,0,0,0,0,0,0,0,0,0,0,0,0,0,0,0,0,0,0,0,0,0,0,0,0,0,0,0,0,0,0,0,0,0,0,0,0,0,0,0,0,0,0,0,0,0,0,0,0,0,0,0,0,0,0,0,0,0,0,0,0,0,0,0,0,0,0,0,0,0,0,0,0,0,0,0,0,0,0,0,0,0,0,0,0,0,0,0,0,0,0,0,0,0,0,0,0,0,0,0,0,0,0,0,0,0,0,0,0,0,0,0,0,0,0,0,0,0
"Ind38","9_0_6",83,46,47,47,48,47,47,47,47,47,47,47,47,8,8,8,8,8,7,7,7,7,7,7,7,6,6,6,6,6,7,6,6,6,6,6,6,-1,0,0,0,0,0,0,0,0,0,0,0,0,0,0,0,0,0,0,0,0,0,0,0,0,0,0,0,0,0,0,0,0,0,0,0,0,0,0,0,0,0,0,0,0,0,0,0,0,0,0,0,0,0,0,0,0,0,0,0,0,0,0,0,0,0,0,0,0,0,0,0,0,0,0,0,0,0,0,0,0,0,0,0,0,0,0,0,0,0,0,0,0,0,0,0,0,0,0,0,0,0,0,0,0,0,0,0,0,0,0,0,0,0,0,0,0,0,0,0,0,0,0,0,0,0,0,0,0,0,0,0,0,0,0,0,0,0,0,0,0,0,0,0,0,0,0,0,0,0,0,0,0,0,0,0
"Ind39","9_0_7",82,47,48,48,49,48,48,48,48,48,48,48,48,9,9,9,9,9,8,8,8,8,8,8,8,7,7,7,7,7,8,7,7,7,7,7,7,1,-1,0,0,0,0,0,0,0,0,0,0,0,0,0,0,0,0,0,0,0,0,0,0,0,0,0,0,0,0,0,0,0,0,0,0,0,0,0,0,0,0,0,0,0,0,0,0,0,0,0,0,0,0,0,0,0,0,0,0,0,0,0,0,0,0,0,0,0,0,0,0,0,0,0,0,0,0,0,0,0,0,0,0,0,0,0,0,0,0,0,0,0,0,0,0,0,0,0,0,0,0,0,0,0,0,0,0,0,0,0,0,0,0,0,0,0,0,0,0,0,0,0,0,0,0,0,0,0,0,0,0,0,0,0,0,0,0,0,0,0,0,0,0,0,0,0,0,0,0,0,0,0,0,0,0
"Ind40","9_0_1",82,47,48,48,49,48,48,48,48,48,48,48,48,9,9,9,9,9,8,8,8,8,8,8,8,7,7,7,7,7,8,7,7,7,7,7,7,1,0,-1,0,0,0,0,0,0,0,0,0,0,0,0,0,0,0,0,0,0,0,0,0,0,0,0,0,0,0,0,0,0,0,0,0,0,0,0,0,0,0,0,0,0,0,0,0,0,0,0,0,0,0,0,0,0,0,0,0,0,0,0,0,0,0,0,0,0,0,0,0,0,0,0,0,0,0,0,0,0,0,0,0,0,0,0,0,0,0,0,0,0,0,0,0,0,0,0,0,0,0,0,0,0,0,0,0,0,0,0,0,0,0,0,0,0,0,0,0,0,0,0,0,0,0,0,0,0,0,0,0,0,0,0,0,0,0,0,0,0,0,0,0,0,0,0,0,0,0,0,0,0,0,0,0
"Ind41","9_0_2",83,46,47,47,48,47,47,47,47,47,47,47,47,8,8,8,8,8,7,7,7,7,7,7,7,6,6,6,6,6,7,6,6,6,6,6,6,0,1,1,-1,0,0,0,0,0,0,0,0,0,0,0,0,0,0,0,0,0,0,0,0,0,0,0,0,0,0,0,0,0,0,0,0,0,0,0,0,0,0,0,0,0,0,0,0,0,0,0,0,0,0,0,0,0,0,0,0,0,0,0,0,0,0,0,0,0,0,0,0,0,0,0,0,0,0,0,0,0,0,0,0,0,0,0,0,0,0,0,0,0,0,0,0,0,0,0,0,0,0,0,0,0,0,0,0,0,0,0,0,0,0,0,0,0,0,0,0,0,0,0,0,0,0,0,0,0,0,0,0,0,0,0,0,0,0,0,0,0,0,0,0,0,0,0,0,0,0,0,0,0,0,0,0
"Ind42","9_0_0",83,46,47,47,48,47,47,47,47,47,47,47,47,8,8,8,8,8,7,7,7,7,7,7,7,6,6,6,6,6,7,6,6,6,6,6,6,0,1,1,0,-1,0,0,0,0,0,0,0,0,0,0,0,0,0,0,0,0,0,0,0,0,0,0,0,0,0,0,0,0,0,0,0,0,0,0,0,0,0,0,0,0,0,0,0,0,0,0,0,0,0,0,0,0,0,0,0,0,0,0,0,0,0,0,0,0,0,0,0,0,0,0,0,0,0,0,0,0,0,0,0,0,0,0,0,0,0,0,0,0,0,0,0,0,0,0,0,0,0,0,0,0,0,0,0,0,0,0,0,0,0,0,0,0,0,0,0,0,0,0,0,0,0,0,0,0,0,0,0,0,0,0,0,0,0,0,0,0,0,0,0,0,0,0,0,0,0,0,0,0,0,0,0
"Ind43","9_0_11",83,46,47,47,48,47,47,47,47,47,47,47,47,8,8,8,8,8,7,7,7,7,7,7,7,6,6,6,6,6,7,6,6,6,6,6,6,0,1,1,0,0,-1,0,0,0,0,0,0,0,0,0,0,0,0,0,0,0,0,0,0,0,0,0,0,0,0,0,0,0,0,0,0,0,0,0,0,0,0,0,0,0,0,0,0,0,0,0,0,0,0,0,0,0,0,0,0,0,0,0,0,0,0,0,0,0,0,0,0,0,0,0,0,0,0,0,0,0,0,0,0,0,0,0,0,0,0,0,0,0,0,0,0,0,0,0,0,0,0,0,0,0,0,0,0,0,0,0,0,0,0,0,0,0,0,0,0,0,0,0,0,0,0,0,0,0,0,0,0,0,0,0,0,0,0,0,0,0,0,0,0,0,0,0,0,0,0,0,0,0,0,0,0
"Ind44","9_0_5",83,46,47,47,48,47,47,47,47,47,47,47,47,8,8,8,8,8,7,7,7,7,7,7,7,6,6,6,6,6,7,6,6,6,6,6,6,0,1,1,0,0,0,-1,0,0,0,0,0,0,0,0,0,0,0,0,0,0,0,0,0,0,0,0,0,0,0,0,0,0,0,0,0,0,0,0,0,0,0,0,0,0,0,0,0,0,0,0,0,0,0,0,0,0,0,0,0,0,0,0,0,0,0,0,0,0,0,0,0,0,0,0,0,0,0,0,0,0,0,0,0,0,0,0,0,0,0,0,0,0,0,0,0,0,0,0,0,0,0,0,0,0,0,0,0,0,0,0,0,0,0,0,0,0,0,0,0,0,0,0,0,0,0,0,0,0,0,0,0,0,0,0,0,0,0,0,0,0,0,0,0,0,0,0,0,0,0,0,0,0,0,0,0
"Ind45","9_0_8",83,46,47,47,48,47,47,47,47,47,47,47,47,8,8,8,8,8,7,7,7,7,7,7,7,6,6,6,6,6,7,6,6,6,6,6,6,0,1,1,0,0,0,0,-1,0,0,0,0,0,0,0,0,0,0,0,0,0,0,0,0,0,0,0,0,0,0,0,0,0,0,0,0,0,0,0,0,0,0,0,0,0,0,0,0,0,0,0,0,0,0,0,0,0,0,0,0,0,0,0,0,0,0,0,0,0,0,0,0,0,0,0,0,0,0,0,0,0,0,0,0,0,0,0,0,0,0,0,0,0,0,0,0,0,0,0,0,0,0,0,0,0,0,0,0,0,0,0,0,0,0,0,0,0,0,0,0,0,0,0,0,0,0,0,0,0,0,0,0,0,0,0,0,0,0,0,0,0,0,0,0,0,0,0,0,0,0,0,0,0,0,0,0
"Ind46","9_0_4",83,46,47,47,48,47,47,47,47,47,47,47,47,8,8,8,8,8,7,7,7,7,7,7,7,6,6,6,6,6,7,6,6,6,6,6,6,0,1,1,0,0,0,0,0,-1,0,0,0,0,0,0,0,0,0,0,0,0,0,0,0,0,0,0,0,0,0,0,0,0,0,0,0,0,0,0,0,0,0,0,0,0,0,0,0,0,0,0,0,0,0,0,0,0,0,0,0,0,0,0,0,0,0,0,0,0,0,0,0,0,0,0,0,0,0,0,0,0,0,0,0,0,0,0,0,0,0,0,0,0,0,0,0,0,0,0,0,0,0,0,0,0,0,0,0,0,0,0,0,0,0,0,0,0,0,0,0,0,0,0,0,0,0,0,0,0,0,0,0,0,0,0,0,0,0,0,0,0,0,0,0,0,0,0,0,0,0,0,0,0,0,0,0
"Ind47","9_0_9",83,46,47,47,48,47,47,47,47,47,47,47,47,8,8,8,8,8,7,7,7,7,7,7,7,6,6,6,6,6,7,6,6,6,6,6,6,0,1,1,0,0,0,0,0,0,-1,0,0,0,0,0,0,0,0,0,0,0,0,0,0,0,0,0,0,0,0,0,0,0,0,0,0,0,0,0,0,0,0,0,0,0,0,0,0,0,0,0,0,0,0,0,0,0,0,0,0,0,0,0,0,0,0,0,0,0,0,0,0,0,0,0,0,0,0,0,0,0,0,0,0,0,0,0,0,0,0,0,0,0,0,0,0,0,0,0,0,0,0,0,0,0,0,0,0,0,0,0,0,0,0,0,0,0,0,0,0,0,0,0,0,0,0,0,0,0,0,0,0,0,0,0,0,0,0,0,0,0,0,0,0,0,0,0,0,0,0,0,0,0,0,0,0
"Ind48","14_0_5",82,47,48,48,49,48,48,48,48,48,48,48,48,7,7,7,7,7,6,6,6,6,6,6,6,5,5,5,5,5,6,5,5,5,5,5,5,3,4,4,3,3,3,3,3,3,3,-1,0,0,0,0,0,0,0,0,0,0,0,0,0,0,0,0,0,0,0,0,0,0,0,0,0,0,0,0,0,0,0,0,0,0,0,0,0,0,0,0,0,0,0,0,0,0,0,0,0,0,0,0,0,0,0,0,0,0,0,0,0,0,0,0,0,0,0,0,0,0,0,0,0,0,0,0,0,0,0,0,0,0,0,0,0,0,0,0,0,0,0,0,0,0,0,0,0,0,0,0,0,0,0,0,0,0,0,0,0,0,0,0,0,0,0,0,0,0,0,0,0,0,0,0,0,0,0,0,0,0,0,0,0,0,0,0,0,0,0,0,0,0,0,0,0
"Ind49","14_0_10",82,47,48,48,49,48,48,48,48,48,48,48,48,7,7,7,7,7,6,6,6,6,6,6,6,5,5,5,5,5,6,5,5,5,5,5,5,3,4,4,3,3,3,3,3,3,3,0,-1,0,0,0,0,0,0,0,0,0,0,0,0,0,0,0,0,0,0,0,0,0,0,0,0,0,0,0,0,0,0,0,0,0,0,0,0,0,0,0,0,0,0,0,0,0,0,0,0,0,0,0,0,0,0,0,0,0,0,0,0,0,0,0,0,0,0,0,0,0,0,0,0,0,0,0,0,0,0,0,0,0,0,0,0,0,0,0,0,0,0,0,0,0,0,0,0,0,0,0,0,0,0,0,0,0,0,0,0,0,0,0,0,0,0,0,0,0,0,0,0,0,0,0,0,0,0,0,0,0,0,0,0,0,0,0,0,0,0,0,0,0,0,0,0
"Ind50","14_0_6",82,47,48,48,49,48,48,48,48,48,48,48,48,7,7,7,7,7,6,6,6,6,6,6,6,5,5,5,5,5,6,5,5,5,5,5,5,3,4,4,3,3,3,3,3,3,3,0,0,-1,0,0,0,0,0,0,0,0,0,0,0,0,0,0,0,0,0,0,0,0,0,0,0,0,0,0,0,0,0,0,0,0,0,0,0,0,0,0,0,0,0,0,0,0,0,0,0,0,0,0,0,0,0,0,0,0,0,0,0,0,0,0,0,0,0,0,0,0,0,0,0,0,0,0,0,0,0,0,0,0,0,0,0,0,0,0,0,0,0,0,0,0,0,0,0,0,0,0,0,0,0,0,0,0,0,0,0,0,0,0,0,0,0,0,0,0,0,0,0,0,0,0,0,0,0,0,0,0,0,0,0,0,0,0,0,0,0,0,0,0,0,0,0
"Ind51","14_0_4",81,46,47,47,48,47,47,47,47,47,47,47,47,8,8,8,8,8,7,7,7,7,7,7,7,6,6,6,6,6,7,6,6,6,6,6,6,4,5,5,4,4,4,4,4,4,4,1,1,1,-1,0,0,0,0,0,0,0,0,0,0,0,0,0,0,0,0,0,0,0,0,0,0,0,0,0,0,0,0,0,0,0,0,0,0,0,0,0,0,0,0,0,0,0,0,0,0,0,0,0,0,0,0,0,0,0,0,0,0,0,0,0,0,0,0,0,0,0,0,0,0,0,0,0,0,0,0,0,0,0,0,0,0,0,0,0,0,0,0,0,0,0,0,0,0,0,0,0,0,0,0,0,0,0,0,0,0,0,0,0,0,0,0,0,0,0,0,0,0,0,0,0,0,0,0,0,0,0,0,0,0,0,0,0,0,0,0,0,0,0,0,0,0
"Ind52","14_0_3",81,46,47,47,48,47,47,47,47,47,47,47,47,8,8,8,8,8,7,7,7,7,7,7,7,6,6,6,6,6,7,6,6,6,6,6,6,4,5,5,4,4,4,4,4,4,4,1,1,1,0,-1,0,0,0,0,0,0,0,0,0,0,0,0,0,0,0,0,0,0,0,0,0,0,0,0,0,0,0,0,0,0,0,0,0,0,0,0,0,0,0,0,0,0,0,0,0,0,0,0,0,0,0,0,0,0,0,0,0,0,0,0,0,0,0,0,0,0,0,0,0,0,0,0,0,0,0,0,0,0,0,0,0,0,0,0,0,0,0,0,0,0,0,0,0,0,0,0,0,0,0,0,0,0,0,0,0,0,0,0,0,0,0,0,0,0,0,0,0,0,0,0,0,0,0,0,0,0,0,0,0,0,0,0,0,0,0,0,0,0,0,0,0
"Ind53","14_0_8",81,46,47,47,48,47,47,47,47,47,47,47,47,8,8,8,8,8,7,7,7,7,7,7,7,6,6,6,6,6,7,6,6,6,6,6,6,4,5,5,4,4,4,4,4,4,4,1,1,1,0,0,-1,0,0,0,0,0,0,0,0,0,0,0,0,0,0,0,0,0,0,0,0,0,0,0,0,0,0,0,0,0,0,0,0,0,0,0,0,0,0,0,0,0,0,0,0,0,0,0,0,0,0,0,0,0,0,0,0,0,0,0,0,0,0,0,0,0,0,0,0,0,0,0,0,0,0,0,0,0,0,0,0,0,0,0,0,0,0,0,0,0,0,0,0,0,0,0,0,0,0,0,0,0,0,0,0,0,0,0,0,0,0,0,0,0,0,0,0,0,0,0,0,0,0,0,0,0,0,0,0,0,0,0,0,0,0,0,0,0,0,0,0
"Ind54","14_0_1",82,47,48,48,49,48,48,48,48,48,48,48,48,7,7,7,7,7,6,6,6,6,6,6,6,5,5,5,5,5,6,5,5,5,5,5,5,3,4,4,3,3,3,3,3,3,3,0,0,0,1,1,1,-1,0,0,0,0,0,0,0,0,0,0,0,0,0,0,0,0,0,0,0,0,0,0,0,0,0,0,0,0,0,0,0,0,0,0,0,0,0,0,0,0,0,0,0,0,0,0,0,0,0,0,0,0,0,0,0,0,0,0,0,0,0,0,0,0,0,0,0,0,0,0,0,0,0,0,0,0,0,0,0,0,0,0,0,0,0,0,0,0,0,0,0,0,0,0,0,0,0,0,0,0,0,0,0,0,0,0,0,0,0,0,0,0,0,0,0,0,0,0,0,0,0,0,0,0,0,0,0,0,0,0,0,0,0,0,0,0,0,0,0
"Ind55","14_0_0",81,46,47,47,48,47,47,47,47,47,47,47,47,6,6,6,6,6,5,5,5,5,5,5,5,4,4,4,4,4,5,4,4,4,4,4,4,2,3,3,2,2,2,2,2,2,2,1,1,1,2,2,2,1,-1,0,0,0,0,0,0,0,0,0,0,0,0,0,0,0,0,0,0,0,0,0,0,0,0,0,0,0,0,0,0,0,0,0,0,0,0,0,0,0,0,0,0,0,0,0,0,0,0,0,0,0,0,0,0,0,0,0,0,0,0,0,0,0,0,0,0,0,0,0,0,0,0,0,0,0,0,0,0,0,0,0,0,0,0,0,0,0,0,0,0,0,0,0,0,0,0,0,0,0,0,0,0,0,0,0,0,0,0,0,0,0,0,0,0,0,0,0,0,0,0,0,0,0,0,0,0,0,0,0,0,0,0,0,0,0,0,0,0
"Ind56","14_0_7",81,46,47,47,48,47,47,47,47,47,47,47,47,6,6,6,6,6,5,5,5,5,5,5,5,4,4,4,4,4,5,4,4,4,4,4,4,2,3,3,2,2,2,2,2,2,2,1,1,1,2,2,2,1,0,-1,0,0,0,0,0,0,0,0,0,0,0,0,0,0,0,0,0,0,0,0,0,0,0,0,0,0,0,0,0,0,0,0,0,0,0,0,0,0,0,0,0,0,0,0,0,0,0,0,0,0,0,0,0,0,0,0,0,0,0,0,0,0,0,0,0,0,0,0,0,0,0,0,0,0,0,0,0,0,0,0,0,0,0,0,0,0,0,0,0,0,0,0,0,0,0,0,0,0,0,0,0,0,0,0,0,0,0,0,0,0,0,0,0,0,0,0,0,0,0,0,0,0,0,0,0,0,0,0,0,0,0,0,0,0,0,0,0
"Ind57","14_0_9",81,46,47,47,48,47,47,47,47,47,47,47,47,6,6,6,6,6,5,5,5,5,5,5,5,4,4,4,4,4,5,4,4,4,4,4,4,2,3,3,2,2,2,2,2,2,2,1,1,1,2,2,2,1,0,0,-1,0,0,0,0,0,0,0,0,0,0,0,0,0,0,0,0,0,0,0,0,0,0,0,0,0,0,0,0,0,0,0,0,0,0,0,0,0,0,0,0,0,0,0,0,0,0,0,0,0,0,0,0,0,0,0,0,0,0,0,0,0,0,0,0,0,0,0,0,0,0,0,0,0,0,0,0,0,0,0,0,0,0,0,0,0,0,0,0,0,0,0,0,0,0,0,0,0,0,0,0,0,0,0,0,0,0,0,0,0,0,0,0,0,0,0,0,0,0,0,0,0,0,0,0,0,0,0,0,0,0,0,0,0,0,0,0
"Ind58","14_0_2",81,46,47,47,48,47,47,47,47,47,47,47,47,6,6,6,6,6,5,5,5,5,5,5,5,4,4,4,4,4,5,4,4,4,4,4,4,2,3,3,2,2,2,2,2,2,2,1,1,1,2,2,2,1,0,0,0,-1,0,0,0,0,0,0,0,0,0,0,0,0,0,0,0,0,0,0,0,0,0,0,0,0,0,0,0,0,0,0,0,0,0,0,0,0,0,0,0,0,0,0,0,0,0,0,0,0,0,0,0,0,0,0,0,0,0,0,0,0,0,0,0,0,0,0,0,0,0,0,0,0,0,0,0,0,0,0,0,0,0,0,0,0,0,0,0,0,0,0,0,0,0,0,0,0,0,0,0,0,0,0,0,0,0,0,0,0,0,0,0,0,0,0,0,0,0,0,0,0,0,0,0,0,0,0,0,0,0,0,0,0,0,0,0
"Ind59","14_0_11",81,46,47,47,48,47,47,47,47,47,47,47,47,6,6,6,6,6,5,5,5,5,5,5,5,4,4,4,4,4,5,4,4,4,4,4,4,2,3,3,2,2,2,2,2,2,2,1,1,1,2,2,2,1,0,0,0,0,-1,0,0,0,0,0,0,0,0,0,0,0,0,0,0,0,0,0,0,0,0,0,0,0,0,0,0,0,0,0,0,0,0,0,0,0,0,0,0,0,0,0,0,0,0,0,0,0,0,0,0,0,0,0,0,0,0,0,0,0,0,0,0,0,0,0,0,0,0,0,0,0,0,0,0,0,0,0,0,0,0,0,0,0,0,0,0,0,0,0,0,0,0,0,0,0,0,0,0,0,0,0,0,0,0,0,0,0,0,0,0,0,0,0,0,0,0,0,0,0,0,0,0,0,0,0,0,0,0,0,0,0,0,0,0
"Ind60","9_0_10",80,45,46,46,47,46,46,46,46,46,46,46,46,7,7,7,7,7,6,6,6,6,6,6,6,5,5,5,5,5,6,5,5,5,5,5,5,3,4,4,3,3,3,3,3,3,3,2,2,2,3,3,3,2,1,1,1,1,1,-1,0,0,0,0,0,0,0,0,0,0,0,0,0,0,0,0,0,0,0,0,0,0,0,0,0,0,0,0,0,0,0,0,0,0,0,0,0,0,0,0,0,0,0,0,0,0,0,0,0,0,0,0,0,0,0,0,0,0,0,0,0,0,0,0,0,0,0,0,0,0,0,0,0,0,0,0,0,0,0,0,0,0,0,0,0,0,0,0,0,0,0,0,0,0,0,0,0,0,0,0,0,0,0,0,0,0,0,0,0,0,0,0,0,0,0,0,0,0,0,0,0,0,0,0,0,0,0,0,0,0,0,0,0
"Ind61","9_0_3",80,45,46,46,47,46,46,46,46,46,46,46,46,7,7,7,7,7,6,6,6,6,6,6,6,5,5,5,5,5,6,5,5,5,5,5,5,3,4,4,3,3,3,3,3,3,3,2,2,2,3,3,3,2,1,1,1,1,1,0,-1,0,0,0,0,0,0,0,0,0,0,0,0,0,0,0,0,0,0,0,0,0,0,0,0,0,0,0,0,0,0,0,0,0,0,0,0,0,0,0,0,0,0,0,0,0,0,0,0,0,0,0,0,0,0,0,0,0,0,0,0,0,0,0,0,0,0,0,0,0,0,0,0,0,0,0,0,0,0,0,0,0,0,0,0,0,0,0,0,0,0,0,0,0,0,0,0,0,0,0,0,0,0,0,0,0,0,0,0,0,0,0,0,0,0,0,0,0,0,0,0,0,0,0,0,0,0,0,0,0,0,0,0
"Ind62","4_0_3",80,45,46,46,47,46,46,46,46,46,46,46,46,7,7,7,7,7,6,6,6,6,6,6,6,5,5,5,5,5,6,5,5,5,5,5,5,7,8,8,7,7,7,7,7,7,7,6,6,6,7,7,7,6,5,5,5,5,5,6,6,-1,0,0,0,0,0,0,0,0,0,0,0,0,0,0,0,0,0,0,0,0,0,0,0,0,0,0,0,0,0,0,0,0,0,0,0,0,0,0,0,0,0,0,0,0,0,0,0,0,0,0,0,0,0,0,0,0,0,0,0,0,0,0,0,0,0,0,0,0,0,0,0,0,0,0,0,0,0,0,0,0,0,0,0,0,0,0,0,0,0,0,0,0,0,0,0,0,0,0,0,0,0,0,0,0,0,0,0,0,0,0,0,0,0,0,0,0,0,0,0,0,0,0,0,0,0,0,0,0,0,0,0
"Ind63","4_0_11",79,44,45,45,46,45,45,45,45,45,45,45,45,6,6,6,6,6,5,5,5,5,5,5,5,4,4,4,4,4,5,4,4,4,4,4,4,6,7,7,6,6,6,6,6,6,6,5,5,5,6,6,6,5,4,4,4,4,4,5,5,1,-1,0,0,0,0,0,0,0,0,0,0,0,0,0,0,0,0,0,0,0,0,0,0,0,0,0,0,0,0,0,0,0,0,0,0,0,0,0,0,0,0,0,0,0,0,0,0,0,0,0,0,0,0,0,0,0,0,0,0,0,0,0,0,0,0,0,0,0,0,0,0,0,0,0,0,0,0,0,0,0,0,0,0,0,0,0,0,0,0,0,0,0,0,0,0,0,0,0,0,0,0,0,0,0,0,0,0,0,0,0,0,0,0,0,0,0,0,0,0,0,0,0,0,0,0,0,0,0,0,0,0
"Ind64","4_0_2",79,44,45,45,46,45,45,45,45,45,45,45,45,6,6,6,6,6,5,5,5,5,5,5,5,4,4,4,4,4,5,4,4,4,4,4,4,6,7,7,6,6,6,6,6,6,6,5,5,5,6,6,6,5,4,4,4,4,4,5,5,1,0,-1,0,0,0,0,0,0,0,0,0,0,0,0,0,0,0,0,0,0,0,0,0,0,0,0,0,0,0,0,0,0,0,0,0,0,0,0,0,0,0,0,0,0,0,0,0,0,0,0,0,0,0,0,0,0,0,0,0,0,0,0,0,0,0,0,0,0,0,0,0,0,0,0,0,0,0,0,0,0,0,0,0,0,0,0,0,0,0,0,0,0,0,0,0,0,0,0,0,0,0,0,0,0,0,0,0,0,0,0,0,0,0,0,0,0,0,0,0,0,0,0,0,0,0,0,0,0,0,0,0
"Ind65","4_0_8",79,44,45,45,46,45,45,45,45,45,45,45,45,6,6,6,6,6,5,5,5,5,5,5,5,4,4,4,4,4,5,4,4,4,4,4,4,6,7,7,6,6,6,6,6,6,6,5,5,5,6,6,6,5,4,4,4,4,4,5,5,1,0,0,-1,0,0,0,0,0,0,0,0,0,0,0,0,0,0,0,0,0,0,0,0,0,0,0,0,0,0,0,0,0,0,0,0,0,0,0,0,0,0,0,0,0,0,0,0,0,0,0,0,0,0,0,0,0,0,0,0,0,0,0,0,0,0,0,0,0,0,0,0,0,0,0,0,0,0,0,0,0,0,0,0,0,0,0,0,0,0,0,0,0,0,0,0,0,0,0,0,0,0,0,0,0,0,0,0,0,0,0,0,0,0,0,0,0,0,0,0,0,0,0,0,0,0,0,0,0,0,0,0
"Ind66","4_0_6",79,44,45,45,46,45,45,45,45,45,45,45,45,6,6,6,6,6,5,5,5,5,5,5,5,4,4,4,4,4,5,4,4,4,4,4,4,6,7,7,6,6,6,6,6,6,6,5,5,5,6,6,6,5,4,4,4,4,4,5,5,1,0,0,0,-1,0,0,0,0,0,0,0,0,0,0,0,0,0,0,0,0,0,0,0,0,0,0,0,0,0,0,0,0,0,0,0,0,0,0,0,0,0,0,0,0,0,0,0,0,0,0,0,0,0,0,0,0,0,0,0,0,0,0,0,0,0,0,0,0,0,0,0,0,0,0,0,0,0,0,0,0,0,0,0,0,0,0,0,0,0,0,0,0,0,0,0,0,0,0,0,0,0,0,0,0,0,0,0,0,0,0,0,0,0,0,0,0,0,0,0,0,0,0,0,0,0,0,0,0,0,0,0
"Ind67","4_0_7",79,44,45,45,46,45,45,45,45,45,45,45,45,6,6,6,6,6,5,5,5,5,5,5,5,4,4,4,4,4,5,4,4,4,4,4,4,6,7,7,6,6,6,6,6,6,6,5,5,5,6,6,6,5,4,4,4,4,4,5,5,1,0,0,0,0,-1,0,0,0,0,0,0,0,0,0,0,0,0,0,0,0,0,0,0,0,0,0,0,0,0,0,0,0,0,0,0,0,0,0,0,0,0,0,0,0,0,0,0,0,0,0,0,0,0,0,0,0,0,0,0,0,0,0,0,0,0,0,0,0,0,0,0,0,0,0,0,0,0,0,0,0,0,0,0,0,0,0,0,0,0,0,0,0,0,0,0,0,0,0,0,0,0,0,0,0,0,0,0,0,0,0,0,0,0,0,0,0,0,0,0,0,0,0,0,0,0,0,0,0,0,0,0
"Ind68","4_0_10",79,44,45,45,46,45,45,45,45,45,45,45,45,6,6,6,6,6,5,5,5,5,5,5,5,4,4,4,4,4,5,4,4,4,4,4,4,6,7,7,6,6,6,6,6,6,6,5,5,5,6,6,6,5,4,4,4,4,4,5,5,1,0,0,0,0,0,-1,0,0,0,0,0,0,0,0,0,0,0,0,0,0,0,0,0,0,0,0,0,0,0,0,0,0,0,0,0,0,0,0,0,0,0,0,0,0,0,0,0,0,0,0,0,0,0,0,0,0,0,0,0,0,0,0,0,0,0,0,0,0,0,0,0,0,0,0,0,0,0,0,0,0,0,0,0,0,0,0,0,0,0,0,0,0,0,0,0,0,0,0,0,0,0,0,0,0,0,0,0,0,0,0,0,0,0,0,0,0,0,0,0,0,0,0,0,0,0,0,0,0,0,0,0
"Ind69","4_0_5",79,44,45,45,46,45,45,45,45,45,45,45,45,6,6,6,6,6,5,5,5,5,5,5,5,4,4,4,4,4,5,4,4,4,4,4,4,6,7,7,6,6,6,6,6,6,6,5,5,5,6,6,6,5,4,4,4,4,4,5,5,1,0,0,0,0,0,0,-1,0,0,0,0,0,0,0,0,0,0,0,0,0,0,0,0,0,0,0,0,0,0,0,0,0,0,0,0,0,0,0,0,0,0,0,0,0,0,0,0,0,0,0,0,0,0,0,0,0,0,0,0,0,0,0,0,0,0,0,0,0,0,0,0,0,0,0,0,0,0,0,0,0,0,0,0,0,0,0,0,0,0,0,0,0,0,0,0,0,0,0,0,0,0,0,0,0,0,0,0,0,0,0,0,0,0,0,0,0,0,0,0,0,0,0,0,0,0,0,0,0,0,0,0
"Ind70","4_0_1",79,44,45,45,46,45,45,45,45,45,45,45,45,6,6,6,6,6,5,5,5,5,5,5,5,4,4,4,4,4,5,4,4,4,4,4,4,6,7,7,6,6,6,6,6,6,6,5,5,5,6,6,6,5,4,4,4,4,4,5,5,1,0,0,0,0,0,0,0,-1,0,0,0,0,0,0,0,0,0,0,0,0,0,0,0,0,0,0,0,0,0,0,0,0,0,0,0,0,0,0,0,0,0,0,0,0,0,0,0,0,0,0,0,0,0,0,0,0,0,0,0,0,0,0,0,0,0,0,0,0,0,0,0,0,0,0,0,0,0,0,0,0,0,0,0,0,0,0,0,0,0,0,0,0,0,0,0,0,0,0,0,0,0,0,0,0,0,0,0,0,0,0,0,0,0,0,0,0,0,0,0,0,0,0,0,0,0,0,0,0,0,0,0
"Ind71","4_0_9",79,44,45,45,46,45,45,45,45,45,45,45,45,6,6,6,6,6,5,5,5,5,5,5,5,4,4,4,4,4,5,4,4,4,4,4,4,6,7,7,6,6,6,6,6,6,6,5,5,5,6,6,6,5,4,4,4,4,4,5,5,1,0,0,0,0,0,0,0,0,-1,0,0,0,0,0,0,0,0,0,0,0,0,0,0,0,0,0,0,0,0,0,0,0,0,0,0,0,0,0,0,0,0,0,0,0,0,0,0,0,0,0,0,0,0,0,0,0,0,0,0,0,0,0,0,0,0,0,0,0,0,0,0,0,0,0,0,0,0,0,0,0,0,0,0,0,0,0,0,0,0,0,0,0,0,0,0,0,0,0,0,0,0,0,0,0,0,0,0,0,0,0,0,0,0,0,0,0,0,0,0,0,0,0,0,0,0,0,0,0,0,0,0
"Ind72","4_0_0",78,43,44,44,45,44,44,44,44,44,44,44,44,7,7,7,7,7,6,6,6,6,6,6,6,5,5,5,5,5,6,5,5,5,5,5,5,7,8,8,7,7,7,7,7,7,7,6,6,6,7,7,7,6,5,5,5,5,5,6,6,2,1,1,1,1,1,1,1,1,1,-1,0,0,0,0,0,0,0,0,0,0,0,0,0,0,0,0,0,0,0,0,0,0,0,0,0,0,0,0,0,0,0,0,0,0,0,0,0,0,0,0,0,0,0,0,0,0,0,0,0,0,0,0,0,0,0,0,0,0,0,0,0,0,0,0,0,0,0,0,0,0,0,0,0,0,0,0,0,0,0,0,0,0,0,0,0,0,0,0,0,0,0,0,0,0,0,0,0,0,0,0,0,0,0,0,0,0,0,0,0,0,0,0,0,0,0,0,0,0,0,0,0
"Ind73","4_0_4",78,43,44,44,45,44,44,44,44,44,44,44,44,7,7,7,7,7,6,6,6,6,6,6,6,5,5,5,5,5,6,5,5,5,5,5,5,7,8,8,7,7,7,7,7,7,7,6,6,6,7,7,7,6,5,5,5,5,5,6,6,2,1,1,1,1,1,1,1,1,1,0,-1,0,0,0,0,0,0,0,0,0,0,0,0,0,0,0,0,0,0,0,0,0,0,0,0,0,0,0,0,0,0,0,0,0,0,0,0,0,0,0,0,0,0,0,0,0,0,0,0,0,0,0,0,0,0,0,0,0,0,0,0,0,0,0,0,0,0,0,0,0,0,0,0,0,0,0,0,0,0,0,0,0,0,0,0,0,0,0,0,0,0,0,0,0,0,0,0,0,0,0,0,0,0,0,0,0,0,0,0,0,0,0,0,0,0,0,0,0,0,0,0
"Ind74","13_0_4",82,47,48,48,49,48,48,48,48,48,48,48,48,7,7,7,7,7,6,6,6,6,6,6,6,5,5,5,5,5,6,5,5,5,5,5,5,7,8,8,7,7,7,7,7,7,7,6,6,6,7,7,7,6,5,5,5,5,5,6,6,6,5,5,5,5,5,5,5,5,5,6,6,-1,0,0,0,0,0,0,0,0,0,0,0,0,0,0,0,0,0,0,0,0,0,0,0,0,0,0,0,0,0,0,0,0,0,0,0,0,0,0,0,0,0,0,0,0,0,0,0,0,0,0,0,0,0,0,0,0,0,0,0,0,0,0,0,0,0,0,0,0,0,0,0,0,0,0,0,0,0,0,0,0,0,0,0,0,0,0,0,0,0,0,0,0,0,0,0,0,0,0,0,0,0,0,0,0,0,0,0,0,0,0,0,0,0,0,0,0,0,0,0
"Ind75","13_0_7",82,47,48,48,49,48,48,48,48,48,48,48,48,7,7,7,7,7,6,6,6,6,6,6,6,5,5,5,5,5,6,5,5,5,5,5,5,7,8,8,7,7,7,7,7,7,7,6,6,6,7,7,7,6,5,5,5,5,5,6,6,6,5,5,5,5,5,5,5,5,5,6,6,0,-1,0,0,0,0,0,0,0,0,0,0,0,0,0,0,0,0,0,0,0,0,0,0,0,0,0,0,0,0,0,0,0,0,0,0,0,0,0,0,0,0,0,0,0,0,0,0,0,0,0,0,0,0,0,0,0,0,0,0,0,0,0,0,0,0,0,0,0,0,0,0,0,0,0,0,0,0,0,0,0,0,0,0,0,0,0,0,0,0,0,0,0,0,0,0,0,0,0,0,0,0,0,0,0,0,0,0,0,0,0,0,0,0,0,0,0,0,0,0
"Ind76","13_0_9",82,47,48,48,49,48,48,48,48,48,48,48,48,7,7,7,7,7,6,6,6,6,6,6,6,5,5,5,5,5,6,5,5,5,5,5,5,7,8,8,7,7,7,7,7,7,7,6,6,6,7,7,7,6,5,5,5,5,5,6,6,6,5,5,5,5,5,5,5,5,5,6,6,0,0,-1,0,0,0,0,0,0,0,0,0,0,0,0,0,0,0,0,0,0,0,0,0,0,0,0,0,0,0,0,0,0,0,0,0,0,0,0,0,0,0,0,0,0,0,0,0,0,0,0,0,0,0,0,0,0,0,0,0,0,0,0,0,0,0,0,0,0,0,0,0,0,0,0,0,0,0,0,0,0,0,0,0,0,0,0,0,0,0,0,0,0,0,0,0,0,0,0,0,0,0,0,0,0,0,0,0,0,0,0,0,0,0,0,0,0,0,0,0
"Ind77","13_0_3",82,47,48,48,49,48,48,48,48,48,48,48,48,7,7,7,7,7,6,6,6,6,6,6,6,5,5,5,5,5,6,5,5,5,5,5,5,7,8,8,7,7,7,7,7,7,7,6,6,6,7,7,7,6,5,5,5,5,5,6,6,6,5,5,5,5,5,5,5,5,5,6,6,0,0,0,-1,0,0,0,0,0,0,0,0,0,0,0,0,0,0,0,0,0,0,0,0,0,0,0,0,0,0,0,0,0,0,0,0,0,0,0,0,0,0,0,0,0,0,0,0,0,0,0,0,0,0,0,0,0,0,0,0,0,0,0,0,0,0,0,0,0,0,0,0,0,0,0,0,0,0,0,0,0,0,0,0,0,0,0,0,0,0,0,0,0,0,0,0,0,0,0,0,0,0,0,0,0,0,0,0,0,0,0,0,0,0,0,0,0,0,0,0
"Ind78","13_0_0",81,46,47,47,48,47,47,47,47,47,47,47,47,6,6,6,6,6,5,5,5,5,5,5,5,4,4,4,4,4,5,4,4,4,4,4,4,6,7,7,6,6,6,6,6,6,6,5,5,5,6,6,6,5,4,4,4,4,4,5,5,5,4,4,4,4,4,4,4,4,4,5,5,1,1,1,1,-1,0,0,0,0,0,0,0,0,0,0,0,0,0,0,0,0,0,0,0,0,0,0,0,0,0,0,0,0,0,0,0,0,0,0,0,0,0,0,0,0,0,0,0,0,0,0,0,0,0,0,0,0,0,0,0,0,0,0,0,0,0,0,0,0,0,0,0,0,0,0,0,0,0,0,0,0,0,0,0,0,0,0,0,0,0,0,0,0,0,0,0,0,0,0,0,0,0,0,0,0,0,0,0,0,0,0,0,0,0,0,0,0,0,0,0
"Ind79","13_0_10",82,47,48,48,49,48,48,48,48,48,48,48,48,7,7,7,7,7,6,6,6,6,6,6,6,5,5,5,5,5,6,5,5,5,5,5,5,7,8,8,7,7,7,7,7,7,7,6,6,6,7,7,7,6,5,5,5,5,5,6,6,6,5,5,5,5,5,5,5,5,5,6,6,2,2,2,2,1,-1,0,0,0,0,0,0,0,0,0,0,0,0,0,0,0,0,0,0,0,0,0,0,0,0,0,0,0,0,0,0,0,0,0,0,0,0,0,0,0,0,0,0,0,0,0,0,0,0,0,0,0,0,0,0,0,0,0,0,0,0,0,0,0,0,0,0,0,0,0,0,0,0,0,0,0,0,0,0,0,0,0,0,0,0,0,0,0,0,0,0,0,0,0,0,0,0,0,0,0,0,0,0,0,0,0,0,0,0,0,0,0,0,0,0
"Ind80","13_0_11",82,47,48,48,49,48,48,48,48,48,48,48,48,7,7,7,7,7,6,6,6,6,6,6,6,5,5,5,5,5,6,5,5,5,5,5,5,7,8,8,7,7,7,7,7,7,7,6,6,6,7,7,7,6,5,5,5,5,5,6,6,6,5,5,5,5,5,5,5,5,5,6,6,2,2,2,2,1,0,-1,0,0,0,0,0,0,0,0,0,0,0,0,0,0,0,0,0,0,0,0,0,0,0,0,0,0,0,0,0,0,0,0,0,0,0,0,0,0,0,0,0,0,0,0,0,0,0,0,0,0,0,0,0,0,0,0,0,0,0,0,0,0,0,0,0,0,0,0,0,0,0,0,0,0,0,0,0,0,0,0,0,0,0,0,0,0,0,0,0,0,0,0,0,0,0,0,0,0,0,0,0,0,0,0,0,0,0,0,0,0,0,0,0
"Ind81","13_0_6",82,47,48,48,49,48,48,48,48,48,48,48,48,7,7,7,7,7,6,6,6,6,6,6,6,5,5,5,5,5,6,5,5,5,5,5,5,7,8,8,7,7,7,7,7,7,7,6,6,6,7,7,7,6,5,5,5,5,5,6,6,6,5,5,5,5,5,5,5,5,5,6,6,2,2,2,2,1,0,0,-1,0,0,0,0,0,0,0,0,0,0,0,0,0,0,0,0,0,0,0,0,0,0,0,0,0,0,0,0,0,0,0,0,0,0,0,0,0,0,0,0,0,0,0,0,0,0,0,0,0,0,0,0,0,0,0,0,0,0,0,0,0,0,0,0,0,0,0,0,0,0,0,0,0,0,0,0,0,0,0,0,0,0,0,0,0,0,0,0,0,0,0,0,0,0,0,0,0,0,0,0,0,0,0,0,0,0,0,0,0,0,0,0
"Ind82","13_0_5",81,46,47,47,48,47,47,47,47,47,47,47,47,6,6,6,6,6,5,5,5,5,5,5,5,4,4,4,4,4,5,4,4,4,4,4,4,6,7,7,6,6,6,6,6,6,6,5,5,5,6,6,6,5,4,4,4,4,4,5,5,5,4,4,4,4,4,4,4,4,4,5,5,1,1,1,1,0,1,1,1,-1,0,0,0,0,0,0,0,0,0,0,0,0,0,0,0,0,0,0,0,0,0,0,0,0,0,0,0,0,0,0,0,0,0,0,0,0,0,0,0,0,0,0,0,0,0,0,0,0,0,0,0,0,0,0,0,0,0,0,0,0,0,0,0,0,0,0,0,0,0,0,0,0,0,0,0,0,0,0,0,0,0,0,0,0,0,0,0,0,0,0,0,0,0,0,0,0,0,0,0,0,0,0,0,0,0,0,0,0,0,0,0
"Ind83","13_0_8",81,46,47,47,48,47,47,47,47,47,47,47,47,6,6,6,6,6,5,5,5,5,5,5,5,4,4,4,4,4,5,4,4,4,4,4,4,6,7,7,6,6,6,6,6,6,6,5,5,5,6,6,6,5,4,4,4,4,4,5,5,5,4,4,4,4,4,4,4,4,4,5,5,1,1,1,1,0,1,1,1,0,-1,0,0,0,0,0,0,0,0,0,0,0,0,0,0,0,0,0,0,0,0,0,0,0,0,0,0,0,0,0,0,0,0,0,0,0,0,0,0,0,0,0,0,0,0,0,0,0,0,0,0,0,0,0,0,0,0,0,0,0,0,0,0,0,0,0,0,0,0,0,0,0,0,0,0,0,0,0,0,0,0,0,0,0,0,0,0,0,0,0,0,0,0,0,0,0,0,0,0,0,0,0,0,0,0,0,0,0,0,0,0
"Ind84","13_0_1",81,46,47,47,48,47,47,47,47,47,47,47,47,6,6,6,6,6,5,5,5,5,5,5,5,4,4,4,4,4,5,4,4,4,4,4,4,6,7,7,6,6,6,6,6,6,6,5,5,5,6,6,6,5,4,4,4,4,4,5,5,5,4,4,4,4,4,4,4,4,4,5,5,1,1,1,1,0,1,1,1,0,0,-1,0,0,0,0,0,0,0,0,0,0,0,0,0,0,0,0,0,0,0,0,0,0,0,0,0,0,0,0,0,0,0,0,0,0,0,0,0,0,0,0,0,0,0,0,0,0,0,0,0,0,0,0,0,0,0,0,0,0,0,0,0,0,0,0,0,0,0,0,0,0,0,0,0,0,0,0,0,0,0,0,0,0,0,0,0,0,0,0,0,0,0,0,0,0,0,0,0,0,0,0,0,0,0,0,0,0,0,0,0
"Ind85","13_0_2",82,47,48,48,49,48,48,48,48,48,48,48,48,7,7,7,7,7,6,6,6,6,6,6,6,5,5,5,5,5,6,5,5,5,5,5,5,7,8,8,7,7,7,7,7,7,7,6,6,6,7,7,7,6,5,5,5,5,5,6,6,6,5,5,5,5,5,5,5,5,5,6,6,2,2,2,2,1,2,2,2,1,1,1,-1,0,0,0,0,0,0,0,0,0,0,0,0,0,0,0,0,0,0,0,0,0,0,0,0,0,0,0,0,0,0,0,0,0,0,0,0,0,0,0,0,0,0,0,0,0,0,0,0,0,0,0,0,0,0,0,0,0,0,0,0,0,0,0,0,0,0,0,0,0,0,0,0,0,0,0,0,0,0,0,0,0,0,0,0,0,0,0,0,0,0,0,0,0,0,0,0,0,0,0,0,0,0,0,0,0,0,0,0
"Ind86","5_0_8",77,48,49,49,50,49,49,49,49,49,49,49,49,12,12,12,12,12,11,11,11,11,11,11,11,10,10,10,10,10,11,10,10,10,10,10,10,12,13,13,12,12,12,12,12,12,12,11,11,11,12,12,12,11,10,10,10,10,10,9,9,11,10,10,10,10,10,10,10,10,10,11,11,11,11,11,11,10,11,11,11,10,10,10,11,-1,0,0,0,0,0,0,0,0,0,0,0,0,0,0,0,0,0,0,0,0,0,0,0,0,0,0,0,0,0,0,0,0,0,0,0,0,0,0,0,0,0,0,0,0,0,0,0,0,0,0,0,0,0,0,0,0,0,0,0,0,0,0,0,0,0,0,0,0,0,0,0,0,0,0,0,0,0,0,0,0,0,0,0,0,0,0,0,0,0,0,0,0,0,0,0,0,0,0,0,0,0,0,0,0,0,0,0
"Ind87","5_0_4",77,48,49,49,50,49,49,49,49,49,49,49,49,12,12,12,12,12,11,11,11,11,11,11,11,10,10,10,10,10,11,10,10,10,10,10,10,12,13,13,12,12,12,12,12,12,12,11,11,11,12,12,12,11,10,10,10,10,10,9,9,11,10,10,10,10,10,10,10,10,10,11,11,11,11,11,11,10,11,11,11,10,10,10,11,0,-1,0,0,0,0,0,0,0,0,0,0,0,0,0,0,0,0,0,0,0,0,0,0,0,0,0,0,0,0,0,0,0,0,0,0,0,0,0,0,0,0,0,0,0,0,0,0,0,0,0,0,0,0,0,0,0,0,0,0,0,0,0,0,0,0,0,0,0,0,0,0,0,0,0,0,0,0,0,0,0,0,0,0,0,0,0,0,0,0,0,0,0,0,0,0,0,0,0,0,0,0,0,0,0,0,0,0
"Ind88","5_0_10",77,48,49,49,50,49,49,49,49,49,49,49,49,12,12,12,12,12,11,11,11,11,11,11,11,10,10,10,10,10,11,10,10,10,10,10,10,12,13,13,12,12,12,12,12,12,12,11,11,11,12,12,12,11,10,10,10,10,10,9,9,11,10,10,10,10,10,10,10,10,10,11,11,11,11,11,11,10,11,11,11,10,10,10,11,0,0,-1,0,0,0,0,0,0,0,0,0,0,0,0,0,0,0,0,0,0,0,0,0,0,0,0,0,0,0,0,0,0,0,0,0,0,0,0,0,0,0,0,0,0,0,0,0,0,0,0,0,0,0,0,0,0,0,0,0,0,0,0,0,0,0,0,0,0,0,0,0,0,0,0,0,0,0,0,0,0,0,0,0,0,0,0,0,0,0,0,0,0,0,0,0,0,0,0,0,0,0,0,0,0,0,0,0
"Ind89","5_0_1",77,48,49,49,50,49,49,49,49,49,49,49,49,12,12,12,12,12,11,11,11,11,11,11,11,10,10,10,10,10,11,10,10,10,10,10,10,12,13,13,12,12,12,12,12,12,12,11,11,11,12,12,12,11,10,10,10,10,10,9,9,11,10,10,10,10,10,10,10,10,10,11,11,11,11,11,11,10,11,11,11,10,10,10,11,0,0,0,-1,0,0,0,0,0,0,0,0,0,0,0,0,0,0,0,0,0,0,0,0,0,0,0,0,0,0,0,0,0,0,0,0,0,0,0,0,0,0,0,0,0,0,0,0,0,0,0,0,0,0,0,0,0,0,0,0,0,0,0,0,0,0,0,0,0,0,0,0,0,0,0,0,0,0,0,0,0,0,0,0,0,0,0,0,0,0,0,0,0,0,0,0,0,0,0,0,0,0,0,0,0,0,0,0
"Ind90","5_0_3",78,47,48,48,49,48,48,48,48,48,48,48,48,11,11,11,11,11,10,10,10,10,10,10,10,9,9,9,9,9,10,9,9,9,9,9,9,11,12,12,11,11,11,11,11,11,11,10,10,10,11,11,11,10,9,9,9,9,9,8,8,10,9,9,9,9,9,9,9,9,9,10,10,10,10,10,10,9,10,10,10,9,9,9,10,3,3,3,3,-1,0,0,0,0,0,0,0,0,0,0,0,0,0,0,0,0,0,0,0,0,0,0,0,0,0,0,0,0,0,0,0,0,0,0,0,0,0,0,0,0,0,0,0,0,0,0,0,0,0,0,0,0,0,0,0,0,0,0,0,0,0,0,0,0,0,0,0,0,0,0,0,0,0,0,0,0,0,0,0,0,0,0,0,0,0,0,0,0,0,0,0,0,0,0,0,0,0,0,0,0,0,0,0
"Ind91","5_0_5",78,47,48,48,49,48,48,48,48,48,48,48,48,11,11,11,11,11,10,10,10,10,10,10,10,9,9,9,9,9,10,9,9,9,9,9,9,11,12,12,11,11,11,11,11,11,11,10,10,10,11,11,11,10,9,9,9,9,9,8,8,10,9,9,9,9,9,9,9,9,9,10,10,10,10,10,10,9,10,10,10,9,9,9,10,3,3,3,3,0,-1,0,0,0,0,0,0,0,0,0,0,0,0,0,0,0,0,0,0,0,0,0,0,0,0,0,0,0,0,0,0,0,0,0,0,0,0,0,0,0,0,0,0,0,0,0,0,0,0,0,0,0,0,0,0,0,0,0,0,0,0,0,0,0,0,0,0,0,0,0,0,0,0,0,0,0,0,0,0,0,0,0,0,0,0,0,0,0,0,0,0,0,0,0,0,0,0,0,0,0,0,0,0
"Ind92","5_0_9",78,47,48,48,49,48,48,48,48,48,48,48,48,11,11,11,11,11,10,10,10,10,10,10,10,9,9,9,9,9,10,9,9,9,9,9,9,11,12,12,11,11,11,11,11,11,11,10,10,10,11,11,11,10,9,9,9,9,9,8,8,10,9,9,9,9,9,9,9,9,9,10,10,10,10,10,10,9,10,10,10,9,9,9,10,3,3,3,3,0,0,-1,0,0,0,0,0,0,0,0,0,0,0,0,0,0,0,0,0,0,0,0,0,0,0,0,0,0,0,0,0,0,0,0,0,0,0,0,0,0,0,0,0,0,0,0,0,0,0,0,0,0,0,0,0,0,0,0,0,0,0,0,0,0,0,0,0,0,0,0,0,0,0,0,0,0,0,0,0,0,0,0,0,0,0,0,0,0,0,0,0,0,0,0,0,0,0,0,0,0,0,0,0
"Ind93","5_0_2",78,47,48,48,49,48,48,48,48,48,48,48,48,11,11,11,11,11,10,10,10,10,10,10,10,9,9,9,9,9,10,9,9,9,9,9,9,11,12,12,11,11,11,11,11,11,11,10,10,10,11,11,11,10,9,9,9,9,9,8,8,10,9,9,9,9,9,9,9,9,9,10,10,10,10,10,10,9,10,10,10,9,9,9,10,3,3,3,3,0,0,0,-1,0,0,0,0,0,0,0,0,0,0,0,0,0,0,0,0,0,0,0,0,0,0,0,0,0,0,0,0,0,0,0,0,0,0,0,0,0,0,0,0,0,0,0,0,0,0,0,0,0,0,0,0,0,0,0,0,0,0,0,0,0,0,0,0,0,0,0,0,0,0,0,0,0,0,0,0,0,0,0,0,0,0,0,0,0,0,0,0,0,0,0,0,0,0,0,0,0,0,0,0
"Ind94","5_0_11",78,47,48,48,49,48,48,48,48,48,48,48,48,11,11,11,11,11,10,10,10,10,10,10,10,9,9,9,9,9,10,9,9,9,9,9,9,11,12,12,11,11,11,11,11,11,11,10,10,10,11,11,11,10,9,9,9,9,9,8,8,10,9,9,9,9,9,9,9,9,9,10,10,10,10,10,10,9,10,10,10,9,9,9,10,3,3,3,3,0,0,0,0,-1,0,0,0,0,0,0,0,0,0,0,0,0,0,0,0,0,0,0,0,0,0,0,0,0,0,0,0,0,0,0,0,0,0,0,0,0,0,0,0,0,0,0,0,0,0,0,0,0,0,0,0,0,0,0,0,0,0,0,0,0,0,0,0,0,0,0,0,0,0,0,0,0,0,0,0,0,0,0,0,0,0,0,0,0,0,0,0,0,0,0,0,0,0,0,0,0,0,0,0
"Ind95","5_0_0",78,47,48,48,49,48,48,48,48,48,48,48,48,11,11,11,11,11,10,10,10,10,10,10,10,9,9,9,9,9,10,9,9,9,9,9,9,11,12,12,11,11,11,11,11,11,11,10,10,10,11,11,11,10,9,9,9,9,9,8,8,10,9,9,9,9,9,9,9,9,9,10,10,10,10,10,10,9,10,10,10,9,9,9,10,3,3,3,3,0,0,0,0,0,-1,0,0,0,0,0,0,0,0,0,0,0,0,0,0,0,0,0,0,0,0,0,0,0,0,0,0,0,0,0,0,0,0,0,0,0,0,0,0,0,0,0,0,0,0,0,0,0,0,0,0,0,0,0,0,0,0,0,0,0,0,0,0,0,0,0,0,0,0,0,0,0,0,0,0,0,0,0,0,0,0,0,0,0,0,0,0,0,0,0,0,0,0,0,0,0,0,0,0
"Ind96","5_0_6",77,46,47,47,48,47,47,47,47,47,47,47,47,12,12,12,12,12,11,11,11,11,11,11,11,10,10,10,10,10,11,10,10,10,10,10,10,12,13,13,12,12,12,12,12,12,12,11,11,11,12,12,12,11,10,10,10,10,10,9,9,11,10,10,10,10,10,10,10,10,10,11,11,11,11,11,11,10,11,11,11,10,10,10,11,4,4,4,4,1,1,1,1,1,1,-1,0,0,0,0,0,0,0,0,0,0,0,0,0,0,0,0,0,0,0,0,0,0,0,0,0,0,0,0,0,0,0,0,0,0,0,0,0,0,0,0,0,0,0,0,0,0,0,0,0,0,0,0,0,0,0,0,0,0,0,0,0,0,0,0,0,0,0,0,0,0,0,0,0,0,0,0,0,0,0,0,0,0,0,0,0,0,0,0,0,0,0,0,0,0,0,0,0
"Ind97","5_0_7",78,47,48,48,49,48,48,48,48,48,48,48,48,11,11,11,11,11,10,10,10,10,10,10,10,9,9,9,9,9,10,9,9,9,9,9,9,11,12,12,11,11,11,11,11,11,11,10,10,10,11,11,11,10,9,9,9,9,9,8,8,10,9,9,9,9,9,9,9,9,9,10,10,10,10,10,10,9,10,10,10,9,9,9,10,3,3,3,3,0,0,0,0,0,0,1,-1,0,0,0,0,0,0,0,0,0,0,0,0,0,0,0,0,0,0,0,0,0,0,0,0,0,0,0,0,0,0,0,0,0,0,0,0,0,0,0,0,0,0,0,0,0,0,0,0,0,0,0,0,0,0,0,0,0,0,0,0,0,0,0,0,0,0,0,0,0,0,0,0,0,0,0,0,0,0,0,0,0,0,0,0,0,0,0,0,0,0,0,0,0,0,0,0
"Ind98","7_0_1",78,46,47,47,48,47,47,47,47,47,47,47,47,24,24,24,24,24,23,23,23,23,23,23,23,22,22,22,22,22,23,22,22,22,22,22,22,24,25,25,24,24,24,24,24,24,24,23,23,23,24,24,24,23,22,22,22,22,22,21,21,21,20,20,20,20,20,20,20,20,20,21,21,23,23,23,23,22,23,23,23,22,22,22,23,26,26,26,26,25,25,25,25,25,25,26,25,-1,0,0,0,0,0,0,0,0,0,0,0,0,0,0,0,0,0,0,0,0,0,0,0,0,0,0,0,0,0,0,0,0,0,0,0,0,0,0,0,0,0,0,0,0,0,0,0,0,0,0,0,0,0,0,0,0,0,0,0,0,0,0,0,0,0,0,0,0,0,0,0,0,0,0,0,0,0,0,0,0,0,0,0,0,0,0,0,0,0,0,0,0,0,0,0
"Ind99","7_0_0",78,46,47,47,48,47,47,47,47,47,47,47,47,24,24,24,24,24,23,23,23,23,23,23,23,22,22,22,22,22,23,22,22,22,22,22,22,24,25,25,24,24,24,24,24,24,24,23,23,23,24,24,24,23,22,22,22,22,22,21,21,21,20,20,20,20,20,20,20,20,20,21,21,23,23,23,23,22,23,23,23,22,22,22,23,26,26,26,26,25,25,25,25,25,25,26,25,0,-1,0,0,0,0,0,0,0,0,0,0,0,0,0,0,0,0,0,0,0,0,0,0,0,0,0,0,0,0,0,0,0,0,0,0,0,0,0,0,0,0,0,0,0,0,0,0,0,0,0,0,0,0,0,0,0,0,0,0,0,0,0,0,0,0,0,0,0,0,0,0,0,0,0,0,0,0,0,0,0,0,0,0,0,0,0,0,0,0,0,0,0,0,0,0
"Ind100","7_0_9",78,46,47,47,48,47,47,47,47,47,47,47,47,24,24,24,24,24,23,23,23,23,23,23,23,22,22,22,22,22,23,22,22,22,22,22,22,24,25,25,24,24,24,24,24,24,24,23,23,23,24,24,24,23,22,22,22,22,22,21,21,21,20,20,20,20,20,20,20,20,20,21,21,23,23,23,23,22,23,23,23,22,22,22,23,26,26,26,26,25,25,25,25,25,25,26,25,0,0,-1,0,0,0,0,0,0,0,0,0,0,0,0,0,0,0,0,0,0,0,0,0,0,0,0,0,0,0,0,0,0,0,0,0,0,0,0,0,0,0,0,0,0,0,0,0,0,0,0,0,0,0,0,0,0,0,0,0,0,0,0,0,0,0,0,0,0,0,0,0,0,0,0,0,0,0,0,0,0,0,0,0,0,0,0,0,0,0,0,0,0,0,0,0
"Ind101","7_0_5",78,46,47,47,48,47,47,47,47,47,47,47,47,24,24,24,24,24,23,23,23,23,23,23,23,22,22,22,22,22,23,22,22,22,22,22,22,24,25,25,24,24,24,24,24,24,24,23,23,23,24,24,24,23,22,22,22,22,22,21,21,21,20,20,20,20,20,20,20,20,20,21,21,23,23,23,23,22,23,23,23,22,22,22,23,26,26,26,26,25,25,25,25,25,25,26,25,0,0,0,-1,0,0,0,0,0,0,0,0,0,0,0,0,0,0,0,0,0,0,0,0,0,0,0,0,0,0,0,0,0,0,0,0,0,0,0,0,0,0,0,0,0,0,0,0,0,0,0,0,0,0,0,0,0,0,0,0,0,0,0,0,0,0,0,0,0,0,0,0,0,0,0,0,0,0,0,0,0,0,0,0,0,0,0,0,0,0,0,0,0,0,0,0
"Ind102","7_0_10",78,46,47,47,48,47,47,47,47,47,47,47,47,24,24,24,24,24,23,23,23,23,23,23,23,22,22,22,22,22,23,22,22,22,22,22,22,24,25,25,24,24,24,24,24,24,24,23,23,23,24,24,24,23,22,22,22,22,22,21,21,21,20,20,20,20,20,20,20,20,20,21,21,23,23,23,23,22,23,23,23,22,22,22,23,26,26,26,26,25,25,25,25,25,25,26,25,0,0,0,0,-1,0,0,0,0,0,0,0,0,0,0,0,0,0,0,0,0,0,0,0,0,0,0,0,0,0,0,0,0,0,0,0,0,0,0,0,0,0,0,0,0,0,0,0,0,0,0,0,0,0,0,0,0,0,0,0,0,0,0,0,0,0,0,0,0,0,0,0,0,0,0,0,0,0,0,0,0,0,0,0,0,0,0,0,0,0,0,0,0,0,0,0
"Ind103","7_0_6",79,45,46,46,47,46,46,46,46,46,46,46,46,23,23,23,23,23,22,22,22,22,22,22,22,21,21,21,21,21,22,21,21,21,21,21,21,23,24,24,23,23,23,23,23,23,23,22,22,22,23,23,23,22,21,21,21,21,21,20,20,20,19,19,19,19,19,19,19,19,19,20,20,22,22,22,22,21,22,22,22,21,21,21,22,25,25,25,25,24,24,24,24,24,24,25,24,1,1,1,1,1,-1,0,0,0,0,0,0,0,0,0,0,0,0,0,0,0,0,0,0,0,0,0,0,0,0,0,0,0,0,0,0,0,0,0,0,0,0,0,0,0,0,0,0,0,0,0,0,0,0,0,0,0,0,0,0,0,0,0,0,0,0,0,0,0,0,0,0,0,0,0,0,0,0,0,0,0,0,0,0,0,0,0,0,0,0,0,0,0,0,0,0
"Ind104","7_0_3",78,46,47,47,48,47,47,47,47,47,47,47,47,20,20,20,20,20,19,19,19,19,19,19,19,18,18,18,18,18,19,18,18,18,18,18,18,20,21,21,20,20,20,20,20,20,20,19,19,19,20,20,20,19,18,18,18,18,18,17,17,17,16,16,16,16,16,16,16,16,16,17,17,19,19,19,19,18,19,19,19,18,18,18,19,22,22,22,22,21,21,21,21,21,21,22,21,4,4,4,4,4,3,-1,0,0,0,0,0,0,0,0,0,0,0,0,0,0,0,0,0,0,0,0,0,0,0,0,0,0,0,0,0,0,0,0,0,0,0,0,0,0,0,0,0,0,0,0,0,0,0,0,0,0,0,0,0,0,0,0,0,0,0,0,0,0,0,0,0,0,0,0,0,0,0,0,0,0,0,0,0,0,0,0,0,0,0,0,0,0,0,0,0
"Ind105","7_0_8",78,48,49,49,50,49,49,49,49,49,49,49,49,20,20,20,20,20,19,19,19,21,21,21,21,20,20,20,20,20,21,20,20,20,20,20,20,22,23,23,22,22,22,22,22,22,22,21,21,21,22,22,22,21,20,20,20,20,20,19,19,19,18,18,18,18,18,18,18,18,18,19,19,21,21,21,21,20,21,21,21,20,20,20,21,24,24,24,24,23,23,23,23,23,23,24,23,4,4,4,4,4,3,2,-1,0,0,0,0,0,0,0,0,0,0,0,0,0,0,0,0,0,0,0,0,0,0,0,0,0,0,0,0,0,0,0,0,0,0,0,0,0,0,0,0,0,0,0,0,0,0,0,0,0,0,0,0,0,0,0,0,0,0,0,0,0,0,0,0,0,0,0,0,0,0,0,0,0,0,0,0,0,0,0,0,0,0,0,0,0,0,0,0
"Ind106","7_0_7",78,48,49,49,50,49,49,49,49,49,49,49,49,20,20,20,20,20,19,19,19,21,21,21,21,20,20,20,20,20,21,20,20,20,20,20,20,22,23,23,22,22,22,22,22,22,22,21,21,21,22,22,22,21,20,20,20,20,20,19,19,19,18,18,18,18,18,18,18,18,18,19,19,21,21,21,21,20,21,21,21,20,20,20,21,24,24,24,24,23,23,23,23,23,23,24,23,4,4,4,4,4,3,2,0,-1,0,0,0,0,0,0,0,0,0,0,0,0,0,0,0,0,0,0,0,0,0,0,0,0,0,0,0,0,0,0,0,0,0,0,0,0,0,0,0,0,0,0,0,0,0,0,0,0,0,0,0,0,0,0,0,0,0,0,0,0,0,0,0,0,0,0,0,0,0,0,0,0,0,0,0,0,0,0,0,0,0,0,0,0,0,0,0
"Ind107","7_0_11",78,48,49,49,50,49,49,49,49,49,49,49,49,22,22,22,22,22,21,21,21,21,21,21,21,20,20,20,20,20,21,20,20,20,20,20,20,22,23,23,22,22,22,22,22,22,22,21,21,21,22,22,22,21,20,20,20,20,20,19,19,19,18,18,18,18,18,18,18,18,18,19,19,21,21,21,21,20,21,21,21,20,20,20,21,24,24,24,24,23,23,23,23,23,23,24,23,4,4,4,4,4,3,2,2,2,-1,0,0,0,0,0,0,0,0,0,0,0,0,0,0,0,0,0,0,0,0,0,0,0,0,0,0,0,0,0,0,0,0,0,0,0,0,0,0,0,0,0,0,0,0,0,0,0,0,0,0,0,0,0,0,0,0,0,0,0,0,0,0,0,0,0,0,0,0,0,0,0,0,0,0,0,0,0,0,0,0,0,0,0,0,0,0
"Ind108","7_0_2",78,48,49,49,50,49,49,49,49,49,49,49,49,22,22,22,22,22,21,21,21,21,21,21,21,20,20,20,20,20,21,20,20,20,20,20,20,22,23,23,22,22,22,22,22,22,22,21,21,21,22,22,22,21,20,20,20,20,20,19,19,19,18,18,18,18,18,18,18,18,18,19,19,21,21,21,21,20,21,21,21,20,20,20,21,24,24,24,24,23,23,23,23,23,23,24,23,4,4,4,4,4,3,2,2,2,0,-1,0,0,0,0,0,0,0,0,0,0,0,0,0,0,0,0,0,0,0,0,0,0,0,0,0,0,0,0,0,0,0,0,0,0,0,0,0,0,0,0,0,0,0,0,0,0,0,0,0,0,0,0,0,0,0,0,0,0,0,0,0,0,0,0,0,0,0,0,0,0,0,0,0,0,0,0,0,0,0,0,0,0,0,0,0
"Ind109","7_0_4",82,46,47,47,48,47,47,47,47,47,47,47,47,26,26,26,26,26,25,25,25,25,25,25,25,24,24,24,24,24,25,24,24,24,24,24,24,26,27,27,26,26,26,26,26,26,26,25,25,25,26,26,26,25,24,24,24,24,24,23,23,23,22,22,22,22,22,22,22,22,22,23,23,25,25,25,25,24,25,25,25,24,24,24,25,28,28,28,28,27,27,27,27,27,27,28,27,6,6,6,6,6,5,6,6,6,6,6,-1,0,0,0,0,0,0,0,0,0,0,0,0,0,0,0,0,0,0,0,0,0,0,0,0,0,0,0,0,0,0,0,0,0,0,0,0,0,0,0,0,0,0,0,0,0,0,0,0,0,0,0,0,0,0,0,0,0,0,0,0,0,0,0,0,0,0,0,0,0,0,0,0,0,0,0,0,0,0,0,0,0,0,0,0
"Ind110","2_0_1",76,44,45,45,46,45,45,45,45,45,45,45,45,20,20,20,20,20,19,19,19,19,19,19,19,18,18,18,18,18,19,18,18,18,18,18,18,22,23,23,22,22,22,22,22,22,22,21,21,21,22,22,22,21,20,20,20,20,20,19,19,19,18,18,18,18,18,18,18,18,18,19,19,21,21,21,21,20,21,21,21,20,20,20,21,24,24,24,24,23,23,23,23,23,23,24,23,6,6,6,6,6,5,6,6,6,6,6,8,-1,0,0,0,0,0,0,0,0,0,0,0,0,0,0,0,0,0,0,0,0,0,0,0,0,0,0,0,0,0,0,0,0,0,0,0,0,0,0,0,0,0,0,0,0,0,0,0,0,0,0,0,0,0,0,0,0,0,0,0,0,0,0,0,0,0,0,0,0,0,0,0,0,0,0,0,0,0,0,0,0,0,0,0
"Ind111","2_0_2",76,44,45,45,46,45,45,45,45,45,45,45,45,20,20,20,20,20,19,19,19,19,19,19,19,18,18,18,18,18,19,18,18,18,18,18,18,22,23,23,22,22,22,22,22,22,22,21,21,21,22,22,22,21,20,20,20,20,20,19,19,19,18,18,18,18,18,18,18,18,18,19,19,21,21,21,21,20,21,21,21,20,20,20,21,24,24,24,24,23,23,23,23,23,23,24,23,6,6,6,6,6,5,6,6,6,6,6,8,0,-1,0,0,0,0,0,0,0,0,0,0,0,0,0,0,0,0,0,0,0,0,0,0,0,0,0,0,0,0,0,0,0,0,0,0,0,0,0,0,0,0,0,0,0,0,0,0,0,0,0,0,0,0,0,0,0,0,0,0,0,0,0,0,0,0,0,0,0,0,0,0,0,0,0,0,0,0,0,0,0,0,0,0
"Ind112","2_0_8",77,45,46,46,47,46,46,46,46,46,46,46,46,21,21,21,21,21,20,20,20,20,20,20,20,19,19,19,19,19,20,19,19,19,19,19,19,23,24,24,23,23,23,23,23,23,23,22,22,22,23,23,23,22,21,21,21,21,21,20,20,20,19,19,19,19,19,19,19,19,19,20,20,22,22,22,22,21,22,22,22,21,21,21,22,25,25,25,25,24,24,24,24,24,24,25,24,7,7,7,7,7,6,7,7,7,7,7,9,1,1,-1,0,0,0,0,0,0,0,0,0,0,0,0,0,0,0,0,0,0,0,0,0,0,0,0,0,0,0,0,0,0,0,0,0,0,0,0,0,0,0,0,0,0,0,0,0,0,0,0,0,0,0,0,0,0,0,0,0,0,0,0,0,0,0,0,0,0,0,0,0,0,0,0,0,0,0,0,0,0,0,0,0
"Ind113","2_0_5",77,45,46,46,47,46,46,46,46,46,46,46,46,21,21,21,21,21,20,20,20,20,20,20,20,19,19,19,19,19,20,19,19,19,19,19,19,23,24,24,23,23,23,23,23,23,23,22,22,22,23,23,23,22,21,21,21,21,21,20,20,20,19,19,19,19,19,19,19,19,19,20,20,22,22,22,22,21,22,22,22,21,21,21,22,25,25,25,25,24,24,24,24,24,24,25,24,7,7,7,7,7,6,7,7,7,7,7,9,1,1,0,-1,0,0,0,0,0,0,0,0,0,0,0,0,0,0,0,0,0,0,0,0,0,0,0,0,0,0,0,0,0,0,0,0,0,0,0,0,0,0,0,0,0,0,0,0,0,0,0,0,0,0,0,0,0,0,0,0,0,0,0,0,0,0,0,0,0,0,0,0,0,0,0,0,0,0,0,0,0,0,0,0
"Ind114","2_0_11",77,45,46,46,47,46,46,46,46,46,46,46,46,21,21,21,21,21,20,20,20,20,20,20,20,19,19,19,19,19,20,19,19,19,19,19,19,23,24,24,23,23,23,23,23,23,23,22,22,22,23,23,23,22,21,21,21,21,21,20,20,20,19,19,19,19,19,19,19,19,19,20,20,22,22,22,22,21,22,22,22,21,21,21,22,25,25,25,25,24,24,24,24,24,24,25,24,7,7,7,7,7,6,7,7,7,7,7,9,1,1,0,0,-1,0,0,0,0,0,0,0,0,0,0,0,0,0,0,0,0,0,0,0,0,0,0,0,0,0,0,0,0,0,0,0,0,0,0,0,0,0,0,0,0,0,0,0,0,0,0,0,0,0,0,0,0,0,0,0,0,0,0,0,0,0,0,0,0,0,0,0,0,0,0,0,0,0,0,0,0,0,0,0
"Ind115","2_0_6",77,45,46,46,47,46,46,46,46,46,46,46,46,21,21,21,21,21,20,20,20,20,20,20,20,19,19,19,19,19,20,19,19,19,19,19,19,23,24,24,23,23,23,23,23,23,23,22,22,22,23,23,23,22,21,21,21,21,21,20,20,20,19,19,19,19,19,19,19,19,19,20,20,22,22,22,22,21,22,22,22,21,21,21,22,25,25,25,25,24,24,24,24,24,24,25,24,7,7,7,7,7,6,7,7,7,7,7,9,1,1,0,0,0,-1,0,0,0,0,0,0,0,0,0,0,0,0,0,0,0,0,0,0,0,0,0,0,0,0,0,0,0,0,0,0,0,0,0,0,0,0,0,0,0,0,0,0,0,0,0,0,0,0,0,0,0,0,0,0,0,0,0,0,0,0,0,0,0,0,0,0,0,0,0,0,0,0,0,0,0,0,0,0
"Ind116","2_0_7",77,45,46,46,47,46,46,46,46,46,46,46,46,21,21,21,21,21,20,20,20,20,20,20,20,19,19,19,19,19,20,19,19,19,19,19,19,23,24,24,23,23,23,23,23,23,23,22,22,22,23,23,23,22,21,21,21,21,21,20,20,20,19,19,19,19,19,19,19,19,19,20,20,22,22,22,22,21,22,22,22,21,21,21,22,25,25,25,25,24,24,24,24,24,24,25,24,7,7,7,7,7,6,7,7,7,7,7,9,1,1,0,0,0,0,-1,0,0,0,0,0,0,0,0,0,0,0,0,0,0,0,0,0,0,0,0,0,0,0,0,0,0,0,0,0,0,0,0,0,0,0,0,0,0,0,0,0,0,0,0,0,0,0,0,0,0,0,0,0,0,0,0,0,0,0,0,0,0,0,0,0,0,0,0,0,0,0,0,0,0,0,0,0
"Ind117","2_0_4",76,44,45,45,46,45,45,45,45,45,45,45,45,20,20,20,20,20,19,19,19,19,19,19,19,18,18,18,18,18,19,18,18,18,18,18,18,22,23,23,22,22,22,22,22,22,22,21,21,21,22,22,22,21,20,20,20,20,20,19,19,19,18,18,18,18,18,18,18,18,18,19,19,21,21,21,21,20,21,21,21,20,20,20,21,24,24,24,24,23,23,23,23,23,23,24,23,6,6,6,6,6,5,6,6,6,6,6,8,0,0,1,1,1,1,1,-1,0,0,0,0,0,0,0,0,0,0,0,0,0,0,0,0,0,0,0,0,0,0,0,0,0,0,0,0,0,0,0,0,0,0,0,0,0,0,0,0,0,0,0,0,0,0,0,0,0,0,0,0,0,0,0,0,0,0,0,0,0,0,0,0,0,0,0,0,0,0,0,0,0,0,0,0
"Ind118","2_0_3",76,44,45,45,46,45,45,45,45,45,45,45,45,20,20,20,20,20,19,19,19,19,19,19,19,18,18,18,18,18,19,18,18,18,18,18,18,22,23,23,22,22,22,22,22,22,22,21,21,21,22,22,22,21,20,20,20,20,20,19,19,19,18,18,18,18,18,18,18,18,18,19,19,21,21,21,21,20,21,21,21,20,20,20,21,24,24,24,24,23,23,23,23,23,23,24,23,6,6,6,6,6,5,6,6,6,6,6,8,0,0,1,1,1,1,1,0,-1,0,0,0,0,0,0,0,0,0,0,0,0,0,0,0,0,0,0,0,0,0,0,0,0,0,0,0,0,0,0,0,0,0,0,0,0,0,0,0,0,0,0,0,0,0,0,0,0,0,0,0,0,0,0,0,0,0,0,0,0,0,0,0,0,0,0,0,0,0,0,0,0,0,0,0
"Ind119","2_0_10",76,44,45,45,46,45,45,45,45,45,45,45,45,20,20,20,20,20,19,19,19,19,19,19,19,18,18,18,18,18,19,18,18,18,18,18,18,22,23,23,22,22,22,22,22,22,22,21,21,21,22,22,22,21,20,20,20,20,20,19,19,19,18,18,18,18,18,18,18,18,18,19,19,21,21,21,21,20,21,21,21,20,20,20,21,24,24,24,24,23,23,23,23,23,23,24,23,6,6,6,6,6,5,6,6,6,6,6,8,0,0,1,1,1,1,1,0,0,-1,0,0,0,0,0,0,0,0,0,0,0,0,0,0,0,0,0,0,0,0,0,0,0,0,0,0,0,0,0,0,0,0,0,0,0,0,0,0,0,0,0,0,0,0,0,0,0,0,0,0,0,0,0,0,0,0,0,0,0,0,0,0,0,0,0,0,0,0,0,0,0,0,0,0
"Ind120","2_0_9",76,44,45,45,46,45,45,45,45,45,45,45,45,20,20,20,20,20,19,19,19,19,19,19,19,18,18,18,18,18,19,18,18,18,18,18,18,22,23,23,22,22,22,22,22,22,22,21,21,21,22,22,22,21,20,20,20,20,20,19,19,19,18,18,18,18,18,18,18,18,18,19,19,21,21,21,21,20,21,21,21,20,20,20,21,24,24,24,24,23,23,23,23,23,23,24,23,6,6,6,6,6,5,6,6,6,6,6,8,0,0,1,1,1,1,1,0,0,0,-1,0,0,0,0,0,0,0,0,0,0,0,0,0,0,0,0,0,0,0,0,0,0,0,0,0,0,0,0,0,0,0,0,0,0,0,0,0,0,0,0,0,0,0,0,0,0,0,0,0,0,0,0,0,0,0,0,0,0,0,0,0,0,0,0,0,0,0,0,0,0,0,0,0
"Ind121","2_0_0",76,44,45,45,46,45,45,45,45,45,45,45,45,20,20,20,20,20,19,19,19,19,19,19,19,18,18,18,18,18,19,18,18,18,18,18,18,22,23,23,22,22,22,22,22,22,22,21,21,21,22,22,22,21,20,20,20,20,20,19,19,19,18,18,18,18,18,18,18,18,18,19,19,21,21,21,21,20,21,21,21,20,20,20,21,24,24,24,24,23,23,23,23,23,23,24,23,6,6,6,6,6,5,6,6,6,6,6,8,0,0,1,1,1,1,1,0,0,0,0,-1,0,0,0,0,0,0,0,0,0,0,0,0,0,0,0,0,0,0,0,0,0,0,0,0,0,0,0,0,0,0,0,0,0,0,0,0,0,0,0,0,0,0,0,0,0,0,0,0,0,0,0,0,0,0,0,0,0,0,0,0,0,0,0,0,0,0,0,0,0,0,0,0
"Ind122","1_0_2",76,44,45,45,46,45,45,45,45,45,45,45,45,20,20,20,20,20,19,19,19,19,19,19,19,18,18,18,18,18,19,18,18,18,18,18,18,20,21,21,20,20,20,20,20,20,20,19,19,19,20,20,20,19,18,18,18,18,18,17,17,17,16,16,16,16,16,16,16,16,16,17,17,19,19,19,19,18,19,19,19,18,18,18,19,22,22,22,22,21,21,21,21,21,21,22,21,4,4,4,4,4,3,4,4,4,4,4,6,2,2,3,3,3,3,3,2,2,2,2,2,-1,0,0,0,0,0,0,0,0,0,0,0,0,0,0,0,0,0,0,0,0,0,0,0,0,0,0,0,0,0,0,0,0,0,0,0,0,0,0,0,0,0,0,0,0,0,0,0,0,0,0,0,0,0,0,0,0,0,0,0,0,0,0,0,0,0,0,0,0,0,0,0
"Ind123","1_0_5",76,44,45,45,46,45,45,45,45,45,45,45,45,20,20,20,20,20,19,19,19,19,19,19,19,18,18,18,18,18,19,18,18,18,18,18,18,20,21,21,20,20,20,20,20,20,20,19,19,19,20,20,20,19,18,18,18,18,18,17,17,17,16,16,16,16,16,16,16,16,16,17,17,19,19,19,19,18,19,19,19,18,18,18,19,22,22,22,22,21,21,21,21,21,21,22,21,4,4,4,4,4,3,4,4,4,4,4,6,2,2,3,3,3,3,3,2,2,2,2,2,0,-1,0,0,0,0,0,0,0,0,0,0,0,0,0,0,0,0,0,0,0,0,0,0,0,0,0,0,0,0,0,0,0,0,0,0,0,0,0,0,0,0,0,0,0,0,0,0,0,0,0,0,0,0,0,0,0,0,0,0,0,0,0,0,0,0,0,0,0,0,0,0
"Ind124","1_0_6",76,44,45,45,46,45,45,45,45,45,45,45,45,20,20,20,20,20,19,19,19,19,19,19,19,18,18,18,18,18,19,18,18,18,18,18,18,20,21,21,20,20,20,20,20,20,20,19,19,19,20,20,20,19,18,18,18,18,18,17,17,17,16,16,16,16,16,16,16,16,16,17,17,19,19,19,19,18,19,19,19,18,18,18,19,22,22,22,22,21,21,21,21,21,21,22,21,6,6,6,6,6,5,6,6,6,6,6,8,4,4,5,5,5,5,5,4,4,4,4,4,2,2,-1,0,0,0,0,0,0,0,0,0,0,0,0,0,0,0,0,0,0,0,0,0,0,0,0,0,0,0,0,0,0,0,0,0,0,0,0,0,0,0,0,0,0,0,0,0,0,0,0,0,0,0,0,0,0,0,0,0,0,0,0,0,0,0,0,0,0,0,0,0
"Ind125","1_0_0",76,44,45,45,46,45,45,45,45,45,45,45,45,20,20,20,20,20,19,19,19,19,19,19,19,18,18,18,18,18,19,18,18,18,18,18,18,20,21,21,20,20,20,20,20,20,20,19,19,19,20,20,20,19,18,18,18,18,18,17,17,17,16,16,16,16,16,16,16,16,16,17,17,19,19,19,19,18,19,19,19,18,18,18,19,22,22,22,22,21,21,21,21,21,21,22,21,6,6,6,6,6,5,6,6,6,6,6,8,4,4,5,5,5,5,5,4,4,4,4,4,2,2,0,-1,0,0,0,0,0,0,0,0,0,0,0,0,0,0,0,0,0,0,0,0,0,0,0,0,0,0,0,0,0,0,0,0,0,0,0,0,0,0,0,0,0,0,0,0,0,0,0,0,0,0,0,0,0,0,0,0,0,0,0,0,0,0,0,0,0,0,0,0
"Ind126","1_0_4",76,44,45,45,46,45,45,45,45,45,45,45,45,20,20,20,20,20,19,19,19,19,19,19,19,18,18,18,18,18,19,18,18,18,18,18,18,20,21,21,20,20,20,20,20,20,20,19,19,19,20,20,20,19,18,18,18,18,18,17,17,17,16,16,16,16,16,16,16,16,16,17,17,19,19,19,19,18,19,19,19,18,18,18,19,22,22,22,22,21,21,21,21,21,21,22,21,6,6,6,6,6,5,6,6,6,6,6,8,4,4,5,5,5,5,5,4,4,4,4,4,2,2,0,0,-1,0,0,0,0,0,0,0,0,0,0,0,0,0,0,0,0,0,0,0,0,0,0,0,0,0,0,0,0,0,0,0,0,0,0,0,0,0,0,0,0,0,0,0,0,0,0,0,0,0,0,0,0,0,0,0,0,0,0,0,0,0,0,0,0,0,0,0
"Ind127","1_0_9",76,44,45,45,46,45,45,45,45,45,45,45,45,20,20,20,20,20,19,19,19,19,19,19,19,18,18,18,18,18,19,18,18,18,18,18,18,20,21,21,20,20,20,20,20,20,20,19,19,19,20,20,20,19,18,18,18,18,18,17,17,17,16,16,16,16,16,16,16,16,16,17,17,19,19,19,19,18,19,19,19,18,18,18,19,22,22,22,22,21,21,21,21,21,21,22,21,6,6,6,6,6,5,6,6,6,6,6,8,4,4,5,5,5,5,5,4,4,4,4,4,2,2,2,2,2,-1,0,0,0,0,0,0,0,0,0,0,0,0,0,0,0,0,0,0,0,0,0,0,0,0,0,0,0,0,0,0,0,0,0,0,0,0,0,0,0,0,0,0,0,0,0,0,0,0,0,0,0,0,0,0,0,0,0,0,0,0,0,0,0,0,0,0
"Ind128","1_0_7",76,44,45,45,46,45,45,45,45,45,45,45,45,20,20,20,20,20,19,19,19,19,19,19,19,18,18,18,18,18,19,18,18,18,18,18,18,20,21,21,20,20,20,20,20,20,20,19,19,19,20,20,20,19,18,18,18,18,18,17,17,17,16,16,16,16,16,16,16,16,16,17,17,19,19,19,19,18,19,19,19,18,18,18,19,22,22,22,22,21,21,21,21,21,21,22,21,6,6,6,6,6,5,6,6,6,6,6,8,4,4,5,5,5,5,5,4,4,4,4,4,2,2,2,2,2,0,-1,0,0,0,0,0,0,0,0,0,0,0,0,0,0,0,0,0,0,0,0,0,0,0,0,0,0,0,0,0,0,0,0,0,0,0,0,0,0,0,0,0,0,0,0,0,0,0,0,0,0,0,0,0,0,0,0,0,0,0,0,0,0,0,0,0
"Ind129","1_0_3",77,45,46,46,47,46,46,46,46,46,46,46,46,21,21,21,21,21,20,20,20,20,20,20,20,19,19,19,19,19,20,19,19,19,19,19,19,21,22,22,21,21,21,21,21,21,21,20,20,20,21,21,21,20,19,19,19,19,19,18,18,18,17,17,17,17,17,17,17,17,17,18,18,20,20,20,20,19,20,20,20,19,19,19,20,23,23,23,23,22,22,22,22,22,22,23,22,5,5,5,5,5,4,5,5,5,5,5,7,3,3,4,4,4,4,4,3,3,3,3,3,1,1,1,1,1,1,1,-1,0,0,0,0,0,0,0,0,0,0,0,0,0,0,0,0,0,0,0,0,0,0,0,0,0,0,0,0,0,0,0,0,0,0,0,0,0,0,0,0,0,0,0,0,0,0,0,0,0,0,0,0,0,0,0,0,0,0,0,0,0,0,0,0
"Ind130","1_0_11",77,45,46,46,47,46,46,46,46,46,46,46,46,21,21,21,21,21,20,20,20,20,20,20,20,19,19,19,19,19,20,19,19,19,19,19,19,21,22,22,21,21,21,21,21,21,21,20,20,20,21,21,21,20,19,19,19,19,19,18,18,18,17,17,17,17,17,17,17,17,17,18,18,20,20,20,20,19,20,20,20,19,19,19,20,23,23,23,23,22,22,22,22,22,22,23,22,5,5,5,5,5,4,5,5,5,5,5,7,3,3,4,4,4,4,4,3,3,3,3,3,1,1,1,1,1,1,1,0,-1,0,0,0,0,0,0,0,0,0,0,0,0,0,0,0,0,0,0,0,0,0,0,0,0,0,0,0,0,0,0,0,0,0,0,0,0,0,0,0,0,0,0,0,0,0,0,0,0,0,0,0,0,0,0,0,0,0,0,0,0,0,0,0
"Ind131","1_0_8",77,45,46,46,47,46,46,46,46,46,46,46,46,21,21,21,21,21,20,20,20,20,20,20,20,19,19,19,19,19,20,19,19,19,19,19,19,21,22,22,21,21,21,21,21,21,21,20,20,20,21,21,21,20,19,19,19,19,19,18,18,18,17,17,17,17,17,17,17,17,17,18,18,20,20,20,20,19,20,20,20,19,19,19,20,23,23,23,23,22,22,22,22,22,22,23,22,5,5,5,5,5,4,5,5,5,5,5,7,3,3,4,4,4,4,4,3,3,3,3,3,1,1,1,1,1,1,1,0,0,-1,0,0,0,0,0,0,0,0,0,0,0,0,0,0,0,0,0,0,0,0,0,0,0,0,0,0,0,0,0,0,0,0,0,0,0,0,0,0,0,0,0,0,0,0,0,0,0,0,0,0,0,0,0,0,0,0,0,0,0,0,0,0
"Ind132","1_0_10",77,45,46,46,47,46,46,46,46,46,46,46,46,21,21,21,21,21,20,20,20,20,20,20,20,19,19,19,19,19,20,19,19,19,19,19,19,21,22,22,21,21,21,21,21,21,21,20,20,20,21,21,21,20,19,19,19,19,19,18,18,18,17,17,17,17,17,17,17,17,17,18,18,20,20,20,20,19,20,20,20,19,19,19,20,23,23,23,23,22,22,22,22,22,22,23,22,5,5,5,5,5,4,5,5,5,5,5,7,3,3,4,4,4,4,4,3,3,3,3,3,1,1,1,1,1,1,1,0,0,0,-1,0,0,0,0,0,0,0,0,0,0,0,0,0,0,0,0,0,0,0,0,0,0,0,0,0,0,0,0,0,0,0,0,0,0,0,0,0,0,0,0,0,0,0,0,0,0,0,0,0,0,0,0,0,0,0,0,0,0,0,0,0
"Ind133","1_0_1",76,44,45,45,46,45,45,45,45,45,45,45,45,20,20,20,20,20,19,19,19,19,19,19,19,18,18,18,18,18,19,18,18,18,18,18,18,20,21,21,20,20,20,20,20,20,20,19,19,19,20,20,20,19,18,18,18,18,18,17,17,17,16,16,16,16,16,16,16,16,16,17,17,19,19,19,19,18,19,19,19,18,18,18,19,22,22,22,22,21,21,21,21,21,21,22,21,4,4,4,4,4,3,4,4,4,4,4,6,2,2,3,3,3,3,3,2,2,2,2,2,0,0,2,2,2,2,2,1,1,1,1,-1,0,0,0,0,0,0,0,0,0,0,0,0,0,0,0,0,0,0,0,0,0,0,0,0,0,0,0,0,0,0,0,0,0,0,0,0,0,0,0,0,0,0,0,0,0,0,0,0,0,0,0,0,0,0,0,0,0,0,0,0
"Ind134","15_0_1",77,45,46,46,47,46,46,46,46,46,46,46,46,21,21,21,21,21,20,20,20,20,20,20,20,19,19,19,19,19,20,19,19,19,19,19,19,21,22,22,21,21,21,21,21,21,21,20,20,20,21,21,21,20,19,19,19,19,19,18,18,18,17,17,17,17,17,17,17,17,17,18,18,20,20,20,20,19,20,20,20,19,19,19,20,23,23,23,23,22,22,22,22,22,22,23,22,5,5,5,5,5,4,5,5,5,5,5,7,3,3,4,4,4,4,4,3,3,3,3,3,1,1,3,3,3,3,3,2,2,2,2,1,-1,0,0,0,0,0,0,0,0,0,0,0,0,0,0,0,0,0,0,0,0,0,0,0,0,0,0,0,0,0,0,0,0,0,0,0,0,0,0,0,0,0,0,0,0,0,0,0,0,0,0,0,0,0,0,0,0,0,0,0
"Ind135","15_0_0",77,45,46,46,47,46,46,46,46,46,46,46,46,21,21,21,21,21,20,20,20,20,20,20,20,19,19,19,19,19,20,19,19,19,19,19,19,21,22,22,21,21,21,21,21,21,21,20,20,20,21,21,21,20,19,19,19,19,19,18,18,18,17,17,17,17,17,17,17,17,17,18,18,20,20,20,20,19,20,20,20,19,19,19,20,23,23,23,23,22,22,22,22,22,22,23,22,5,5,5,5,5,4,5,5,5,5,5,7,3,3,4,4,4,4,4,3,3,3,3,3,1,1,3,3,3,3,3,2,2,2,2,1,0,-1,0,0,0,0,0,0,0,0,0,0,0,0,0,0,0,0,0,0,0,0,0,0,0,0,0,0,0,0,0,0,0,0,0,0,0,0,0,0,0,0,0,0,0,0,0,0,0,0,0,0,0,0,0,0,0,0,0,0
"Ind136","15_0_9",78,46,47,47,48,47,47,47,47,47,47,47,47,22,22,22,22,22,21,21,21,21,21,21,21,20,20,20,20,20,21,20,20,20,20,20,20,22,23,23,22,22,22,22,22,22,22,21,21,21,22,22,22,21,20,20,20,20,20,19,19,19,18,18,18,18,18,18,18,18,18,19,19,21,21,21,21,20,21,21,21,20,20,20,21,24,24,24,24,23,23,23,23,23,23,24,23,6,6,6,6,6,5,6,6,6,6,6,8,4,4,5,5,5,5,5,4,4,4,4,4,2,2,4,4,4,4,4,3,3,3,3,2,1,1,-1,0,0,0,0,0,0,0,0,0,0,0,0,0,0,0,0,0,0,0,0,0,0,0,0,0,0,0,0,0,0,0,0,0,0,0,0,0,0,0,0,0,0,0,0,0,0,0,0,0,0,0,0,0,0,0,0,0
"Ind137","15_0_10",78,46,47,47,48,47,47,47,47,47,47,47,47,22,22,22,22,22,21,21,21,21,21,21,21,20,20,20,20,20,21,20,20,20,20,20,20,22,23,23,22,22,22,22,22,22,22,21,21,21,22,22,22,21,20,20,20,20,20,19,19,19,18,18,18,18,18,18,18,18,18,19,19,21,21,21,21,20,21,21,21,20,20,20,21,24,24,24,24,23,23,23,23,23,23,24,23,6,6,6,6,6,5,6,6,6,6,6,8,4,4,5,5,5,5,5,4,4,4,4,4,2,2,4,4,4,4,4,3,3,3,3,2,1,1,0,-1,0,0,0,0,0,0,0,0,0,0,0,0,0,0,0,0,0,0,0,0,0,0,0,0,0,0,0,0,0,0,0,0,0,0,0,0,0,0,0,0,0,0,0,0,0,0,0,0,0,0,0,0,0,0,0,0
"Ind138","15_0_3",78,46,47,47,48,47,47,47,47,47,47,47,47,22,22,22,22,22,21,21,21,21,21,21,21,20,20,20,20,20,21,20,20,20,20,20,20,22,23,23,22,22,22,22,22,22,22,21,21,21,22,22,22,21,20,20,20,20,20,19,19,19,18,18,18,18,18,18,18,18,18,19,19,21,21,21,21,20,21,21,21,20,20,20,21,24,24,24,24,23,23,23,23,23,23,24,23,6,6,6,6,6,5,6,6,6,6,6,8,4,4,5,5,5,5,5,4,4,4,4,4,2,2,4,4,4,4,4,3,3,3,3,2,1,1,0,0,-1,0,0,0,0,0,0,0,0,0,0,0,0,0,0,0,0,0,0,0,0,0,0,0,0,0,0,0,0,0,0,0,0,0,0,0,0,0,0,0,0,0,0,0,0,0,0,0,0,0,0,0,0,0,0,0
"Ind139","15_0_7",78,46,47,47,48,47,47,47,47,47,47,47,47,22,22,22,22,22,21,21,21,21,21,21,21,20,20,20,20,20,21,20,20,20,20,20,20,22,23,23,22,22,22,22,22,22,22,21,21,21,22,22,22,21,20,20,20,20,20,19,19,19,18,18,18,18,18,18,18,18,18,19,19,21,21,21,21,20,21,21,21,20,20,20,21,24,24,24,24,23,23,23,23,23,23,24,23,6,6,6,6,6,5,6,6,6,6,6,8,4,4,5,5,5,5,5,4,4,4,4,4,2,2,4,4,4,4,4,3,3,3,3,2,1,1,0,0,0,-1,0,0,0,0,0,0,0,0,0,0,0,0,0,0,0,0,0,0,0,0,0,0,0,0,0,0,0,0,0,0,0,0,0,0,0,0,0,0,0,0,0,0,0,0,0,0,0,0,0,0,0,0,0,0
"Ind140","15_0_4",78,46,47,47,48,47,47,47,47,47,47,47,47,22,22,22,22,22,21,21,21,21,21,21,21,20,20,20,20,20,21,20,20,20,20,20,20,22,23,23,22,22,22,22,22,22,22,21,21,21,22,22,22,21,20,20,20,20,20,19,19,19,18,18,18,18,18,18,18,18,18,19,19,21,21,21,21,20,21,21,21,20,20,20,21,24,24,24,24,23,23,23,23,23,23,24,23,6,6,6,6,6,5,6,6,6,6,6,8,4,4,5,5,5,5,5,4,4,4,4,4,2,2,4,4,4,4,4,3,3,3,3,2,1,1,0,0,0,0,-1,0,0,0,0,0,0,0,0,0,0,0,0,0,0,0,0,0,0,0,0,0,0,0,0,0,0,0,0,0,0,0,0,0,0,0,0,0,0,0,0,0,0,0,0,0,0,0,0,0,0,0,0,0
"Ind141","15_0_6",78,46,47,47,48,47,47,47,47,47,47,47,47,22,22,22,22,22,21,21,21,21,21,21,21,20,20,20,20,20,21,20,20,20,20,20,20,22,23,23,22,22,22,22,22,22,22,21,21,21,22,22,22,21,20,20,20,20,20,19,19,19,18,18,18,18,18,18,18,18,18,19,19,21,21,21,21,20,21,21,21,20,20,20,21,24,24,24,24,23,23,23,23,23,23,24,23,6,6,6,6,6,5,6,6,6,6,6,8,4,4,5,5,5,5,5,4,4,4,4,4,2,2,4,4,4,4,4,3,3,3,3,2,1,1,0,0,0,0,0,-1,0,0,0,0,0,0,0,0,0,0,0,0,0,0,0,0,0,0,0,0,0,0,0,0,0,0,0,0,0,0,0,0,0,0,0,0,0,0,0,0,0,0,0,0,0,0,0,0,0,0,0,0
"Ind142","15_0_8",78,46,47,47,48,47,47,47,47,47,47,47,47,22,22,22,22,22,21,21,21,21,21,21,21,20,20,20,20,20,21,20,20,20,20,20,20,22,23,23,22,22,22,22,22,22,22,21,21,21,22,22,22,21,20,20,20,20,20,19,19,19,18,18,18,18,18,18,18,18,18,19,19,21,21,21,21,20,21,21,21,20,20,20,21,24,24,24,24,23,23,23,23,23,23,24,23,6,6,6,6,6,5,6,6,6,6,6,8,4,4,5,5,5,5,5,4,4,4,4,4,2,2,4,4,4,4,4,3,3,3,3,2,1,1,0,0,0,0,0,0,-1,0,0,0,0,0,0,0,0,0,0,0,0,0,0,0,0,0,0,0,0,0,0,0,0,0,0,0,0,0,0,0,0,0,0,0,0,0,0,0,0,0,0,0,0,0,0,0,0,0,0,0
"Ind143","15_0_2",78,46,47,47,48,47,47,47,47,47,47,47,47,24,24,24,24,24,23,23,23,23,23,23,23,22,22,22,22,22,23,22,22,22,22,22,22,24,25,25,24,24,24,24,24,24,24,23,23,23,24,24,24,23,22,22,22,22,22,21,21,21,20,20,20,20,20,20,20,20,20,21,21,23,23,23,23,22,23,23,23,22,22,22,23,26,26,26,26,23,23,23,23,23,23,24,23,8,8,8,8,8,7,8,8,8,8,8,10,6,6,7,7,7,7,7,6,6,6,6,6,4,4,6,6,6,6,6,5,5,5,5,4,3,3,2,2,2,2,2,2,2,-1,0,0,0,0,0,0,0,0,0,0,0,0,0,0,0,0,0,0,0,0,0,0,0,0,0,0,0,0,0,0,0,0,0,0,0,0,0,0,0,0,0,0,0,0,0,0,0,0,0,0
"Ind144","15_0_5",77,45,46,46,47,46,46,46,46,46,46,46,46,23,23,23,23,23,22,22,22,22,22,22,22,21,21,21,21,21,22,21,21,21,21,21,21,23,24,24,23,23,23,23,23,23,23,22,22,22,23,23,23,22,21,21,21,21,21,20,20,20,19,19,19,19,19,19,19,19,19,20,20,22,22,22,22,21,22,22,22,21,21,21,22,25,25,25,25,24,24,24,24,24,24,25,24,7,7,7,7,7,6,7,7,7,7,7,9,5,5,6,6,6,6,6,5,5,5,5,5,3,3,5,5,5,5,5,4,4,4,4,3,2,2,1,1,1,1,1,1,1,1,-1,0,0,0,0,0,0,0,0,0,0,0,0,0,0,0,0,0,0,0,0,0,0,0,0,0,0,0,0,0,0,0,0,0,0,0,0,0,0,0,0,0,0,0,0,0,0,0,0,0
"Ind145","15_0_11",77,45,46,46,47,46,46,46,46,46,46,46,46,23,23,23,23,23,22,22,22,22,22,22,22,21,21,21,21,21,22,21,21,21,21,21,21,23,24,24,23,23,23,23,23,23,23,22,22,22,23,23,23,22,21,21,21,21,21,20,20,20,19,19,19,19,19,19,19,19,19,20,20,22,22,22,22,21,22,22,22,21,21,21,22,25,25,25,25,24,24,24,24,24,24,25,24,7,7,7,7,7,6,7,7,7,7,7,9,5,5,6,6,6,6,6,5,5,5,5,5,3,3,5,5,5,5,5,4,4,4,4,3,2,2,1,1,1,1,1,1,1,1,0,-1,0,0,0,0,0,0,0,0,0,0,0,0,0,0,0,0,0,0,0,0,0,0,0,0,0,0,0,0,0,0,0,0,0,0,0,0,0,0,0,0,0,0,0,0,0,0,0,0
"Ind146","6_0_5",77,45,46,46,47,46,46,46,46,46,46,46,46,19,19,19,19,19,18,18,18,18,18,18,18,17,17,17,17,17,18,17,17,17,17,17,17,21,22,22,21,21,21,21,21,21,21,20,20,20,21,21,21,20,19,19,19,19,19,18,18,18,17,17,17,17,17,17,17,17,17,18,18,18,18,18,18,19,20,20,20,19,19,19,20,23,23,23,23,22,22,22,22,22,22,23,22,7,7,7,7,7,6,7,7,7,7,7,9,3,3,4,4,4,4,4,3,3,3,3,3,3,3,3,3,3,5,5,4,4,4,4,3,4,4,5,5,5,5,5,5,5,7,6,6,-1,0,0,0,0,0,0,0,0,0,0,0,0,0,0,0,0,0,0,0,0,0,0,0,0,0,0,0,0,0,0,0,0,0,0,0,0,0,0,0,0,0,0,0,0,0,0,0
"Ind147","6_0_9",77,45,46,46,47,46,46,46,46,46,46,46,46,19,19,19,19,19,18,18,18,18,18,18,18,17,17,17,17,17,18,17,17,17,17,17,17,21,22,22,21,21,21,21,21,21,21,20,20,20,21,21,21,20,19,19,19,19,19,18,18,18,17,17,17,17,17,17,17,17,17,18,18,18,18,18,18,19,20,20,20,19,19,19,20,23,23,23,23,22,22,22,22,22,22,23,22,7,7,7,7,7,6,7,7,7,7,7,9,3,3,4,4,4,4,4,3,3,3,3,3,3,3,3,3,3,5,5,4,4,4,4,3,4,4,5,5,5,5,5,5,5,7,6,6,0,-1,0,0,0,0,0,0,0,0,0,0,0,0,0,0,0,0,0,0,0,0,0,0,0,0,0,0,0,0,0,0,0,0,0,0,0,0,0,0,0,0,0,0,0,0,0,0
"Ind148","6_0_3",77,45,46,46,47,46,46,46,46,46,46,46,46,19,19,19,19,19,18,18,18,18,18,18,18,17,17,17,17,17,18,17,17,17,17,17,17,21,22,22,21,21,21,21,21,21,21,20,20,20,21,21,21,20,19,19,19,19,19,18,18,18,17,17,17,17,17,17,17,17,17,18,18,18,18,18,18,19,20,20,20,19,19,19,20,23,23,23,23,22,22,22,22,22,22,23,22,7,7,7,7,7,6,7,7,7,7,7,9,3,3,4,4,4,4,4,3,3,3,3,3,3,3,3,3,3,5,5,4,4,4,4,3,4,4,5,5,5,5,5,5,5,7,6,6,0,0,-1,0,0,0,0,0,0,0,0,0,0,0,0,0,0,0,0,0,0,0,0,0,0,0,0,0,0,0,0,0,0,0,0,0,0,0,0,0,0,0,0,0,0,0,0,0
"Ind149","3_0_1",75,45,46,46,47,46,46,46,46,46,46,46,46,19,19,19,19,19,18,18,18,18,18,18,18,17,17,17,17,17,18,17,17,17,17,17,17,21,22,22,21,21,21,21,21,21,21,20,20,20,21,21,21,20,19,19,19,19,19,18,18,18,17,17,17,17,17,17,17,17,17,18,18,20,20,20,20,19,20,20,20,19,19,19,20,23,23,23,23,22,22,22,22,22,22,23,22,7,7,7,7,7,6,7,7,7,7,7,9,3,3,4,4,4,4,4,3,3,3,3,3,3,3,3,3,3,5,5,4,4,4,4,3,4,4,5,5,5,5,5,5,5,7,6,6,2,2,2,-1,0,0,0,0,0,0,0,0,0,0,0,0,0,0,0,0,0,0,0,0,0,0,0,0,0,0,0,0,0,0,0,0,0,0,0,0,0,0,0,0,0,0,0,0
"Ind150","3_0_7",75,45,46,46,47,46,46,46,46,46,46,46,46,19,19,19,19,19,18,18,18,18,18,18,18,17,17,17,17,17,18,17,17,17,17,17,17,21,22,22,21,21,21,21,21,21,21,20,20,20,21,21,21,20,19,19,19,19,19,18,18,18,17,17,17,17,17,17,17,17,17,18,18,20,20,20,20,19,20,20,20,19,19,19,20,23,23,23,23,22,22,22,22,22,22,23,22,7,7,7,7,7,6,7,7,7,7,7,9,3,3,4,4,4,4,4,3,3,3,3,3,3,3,3,3,3,5,5,4,4,4,4,3,4,4,5,5,5,5,5,5,5,7,6,6,2,2,2,0,-1,0,0,0,0,0,0,0,0,0,0,0,0,0,0,0,0,0,0,0,0,0,0,0,0,0,0,0,0,0,0,0,0,0,0,0,0,0,0,0,0,0,0,0
"Ind151","3_0_10",75,45,46,46,47,46,46,46,46,46,46,46,46,19,19,19,19,19,18,18,18,18,18,18,18,17,17,17,17,17,18,17,17,17,17,17,17,21,22,22,21,21,21,21,21,21,21,20,20,20,21,21,21,20,19,19,19,19,19,18,18,18,17,17,17,17,17,17,17,17,17,18,18,20,20,20,20,19,20,20,20,19,19,19,20,23,23,23,23,22,22,22,22,22,22,23,22,7,7,7,7,7,6,7,7,7,7,7,9,3,3,4,4,4,4,4,3,3,3,3,3,3,3,3,3,3,5,5,4,4,4,4,3,4,4,5,5,5,5,5,5,5,7,6,6,2,2,2,0,0,-1,0,0,0,0,0,0,0,0,0,0,0,0,0,0,0,0,0,0,0,0,0,0,0,0,0,0,0,0,0,0,0,0,0,0,0,0,0,0,0,0,0,0
"Ind152","3_0_0",75,45,46,46,47,46,46,46,46,46,46,46,46,19,19,19,19,19,18,18,18,18,18,18,18,17,17,17,17,17,18,17,17,17,17,17,17,21,22,22,21,21,21,21,21,21,21,20,20,20,21,21,21,20,19,19,19,19,19,18,18,18,17,17,17,17,17,17,17,17,17,18,18,20,20,20,20,19,20,20,20,19,19,19,20,23,23,23,23,22,22,22,22,22,22,23,22,7,7,7,7,7,6,7,7,7,7,7,9,3,3,4,4,4,4,4,3,3,3,3,3,3,3,3,3,3,5,5,4,4,4,4,3,4,4,5,5,5,5,5,5,5,7,6,6,2,2,2,0,0,0,-1,0,0,0,0,0,0,0,0,0,0,0,0,0,0,0,0,0,0,0,0,0,0,0,0,0,0,0,0,0,0,0,0,0,0,0,0,0,0,0,0,0
"Ind153","3_0_3",75,45,46,46,47,46,46,46,46,46,46,46,46,19,19,19,19,19,18,18,18,18,18,18,18,17,17,17,17,17,18,17,17,17,17,17,17,21,22,22,21,21,21,21,21,21,21,20,20,20,21,21,21,20,19,19,19,19,19,18,18,18,17,17,17,17,17,17,17,17,17,18,18,20,20,20,20,19,20,20,20,19,19,19,20,23,23,23,23,22,22,22,22,22,22,23,22,7,7,7,7,7,6,7,7,7,7,7,9,3,3,4,4,4,4,4,3,3,3,3,3,3,3,3,3,3,5,5,4,4,4,4,3,4,4,5,5,5,5,5,5,5,7,6,6,2,2,2,0,0,0,0,-1,0,0,0,0,0,0,0,0,0,0,0,0,0,0,0,0,0,0,0,0,0,0,0,0,0,0,0,0,0,0,0,0,0,0,0,0,0,0,0,0
"Ind154","3_0_4",75,45,46,46,47,46,46,46,46,46,46,46,46,19,19,19,19,19,18,18,18,18,18,18,18,17,17,17,17,17,18,17,17,17,17,17,17,21,22,22,21,21,21,21,21,21,21,20,20,20,21,21,21,20,19,19,19,19,19,18,18,18,17,17,17,17,17,17,17,17,17,18,18,20,20,20,20,19,20,20,20,19,19,19,20,23,23,23,23,22,22,22,22,22,22,23,22,7,7,7,7,7,6,7,7,7,7,7,9,3,3,4,4,4,4,4,3,3,3,3,3,3,3,3,3,3,5,5,4,4,4,4,3,4,4,5,5,5,5,5,5,5,7,6,6,2,2,2,0,0,0,0,0,-1,0,0,0,0,0,0,0,0,0,0,0,0,0,0,0,0,0,0,0,0,0,0,0,0,0,0,0,0,0,0,0,0,0,0,0,0,0,0,0
"Ind155","3_0_8",75,45,46,46,47,46,46,46,46,46,46,46,46,19,19,19,19,19,18,18,18,18,18,18,18,17,17,17,17,17,18,17,17,17,17,17,17,21,22,22,21,21,21,21,21,21,21,20,20,20,21,21,21,20,19,19,19,19,19,18,18,18,17,17,17,17,17,17,17,17,17,18,18,20,20,20,20,19,20,20,20,19,19,19,20,23,23,23,23,22,22,22,22,22,22,23,22,7,7,7,7,7,6,7,7,7,7,7,9,3,3,4,4,4,4,4,3,3,3,3,3,3,3,3,3,3,5,5,4,4,4,4,3,4,4,5,5,5,5,5,5,5,7,6,6,2,2,2,0,0,0,0,0,0,-1,0,0,0,0,0,0,0,0,0,0,0,0,0,0,0,0,0,0,0,0,0,0,0,0,0,0,0,0,0,0,0,0,0,0,0,0,0,0
"Ind156","3_0_9",75,45,46,46,47,46,46,46,46,46,46,46,46,19,19,19,19,19,18,18,18,18,18,18,18,17,17,17,17,17,18,17,17,17,17,17,17,21,22,22,21,21,21,21,21,21,21,20,20,20,21,21,21,20,19,19,19,19,19,18,18,18,17,17,17,17,17,17,17,17,17,18,18,20,20,20,20,19,20,20,20,19,19,19,20,23,23,23,23,22,22,22,22,22,22,23,22,7,7,7,7,7,6,7,7,7,7,7,9,3,3,4,4,4,4,4,3,3,3,3,3,3,3,3,3,3,5,5,4,4,4,4,3,4,4,5,5,5,5,5,5,5,7,6,6,2,2,2,0,0,0,0,0,0,0,-1,0,0,0,0,0,0,0,0,0,0,0,0,0,0,0,0,0,0,0,0,0,0,0,0,0,0,0,0,0,0,0,0,0,0,0,0,0
"Ind157","3_0_11",75,45,46,46,47,46,46,46,46,46,46,46,46,19,19,19,19,19,18,18,18,18,18,18,18,17,17,17,17,17,18,17,17,17,17,17,17,21,22,22,21,21,21,21,21,21,21,20,20,20,21,21,21,20,19,19,19,19,19,18,18,18,17,17,17,17,17,17,17,17,17,18,18,20,20,20,20,19,20,20,20,19,19,19,20,23,23,23,23,22,22,22,22,22,22,23,22,7,7,7,7,7,6,7,7,7,7,7,9,3,3,4,4,4,4,4,3,3,3,3,3,3,3,3,3,3,5,5,4,4,4,4,3,4,4,5,5,5,5,5,5,5,7,6,6,2,2,2,0,0,0,0,0,0,0,0,-1,0,0,0,0,0,0,0,0,0,0,0,0,0,0,0,0,0,0,0,0,0,0,0,0,0,0,0,0,0,0,0,0,0,0,0,0
"Ind158","3_0_5",75,45,46,46,47,46,46,46,46,46,46,46,46,19,19,19,19,19,18,18,18,18,18,18,18,17,17,17,17,17,18,17,17,17,17,17,17,21,22,22,21,21,21,21,21,21,21,20,20,20,21,21,21,20,19,19,19,19,19,18,18,18,17,17,17,17,17,17,17,17,17,18,18,20,20,20,20,19,20,20,20,19,19,19,20,23,23,23,23,22,22,22,22,22,22,23,22,7,7,7,7,7,6,7,7,7,7,7,9,3,3,4,4,4,4,4,3,3,3,3,3,3,3,3,3,3,5,5,4,4,4,4,3,4,4,5,5,5,5,5,5,5,7,6,6,2,2,2,0,0,0,0,0,0,0,0,0,-1,0,0,0,0,0,0,0,0,0,0,0,0,0,0,0,0,0,0,0,0,0,0,0,0,0,0,0,0,0,0,0,0,0,0,0
"Ind159","3_0_2",75,45,46,46,47,46,46,46,46,46,46,46,46,19,19,19,19,19,18,18,18,18,18,18,18,17,17,17,17,17,18,17,17,17,17,17,17,21,22,22,21,21,21,21,21,21,21,20,20,20,21,21,21,20,19,19,19,19,19,18,18,18,17,17,17,17,17,17,17,17,17,18,18,20,20,20,20,19,20,20,20,19,19,19,20,23,23,23,23,22,22,22,22,22,22,23,22,7,7,7,7,7,6,7,7,7,7,7,9,3,3,4,4,4,4,4,3,3,3,3,3,3,3,3,3,3,5,5,4,4,4,4,3,4,4,5,5,5,5,5,5,5,7,6,6,2,2,2,0,0,0,0,0,0,0,0,0,0,-1,0,0,0,0,0,0,0,0,0,0,0,0,0,0,0,0,0,0,0,0,0,0,0,0,0,0,0,0,0,0,0,0,0,0
"Ind160","3_0_6",76,46,47,47,48,47,47,47,47,47,47,47,47,20,20,20,20,20,19,19,19,19,19,19,19,18,18,18,18,18,19,18,18,18,18,18,18,22,23,23,22,22,22,22,22,22,22,21,21,21,22,22,22,21,20,20,20,20,20,19,19,19,18,18,18,18,18,18,18,18,18,19,19,21,21,21,21,20,21,21,21,20,20,20,21,24,24,24,24,23,23,23,23,23,23,24,23,8,8,8,8,8,7,8,8,8,8,8,10,4,4,5,5,5,5,5,4,4,4,4,4,4,4,4,4,4,6,6,5,5,5,5,4,5,5,6,6,6,6,6,6,6,8,7,7,3,3,3,1,1,1,1,1,1,1,1,1,1,1,-1,0,0,0,0,0,0,0,0,0,0,0,0,0,0,0,0,0,0,0,0,0,0,0,0,0,0,0,0,0,0,0,0,0
"Ind161","6_0_2",77,47,48,48,49,48,48,48,48,48,48,48,48,21,21,21,21,21,20,20,20,20,20,20,20,19,19,19,19,19,20,19,19,19,19,19,19,23,24,24,23,23,23,23,23,23,23,22,22,22,23,23,23,22,21,21,21,21,21,20,20,20,19,19,19,19,19,19,19,19,19,20,20,22,22,22,22,21,22,22,22,21,21,21,22,25,25,25,25,24,24,24,24,24,24,25,24,9,9,9,9,9,8,9,9,9,9,9,11,5,5,6,6,6,6,6,5,5,5,5,5,5,5,5,5,5,7,7,6,6,6,6,5,6,6,7,7,7,7,7,7,7,9,8,8,4,4,4,4,4,4,4,4,4,4,4,4,4,4,5,-1,0,0,0,0,0,0,0,0,0,0,0,0,0,0,0,0,0,0,0,0,0,0,0,0,0,0,0,0,0,0,0,0
"Ind162","6_0_6",77,47,48,48,49,48,48,48,48,48,48,48,48,21,21,21,21,21,20,20,20,20,20,20,20,19,19,19,19,19,20,19,19,19,19,19,19,23,24,24,23,23,23,23,23,23,23,22,22,22,23,23,23,22,21,21,21,21,21,20,20,20,19,19,19,19,19,19,19,19,19,20,20,22,22,22,22,21,22,22,22,21,21,21,22,25,25,25,25,24,24,24,24,24,24,25,24,9,9,9,9,9,8,9,9,9,9,9,11,5,5,6,6,6,6,6,5,5,5,5,5,5,5,5,5,5,7,7,6,6,6,6,5,6,6,7,7,7,7,7,7,7,9,8,8,4,4,4,4,4,4,4,4,4,4,4,4,4,4,5,0,-1,0,0,0,0,0,0,0,0,0,0,0,0,0,0,0,0,0,0,0,0,0,0,0,0,0,0,0,0,0,0,0
"Ind163","6_0_7",77,47,48,48,49,48,48,48,48,48,48,48,48,21,21,21,21,21,20,20,20,20,20,20,20,19,19,19,19,19,20,19,19,19,19,19,19,23,24,24,23,23,23,23,23,23,23,22,22,22,23,23,23,22,21,21,21,21,21,20,20,20,19,19,19,19,19,19,19,19,19,20,20,22,22,22,22,21,22,22,22,21,21,21,22,25,25,25,25,24,24,24,24,24,24,25,24,9,9,9,9,9,8,9,9,9,9,9,11,5,5,6,6,6,6,6,5,5,5,5,5,5,5,5,5,5,7,7,6,6,6,6,5,6,6,7,7,7,7,7,7,7,9,8,8,4,4,4,4,4,4,4,4,4,4,4,4,4,4,5,0,0,-1,0,0,0,0,0,0,0,0,0,0,0,0,0,0,0,0,0,0,0,0,0,0,0,0,0,0,0,0,0,0
"Ind164","6_0_11",77,47,48,48,49,48,48,48,48,48,48,48,48,21,21,21,21,21,20,20,20,20,20,20,20,19,19,19,19,19,20,19,19,19,19,19,19,23,24,24,23,23,23,23,23,23,23,22,22,22,23,23,23,22,21,21,21,21,21,20,20,20,19,19,19,19,19,19,19,19,19,20,20,22,22,22,22,21,22,22,22,21,21,21,22,25,25,25,25,24,24,24,24,24,24,25,24,9,9,9,9,9,8,9,9,9,9,9,11,5,5,6,6,6,6,6,5,5,5,5,5,5,5,5,5,5,7,7,6,6,6,6,5,6,6,7,7,7,7,7,7,7,9,8,8,4,4,4,4,4,4,4,4,4,4,4,4,4,4,5,0,0,0,-1,0,0,0,0,0,0,0,0,0,0,0,0,0,0,0,0,0,0,0,0,0,0,0,0,0,0,0,0,0
"Ind165","6_0_0",77,47,48,48,49,48,48,48,48,48,48,48,48,21,21,21,21,21,20,20,20,20,20,20,20,19,19,19,19,19,20,19,19,19,19,19,19,23,24,24,23,23,23,23,23,23,23,22,22,22,23,23,23,22,21,21,21,21,21,20,20,20,19,19,19,19,19,19,19,19,19,20,20,22,22,22,22,21,22,22,22,21,21,21,22,25,25,25,25,24,24,24,24,24,24,25,24,9,9,9,9,9,8,9,9,9,9,9,11,5,5,6,6,6,6,6,5,5,5,5,5,5,5,5,5,5,7,7,6,6,6,6,5,6,6,7,7,7,7,7,7,7,9,8,8,4,4,4,4,4,4,4,4,4,4,4,4,4,4,5,0,0,0,0,-1,0,0,0,0,0,0,0,0,0,0,0,0,0,0,0,0,0,0,0,0,0,0,0,0,0,0,0,0
"Ind166","6_0_10",77,47,48,48,49,48,48,48,48,48,48,48,48,21,21,21,21,21,20,20,20,20,20,20,20,19,19,19,19,19,20,19,19,19,19,19,19,23,24,24,23,23,23,23,23,23,23,22,22,22,23,23,23,22,21,21,21,21,21,20,20,20,19,19,19,19,19,19,19,19,19,20,20,22,22,22,22,21,22,22,22,21,21,21,22,25,25,25,25,24,24,24,24,24,24,25,24,9,9,9,9,9,8,9,9,9,9,9,11,5,5,6,6,6,6,6,5,5,5,5,5,5,5,5,5,5,7,7,6,6,6,6,5,6,6,7,7,7,7,7,7,7,9,8,8,4,4,4,4,4,4,4,4,4,4,4,4,4,4,5,0,0,0,0,0,-1,0,0,0,0,0,0,0,0,0,0,0,0,0,0,0,0,0,0,0,0,0,0,0,0,0,0,0
"Ind167","6_0_8",77,47,48,48,49,48,48,48,48,48,48,48,48,21,21,21,21,21,20,20,20,20,20,20,20,19,19,19,19,19,20,19,19,19,19,19,19,23,24,24,23,23,23,23,23,23,23,22,22,22,23,23,23,22,21,21,21,21,21,20,20,20,19,19,19,19,19,19,19,19,19,20,20,22,22,22,22,21,22,22,22,21,21,21,22,25,25,25,25,24,24,24,24,24,24,25,24,9,9,9,9,9,8,9,9,9,9,9,11,5,5,6,6,6,6,6,5,5,5,5,5,5,5,5,5,5,7,7,6,6,6,6,5,6,6,7,7,7,7,7,7,7,9,8,8,4,4,4,4,4,4,4,4,4,4,4,4,4,4,5,0,0,0,0,0,0,-1,0,0,0,0,0,0,0,0,0,0,0,0,0,0,0,0,0,0,0,0,0,0,0,0,0,0
"Ind168","6_0_4",77,47,48,48,49,48,48,48,48,48,48,48,48,21,21,21,21,21,20,20,20,20,20,20,20,19,19,19,19,19,20,19,19,19,19,19,19,23,24,24,23,23,23,23,23,23,23,22,22,22,23,23,23,22,21,21,21,21,21,20,20,20,19,19,19,19,19,19,19,19,19,20,20,22,22,22,22,21,22,22,22,21,21,21,22,25,25,25,25,24,24,24,24,24,24,25,24,9,9,9,9,9,8,9,9,9,9,9,11,5,5,6,6,6,6,6,5,5,5,5,5,5,5,5,5,5,7,7,6,6,6,6,5,6,6,7,7,7,7,7,7,7,9,8,8,4,4,4,4,4,4,4,4,4,4,4,4,4,4,5,0,0,0,0,0,0,0,-1,0,0,0,0,0,0,0,0,0,0,0,0,0,0,0,0,0,0,0,0,0,0,0,0,0
"Ind169","6_0_1",77,47,48,48,49,48,48,48,48,48,48,48,48,21,21,21,21,21,20,20,20,20,20,20,20,19,19,19,19,19,20,19,19,19,19,19,19,23,24,24,23,23,23,23,23,23,23,22,22,22,23,23,23,22,21,21,21,21,21,20,20,20,19,19,19,19,19,19,19,19,19,20,20,22,22,22,22,21,22,22,22,21,21,21,22,25,25,25,25,24,24,24,24,24,24,25,24,9,9,9,9,9,8,9,9,9,9,9,11,5,5,6,6,6,6,6,5,5,5,5,5,5,5,5,5,5,7,7,6,6,6,6,5,6,6,7,7,7,7,7,7,7,9,8,8,4,4,4,4,4,4,4,4,4,4,4,4,4,4,5,0,0,0,0,0,0,0,0,-1,0,0,0,0,0,0,0,0,0,0,0,0,0,0,0,0,0,0,0,0,0,0,0,0
"Ind170","12_0_11",80,48,49,49,50,49,49,49,49,49,49,49,49,22,22,22,22,22,21,21,21,23,23,23,23,22,22,22,22,22,23,22,22,22,22,22,22,24,25,25,24,24,24,24,24,24,24,23,23,23,24,24,24,23,22,22,22,22,22,21,21,21,20,20,20,20,20,20,20,20,20,21,21,23,23,23,23,22,23,23,23,22,22,22,23,26,26,26,26,25,25,25,25,25,25,26,25,18,18,18,18,18,17,18,16,16,18,18,20,16,16,17,17,17,17,17,16,16,16,16,16,14,14,16,16,16,16,16,15,15,15,15,14,15,15,16,16,16,16,16,16,16,18,17,17,17,17,17,17,17,17,17,17,17,17,17,17,17,17,18,19,19,19,19,19,19,19,19,19,-1,0,0,0,0,0,0,0,0,0,0,0,0,0,0,0,0,0,0,0,0,0,0,0
"Ind171","12_0_6",80,48,49,49,50,49,49,49,49,49,49,49,49,22,22,22,22,22,21,21,21,23,23,23,23,22,22,22,22,22,23,22,22,22,22,22,22,24,25,25,24,24,24,24,24,24,24,23,23,23,24,24,24,23,22,22,22,22,22,21,21,21,20,20,20,20,20,20,20,20,20,21,21,23,23,23,23,22,23,23,23,22,22,22,23,26,26,26,26,25,25,25,25,25,25,26,25,18,18,18,18,18,17,18,16,16,18,18,20,16,16,17,17,17,17,17,16,16,16,16,16,14,14,16,16,16,16,16,15,15,15,15,14,15,15,16,16,16,16,16,16,16,18,17,17,17,17,17,17,17,17,17,17,17,17,17,17,17,17,18,19,19,19,19,19,19,19,19,19,0,-1,0,0,0,0,0,0,0,0,0,0,0,0,0,0,0,0,0,0,0,0,0,0
"Ind172","12_0_8",80,48,49,49,50,49,49,49,49,49,49,49,49,22,22,22,22,22,21,21,21,23,23,23,23,22,22,22,22,22,23,22,22,22,22,22,22,24,25,25,24,24,24,24,24,24,24,23,23,23,24,24,24,23,22,22,22,22,22,21,21,21,20,20,20,20,20,20,20,20,20,21,21,23,23,23,23,22,23,23,23,22,22,22,23,26,26,26,26,25,25,25,25,25,25,26,25,18,18,18,18,18,17,18,16,16,18,18,20,16,16,17,17,17,17,17,16,16,16,16,16,14,14,16,16,16,16,16,15,15,15,15,14,15,15,16,16,16,16,16,16,16,18,17,17,17,17,17,17,17,17,17,17,17,17,17,17,17,17,18,19,19,19,19,19,19,19,19,19,0,0,-1,0,0,0,0,0,0,0,0,0,0,0,0,0,0,0,0,0,0,0,0,0
"Ind173","12_0_0",80,48,49,49,50,49,49,49,49,49,49,49,49,22,22,22,22,22,21,21,21,23,23,23,23,22,22,22,22,22,23,22,22,22,22,22,22,24,25,25,24,24,24,24,24,24,24,23,23,23,24,24,24,23,22,22,22,22,22,21,21,21,20,20,20,20,20,20,20,20,20,21,21,23,23,23,23,22,23,23,23,22,22,22,23,26,26,26,26,25,25,25,25,25,25,26,25,18,18,18,18,18,17,18,16,16,18,18,20,16,16,17,17,17,17,17,16,16,16,16,16,14,14,16,16,16,16,16,15,15,15,15,14,15,15,16,16,16,16,16,16,16,18,17,17,17,17,17,17,17,17,17,17,17,17,17,17,17,17,18,19,19,19,19,19,19,19,19,19,0,0,0,-1,0,0,0,0,0,0,0,0,0,0,0,0,0,0,0,0,0,0,0,0
"Ind174","12_0_1",78,50,51,51,52,51,51,51,51,51,51,51,51,24,24,24,24,24,23,23,23,25,25,25,25,24,24,24,24,24,25,24,24,24,24,24,24,26,27,27,26,26,26,26,26,26,26,25,25,25,26,26,26,25,24,24,24,24,24,23,23,23,22,22,22,22,22,22,22,22,22,23,23,25,25,25,25,24,25,25,25,24,24,24,25,28,28,28,28,27,27,27,27,27,27,28,27,18,18,18,18,18,17,18,16,16,18,18,20,16,16,17,17,17,17,17,16,16,16,16,16,14,14,16,16,16,16,16,15,15,15,15,14,15,15,16,16,16,16,16,16,16,18,17,17,17,17,17,17,17,17,17,17,17,17,17,17,17,17,18,19,19,19,19,19,19,19,19,19,2,2,2,2,-1,0,0,0,0,0,0,0,0,0,0,0,0,0,0,0,0,0,0,0
"Ind175","12_0_2",79,49,50,50,51,50,50,50,50,50,50,50,50,23,23,23,23,23,22,22,22,24,24,24,24,23,23,23,23,23,24,23,23,23,23,23,23,25,26,26,25,25,25,25,25,25,25,24,24,24,25,25,25,24,23,23,23,23,23,22,22,22,21,21,21,21,21,21,21,21,21,22,22,24,24,24,24,23,24,24,24,23,23,23,24,27,27,27,27,26,26,26,26,26,26,27,26,19,19,19,19,19,18,19,17,17,19,19,21,17,17,18,18,18,18,18,17,17,17,17,17,15,15,17,17,17,17,17,16,16,16,16,15,16,16,17,17,17,17,17,17,17,19,18,18,18,18,18,18,18,18,18,18,18,18,18,18,18,18,19,20,20,20,20,20,20,20,20,20,1,1,1,1,1,-1,0,0,0,0,0,0,0,0,0,0,0,0,0,0,0,0,0,0
"Ind176","12_0_9",79,47,48,48,49,48,48,48,48,48,48,48,48,23,23,23,23,23,22,22,22,22,22,22,22,21,21,21,21,21,22,21,21,21,21,21,21,23,24,24,23,23,23,23,23,23,23,22,22,22,23,23,23,22,21,21,21,21,21,20,20,20,19,19,19,19,19,19,19,19,19,20,20,22,22,22,22,21,22,22,22,21,21,21,22,25,25,25,25,24,24,24,24,24,24,25,24,17,17,17,17,17,16,17,17,17,17,17,19,15,15,16,16,16,16,16,15,15,15,15,15,13,13,15,15,15,15,15,14,14,14,14,13,14,14,15,15,15,15,15,15,15,17,16,16,16,16,16,16,16,16,16,16,16,16,16,16,16,16,17,18,18,18,18,18,18,18,18,18,1,1,1,1,3,2,-1,0,0,0,0,0,0,0,0,0,0,0,0,0,0,0,0,0
"Ind177","12_0_7",79,47,48,48,49,48,48,48,48,48,48,48,48,23,23,23,23,23,22,22,22,22,22,22,22,21,21,21,21,21,22,21,21,21,21,21,21,23,24,24,23,23,23,23,23,23,23,22,22,22,23,23,23,22,21,21,21,21,21,20,20,20,19,19,19,19,19,19,19,19,19,20,20,22,22,22,22,21,22,22,22,21,21,21,22,25,25,25,25,24,24,24,24,24,24,25,24,17,17,17,17,17,16,17,17,17,17,17,19,15,15,16,16,16,16,16,15,15,15,15,15,13,13,15,15,15,15,15,14,14,14,14,13,14,14,15,15,15,15,15,15,15,17,16,16,16,16,16,16,16,16,16,16,16,16,16,16,16,16,17,18,18,18,18,18,18,18,18,18,1,1,1,1,3,2,0,-1,0,0,0,0,0,0,0,0,0,0,0,0,0,0,0,0
"Ind178","12_0_4",79,47,48,48,49,48,48,48,48,48,48,48,48,23,23,23,23,23,22,22,22,22,22,22,22,21,21,21,21,21,22,21,21,21,21,21,21,23,24,24,23,23,23,23,23,23,23,22,22,22,23,23,23,22,21,21,21,21,21,20,20,20,19,19,19,19,19,19,19,19,19,20,20,22,22,22,22,21,22,22,22,21,21,21,22,25,25,25,25,24,24,24,24,24,24,25,24,17,17,17,17,17,16,17,17,17,17,17,19,15,15,16,16,16,16,16,15,15,15,15,15,13,13,15,15,15,15,15,14,14,14,14,13,14,14,15,15,15,15,15,15,15,17,16,16,16,16,16,16,16,16,16,16,16,16,16,16,16,16,17,18,18,18,18,18,18,18,18,18,1,1,1,1,3,2,0,0,-1,0,0,0,0,0,0,0,0,0,0,0,0,0,0,0
"Ind179","12_0_5",79,47,48,48,49,48,48,48,48,48,48,48,48,23,23,23,23,23,22,22,22,22,22,22,22,21,21,21,21,21,22,21,21,21,21,21,21,23,24,24,23,23,23,23,23,23,23,22,22,22,23,23,23,22,21,21,21,21,21,20,20,20,19,19,19,19,19,19,19,19,19,20,20,22,22,22,22,21,22,22,22,21,21,21,22,25,25,25,25,24,24,24,24,24,24,25,24,17,17,17,17,17,16,17,17,17,17,17,19,15,15,16,16,16,16,16,15,15,15,15,15,13,13,15,15,15,15,15,14,14,14,14,13,14,14,15,15,15,15,15,15,15,17,16,16,16,16,16,16,16,16,16,16,16,16,16,16,16,16,17,18,18,18,18,18,18,18,18,18,1,1,1,1,3,2,0,0,0,-1,0,0,0,0,0,0,0,0,0,0,0,0,0,0
"Ind180","12_0_3",79,47,48,48,49,48,48,48,48,48,48,48,48,23,23,23,23,23,22,22,22,22,22,22,22,21,21,21,21,21,22,21,21,21,21,21,21,23,24,24,23,23,23,23,23,23,23,22,22,22,23,23,23,22,21,21,21,21,21,20,20,20,19,19,19,19,19,19,19,19,19,20,20,22,22,22,22,21,22,22,22,21,21,21,22,25,25,25,25,24,24,24,24,24,24,25,24,17,17,17,17,17,16,17,17,17,17,17,19,15,15,16,16,16,16,16,15,15,15,15,15,13,13,15,15,15,15,15,14,14,14,14,13,14,14,15,15,15,15,15,15,15,17,16,16,16,16,16,16,16,16,16,16,16,16,16,16,16,16,17,18,18,18,18,18,18,18,18,18,1,1,1,1,3,2,0,0,0,0,-1,0,0,0,0,0,0,0,0,0,0,0,0,0
"Ind181","12_0_10",78,48,49,49,50,49,49,49,49,49,49,49,49,24,24,24,24,24,23,23,23,23,23,23,23,22,22,22,22,22,23,22,22,22,22,22,22,24,25,25,24,24,24,24,24,24,24,23,23,23,24,24,24,23,22,22,22,22,22,21,21,21,20,20,20,20,20,20,20,20,20,21,21,23,23,23,23,22,23,23,23,22,22,22,23,26,26,26,26,25,25,25,25,25,25,26,25,18,18,18,18,18,17,18,18,18,18,18,20,16,16,17,17,17,17,17,16,16,16,16,16,14,14,16,16,16,16,16,15,15,15,15,14,15,15,16,16,16,16,16,16,16,18,17,17,17,17,17,17,17,17,17,17,17,17,17,17,17,17,18,19,19,19,19,19,19,19,19,19,2,2,2,2,4,3,1,1,1,1,1,-1,0,0,0,0,0,0,0,0,0,0,0,0
"Ind182","11_0_1",83,47,48,48,49,48,48,48,48,48,48,48,48,25,25,25,25,25,24,24,24,24,24,24,24,23,23,23,23,23,24,23,23,23,23,23,23,23,24,24,23,23,23,23,23,23,23,23,23,23,24,24,24,23,23,23,23,23,23,22,22,22,21,21,21,21,21,21,21,21,21,22,22,24,24,24,24,23,24,24,24,23,23,23,24,27,27,27,27,26,26,26,26,26,26,27,26,19,19,19,19,19,18,19,19,19,19,19,21,17,17,18,18,18,18,18,17,17,17,17,17,15,15,17,17,17,17,17,16,16,16,16,15,16,16,17,17,17,17,17,17,17,19,18,18,18,18,18,18,18,18,18,18,18,18,18,18,18,18,19,20,20,20,20,20,20,20,20,20,5,5,5,5,7,6,4,4,4,4,4,5,-1,0,0,0,0,0,0,0,0,0,0,0
"Ind183","11_0_0",81,47,48,48,49,48,48,48,48,48,48,48,48,23,23,23,23,23,22,22,22,22,22,22,22,21,21,21,21,21,22,21,21,21,21,21,21,23,24,24,23,23,23,23,23,23,23,22,22,22,23,23,23,22,21,21,21,21,21,20,20,20,19,19,19,19,19,19,19,19,19,20,20,22,22,22,22,21,22,22,22,21,21,21,22,25,25,25,25,24,24,24,24,24,24,25,24,17,17,17,17,17,16,17,17,17,17,17,19,15,15,16,16,16,16,16,15,15,15,15,15,13,13,15,15,15,15,15,14,14,14,14,13,14,14,15,15,15,15,15,15,15,17,16,16,16,16,16,16,16,16,16,16,16,16,16,16,16,16,17,18,18,18,18,18,18,18,18,18,3,3,3,3,5,4,2,2,2,2,2,3,2,-1,0,0,0,0,0,0,0,0,0,0
"Ind184","11_0_5",81,47,48,48,49,48,48,48,48,48,48,48,48,23,23,23,23,23,22,22,22,22,22,22,22,21,21,21,21,21,22,21,21,21,21,21,21,23,24,24,23,23,23,23,23,23,23,22,22,22,23,23,23,22,21,21,21,21,21,20,20,20,19,19,19,19,19,19,19,19,19,20,20,22,22,22,22,21,22,22,22,21,21,21,22,25,25,25,25,24,24,24,24,24,24,25,24,17,17,17,17,17,16,17,17,17,17,17,19,15,15,16,16,16,16,16,15,15,15,15,15,13,13,15,15,15,15,15,14,14,14,14,13,14,14,15,15,15,15,15,15,15,17,16,16,16,16,16,16,16,16,16,16,16,16,16,16,16,16,17,18,18,18,18,18,18,18,18,18,3,3,3,3,5,4,2,2,2,2,2,3,2,0,-1,0,0,0,0,0,0,0,0,0
"Ind185","11_0_8",81,47,48,48,49,48,48,48,48,48,48,48,48,23,23,23,23,23,22,22,22,22,22,22,22,21,21,21,21,21,22,21,21,21,21,21,21,23,24,24,23,23,23,23,23,23,23,22,22,22,23,23,23,22,21,21,21,21,21,20,20,20,19,19,19,19,19,19,19,19,19,20,20,22,22,22,22,21,22,22,22,21,21,21,22,25,25,25,25,24,24,24,24,24,24,25,24,17,17,17,17,17,16,17,17,17,17,17,19,15,15,16,16,16,16,16,15,15,15,15,15,13,13,15,15,15,15,15,14,14,14,14,13,14,14,15,15,15,15,15,15,15,17,16,16,16,16,16,16,16,16,16,16,16,16,16,16,16,16,17,18,18,18,18,18,18,18,18,18,3,3,3,3,5,4,2,2,2,2,2,3,2,0,0,-1,0,0,0,0,0,0,0,0
"Ind186","11_0_3",83,47,48,48,49,48,48,48,48,48,48,48,48,25,25,25,25,25,24,24,24,24,24,24,24,23,23,23,23,23,24,23,23,23,23,23,23,25,26,26,25,25,25,25,25,25,25,24,24,24,25,25,25,24,23,23,23,23,23,22,22,22,21,21,21,21,21,21,21,21,21,22,22,24,24,24,24,23,24,24,24,23,23,23,24,27,27,27,27,26,26,26,26,26,26,27,26,19,19,19,19,19,18,19,19,19,19,19,21,17,17,18,18,18,18,18,17,17,17,17,17,15,15,17,17,17,17,17,16,16,16,16,15,16,16,17,17,17,17,17,17,17,19,18,18,18,18,18,18,18,18,18,18,18,18,18,18,18,18,19,20,20,20,20,20,20,20,20,20,5,5,5,5,7,6,4,4,4,4,4,5,4,2,2,2,-1,0,0,0,0,0,0,0
"Ind187","11_0_7",83,47,48,48,49,48,48,48,48,48,48,48,48,25,25,25,25,25,24,24,24,24,24,24,24,23,23,23,23,23,24,23,23,23,23,23,23,25,26,26,25,25,25,25,25,25,25,24,24,24,25,25,25,24,23,23,23,23,23,22,22,22,21,21,21,21,21,21,21,21,21,22,22,24,24,24,24,23,24,24,24,23,23,23,24,27,27,27,27,26,26,26,26,26,26,27,26,19,19,19,19,19,18,19,19,19,19,19,21,17,17,18,18,18,18,18,17,17,17,17,17,15,15,17,17,17,17,17,16,16,16,16,15,16,16,17,17,17,17,17,17,17,19,18,18,18,18,18,18,18,18,18,18,18,18,18,18,18,18,19,20,20,20,20,20,20,20,20,20,5,5,5,5,7,6,4,4,4,4,4,5,4,2,2,2,0,-1,0,0,0,0,0,0
"Ind188","11_0_9",83,47,48,48,49,48,48,48,48,48,48,48,48,25,25,25,25,25,24,24,24,24,24,24,24,23,23,23,23,23,24,23,23,23,23,23,23,25,26,26,25,25,25,25,25,25,25,24,24,24,25,25,25,24,23,23,23,23,23,22,22,22,21,21,21,21,21,21,21,21,21,22,22,24,24,24,24,23,24,24,24,23,23,23,24,27,27,27,27,26,26,26,26,26,26,27,26,19,19,19,19,19,18,19,19,19,19,19,21,17,17,18,18,18,18,18,17,17,17,17,17,15,15,17,17,17,17,17,16,16,16,16,15,16,16,17,17,17,17,17,17,17,19,18,18,18,18,18,18,18,18,18,18,18,18,18,18,18,18,19,20,20,20,20,20,20,20,20,20,5,5,5,5,7,6,4,4,4,4,4,5,4,2,2,2,0,0,-1,0,0,0,0,0
"Ind189","11_0_2",83,47,48,48,49,48,48,48,48,48,48,48,48,25,25,25,25,25,24,24,24,24,24,24,24,23,23,23,23,23,24,23,23,23,23,23,23,25,26,26,25,25,25,25,25,25,25,24,24,24,25,25,25,24,23,23,23,23,23,22,22,22,21,21,21,21,21,21,21,21,21,22,22,24,24,24,24,23,24,24,24,23,23,23,24,27,27,27,27,26,26,26,26,26,26,27,26,19,19,19,19,19,18,19,19,19,19,19,21,17,17,18,18,18,18,18,17,17,17,17,17,15,15,17,17,17,17,17,16,16,16,16,15,16,16,17,17,17,17,17,17,17,19,18,18,18,18,18,18,18,18,18,18,18,18,18,18,18,18,19,20,20,20,20,20,20,20,20,20,5,5,5,5,7,6,4,4,4,4,4,5,4,2,2,2,0,0,0,-1,0,0,0,0
"Ind190","11_0_10",83,47,48,48,49,48,48,48,48,48,48,48,48,25,25,25,25,25,24,24,24,24,24,24,24,23,23,23,23,23,24,23,23,23,23,23,23,25,26,26,25,25,25,25,25,25,25,24,24,24,25,25,25,24,23,23,23,23,23,22,22,22,21,21,21,21,21,21,21,21,21,22,22,24,24,24,24,23,24,24,24,23,23,23,24,27,27,27,27,26,26,26,26,26,26,27,26,19,19,19,19,19,18,19,19,19,19,19,21,17,17,18,18,18,18,18,17,17,17,17,17,15,15,17,17,17,17,17,16,16,16,16,15,16,16,17,17,17,17,17,17,17,19,18,18,18,18,18,18,18,18,18,18,18,18,18,18,18,18,19,20,20,20,20,20,20,20,20,20,5,5,5,5,7,6,4,4,4,4,4,5,4,2,2,2,0,0,0,0,-1,0,0,0
"Ind191","11_0_4",83,47,48,48,49,48,48,48,48,48,48,48,48,25,25,25,25,25,24,24,24,24,24,24,24,23,23,23,23,23,24,23,23,23,23,23,23,25,26,26,25,25,25,25,25,25,25,24,24,24,25,25,25,24,23,23,23,23,23,22,22,22,21,21,21,21,21,21,21,21,21,22,22,24,24,24,24,23,24,24,24,23,23,23,24,27,27,27,27,26,26,26,26,26,26,27,26,19,19,19,19,19,18,19,19,19,19,19,21,17,17,18,18,18,18,18,17,17,17,17,17,15,15,17,17,17,17,17,16,16,16,16,15,16,16,17,17,17,17,17,17,17,19,18,18,18,18,18,18,18,18,18,18,18,18,18,18,18,18,19,20,20,20,20,20,20,20,20,20,5,5,5,5,7,6,4,4,4,4,4,5,4,2,2,2,0,0,0,0,0,-1,0,0
"Ind192","11_0_6",83,47,48,48,49,48,48,48,48,48,48,48,48,25,25,25,25,25,24,24,24,24,24,24,24,23,23,23,23,23,24,23,23,23,23,23,23,25,26,26,25,25,25,25,25,25,25,24,24,24,25,25,25,24,23,23,23,23,23,22,22,22,21,21,21,21,21,21,21,21,21,22,22,24,24,24,24,23,24,24,24,23,23,23,24,27,27,27,27,26,26,26,26,26,26,27,26,19,19,19,19,19,18,19,19,19,19,19,21,17,17,18,18,18,18,18,17,17,17,17,17,15,15,17,17,17,17,17,16,16,16,16,15,16,16,17,17,17,17,17,17,17,19,18,18,18,18,18,18,18,18,18,18,18,18,18,18,18,18,19,20,20,20,20,20,20,20,20,20,5,5,5,5,7,6,4,4,4,4,4,5,4,2,2,2,0,0,0,0,0,0,-1,0
"Ind193","11_0_11",82,46,47,47,48,47,47,47,47,47,47,47,47,24,24,24,24,24,23,23,23,23,23,23,23,22,22,22,22,22,23,22,22,22,22,22,22,24,25,25,24,24,24,24,24,24,24,23,23,23,24,24,24,23,22,22,22,22,22,21,21,21,20,20,20,20,20,20,20,20,20,21,21,23,23,23,23,22,23,23,23,22,22,22,23,26,26,26,26,25,25,25,25,25,25,26,25,18,18,18,18,18,17,18,18,18,18,18,20,16,16,17,17,17,17,17,16,16,16,16,16,14,14,16,16,16,16,16,15,15,15,15,14,15,15,16,16,16,16,16,16,16,18,17,17,17,17,17,17,17,17,17,17,17,17,17,17,17,17,18,19,19,19,19,19,19,19,19,19,4,4,4,4,6,5,3,3,3,3,3,4,3,1,1,1,1,1,1,1,1,1,1,-1
