"","Description","Ind1","Ind2","Ind3","Ind4","Ind5","Ind6","Ind7","Ind8","Ind9","Ind10","Ind11","Ind12","Ind13","Ind14","Ind15","Ind16","Ind17","Ind18","Ind19","Ind20","Ind21","Ind22","Ind23","Ind24","Ind25","Ind26","Ind27","Ind28","Ind29","Ind30","Ind31","Ind32","Ind33","Ind34","Ind35","Ind36","Ind37","Ind38","Ind39","Ind40","Ind41","Ind42","Ind43","Ind44","Ind45","Ind46","Ind47","Ind48","Ind49","Ind50","Ind51","Ind52","Ind53","Ind54","Ind55","Ind56","Ind57","Ind58","Ind59","Ind60","Ind61","Ind62","Ind63","Ind64","Ind65","Ind66","Ind67","Ind68","Ind69","Ind70","Ind71","Ind72","Ind73","Ind74","Ind75","Ind76","Ind77","Ind78","Ind79","Ind80","Ind81","Ind82","Ind83","Ind84","Ind85","Ind86","Ind87","Ind88","Ind89","Ind90","Ind91","Ind92","Ind93","Ind94","Ind95","Ind96","Ind97","Ind98","Ind99","Ind100","Ind101","Ind102","Ind103","Ind104","Ind105","Ind106","Ind107","Ind108","Ind109","Ind110","Ind111","Ind112","Ind113","Ind114","Ind115","Ind116","Ind117","Ind118","Ind119","Ind120","Ind121"
"Ind1","1_0_4",-1,0,0,0,0,0,0,0,0,0,0,0,0,0,0,0,0,0,0,0,0,0,0,0,0,0,0,0,0,0,0,0,0,0,0,0,0,0,0,0,0,0,0,0,0,0,0,0,0,0,0,0,0,0,0,0,0,0,0,0,0,0,0,0,0,0,0,0,0,0,0,0,0,0,0,0,0,0,0,0,0,0,0,0,0,0,0,0,0,0,0,0,0,0,0,0,0,0,0,0,0,0,0,0,0,0,0,0,0,0,0,0,0,0,0,0,0,0,0,0,0
"Ind2","1_0_8",0,-1,0,0,0,0,0,0,0,0,0,0,0,0,0,0,0,0,0,0,0,0,0,0,0,0,0,0,0,0,0,0,0,0,0,0,0,0,0,0,0,0,0,0,0,0,0,0,0,0,0,0,0,0,0,0,0,0,0,0,0,0,0,0,0,0,0,0,0,0,0,0,0,0,0,0,0,0,0,0,0,0,0,0,0,0,0,0,0,0,0,0,0,0,0,0,0,0,0,0,0,0,0,0,0,0,0,0,0,0,0,0,0,0,0,0,0,0,0,0,0
"Ind3","1_0_9",0,0,-1,0,0,0,0,0,0,0,0,0,0,0,0,0,0,0,0,0,0,0,0,0,0,0,0,0,0,0,0,0,0,0,0,0,0,0,0,0,0,0,0,0,0,0,0,0,0,0,0,0,0,0,0,0,0,0,0,0,0,0,0,0,0,0,0,0,0,0,0,0,0,0,0,0,0,0,0,0,0,0,0,0,0,0,0,0,0,0,0,0,0,0,0,0,0,0,0,0,0,0,0,0,0,0,0,0,0,0,0,0,0,0,0,0,0,0,0,0,0
"Ind4","1_0_3",1,1,1,-1,0,0,0,0,0,0,0,0,0,0,0,0,0,0,0,0,0,0,0,0,0,0,0,0,0,0,0,0,0,0,0,0,0,0,0,0,0,0,0,0,0,0,0,0,0,0,0,0,0,0,0,0,0,0,0,0,0,0,0,0,0,0,0,0,0,0,0,0,0,0,0,0,0,0,0,0,0,0,0,0,0,0,0,0,0,0,0,0,0,0,0,0,0,0,0,0,0,0,0,0,0,0,0,0,0,0,0,0,0,0,0,0,0,0,0,0,0
"Ind5","1_0_6",1,1,1,0,-1,0,0,0,0,0,0,0,0,0,0,0,0,0,0,0,0,0,0,0,0,0,0,0,0,0,0,0,0,0,0,0,0,0,0,0,0,0,0,0,0,0,0,0,0,0,0,0,0,0,0,0,0,0,0,0,0,0,0,0,0,0,0,0,0,0,0,0,0,0,0,0,0,0,0,0,0,0,0,0,0,0,0,0,0,0,0,0,0,0,0,0,0,0,0,0,0,0,0,0,0,0,0,0,0,0,0,0,0,0,0,0,0,0,0,0,0
"Ind6","1_0_2",1,1,1,0,0,-1,0,0,0,0,0,0,0,0,0,0,0,0,0,0,0,0,0,0,0,0,0,0,0,0,0,0,0,0,0,0,0,0,0,0,0,0,0,0,0,0,0,0,0,0,0,0,0,0,0,0,0,0,0,0,0,0,0,0,0,0,0,0,0,0,0,0,0,0,0,0,0,0,0,0,0,0,0,0,0,0,0,0,0,0,0,0,0,0,0,0,0,0,0,0,0,0,0,0,0,0,0,0,0,0,0,0,0,0,0,0,0,0,0,0,0
"Ind7","1_0_1",1,1,1,0,0,0,-1,0,0,0,0,0,0,0,0,0,0,0,0,0,0,0,0,0,0,0,0,0,0,0,0,0,0,0,0,0,0,0,0,0,0,0,0,0,0,0,0,0,0,0,0,0,0,0,0,0,0,0,0,0,0,0,0,0,0,0,0,0,0,0,0,0,0,0,0,0,0,0,0,0,0,0,0,0,0,0,0,0,0,0,0,0,0,0,0,0,0,0,0,0,0,0,0,0,0,0,0,0,0,0,0,0,0,0,0,0,0,0,0,0,0
"Ind8","1_0_0",1,1,1,0,0,0,0,-1,0,0,0,0,0,0,0,0,0,0,0,0,0,0,0,0,0,0,0,0,0,0,0,0,0,0,0,0,0,0,0,0,0,0,0,0,0,0,0,0,0,0,0,0,0,0,0,0,0,0,0,0,0,0,0,0,0,0,0,0,0,0,0,0,0,0,0,0,0,0,0,0,0,0,0,0,0,0,0,0,0,0,0,0,0,0,0,0,0,0,0,0,0,0,0,0,0,0,0,0,0,0,0,0,0,0,0,0,0,0,0,0,0
"Ind9","1_0_7",2,2,2,1,1,1,1,1,-1,0,0,0,0,0,0,0,0,0,0,0,0,0,0,0,0,0,0,0,0,0,0,0,0,0,0,0,0,0,0,0,0,0,0,0,0,0,0,0,0,0,0,0,0,0,0,0,0,0,0,0,0,0,0,0,0,0,0,0,0,0,0,0,0,0,0,0,0,0,0,0,0,0,0,0,0,0,0,0,0,0,0,0,0,0,0,0,0,0,0,0,0,0,0,0,0,0,0,0,0,0,0,0,0,0,0,0,0,0,0,0,0
"Ind10","1_0_5",2,2,2,1,1,1,1,1,0,-1,0,0,0,0,0,0,0,0,0,0,0,0,0,0,0,0,0,0,0,0,0,0,0,0,0,0,0,0,0,0,0,0,0,0,0,0,0,0,0,0,0,0,0,0,0,0,0,0,0,0,0,0,0,0,0,0,0,0,0,0,0,0,0,0,0,0,0,0,0,0,0,0,0,0,0,0,0,0,0,0,0,0,0,0,0,0,0,0,0,0,0,0,0,0,0,0,0,0,0,0,0,0,0,0,0,0,0,0,0,0,0
"Ind11","2_0_8",14,14,14,13,13,13,13,13,14,14,-1,0,0,0,0,0,0,0,0,0,0,0,0,0,0,0,0,0,0,0,0,0,0,0,0,0,0,0,0,0,0,0,0,0,0,0,0,0,0,0,0,0,0,0,0,0,0,0,0,0,0,0,0,0,0,0,0,0,0,0,0,0,0,0,0,0,0,0,0,0,0,0,0,0,0,0,0,0,0,0,0,0,0,0,0,0,0,0,0,0,0,0,0,0,0,0,0,0,0,0,0,0,0,0,0,0,0,0,0,0,0
"Ind12","2_0_5",14,14,14,13,13,13,13,13,14,14,0,-1,0,0,0,0,0,0,0,0,0,0,0,0,0,0,0,0,0,0,0,0,0,0,0,0,0,0,0,0,0,0,0,0,0,0,0,0,0,0,0,0,0,0,0,0,0,0,0,0,0,0,0,0,0,0,0,0,0,0,0,0,0,0,0,0,0,0,0,0,0,0,0,0,0,0,0,0,0,0,0,0,0,0,0,0,0,0,0,0,0,0,0,0,0,0,0,0,0,0,0,0,0,0,0,0,0,0,0,0,0
"Ind13","2_0_9",14,14,14,13,13,13,13,13,14,14,0,0,-1,0,0,0,0,0,0,0,0,0,0,0,0,0,0,0,0,0,0,0,0,0,0,0,0,0,0,0,0,0,0,0,0,0,0,0,0,0,0,0,0,0,0,0,0,0,0,0,0,0,0,0,0,0,0,0,0,0,0,0,0,0,0,0,0,0,0,0,0,0,0,0,0,0,0,0,0,0,0,0,0,0,0,0,0,0,0,0,0,0,0,0,0,0,0,0,0,0,0,0,0,0,0,0,0,0,0,0,0
"Ind14","2_0_3",14,14,14,13,13,13,13,13,14,14,0,0,0,-1,0,0,0,0,0,0,0,0,0,0,0,0,0,0,0,0,0,0,0,0,0,0,0,0,0,0,0,0,0,0,0,0,0,0,0,0,0,0,0,0,0,0,0,0,0,0,0,0,0,0,0,0,0,0,0,0,0,0,0,0,0,0,0,0,0,0,0,0,0,0,0,0,0,0,0,0,0,0,0,0,0,0,0,0,0,0,0,0,0,0,0,0,0,0,0,0,0,0,0,0,0,0,0,0,0,0,0
"Ind15","2_0_2",14,14,14,13,13,13,13,13,14,14,0,0,0,0,-1,0,0,0,0,0,0,0,0,0,0,0,0,0,0,0,0,0,0,0,0,0,0,0,0,0,0,0,0,0,0,0,0,0,0,0,0,0,0,0,0,0,0,0,0,0,0,0,0,0,0,0,0,0,0,0,0,0,0,0,0,0,0,0,0,0,0,0,0,0,0,0,0,0,0,0,0,0,0,0,0,0,0,0,0,0,0,0,0,0,0,0,0,0,0,0,0,0,0,0,0,0,0,0,0,0,0
"Ind16","2_0_0",15,15,15,14,14,14,14,14,15,15,1,1,1,1,1,-1,0,0,0,0,0,0,0,0,0,0,0,0,0,0,0,0,0,0,0,0,0,0,0,0,0,0,0,0,0,0,0,0,0,0,0,0,0,0,0,0,0,0,0,0,0,0,0,0,0,0,0,0,0,0,0,0,0,0,0,0,0,0,0,0,0,0,0,0,0,0,0,0,0,0,0,0,0,0,0,0,0,0,0,0,0,0,0,0,0,0,0,0,0,0,0,0,0,0,0,0,0,0,0,0,0
"Ind17","2_0_7",14,14,14,13,13,13,13,13,14,14,0,0,0,0,0,1,-1,0,0,0,0,0,0,0,0,0,0,0,0,0,0,0,0,0,0,0,0,0,0,0,0,0,0,0,0,0,0,0,0,0,0,0,0,0,0,0,0,0,0,0,0,0,0,0,0,0,0,0,0,0,0,0,0,0,0,0,0,0,0,0,0,0,0,0,0,0,0,0,0,0,0,0,0,0,0,0,0,0,0,0,0,0,0,0,0,0,0,0,0,0,0,0,0,0,0,0,0,0,0,0,0
"Ind18","2_0_1",14,14,14,13,13,13,13,13,14,14,0,0,0,0,0,1,0,-1,0,0,0,0,0,0,0,0,0,0,0,0,0,0,0,0,0,0,0,0,0,0,0,0,0,0,0,0,0,0,0,0,0,0,0,0,0,0,0,0,0,0,0,0,0,0,0,0,0,0,0,0,0,0,0,0,0,0,0,0,0,0,0,0,0,0,0,0,0,0,0,0,0,0,0,0,0,0,0,0,0,0,0,0,0,0,0,0,0,0,0,0,0,0,0,0,0,0,0,0,0,0,0
"Ind19","2_0_4",14,14,14,13,13,13,13,13,14,14,0,0,0,0,0,1,0,0,-1,0,0,0,0,0,0,0,0,0,0,0,0,0,0,0,0,0,0,0,0,0,0,0,0,0,0,0,0,0,0,0,0,0,0,0,0,0,0,0,0,0,0,0,0,0,0,0,0,0,0,0,0,0,0,0,0,0,0,0,0,0,0,0,0,0,0,0,0,0,0,0,0,0,0,0,0,0,0,0,0,0,0,0,0,0,0,0,0,0,0,0,0,0,0,0,0,0,0,0,0,0,0
"Ind20","2_0_6",14,14,14,13,13,13,13,13,14,14,0,0,0,0,0,1,0,0,0,-1,0,0,0,0,0,0,0,0,0,0,0,0,0,0,0,0,0,0,0,0,0,0,0,0,0,0,0,0,0,0,0,0,0,0,0,0,0,0,0,0,0,0,0,0,0,0,0,0,0,0,0,0,0,0,0,0,0,0,0,0,0,0,0,0,0,0,0,0,0,0,0,0,0,0,0,0,0,0,0,0,0,0,0,0,0,0,0,0,0,0,0,0,0,0,0,0,0,0,0,0,0
"Ind21","3_0_0",14,14,14,13,13,13,13,13,14,14,4,4,4,4,4,5,4,4,4,4,-1,0,0,0,0,0,0,0,0,0,0,0,0,0,0,0,0,0,0,0,0,0,0,0,0,0,0,0,0,0,0,0,0,0,0,0,0,0,0,0,0,0,0,0,0,0,0,0,0,0,0,0,0,0,0,0,0,0,0,0,0,0,0,0,0,0,0,0,0,0,0,0,0,0,0,0,0,0,0,0,0,0,0,0,0,0,0,0,0,0,0,0,0,0,0,0,0,0,0,0,0
"Ind22","3_0_5",14,14,14,13,13,13,13,13,14,14,4,4,4,4,4,5,4,4,4,4,0,-1,0,0,0,0,0,0,0,0,0,0,0,0,0,0,0,0,0,0,0,0,0,0,0,0,0,0,0,0,0,0,0,0,0,0,0,0,0,0,0,0,0,0,0,0,0,0,0,0,0,0,0,0,0,0,0,0,0,0,0,0,0,0,0,0,0,0,0,0,0,0,0,0,0,0,0,0,0,0,0,0,0,0,0,0,0,0,0,0,0,0,0,0,0,0,0,0,0,0,0
"Ind23","3_0_4",14,14,14,13,13,13,13,13,14,14,4,4,4,4,4,5,4,4,4,4,0,0,-1,0,0,0,0,0,0,0,0,0,0,0,0,0,0,0,0,0,0,0,0,0,0,0,0,0,0,0,0,0,0,0,0,0,0,0,0,0,0,0,0,0,0,0,0,0,0,0,0,0,0,0,0,0,0,0,0,0,0,0,0,0,0,0,0,0,0,0,0,0,0,0,0,0,0,0,0,0,0,0,0,0,0,0,0,0,0,0,0,0,0,0,0,0,0,0,0,0,0
"Ind24","3_0_8",14,14,14,13,13,13,13,13,14,14,4,4,4,4,4,5,4,4,4,4,0,0,0,-1,0,0,0,0,0,0,0,0,0,0,0,0,0,0,0,0,0,0,0,0,0,0,0,0,0,0,0,0,0,0,0,0,0,0,0,0,0,0,0,0,0,0,0,0,0,0,0,0,0,0,0,0,0,0,0,0,0,0,0,0,0,0,0,0,0,0,0,0,0,0,0,0,0,0,0,0,0,0,0,0,0,0,0,0,0,0,0,0,0,0,0,0,0,0,0,0,0
"Ind25","3_0_6",14,14,14,13,13,13,13,13,14,14,4,4,4,4,4,5,4,4,4,4,0,0,0,0,-1,0,0,0,0,0,0,0,0,0,0,0,0,0,0,0,0,0,0,0,0,0,0,0,0,0,0,0,0,0,0,0,0,0,0,0,0,0,0,0,0,0,0,0,0,0,0,0,0,0,0,0,0,0,0,0,0,0,0,0,0,0,0,0,0,0,0,0,0,0,0,0,0,0,0,0,0,0,0,0,0,0,0,0,0,0,0,0,0,0,0,0,0,0,0,0,0
"Ind26","3_0_3",14,14,14,13,13,13,13,13,14,14,4,4,4,4,4,5,4,4,4,4,0,0,0,0,0,-1,0,0,0,0,0,0,0,0,0,0,0,0,0,0,0,0,0,0,0,0,0,0,0,0,0,0,0,0,0,0,0,0,0,0,0,0,0,0,0,0,0,0,0,0,0,0,0,0,0,0,0,0,0,0,0,0,0,0,0,0,0,0,0,0,0,0,0,0,0,0,0,0,0,0,0,0,0,0,0,0,0,0,0,0,0,0,0,0,0,0,0,0,0,0,0
"Ind27","3_0_9",14,14,14,13,13,13,13,13,14,14,4,4,4,4,4,5,4,4,4,4,0,0,0,0,0,0,-1,0,0,0,0,0,0,0,0,0,0,0,0,0,0,0,0,0,0,0,0,0,0,0,0,0,0,0,0,0,0,0,0,0,0,0,0,0,0,0,0,0,0,0,0,0,0,0,0,0,0,0,0,0,0,0,0,0,0,0,0,0,0,0,0,0,0,0,0,0,0,0,0,0,0,0,0,0,0,0,0,0,0,0,0,0,0,0,0,0,0,0,0,0,0
"Ind28","3_0_2",14,14,14,13,13,13,13,13,14,14,4,4,4,4,4,5,4,4,4,4,0,0,0,0,0,0,0,-1,0,0,0,0,0,0,0,0,0,0,0,0,0,0,0,0,0,0,0,0,0,0,0,0,0,0,0,0,0,0,0,0,0,0,0,0,0,0,0,0,0,0,0,0,0,0,0,0,0,0,0,0,0,0,0,0,0,0,0,0,0,0,0,0,0,0,0,0,0,0,0,0,0,0,0,0,0,0,0,0,0,0,0,0,0,0,0,0,0,0,0,0,0
"Ind29","3_0_1",14,14,14,13,13,13,13,13,14,14,4,4,4,4,4,5,4,4,4,4,0,0,0,0,0,0,0,0,-1,0,0,0,0,0,0,0,0,0,0,0,0,0,0,0,0,0,0,0,0,0,0,0,0,0,0,0,0,0,0,0,0,0,0,0,0,0,0,0,0,0,0,0,0,0,0,0,0,0,0,0,0,0,0,0,0,0,0,0,0,0,0,0,0,0,0,0,0,0,0,0,0,0,0,0,0,0,0,0,0,0,0,0,0,0,0,0,0,0,0,0,0
"Ind30","3_0_7",14,14,14,13,13,13,13,13,14,14,4,4,4,4,4,5,4,4,4,4,0,0,0,0,0,0,0,0,0,-1,0,0,0,0,0,0,0,0,0,0,0,0,0,0,0,0,0,0,0,0,0,0,0,0,0,0,0,0,0,0,0,0,0,0,0,0,0,0,0,0,0,0,0,0,0,0,0,0,0,0,0,0,0,0,0,0,0,0,0,0,0,0,0,0,0,0,0,0,0,0,0,0,0,0,0,0,0,0,0,0,0,0,0,0,0,0,0,0,0,0,0
"Ind31","5_0_2",19,19,19,18,18,18,18,18,19,19,25,25,25,25,25,26,25,25,25,25,25,25,25,25,25,25,25,25,25,25,-1,0,0,0,0,0,0,0,0,0,0,0,0,0,0,0,0,0,0,0,0,0,0,0,0,0,0,0,0,0,0,0,0,0,0,0,0,0,0,0,0,0,0,0,0,0,0,0,0,0,0,0,0,0,0,0,0,0,0,0,0,0,0,0,0,0,0,0,0,0,0,0,0,0,0,0,0,0,0,0,0,0,0,0,0,0,0,0,0,0,0
"Ind32","5_0_9",19,19,19,18,18,18,18,18,19,19,25,25,25,25,25,26,25,25,25,25,25,25,25,25,25,25,25,25,25,25,0,-1,0,0,0,0,0,0,0,0,0,0,0,0,0,0,0,0,0,0,0,0,0,0,0,0,0,0,0,0,0,0,0,0,0,0,0,0,0,0,0,0,0,0,0,0,0,0,0,0,0,0,0,0,0,0,0,0,0,0,0,0,0,0,0,0,0,0,0,0,0,0,0,0,0,0,0,0,0,0,0,0,0,0,0,0,0,0,0,0,0
"Ind33","5_0_6",20,20,20,19,19,19,19,19,20,20,26,26,26,26,26,27,26,26,26,26,26,26,26,26,26,26,26,26,26,26,1,1,-1,0,0,0,0,0,0,0,0,0,0,0,0,0,0,0,0,0,0,0,0,0,0,0,0,0,0,0,0,0,0,0,0,0,0,0,0,0,0,0,0,0,0,0,0,0,0,0,0,0,0,0,0,0,0,0,0,0,0,0,0,0,0,0,0,0,0,0,0,0,0,0,0,0,0,0,0,0,0,0,0,0,0,0,0,0,0,0,0
"Ind34","5_0_3",20,20,20,19,19,19,19,19,20,20,26,26,26,26,26,27,26,26,26,26,26,26,26,26,26,26,26,26,26,26,1,1,0,-1,0,0,0,0,0,0,0,0,0,0,0,0,0,0,0,0,0,0,0,0,0,0,0,0,0,0,0,0,0,0,0,0,0,0,0,0,0,0,0,0,0,0,0,0,0,0,0,0,0,0,0,0,0,0,0,0,0,0,0,0,0,0,0,0,0,0,0,0,0,0,0,0,0,0,0,0,0,0,0,0,0,0,0,0,0,0,0
"Ind35","5_0_5",19,19,19,18,18,18,18,18,19,19,25,25,25,25,25,26,25,25,25,25,25,25,25,25,25,25,25,25,25,25,0,0,1,1,-1,0,0,0,0,0,0,0,0,0,0,0,0,0,0,0,0,0,0,0,0,0,0,0,0,0,0,0,0,0,0,0,0,0,0,0,0,0,0,0,0,0,0,0,0,0,0,0,0,0,0,0,0,0,0,0,0,0,0,0,0,0,0,0,0,0,0,0,0,0,0,0,0,0,0,0,0,0,0,0,0,0,0,0,0,0,0
"Ind36","5_0_1",19,19,19,18,18,18,18,18,19,19,25,25,25,25,25,26,25,25,25,25,25,25,25,25,25,25,25,25,25,25,0,0,1,1,0,-1,0,0,0,0,0,0,0,0,0,0,0,0,0,0,0,0,0,0,0,0,0,0,0,0,0,0,0,0,0,0,0,0,0,0,0,0,0,0,0,0,0,0,0,0,0,0,0,0,0,0,0,0,0,0,0,0,0,0,0,0,0,0,0,0,0,0,0,0,0,0,0,0,0,0,0,0,0,0,0,0,0,0,0,0,0
"Ind37","5_0_0",19,19,19,18,18,18,18,18,19,19,25,25,25,25,25,26,25,25,25,25,25,25,25,25,25,25,25,25,25,25,0,0,1,1,0,0,-1,0,0,0,0,0,0,0,0,0,0,0,0,0,0,0,0,0,0,0,0,0,0,0,0,0,0,0,0,0,0,0,0,0,0,0,0,0,0,0,0,0,0,0,0,0,0,0,0,0,0,0,0,0,0,0,0,0,0,0,0,0,0,0,0,0,0,0,0,0,0,0,0,0,0,0,0,0,0,0,0,0,0,0,0
"Ind38","5_0_8",19,19,19,18,18,18,18,18,19,19,25,25,25,25,25,26,25,25,25,25,25,25,25,25,25,25,25,25,25,25,0,0,1,1,0,0,0,-1,0,0,0,0,0,0,0,0,0,0,0,0,0,0,0,0,0,0,0,0,0,0,0,0,0,0,0,0,0,0,0,0,0,0,0,0,0,0,0,0,0,0,0,0,0,0,0,0,0,0,0,0,0,0,0,0,0,0,0,0,0,0,0,0,0,0,0,0,0,0,0,0,0,0,0,0,0,0,0,0,0,0,0
"Ind39","5_0_7",19,19,19,18,18,18,18,18,19,19,25,25,25,25,25,26,25,25,25,25,25,25,25,25,25,25,25,25,25,25,0,0,1,1,0,0,0,0,-1,0,0,0,0,0,0,0,0,0,0,0,0,0,0,0,0,0,0,0,0,0,0,0,0,0,0,0,0,0,0,0,0,0,0,0,0,0,0,0,0,0,0,0,0,0,0,0,0,0,0,0,0,0,0,0,0,0,0,0,0,0,0,0,0,0,0,0,0,0,0,0,0,0,0,0,0,0,0,0,0,0,0
"Ind40","5_0_4",19,19,19,18,18,18,18,18,19,19,25,25,25,25,25,26,25,25,25,25,25,25,25,25,25,25,25,25,25,25,0,0,1,1,0,0,0,0,0,-1,0,0,0,0,0,0,0,0,0,0,0,0,0,0,0,0,0,0,0,0,0,0,0,0,0,0,0,0,0,0,0,0,0,0,0,0,0,0,0,0,0,0,0,0,0,0,0,0,0,0,0,0,0,0,0,0,0,0,0,0,0,0,0,0,0,0,0,0,0,0,0,0,0,0,0,0,0,0,0,0,0
"Ind41","4_0_4",17,17,17,16,16,16,16,16,17,17,23,23,23,23,23,24,23,23,23,23,23,23,23,23,23,23,23,23,23,23,18,18,19,19,18,18,18,18,18,18,-1,0,0,0,0,0,0,0,0,0,0,0,0,0,0,0,0,0,0,0,0,0,0,0,0,0,0,0,0,0,0,0,0,0,0,0,0,0,0,0,0,0,0,0,0,0,0,0,0,0,0,0,0,0,0,0,0,0,0,0,0,0,0,0,0,0,0,0,0,0,0,0,0,0,0,0,0,0,0,0,0
"Ind42","4_0_9",17,17,17,16,16,16,16,16,17,17,23,23,23,23,23,24,23,23,23,23,23,23,23,23,23,23,23,23,23,23,18,18,19,19,18,18,18,18,18,18,0,-1,0,0,0,0,0,0,0,0,0,0,0,0,0,0,0,0,0,0,0,0,0,0,0,0,0,0,0,0,0,0,0,0,0,0,0,0,0,0,0,0,0,0,0,0,0,0,0,0,0,0,0,0,0,0,0,0,0,0,0,0,0,0,0,0,0,0,0,0,0,0,0,0,0,0,0,0,0,0,0
"Ind43","4_0_0",17,17,17,16,16,16,16,16,17,17,23,23,23,23,23,24,23,23,23,23,23,23,23,23,23,23,23,23,23,23,18,18,19,19,18,18,18,18,18,18,0,0,-1,0,0,0,0,0,0,0,0,0,0,0,0,0,0,0,0,0,0,0,0,0,0,0,0,0,0,0,0,0,0,0,0,0,0,0,0,0,0,0,0,0,0,0,0,0,0,0,0,0,0,0,0,0,0,0,0,0,0,0,0,0,0,0,0,0,0,0,0,0,0,0,0,0,0,0,0,0,0
"Ind44","4_0_6",17,17,17,16,16,16,16,16,17,17,23,23,23,23,23,24,23,23,23,23,23,23,23,23,23,23,23,23,23,23,18,18,19,19,18,18,18,18,18,18,0,0,0,-1,0,0,0,0,0,0,0,0,0,0,0,0,0,0,0,0,0,0,0,0,0,0,0,0,0,0,0,0,0,0,0,0,0,0,0,0,0,0,0,0,0,0,0,0,0,0,0,0,0,0,0,0,0,0,0,0,0,0,0,0,0,0,0,0,0,0,0,0,0,0,0,0,0,0,0,0,0
"Ind45","4_0_8",17,17,17,16,16,16,16,16,17,17,23,23,23,23,23,24,23,23,23,23,23,23,23,23,23,23,23,23,23,23,18,18,19,19,18,18,18,18,18,18,0,0,0,0,-1,0,0,0,0,0,0,0,0,0,0,0,0,0,0,0,0,0,0,0,0,0,0,0,0,0,0,0,0,0,0,0,0,0,0,0,0,0,0,0,0,0,0,0,0,0,0,0,0,0,0,0,0,0,0,0,0,0,0,0,0,0,0,0,0,0,0,0,0,0,0,0,0,0,0,0,0
"Ind46","4_0_3",16,16,16,15,15,15,15,15,16,16,22,22,22,22,22,23,22,22,22,22,22,22,22,22,22,22,22,22,22,22,17,17,18,18,17,17,17,17,17,17,1,1,1,1,1,-1,0,0,0,0,0,0,0,0,0,0,0,0,0,0,0,0,0,0,0,0,0,0,0,0,0,0,0,0,0,0,0,0,0,0,0,0,0,0,0,0,0,0,0,0,0,0,0,0,0,0,0,0,0,0,0,0,0,0,0,0,0,0,0,0,0,0,0,0,0,0,0,0,0,0,0
"Ind47","4_0_1",16,16,16,15,15,15,15,15,16,16,22,22,22,22,22,23,22,22,22,22,22,22,22,22,22,22,22,22,22,22,17,17,18,18,17,17,17,17,17,17,1,1,1,1,1,0,-1,0,0,0,0,0,0,0,0,0,0,0,0,0,0,0,0,0,0,0,0,0,0,0,0,0,0,0,0,0,0,0,0,0,0,0,0,0,0,0,0,0,0,0,0,0,0,0,0,0,0,0,0,0,0,0,0,0,0,0,0,0,0,0,0,0,0,0,0,0,0,0,0,0,0
"Ind48","4_0_2",16,16,16,15,15,15,15,15,16,16,22,22,22,22,22,23,22,22,22,22,22,22,22,22,22,22,22,22,22,22,17,17,18,18,17,17,17,17,17,17,1,1,1,1,1,0,0,-1,0,0,0,0,0,0,0,0,0,0,0,0,0,0,0,0,0,0,0,0,0,0,0,0,0,0,0,0,0,0,0,0,0,0,0,0,0,0,0,0,0,0,0,0,0,0,0,0,0,0,0,0,0,0,0,0,0,0,0,0,0,0,0,0,0,0,0,0,0,0,0,0,0
"Ind49","4_0_5",16,16,16,15,15,15,15,15,16,16,22,22,22,22,22,23,22,22,22,22,22,22,22,22,22,22,22,22,22,22,17,17,18,18,17,17,17,17,17,17,1,1,1,1,1,0,0,0,-1,0,0,0,0,0,0,0,0,0,0,0,0,0,0,0,0,0,0,0,0,0,0,0,0,0,0,0,0,0,0,0,0,0,0,0,0,0,0,0,0,0,0,0,0,0,0,0,0,0,0,0,0,0,0,0,0,0,0,0,0,0,0,0,0,0,0,0,0,0,0,0,0
"Ind50","4_0_7",16,16,16,15,15,15,15,15,16,16,22,22,22,22,22,23,22,22,22,22,22,22,22,22,22,22,22,22,22,22,17,17,18,18,17,17,17,17,17,17,1,1,1,1,1,0,0,0,0,-1,0,0,0,0,0,0,0,0,0,0,0,0,0,0,0,0,0,0,0,0,0,0,0,0,0,0,0,0,0,0,0,0,0,0,0,0,0,0,0,0,0,0,0,0,0,0,0,0,0,0,0,0,0,0,0,0,0,0,0,0,0,0,0,0,0,0,0,0,0,0,0
"Ind51","8_0_1",12,12,12,11,11,11,11,11,12,12,16,16,16,16,16,17,16,16,16,16,16,16,16,16,16,16,16,16,16,16,23,23,24,24,23,23,23,23,23,23,21,21,21,21,21,20,20,20,20,20,-1,0,0,0,0,0,0,0,0,0,0,0,0,0,0,0,0,0,0,0,0,0,0,0,0,0,0,0,0,0,0,0,0,0,0,0,0,0,0,0,0,0,0,0,0,0,0,0,0,0,0,0,0,0,0,0,0,0,0,0,0,0,0,0,0,0,0,0,0,0,0
"Ind52","8_0_0",12,12,12,11,11,11,11,11,12,12,16,16,16,16,16,17,16,16,16,16,16,16,16,16,16,16,16,16,16,16,23,23,24,24,23,23,23,23,23,23,21,21,21,21,21,20,20,20,20,20,0,-1,0,0,0,0,0,0,0,0,0,0,0,0,0,0,0,0,0,0,0,0,0,0,0,0,0,0,0,0,0,0,0,0,0,0,0,0,0,0,0,0,0,0,0,0,0,0,0,0,0,0,0,0,0,0,0,0,0,0,0,0,0,0,0,0,0,0,0,0,0
"Ind53","8_0_2",12,12,12,11,11,11,11,11,12,12,16,16,16,16,16,17,16,16,16,16,16,16,16,16,16,16,16,16,16,16,23,23,24,24,23,23,23,23,23,23,21,21,21,21,21,20,20,20,20,20,0,0,-1,0,0,0,0,0,0,0,0,0,0,0,0,0,0,0,0,0,0,0,0,0,0,0,0,0,0,0,0,0,0,0,0,0,0,0,0,0,0,0,0,0,0,0,0,0,0,0,0,0,0,0,0,0,0,0,0,0,0,0,0,0,0,0,0,0,0,0,0
"Ind54","8_0_5",12,12,12,11,11,11,11,11,12,12,16,16,16,16,16,17,16,16,16,16,16,16,16,16,16,16,16,16,16,16,23,23,24,24,23,23,23,23,23,23,21,21,21,21,21,20,20,20,20,20,0,0,0,-1,0,0,0,0,0,0,0,0,0,0,0,0,0,0,0,0,0,0,0,0,0,0,0,0,0,0,0,0,0,0,0,0,0,0,0,0,0,0,0,0,0,0,0,0,0,0,0,0,0,0,0,0,0,0,0,0,0,0,0,0,0,0,0,0,0,0,0
"Ind55","8_0_8",12,12,12,11,11,11,11,11,12,12,16,16,16,16,16,17,16,16,16,16,16,16,16,16,16,16,16,16,16,16,23,23,24,24,23,23,23,23,23,23,21,21,21,21,21,20,20,20,20,20,0,0,0,0,-1,0,0,0,0,0,0,0,0,0,0,0,0,0,0,0,0,0,0,0,0,0,0,0,0,0,0,0,0,0,0,0,0,0,0,0,0,0,0,0,0,0,0,0,0,0,0,0,0,0,0,0,0,0,0,0,0,0,0,0,0,0,0,0,0,0,0
"Ind56","8_0_6",12,12,12,11,11,11,11,11,12,12,16,16,16,16,16,17,16,16,16,16,16,16,16,16,16,16,16,16,16,16,23,23,24,24,23,23,23,23,23,23,21,21,21,21,21,20,20,20,20,20,0,0,0,0,0,-1,0,0,0,0,0,0,0,0,0,0,0,0,0,0,0,0,0,0,0,0,0,0,0,0,0,0,0,0,0,0,0,0,0,0,0,0,0,0,0,0,0,0,0,0,0,0,0,0,0,0,0,0,0,0,0,0,0,0,0,0,0,0,0,0,0
"Ind57","8_0_4",12,12,12,11,11,11,11,11,12,12,16,16,16,16,16,17,16,16,16,16,16,16,16,16,16,16,16,16,16,16,23,23,24,24,23,23,23,23,23,23,21,21,21,21,21,20,20,20,20,20,0,0,0,0,0,0,-1,0,0,0,0,0,0,0,0,0,0,0,0,0,0,0,0,0,0,0,0,0,0,0,0,0,0,0,0,0,0,0,0,0,0,0,0,0,0,0,0,0,0,0,0,0,0,0,0,0,0,0,0,0,0,0,0,0,0,0,0,0,0,0,0
"Ind58","8_0_9",12,12,12,11,11,11,11,11,12,12,16,16,16,16,16,17,16,16,16,16,16,16,16,16,16,16,16,16,16,16,23,23,24,24,23,23,23,23,23,23,21,21,21,21,21,20,20,20,20,20,0,0,0,0,0,0,0,-1,0,0,0,0,0,0,0,0,0,0,0,0,0,0,0,0,0,0,0,0,0,0,0,0,0,0,0,0,0,0,0,0,0,0,0,0,0,0,0,0,0,0,0,0,0,0,0,0,0,0,0,0,0,0,0,0,0,0,0,0,0,0,0
"Ind59","8_0_3",12,12,12,11,11,11,11,11,12,12,16,16,16,16,16,17,16,16,16,16,16,16,16,16,16,16,16,16,16,16,23,23,24,24,23,23,23,23,23,23,21,21,21,21,21,20,20,20,20,20,0,0,0,0,0,0,0,0,-1,0,0,0,0,0,0,0,0,0,0,0,0,0,0,0,0,0,0,0,0,0,0,0,0,0,0,0,0,0,0,0,0,0,0,0,0,0,0,0,0,0,0,0,0,0,0,0,0,0,0,0,0,0,0,0,0,0,0,0,0,0,0
"Ind60","8_0_7",13,13,13,12,12,12,12,12,13,13,17,17,17,17,17,18,17,17,17,17,17,17,17,17,17,17,17,17,17,17,24,24,25,25,24,24,24,24,24,24,22,22,22,22,22,21,21,21,21,21,1,1,1,1,1,1,1,1,1,-1,0,0,0,0,0,0,0,0,0,0,0,0,0,0,0,0,0,0,0,0,0,0,0,0,0,0,0,0,0,0,0,0,0,0,0,0,0,0,0,0,0,0,0,0,0,0,0,0,0,0,0,0,0,0,0,0,0,0,0,0,0
"Ind61","7_0_5",15,15,15,14,14,14,14,14,15,15,19,19,19,19,19,20,19,19,19,19,19,19,19,19,19,19,19,19,19,19,26,26,27,27,26,26,26,26,26,26,24,24,24,24,24,23,23,23,23,23,3,3,3,3,3,3,3,3,3,4,-1,0,0,0,0,0,0,0,0,0,0,0,0,0,0,0,0,0,0,0,0,0,0,0,0,0,0,0,0,0,0,0,0,0,0,0,0,0,0,0,0,0,0,0,0,0,0,0,0,0,0,0,0,0,0,0,0,0,0,0,0
"Ind62","7_0_3",15,15,15,14,14,14,14,14,15,15,19,19,19,19,19,20,19,19,19,19,19,19,19,19,19,19,19,19,19,19,26,26,27,27,26,26,26,26,26,26,24,24,24,24,24,23,23,23,23,23,3,3,3,3,3,3,3,3,3,4,0,-1,0,0,0,0,0,0,0,0,0,0,0,0,0,0,0,0,0,0,0,0,0,0,0,0,0,0,0,0,0,0,0,0,0,0,0,0,0,0,0,0,0,0,0,0,0,0,0,0,0,0,0,0,0,0,0,0,0,0,0
"Ind63","7_0_0",15,15,15,14,14,14,14,14,15,15,19,19,19,19,19,20,19,19,19,19,19,19,19,19,19,19,19,19,19,19,26,26,27,27,26,26,26,26,26,26,24,24,24,24,24,23,23,23,23,23,3,3,3,3,3,3,3,3,3,4,0,0,-1,0,0,0,0,0,0,0,0,0,0,0,0,0,0,0,0,0,0,0,0,0,0,0,0,0,0,0,0,0,0,0,0,0,0,0,0,0,0,0,0,0,0,0,0,0,0,0,0,0,0,0,0,0,0,0,0,0,0
"Ind64","7_0_4",16,16,16,15,15,15,15,15,16,16,20,20,20,20,20,21,20,20,20,20,20,20,20,20,20,20,20,20,20,20,27,27,28,28,27,27,27,27,27,27,25,25,25,25,25,24,24,24,24,24,4,4,4,4,4,4,4,4,4,5,3,3,3,-1,0,0,0,0,0,0,0,0,0,0,0,0,0,0,0,0,0,0,0,0,0,0,0,0,0,0,0,0,0,0,0,0,0,0,0,0,0,0,0,0,0,0,0,0,0,0,0,0,0,0,0,0,0,0,0,0,0
"Ind65","7_0_6",16,16,16,15,15,15,15,15,16,16,20,20,20,20,20,21,20,20,20,20,20,20,20,20,20,20,20,20,20,20,27,27,28,28,27,27,27,27,27,27,25,25,25,25,25,24,24,24,24,24,4,4,4,4,4,4,4,4,4,5,3,3,3,0,-1,0,0,0,0,0,0,0,0,0,0,0,0,0,0,0,0,0,0,0,0,0,0,0,0,0,0,0,0,0,0,0,0,0,0,0,0,0,0,0,0,0,0,0,0,0,0,0,0,0,0,0,0,0,0,0,0
"Ind66","7_0_7",16,16,16,15,15,15,15,15,16,16,20,20,20,20,20,21,20,20,20,20,20,20,20,20,20,20,20,20,20,20,27,27,28,28,27,27,27,27,27,27,25,25,25,25,25,24,24,24,24,24,4,4,4,4,4,4,4,4,4,5,3,3,3,0,0,-1,0,0,0,0,0,0,0,0,0,0,0,0,0,0,0,0,0,0,0,0,0,0,0,0,0,0,0,0,0,0,0,0,0,0,0,0,0,0,0,0,0,0,0,0,0,0,0,0,0,0,0,0,0,0,0
"Ind67","7_0_8",16,16,16,15,15,15,15,15,16,16,20,20,20,20,20,21,20,20,20,20,20,20,20,20,20,20,20,20,20,20,27,27,28,28,27,27,27,27,27,27,25,25,25,25,25,24,24,24,24,24,4,4,4,4,4,4,4,4,4,5,3,3,3,0,0,0,-1,0,0,0,0,0,0,0,0,0,0,0,0,0,0,0,0,0,0,0,0,0,0,0,0,0,0,0,0,0,0,0,0,0,0,0,0,0,0,0,0,0,0,0,0,0,0,0,0,0,0,0,0,0,0
"Ind68","7_0_1",16,16,16,15,15,15,15,15,16,16,20,20,20,20,20,21,20,20,20,20,20,20,20,20,20,20,20,20,20,20,27,27,28,28,27,27,27,27,27,27,25,25,25,25,25,24,24,24,24,24,4,4,4,4,4,4,4,4,4,5,3,3,3,0,0,0,0,-1,0,0,0,0,0,0,0,0,0,0,0,0,0,0,0,0,0,0,0,0,0,0,0,0,0,0,0,0,0,0,0,0,0,0,0,0,0,0,0,0,0,0,0,0,0,0,0,0,0,0,0,0,0
"Ind69","7_0_9",16,16,16,15,15,15,15,15,16,16,20,20,20,20,20,21,20,20,20,20,20,20,20,20,20,20,20,20,20,20,27,27,28,28,27,27,27,27,27,27,25,25,25,25,25,24,24,24,24,24,4,4,4,4,4,4,4,4,4,5,3,3,3,0,0,0,0,0,-1,0,0,0,0,0,0,0,0,0,0,0,0,0,0,0,0,0,0,0,0,0,0,0,0,0,0,0,0,0,0,0,0,0,0,0,0,0,0,0,0,0,0,0,0,0,0,0,0,0,0,0,0
"Ind70","7_0_2",16,16,16,15,15,15,15,15,16,16,20,20,20,20,20,21,20,20,20,20,20,20,20,20,20,20,20,20,20,20,27,27,28,28,27,27,27,27,27,27,25,25,25,25,25,24,24,24,24,24,4,4,4,4,4,4,4,4,4,5,3,3,3,0,0,0,0,0,0,-1,0,0,0,0,0,0,0,0,0,0,0,0,0,0,0,0,0,0,0,0,0,0,0,0,0,0,0,0,0,0,0,0,0,0,0,0,0,0,0,0,0,0,0,0,0,0,0,0,0,0,0
"Ind71","10_0_3",20,20,20,19,19,19,19,19,20,20,20,20,20,20,20,21,20,20,20,20,20,20,20,20,20,20,20,20,20,20,29,29,30,30,29,29,29,29,29,29,19,19,19,19,19,18,18,18,18,18,18,18,18,18,18,18,18,18,18,19,21,21,21,22,22,22,22,22,22,22,-1,0,0,0,0,0,0,0,0,0,0,0,0,0,0,0,0,0,0,0,0,0,0,0,0,0,0,0,0,0,0,0,0,0,0,0,0,0,0,0,0,0,0,0,0,0,0,0,0,0,0
"Ind72","10_0_7",20,20,20,19,19,19,19,19,20,20,20,20,20,20,20,21,20,20,20,20,20,20,20,20,20,20,20,20,20,20,29,29,30,30,29,29,29,29,29,29,19,19,19,19,19,18,18,18,18,18,18,18,18,18,18,18,18,18,18,19,21,21,21,22,22,22,22,22,22,22,0,-1,0,0,0,0,0,0,0,0,0,0,0,0,0,0,0,0,0,0,0,0,0,0,0,0,0,0,0,0,0,0,0,0,0,0,0,0,0,0,0,0,0,0,0,0,0,0,0,0,0
"Ind73","10_0_2",20,20,20,19,19,19,19,19,20,20,20,20,20,20,20,21,20,20,20,20,20,20,20,20,20,20,20,20,20,20,29,29,30,30,29,29,29,29,29,29,19,19,19,19,19,18,18,18,18,18,18,18,18,18,18,18,18,18,18,19,21,21,21,22,22,22,22,22,22,22,0,0,-1,0,0,0,0,0,0,0,0,0,0,0,0,0,0,0,0,0,0,0,0,0,0,0,0,0,0,0,0,0,0,0,0,0,0,0,0,0,0,0,0,0,0,0,0,0,0,0,0
"Ind74","10_0_8",20,20,20,19,19,19,19,19,20,20,20,20,20,20,20,21,20,20,20,20,20,20,20,20,20,20,20,20,20,20,29,29,30,30,29,29,29,29,29,29,19,19,19,19,19,18,18,18,18,18,18,18,18,18,18,18,18,18,18,19,21,21,21,22,22,22,22,22,22,22,0,0,0,-1,0,0,0,0,0,0,0,0,0,0,0,0,0,0,0,0,0,0,0,0,0,0,0,0,0,0,0,0,0,0,0,0,0,0,0,0,0,0,0,0,0,0,0,0,0,0,0
"Ind75","10_0_9",20,20,20,19,19,19,19,19,20,20,20,20,20,20,20,21,20,20,20,20,20,20,20,20,20,20,20,20,20,20,29,29,30,30,29,29,29,29,29,29,19,19,19,19,19,18,18,18,18,18,18,18,18,18,18,18,18,18,18,19,21,21,21,22,22,22,22,22,22,22,0,0,0,0,-1,0,0,0,0,0,0,0,0,0,0,0,0,0,0,0,0,0,0,0,0,0,0,0,0,0,0,0,0,0,0,0,0,0,0,0,0,0,0,0,0,0,0,0,0,0,0
"Ind76","10_0_1",20,20,20,19,19,19,19,19,20,20,20,20,20,20,20,21,20,20,20,20,20,20,20,20,20,20,20,20,20,20,29,29,30,30,29,29,29,29,29,29,19,19,19,19,19,18,18,18,18,18,18,18,18,18,18,18,18,18,18,19,21,21,21,22,22,22,22,22,22,22,0,0,0,0,0,-1,0,0,0,0,0,0,0,0,0,0,0,0,0,0,0,0,0,0,0,0,0,0,0,0,0,0,0,0,0,0,0,0,0,0,0,0,0,0,0,0,0,0,0,0,0
"Ind77","10_0_6",20,20,20,19,19,19,19,19,20,20,20,20,20,20,20,21,20,20,20,20,20,20,20,20,20,20,20,20,20,20,29,29,30,30,29,29,29,29,29,29,19,19,19,19,19,18,18,18,18,18,18,18,18,18,18,18,18,18,18,19,21,21,21,22,22,22,22,22,22,22,0,0,0,0,0,0,-1,0,0,0,0,0,0,0,0,0,0,0,0,0,0,0,0,0,0,0,0,0,0,0,0,0,0,0,0,0,0,0,0,0,0,0,0,0,0,0,0,0,0,0,0
"Ind78","10_0_4",20,20,20,19,19,19,19,19,20,20,20,20,20,20,20,21,20,20,20,20,20,20,20,20,20,20,20,20,20,20,29,29,30,30,29,29,29,29,29,29,19,19,19,19,19,18,18,18,18,18,18,18,18,18,18,18,18,18,18,19,21,21,21,22,22,22,22,22,22,22,0,0,0,0,0,0,0,-1,0,0,0,0,0,0,0,0,0,0,0,0,0,0,0,0,0,0,0,0,0,0,0,0,0,0,0,0,0,0,0,0,0,0,0,0,0,0,0,0,0,0,0
"Ind79","10_0_0",20,20,20,19,19,19,19,19,20,20,20,20,20,20,20,21,20,20,20,20,20,20,20,20,20,20,20,20,20,20,29,29,30,30,29,29,29,29,29,29,19,19,19,19,19,18,18,18,18,18,18,18,18,18,18,18,18,18,18,19,21,21,21,22,22,22,22,22,22,22,0,0,0,0,0,0,0,0,-1,0,0,0,0,0,0,0,0,0,0,0,0,0,0,0,0,0,0,0,0,0,0,0,0,0,0,0,0,0,0,0,0,0,0,0,0,0,0,0,0,0,0
"Ind80","10_0_5",20,20,20,19,19,19,19,19,20,20,20,20,20,20,20,21,20,20,20,20,20,20,20,20,20,20,20,20,20,20,29,29,30,30,29,29,29,29,29,29,19,19,19,19,19,18,18,18,18,18,18,18,18,18,18,18,18,18,18,19,21,21,21,22,22,22,22,22,22,22,0,0,0,0,0,0,0,0,0,-1,0,0,0,0,0,0,0,0,0,0,0,0,0,0,0,0,0,0,0,0,0,0,0,0,0,0,0,0,0,0,0,0,0,0,0,0,0,0,0,0,0
"Ind81","9_0_1",20,20,20,19,19,19,19,19,20,20,20,20,20,20,20,21,20,20,20,20,20,20,20,20,20,20,20,20,20,20,27,27,28,28,27,27,27,27,27,27,25,25,25,25,25,24,24,24,24,24,18,18,18,18,18,18,18,18,18,19,21,21,21,22,22,22,22,22,22,22,18,18,18,18,18,18,18,18,18,18,-1,0,0,0,0,0,0,0,0,0,0,0,0,0,0,0,0,0,0,0,0,0,0,0,0,0,0,0,0,0,0,0,0,0,0,0,0,0,0,0,0
"Ind82","9_0_4",20,20,20,19,19,19,19,19,20,20,20,20,20,20,20,21,20,20,20,20,20,20,20,20,20,20,20,20,20,20,27,27,28,28,27,27,27,27,27,27,25,25,25,25,25,24,24,24,24,24,18,18,18,18,18,18,18,18,18,19,21,21,21,22,22,22,22,22,22,22,18,18,18,18,18,18,18,18,18,18,0,-1,0,0,0,0,0,0,0,0,0,0,0,0,0,0,0,0,0,0,0,0,0,0,0,0,0,0,0,0,0,0,0,0,0,0,0,0,0,0,0
"Ind83","9_0_8",20,20,20,19,19,19,19,19,20,20,20,20,20,20,20,21,20,20,20,20,20,20,20,20,20,20,20,20,20,20,27,27,28,28,27,27,27,27,27,27,25,25,25,25,25,24,24,24,24,24,18,18,18,18,18,18,18,18,18,19,21,21,21,22,22,22,22,22,22,22,18,18,18,18,18,18,18,18,18,18,0,0,-1,0,0,0,0,0,0,0,0,0,0,0,0,0,0,0,0,0,0,0,0,0,0,0,0,0,0,0,0,0,0,0,0,0,0,0,0,0,0
"Ind84","9_0_0",19,19,19,18,18,18,18,18,19,19,19,19,19,19,19,20,19,19,19,19,19,19,19,19,19,19,19,19,19,19,28,28,29,29,28,28,28,28,28,28,24,24,24,24,24,23,23,23,23,23,17,17,17,17,17,17,17,17,17,18,20,20,20,21,21,21,21,21,21,21,17,17,17,17,17,17,17,17,17,17,3,3,3,-1,0,0,0,0,0,0,0,0,0,0,0,0,0,0,0,0,0,0,0,0,0,0,0,0,0,0,0,0,0,0,0,0,0,0,0,0,0
"Ind85","9_0_5",19,19,19,18,18,18,18,18,19,19,19,19,19,19,19,20,19,19,19,19,19,19,19,19,19,19,19,19,19,19,28,28,29,29,28,28,28,28,28,28,24,24,24,24,24,23,23,23,23,23,17,17,17,17,17,17,17,17,17,18,20,20,20,21,21,21,21,21,21,21,17,17,17,17,17,17,17,17,17,17,3,3,3,0,-1,0,0,0,0,0,0,0,0,0,0,0,0,0,0,0,0,0,0,0,0,0,0,0,0,0,0,0,0,0,0,0,0,0,0,0,0
"Ind86","9_0_3",19,19,19,18,18,18,18,18,19,19,19,19,19,19,19,20,19,19,19,19,19,19,19,19,19,19,19,19,19,19,28,28,29,29,28,28,28,28,28,28,24,24,24,24,24,23,23,23,23,23,17,17,17,17,17,17,17,17,17,18,20,20,20,21,21,21,21,21,21,21,17,17,17,17,17,17,17,17,17,17,3,3,3,0,0,-1,0,0,0,0,0,0,0,0,0,0,0,0,0,0,0,0,0,0,0,0,0,0,0,0,0,0,0,0,0,0,0,0,0,0,0
"Ind87","9_0_2",19,19,19,18,18,18,18,18,19,19,19,19,19,19,19,20,19,19,19,19,19,19,19,19,19,19,19,19,19,19,28,28,29,29,28,28,28,28,28,28,24,24,24,24,24,23,23,23,23,23,17,17,17,17,17,17,17,17,17,18,20,20,20,21,21,21,21,21,21,21,17,17,17,17,17,17,17,17,17,17,3,3,3,0,0,0,-1,0,0,0,0,0,0,0,0,0,0,0,0,0,0,0,0,0,0,0,0,0,0,0,0,0,0,0,0,0,0,0,0,0,0
"Ind88","9_0_7",20,20,20,19,19,19,19,19,20,20,20,20,20,20,20,21,20,20,20,20,20,20,20,20,20,20,20,20,20,20,29,29,30,30,29,29,29,29,29,29,25,25,25,25,25,24,24,24,24,24,18,18,18,18,18,18,18,18,18,19,21,21,21,22,22,22,22,22,22,22,18,18,18,18,18,18,18,18,18,18,4,4,4,1,1,1,1,-1,0,0,0,0,0,0,0,0,0,0,0,0,0,0,0,0,0,0,0,0,0,0,0,0,0,0,0,0,0,0,0,0,0
"Ind89","9_0_6",19,19,19,18,18,18,18,18,19,19,19,19,19,19,19,20,19,19,19,19,19,19,19,19,19,19,19,19,19,19,28,28,29,29,28,28,28,28,28,28,24,24,24,24,24,23,23,23,23,23,17,17,17,17,17,17,17,17,17,18,20,20,20,21,21,21,21,21,21,21,17,17,17,17,17,17,17,17,17,17,3,3,3,0,0,0,0,1,-1,0,0,0,0,0,0,0,0,0,0,0,0,0,0,0,0,0,0,0,0,0,0,0,0,0,0,0,0,0,0,0,0
"Ind90","9_0_9",19,19,19,18,18,18,18,18,19,19,19,19,19,19,19,20,19,19,19,19,19,19,19,19,19,19,19,19,19,19,28,28,29,29,28,28,28,28,28,28,24,24,24,24,24,23,23,23,23,23,17,17,17,17,17,17,17,17,17,18,20,20,20,21,21,21,21,21,21,21,17,17,17,17,17,17,17,17,17,17,3,3,3,0,0,0,0,1,0,-1,0,0,0,0,0,0,0,0,0,0,0,0,0,0,0,0,0,0,0,0,0,0,0,0,0,0,0,0,0,0,0
"Ind91","6_0_4",12,12,12,11,11,11,11,11,12,12,12,12,12,12,12,13,12,12,12,12,12,12,12,12,12,12,12,12,12,12,21,21,22,22,21,21,21,21,21,21,17,17,17,17,17,16,16,16,16,16,10,10,10,10,10,10,10,10,10,11,13,13,13,14,14,14,14,14,14,14,10,10,10,10,10,10,10,10,10,10,10,10,10,7,7,7,7,8,7,7,-1,0,0,0,0,0,0,0,0,0,0,0,0,0,0,0,0,0,0,0,0,0,0,0,0,0,0,0,0,0,0
"Ind92","6_0_3",12,12,12,11,11,11,11,11,12,12,12,12,12,12,12,13,12,12,12,12,12,12,12,12,12,12,12,12,12,12,21,21,22,22,21,21,21,21,21,21,17,17,17,17,17,16,16,16,16,16,10,10,10,10,10,10,10,10,10,11,13,13,13,14,14,14,14,14,14,14,10,10,10,10,10,10,10,10,10,10,10,10,10,7,7,7,7,8,7,7,0,-1,0,0,0,0,0,0,0,0,0,0,0,0,0,0,0,0,0,0,0,0,0,0,0,0,0,0,0,0,0
"Ind93","6_0_9",12,12,12,11,11,11,11,11,12,12,12,12,12,12,12,13,12,12,12,12,12,12,12,12,12,12,12,12,12,12,21,21,22,22,21,21,21,21,21,21,17,17,17,17,17,16,16,16,16,16,10,10,10,10,10,10,10,10,10,11,13,13,13,14,14,14,14,14,14,14,10,10,10,10,10,10,10,10,10,10,10,10,10,7,7,7,7,8,7,7,0,0,-1,0,0,0,0,0,0,0,0,0,0,0,0,0,0,0,0,0,0,0,0,0,0,0,0,0,0,0,0
"Ind94","6_0_6",12,12,12,11,11,11,11,11,12,12,12,12,12,12,12,13,12,12,12,12,12,12,12,12,12,12,12,12,12,12,21,21,22,22,21,21,21,21,21,21,17,17,17,17,17,16,16,16,16,16,10,10,10,10,10,10,10,10,10,11,13,13,13,14,14,14,14,14,14,14,10,10,10,10,10,10,10,10,10,10,10,10,10,7,7,7,7,8,7,7,0,0,0,-1,0,0,0,0,0,0,0,0,0,0,0,0,0,0,0,0,0,0,0,0,0,0,0,0,0,0,0
"Ind95","6_0_8",12,12,12,11,11,11,11,11,12,12,12,12,12,12,12,13,12,12,12,12,12,12,12,12,12,12,12,12,12,12,21,21,22,22,21,21,21,21,21,21,17,17,17,17,17,16,16,16,16,16,10,10,10,10,10,10,10,10,10,11,13,13,13,14,14,14,14,14,14,14,10,10,10,10,10,10,10,10,10,10,10,10,10,7,7,7,7,8,7,7,0,0,0,0,-1,0,0,0,0,0,0,0,0,0,0,0,0,0,0,0,0,0,0,0,0,0,0,0,0,0,0
"Ind96","6_0_0",12,12,12,11,11,11,11,11,12,12,12,12,12,12,12,13,12,12,12,12,12,12,12,12,12,12,12,12,12,12,21,21,22,22,21,21,21,21,21,21,17,17,17,17,17,16,16,16,16,16,10,10,10,10,10,10,10,10,10,11,13,13,13,14,14,14,14,14,14,14,10,10,10,10,10,10,10,10,10,10,10,10,10,7,7,7,7,8,7,7,0,0,0,0,0,-1,0,0,0,0,0,0,0,0,0,0,0,0,0,0,0,0,0,0,0,0,0,0,0,0,0
"Ind97","6_0_5",12,12,12,11,11,11,11,11,12,12,12,12,12,12,12,13,12,12,12,12,12,12,12,12,12,12,12,12,12,12,21,21,22,22,21,21,21,21,21,21,17,17,17,17,17,16,16,16,16,16,10,10,10,10,10,10,10,10,10,11,13,13,13,14,14,14,14,14,14,14,10,10,10,10,10,10,10,10,10,10,10,10,10,7,7,7,7,8,7,7,0,0,0,0,0,0,-1,0,0,0,0,0,0,0,0,0,0,0,0,0,0,0,0,0,0,0,0,0,0,0,0
"Ind98","6_0_1",12,12,12,11,11,11,11,11,12,12,12,12,12,12,12,13,12,12,12,12,12,12,12,12,12,12,12,12,12,12,21,21,22,22,21,21,21,21,21,21,17,17,17,17,17,16,16,16,16,16,10,10,10,10,10,10,10,10,10,11,13,13,13,14,14,14,14,14,14,14,10,10,10,10,10,10,10,10,10,10,10,10,10,7,7,7,7,8,7,7,0,0,0,0,0,0,0,-1,0,0,0,0,0,0,0,0,0,0,0,0,0,0,0,0,0,0,0,0,0,0,0
"Ind99","6_0_2",12,12,12,11,11,11,11,11,12,12,12,12,12,12,12,13,12,12,12,12,12,12,12,12,12,12,12,12,12,12,21,21,22,22,21,21,21,21,21,21,17,17,17,17,17,16,16,16,16,16,10,10,10,10,10,10,10,10,10,11,13,13,13,14,14,14,14,14,14,14,10,10,10,10,10,10,10,10,10,10,10,10,10,7,7,7,7,8,7,7,0,0,0,0,0,0,0,0,-1,0,0,0,0,0,0,0,0,0,0,0,0,0,0,0,0,0,0,0,0,0,0
"Ind100","6_0_7",12,12,12,11,11,11,11,11,12,12,12,12,12,12,12,13,12,12,12,12,12,12,12,12,12,12,12,12,12,12,21,21,22,22,21,21,21,21,21,21,17,17,17,17,17,16,16,16,16,16,10,10,10,10,10,10,10,10,10,11,13,13,13,14,14,14,14,14,14,14,10,10,10,10,10,10,10,10,10,10,10,10,10,7,7,7,7,8,7,7,0,0,0,0,0,0,0,0,0,-1,0,0,0,0,0,0,0,0,0,0,0,0,0,0,0,0,0,0,0,0,0
"Ind101","11_0_7",23,23,23,22,22,22,22,22,23,23,31,31,31,31,31,32,31,31,31,31,31,31,31,31,31,31,31,31,31,31,32,32,33,33,32,32,32,32,32,32,32,32,32,32,32,31,31,31,31,31,25,25,25,25,25,25,25,25,25,24,28,28,28,29,29,29,29,29,29,29,31,31,31,31,31,31,31,31,31,31,29,29,29,30,30,30,30,31,30,30,27,27,27,27,27,27,27,27,27,27,-1,0,0,0,0,0,0,0,0,0,0,0,0,0,0,0,0,0,0,0,0
"Ind102","11_0_4",23,23,23,22,22,22,22,22,23,23,31,31,31,31,31,32,31,31,31,31,31,31,31,31,31,31,31,31,31,31,32,32,33,33,32,32,32,32,32,32,32,32,32,32,32,31,31,31,31,31,25,25,25,25,25,25,25,25,25,24,28,28,28,29,29,29,29,29,29,29,31,31,31,31,31,31,31,31,31,31,29,29,29,30,30,30,30,31,30,30,27,27,27,27,27,27,27,27,27,27,0,-1,0,0,0,0,0,0,0,0,0,0,0,0,0,0,0,0,0,0,0
"Ind103","11_0_2",23,23,23,22,22,22,22,22,23,23,31,31,31,31,31,32,31,31,31,31,31,31,31,31,31,31,31,31,31,31,32,32,33,33,32,32,32,32,32,32,32,32,32,32,32,31,31,31,31,31,25,25,25,25,25,25,25,25,25,24,28,28,28,29,29,29,29,29,29,29,31,31,31,31,31,31,31,31,31,31,29,29,29,30,30,30,30,31,30,30,27,27,27,27,27,27,27,27,27,27,0,0,-1,0,0,0,0,0,0,0,0,0,0,0,0,0,0,0,0,0,0
"Ind104","11_0_8",23,23,23,22,22,22,22,22,23,23,31,31,31,31,31,32,31,31,31,31,31,31,31,31,31,31,31,31,31,31,32,32,33,33,32,32,32,32,32,32,32,32,32,32,32,31,31,31,31,31,25,25,25,25,25,25,25,25,25,24,28,28,28,29,29,29,29,29,29,29,31,31,31,31,31,31,31,31,31,31,29,29,29,30,30,30,30,31,30,30,27,27,27,27,27,27,27,27,27,27,0,0,0,-1,0,0,0,0,0,0,0,0,0,0,0,0,0,0,0,0,0
"Ind105","11_0_3",23,23,23,22,22,22,22,22,23,23,31,31,31,31,31,32,31,31,31,31,31,31,31,31,31,31,31,31,31,31,32,32,33,33,32,32,32,32,32,32,32,32,32,32,32,31,31,31,31,31,25,25,25,25,25,25,25,25,25,24,28,28,28,29,29,29,29,29,29,29,31,31,31,31,31,31,31,31,31,31,29,29,29,30,30,30,30,31,30,30,27,27,27,27,27,27,27,27,27,27,0,0,0,0,-1,0,0,0,0,0,0,0,0,0,0,0,0,0,0,0,0
"Ind106","11_0_0",22,22,22,21,21,21,21,21,22,22,28,28,28,28,28,29,28,28,28,28,28,28,28,28,28,28,28,28,28,28,31,31,32,32,31,31,31,31,31,31,31,31,31,31,31,30,30,30,30,30,22,22,22,22,22,22,22,22,22,21,25,25,25,26,26,26,26,26,26,26,28,28,28,28,28,28,28,28,28,28,26,26,26,27,27,27,27,28,27,27,24,24,24,24,24,24,24,24,24,24,3,3,3,3,3,-1,0,0,0,0,0,0,0,0,0,0,0,0,0,0,0
"Ind107","11_0_9",22,22,22,21,21,21,21,21,22,22,28,28,28,28,28,29,28,28,28,28,28,28,28,28,28,28,28,28,28,28,31,31,32,32,31,31,31,31,31,31,31,31,31,31,31,30,30,30,30,30,22,22,22,22,22,22,22,22,22,21,25,25,25,26,26,26,26,26,26,26,28,28,28,28,28,28,28,28,28,28,26,26,26,27,27,27,27,28,27,27,24,24,24,24,24,24,24,24,24,24,3,3,3,3,3,0,-1,0,0,0,0,0,0,0,0,0,0,0,0,0,0
"Ind108","11_0_5",22,22,22,21,21,21,21,21,22,22,28,28,28,28,28,29,28,28,28,28,28,28,28,28,28,28,28,28,28,28,31,31,32,32,31,31,31,31,31,31,31,31,31,31,31,30,30,30,30,30,22,22,22,22,22,22,22,22,22,21,25,25,25,26,26,26,26,26,26,26,28,28,28,28,28,28,28,28,28,28,26,26,26,27,27,27,27,28,27,27,24,24,24,24,24,24,24,24,24,24,3,3,3,3,3,0,0,-1,0,0,0,0,0,0,0,0,0,0,0,0,0
"Ind109","11_0_1",22,22,22,21,21,21,21,21,22,22,28,28,28,28,28,29,28,28,28,28,28,28,28,28,28,28,28,28,28,28,31,31,32,32,31,31,31,31,31,31,31,31,31,31,31,30,30,30,30,30,22,22,22,22,22,22,22,22,22,21,25,25,25,26,26,26,26,26,26,26,28,28,28,28,28,28,28,28,28,28,26,26,26,27,27,27,27,28,27,27,24,24,24,24,24,24,24,24,24,24,3,3,3,3,3,0,0,0,-1,0,0,0,0,0,0,0,0,0,0,0,0
"Ind110","11_0_6",22,22,22,21,21,21,21,21,22,22,28,28,28,28,28,29,28,28,28,28,28,28,28,28,28,28,28,28,28,28,31,31,32,32,31,31,31,31,31,31,31,31,31,31,31,30,30,30,30,30,22,22,22,22,22,22,22,22,22,21,25,25,25,26,26,26,26,26,26,26,28,28,28,28,28,28,28,28,28,28,26,26,26,27,27,27,27,28,27,27,24,24,24,24,24,24,24,24,24,24,3,3,3,3,3,0,0,0,0,-1,0,0,0,0,0,0,0,0,0,0,0
"Ind111","12_0_3",10,10,10,9,9,9,9,9,10,10,16,16,16,16,16,17,16,16,16,16,16,16,16,16,16,16,16,16,16,16,21,21,22,22,21,21,21,21,21,21,19,19,19,19,19,18,18,18,18,18,8,8,8,8,8,8,8,8,8,9,11,11,11,12,12,12,12,12,12,12,16,16,16,16,16,16,16,16,16,16,16,16,16,15,15,15,15,16,15,15,10,10,10,10,10,10,10,10,10,10,19,19,19,19,19,16,16,16,16,16,-1,0,0,0,0,0,0,0,0,0,0
"Ind112","12_0_2",10,10,10,9,9,9,9,9,10,10,16,16,16,16,16,17,16,16,16,16,16,16,16,16,16,16,16,16,16,16,21,21,22,22,21,21,21,21,21,21,19,19,19,19,19,18,18,18,18,18,8,8,8,8,8,8,8,8,8,9,11,11,11,12,12,12,12,12,12,12,16,16,16,16,16,16,16,16,16,16,16,16,16,15,15,15,15,16,15,15,10,10,10,10,10,10,10,10,10,10,19,19,19,19,19,16,16,16,16,16,0,-1,0,0,0,0,0,0,0,0,0
"Ind113","12_0_0",11,11,11,10,10,10,10,10,11,11,17,17,17,17,17,18,17,17,17,17,17,17,17,17,17,17,17,17,17,17,22,22,23,23,22,22,22,22,22,22,20,20,20,20,20,19,19,19,19,19,9,9,9,9,9,9,9,9,9,10,12,12,12,13,13,13,13,13,13,13,17,17,17,17,17,17,17,17,17,17,17,17,17,16,16,16,16,17,16,16,11,11,11,11,11,11,11,11,11,11,20,20,20,20,20,17,17,17,17,17,1,1,-1,0,0,0,0,0,0,0,0
"Ind114","12_0_8",11,11,11,10,10,10,10,10,11,11,17,17,17,17,17,18,17,17,17,17,17,17,17,17,17,17,17,17,17,17,22,22,23,23,22,22,22,22,22,22,20,20,20,20,20,19,19,19,19,19,9,9,9,9,9,9,9,9,9,10,12,12,12,13,13,13,13,13,13,13,17,17,17,17,17,17,17,17,17,17,17,17,17,16,16,16,16,17,16,16,11,11,11,11,11,11,11,11,11,11,20,20,20,20,20,17,17,17,17,17,1,1,0,-1,0,0,0,0,0,0,0
"Ind115","12_0_6",12,12,12,11,11,11,11,11,12,12,18,18,18,18,18,19,18,18,18,18,18,18,18,18,18,18,18,18,18,18,23,23,24,24,23,23,23,23,23,23,21,21,21,21,21,20,20,20,20,20,10,10,10,10,10,10,10,10,10,11,13,13,13,14,14,14,14,14,14,14,18,18,18,18,18,18,18,18,18,18,18,18,18,17,17,17,17,18,17,17,12,12,12,12,12,12,12,12,12,12,21,21,21,21,21,18,18,18,18,18,2,2,3,3,-1,0,0,0,0,0,0
"Ind116","12_0_7",11,11,11,10,10,10,10,10,11,11,17,17,17,17,17,18,17,17,17,17,17,17,17,17,17,17,17,17,17,17,22,22,23,23,22,22,22,22,22,22,20,20,20,20,20,19,19,19,19,19,9,9,9,9,9,9,9,9,9,10,12,12,12,13,13,13,13,13,13,13,17,17,17,17,17,17,17,17,17,17,17,17,17,16,16,16,16,17,16,16,11,11,11,11,11,11,11,11,11,11,20,20,20,20,20,17,17,17,17,17,1,1,2,2,1,-1,0,0,0,0,0
"Ind117","12_0_4",11,11,11,10,10,10,10,10,11,11,17,17,17,17,17,18,17,17,17,17,17,17,17,17,17,17,17,17,17,17,22,22,23,23,22,22,22,22,22,22,20,20,20,20,20,19,19,19,19,19,9,9,9,9,9,9,9,9,9,10,12,12,12,13,13,13,13,13,13,13,17,17,17,17,17,17,17,17,17,17,17,17,17,16,16,16,16,17,16,16,11,11,11,11,11,11,11,11,11,11,20,20,20,20,20,17,17,17,17,17,1,1,2,2,3,2,-1,0,0,0,0
"Ind118","12_0_1",11,11,11,10,10,10,10,10,11,11,17,17,17,17,17,18,17,17,17,17,17,17,17,17,17,17,17,17,17,17,22,22,23,23,22,22,22,22,22,22,20,20,20,20,20,19,19,19,19,19,9,9,9,9,9,9,9,9,9,10,12,12,12,13,13,13,13,13,13,13,17,17,17,17,17,17,17,17,17,17,17,17,17,16,16,16,16,17,16,16,11,11,11,11,11,11,11,11,11,11,20,20,20,20,20,17,17,17,17,17,1,1,2,2,3,2,0,-1,0,0,0
"Ind119","12_0_5",11,11,11,10,10,10,10,10,11,11,17,17,17,17,17,18,17,17,17,17,17,17,17,17,17,17,17,17,17,17,22,22,23,23,22,22,22,22,22,22,20,20,20,20,20,19,19,19,19,19,9,9,9,9,9,9,9,9,9,10,12,12,12,13,13,13,13,13,13,13,17,17,17,17,17,17,17,17,17,17,17,17,17,16,16,16,16,17,16,16,11,11,11,11,11,11,11,11,11,11,20,20,20,20,20,17,17,17,17,17,1,1,2,2,3,2,0,0,-1,0,0
"Ind120","12_0_9",11,11,11,10,10,10,10,10,11,11,17,17,17,17,17,18,17,17,17,17,17,17,17,17,17,17,17,17,17,17,22,22,23,23,22,22,22,22,22,22,20,20,20,20,20,19,19,19,19,19,9,9,9,9,9,9,9,9,9,10,12,12,12,13,13,13,13,13,13,13,17,17,17,17,17,17,17,17,17,17,17,17,17,16,16,16,16,17,16,16,11,11,11,11,11,11,11,11,11,11,20,20,20,20,20,17,17,17,17,17,1,1,2,2,3,2,0,0,0,-1,0
"Ind121","0_0_0",19,19,19,18,18,18,18,18,19,19,24,24,24,24,24,25,24,24,24,24,24,24,24,24,24,24,24,24,24,24,28,28,27,27,28,28,28,28,28,28,24,24,24,24,24,25,25,25,25,25,17,17,17,17,17,17,17,17,17,18,18,18,18,19,19,19,19,19,19,19,25,25,25,25,25,25,25,25,25,25,27,27,27,26,26,26,26,27,26,26,19,19,19,19,19,19,19,19,19,19,30,30,30,30,30,27,27,27,27,27,15,15,16,16,17,16,16,16,16,16,-1
