"","Description","Ind1","Ind2","Ind3","Ind4","Ind5","Ind6","Ind7","Ind8","Ind9","Ind10","Ind11","Ind12","Ind13","Ind14","Ind15","Ind16","Ind17","Ind18","Ind19","Ind20","Ind21","Ind22","Ind23","Ind24","Ind25","Ind26","Ind27","Ind28","Ind29","Ind30","Ind31","Ind32","Ind33","Ind34","Ind35","Ind36","Ind37","Ind38","Ind39","Ind40","Ind41","Ind42","Ind43","Ind44","Ind45","Ind46","Ind47","Ind48","Ind49","Ind50","Ind51","Ind52","Ind53","Ind54","Ind55","Ind56","Ind57","Ind58","Ind59","Ind60","Ind61","Ind62","Ind63","Ind64","Ind65","Ind66","Ind67","Ind68","Ind69","Ind70","Ind71","Ind72","Ind73","Ind74","Ind75","Ind76","Ind77","Ind78","Ind79","Ind80","Ind81","Ind82","Ind83","Ind84","Ind85","Ind86","Ind87","Ind88","Ind89","Ind90","Ind91","Ind92","Ind93","Ind94","Ind95","Ind96","Ind97"
"Ind1","13_0_4",-1,0,0,0,0,0,0,0,0,0,0,0,0,0,0,0,0,0,0,0,0,0,0,0,0,0,0,0,0,0,0,0,0,0,0,0,0,0,0,0,0,0,0,0,0,0,0,0,0,0,0,0,0,0,0,0,0,0,0,0,0,0,0,0,0,0,0,0,0,0,0,0,0,0,0,0,0,0,0,0,0,0,0,0,0,0,0,0,0,0,0,0,0,0,0,0,0
"Ind2","13_0_2",2,-1,0,0,0,0,0,0,0,0,0,0,0,0,0,0,0,0,0,0,0,0,0,0,0,0,0,0,0,0,0,0,0,0,0,0,0,0,0,0,0,0,0,0,0,0,0,0,0,0,0,0,0,0,0,0,0,0,0,0,0,0,0,0,0,0,0,0,0,0,0,0,0,0,0,0,0,0,0,0,0,0,0,0,0,0,0,0,0,0,0,0,0,0,0,0,0
"Ind3","13_0_1",2,0,-1,0,0,0,0,0,0,0,0,0,0,0,0,0,0,0,0,0,0,0,0,0,0,0,0,0,0,0,0,0,0,0,0,0,0,0,0,0,0,0,0,0,0,0,0,0,0,0,0,0,0,0,0,0,0,0,0,0,0,0,0,0,0,0,0,0,0,0,0,0,0,0,0,0,0,0,0,0,0,0,0,0,0,0,0,0,0,0,0,0,0,0,0,0,0
"Ind4","13_0_0",3,1,1,-1,0,0,0,0,0,0,0,0,0,0,0,0,0,0,0,0,0,0,0,0,0,0,0,0,0,0,0,0,0,0,0,0,0,0,0,0,0,0,0,0,0,0,0,0,0,0,0,0,0,0,0,0,0,0,0,0,0,0,0,0,0,0,0,0,0,0,0,0,0,0,0,0,0,0,0,0,0,0,0,0,0,0,0,0,0,0,0,0,0,0,0,0,0
"Ind5","13_0_5",3,1,1,0,-1,0,0,0,0,0,0,0,0,0,0,0,0,0,0,0,0,0,0,0,0,0,0,0,0,0,0,0,0,0,0,0,0,0,0,0,0,0,0,0,0,0,0,0,0,0,0,0,0,0,0,0,0,0,0,0,0,0,0,0,0,0,0,0,0,0,0,0,0,0,0,0,0,0,0,0,0,0,0,0,0,0,0,0,0,0,0,0,0,0,0,0,0
"Ind6","13_0_3",3,1,1,0,0,-1,0,0,0,0,0,0,0,0,0,0,0,0,0,0,0,0,0,0,0,0,0,0,0,0,0,0,0,0,0,0,0,0,0,0,0,0,0,0,0,0,0,0,0,0,0,0,0,0,0,0,0,0,0,0,0,0,0,0,0,0,0,0,0,0,0,0,0,0,0,0,0,0,0,0,0,0,0,0,0,0,0,0,0,0,0,0,0,0,0,0,0
"Ind7","6_0_2",1,3,3,4,4,4,-1,0,0,0,0,0,0,0,0,0,0,0,0,0,0,0,0,0,0,0,0,0,0,0,0,0,0,0,0,0,0,0,0,0,0,0,0,0,0,0,0,0,0,0,0,0,0,0,0,0,0,0,0,0,0,0,0,0,0,0,0,0,0,0,0,0,0,0,0,0,0,0,0,0,0,0,0,0,0,0,0,0,0,0,0,0,0,0,0,0,0
"Ind8","6_0_3",0,2,2,3,3,3,1,-1,0,0,0,0,0,0,0,0,0,0,0,0,0,0,0,0,0,0,0,0,0,0,0,0,0,0,0,0,0,0,0,0,0,0,0,0,0,0,0,0,0,0,0,0,0,0,0,0,0,0,0,0,0,0,0,0,0,0,0,0,0,0,0,0,0,0,0,0,0,0,0,0,0,0,0,0,0,0,0,0,0,0,0,0,0,0,0,0,0
"Ind9","6_0_4",0,2,2,3,3,3,1,0,-1,0,0,0,0,0,0,0,0,0,0,0,0,0,0,0,0,0,0,0,0,0,0,0,0,0,0,0,0,0,0,0,0,0,0,0,0,0,0,0,0,0,0,0,0,0,0,0,0,0,0,0,0,0,0,0,0,0,0,0,0,0,0,0,0,0,0,0,0,0,0,0,0,0,0,0,0,0,0,0,0,0,0,0,0,0,0,0,0
"Ind10","6_0_0",0,2,2,3,3,3,1,0,0,-1,0,0,0,0,0,0,0,0,0,0,0,0,0,0,0,0,0,0,0,0,0,0,0,0,0,0,0,0,0,0,0,0,0,0,0,0,0,0,0,0,0,0,0,0,0,0,0,0,0,0,0,0,0,0,0,0,0,0,0,0,0,0,0,0,0,0,0,0,0,0,0,0,0,0,0,0,0,0,0,0,0,0,0,0,0,0,0
"Ind11","6_0_1",0,2,2,3,3,3,1,0,0,0,-1,0,0,0,0,0,0,0,0,0,0,0,0,0,0,0,0,0,0,0,0,0,0,0,0,0,0,0,0,0,0,0,0,0,0,0,0,0,0,0,0,0,0,0,0,0,0,0,0,0,0,0,0,0,0,0,0,0,0,0,0,0,0,0,0,0,0,0,0,0,0,0,0,0,0,0,0,0,0,0,0,0,0,0,0,0,0
"Ind12","6_0_5",0,2,2,3,3,3,1,0,0,0,0,-1,0,0,0,0,0,0,0,0,0,0,0,0,0,0,0,0,0,0,0,0,0,0,0,0,0,0,0,0,0,0,0,0,0,0,0,0,0,0,0,0,0,0,0,0,0,0,0,0,0,0,0,0,0,0,0,0,0,0,0,0,0,0,0,0,0,0,0,0,0,0,0,0,0,0,0,0,0,0,0,0,0,0,0,0,0
"Ind13","7_0_0",12,14,14,15,15,15,13,12,12,12,12,12,-1,0,0,0,0,0,0,0,0,0,0,0,0,0,0,0,0,0,0,0,0,0,0,0,0,0,0,0,0,0,0,0,0,0,0,0,0,0,0,0,0,0,0,0,0,0,0,0,0,0,0,0,0,0,0,0,0,0,0,0,0,0,0,0,0,0,0,0,0,0,0,0,0,0,0,0,0,0,0,0,0,0,0,0,0
"Ind14","7_0_4",13,15,15,16,16,16,14,13,13,13,13,13,1,-1,0,0,0,0,0,0,0,0,0,0,0,0,0,0,0,0,0,0,0,0,0,0,0,0,0,0,0,0,0,0,0,0,0,0,0,0,0,0,0,0,0,0,0,0,0,0,0,0,0,0,0,0,0,0,0,0,0,0,0,0,0,0,0,0,0,0,0,0,0,0,0,0,0,0,0,0,0,0,0,0,0,0,0
"Ind15","7_0_2",13,15,15,16,16,16,14,13,13,13,13,13,1,0,-1,0,0,0,0,0,0,0,0,0,0,0,0,0,0,0,0,0,0,0,0,0,0,0,0,0,0,0,0,0,0,0,0,0,0,0,0,0,0,0,0,0,0,0,0,0,0,0,0,0,0,0,0,0,0,0,0,0,0,0,0,0,0,0,0,0,0,0,0,0,0,0,0,0,0,0,0,0,0,0,0,0,0
"Ind16","7_0_1",13,15,15,16,16,16,14,13,13,13,13,13,1,0,0,-1,0,0,0,0,0,0,0,0,0,0,0,0,0,0,0,0,0,0,0,0,0,0,0,0,0,0,0,0,0,0,0,0,0,0,0,0,0,0,0,0,0,0,0,0,0,0,0,0,0,0,0,0,0,0,0,0,0,0,0,0,0,0,0,0,0,0,0,0,0,0,0,0,0,0,0,0,0,0,0,0,0
"Ind17","7_0_3",12,14,14,15,15,15,13,12,12,12,12,12,2,1,1,1,-1,0,0,0,0,0,0,0,0,0,0,0,0,0,0,0,0,0,0,0,0,0,0,0,0,0,0,0,0,0,0,0,0,0,0,0,0,0,0,0,0,0,0,0,0,0,0,0,0,0,0,0,0,0,0,0,0,0,0,0,0,0,0,0,0,0,0,0,0,0,0,0,0,0,0,0,0,0,0,0,0
"Ind18","7_0_5",12,14,14,15,15,15,13,12,12,12,12,12,2,1,1,1,0,-1,0,0,0,0,0,0,0,0,0,0,0,0,0,0,0,0,0,0,0,0,0,0,0,0,0,0,0,0,0,0,0,0,0,0,0,0,0,0,0,0,0,0,0,0,0,0,0,0,0,0,0,0,0,0,0,0,0,0,0,0,0,0,0,0,0,0,0,0,0,0,0,0,0,0,0,0,0,0,0
"Ind19","14_0_5",9,11,11,12,12,12,10,9,9,9,9,9,9,8,8,8,7,7,-1,0,0,0,0,0,0,0,0,0,0,0,0,0,0,0,0,0,0,0,0,0,0,0,0,0,0,0,0,0,0,0,0,0,0,0,0,0,0,0,0,0,0,0,0,0,0,0,0,0,0,0,0,0,0,0,0,0,0,0,0,0,0,0,0,0,0,0,0,0,0,0,0,0,0,0,0,0,0
"Ind20","14_0_0",9,11,11,12,12,12,10,9,9,9,9,9,9,8,8,8,7,7,0,-1,0,0,0,0,0,0,0,0,0,0,0,0,0,0,0,0,0,0,0,0,0,0,0,0,0,0,0,0,0,0,0,0,0,0,0,0,0,0,0,0,0,0,0,0,0,0,0,0,0,0,0,0,0,0,0,0,0,0,0,0,0,0,0,0,0,0,0,0,0,0,0,0,0,0,0,0,0
"Ind21","14_0_3",9,11,11,12,12,12,10,9,9,9,9,9,9,8,8,8,7,7,0,0,-1,0,0,0,0,0,0,0,0,0,0,0,0,0,0,0,0,0,0,0,0,0,0,0,0,0,0,0,0,0,0,0,0,0,0,0,0,0,0,0,0,0,0,0,0,0,0,0,0,0,0,0,0,0,0,0,0,0,0,0,0,0,0,0,0,0,0,0,0,0,0,0,0,0,0,0,0
"Ind22","14_0_2",9,11,11,12,12,12,10,9,9,9,9,9,9,8,8,8,7,7,0,0,0,-1,0,0,0,0,0,0,0,0,0,0,0,0,0,0,0,0,0,0,0,0,0,0,0,0,0,0,0,0,0,0,0,0,0,0,0,0,0,0,0,0,0,0,0,0,0,0,0,0,0,0,0,0,0,0,0,0,0,0,0,0,0,0,0,0,0,0,0,0,0,0,0,0,0,0,0
"Ind23","14_0_4",9,11,11,12,12,12,10,9,9,9,9,9,9,8,8,8,7,7,0,0,0,0,-1,0,0,0,0,0,0,0,0,0,0,0,0,0,0,0,0,0,0,0,0,0,0,0,0,0,0,0,0,0,0,0,0,0,0,0,0,0,0,0,0,0,0,0,0,0,0,0,0,0,0,0,0,0,0,0,0,0,0,0,0,0,0,0,0,0,0,0,0,0,0,0,0,0,0
"Ind24","12_0_4",10,12,12,13,13,13,11,10,10,10,10,10,10,9,9,9,8,8,1,1,1,1,1,-1,0,0,0,0,0,0,0,0,0,0,0,0,0,0,0,0,0,0,0,0,0,0,0,0,0,0,0,0,0,0,0,0,0,0,0,0,0,0,0,0,0,0,0,0,0,0,0,0,0,0,0,0,0,0,0,0,0,0,0,0,0,0,0,0,0,0,0,0,0,0,0,0,0
"Ind25","12_0_5",10,12,12,13,13,13,11,10,10,10,10,10,10,9,9,9,8,8,1,1,1,1,1,0,-1,0,0,0,0,0,0,0,0,0,0,0,0,0,0,0,0,0,0,0,0,0,0,0,0,0,0,0,0,0,0,0,0,0,0,0,0,0,0,0,0,0,0,0,0,0,0,0,0,0,0,0,0,0,0,0,0,0,0,0,0,0,0,0,0,0,0,0,0,0,0,0,0
"Ind26","12_0_0",10,12,12,13,13,13,11,10,10,10,10,10,10,9,9,9,8,8,1,1,1,1,1,0,0,-1,0,0,0,0,0,0,0,0,0,0,0,0,0,0,0,0,0,0,0,0,0,0,0,0,0,0,0,0,0,0,0,0,0,0,0,0,0,0,0,0,0,0,0,0,0,0,0,0,0,0,0,0,0,0,0,0,0,0,0,0,0,0,0,0,0,0,0,0,0,0,0
"Ind27","12_0_2",10,12,12,13,13,13,11,10,10,10,10,10,10,9,9,9,8,8,1,1,1,1,1,2,2,2,-1,0,0,0,0,0,0,0,0,0,0,0,0,0,0,0,0,0,0,0,0,0,0,0,0,0,0,0,0,0,0,0,0,0,0,0,0,0,0,0,0,0,0,0,0,0,0,0,0,0,0,0,0,0,0,0,0,0,0,0,0,0,0,0,0,0,0,0,0,0,0
"Ind28","12_0_3",11,13,13,14,14,14,12,11,11,11,11,11,11,10,10,10,9,9,2,2,2,2,2,3,3,3,1,-1,0,0,0,0,0,0,0,0,0,0,0,0,0,0,0,0,0,0,0,0,0,0,0,0,0,0,0,0,0,0,0,0,0,0,0,0,0,0,0,0,0,0,0,0,0,0,0,0,0,0,0,0,0,0,0,0,0,0,0,0,0,0,0,0,0,0,0,0,0
"Ind29","12_0_1",10,12,12,13,13,13,11,10,10,10,10,10,10,9,9,9,8,8,1,1,1,1,1,2,2,2,0,1,-1,0,0,0,0,0,0,0,0,0,0,0,0,0,0,0,0,0,0,0,0,0,0,0,0,0,0,0,0,0,0,0,0,0,0,0,0,0,0,0,0,0,0,0,0,0,0,0,0,0,0,0,0,0,0,0,0,0,0,0,0,0,0,0,0,0,0,0,0
"Ind30","14_0_1",9,11,11,12,12,12,10,9,9,9,9,9,9,8,8,8,7,7,0,0,0,0,0,1,1,1,1,2,1,-1,0,0,0,0,0,0,0,0,0,0,0,0,0,0,0,0,0,0,0,0,0,0,0,0,0,0,0,0,0,0,0,0,0,0,0,0,0,0,0,0,0,0,0,0,0,0,0,0,0,0,0,0,0,0,0,0,0,0,0,0,0,0,0,0,0,0,0
"Ind31","10_0_0",14,16,16,17,17,17,15,14,14,14,14,14,14,13,13,13,12,12,7,7,7,7,7,8,8,8,8,7,8,7,-1,0,0,0,0,0,0,0,0,0,0,0,0,0,0,0,0,0,0,0,0,0,0,0,0,0,0,0,0,0,0,0,0,0,0,0,0,0,0,0,0,0,0,0,0,0,0,0,0,0,0,0,0,0,0,0,0,0,0,0,0,0,0,0,0,0,0
"Ind32","10_0_5",14,16,16,17,17,17,15,14,14,14,14,14,14,13,13,13,12,12,7,7,7,7,7,8,8,8,8,7,8,7,0,-1,0,0,0,0,0,0,0,0,0,0,0,0,0,0,0,0,0,0,0,0,0,0,0,0,0,0,0,0,0,0,0,0,0,0,0,0,0,0,0,0,0,0,0,0,0,0,0,0,0,0,0,0,0,0,0,0,0,0,0,0,0,0,0,0,0
"Ind33","15_0_4",14,16,16,17,17,17,15,14,14,14,14,14,14,13,13,13,12,12,7,7,7,7,7,8,8,8,8,7,8,7,0,0,-1,0,0,0,0,0,0,0,0,0,0,0,0,0,0,0,0,0,0,0,0,0,0,0,0,0,0,0,0,0,0,0,0,0,0,0,0,0,0,0,0,0,0,0,0,0,0,0,0,0,0,0,0,0,0,0,0,0,0,0,0,0,0,0,0
"Ind34","10_0_3",14,16,16,17,17,17,15,14,14,14,14,14,14,13,13,13,12,12,7,7,7,7,7,8,8,8,8,7,8,7,0,0,0,-1,0,0,0,0,0,0,0,0,0,0,0,0,0,0,0,0,0,0,0,0,0,0,0,0,0,0,0,0,0,0,0,0,0,0,0,0,0,0,0,0,0,0,0,0,0,0,0,0,0,0,0,0,0,0,0,0,0,0,0,0,0,0,0
"Ind35","15_0_2",12,14,14,15,15,15,13,12,12,12,12,12,12,11,11,11,10,10,5,5,5,5,5,6,6,6,6,7,6,5,2,2,2,2,-1,0,0,0,0,0,0,0,0,0,0,0,0,0,0,0,0,0,0,0,0,0,0,0,0,0,0,0,0,0,0,0,0,0,0,0,0,0,0,0,0,0,0,0,0,0,0,0,0,0,0,0,0,0,0,0,0,0,0,0,0,0,0
"Ind36","15_0_5",12,14,14,15,15,15,13,12,12,12,12,12,12,11,11,11,10,10,5,5,5,5,5,6,6,6,6,7,6,5,2,2,2,2,0,-1,0,0,0,0,0,0,0,0,0,0,0,0,0,0,0,0,0,0,0,0,0,0,0,0,0,0,0,0,0,0,0,0,0,0,0,0,0,0,0,0,0,0,0,0,0,0,0,0,0,0,0,0,0,0,0,0,0,0,0,0,0
"Ind37","15_0_1",12,14,14,15,15,15,13,12,12,12,12,12,12,11,11,11,10,10,5,5,5,5,5,6,6,6,6,7,6,5,2,2,2,2,0,0,-1,0,0,0,0,0,0,0,0,0,0,0,0,0,0,0,0,0,0,0,0,0,0,0,0,0,0,0,0,0,0,0,0,0,0,0,0,0,0,0,0,0,0,0,0,0,0,0,0,0,0,0,0,0,0,0,0,0,0,0,0
"Ind38","15_0_0",12,14,14,15,15,15,13,12,12,12,12,12,12,11,11,11,10,10,5,5,5,5,5,6,6,6,6,7,6,5,2,2,2,2,0,0,0,-1,0,0,0,0,0,0,0,0,0,0,0,0,0,0,0,0,0,0,0,0,0,0,0,0,0,0,0,0,0,0,0,0,0,0,0,0,0,0,0,0,0,0,0,0,0,0,0,0,0,0,0,0,0,0,0,0,0,0,0
"Ind39","15_0_3",12,14,14,15,15,15,13,12,12,12,12,12,12,11,11,11,10,10,5,5,5,5,5,6,6,6,6,7,6,5,2,2,2,2,0,0,0,0,-1,0,0,0,0,0,0,0,0,0,0,0,0,0,0,0,0,0,0,0,0,0,0,0,0,0,0,0,0,0,0,0,0,0,0,0,0,0,0,0,0,0,0,0,0,0,0,0,0,0,0,0,0,0,0,0,0,0,0
"Ind40","10_0_4",13,15,15,16,16,16,14,13,13,13,13,13,13,12,12,12,11,11,6,6,6,6,6,7,7,7,7,8,7,6,3,3,3,3,1,1,1,1,1,-1,0,0,0,0,0,0,0,0,0,0,0,0,0,0,0,0,0,0,0,0,0,0,0,0,0,0,0,0,0,0,0,0,0,0,0,0,0,0,0,0,0,0,0,0,0,0,0,0,0,0,0,0,0,0,0,0,0
"Ind41","10_0_2",14,15,15,16,16,16,15,14,14,14,14,14,14,13,13,13,12,12,7,7,7,7,7,8,8,8,8,9,8,7,4,4,4,4,2,2,2,2,2,1,-1,0,0,0,0,0,0,0,0,0,0,0,0,0,0,0,0,0,0,0,0,0,0,0,0,0,0,0,0,0,0,0,0,0,0,0,0,0,0,0,0,0,0,0,0,0,0,0,0,0,0,0,0,0,0,0,0
"Ind42","10_0_1",14,15,15,16,16,16,15,14,14,14,14,14,14,13,13,13,12,12,7,7,7,7,7,8,8,8,8,9,8,7,4,4,4,4,2,2,2,2,2,1,0,-1,0,0,0,0,0,0,0,0,0,0,0,0,0,0,0,0,0,0,0,0,0,0,0,0,0,0,0,0,0,0,0,0,0,0,0,0,0,0,0,0,0,0,0,0,0,0,0,0,0,0,0,0,0,0,0
"Ind43","8_0_5",25,27,27,28,28,28,26,25,25,25,25,25,29,30,30,30,29,29,26,26,26,26,26,27,27,27,27,28,27,26,29,29,29,29,27,27,27,27,27,28,29,29,-1,0,0,0,0,0,0,0,0,0,0,0,0,0,0,0,0,0,0,0,0,0,0,0,0,0,0,0,0,0,0,0,0,0,0,0,0,0,0,0,0,0,0,0,0,0,0,0,0,0,0,0,0,0,0
"Ind44","8_0_1",25,27,27,28,28,28,26,25,25,25,25,25,29,30,30,30,29,29,26,26,26,26,26,27,27,27,27,28,27,26,29,29,29,29,27,27,27,27,27,28,29,29,0,-1,0,0,0,0,0,0,0,0,0,0,0,0,0,0,0,0,0,0,0,0,0,0,0,0,0,0,0,0,0,0,0,0,0,0,0,0,0,0,0,0,0,0,0,0,0,0,0,0,0,0,0,0,0
"Ind45","8_0_3",24,26,26,27,27,27,25,24,24,24,24,24,28,29,29,29,28,28,25,25,25,25,25,26,26,26,26,27,26,25,28,28,28,28,26,26,26,26,26,27,28,28,1,1,-1,0,0,0,0,0,0,0,0,0,0,0,0,0,0,0,0,0,0,0,0,0,0,0,0,0,0,0,0,0,0,0,0,0,0,0,0,0,0,0,0,0,0,0,0,0,0,0,0,0,0,0,0
"Ind46","8_0_4",24,26,26,27,27,27,25,24,24,24,24,24,28,29,29,29,28,28,25,25,25,25,25,26,26,26,26,27,26,25,28,28,28,28,26,26,26,26,26,27,28,28,1,1,0,-1,0,0,0,0,0,0,0,0,0,0,0,0,0,0,0,0,0,0,0,0,0,0,0,0,0,0,0,0,0,0,0,0,0,0,0,0,0,0,0,0,0,0,0,0,0,0,0,0,0,0,0
"Ind47","11_0_1",25,27,27,28,28,28,26,25,25,25,25,25,29,30,30,30,29,29,26,26,26,26,26,27,27,27,27,28,27,26,29,29,29,29,27,27,27,27,27,28,29,29,2,2,1,1,-1,0,0,0,0,0,0,0,0,0,0,0,0,0,0,0,0,0,0,0,0,0,0,0,0,0,0,0,0,0,0,0,0,0,0,0,0,0,0,0,0,0,0,0,0,0,0,0,0,0,0
"Ind48","11_0_3",24,26,26,27,27,27,25,24,24,24,24,24,28,29,29,29,28,28,25,25,25,25,25,26,26,26,26,27,26,25,28,28,28,28,26,26,26,26,26,27,28,28,1,1,0,0,1,-1,0,0,0,0,0,0,0,0,0,0,0,0,0,0,0,0,0,0,0,0,0,0,0,0,0,0,0,0,0,0,0,0,0,0,0,0,0,0,0,0,0,0,0,0,0,0,0,0,0
"Ind49","11_0_4",24,26,26,27,27,27,25,24,24,24,24,24,28,29,29,29,28,28,25,25,25,25,25,26,26,26,26,27,26,25,28,28,28,28,26,26,26,26,26,27,28,28,1,1,0,0,1,0,-1,0,0,0,0,0,0,0,0,0,0,0,0,0,0,0,0,0,0,0,0,0,0,0,0,0,0,0,0,0,0,0,0,0,0,0,0,0,0,0,0,0,0,0,0,0,0,0,0
"Ind50","11_0_0",24,26,26,27,27,27,25,24,24,24,24,24,28,29,29,29,28,28,25,25,25,25,25,26,26,26,26,27,26,25,28,28,28,28,26,26,26,26,26,27,28,28,1,1,0,0,1,0,0,-1,0,0,0,0,0,0,0,0,0,0,0,0,0,0,0,0,0,0,0,0,0,0,0,0,0,0,0,0,0,0,0,0,0,0,0,0,0,0,0,0,0,0,0,0,0,0,0
"Ind51","11_0_2",24,26,26,27,27,27,25,24,24,24,24,24,28,29,29,29,28,28,25,25,25,25,25,26,26,26,26,27,26,25,28,28,28,28,26,26,26,26,26,27,28,28,1,1,0,0,1,0,0,0,-1,0,0,0,0,0,0,0,0,0,0,0,0,0,0,0,0,0,0,0,0,0,0,0,0,0,0,0,0,0,0,0,0,0,0,0,0,0,0,0,0,0,0,0,0,0,0
"Ind52","11_0_5",24,26,26,27,27,27,25,24,24,24,24,24,28,29,29,29,28,28,25,25,25,25,25,26,26,26,26,27,26,25,28,28,28,28,26,26,26,26,26,27,28,28,1,1,0,0,1,0,0,0,0,-1,0,0,0,0,0,0,0,0,0,0,0,0,0,0,0,0,0,0,0,0,0,0,0,0,0,0,0,0,0,0,0,0,0,0,0,0,0,0,0,0,0,0,0,0,0
"Ind53","9_0_1",25,27,27,28,28,28,26,25,25,25,25,25,29,30,30,30,29,29,26,26,26,26,26,27,27,27,27,28,27,26,29,29,29,29,27,27,27,27,27,28,29,29,2,2,1,1,2,1,1,1,1,1,-1,0,0,0,0,0,0,0,0,0,0,0,0,0,0,0,0,0,0,0,0,0,0,0,0,0,0,0,0,0,0,0,0,0,0,0,0,0,0,0,0,0,0,0,0
"Ind54","9_0_5",26,28,28,29,29,29,27,26,26,26,26,26,30,31,31,31,30,30,27,27,27,27,27,28,28,28,28,29,28,27,30,30,30,30,28,28,28,28,28,29,30,30,3,3,2,2,3,2,2,2,2,2,1,-1,0,0,0,0,0,0,0,0,0,0,0,0,0,0,0,0,0,0,0,0,0,0,0,0,0,0,0,0,0,0,0,0,0,0,0,0,0,0,0,0,0,0,0
"Ind55","9_0_0",26,28,28,29,29,29,27,26,26,26,26,26,30,31,31,31,30,30,27,27,27,27,27,28,28,28,28,29,28,27,30,30,30,30,28,28,28,28,28,29,30,30,3,3,2,2,3,2,2,2,2,2,1,0,-1,0,0,0,0,0,0,0,0,0,0,0,0,0,0,0,0,0,0,0,0,0,0,0,0,0,0,0,0,0,0,0,0,0,0,0,0,0,0,0,0,0,0
"Ind56","9_0_3",25,27,27,28,28,28,26,25,25,25,25,25,29,30,30,30,29,29,26,26,26,26,26,27,27,27,27,28,27,26,29,29,29,29,27,27,27,27,27,28,29,29,2,2,1,1,2,1,1,1,1,1,0,1,1,-1,0,0,0,0,0,0,0,0,0,0,0,0,0,0,0,0,0,0,0,0,0,0,0,0,0,0,0,0,0,0,0,0,0,0,0,0,0,0,0,0,0
"Ind57","9_0_4",25,27,27,28,28,28,26,25,25,25,25,25,29,30,30,30,29,29,26,26,26,26,26,27,27,27,27,28,27,26,29,29,29,29,27,27,27,27,27,28,29,29,2,2,1,1,2,1,1,1,1,1,0,1,1,0,-1,0,0,0,0,0,0,0,0,0,0,0,0,0,0,0,0,0,0,0,0,0,0,0,0,0,0,0,0,0,0,0,0,0,0,0,0,0,0,0,0
"Ind58","9_0_2",25,27,27,28,28,28,26,25,25,25,25,25,29,30,30,30,29,29,26,26,26,26,26,27,27,27,27,28,27,26,29,29,29,29,27,27,27,27,27,28,29,29,2,2,1,1,2,1,1,1,1,1,0,1,1,0,0,-1,0,0,0,0,0,0,0,0,0,0,0,0,0,0,0,0,0,0,0,0,0,0,0,0,0,0,0,0,0,0,0,0,0,0,0,0,0,0,0
"Ind59","8_0_0",24,26,26,27,27,27,25,24,24,24,24,24,28,29,29,29,28,28,25,25,25,25,25,26,26,26,26,27,26,25,28,28,28,28,26,26,26,26,26,27,28,28,1,1,0,0,1,0,0,0,0,0,1,2,2,1,1,1,-1,0,0,0,0,0,0,0,0,0,0,0,0,0,0,0,0,0,0,0,0,0,0,0,0,0,0,0,0,0,0,0,0,0,0,0,0,0,0
"Ind60","8_0_2",24,26,26,27,27,27,25,24,24,24,24,24,28,29,29,29,28,28,25,25,25,25,25,26,26,26,26,27,26,25,28,28,28,28,26,26,26,26,26,27,28,28,1,1,0,0,1,0,0,0,0,0,1,2,2,1,1,1,0,-1,0,0,0,0,0,0,0,0,0,0,0,0,0,0,0,0,0,0,0,0,0,0,0,0,0,0,0,0,0,0,0,0,0,0,0,0,0
"Ind61","16_0_5",15,17,17,18,18,18,16,15,15,15,15,15,21,22,22,22,21,21,18,18,18,18,18,19,19,19,19,20,19,18,23,23,23,23,21,21,21,21,21,22,23,23,26,26,25,25,26,25,25,25,25,25,26,27,27,26,26,26,25,25,-1,0,0,0,0,0,0,0,0,0,0,0,0,0,0,0,0,0,0,0,0,0,0,0,0,0,0,0,0,0,0,0,0,0,0,0,0
"Ind62","16_0_4",17,19,19,20,20,20,18,17,17,17,17,17,23,24,24,24,23,23,20,20,20,20,20,21,21,21,21,22,21,20,25,25,25,25,23,23,23,23,23,24,25,25,26,26,27,27,28,27,27,27,27,27,28,29,29,28,28,28,27,27,2,-1,0,0,0,0,0,0,0,0,0,0,0,0,0,0,0,0,0,0,0,0,0,0,0,0,0,0,0,0,0,0,0,0,0,0,0
"Ind63","16_0_2",17,19,19,20,20,20,18,17,17,17,17,17,23,24,24,24,23,23,20,20,20,20,20,21,21,21,21,22,21,20,25,25,25,25,23,23,23,23,23,24,25,25,26,26,27,27,28,27,27,27,27,27,28,29,29,28,28,28,27,27,2,0,-1,0,0,0,0,0,0,0,0,0,0,0,0,0,0,0,0,0,0,0,0,0,0,0,0,0,0,0,0,0,0,0,0,0,0
"Ind64","16_0_0",17,19,19,20,20,20,18,17,17,17,17,17,23,24,24,24,23,23,20,20,20,20,20,21,21,21,21,22,21,20,25,25,25,25,23,23,23,23,23,24,25,25,26,26,27,27,28,27,27,27,27,27,28,29,29,28,28,28,27,27,2,0,0,-1,0,0,0,0,0,0,0,0,0,0,0,0,0,0,0,0,0,0,0,0,0,0,0,0,0,0,0,0,0,0,0,0,0
"Ind65","16_0_1",17,19,19,20,20,20,18,17,17,17,17,17,23,24,24,24,23,23,20,20,20,20,20,21,21,21,21,22,21,20,25,25,25,25,23,23,23,23,23,24,25,25,26,26,27,27,28,27,27,27,27,27,28,29,29,28,28,28,27,27,2,0,0,0,-1,0,0,0,0,0,0,0,0,0,0,0,0,0,0,0,0,0,0,0,0,0,0,0,0,0,0,0,0,0,0,0,0
"Ind66","16_0_3",17,19,19,20,20,20,18,17,17,17,17,17,23,24,24,24,23,23,20,20,20,20,20,21,21,21,21,22,21,20,25,25,25,25,23,23,23,23,23,24,25,25,26,26,27,27,28,27,27,27,27,27,28,29,29,28,28,28,27,27,2,0,0,0,0,-1,0,0,0,0,0,0,0,0,0,0,0,0,0,0,0,0,0,0,0,0,0,0,0,0,0,0,0,0,0,0,0
"Ind67","2_0_5",75,77,77,78,78,78,76,75,75,75,75,75,76,77,77,77,76,76,75,75,75,75,75,76,76,76,76,77,76,75,76,76,76,76,76,76,76,76,76,77,78,78,81,81,82,82,83,82,82,82,82,82,83,84,84,83,83,83,82,82,78,76,76,76,76,76,-1,0,0,0,0,0,0,0,0,0,0,0,0,0,0,0,0,0,0,0,0,0,0,0,0,0,0,0,0,0,0
"Ind68","2_0_0",75,77,77,78,78,78,76,75,75,75,75,75,76,77,77,77,76,76,75,75,75,75,75,76,76,76,76,77,76,75,76,76,76,76,76,76,76,76,76,77,78,78,81,81,82,82,83,82,82,82,82,82,83,84,84,83,83,83,82,82,78,76,76,76,76,76,0,-1,0,0,0,0,0,0,0,0,0,0,0,0,0,0,0,0,0,0,0,0,0,0,0,0,0,0,0,0,0
"Ind69","2_0_1",75,77,77,78,78,78,76,75,75,75,75,75,76,77,77,77,76,76,75,75,75,75,75,76,76,76,76,77,76,75,76,76,76,76,76,76,76,76,76,77,78,78,81,81,82,82,83,82,82,82,82,82,83,84,84,83,83,83,82,82,78,76,76,76,76,76,0,0,-1,0,0,0,0,0,0,0,0,0,0,0,0,0,0,0,0,0,0,0,0,0,0,0,0,0,0,0,0
"Ind70","4_0_5",73,75,75,76,76,76,74,73,73,73,73,73,74,75,75,75,74,74,73,73,73,73,73,74,74,74,74,75,74,73,74,74,74,74,74,74,74,74,74,75,76,76,81,81,82,82,83,82,82,82,82,82,83,84,84,83,83,83,82,82,76,74,74,74,74,74,2,2,2,-1,0,0,0,0,0,0,0,0,0,0,0,0,0,0,0,0,0,0,0,0,0,0,0,0,0,0,0
"Ind71","4_0_1",73,75,75,76,76,76,74,73,73,73,73,73,74,75,75,75,74,74,73,73,73,73,73,74,74,74,74,75,74,73,74,74,74,74,74,74,74,74,74,75,76,76,81,81,82,82,83,82,82,82,82,82,83,84,84,83,83,83,82,82,76,74,74,74,74,74,2,2,2,0,-1,0,0,0,0,0,0,0,0,0,0,0,0,0,0,0,0,0,0,0,0,0,0,0,0,0,0
"Ind72","4_0_4",73,75,75,76,76,76,74,73,73,73,73,73,74,75,75,75,74,74,73,73,73,73,73,74,74,74,74,75,74,73,74,74,74,74,74,74,74,74,74,75,76,76,81,81,82,82,83,82,82,82,82,82,83,84,84,83,83,83,82,82,76,74,74,74,74,74,2,2,2,0,0,-1,0,0,0,0,0,0,0,0,0,0,0,0,0,0,0,0,0,0,0,0,0,0,0,0,0
"Ind73","4_0_0",75,77,77,78,78,78,76,75,75,75,75,75,76,77,77,77,76,76,75,75,75,75,75,76,76,76,76,77,76,75,76,76,76,76,76,76,76,76,76,77,78,78,83,83,84,84,85,84,84,84,84,84,85,86,86,85,85,85,84,84,78,76,76,76,76,76,4,4,4,2,2,2,-1,0,0,0,0,0,0,0,0,0,0,0,0,0,0,0,0,0,0,0,0,0,0,0,0
"Ind74","4_0_3",75,77,77,78,78,78,76,75,75,75,75,75,76,77,77,77,76,76,75,75,75,75,75,76,76,76,76,77,76,75,76,76,76,76,76,76,76,76,76,77,78,78,83,83,84,84,85,84,84,84,84,84,85,86,86,85,85,85,84,84,78,76,76,76,76,76,4,4,4,2,2,2,0,-1,0,0,0,0,0,0,0,0,0,0,0,0,0,0,0,0,0,0,0,0,0,0,0
"Ind75","4_0_2",74,76,76,77,77,77,75,74,74,74,74,74,75,76,76,76,75,75,74,74,74,74,74,75,75,75,75,76,75,74,75,75,75,75,75,75,75,75,75,76,77,77,82,82,83,83,84,83,83,83,83,83,84,85,85,84,84,84,83,83,77,75,75,75,75,75,3,3,3,1,1,1,1,1,-1,0,0,0,0,0,0,0,0,0,0,0,0,0,0,0,0,0,0,0,0,0,0
"Ind76","1_0_1",74,76,76,77,77,77,75,74,74,74,74,74,75,76,76,76,75,75,74,74,74,74,74,75,75,75,75,76,75,74,75,75,75,75,75,75,75,75,75,76,77,77,82,82,83,83,84,83,83,83,83,83,84,85,85,84,84,84,83,83,77,75,75,75,75,75,3,3,3,1,1,1,3,3,2,-1,0,0,0,0,0,0,0,0,0,0,0,0,0,0,0,0,0,0,0,0,0
"Ind77","1_0_4",74,76,76,77,77,77,75,74,74,74,74,74,75,76,76,76,75,75,74,74,74,74,74,75,75,75,75,76,75,74,75,75,75,75,75,75,75,75,75,76,77,77,82,82,83,83,84,83,83,83,83,83,84,85,85,84,84,84,83,83,77,75,75,75,75,75,3,3,3,1,1,1,3,3,2,0,-1,0,0,0,0,0,0,0,0,0,0,0,0,0,0,0,0,0,0,0,0
"Ind78","1_0_3",74,76,76,77,77,77,75,74,74,74,74,74,75,76,76,76,75,75,74,74,74,74,74,75,75,75,75,76,75,74,75,75,75,75,75,75,75,75,75,76,77,77,82,82,83,83,84,83,83,83,83,83,84,85,85,84,84,84,83,83,77,75,75,75,75,75,3,3,3,1,1,1,3,3,2,0,0,-1,0,0,0,0,0,0,0,0,0,0,0,0,0,0,0,0,0,0,0
"Ind79","1_0_0",74,76,76,77,77,77,75,74,74,74,74,74,75,76,76,76,75,75,74,74,74,74,74,75,75,75,75,76,75,74,75,75,75,75,75,75,75,75,75,76,77,77,82,82,83,83,84,83,83,83,83,83,84,85,85,84,84,84,83,83,77,75,75,75,75,75,3,3,3,1,1,1,3,3,2,0,0,0,-1,0,0,0,0,0,0,0,0,0,0,0,0,0,0,0,0,0,0
"Ind80","1_0_2",71,73,73,74,74,74,72,71,71,71,71,71,72,73,73,73,72,72,71,71,71,71,71,72,72,72,72,73,72,71,72,72,72,72,72,72,72,72,72,73,74,74,79,79,80,80,81,80,80,80,80,80,81,82,82,81,81,81,80,80,74,72,72,72,72,72,4,4,4,2,2,2,4,4,3,3,3,3,3,-1,0,0,0,0,0,0,0,0,0,0,0,0,0,0,0,0,0
"Ind81","1_0_5",73,75,75,76,76,76,74,73,73,73,73,73,74,75,75,75,74,74,73,73,73,73,73,74,74,74,74,75,74,73,74,74,74,74,74,74,74,74,74,75,76,76,81,81,82,82,83,82,82,82,82,82,83,84,84,83,83,83,82,82,76,74,74,74,74,74,4,4,4,2,2,2,4,4,3,3,3,3,3,4,-1,0,0,0,0,0,0,0,0,0,0,0,0,0,0,0,0
"Ind82","2_0_2",72,74,74,75,75,75,73,72,72,72,72,72,73,74,74,74,73,73,72,72,72,72,72,73,73,73,71,72,71,72,73,73,73,73,73,73,73,73,73,74,75,75,80,80,81,81,82,81,81,81,81,81,82,83,83,82,82,82,81,81,75,73,73,73,73,73,5,5,5,3,3,3,5,5,4,4,4,4,4,5,3,-1,0,0,0,0,0,0,0,0,0,0,0,0,0,0,0
"Ind83","2_0_4",72,74,74,75,75,75,73,72,72,72,72,72,73,74,74,74,73,73,72,72,72,72,72,73,73,73,71,72,71,72,73,73,73,73,73,73,73,73,73,74,75,75,80,80,81,81,82,81,81,81,81,81,82,83,83,82,82,82,81,81,75,73,73,73,73,73,5,5,5,3,3,3,5,5,4,4,4,4,4,5,3,0,-1,0,0,0,0,0,0,0,0,0,0,0,0,0,0
"Ind84","2_0_3",72,74,74,75,75,75,73,72,72,72,72,72,73,74,74,74,73,73,72,72,72,72,72,73,73,73,71,72,71,72,73,73,73,73,73,73,73,73,73,74,75,75,80,80,81,81,82,81,81,81,81,81,82,83,83,82,82,82,81,81,75,73,73,73,73,73,5,5,5,3,3,3,5,5,4,4,4,4,4,5,3,0,0,-1,0,0,0,0,0,0,0,0,0,0,0,0,0
"Ind85","3_0_3",75,76,76,77,77,77,76,75,75,75,75,75,78,79,79,79,78,78,75,75,75,75,75,76,76,76,76,77,76,75,77,77,77,77,77,77,77,77,77,78,77,77,83,83,84,84,85,84,84,84,84,84,85,86,86,85,85,85,84,84,76,74,74,74,74,74,14,14,14,14,14,14,16,16,15,15,15,15,15,14,16,17,17,17,-1,0,0,0,0,0,0,0,0,0,0,0,0
"Ind86","3_0_5",75,76,76,77,77,77,76,75,75,75,75,75,78,79,79,79,78,78,75,75,75,75,75,76,76,76,76,77,76,75,77,77,77,77,77,77,77,77,77,78,77,77,83,83,84,84,85,84,84,84,84,84,85,86,86,85,85,85,84,84,76,74,74,74,74,74,14,14,14,14,14,14,16,16,15,15,15,15,15,14,16,17,17,17,0,-1,0,0,0,0,0,0,0,0,0,0,0
"Ind87","3_0_0",75,76,76,77,77,77,76,75,75,75,75,75,78,79,79,79,78,78,75,75,75,75,75,76,76,76,76,77,76,75,77,77,77,77,77,77,77,77,77,78,77,77,83,83,84,84,85,84,84,84,84,84,85,86,86,85,85,85,84,84,76,74,74,74,74,74,14,14,14,14,14,14,16,16,15,15,15,15,15,14,16,17,17,17,0,0,-1,0,0,0,0,0,0,0,0,0,0
"Ind88","3_0_4",75,76,76,77,77,77,76,75,75,75,75,75,78,79,79,79,78,78,75,75,75,75,75,76,76,76,76,77,76,75,77,77,77,77,77,77,77,77,77,78,77,77,83,83,84,84,85,84,84,84,84,84,85,86,86,85,85,85,84,84,76,74,74,74,74,74,14,14,14,14,14,14,16,16,15,15,15,15,15,14,16,17,17,17,0,0,0,-1,0,0,0,0,0,0,0,0,0
"Ind89","3_0_2",75,76,76,77,77,77,76,75,75,75,75,75,78,79,79,79,78,78,75,75,75,75,75,76,76,76,76,77,76,75,77,77,77,77,77,77,77,77,77,78,77,77,83,83,84,84,85,84,84,84,84,84,85,86,86,85,85,85,84,84,76,74,74,74,74,74,14,14,14,14,14,14,16,16,15,15,15,15,15,14,16,17,17,17,0,0,0,0,-1,0,0,0,0,0,0,0,0
"Ind90","3_0_1",75,76,76,77,77,77,76,75,75,75,75,75,78,79,79,79,78,78,75,75,75,75,75,76,76,76,76,77,76,75,77,77,77,77,77,77,77,77,77,78,77,77,83,83,84,84,85,84,84,84,84,84,85,86,86,85,85,85,84,84,76,74,74,74,74,74,14,14,14,14,14,14,16,16,15,15,15,15,15,14,16,17,17,17,0,0,0,0,0,-1,0,0,0,0,0,0,0
"Ind91","5_0_5",74,76,76,77,77,77,75,74,74,74,74,74,77,78,78,78,77,77,74,74,74,74,74,75,75,75,75,76,75,74,76,76,76,76,76,76,76,76,76,77,78,78,82,82,83,83,84,83,83,83,83,83,84,85,85,84,84,84,83,83,75,73,73,73,73,73,15,15,15,15,15,15,17,17,16,16,16,16,16,15,17,18,18,18,3,3,3,3,3,3,-1,0,0,0,0,0,0
"Ind92","5_0_1",74,76,76,77,77,77,75,74,74,74,74,74,77,78,78,78,77,77,74,74,74,74,74,75,75,75,75,76,75,74,76,76,76,76,76,76,76,76,76,77,78,78,82,82,83,83,84,83,83,83,83,83,84,85,85,84,84,84,83,83,75,73,73,73,73,73,15,15,15,15,15,15,17,17,16,16,16,16,16,15,17,18,18,18,3,3,3,3,3,3,0,-1,0,0,0,0,0
"Ind93","5_0_4",74,76,76,77,77,77,75,74,74,74,74,74,77,78,78,78,77,77,74,74,74,74,74,75,75,75,75,76,75,74,76,76,76,76,76,76,76,76,76,77,78,78,82,82,83,83,84,83,83,83,83,83,84,85,85,84,84,84,83,83,75,73,73,73,73,73,15,15,15,15,15,15,17,17,16,16,16,16,16,15,17,18,18,18,3,3,3,3,3,3,0,0,-1,0,0,0,0
"Ind94","5_0_2",74,76,76,77,77,77,75,74,74,74,74,74,77,78,78,78,77,77,74,74,74,74,74,75,75,75,75,76,75,74,76,76,76,76,76,76,76,76,76,77,78,78,82,82,83,83,84,83,83,83,83,83,84,85,85,84,84,84,83,83,75,73,73,73,73,73,15,15,15,15,15,15,17,17,16,16,16,16,16,15,17,18,18,18,3,3,3,3,3,3,0,0,0,-1,0,0,0
"Ind95","5_0_3",74,76,76,77,77,77,75,74,74,74,74,74,77,78,78,78,77,77,74,74,74,74,74,75,75,75,75,76,75,74,76,76,76,76,76,76,76,76,76,77,78,78,82,82,83,83,84,83,83,83,83,83,84,85,85,84,84,84,83,83,75,73,73,73,73,73,15,15,15,15,15,15,17,17,16,16,16,16,16,15,17,18,18,18,3,3,3,3,3,3,0,0,0,0,-1,0,0
"Ind96","5_0_0",74,76,76,77,77,77,75,74,74,74,74,74,77,78,78,78,77,77,74,74,74,74,74,75,75,75,75,76,75,74,76,76,76,76,76,76,76,76,76,77,78,78,82,82,83,83,84,83,83,83,83,83,84,85,85,84,84,84,83,83,75,73,73,73,73,73,15,15,15,15,15,15,17,17,16,16,16,16,16,15,17,18,18,18,3,3,3,3,3,3,0,0,0,0,0,-1,0
"Ind97","0_0_0",117,117,117,117,117,117,116,117,117,117,117,117,120,121,121,121,120,120,118,118,118,118,118,118,118,118,117,116,117,118,118,118,118,118,120,120,120,120,120,121,122,122,118,118,117,117,118,117,117,117,117,117,118,119,119,118,118,118,117,117,123,123,123,123,123,123,120,120,120,122,122,122,124,124,123,121,121,121,121,122,121,119,119,119,120,120,120,120,120,120,120,120,120,120,120,120,-1
