"","Description","Ind1","Ind2","Ind3","Ind4","Ind5","Ind6","Ind7","Ind8","Ind9","Ind10","Ind11","Ind12","Ind13","Ind14","Ind15","Ind16","Ind17","Ind18","Ind19","Ind20","Ind21","Ind22","Ind23","Ind24","Ind25","Ind26","Ind27","Ind28","Ind29","Ind30","Ind31","Ind32","Ind33","Ind34","Ind35","Ind36","Ind37","Ind38","Ind39","Ind40","Ind41","Ind42","Ind43","Ind44","Ind45","Ind46","Ind47","Ind48","Ind49","Ind50","Ind51","Ind52","Ind53","Ind54","Ind55","Ind56","Ind57","Ind58"
"Ind1","0_0_0",-1,0,0,0,0,0,0,0,0,0,0,0,0,0,0,0,0,0,0,0,0,0,0,0,0,0,0,0,0,0,0,0,0,0,0,0,0,0,0,0,0,0,0,0,0,0,0,0,0,0,0,0,0,0,0,0,0,0
"Ind2","3_0_0",54,-1,0,0,0,0,0,0,0,0,0,0,0,0,0,0,0,0,0,0,0,0,0,0,0,0,0,0,0,0,0,0,0,0,0,0,0,0,0,0,0,0,0,0,0,0,0,0,0,0,0,0,0,0,0,0,0,0
"Ind3","2_0_1",54,2,-1,0,0,0,0,0,0,0,0,0,0,0,0,0,0,0,0,0,0,0,0,0,0,0,0,0,0,0,0,0,0,0,0,0,0,0,0,0,0,0,0,0,0,0,0,0,0,0,0,0,0,0,0,0,0,0
"Ind4","3_0_1",55,3,1,-1,0,0,0,0,0,0,0,0,0,0,0,0,0,0,0,0,0,0,0,0,0,0,0,0,0,0,0,0,0,0,0,0,0,0,0,0,0,0,0,0,0,0,0,0,0,0,0,0,0,0,0,0,0,0
"Ind5","3_0_2",54,2,0,1,-1,0,0,0,0,0,0,0,0,0,0,0,0,0,0,0,0,0,0,0,0,0,0,0,0,0,0,0,0,0,0,0,0,0,0,0,0,0,0,0,0,0,0,0,0,0,0,0,0,0,0,0,0,0
"Ind6","1_0_2",54,2,0,1,0,-1,0,0,0,0,0,0,0,0,0,0,0,0,0,0,0,0,0,0,0,0,0,0,0,0,0,0,0,0,0,0,0,0,0,0,0,0,0,0,0,0,0,0,0,0,0,0,0,0,0,0,0,0
"Ind7","2_0_2",54,2,0,1,0,0,-1,0,0,0,0,0,0,0,0,0,0,0,0,0,0,0,0,0,0,0,0,0,0,0,0,0,0,0,0,0,0,0,0,0,0,0,0,0,0,0,0,0,0,0,0,0,0,0,0,0,0,0
"Ind8","2_0_0",54,2,0,1,0,0,0,-1,0,0,0,0,0,0,0,0,0,0,0,0,0,0,0,0,0,0,0,0,0,0,0,0,0,0,0,0,0,0,0,0,0,0,0,0,0,0,0,0,0,0,0,0,0,0,0,0,0,0
"Ind9","1_0_1",54,2,0,1,0,0,0,0,-1,0,0,0,0,0,0,0,0,0,0,0,0,0,0,0,0,0,0,0,0,0,0,0,0,0,0,0,0,0,0,0,0,0,0,0,0,0,0,0,0,0,0,0,0,0,0,0,0,0
"Ind10","1_0_0",55,3,1,2,1,1,1,1,1,-1,0,0,0,0,0,0,0,0,0,0,0,0,0,0,0,0,0,0,0,0,0,0,0,0,0,0,0,0,0,0,0,0,0,0,0,0,0,0,0,0,0,0,0,0,0,0,0,0
"Ind11","14_0_2",54,30,28,29,28,28,28,28,28,29,-1,0,0,0,0,0,0,0,0,0,0,0,0,0,0,0,0,0,0,0,0,0,0,0,0,0,0,0,0,0,0,0,0,0,0,0,0,0,0,0,0,0,0,0,0,0,0,0
"Ind12","14_0_0",54,30,28,29,28,28,28,28,28,29,0,-1,0,0,0,0,0,0,0,0,0,0,0,0,0,0,0,0,0,0,0,0,0,0,0,0,0,0,0,0,0,0,0,0,0,0,0,0,0,0,0,0,0,0,0,0,0,0
"Ind13","14_0_1",54,30,28,29,28,28,28,28,28,29,0,0,-1,0,0,0,0,0,0,0,0,0,0,0,0,0,0,0,0,0,0,0,0,0,0,0,0,0,0,0,0,0,0,0,0,0,0,0,0,0,0,0,0,0,0,0,0,0
"Ind14","18_0_2",54,30,28,29,28,28,28,28,28,29,0,0,0,-1,0,0,0,0,0,0,0,0,0,0,0,0,0,0,0,0,0,0,0,0,0,0,0,0,0,0,0,0,0,0,0,0,0,0,0,0,0,0,0,0,0,0,0,0
"Ind15","18_0_0",54,30,28,29,28,28,28,28,28,29,0,0,0,0,-1,0,0,0,0,0,0,0,0,0,0,0,0,0,0,0,0,0,0,0,0,0,0,0,0,0,0,0,0,0,0,0,0,0,0,0,0,0,0,0,0,0,0,0
"Ind16","18_0_1",54,30,28,29,28,28,28,28,28,29,0,0,0,0,0,-1,0,0,0,0,0,0,0,0,0,0,0,0,0,0,0,0,0,0,0,0,0,0,0,0,0,0,0,0,0,0,0,0,0,0,0,0,0,0,0,0,0,0
"Ind17","6_0_1",54,30,28,29,28,28,28,28,28,29,0,0,0,0,0,0,-1,0,0,0,0,0,0,0,0,0,0,0,0,0,0,0,0,0,0,0,0,0,0,0,0,0,0,0,0,0,0,0,0,0,0,0,0,0,0,0,0,0
"Ind18","11_0_1",54,30,28,29,28,28,28,28,28,29,2,2,2,2,2,2,2,-1,0,0,0,0,0,0,0,0,0,0,0,0,0,0,0,0,0,0,0,0,0,0,0,0,0,0,0,0,0,0,0,0,0,0,0,0,0,0,0,0
"Ind19","6_0_0",54,30,28,29,28,28,28,28,28,29,0,0,0,0,0,0,0,2,-1,0,0,0,0,0,0,0,0,0,0,0,0,0,0,0,0,0,0,0,0,0,0,0,0,0,0,0,0,0,0,0,0,0,0,0,0,0,0,0
"Ind20","9_0_2",54,30,28,29,28,28,28,28,28,29,0,0,0,0,0,0,0,2,0,-1,0,0,0,0,0,0,0,0,0,0,0,0,0,0,0,0,0,0,0,0,0,0,0,0,0,0,0,0,0,0,0,0,0,0,0,0,0,0
"Ind21","9_0_1",54,30,28,29,28,28,28,28,28,29,0,0,0,0,0,0,0,2,0,0,-1,0,0,0,0,0,0,0,0,0,0,0,0,0,0,0,0,0,0,0,0,0,0,0,0,0,0,0,0,0,0,0,0,0,0,0,0,0
"Ind22","4_0_2",54,30,28,29,28,28,28,28,28,29,0,0,0,0,0,0,0,2,0,0,0,-1,0,0,0,0,0,0,0,0,0,0,0,0,0,0,0,0,0,0,0,0,0,0,0,0,0,0,0,0,0,0,0,0,0,0,0,0
"Ind23","9_0_0",54,30,28,29,28,28,28,28,28,29,0,0,0,0,0,0,0,2,0,0,0,0,-1,0,0,0,0,0,0,0,0,0,0,0,0,0,0,0,0,0,0,0,0,0,0,0,0,0,0,0,0,0,0,0,0,0,0,0
"Ind24","11_0_2",54,30,28,29,28,28,28,28,28,29,0,0,0,0,0,0,0,2,0,0,0,0,0,-1,0,0,0,0,0,0,0,0,0,0,0,0,0,0,0,0,0,0,0,0,0,0,0,0,0,0,0,0,0,0,0,0,0,0
"Ind25","4_0_1",54,30,28,29,28,28,28,28,28,29,0,0,0,0,0,0,0,2,0,0,0,0,0,0,-1,0,0,0,0,0,0,0,0,0,0,0,0,0,0,0,0,0,0,0,0,0,0,0,0,0,0,0,0,0,0,0,0,0
"Ind26","11_0_0",55,31,29,30,29,29,29,29,29,30,1,1,1,1,1,1,1,3,1,1,1,1,1,1,1,-1,0,0,0,0,0,0,0,0,0,0,0,0,0,0,0,0,0,0,0,0,0,0,0,0,0,0,0,0,0,0,0,0
"Ind27","4_0_0",54,30,28,29,28,28,28,28,28,29,0,0,0,0,0,0,0,2,0,0,0,0,0,0,0,1,-1,0,0,0,0,0,0,0,0,0,0,0,0,0,0,0,0,0,0,0,0,0,0,0,0,0,0,0,0,0,0,0
"Ind28","15_0_2",55,31,29,30,29,29,29,29,29,30,1,1,1,1,1,1,1,3,1,1,1,1,1,1,1,2,1,-1,0,0,0,0,0,0,0,0,0,0,0,0,0,0,0,0,0,0,0,0,0,0,0,0,0,0,0,0,0,0
"Ind29","15_0_1",56,32,30,31,30,30,30,30,30,31,2,2,2,2,2,2,2,4,2,2,2,2,2,2,2,3,2,1,-1,0,0,0,0,0,0,0,0,0,0,0,0,0,0,0,0,0,0,0,0,0,0,0,0,0,0,0,0,0
"Ind30","12_0_0",54,30,28,29,28,28,28,28,28,29,0,0,0,0,0,0,0,2,0,0,0,0,0,0,0,1,0,1,2,-1,0,0,0,0,0,0,0,0,0,0,0,0,0,0,0,0,0,0,0,0,0,0,0,0,0,0,0,0
"Ind31","10_0_2",54,30,28,29,28,28,28,28,28,29,0,0,0,0,0,0,0,2,0,0,0,0,0,0,0,1,0,1,2,0,-1,0,0,0,0,0,0,0,0,0,0,0,0,0,0,0,0,0,0,0,0,0,0,0,0,0,0,0
"Ind32","10_0_1",54,30,28,29,28,28,28,28,28,29,0,0,0,0,0,0,0,2,0,0,0,0,0,0,0,1,0,1,2,0,0,-1,0,0,0,0,0,0,0,0,0,0,0,0,0,0,0,0,0,0,0,0,0,0,0,0,0,0
"Ind33","12_0_2",54,30,28,29,28,28,28,28,28,29,0,0,0,0,0,0,0,2,0,0,0,0,0,0,0,1,0,1,2,0,0,0,-1,0,0,0,0,0,0,0,0,0,0,0,0,0,0,0,0,0,0,0,0,0,0,0,0,0
"Ind34","19_0_1",54,30,28,29,28,28,28,28,28,29,0,0,0,0,0,0,0,2,0,0,0,0,0,0,0,1,0,1,2,0,0,0,0,-1,0,0,0,0,0,0,0,0,0,0,0,0,0,0,0,0,0,0,0,0,0,0,0,0
"Ind35","13_0_0",54,30,28,29,28,28,28,28,28,29,0,0,0,0,0,0,0,2,0,0,0,0,0,0,0,1,0,1,2,0,0,0,0,0,-1,0,0,0,0,0,0,0,0,0,0,0,0,0,0,0,0,0,0,0,0,0,0,0
"Ind36","19_0_0",54,30,28,29,28,28,28,28,28,29,0,0,0,0,0,0,0,2,0,0,0,0,0,0,0,1,0,1,2,0,0,0,0,0,0,-1,0,0,0,0,0,0,0,0,0,0,0,0,0,0,0,0,0,0,0,0,0,0
"Ind37","15_0_0",54,30,28,29,28,28,28,28,28,29,0,0,0,0,0,0,0,2,0,0,0,0,0,0,0,1,0,1,2,0,0,0,0,0,0,0,-1,0,0,0,0,0,0,0,0,0,0,0,0,0,0,0,0,0,0,0,0,0
"Ind38","12_0_1",55,31,29,30,29,29,29,29,29,30,1,1,1,1,1,1,1,3,1,1,1,1,1,1,1,2,1,2,3,1,1,1,1,1,1,1,1,-1,0,0,0,0,0,0,0,0,0,0,0,0,0,0,0,0,0,0,0,0
"Ind39","19_0_2",54,30,28,29,28,28,28,28,28,29,0,0,0,0,0,0,0,2,0,0,0,0,0,0,0,1,0,1,2,0,0,0,0,0,0,0,0,1,-1,0,0,0,0,0,0,0,0,0,0,0,0,0,0,0,0,0,0,0
"Ind40","13_0_2",54,30,28,29,28,28,28,28,28,29,0,0,0,0,0,0,0,2,0,0,0,0,0,0,0,1,0,1,2,0,0,0,0,0,0,0,0,1,0,-1,0,0,0,0,0,0,0,0,0,0,0,0,0,0,0,0,0,0
"Ind41","13_0_1",54,30,28,29,28,28,28,28,28,29,0,0,0,0,0,0,0,2,0,0,0,0,0,0,0,1,0,1,2,0,0,0,0,0,0,0,0,1,0,0,-1,0,0,0,0,0,0,0,0,0,0,0,0,0,0,0,0,0
"Ind42","10_0_0",54,30,28,29,28,28,28,28,28,29,0,0,0,0,0,0,0,2,0,0,0,0,0,0,0,1,0,1,2,0,0,0,0,0,0,0,0,1,0,0,0,-1,0,0,0,0,0,0,0,0,0,0,0,0,0,0,0,0
"Ind43","8_0_0",54,32,30,31,30,30,30,30,30,31,2,2,2,2,2,2,2,4,2,2,2,2,2,2,2,3,2,3,4,2,2,2,2,2,2,2,2,3,2,2,2,2,-1,0,0,0,0,0,0,0,0,0,0,0,0,0,0,0
"Ind44","17_0_2",54,32,30,31,30,30,30,30,30,31,2,2,2,2,2,2,2,4,2,2,2,2,2,2,2,3,2,3,4,2,2,2,2,2,2,2,2,3,2,2,2,2,0,-1,0,0,0,0,0,0,0,0,0,0,0,0,0,0
"Ind45","7_0_1",54,32,30,31,30,30,30,30,30,31,2,2,2,2,2,2,2,4,2,2,2,2,2,2,2,3,2,3,4,2,2,2,2,2,2,2,2,3,2,2,2,2,0,0,-1,0,0,0,0,0,0,0,0,0,0,0,0,0
"Ind46","7_0_2",54,32,30,31,30,30,30,30,30,31,2,2,2,2,2,2,2,4,2,2,2,2,2,2,2,3,2,3,4,2,2,2,2,2,2,2,2,3,2,2,2,2,0,0,0,-1,0,0,0,0,0,0,0,0,0,0,0,0
"Ind47","8_0_1",54,32,30,31,30,30,30,30,30,31,2,2,2,2,2,2,2,4,2,2,2,2,2,2,2,3,2,3,4,2,2,2,2,2,2,2,2,3,2,2,2,2,0,0,0,0,-1,0,0,0,0,0,0,0,0,0,0,0
"Ind48","7_0_0",54,32,30,31,30,30,30,30,30,31,2,2,2,2,2,2,2,4,2,2,2,2,2,2,2,3,2,3,4,2,2,2,2,2,2,2,2,3,2,2,2,2,0,0,0,0,0,-1,0,0,0,0,0,0,0,0,0,0
"Ind49","17_0_1",54,32,30,31,30,30,30,30,30,31,2,2,2,2,2,2,2,4,2,2,2,2,2,2,2,3,2,3,4,2,2,2,2,2,2,2,2,3,2,2,2,2,2,2,2,2,2,2,-1,0,0,0,0,0,0,0,0,0
"Ind50","8_0_2",54,32,30,31,30,30,30,30,30,31,2,2,2,2,2,2,2,4,2,2,2,2,2,2,2,3,2,3,4,2,2,2,2,2,2,2,2,3,2,2,2,2,2,2,2,2,2,2,0,-1,0,0,0,0,0,0,0,0
"Ind51","17_0_0",55,33,31,32,31,31,31,31,31,32,3,3,3,3,3,3,3,5,3,3,3,3,3,3,3,4,3,4,5,3,3,3,3,3,3,3,3,4,3,3,3,3,3,3,3,3,3,3,1,1,-1,0,0,0,0,0,0,0
"Ind52","6_0_2",53,31,29,30,29,29,29,29,29,30,1,1,1,1,1,1,1,3,1,1,1,1,1,1,1,2,1,2,3,1,1,1,1,1,1,1,1,2,1,1,1,1,1,1,1,1,1,1,1,1,2,-1,0,0,0,0,0,0
"Ind53","5_0_0",53,31,29,30,29,29,29,29,29,30,1,1,1,1,1,1,1,3,1,1,1,1,1,1,1,2,1,2,3,1,1,1,1,1,1,1,1,2,1,1,1,1,1,1,1,1,1,1,1,1,2,0,-1,0,0,0,0,0
"Ind54","5_0_2",53,31,29,30,29,29,29,29,29,30,1,1,1,1,1,1,1,3,1,1,1,1,1,1,1,2,1,2,3,1,1,1,1,1,1,1,1,2,1,1,1,1,1,1,1,1,1,1,1,1,2,0,0,-1,0,0,0,0
"Ind55","5_0_1",53,31,29,30,29,29,29,29,29,30,1,1,1,1,1,1,1,3,1,1,1,1,1,1,1,2,1,2,3,1,1,1,1,1,1,1,1,2,1,1,1,1,1,1,1,1,1,1,1,1,2,0,0,0,-1,0,0,0
"Ind56","16_0_2",53,29,27,28,27,27,27,27,27,28,1,1,1,1,1,1,1,3,1,1,1,1,1,1,1,2,1,2,3,1,1,1,1,1,1,1,1,2,1,1,1,1,3,3,3,3,3,3,3,3,4,2,2,2,2,-1,0,0
"Ind57","16_0_0",53,29,27,28,27,27,27,27,27,28,1,1,1,1,1,1,1,3,1,1,1,1,1,1,1,2,1,2,3,1,1,1,1,1,1,1,1,2,1,1,1,1,3,3,3,3,3,3,3,3,4,2,2,2,2,0,-1,0
"Ind58","16_0_1",53,29,27,28,27,27,27,27,27,28,1,1,1,1,1,1,1,3,1,1,1,1,1,1,1,2,1,2,3,1,1,1,1,1,1,1,1,2,1,1,1,1,3,3,3,3,3,3,3,3,4,2,2,2,2,0,0,-1
