"","Description","Ind1","Ind2","Ind3","Ind4","Ind5","Ind6","Ind7","Ind8","Ind9","Ind10","Ind11"
"Ind1","0_0_0",-1,0,0,0,0,0,0,0,0,0,0
"Ind2","1_0_1",59,-1,0,0,0,0,0,0,0,0,0
"Ind3","1_0_0",59,0,-1,0,0,0,0,0,0,0,0
"Ind4","2_0_1",58,17,17,-1,0,0,0,0,0,0,0
"Ind5","2_0_0",59,18,18,1,-1,0,0,0,0,0,0
"Ind6","4_0_0",58,17,17,0,1,-1,0,0,0,0,0
"Ind7","4_0_1",59,18,18,1,2,1,-1,0,0,0,0
"Ind8","3_0_1",57,18,18,1,2,1,2,-1,0,0,0
"Ind9","3_0_0",57,18,18,1,2,1,2,0,-1,0,0
"Ind10","5_0_0",59,20,20,3,2,3,4,2,2,-1,0
"Ind11","5_0_1",59,20,20,3,2,3,4,2,2,0,-1
