[TYPE] NUCLEOTIDE 1 

[SETTINGS]
    [fastaextension] fasta  

[MODEL] csSim_unlinked_1
    [submodel] GTR 0.082891 0.007752 0.005746 0.023271 0.033009 
    [statefreq] 0.075968 0.586315 0.055888 0.281829 
[rates] 0 28.854862 0 

[MODEL] csSim_unlinked_2
    [submodel] GTR 0.065284 0.031877 0.013181 0.036895 0.093398 
    [statefreq] 0.700460 0.212339 0.031779 0.055421 
[rates] 0 10.467002 0 

[MODEL] csSim_unlinked_3
    [submodel] GTR 0.080745 0.014497 0.012317 0.036266 0.032096 
    [statefreq] 0.489723 0.091395 0.145214 0.273668 
[rates] 0 1.930627 0 

[MODEL] csSim_unlinked_4
    [submodel] GTR 0.123129 0.002486 0.054836 0.016371 0.016850 
    [statefreq] 0.107245 0.335512 0.166442 0.390801 
[rates] 0 29.847827 0 

[MODEL] csSim_unlinked_5
    [submodel] GTR 0.106228 0.003389 0.006965 0.011722 0.061300 
    [statefreq] 0.525382 0.032892 0.288573 0.153153 
[rates] 0 40.650277 0 

[MODEL] csSim_unlinked_6
    [submodel] GTR 0.109866 0.009395 0.023650 0.033222 0.040067 
    [statefreq] 0.415098 0.150889 0.191402 0.242611 
[rates] 0 16.100655 0 

[MODEL] csSim_unlinked_7
    [submodel] GTR 0.070527 0.010210 0.015755 0.059635 0.020747 
    [statefreq] 0.032428 0.206967 0.461196 0.299409 
[rates] 0 3.402831 0 

[MODEL] csSim_unlinked_8
    [submodel] GTR 0.097174 0.022252 0.018416 0.031217 0.059540 
    [statefreq] 0.173995 0.101123 0.550264 0.174618 
[rates] 0 67.208692 0 

[MODEL] csSim_unlinked_9
    [submodel] GTR 0.060746 0.003051 0.002452 0.037693 0.019386 
    [statefreq] 0.210721 0.093730 0.275498 0.420052 
[rates] 0 5.245135 0 

[MODEL] csSim_unlinked_10
    [submodel] GTR 0.063870 0.014793 0.016841 0.023447 0.043584 
    [statefreq] 0.699402 0.196710 0.063086 0.040802 
[rates] 0 2.900186 0 


[TREE] T01 ((((((((((8_0_0:0.00000013,(8_0_6:0.00000004,8_0_8:0.00000005):0.00000093):0.00000264,(8_0_2:0.00000058,8_0_5:0.00000073):0.00000226):0.00000079,(8_0_1:0.00000100,8_0_7:0.00000318):0.00000452):0.00000014,8_0_3:0.00000079):0.00000618,8_0_4:0.00004950):0.00017407,(((13_0_6:0.00000681,((13_0_8:0.00000049,13_0_2:0.00000105):0.00000042,13_0_3:0.00000068):0.00000027):0.00000085,((13_0_1:0.00000081,13_0_7:0.00000278):0.00000051,13_0_4:0.00000544):0.00000052):0.00000635,(13_0_0:0.00000048,13_0_5:0.00000020):0.00000815):0.00077760):0.00053865,(((9_0_2:0.00000118,9_0_6:0.00000142):0.00001368,((9_0_3:0.00000044,9_0_5:0.00000023):0.00001664,(9_0_7:0.00000077,9_0_4:0.00000258):0.00000068):0.00000067):0.00003999,((9_0_1:0.00000020,9_0_8:0.00000010):0.00000016,9_0_0:0.00000023):0.00002269):0.00200740):0.00849725,(((3_0_1:0.00000556,((3_0_2:0.00000366,(3_0_3:0.00000458,3_0_0:0.00000231):0.00000074):0.00000378,(((3_0_4:0.00000108,3_0_8:0.00000655):0.00000032,3_0_6:0.00000017):0.00000018,(3_0_7:0.00000050,3_0_5:0.00000074):0.00000408):0.00000149):0.00000600):0.00192761,(11_0_4:0.00000461,(11_0_0:0.00000478,(((11_0_1:0.00000150,11_0_2:0.00000701):0.00000159,11_0_5:0.00000178):0.00000001,((11_0_3:0.00000177,11_0_6:0.00000047):0.00000377,(11_0_8:0.00000036,11_0_7:0.00000157):0.00000110):0.00000153):0.00000003):0.00000186):0.00063662):0.01138644,((((7_0_4:0.00000181,7_0_0:0.00000273):0.00000050,7_0_2:0.00000042):0.00002870,(((7_0_7:0.00000096,(7_0_8:0.00000012,7_0_1:0.00000082):0.00000347):0.00000062,(7_0_3:0.00000503,7_0_6:0.00000041):0.00000100):0.00000016,7_0_5:0.00000268):0.00000836):0.00101190,(((((((4_0_2:0.00000075,4_0_0:0.00000068):0.00000065,4_0_7:0.00000188):0.00000007,4_0_3:0.00000211):0.00000212,((4_0_5:0.00000162,((4_0_1:0.00000037,4_0_4:0.00000042):0.00000095,4_0_6:0.00000005):0.00000003):0.00000034,4_0_8:0.00000261):0.00000075):0.00774962,((((5_0_3:0.00000379,5_0_6:0.00000024):0.00003762,((5_0_0:0.00001541,(5_0_4:0.00000444,5_0_7:0.00000228):0.00000027):0.00000160,((5_0_1:0.00000789,(5_0_8:0.00000003,5_0_5:0.00000018):0.00000051):0.00000061,5_0_2:0.00000655):0.00000057):0.00002495):0.00035052,(((6_0_5:0.00000117,6_0_3:0.00000160):0.00004234,((6_0_4:0.00000053,6_0_8:0.00000008):0.00000339,((6_0_7:0.00000041,6_0_0:0.00000022):0.00000056,(6_0_2:0.00000295,6_0_1:0.00000079):0.00000520):0.00000314):0.00002591):0.00000659,6_0_6:0.00000406):0.00095883):0.00125618,((((((1_0_6:0.00000005,1_0_8:0.00000007):0.00000001,1_0_3:0.00000008):0.00000293,1_0_5:0.00000092):0.00000052,1_0_0:0.00000078):0.00000525,((1_0_2:0.00000033,1_0_4:0.00000003):0.00002886,(1_0_1:0.00000096,1_0_7:0.00000038):0.00000083):0.00000132):0.00008492,((12_0_6:0.00000213,12_0_1:0.00000120):0.00001134,(((((12_0_0:0.00000018,12_0_3:0.00000009):0.00000000,12_0_2:0.00000016):0.00000019,12_0_4:0.00000169):0.00000062,(12_0_5:0.00000045,12_0_7:0.00000318):0.00000598):0.00000498,12_0_8:0.00000494):0.00000233):0.00011104):0.00290771):0.00068645):0.00001348,((2_0_0:0.00000268,((2_0_4:0.00000348,2_0_6:0.00000014):0.00000157,2_0_7:0.00000921):0.00000024):0.00002353,(((2_0_8:0.00001400,2_0_1:0.00000105):0.00000062,(2_0_5:0.00000074,2_0_2:0.00000013):0.00000417):0.00000448,2_0_3:0.00001063):0.00003634):0.00707464):0.00246596,((((10_0_2:0.00000000,10_0_4:0.00000001):0.00000666,(10_0_3:0.00000212,(10_0_6:0.00000017,10_0_8:0.00000018):0.00000112):0.00000819):0.00000207,((10_0_7:0.00000096,10_0_0:0.00000056):0.00000028,10_0_1:0.00000099):0.00001736):0.00001638,10_0_5:0.00001409):0.01705579):0.00020558):0.00337240):0.00126054):0.00798888,(((((14_0_8:0.00000006,14_0_3:0.00000007):0.00001071,((14_0_1:0.00000086,14_0_7:0.00000102):0.00000013,14_0_4:0.00000366):0.00000472):0.00000761,(((14_0_0:0.00000066,14_0_6:0.00000417):0.00000448,14_0_2:0.00000187):0.00000064,14_0_5:0.00000883):0.00016145):0.00113788,(((15_0_0:0.00000581,15_0_6:0.00000439):0.00000078,(((15_0_3:0.00000064,15_0_8:0.00000078):0.00000084,15_0_5:0.00000242):0.00000036,15_0_4:0.00000236):0.00000605):0.00000016,((15_0_1:0.00000054,15_0_7:0.00000039):0.00001595,15_0_2:0.00000834):0.00000266):0.00036204):0.00003949,(((((17_0_2:0.00000043,17_0_3:0.00000087):0.00000425,17_0_1:0.00000050):0.00000789,((17_0_7:0.00000091,17_0_5:0.00000109):0.00000619,((17_0_0:0.00000002,17_0_6:0.00000002):0.00000023,17_0_8:0.00000042):0.00000884):0.00000154):0.00000658,17_0_4:0.00001609):0.00150863,((((18_0_3:0.00000170,18_0_7:0.00000235):0.00000070,(18_0_0:0.00001313,((18_0_6:0.00000009,18_0_1:0.00000013):0.00000285,((18_0_4:0.00000019,18_0_2:0.00000021):0.00000076,18_0_5:0.00000021):0.00000031):0.00000919):0.00000064):0.00000015,18_0_8:0.00002154):0.00009275,(((16_0_4:0.00000227,(16_0_5:0.00000141,16_0_7:0.00000054):0.00000013):0.00000337,16_0_0:0.00000261):0.00000160,(((16_0_3:0.00000016,16_0_1:0.00000322):0.00000181,(16_0_8:0.00000056,16_0_6:0.00000098):0.00000361):0.00000292,16_0_2:0.00001148):0.00000030):0.00006372):0.00009536):0.00021634):0.01029494):0.02650403,0_0_0:0.05995917);
[TREE] T02 (((((((18_0_1:0.00000314,18_0_5:0.00000012):0.00000138,((18_0_4:0.00000125,(18_0_7:0.00000006,18_0_3:0.00000003):0.00000129):0.00000729,((18_0_2:0.00000036,(18_0_6:0.00000030,18_0_0:0.00000012):0.00000080):0.00000003,18_0_8:0.00000009):0.00000694):0.00000134):0.00087877,((16_0_1:0.00000296,16_0_2:0.00000085):0.00001634,(((16_0_6:0.00000131,(16_0_0:0.00000135,16_0_7:0.00000119):0.00000027):0.00000026,(16_0_4:0.00000009,16_0_8:0.00000109):0.00000816):0.00000744,(16_0_5:0.00000025,16_0_3:0.00000017):0.00000862):0.00001431):0.00229064):0.00004576,((17_0_2:0.00000043,17_0_1:0.00000052):0.00002907,((17_0_3:0.00000668,(17_0_8:0.00000028,17_0_7:0.00000171):0.00000129):0.00000665,(17_0_4:0.00000361,(17_0_0:0.00000036,(17_0_6:0.00000013,17_0_5:0.00000046):0.00000023):0.00000705):0.00002302):0.00000663):0.00149917):0.00097180,((((14_0_1:0.00000107,14_0_4:0.00000065):0.00000045,((14_0_3:0.00001513,((14_0_8:0.00000075,14_0_6:0.00000230):0.00000978,14_0_5:0.00000268):0.00000214):0.00000058,(14_0_2:0.00000021,14_0_0:0.00000077):0.00000017):0.00000262):0.00001734,14_0_7:0.00004830):0.00119133,(15_0_5:0.00001128,(((((15_0_7:0.00000010,15_0_2:0.00000007):0.00000180,((15_0_6:0.00000007,15_0_0:0.00000002):0.00000026,15_0_3:0.00000176):0.00000012):0.00000285,15_0_1:0.00000389):0.00000153,15_0_4:0.00000569):0.00000049,15_0_8:0.00000489):0.00002394):0.00047308):0.00182752):0.00532667,((((((9_0_0:0.00000020,(9_0_7:0.00000034,9_0_2:0.00000010):0.00000009):0.00000042,(9_0_8:0.00000039,9_0_5:0.00000033):0.00000135):0.00000590,((9_0_1:0.00000063,9_0_3:0.00000122):0.00000593,9_0_4:0.00000277):0.00001417):0.00000044,9_0_6:0.00000383):0.00143219,(((8_0_4:0.00000408,((8_0_2:0.00000325,(8_0_3:0.00000061,8_0_0:0.00000005):0.00000188):0.00000028,8_0_5:0.00000602):0.00000329):0.00001443,((8_0_8:0.00000051,8_0_7:0.00000118):0.00000428,(8_0_1:0.00000131,8_0_6:0.00000032):0.00000365):0.00000051):0.00165842,((((13_0_0:0.00000024,13_0_8:0.00000362):0.00000584,(13_0_2:0.00000013,13_0_6:0.00000004):0.00002948):0.00000031,(13_0_1:0.00000005,(13_0_4:0.00000002,13_0_3:0.00000103):0.00000014):0.00000065):0.00000558,(13_0_5:0.00000037,13_0_7:0.00000682):0.00003222):0.00272759):0.00011182):0.00782099,((((((3_0_5:0.00000103,3_0_7:0.00000051):0.00000053,(3_0_2:0.00000083,3_0_4:0.00000050):0.00000091):0.00000011,(3_0_0:0.00001693,(3_0_3:0.00000021,3_0_8:0.00000028):0.00000480):0.00000442):0.00000562,(3_0_1:0.00001383,3_0_6:0.00000053):0.00000070):0.00033042,((11_0_6:0.00000176,(11_0_8:0.00000064,11_0_7:0.00000097):0.00001666):0.00000540,(((11_0_3:0.00000045,(11_0_4:0.00000031,11_0_2:0.00000016):0.00000306):0.00000120,11_0_1:0.00001322):0.00000110,(11_0_5:0.00000045,11_0_0:0.00000029):0.00000085):0.00000331):0.00512446):0.00626019,((((10_0_0:0.00000053,(10_0_3:0.00000258,(((10_0_6:0.00000000,10_0_7:0.00000000):0.00000051,10_0_4:0.00000060):0.00000069,(10_0_2:0.00000008,10_0_1:0.00000012):0.00000074):0.00000669):0.00001127):0.00000237,(10_0_5:0.00001654,10_0_8:0.00000306):0.00001169):0.00259448,(((((((4_0_1:0.00000190,4_0_2:0.00000020):0.00000000,4_0_5:0.00000391):0.00000004,(4_0_7:0.00000035,4_0_4:0.00000129):0.00000043):0.00001245,(4_0_3:0.00000272,4_0_6:0.00000190):0.00000269):0.00001380,(4_0_0:0.00000551,4_0_8:0.00000133):0.00000785):0.00190264,(((12_0_1:0.00001836,(((12_0_3:0.00000003,12_0_6:0.00000006):0.00000218,(12_0_2:0.00000416,12_0_8:0.00000008):0.00000030):0.00000457,(12_0_5:0.00000165,((12_0_0:0.00000045,12_0_7:0.00000043):0.00000012,12_0_4:0.00000080):0.00000123):0.00004802):0.00006417):0.00013893,(((1_0_2:0.00000210,(1_0_5:0.00000116,1_0_6:0.00000154):0.00000077):0.00000843,1_0_0:0.00000269):0.00008398,(((1_0_4:0.00000018,1_0_1:0.00000096):0.00000063,(1_0_8:0.00000110,1_0_3:0.00000066):0.00000045):0.00000056,1_0_7:0.00000328):0.00009601):0.00048184):0.00128589,((6_0_0:0.00005173,((6_0_5:0.00000104,6_0_2:0.00000247):0.00000563,((6_0_6:0.00000088,6_0_3:0.00000025):0.00000361,((6_0_1:0.00000076,(6_0_8:0.00000063,6_0_7:0.00000009):0.00000002):0.00000003,6_0_4:0.00000032):0.00000656):0.00000856):0.00001241):0.00097509,(((5_0_7:0.00000056,(((5_0_2:0.00000020,5_0_3:0.00000054):0.00000013,5_0_1:0.00000054):0.00000074,(5_0_4:0.00000002,5_0_6:0.00000000):0.00000483):0.00000032):0.00002248,5_0_8:0.00001547):0.00000063,(5_0_0:0.00000127,5_0_5:0.00000033):0.00000527):0.00048331):0.00025413):0.00022751):0.00014093,(((2_0_6:0.00000043,2_0_4:0.00000002):0.00002932,((2_0_2:0.00000045,2_0_3:0.00000107):0.00001854,(2_0_1:0.00000877,(2_0_8:0.00000043,2_0_5:0.00000001):0.00000988):0.00000679):0.00000178):0.00003058,(2_0_0:0.00000109,2_0_7:0.00000070):0.00000921):0.00915581):0.00038262):0.00015950,((7_0_2:0.00001701,((7_0_5:0.00000583,(7_0_1:0.00000216,7_0_6:0.00000105):0.00000057):0.00000959,(7_0_7:0.00000068,7_0_8:0.00000239):0.00000998):0.00000026):0.00000787,((7_0_4:0.00000567,7_0_0:0.00000155):0.00000661,7_0_3:0.00000699):0.00003947):0.00559800):0.00199198):0.00447433):0.00379638):0.07833745,0_0_0:0.00719367);
[TREE] T03 ((((((((((10_0_6:0.00000278,(10_0_1:0.00000027,10_0_4:0.00000044):0.00000285):0.00000028,10_0_3:0.00000168):0.00000064,(10_0_7:0.00000436,10_0_5:0.00000167):0.00000109):0.00000116,((10_0_2:0.00000032,10_0_0:0.00000005):0.00000095,10_0_8:0.00000071):0.00000538):0.00569070,((((2_0_8:0.00000929,(2_0_5:0.00000033,2_0_1:0.00000115):0.00000355):0.00000297,(2_0_7:0.00001932,((2_0_0:0.00000157,2_0_3:0.00000027):0.00000345,(2_0_6:0.00000073,2_0_4:0.00000005):0.00000383):0.00000462):0.00000403):0.00004729,2_0_2:0.00005066):0.00424361,(((4_0_2:0.00000589,(4_0_3:0.00000892,(4_0_5:0.00000020,(4_0_1:0.00000011,4_0_4:0.00000035):0.00000058):0.00000713):0.00000058):0.00000025,(4_0_7:0.00000510,(4_0_8:0.00000003,(4_0_6:0.00000010,4_0_0:0.00000014):0.00000009):0.00000398):0.00000304):0.00313015,(((((6_0_5:0.00000409,6_0_4:0.00000093):0.00000353,(6_0_8:0.00000022,6_0_0:0.00000050):0.00000365):0.00000941,((6_0_3:0.00000018,6_0_6:0.00000007):0.00000172,(6_0_2:0.00000015,(6_0_1:0.00000154,6_0_7:0.00000024):0.00000023):0.00000793):0.00000478):0.00141293,(((5_0_4:0.00000185,(5_0_3:0.00000006,(5_0_8:0.00000237,(5_0_1:0.00000010,5_0_0:0.00000002):0.00000123):0.00000009):0.00000030):0.00000313,(5_0_5:0.00000160,5_0_7:0.00000028):0.00000421):0.00001246,(5_0_2:0.00000160,5_0_6:0.00000133):0.00006991):0.00121877):0.00166023,(((1_0_3:0.00000134,((1_0_1:0.00000017,1_0_0:0.00000013):0.00000221,1_0_4:0.00000120):0.00000034):0.00000313,((1_0_8:0.00000248,(1_0_7:0.00000413,1_0_5:0.00000290):0.00000010):0.00000571,(1_0_2:0.00000002,1_0_6:0.00000002):0.00000048):0.00000555):0.00033139,(12_0_3:0.00001464,(((12_0_2:0.00000004,12_0_7:0.00000027):0.00000087,((12_0_8:0.00000107,12_0_4:0.00000024):0.00000132,12_0_0:0.00000017):0.00000010):0.00000437,(12_0_6:0.00000221,(12_0_5:0.00000003,12_0_1:0.00000138):0.00000017):0.00001372):0.00000443):0.00007808):0.00506488):0.00195337):0.00008139):0.00038160):0.00027294,(((((7_0_7:0.00000032,7_0_3:0.00000009):0.00000038,(7_0_5:0.00000008,7_0_8:0.00000014):0.00000008):0.00000164,((7_0_0:0.00000034,7_0_4:0.00000042):0.00000212,7_0_2:0.00000223):0.00000024):0.00000002,7_0_1:0.00000480):0.00000317,7_0_6:0.00000200):0.00889863):0.00110248,((3_0_0:0.00000379,((((3_0_2:0.00000037,(3_0_1:0.00000002,3_0_3:0.00000002):0.00000069):0.00000038,(3_0_4:0.00000035,3_0_5:0.00000007):0.00000452):0.00000012,3_0_6:0.00000171):0.00000261,(3_0_7:0.00000066,3_0_8:0.00000108):0.00000223):0.00001514):0.00035749,((11_0_3:0.00000213,(11_0_6:0.00000038,11_0_4:0.00000101):0.00000178):0.00000222,((11_0_8:0.00000287,(11_0_2:0.00000017,11_0_5:0.00000089):0.00000531):0.00000037,(11_0_1:0.00000070,(11_0_0:0.00000068,11_0_7:0.00000034):0.00000056):0.00000500):0.00000275):0.00162899):0.00077283):0.00102366,((((((9_0_7:0.00000024,9_0_0:0.00000012):0.00000142,9_0_6:0.00000071):0.00000014,(9_0_5:0.00000043,9_0_1:0.00000015):0.00000069):0.00000046,9_0_8:0.00000094):0.00001876,(9_0_3:0.00000097,(9_0_4:0.00000544,9_0_2:0.00000052):0.00000583):0.00000895):0.00079987,(((8_0_3:0.00000016,8_0_5:0.00000007):0.00000003,((8_0_0:0.00000013,(8_0_7:0.00000008,8_0_1:0.00000060):0.00000031):0.00000033,((8_0_8:0.00000024,8_0_6:0.00000028):0.00000024,(8_0_4:0.00000006,8_0_2:0.00000054):0.00000164):0.00000050):0.00000297):0.00260841,(((13_0_6:0.00000058,13_0_2:0.00000040):0.00000005,(13_0_8:0.00000144,13_0_3:0.00000033):0.00000007):0.00003076,(((13_0_1:0.00000729,13_0_0:0.00000258):0.00000114,(13_0_5:0.00000147,13_0_7:0.00000229):0.00000230):0.00000319,13_0_4:0.00000755):0.00000071):0.00518174):0.00027386):0.01319005):0.00844996,((((((15_0_6:0.00000015,(15_0_5:0.00000155,15_0_0:0.00000024):0.00000022):0.00000018,(15_0_2:0.00000037,(15_0_7:0.00000027,15_0_1:0.00000021):0.00000034):0.00000022):0.00000501,(15_0_8:0.00000143,15_0_3:0.00000227):0.00000178):0.00001093,15_0_4:0.00002694):0.00024542,((14_0_0:0.00000332,(14_0_6:0.00000090,14_0_2:0.00000103):0.00000082):0.00000481,(14_0_4:0.00000294,((14_0_3:0.00000453,14_0_8:0.00000127):0.00000055,((14_0_5:0.00000003,14_0_1:0.00000002):0.00000132,14_0_7:0.00000146):0.00000363):0.00000194):0.00000399):0.00590042):0.00122986,(((18_0_2:0.00000350,((18_0_4:0.00000055,18_0_6:0.00000108):0.00000674,(((18_0_5:0.00000088,(18_0_3:0.00000095,18_0_1:0.00000005):0.00000019):0.00000098,(18_0_8:0.00000017,18_0_7:0.00000040):0.00000075):0.00000191,18_0_0:0.00000487):0.00000027):0.00004599):0.00128600,((16_0_7:0.00000033,16_0_6:0.00000007):0.00000952,(16_0_3:0.00000580,((16_0_2:0.00000157,16_0_0:0.00000284):0.00000229,((16_0_8:0.00000033,16_0_1:0.00000097):0.00000351,(16_0_5:0.00000070,16_0_4:0.00000080):0.00001206):0.00000163):0.00000045):0.00001571):0.00236887):0.00004114,(((17_0_3:0.00000044,17_0_7:0.00000033):0.00000018,17_0_5:0.00000133):0.00005620,((17_0_0:0.00000594,(17_0_6:0.00000005,17_0_8:0.00000012):0.00000263):0.00000007,(17_0_1:0.00000234,(17_0_4:0.00000022,17_0_2:0.00000121):0.00000011):0.00000073):0.00002779):0.00078583):0.00007473):0.00692992):0.00716959,0_0_0:0.00263265);
[TREE] T04 (((((((((11_0_7:0.00000009,((11_0_1:0.00000082,11_0_8:0.00000057):0.00000004,11_0_6:0.00000022):0.00000005):0.00000453,(11_0_2:0.00000063,(11_0_3:0.00000027,11_0_4:0.00000005):0.00000369):0.00000288):0.00001072,11_0_0:0.00000334):0.00000292,11_0_5:0.00000653):0.00014613,(((3_0_1:0.00000278,3_0_7:0.00000190):0.00000624,(3_0_2:0.00000104,(3_0_5:0.00000004,3_0_4:0.00000001):0.00000196):0.00000131):0.00000841,(((3_0_8:0.00000016,3_0_6:0.00000012):0.00000047,3_0_3:0.00000162):0.00000287,3_0_0:0.00000112):0.00000633):0.00092203):0.00384749,(((10_0_8:0.00001706,(((10_0_6:0.00000240,10_0_2:0.00000242):0.00000904,(10_0_5:0.00000917,((10_0_7:0.00000071,10_0_0:0.00000104):0.00000128,10_0_4:0.00000303):0.00000190):0.00000289):0.00000544,(10_0_3:0.00000585,10_0_1:0.00000510):0.00000514):0.00000363):0.00326620,(((2_0_8:0.00000165,((2_0_1:0.00000190,(2_0_6:0.00000004,2_0_0:0.00000003):0.00000312):0.00000014,(2_0_4:0.00000019,2_0_7:0.00000293):0.00000140):0.00000259):0.00003779,(2_0_5:0.00000243,(2_0_3:0.00000084,2_0_2:0.00000038):0.00000670):0.00003791):0.00094460,((((1_0_3:0.00002081,(((1_0_5:0.00000029,((1_0_0:0.00000007,1_0_2:0.00000014):0.00000062,1_0_8:0.00000108):0.00000099):0.00000442,((1_0_6:0.00000026,1_0_4:0.00000017):0.00000083,1_0_1:0.00000281):0.00000064):0.00003674,1_0_7:0.00000298):0.00000464):0.00030998,((12_0_6:0.00000148,((12_0_1:0.00000009,12_0_7:0.00000035):0.00000037,12_0_3:0.00000013):0.00000568):0.00000167,(((12_0_2:0.00000395,12_0_8:0.00000011):0.00000023,12_0_5:0.00000063):0.00002074,(12_0_4:0.00000020,12_0_0:0.00000038):0.00000288):0.00000685):0.00013846):0.00470078,(((6_0_5:0.00002239,((6_0_6:0.00000217,6_0_1:0.00000087):0.00000434,((6_0_2:0.00000049,6_0_0:0.00000045):0.00000015,6_0_8:0.00000181):0.00000884):0.00000077):0.00000057,((6_0_3:0.00000000,6_0_7:0.00000004):0.00000089,6_0_4:0.00000064):0.00000316):0.00189059,((5_0_8:0.00000059,5_0_3:0.00000083):0.00000579,(5_0_5:0.00000916,(((5_0_4:0.00000986,(5_0_1:0.00000786,5_0_7:0.00000315):0.00000004):0.00000000,5_0_2:0.00000072):0.00000174,(5_0_0:0.00000000,5_0_6:0.00000000):0.00000196):0.00000066):0.00004086):0.00044051):0.00132972):0.00008315,(4_0_3:0.00002184,((4_0_1:0.00000028,((4_0_4:0.00000027,4_0_0:0.00000052):0.00000005,4_0_6:0.00000017):0.00000880):0.00000405,(((4_0_7:0.00000007,4_0_8:0.00000013):0.00000010,4_0_2:0.00000023):0.00001113,4_0_5:0.00000568):0.00000054):0.00003760):0.00229936):0.00006177):0.00208188):0.00010881,((7_0_3:0.00000379,7_0_5:0.00000550):0.00000339,((7_0_2:0.00000164,(7_0_7:0.00000063,(7_0_1:0.00000064,7_0_0:0.00000200):0.00000003):0.00000103):0.00000852,(7_0_6:0.00000614,(7_0_8:0.00000026,7_0_4:0.00000029):0.00000082):0.00000056):0.00000373):0.00759261):0.00318685):0.01378508,((((9_0_1:0.00000101,9_0_5:0.00000471):0.00000270,9_0_0:0.00001177):0.00000524,(((9_0_6:0.00000333,9_0_3:0.00000215):0.00000136,9_0_4:0.00000283):0.00000411,((9_0_2:0.00000001,9_0_8:0.00000000):0.00000267,9_0_7:0.00000141):0.00000088):0.00000446):0.00011503,(((8_0_5:0.00001210,(8_0_6:0.00000068,(8_0_7:0.00000033,8_0_3:0.00000008):0.00000004):0.00001421):0.00000423,((((8_0_1:0.00000008,8_0_2:0.00000036):0.00000103,8_0_4:0.00000048):0.00000025,8_0_8:0.00000038):0.00000515,8_0_0:0.00000813):0.00001740):0.00237241,((13_0_6:0.00000160,13_0_1:0.00000100):0.00000407,(13_0_4:0.00001755,(13_0_8:0.00000046,(((13_0_3:0.00000024,13_0_7:0.00000019):0.00000185,(13_0_5:0.00000005,13_0_2:0.00000024):0.00000260):0.00000015,13_0_0:0.00000079):0.00000088):0.00000609):0.00000090):0.00040718):0.00006550):0.00251608):0.00344649,((((17_0_8:0.00000013,17_0_7:0.00000123):0.00000236,(17_0_0:0.00000460,((17_0_6:0.00000215,(17_0_2:0.00000319,17_0_5:0.00000121):0.00000018):0.00000222,((17_0_1:0.00000026,17_0_3:0.00000068):0.00000005,17_0_4:0.00000043):0.00000364):0.00000442):0.00001448):0.00093402,(((16_0_6:0.00000410,(16_0_3:0.00000036,16_0_7:0.00000009):0.00000327):0.00003599,((16_0_1:0.00000057,16_0_8:0.00000022):0.00000569,(16_0_0:0.00000208,((16_0_2:0.00000288,16_0_4:0.00000039):0.00000075,16_0_5:0.00000545):0.00000019):0.00000765):0.00000304):0.00072915,((18_0_5:0.00000109,18_0_8:0.00000358):0.00001243,((18_0_1:0.00000663,(((18_0_0:0.00000014,18_0_3:0.00000003):0.00000001,18_0_7:0.00000024):0.00000268,18_0_2:0.00000252):0.00000216):0.00000042,(18_0_4:0.00001495,18_0_6:0.00000574):0.00000362):0.00002948):0.00043150):0.00017804):0.00059228,(((((15_0_1:0.00000021,15_0_3:0.00000001):0.00000196,15_0_4:0.00000260):0.00000132,((15_0_5:0.00000730,15_0_2:0.00000034):0.00000547,15_0_0:0.00000418):0.00000029):0.00000033,(15_0_7:0.00000419,(15_0_8:0.00000090,15_0_6:0.00000091):0.00000268):0.00000615):0.00011248,((14_0_4:0.00000142,(14_0_8:0.00000044,14_0_3:0.00000064):0.00000145):0.00000334,((14_0_2:0.00000084,14_0_1:0.00000080):0.00000353,(14_0_6:0.00000387,((14_0_0:0.00000029,14_0_7:0.00000044):0.00000000,14_0_5:0.00000017):0.00000263):0.00000205):0.00002823):0.00106074):0.00127132):0.01633394):0.02443083,0_0_0:0.00955678);
[TREE] T05 ((((((17_0_4:0.00000558,(17_0_8:0.00000090,(((17_0_2:0.00000001,17_0_7:0.00000002):0.00000073,17_0_1:0.00000006):0.00000078,(17_0_3:0.00000022,17_0_5:0.00000020):0.00000332):0.00000221):0.00000040):0.00000371,(17_0_0:0.00000333,17_0_6:0.00000298):0.00003755):0.00239844,((((16_0_8:0.00000111,16_0_0:0.00000176):0.00000429,(16_0_4:0.00000032,16_0_6:0.00000404):0.00000682):0.00000415,((16_0_7:0.00000019,16_0_1:0.00000004):0.00000356,((16_0_2:0.00000014,16_0_3:0.00000174):0.00000007,16_0_5:0.00000184):0.00000083):0.00005244):0.00107998,((18_0_2:0.00001396,((18_0_7:0.00000007,18_0_1:0.00000007):0.00001351,18_0_4:0.00000347):0.00001046):0.00000470,(((18_0_6:0.00000040,18_0_8:0.00000132):0.00000178,18_0_3:0.00000285):0.00000048,(18_0_5:0.00000166,18_0_0:0.00000275):0.00000014):0.00000430):0.00066506):0.00004365):0.00030855,((((14_0_0:0.00000429,(14_0_3:0.00000004,14_0_8:0.00000005):0.00001870):0.00000022,((14_0_6:0.00000013,14_0_4:0.00000016):0.00000115,((14_0_2:0.00000043,14_0_1:0.00000061):0.00000022,14_0_7:0.00000308):0.00000126):0.00000678):0.00000064,14_0_5:0.00000101):0.00091541,((15_0_2:0.00000497,15_0_7:0.00000098):0.00014117,((15_0_6:0.00000090,((15_0_4:0.00000003,15_0_3:0.00000011):0.00000034,15_0_8:0.00000085):0.00000104):0.00000796,(15_0_0:0.00000873,(15_0_5:0.00000009,15_0_1:0.00000022):0.00000059):0.00000556):0.00002762):0.00047034):0.00086085):0.02021680,(((((7_0_2:0.00000274,((7_0_4:0.00000355,7_0_3:0.00000057):0.00002046,(((7_0_0:0.00000003,7_0_8:0.00000085):0.00000009,7_0_6:0.00000134):0.00000025,7_0_7:0.00000065):0.00000037):0.00000016):0.00003051,(7_0_5:0.00000254,7_0_1:0.00000145):0.00002880):0.00045789,(((10_0_2:0.00000600,(10_0_4:0.00000274,10_0_7:0.00000149):0.00000222):0.00000349,(10_0_3:0.00000331,((10_0_5:0.00000076,(10_0_1:0.00000000,(10_0_8:0.00000001,10_0_0:0.00000004):0.00000008):0.00000207):0.00000036,10_0_6:0.00000119):0.00000803):0.00000097):0.00375474,(((((((1_0_5:0.00000002,1_0_6:0.00000000):0.00000914,1_0_3:0.00000211):0.00002834,(((1_0_7:0.00000009,1_0_1:0.00000006):0.00000169,(1_0_8:0.00000067,1_0_0:0.00000010):0.00000235):0.00000438,(1_0_2:0.00000003,1_0_4:0.00000020):0.00001079):0.00000961):0.00008753,(((12_0_8:0.00000157,(12_0_1:0.00000102,12_0_0:0.00000216):0.00000016):0.00000003,(12_0_3:0.00000028,(12_0_4:0.00000018,12_0_6:0.00000007):0.00000018):0.00000158):0.00001463,((12_0_7:0.00000006,12_0_5:0.00000021):0.00000060,12_0_2:0.00000484):0.00000827):0.00007887):0.00166084,((6_0_8:0.00000427,(6_0_0:0.00004664,(6_0_1:0.00001398,(((6_0_3:0.00000031,(6_0_6:0.00000036,(6_0_5:0.00000004,6_0_2:0.00000004):0.00000034):0.00000146):0.00000227,6_0_7:0.00000149):0.00000046,6_0_4:0.00000320):0.00000253):0.00000383):0.00002343):0.00116399,((5_0_6:0.00000384,((5_0_2:0.00000021,5_0_8:0.00000002):0.00000145,5_0_3:0.00000039):0.00000025):0.00000548,(5_0_0:0.00000483,(((5_0_5:0.00000132,5_0_4:0.00000204):0.00000170,5_0_1:0.00000085):0.00000119,5_0_7:0.00000067):0.00000019):0.00001359):0.00073864):0.00125587):0.00132289,(((((4_0_4:0.00000020,(4_0_6:0.00000016,4_0_5:0.00000078):0.00000010):0.00000161,4_0_7:0.00000415):0.00000362,4_0_2:0.00000134):0.00000023,(4_0_0:0.00000273,(4_0_8:0.00000004,4_0_3:0.00000003):0.00000027):0.00000560):0.00000852,4_0_1:0.00000551):0.00117861):0.00003893,((2_0_6:0.00000080,(2_0_4:0.00000018,2_0_3:0.00000013):0.00000050):0.00000858,((((2_0_8:0.00000005,2_0_7:0.00000015):0.00000111,(2_0_1:0.00000041,2_0_5:0.00000004):0.00000134):0.00000144,2_0_0:0.00000259):0.00000010,2_0_2:0.00000660):0.00002123):0.00308234):0.00190444):0.00091482):0.00064674,(((((3_0_6:0.00000119,3_0_2:0.00000008):0.00000017,((3_0_5:0.00000054,3_0_7:0.00000469):0.00000076,(3_0_4:0.00000070,3_0_8:0.00000049):0.00000377):0.00000076):0.00000001,(3_0_3:0.00000198,3_0_0:0.00000013):0.00000619):0.00000419,3_0_1:0.00001769):0.00167648,((((11_0_2:0.00000073,(11_0_6:0.00000017,11_0_5:0.00000001):0.00000034):0.00000042,11_0_8:0.00000018):0.00000202,((11_0_0:0.00000150,11_0_1:0.00000065):0.00000029,11_0_7:0.00000031):0.00000030):0.00001661,(11_0_4:0.00001152,11_0_3:0.00000245):0.00000388):0.00140158):0.02236278):0.00069892,(((((13_0_5:0.00000244,(13_0_0:0.00000062,13_0_4:0.00000123):0.00000059):0.00000099,((13_0_6:0.00000011,13_0_1:0.00000015):0.00000050,13_0_7:0.00000003):0.00000067):0.00000061,((13_0_3:0.00000049,13_0_8:0.00000013):0.00000002,13_0_2:0.00000008):0.00000240):0.00043362,(((8_0_7:0.00000079,8_0_1:0.00000040):0.00000084,8_0_3:0.00000096):0.00001372,((8_0_2:0.00000862,8_0_8:0.00001486):0.00000131,(8_0_5:0.00000053,((8_0_0:0.00000202,8_0_6:0.00000060):0.00000013,8_0_4:0.00000141):0.00001646):0.00000109):0.00000093):0.00083859):0.00000940,(((9_0_8:0.00000214,9_0_0:0.00000113):0.00000272,((9_0_4:0.00000037,9_0_1:0.00000029):0.00000018,9_0_3:0.00000430):0.00000385):0.00000084,((9_0_5:0.00000051,(9_0_2:0.00000221,9_0_6:0.00000012):0.00000036):0.00000034,9_0_7:0.00000651):0.00000257):0.00052557):0.00364599):0.00386061):0.00342130,0_0_0:0.04268567);
[TREE] T06 (0_0_0:0.03306650,((((((9_0_1:0.00000001,9_0_5:0.00000005):0.00000052,9_0_0:0.00000057):0.00007680,((9_0_8:0.00000050,9_0_4:0.00000006):0.00002752,((9_0_3:0.00000171,(9_0_7:0.00000000,9_0_2:0.00000001):0.00000006):0.00000047,9_0_6:0.00000111):0.00004345):0.00003477):0.00146055,(((13_0_0:0.00000032,(13_0_1:0.00000026,13_0_3:0.00000165):0.00000052):0.00000479,((13_0_2:0.00000335,13_0_4:0.00000014):0.00000146,(((13_0_7:0.00000241,13_0_6:0.00000087):0.00000005,13_0_8:0.00000049):0.00000020,13_0_5:0.00000020):0.00001052):0.00000132):0.00017721,(8_0_5:0.00000225,(((8_0_8:0.00000001,8_0_0:0.00000027):0.00000083,(8_0_2:0.00000032,8_0_4:0.00000060):0.00000040):0.00000109,(((8_0_7:0.00000242,8_0_3:0.00000176):0.00000065,8_0_6:0.00000199):0.00000002,8_0_1:0.00000043):0.00000202):0.00000119):0.00032580):0.00034538):0.00320004,(((((3_0_5:0.00000521,3_0_0:0.00000228):0.00000504,(3_0_7:0.00000041,3_0_6:0.00000288):0.00000014):0.00002506,((3_0_4:0.00000703,(3_0_8:0.00000610,3_0_3:0.00000539):0.00000084):0.00002475,(3_0_2:0.00000013,3_0_1:0.00000014):0.00001648):0.00003029):0.00169900,((11_0_7:0.00000516,11_0_3:0.00000374):0.00000090,(11_0_2:0.00000107,((11_0_0:0.00000528,(11_0_8:0.00000043,11_0_5:0.00000057):0.00000100):0.00000391,((11_0_6:0.00000086,11_0_1:0.00000003):0.00000134,11_0_4:0.00000681):0.00000112):0.00000074):0.00000006):0.00043534):0.00767725,((((((10_0_5:0.00000267,10_0_0:0.00000158):0.00000662,(10_0_1:0.00000114,(10_0_6:0.00000008,10_0_8:0.00000015):0.00000041):0.00000681):0.00000800,((10_0_7:0.00000002,10_0_3:0.00000006):0.00000098,10_0_4:0.00000116):0.00000475):0.00000638,10_0_2:0.00003183):0.01418766,((((4_0_7:0.00000003,4_0_3:0.00000011):0.00001465,(((4_0_5:0.00000033,4_0_0:0.00000040):0.00000260,(4_0_8:0.00000106,((4_0_6:0.00000077,4_0_1:0.00000020):0.00000016,4_0_4:0.00000025):0.00000163):0.00000011):0.00000798,4_0_2:0.00000169):0.00001547):0.00504728,(((12_0_6:0.00000267,((12_0_0:0.00001159,(((12_0_5:0.00000158,12_0_1:0.00000171):0.00000103,12_0_8:0.00000136):0.00000405,(12_0_4:0.00000089,12_0_7:0.00000062):0.00000103):0.00000403):0.00000036,(12_0_2:0.00000089,12_0_3:0.00000018):0.00001670):0.00000028):0.00003651,((1_0_1:0.00000160,(1_0_5:0.00000020,1_0_2:0.00000092):0.00000266):0.00003864,((1_0_8:0.00001296,(((1_0_3:0.00000002,1_0_7:0.00000008):0.00000161,1_0_4:0.00000057):0.00000507,1_0_6:0.00000081):0.00000163):0.00000731,1_0_0:0.00001166):0.00000216):0.00002543):0.00322056,((5_0_6:0.00000454,((5_0_7:0.00000006,5_0_4:0.00000025):0.00000891,((5_0_1:0.00000258,(5_0_3:0.00000009,5_0_8:0.00000004):0.00000025):0.00000373,((5_0_2:0.00000021,5_0_0:0.00000077):0.00000083,5_0_5:0.00000082):0.00001445):0.00000052):0.00000361):0.00128332,((6_0_8:0.00000001,6_0_1:0.00000001):0.00006435,((6_0_2:0.00000038,6_0_0:0.00000019):0.00001889,(6_0_5:0.00000320,((6_0_4:0.00000005,6_0_3:0.00000077):0.00000037,(6_0_7:0.00000159,6_0_6:0.00000068):0.00000019):0.00000564):0.00000236):0.00000390):0.00029379):0.00082960):0.00001474):0.00005980,(((2_0_7:0.00000501,((2_0_1:0.00000096,2_0_8:0.00000058):0.00000056,2_0_4:0.00000696):0.00000415):0.00000687,(2_0_6:0.00000253,(2_0_2:0.00000057,2_0_3:0.00000365):0.00000049):0.00000293):0.00000443,(2_0_0:0.00000399,2_0_5:0.00000474):0.00000167):0.00122989):0.00340448):0.00001759,((7_0_4:0.00000197,(7_0_7:0.00000108,(7_0_0:0.00000118,(7_0_5:0.00000026,7_0_3:0.00000095):0.00000025):0.00000012):0.00000296):0.00010323,((7_0_8:0.00000029,7_0_2:0.00000029):0.00000766,(7_0_6:0.00000036,7_0_1:0.00000219):0.00000331):0.00003342):0.01443112):0.00454093):0.00183900):0.00824334,(((((17_0_7:0.00000216,((17_0_1:0.00000028,17_0_2:0.00000124):0.00000098,17_0_8:0.00000298):0.00000036):0.00000232,17_0_3:0.00000116):0.00000659,(17_0_4:0.00000195,(17_0_0:0.00000267,(17_0_6:0.00000159,17_0_5:0.00000025):0.00000219):0.00000025):0.00000198):0.00141946,((16_0_6:0.00002355,(16_0_8:0.00000793,((16_0_4:0.00000101,16_0_0:0.00000187):0.00000061,(((16_0_7:0.00000006,16_0_1:0.00000104):0.00000230,16_0_5:0.00000007):0.00000009,(16_0_2:0.00000007,16_0_3:0.00000010):0.00000102):0.00000072):0.00000624):0.00000454):0.00052522,((18_0_4:0.00000001,18_0_6:0.00000003):0.00000778,((18_0_8:0.00000011,(18_0_7:0.00000003,18_0_2:0.00000077):0.00000005):0.00000494,((18_0_1:0.00000240,18_0_3:0.00000466):0.00000786,(18_0_5:0.00000082,18_0_0:0.00000206):0.00000043):0.00000083):0.00000042):0.00013555):0.00014789):0.00064047,((((14_0_6:0.00000003,14_0_4:0.00000002):0.00000308,((14_0_5:0.00000022,14_0_1:0.00000028):0.00000082,(14_0_8:0.00000150,14_0_7:0.00000246):0.00000008):0.00000552):0.00002095,(14_0_3:0.00000197,(14_0_2:0.00000147,14_0_0:0.00000474):0.00000190):0.00001602):0.00198109,(((((15_0_6:0.00000026,15_0_8:0.00000016):0.00000046,15_0_4:0.00000114):0.00000101,15_0_3:0.00000355):0.00000409,15_0_7:0.00000160):0.00000137,(15_0_2:0.00000430,(15_0_5:0.00000061,(15_0_0:0.00000117,15_0_1:0.00000262):0.00000187):0.00000082):0.00000446):0.00221661):0.00026176):0.00677729):0.00875840);
[TREE] T07 (0_0_0:0.00879717,((((((13_0_7:0.00001448,(13_0_6:0.00000051,13_0_4:0.00000019):0.00000412):0.00002249,(((13_0_5:0.00000057,13_0_8:0.00000041):0.00000182,(13_0_3:0.00000032,13_0_0:0.00000029):0.00000377):0.00000618,(13_0_1:0.00000041,13_0_2:0.00000167):0.00000335):0.00001726):0.00376550,((((8_0_5:0.00000001,8_0_1:0.00000031):0.00000868,8_0_8:0.00000741):0.00000934,8_0_6:0.00000463):0.00001699,((8_0_4:0.00000019,8_0_2:0.00000024):0.00000109,((8_0_0:0.00000054,8_0_7:0.00000413):0.00000068,8_0_3:0.00000162):0.00000553):0.00004780):0.00001912):0.00001541,(((9_0_6:0.00000065,9_0_0:0.00000157):0.00000030,(9_0_5:0.00000273,(9_0_8:0.00000028,9_0_1:0.00000038):0.00000080):0.00000053):0.00002381,(((9_0_3:0.00000205,9_0_4:0.00000255):0.00000230,9_0_7:0.00000417):0.00000519,9_0_2:0.00001767):0.00000061):0.00174183):0.01252152,((((3_0_0:0.00000004,3_0_7:0.00000037):0.00000527,(((((3_0_4:0.00000120,3_0_6:0.00000293):0.00000035,3_0_8:0.00000190):0.00000075,3_0_3:0.00000285):0.00000545,(3_0_2:0.00000156,3_0_1:0.00000211):0.00000572):0.00001266,3_0_5:0.00003463):0.00000293):0.00288237,(((11_0_7:0.00000014,11_0_8:0.00000207):0.00000057,(11_0_1:0.00000058,11_0_0:0.00000089):0.00000011):0.00001329,((11_0_3:0.00000026,11_0_2:0.00000087):0.00000212,((11_0_4:0.00000062,11_0_6:0.00000006):0.00000121,11_0_5:0.00000638):0.00001721):0.00000122):0.00152436):0.00114630,(((((7_0_5:0.00000022,7_0_6:0.00000014):0.00000089,7_0_2:0.00000042):0.00001006,7_0_7:0.00000080):0.00000659,(7_0_0:0.00000819,((7_0_4:0.00000019,7_0_1:0.00000027):0.00000005,(7_0_8:0.00000039,7_0_3:0.00000041):0.00000109):0.00000052):0.00000104):0.00536089,((((((4_0_1:0.00000019,4_0_7:0.00000022):0.00001871,(4_0_8:0.00000748,4_0_3:0.00002040):0.00000732):0.00000147,((4_0_4:0.00000005,(4_0_6:0.00000062,(4_0_2:0.00000005,4_0_0:0.00000004):0.00000074):0.00000059):0.00000120,4_0_5:0.00000047):0.00004169):0.00581303,((((5_0_1:0.00000196,((((5_0_3:0.00000004,5_0_8:0.00000002):0.00000003,5_0_7:0.00000005):0.00000001,5_0_4:0.00000032):0.00000144,5_0_5:0.00000160):0.00000242):0.00001092,(5_0_6:0.00001592,(5_0_0:0.00000054,5_0_2:0.00000100):0.00001816):0.00000255):0.00050517,(((6_0_0:0.00000106,(6_0_2:0.00000213,6_0_6:0.00000307):0.00000030):0.00000075,6_0_7:0.00001291):0.00001308,((6_0_5:0.00000158,6_0_1:0.00000023):0.00000031,(6_0_3:0.00000225,(6_0_8:0.00000049,6_0_4:0.00000015):0.00000047):0.00000204):0.00000305):0.00185744):0.00438386,((12_0_1:0.00001083,(12_0_6:0.00002794,(((12_0_8:0.00000536,12_0_0:0.00000253):0.00001975,((12_0_3:0.00000204,12_0_5:0.00000074):0.00000350,12_0_2:0.00000370):0.00000150):0.00000031,(12_0_4:0.00000211,12_0_7:0.00000136):0.00001117):0.00002047):0.00000085):0.00005143,((1_0_3:0.00000023,1_0_1:0.00000064):0.00000954,(((1_0_6:0.00000035,(1_0_4:0.00000025,1_0_0:0.00000036):0.00000444):0.00000021,(1_0_8:0.00000218,1_0_5:0.00000033):0.00000050):0.00000730,(1_0_7:0.00000266,1_0_2:0.00001661):0.00000040):0.00001485):0.00040406):0.00356101):0.00059147):0.00004182,((2_0_7:0.00000062,2_0_8:0.00000446):0.00000417,(((2_0_1:0.00000560,2_0_0:0.00000141):0.00000050,(2_0_3:0.00000057,2_0_6:0.00000022):0.00000282):0.00000830,(2_0_2:0.00000206,(2_0_4:0.00000069,2_0_5:0.00000174):0.00000430):0.00001511):0.00000196):0.00288814):0.00313681,((10_0_0:0.00000349,10_0_4:0.00000086):0.00001177,((((10_0_7:0.00000028,10_0_5:0.00000009):0.00000008,10_0_6:0.00000027):0.00000542,(10_0_2:0.00000079,(10_0_1:0.00000020,10_0_8:0.00000035):0.00000201):0.00000063):0.00000015,10_0_3:0.00000326):0.00002441):0.00518329):0.00199996):0.00142467):0.00246840):0.02094412,((((((17_0_3:0.00000049,17_0_6:0.00000151):0.00000170,(17_0_2:0.00000149,17_0_1:0.00000045):0.00000423):0.00002082,(17_0_8:0.00000328,17_0_0:0.00000164):0.00003094):0.00000030,(17_0_4:0.00000087,(17_0_7:0.00000109,17_0_5:0.00000239):0.00000577):0.00002206):0.00266909,(((((16_0_5:0.00000001,16_0_0:0.00000001):0.00000019,16_0_4:0.00000067):0.00000305,(16_0_7:0.00000597,(16_0_8:0.00000021,16_0_2:0.00000002):0.00000116):0.00000014):0.00000846,((16_0_3:0.00000000,16_0_1:0.00000001):0.00000306,16_0_6:0.00000141):0.00001361):0.00224493,(((18_0_5:0.00000605,18_0_3:0.00000055):0.00000897,(((18_0_4:0.00000046,18_0_7:0.00000059):0.00000746,18_0_0:0.00000602):0.00000052,18_0_6:0.00000032):0.00000014):0.00000592,(18_0_8:0.00001395,(18_0_1:0.00000008,18_0_2:0.00000034):0.00000699):0.00004224):0.00096367):0.00011351):0.00168062,((((15_0_6:0.00000181,15_0_7:0.00000244):0.00000003,(15_0_2:0.00000180,15_0_4:0.00000066):0.00000410):0.00011958,(((15_0_1:0.00000034,(15_0_3:0.00000004,15_0_8:0.00000006):0.00000015):0.00000029,15_0_0:0.00000111):0.00000076,15_0_5:0.00000680):0.00002391):0.00632408,(((14_0_4:0.00000435,(14_0_0:0.00000032,14_0_6:0.00000135):0.00000786):0.00000059,((14_0_7:0.00000001,14_0_3:0.00000000):0.00000012,14_0_5:0.00000127):0.00000132):0.00000033,(14_0_1:0.00000666,(14_0_2:0.00000094,14_0_8:0.00000692):0.00000005):0.00000349):0.00020208):0.00187865):0.01322494):0.00986655);
[TREE] T08 (0_0_0:0.01434560,(((((18_0_2:0.00000493,(((((18_0_1:0.00000007,18_0_4:0.00000006):0.00000031,(18_0_0:0.00000025,18_0_8:0.00000020):0.00000019):0.00000043,18_0_3:0.00000144):0.00000163,(18_0_6:0.00000254,18_0_7:0.00000141):0.00000196):0.00000041,18_0_5:0.00000476):0.00001389):0.00067261,(((16_0_1:0.00000020,16_0_4:0.00000560):0.00000362,(((16_0_0:0.00000001,16_0_6:0.00000001):0.00000621,((16_0_8:0.00000640,16_0_5:0.00000049):0.00000039,16_0_7:0.00000093):0.00000025):0.00000093,16_0_3:0.00000106):0.00000082):0.00000396,16_0_2:0.00000461):0.00176413):0.00007061,((17_0_8:0.00000204,(17_0_3:0.00000012,17_0_7:0.00000016):0.00000095):0.00000581,((17_0_2:0.00000006,17_0_0:0.00000009):0.00000313,(17_0_6:0.00000540,(17_0_4:0.00000109,(17_0_5:0.00000192,17_0_1:0.00000066):0.00000011):0.00000054):0.00000088):0.00000740):0.00163649):0.00079079,((14_0_0:0.00003590,((14_0_6:0.00000267,(14_0_4:0.00000151,14_0_1:0.00000044):0.00000002):0.00000145,((14_0_7:0.00000557,(14_0_3:0.00000027,14_0_5:0.00000010):0.00000220):0.00003213,(14_0_2:0.00000076,14_0_8:0.00000060):0.00000116):0.00000245):0.00004058):0.00041777,(((15_0_2:0.00000284,((15_0_1:0.00000045,15_0_8:0.00000013):0.00000075,(15_0_0:0.00000029,15_0_3:0.00000061):0.00000052):0.00000030):0.00000953,(15_0_6:0.00000091,15_0_4:0.00000049):0.00000364):0.00000017,(15_0_7:0.00000020,15_0_5:0.00000075):0.00000555):0.00177262):0.00037514):0.01222711,(((((((9_0_4:0.00000292,9_0_5:0.00000011):0.00000105,9_0_7:0.00000093):0.00000050,9_0_3:0.00000472):0.00000228,(9_0_0:0.00000380,9_0_2:0.00001144):0.00000223):0.00000171,((9_0_1:0.00000379,9_0_8:0.00000137):0.00000350,9_0_6:0.00001031):0.00000691):0.00174068,((((8_0_3:0.00000224,(8_0_2:0.00000007,8_0_1:0.00000002):0.00000475):0.00000442,8_0_4:0.00001962):0.00002187,(8_0_8:0.00000900,((8_0_5:0.00000033,8_0_7:0.00000072):0.00000021,(8_0_6:0.00000143,8_0_0:0.00000021):0.00000031):0.00000075):0.00000426):0.00172939,((13_0_6:0.00001131,((13_0_2:0.00000420,(13_0_0:0.00000056,13_0_5:0.00000006):0.00000377):0.00000040,((13_0_1:0.00000355,13_0_8:0.00000138):0.00000064,13_0_7:0.00000157):0.00000302):0.00000417):0.00002331,(13_0_4:0.00000136,13_0_3:0.00000097):0.00001805):0.00371727):0.00008230):0.00864711,(((((11_0_0:0.00000001,(11_0_2:0.00000080,11_0_7:0.00000004):0.00000019):0.00001015,(11_0_6:0.00000149,(11_0_8:0.00000079,(11_0_4:0.00000262,11_0_3:0.00000104):0.00000169):0.00000063):0.00003434):0.00002387,(11_0_1:0.00000677,11_0_5:0.00001865):0.00000388):0.00044000,(3_0_0:0.00001225,(((3_0_8:0.00000001,3_0_3:0.00000009):0.00000559,((3_0_6:0.00000020,((3_0_7:0.00000005,3_0_2:0.00000005):0.00000025,3_0_1:0.00000014):0.00000002):0.00000041,3_0_5:0.00000110):0.00000381):0.00000141,3_0_4:0.00000171):0.00000466):0.00043042):0.00209786,((((((7_0_1:0.00000328,7_0_4:0.00000068):0.00000134,7_0_6:0.00000020):0.00000533,(7_0_0:0.00000023,7_0_7:0.00000032):0.00001412):0.00000379,7_0_2:0.00005356):0.00000262,((7_0_3:0.00000155,7_0_5:0.00000090):0.00000057,7_0_8:0.00000288):0.00002568):0.00439837,(((((10_0_0:0.00000075,10_0_3:0.00000018):0.00000003,10_0_7:0.00000023):0.00000208,(10_0_1:0.00000289,((10_0_6:0.00000175,10_0_2:0.00000114):0.00000153,10_0_8:0.00000082):0.00000002):0.00000012):0.00001861,(10_0_5:0.00000390,10_0_4:0.00000107):0.00000489):0.00239299,((((4_0_3:0.00000014,4_0_1:0.00000121):0.00000859,((4_0_2:0.00000202,((4_0_0:0.00000024,4_0_8:0.00000018):0.00000048,((4_0_7:0.00000018,4_0_6:0.00000014):0.00000070,4_0_4:0.00000245):0.00000271):0.00001077):0.00000174,4_0_5:0.00001285):0.00000681):0.00364956,(((((5_0_3:0.00000153,(5_0_4:0.00000085,(5_0_8:0.00000068,5_0_7:0.00000011):0.00000467):0.00000146):0.00001234,((5_0_1:0.00000012,5_0_2:0.00000025):0.00000182,5_0_5:0.00000244):0.00002524):0.00000031,(5_0_0:0.00000383,5_0_6:0.00000365):0.00002281):0.00152539,((((6_0_6:0.00000001,6_0_1:0.00000006):0.00000315,(6_0_8:0.00000029,6_0_2:0.00000024):0.00000320):0.00000181,(6_0_4:0.00000075,(6_0_3:0.00000062,6_0_5:0.00000061):0.00000036):0.00001201):0.00003127,(6_0_7:0.00000022,6_0_0:0.00000635):0.00000043):0.00096349):0.00035083,((((1_0_3:0.00000028,1_0_0:0.00000057):0.00000338,((1_0_6:0.00000212,(1_0_7:0.00000040,1_0_4:0.00000015):0.00000382):0.00000158,1_0_8:0.00000146):0.00000031):0.00000051,(1_0_1:0.00000193,(1_0_2:0.00000027,1_0_5:0.00000019):0.00000051):0.00000536):0.00020557,(((12_0_7:0.00000005,12_0_2:0.00000011):0.00002339,(((12_0_4:0.00000310,12_0_5:0.00000151):0.00000709,(12_0_1:0.00000143,12_0_6:0.00000128):0.00000194):0.00000504,12_0_8:0.00002034):0.00000913):0.00002602,(12_0_0:0.00000123,12_0_3:0.00000168):0.00008013):0.00017258):0.00029656):0.00055928):0.00009334,((2_0_4:0.00000114,2_0_0:0.00000010):0.00000179,(2_0_5:0.00000617,(((2_0_2:0.00000004,2_0_3:0.00000029):0.00000108,2_0_7:0.00000068):0.00000157,(2_0_1:0.00000087,(2_0_6:0.00000174,2_0_8:0.00000072):0.00000025):0.00000096):0.00000050):0.00000777):0.00274113):0.00066649):0.00003834):0.00385322):0.00834968):0.00587096):0.03187186);
[TREE] T09 (0_0_0:0.02549107,((((((((7_0_6:0.00000203,7_0_1:0.00000366):0.00000076,((7_0_5:0.00000060,7_0_4:0.00000258):0.00000047,7_0_3:0.00001027):0.00000344):0.00000211,(7_0_2:0.00000044,7_0_0:0.00000010):0.00000199):0.00000120,(7_0_7:0.00000142,7_0_8:0.00000243):0.00000530):0.00936786,(((((2_0_6:0.00000007,2_0_2:0.00000068):0.00001117,2_0_0:0.00000757):0.00000929,(((2_0_4:0.00000018,2_0_1:0.00000004):0.00000185,(2_0_5:0.00000188,2_0_3:0.00000102):0.00000211):0.00000347,(2_0_7:0.00000007,2_0_8:0.00000193):0.00000106):0.00013872):0.00243270,((((4_0_1:0.00000066,4_0_5:0.00000049):0.00000031,4_0_7:0.00000058):0.00001967,(((4_0_8:0.00000092,4_0_2:0.00000154):0.00001825,((4_0_3:0.00000262,4_0_6:0.00000092):0.00000131,4_0_4:0.00000061):0.00000479):0.00001406,4_0_0:0.00000271):0.00000403):0.00147991,(((((6_0_3:0.00000097,(6_0_7:0.00000008,6_0_8:0.00000033):0.00000007):0.00000057,6_0_5:0.00000294):0.00000446,((6_0_1:0.00000166,((6_0_0:0.00000029,6_0_2:0.00000030):0.00000053,6_0_6:0.00000461):0.00000117):0.00000002,6_0_4:0.00000147):0.00000404):0.00069447,((5_0_1:0.00002720,(((5_0_6:0.00000067,5_0_3:0.00000171):0.00000050,5_0_0:0.00000229):0.00000069,(5_0_5:0.00000259,(5_0_4:0.00000027,5_0_8:0.00000012):0.00000141):0.00000104):0.00000117):0.00001584,(5_0_7:0.00000061,5_0_2:0.00000073):0.00002170):0.00138050):0.00059606,(((12_0_0:0.00000611,((((12_0_8:0.00000016,12_0_4:0.00000022):0.00000449,12_0_3:0.00001284):0.00000007,(12_0_7:0.00000005,12_0_1:0.00000003):0.00000485):0.00000191,12_0_5:0.00000113):0.00000081):0.00000010,(12_0_6:0.00000972,12_0_2:0.00001380):0.00000307):0.00042822,((1_0_3:0.00000118,((1_0_1:0.00000019,1_0_2:0.00000008):0.00000101,(1_0_5:0.00000108,(1_0_0:0.00000012,1_0_6:0.00000025):0.00000001):0.00000010):0.00000105):0.00000086,((1_0_4:0.00000025,1_0_7:0.00000042):0.00000241,1_0_8:0.00000048):0.00000052):0.00027560):0.00132762):0.00020169):0.00003541):0.00207908,((10_0_1:0.00000406,(10_0_6:0.00001081,10_0_8:0.00000185):0.00000002):0.00001107,((10_0_2:0.00000093,(10_0_0:0.00000120,10_0_3:0.00000457):0.00000889):0.00000000,(10_0_5:0.00000022,(10_0_4:0.00000023,10_0_7:0.00000030):0.00000003):0.00000673):0.00001645):0.00064589):0.00028197):0.00160996,((((11_0_3:0.00000004,11_0_4:0.00000021):0.00001338,(((11_0_5:0.00000616,((11_0_2:0.00000060,11_0_7:0.00000038):0.00000080,11_0_0:0.00000180):0.00000157):0.00000140,11_0_8:0.00000064):0.00000035,11_0_1:0.00000103):0.00000553):0.00004430,11_0_6:0.00005078):0.00067912,((3_0_8:0.00000235,3_0_4:0.00000047):0.00000772,(((3_0_0:0.00000097,(3_0_2:0.00000048,3_0_1:0.00000112):0.00000112):0.00000569,((3_0_6:0.00000019,3_0_3:0.00000098):0.00000027,3_0_5:0.00000260):0.00000024):0.00000283,3_0_7:0.00000351):0.00000793):0.00067463):0.00474708):0.00314538,((((9_0_7:0.00000061,9_0_2:0.00000051):0.00000068,(9_0_0:0.00000187,(9_0_3:0.00000000,9_0_1:0.00000027):0.00000143):0.00000004):0.00001696,((9_0_5:0.00000221,(9_0_8:0.00000528,9_0_6:0.00000364):0.00000234):0.00000040,9_0_4:0.00000393):0.00000266):0.00046880,((((8_0_2:0.00000206,8_0_3:0.00001320):0.00000450,((8_0_5:0.00000046,8_0_6:0.00000127):0.00000074,(8_0_7:0.00000054,8_0_4:0.00000034):0.00000120):0.00000626):0.00000608,(8_0_8:0.00000278,(8_0_0:0.00000129,8_0_1:0.00000078):0.00000205):0.00001908):0.00138708,((13_0_2:0.00000513,((13_0_8:0.00000035,13_0_7:0.00000012):0.00001088,13_0_3:0.00000528):0.00001125):0.00002638,(13_0_4:0.00000740,((13_0_1:0.00000025,13_0_5:0.00000041):0.00000011,(13_0_6:0.00000000,13_0_0:0.00000002):0.00000062):0.00000345):0.00006622):0.00170719):0.00025936):0.01790295):0.00737930,(((((17_0_3:0.00000128,(17_0_4:0.00000150,(17_0_8:0.00000037,17_0_2:0.00000142):0.00000062):0.00000002):0.00000245,(17_0_7:0.00002113,((17_0_6:0.00000040,17_0_1:0.00000005):0.00000257,17_0_0:0.00000256):0.00000337):0.00000041):0.00000244,17_0_5:0.00001265):0.00066115,((((18_0_1:0.00000678,(18_0_3:0.00000014,18_0_6:0.00000019):0.00000440):0.00002269,(18_0_7:0.00000111,18_0_5:0.00000184):0.00002826):0.00000011,(18_0_8:0.00000653,(18_0_4:0.00000774,(18_0_0:0.00000002,18_0_2:0.00000000):0.00000311):0.00000082):0.00000275):0.00060813,((((16_0_8:0.00000003,16_0_2:0.00000028):0.00000188,16_0_7:0.00000033):0.00000496,16_0_5:0.00003866):0.00002646,(16_0_0:0.00000473,(16_0_4:0.00000007,(16_0_3:0.00000119,(16_0_6:0.00000021,16_0_1:0.00000004):0.00000023):0.00000166):0.00000246):0.00005312):0.00075485):0.00006832):0.00252044,((((15_0_7:0.00000097,(15_0_3:0.00000138,15_0_4:0.00000009):0.00000021):0.00000120,15_0_6:0.00000074):0.00001313,((15_0_5:0.00000169,(15_0_0:0.00000071,15_0_8:0.00000224):0.00000010):0.00000038,(15_0_2:0.00000965,15_0_1:0.00000142):0.00003161):0.00000453):0.00326333,(((14_0_1:0.00000406,14_0_2:0.00000354):0.00000126,(14_0_6:0.00000192,((14_0_8:0.00000031,14_0_3:0.00000053):0.00000397,(14_0_4:0.00000066,14_0_7:0.00000078):0.00000017):0.00000540):0.00000185):0.00000039,(14_0_5:0.00000565,14_0_0:0.00000465):0.00000596):0.00019534):0.00034524):0.00120711):0.00992913);
[TREE] T10 (0_0_0:0.05355764,(((((((((((((6_0_3:0.00000105,6_0_8:0.00000049):0.00000810,(6_0_6:0.00000188,(6_0_5:0.00000033,6_0_7:0.00000014):0.00000031):0.00000220):0.00000625,((6_0_2:0.00000299,6_0_4:0.00000292):0.00000023,6_0_0:0.00000184):0.00000313):0.00000886,6_0_1:0.00000998):0.00029331,(5_0_0:0.00000215,((((5_0_7:0.00000022,5_0_4:0.00000017):0.00000001,5_0_3:0.00000042):0.00000108,5_0_8:0.00001222):0.00000107,((5_0_5:0.00000011,5_0_1:0.00000001):0.00000101,(5_0_2:0.00000015,5_0_6:0.00000005):0.00000047):0.00000347):0.00000158):0.00030548):0.00016662,(((1_0_8:0.00000097,(1_0_0:0.00000002,1_0_7:0.00000001):0.00000049):0.00002834,((1_0_6:0.00000189,(1_0_3:0.00000015,(1_0_4:0.00000022,1_0_2:0.00000079):0.00000116):0.00000051):0.00000127,(1_0_1:0.00000045,1_0_5:0.00000065):0.00000088):0.00000096):0.00037056,((((12_0_1:0.00000592,12_0_3:0.00000418):0.00000015,12_0_8:0.00000117):0.00000128,(12_0_4:0.00000131,12_0_6:0.00000143):0.00000044):0.00000004,((12_0_2:0.00000077,12_0_0:0.00000038):0.00000397,(12_0_7:0.00000009,12_0_5:0.00000016):0.00000286):0.00000103):0.00005624):0.00282407):0.00083636,((4_0_0:0.00004970,((4_0_2:0.00000134,(4_0_1:0.00000001,4_0_3:0.00000002):0.00000093):0.00001157,4_0_5:0.00001018):0.00002098):0.00000556,(((4_0_6:0.00000045,4_0_7:0.00000026):0.00000240,4_0_4:0.00000434):0.00000257,4_0_8:0.00000527):0.00001278):0.00699151):0.00004142,(((2_0_7:0.00000033,2_0_2:0.00000067):0.00001596,(2_0_5:0.00000487,(2_0_0:0.00000105,2_0_4:0.00000042):0.00000113):0.00000756):0.00000015,((2_0_1:0.00000136,2_0_3:0.00000032):0.00000291,(2_0_6:0.00000132,2_0_8:0.00000244):0.00000103):0.00000466):0.00609079):0.00283159,(((10_0_6:0.00000159,10_0_5:0.00000451):0.00000147,10_0_2:0.00000508):0.00001499,(10_0_4:0.00000139,((10_0_8:0.00000046,(10_0_7:0.00000053,10_0_3:0.00000205):0.00000330):0.00000296,(10_0_1:0.00000049,10_0_0:0.00000018):0.00000149):0.00000950):0.00000750):0.00227440):0.00041082,((7_0_0:0.00000039,(7_0_6:0.00000105,7_0_7:0.00000050):0.00000116):0.00001317,(7_0_4:0.00000032,((7_0_3:0.00000610,7_0_2:0.00000085):0.00000037,(7_0_1:0.00000079,(7_0_8:0.00000007,7_0_5:0.00000034):0.00000179):0.00000034):0.00000107):0.00001101):0.00114818):0.00100903,(((3_0_0:0.00000112,(3_0_6:0.00000035,3_0_2:0.00000011):0.00000106):0.00001427,(3_0_8:0.00000188,((3_0_4:0.00000079,3_0_5:0.00000280):0.00000143,(3_0_7:0.00000071,(3_0_3:0.00000015,3_0_1:0.00000054):0.00000082):0.00000090):0.00000696):0.00000724):0.00016270,((11_0_5:0.00000204,(11_0_1:0.00000038,11_0_6:0.00000193):0.00000027):0.00001448,((11_0_0:0.00000019,((11_0_7:0.00000046,11_0_2:0.00000026):0.00000007,11_0_3:0.00000044):0.00000003):0.00000015,(11_0_8:0.00000494,11_0_4:0.00000022):0.00000122):0.00000588):0.00104251):0.00600269):0.00770800,((((((9_0_3:0.00000047,(9_0_5:0.00000301,((9_0_7:0.00000110,9_0_6:0.00000038):0.00000004,9_0_1:0.00000010):0.00000121):0.00000011):0.00000333,9_0_0:0.00001928):0.00000336,9_0_8:0.00001067):0.00000554,9_0_4:0.00002174):0.00004793,9_0_2:0.00006622):0.00021460,((13_0_5:0.00000360,((13_0_7:0.00000434,(13_0_6:0.00000019,(13_0_0:0.00000025,13_0_4:0.00000002):0.00000000):0.00000491):0.00001802,(13_0_8:0.00000126,(13_0_3:0.00000022,(13_0_1:0.00000008,13_0_2:0.00000022):0.00000084):0.00000018):0.00000213):0.00000159):0.00109384,((((8_0_1:0.00000000,8_0_7:0.00000000):0.00000063,8_0_2:0.00000182):0.00000064,(8_0_4:0.00000094,8_0_6:0.00000088):0.00000313):0.00000780,(((8_0_5:0.00000156,8_0_0:0.00000011):0.00000004,8_0_3:0.00000190):0.00000000,8_0_8:0.00000351):0.00001033):0.00017837):0.00003022):0.00674003):0.00731720,((((((18_0_3:0.00000153,(18_0_5:0.00000913,18_0_6:0.00000103):0.00000153):0.00000287,((18_0_7:0.00000036,18_0_2:0.00000051):0.00000006,((18_0_0:0.00000004,18_0_4:0.00000000):0.00000044,18_0_1:0.00000071):0.00000287):0.00000021):0.00000147,18_0_8:0.00000103):0.00005514,(((16_0_8:0.00000135,16_0_2:0.00000186):0.00001595,((16_0_7:0.00000162,((16_0_1:0.00000047,(16_0_3:0.00000002,16_0_5:0.00000001):0.00000033):0.00000002,16_0_6:0.00000151):0.00000204):0.00000002,16_0_4:0.00000212):0.00000676):0.00002509,16_0_0:0.00006196):0.00047510):0.00004148,((((17_0_2:0.00000199,17_0_6:0.00000780):0.00000574,((17_0_4:0.00000045,17_0_0:0.00000081):0.00000011,(17_0_5:0.00000053,17_0_7:0.00000029):0.00000145):0.00000536):0.00000109,(17_0_1:0.00000035,17_0_8:0.00000119):0.00001660):0.00000664,17_0_3:0.00007850):0.00047945):0.00012457,(((((15_0_7:0.00000063,15_0_8:0.00000011):0.00000011,(15_0_3:0.00000068,15_0_6:0.00000003):0.00000011):0.00000174,15_0_2:0.00000082):0.00000542,((15_0_4:0.00000253,15_0_0:0.00000189):0.00000481,(15_0_1:0.00000003,15_0_5:0.00000001):0.00000131):0.00000085):0.00047184,(((14_0_0:0.00000057,(14_0_2:0.00000016,14_0_3:0.00000012):0.00000006):0.00000082,14_0_8:0.00000021):0.00000674,((14_0_6:0.00000480,((14_0_7:0.00000002,14_0_1:0.00000018):0.00000080,14_0_5:0.00000040):0.00000039):0.00000002,14_0_4:0.00000434):0.00007440):0.00159242):0.00037524):0.01679872):0.01593289);

[PARTITIONS] csSimUnlinked_01 [T01 csSim_unlinked_1 500]
[PARTITIONS] csSimUnlinked_02 [T02 csSim_unlinked_2 500]
[PARTITIONS] csSimUnlinked_03 [T03 csSim_unlinked_3 500]
[PARTITIONS] csSimUnlinked_04 [T04 csSim_unlinked_4 500]
[PARTITIONS] csSimUnlinked_05 [T05 csSim_unlinked_5 500]
[PARTITIONS] csSimUnlinked_06 [T06 csSim_unlinked_6 500]
[PARTITIONS] csSimUnlinked_07 [T07 csSim_unlinked_7 500]
[PARTITIONS] csSimUnlinked_08 [T08 csSim_unlinked_8 500]
[PARTITIONS] csSimUnlinked_09 [T09 csSim_unlinked_9 500]
[PARTITIONS] csSimUnlinked_10 [T10 csSim_unlinked_10 500]

[EVOLVE] csSimUnlinked_01 1 data_01
csSimUnlinked_02 1 data_02
csSimUnlinked_03 1 data_03
csSimUnlinked_04 1 data_04
csSimUnlinked_05 1 data_05
csSimUnlinked_06 1 data_06
csSimUnlinked_07 1 data_07
csSimUnlinked_08 1 data_08
csSimUnlinked_09 1 data_09
csSimUnlinked_10 1 data_10
