********************************************************************************
INDELible V1.03 by Will Fletcher : Simulation began at: Tue Nov 29 13:24:51 2016
********************************************************************************

  * Block 1 was completed in 0.22 seconds.

********************************************************************************


  * Block 2 was completed in 0.22 seconds.

********************************************************************************


  * Block 3 was completed in 0.21 seconds.

********************************************************************************


  * Block 4 was completed in 0.18 seconds.

********************************************************************************


  * Block 5 was completed in 0.2 seconds.

********************************************************************************


  * Block 6 was completed in 0.2 seconds.

********************************************************************************


  * Block 7 was completed in 0.21 seconds.

********************************************************************************


  * Block 8 was completed in 0.22 seconds.

********************************************************************************


  * Block 9 was completed in 0.21 seconds.

********************************************************************************


  * Block 10 was completed in 0.21 seconds.

********************************************************************************

  * Simulation completed. Whole batch took: 2.1 seconds.

INDELible V1.03 Simulations completed at: Tue Nov 29 13:24:53 2016

********************************************************************************


 Original Control File 

-----------------------


[TYPE] NUCLEOTIDE 1 

[SETTINGS]
    [fastaextension] fasta  

[MODEL] csSim_unlinked_1
    [submodel] GTR 0.108060 0.007233 0.007888 0.048600 0.049211 
    [statefreq] 0.093046 0.310191 0.428384 0.168379 
[rates] 0 3.923958 0 

[MODEL] csSim_unlinked_2
    [submodel] GTR 0.106875 0.002780 0.018663 0.052182 0.043928 
    [statefreq] 0.061901 0.231593 0.301328 0.405178 
[rates] 0 1.466346 0 

[MODEL] csSim_unlinked_3
    [submodel] GTR 0.069854 0.005732 0.008816 0.050240 0.038798 
    [statefreq] 0.190637 0.450422 0.045951 0.312990 
[rates] 0 27.273860 0 

[MODEL] csSim_unlinked_4
    [submodel] GTR 0.071100 0.016933 0.013769 0.046655 0.035543 
    [statefreq] 0.065694 0.064332 0.743014 0.126959 
[rates] 0 0.022413 0 

[MODEL] csSim_unlinked_5
    [submodel] GTR 0.119283 0.014235 0.028710 0.009993 0.035296 
    [statefreq] 0.167926 0.134918 0.324265 0.372891 
[rates] 0 5.097587 0 

[MODEL] csSim_unlinked_6
    [submodel] GTR 0.108812 0.003404 0.026906 0.013310 0.048503 
    [statefreq] 0.196026 0.070492 0.679078 0.054404 
[rates] 0 31.524252 0 

[MODEL] csSim_unlinked_7
    [submodel] GTR 0.086815 0.013139 0.012523 0.028411 0.024967 
    [statefreq] 0.499097 0.286331 0.124446 0.090126 
[rates] 0 26.891029 0 

[MODEL] csSim_unlinked_8
    [submodel] GTR 0.137628 0.007830 0.010761 0.008684 0.038691 
    [statefreq] 0.446951 0.150778 0.066044 0.336227 
[rates] 0 14.315007 0 

[MODEL] csSim_unlinked_9
    [submodel] GTR 0.084787 0.008579 0.011622 0.024534 0.053636 
    [statefreq] 0.015189 0.188745 0.690878 0.105189 
[rates] 0 33.057571 0 

[MODEL] csSim_unlinked_10
    [submodel] GTR 0.108099 0.002890 0.013505 0.042281 0.045888 
    [statefreq] 0.420723 0.135318 0.030501 0.413458 
[rates] 0 12.610005 0 


[TREE] T01 (((((1_0_0:0.00007086,(1_0_1:0.00005006,(1_0_8:0.00000549,(1_0_4:0.00000463,1_0_6:0.00000239):0.00000068):0.00004619):0.00008163):0.00008454,(((1_0_7:0.00000008,1_0_9:0.00000005):0.00004029,(1_0_5:0.00000269,1_0_2:0.00000621):0.00001157):0.00004884,1_0_10:0.00004931):0.00010263):0.00010074,1_0_3:0.00045739):0.04222179,(((((6_0_6:0.00005400,((6_0_1:0.00001154,6_0_2:0.00000756):0.00000769,6_0_0:0.00000766):0.00002513):0.00004154,(6_0_8:0.00003087,(((6_0_7:0.00000355,6_0_4:0.00000315):0.00000756,6_0_10:0.00003168):0.00000214,6_0_5:0.00000926):0.00001338):0.00008064):0.00001355,(6_0_3:0.00009572,6_0_9:0.00010800):0.00006680):0.01279028,(((7_0_2:0.00003316,(7_0_9:0.00001279,7_0_5:0.00001095):0.00002854):0.00039872,(((((7_0_0:0.00001111,7_0_4:0.00000827):0.00000028,(7_0_10:0.00000507,7_0_3:0.00000141):0.00000626):0.00003613,(7_0_6:0.00000838,7_0_8:0.00000154):0.00003266):0.00000031,7_0_7:0.00004630):0.00005084,7_0_1:0.00011818):0.00037860):0.01002888,(((3_0_0:0.00001329,3_0_7:0.00000718):0.00001506,3_0_4:0.00004655):0.00011661,((((3_0_2:0.00002698,(3_0_10:0.00001455,3_0_8:0.00002121):0.00002860):0.00000439,(3_0_6:0.00000006,3_0_1:0.00000003):0.00004821):0.00002080,(3_0_9:0.00000112,3_0_3:0.00000009):0.00006101):0.00000193,3_0_5:0.00006893):0.00001451):0.00129703):0.00185268):0.06144820,((((4_0_3:0.00000119,4_0_9:0.00000190):0.00013272,(4_0_0:0.00003068,((4_0_5:0.00003718,4_0_6:0.00000635):0.00001523,4_0_4:0.00013367):0.00000373):0.00001966):0.00001812,((4_0_2:0.00000263,4_0_7:0.00000466):0.00008211,((4_0_8:0.00000067,4_0_1:0.00000026):0.00000802,4_0_10:0.00000366):0.00002343):0.00004605):0.00572652,(((5_0_10:0.00007780,5_0_7:0.00008623):0.00010431,(5_0_2:0.00023852,((5_0_4:0.00002036,((5_0_5:0.00003141,5_0_9:0.00001015):0.00000060,5_0_0:0.00000430):0.00002315):0.00003874,(5_0_1:0.00001398,(5_0_6:0.00000176,(5_0_3:0.00000073,5_0_8:0.00000076):0.00000334):0.00001765):0.00002250):0.00008551):0.00007351):0.00011113,((((2_0_4:0.00001088,2_0_5:0.00002294):0.00002654,(2_0_0:0.00003583,2_0_6:0.00003135):0.00000366):0.00000294,(2_0_1:0.00001131,(2_0_9:0.00000497,(2_0_2:0.00000117,2_0_8:0.00000220):0.00000731):0.00000576):0.00001584):0.00018437,((2_0_10:0.00001605,2_0_3:0.00000920):0.00000016,2_0_7:0.00004597):0.00019591):0.00064506):0.01382482):0.07190249):0.00454446):0.04273840,0_0_0:0.07914437);
[TREE] T02 (((((((4_0_5:0.00001600,(4_0_1:0.00002384,4_0_9:0.00000934):0.00005058):0.00006875,(4_0_6:0.00001747,(4_0_0:0.00001979,4_0_3:0.00000593):0.00000203):0.00007496):0.00061067,((4_0_4:0.00009364,(4_0_2:0.00000705,4_0_10:0.00001836):0.00004309):0.00001263,(4_0_7:0.00004662,4_0_8:0.00003144):0.00000778):0.00049331):0.00602679,(((((2_0_10:0.00000613,2_0_8:0.00000660):0.00003022,2_0_2:0.00002211):0.00000099,2_0_7:0.00002433):0.00006641,(((2_0_5:0.00000109,2_0_6:0.00000777):0.00004542,2_0_0:0.00002861):0.00003331,(2_0_4:0.00006644,(2_0_3:0.00005680,(2_0_9:0.00003932,2_0_1:0.00003991):0.00001676):0.00002182):0.00003579):0.00002452):0.00132641,((((5_0_7:0.00000599,5_0_8:0.00000544):0.00000071,5_0_2:0.00001512):0.00004819,5_0_4:0.00020077):0.00029433,((5_0_1:0.00003502,5_0_9:0.00004310):0.00002572,((5_0_5:0.00001557,5_0_6:0.00004949):0.00004849,((5_0_0:0.00000066,5_0_10:0.00000136):0.00002079,5_0_3:0.00000661):0.00003963):0.00008997):0.00029854):0.00053448):0.00457479):0.02081603,(((((6_0_9:0.00002789,(6_0_5:0.00003029,6_0_4:0.00006498):0.00000370):0.00000765,(6_0_10:0.00000216,6_0_3:0.00000184):0.00004785):0.00004008,((6_0_8:0.00001460,(6_0_1:0.00000364,(6_0_6:0.00000457,6_0_0:0.00000886):0.00000018):0.00000402):0.00000716,6_0_2:0.00000683):0.00009454):0.00015454,6_0_7:0.00038002):0.00550950,(((((7_0_1:0.00001387,7_0_4:0.00000572):0.00000459,((7_0_3:0.00000297,7_0_2:0.00000759):0.00000233,7_0_8:0.00001003):0.00000419):0.00000382,7_0_0:0.00007862):0.00008941,(((7_0_5:0.00000361,7_0_9:0.00001540):0.00009820,7_0_6:0.00005970):0.00003613,(7_0_10:0.00003085,7_0_7:0.00000852):0.00008934):0.00005130):0.00656116,((3_0_10:0.00011762,((((3_0_2:0.00001751,3_0_8:0.00002921):0.00000240,(3_0_9:0.00000367,3_0_1:0.00000086):0.00000892):0.00000157,(3_0_0:0.00000047,3_0_7:0.00000015):0.00001613):0.00013990,3_0_6:0.00005444):0.00000926):0.00004629,(3_0_3:0.00000997,(3_0_5:0.00002516,3_0_4:0.00001548):0.00000203):0.00030536):0.00672180):0.00103494):0.06405826):0.00284906,((1_0_2:0.00004059,(1_0_9:0.00002945,1_0_5:0.00001320):0.00000399):0.00011981,((1_0_8:0.00004260,1_0_1:0.00009008):0.00003317,(1_0_3:0.00006272,((1_0_7:0.00000901,1_0_10:0.00000798):0.00002946,(1_0_4:0.00000420,(1_0_0:0.00000025,1_0_6:0.00000022):0.00000673):0.00001228):0.00000145):0.00013518):0.00004495):0.03628000):0.05407798,0_0_0:0.09753902);
[TREE] T03 ((((1_0_10:0.00001446,(1_0_1:0.00001959,1_0_9:0.00001687):0.00001275):0.00017610,(((1_0_2:0.00001062,(1_0_7:0.00000125,1_0_5:0.00000032):0.00000328):0.00002316,(1_0_3:0.00000827,(1_0_6:0.00000420,1_0_0:0.00000257):0.00000202):0.00001733):0.00051476,(1_0_8:0.00000558,1_0_4:0.00000486):0.00013397):0.00005553):0.03976455,((((((6_0_6:0.00000310,6_0_9:0.00000270):0.00001373,6_0_3:0.00000755):0.00001698,6_0_8:0.00000645):0.00043493,((((6_0_0:0.00001628,6_0_10:0.00001349):0.00001446,6_0_4:0.00001992):0.00002192,(6_0_7:0.00001432,6_0_5:0.00001181):0.00003199):0.00021923,(6_0_2:0.00000605,6_0_1:0.00000190):0.00009465):0.00013924):0.01035887,((((((7_0_4:0.00000187,7_0_2:0.00000291):0.00000348,7_0_0:0.00000497):0.00004236,(7_0_10:0.00000735,(7_0_6:0.00000057,7_0_3:0.00000008):0.00000575):0.00010645):0.00002579,(7_0_1:0.00006799,7_0_9:0.00005194):0.00008540):0.00015124,((7_0_8:0.00000331,7_0_7:0.00000086):0.00006099,7_0_5:0.00013050):0.00018443):0.00916181,((3_0_0:0.00008241,((((3_0_3:0.00000403,3_0_2:0.00000751):0.00003947,3_0_10:0.00005410):0.00000712,(3_0_7:0.00002000,(3_0_8:0.00003409,3_0_1:0.00002497):0.00000172):0.00001437):0.00002779,(3_0_5:0.00000143,3_0_4:0.00000048):0.00006554):0.00009262):0.00002873,(3_0_9:0.00003667,3_0_6:0.00002006):0.00044090):0.00319992):0.00126662):0.05587600,((4_0_2:0.00028239,((4_0_5:0.00003160,4_0_6:0.00004592):0.00017002,((4_0_3:0.00006864,(((4_0_10:0.00000488,4_0_4:0.00001171):0.00000204,4_0_1:0.00001330):0.00000825,(4_0_0:0.00005258,4_0_9:0.00001260):0.00000217):0.00000012):0.00001695,(4_0_8:0.00001784,4_0_7:0.00000865):0.00007037):0.00002979):0.00014735):0.01790839,((((2_0_6:0.00004196,(2_0_7:0.00000615,2_0_3:0.00001818):0.00002224):0.00003616,2_0_2:0.00009538):0.00005312,((2_0_1:0.00006350,(2_0_4:0.00002489,(2_0_8:0.00002269,(2_0_10:0.00000144,2_0_0:0.00000059):0.00000699):0.00000852):0.00000592):0.00000013,(2_0_5:0.00001675,2_0_9:0.00002208):0.00001381):0.00009673):0.00065626,((5_0_9:0.00004220,(5_0_5:0.00002310,5_0_4:0.00002503):0.00000619):0.00006252,((5_0_8:0.00002901,((5_0_6:0.00000879,(5_0_3:0.00000259,5_0_7:0.00000048):0.00000241):0.00000324,5_0_1:0.00002146):0.00001729):0.00010037,(5_0_10:0.00001725,(5_0_0:0.00001116,5_0_2:0.00000891):0.00000673):0.00002674):0.00001446):0.00131348):0.01387080):0.01635072):0.00164602):0.09808585,0_0_0:0.06336411);
[TREE] T04 (((((((1_0_8:0.00000665,(1_0_0:0.00000514,1_0_1:0.00000674):0.00000626):0.00002699,1_0_7:0.00002938):0.00001738,(1_0_4:0.00005918,(1_0_2:0.00001374,(1_0_6:0.00000312,1_0_3:0.00001394):0.00000138):0.00004903):0.00002372):0.00000841,(1_0_5:0.00000110,1_0_10:0.00000381):0.00008017):0.00033632,1_0_9:0.00042362):0.05020477,(((((((6_0_6:0.00000562,6_0_10:0.00000420):0.00000060,6_0_7:0.00000267):0.00002762,(6_0_8:0.00000032,6_0_1:0.00000057):0.00000708):0.00003469,(6_0_2:0.00003664,6_0_9:0.00002844):0.00000450):0.00036931,((6_0_3:0.00000528,6_0_0:0.00000450):0.00020253,(6_0_4:0.00000377,6_0_5:0.00000564):0.00016026):0.00000008):0.00764184,(((((7_0_8:0.00000340,7_0_9:0.00001869):0.00002550,(7_0_4:0.00001239,7_0_10:0.00000850):0.00001681):0.00009748,7_0_5:0.00009177):0.00000714,((7_0_6:0.00001657,7_0_7:0.00006919):0.00002057,(7_0_2:0.00002573,((7_0_1:0.00000538,7_0_3:0.00000755):0.00008248,7_0_0:0.00002376):0.00000287):0.00000675):0.00014786):0.00389227,((3_0_6:0.00004351,(3_0_10:0.00000877,3_0_1:0.00000301):0.00001778):0.00002532,(3_0_8:0.00005397,(((3_0_4:0.00000044,3_0_3:0.00000011):0.00000235,3_0_0:0.00000190):0.00003692,(3_0_2:0.00006835,((3_0_7:0.00000668,3_0_5:0.00000784):0.00000816,3_0_9:0.00001032):0.00000953):0.00000774):0.00000742):0.00005585):0.00411604):0.00300628):0.10637324,(((((2_0_1:0.00003279,2_0_6:0.00002953):0.00000639,2_0_10:0.00005796):0.00023970,(2_0_7:0.00006516,((((2_0_2:0.00000910,(2_0_5:0.00000335,2_0_9:0.00000355):0.00000264):0.00000720,2_0_0:0.00003956):0.00000538,2_0_8:0.00001120):0.00000673,(2_0_3:0.00000303,2_0_4:0.00000878):0.00000961):0.00001963):0.00006868):0.00027895,((((((5_0_6:0.00000118,5_0_10:0.00000081):0.00002612,5_0_7:0.00001856):0.00000123,5_0_3:0.00001516):0.00001265,(5_0_4:0.00000363,5_0_2:0.00000088):0.00001633):0.00000242,5_0_8:0.00000982):0.00014201,((5_0_1:0.00002313,(5_0_5:0.00000270,5_0_9:0.00001129):0.00000448):0.00004134,5_0_0:0.00002500):0.00011119):0.00159760):0.01382580,(((4_0_1:0.00003872,(4_0_8:0.00003924,((4_0_0:0.00000260,4_0_7:0.00000246):0.00000205,4_0_4:0.00000318):0.00002457):0.00002507):0.00001500,4_0_3:0.00005519):0.00023500,((4_0_9:0.00003307,(4_0_10:0.00000257,4_0_5:0.00000152):0.00002234):0.00000184,(4_0_6:0.00000116,4_0_2:0.00000024):0.00003115):0.00005545):0.01928729):0.04049559):0.00190921):0.03345027,0_0_0:0.05934817);
[TREE] T05 ((((((((2_0_0:0.00000801,2_0_5:0.00000518):0.00000979,((2_0_8:0.00000258,2_0_2:0.00000237):0.00001692,2_0_4:0.00002043):0.00001319):0.00034674,(2_0_1:0.00019338,((2_0_3:0.00005872,((2_0_6:0.00000348,2_0_7:0.00000199):0.00001625,2_0_10:0.00001077):0.00000240):0.00002344,2_0_9:0.00011075):0.00007751):0.00015017):0.00048398,(5_0_1:0.00007244,((5_0_4:0.00003030,((5_0_0:0.00000100,5_0_6:0.00000056):0.00000197,5_0_5:0.00000539):0.00001420):0.00022147,((5_0_2:0.00000269,5_0_3:0.00000397):0.00000993,((5_0_10:0.00000064,5_0_8:0.00000069):0.00000907,(5_0_9:0.00001501,5_0_7:0.00000980):0.00000315):0.00001184):0.00006380):0.00002986):0.00088383):0.00530770,(((4_0_8:0.00003464,((4_0_6:0.00000857,(4_0_9:0.00000075,4_0_2:0.00000068):0.00000736):0.00000720,4_0_10:0.00001804):0.00001199):0.00009764,((4_0_7:0.00004633,4_0_5:0.00008078):0.00001376,4_0_3:0.00004794):0.00007700):0.00003264,((4_0_0:0.00001686,4_0_1:0.00002042):0.00002954,4_0_4:0.00006100):0.00004738):0.00865605):0.06864706,(((((7_0_10:0.00000894,7_0_3:0.00001505):0.00003332,(7_0_4:0.00000996,7_0_9:0.00001420):0.00002319):0.00000066,(((7_0_0:0.00000153,7_0_2:0.00000038):0.00001592,((7_0_8:0.00000004,7_0_1:0.00000004):0.00000395,7_0_5:0.00000818):0.00000097):0.00002055,(7_0_7:0.00004410,7_0_6:0.00001483):0.00003151):0.00001198):0.01675786,((((3_0_5:0.00000927,3_0_2:0.00000970):0.00001673,((3_0_1:0.00001866,3_0_6:0.00001282):0.00000067,(3_0_3:0.00000079,3_0_4:0.00000272):0.00001757):0.00001035):0.00006831,3_0_9:0.00012444):0.00016178,((3_0_8:0.00000360,3_0_10:0.00000096):0.00014665,(3_0_0:0.00000450,3_0_7:0.00000631):0.00010121):0.00007304):0.01569218):0.00465946,((6_0_1:0.00001249,(6_0_7:0.00002322,6_0_4:0.00002816):0.00000728):0.00054633,((6_0_9:0.00003000,((6_0_5:0.00000483,6_0_2:0.00000763):0.00000523,(6_0_6:0.00000025,(6_0_8:0.00000099,(6_0_0:0.00000011,6_0_10:0.00000022):0.00000034):0.00000362):0.00002859):0.00000619):0.00013509,6_0_3:0.00011379):0.00030045):0.00720686):0.01492893):0.00128583,((1_0_1:0.00002155,1_0_4:0.00002779):0.00031080,((((1_0_7:0.00000217,1_0_2:0.00000282):0.00003446,1_0_9:0.00003473):0.00001551,((1_0_10:0.00000237,1_0_0:0.00000276):0.00000406,1_0_6:0.00000281):0.00004063):0.00003906,(1_0_8:0.00011496,(1_0_5:0.00000013,1_0_3:0.00000025):0.00024695):0.00003555):0.00005094):0.04008201):0.02426430,0_0_0:0.03420087);
[TREE] T06 (((((((((3_0_0:0.00002947,(3_0_1:0.00000575,3_0_6:0.00000787):0.00003689):0.00003442,3_0_7:0.00019914):0.00001761,((3_0_2:0.00007038,(3_0_9:0.00003249,3_0_4:0.00002578):0.00001424):0.00000673,(3_0_10:0.00007322,(3_0_8:0.00002489,3_0_3:0.00000381):0.00002996):0.00000149):0.00007557):0.00020578,3_0_5:0.00024890):0.00465322,(((7_0_3:0.00008335,(7_0_4:0.00000635,7_0_5:0.00002023):0.00000636):0.00006097,(7_0_10:0.00000729,7_0_1:0.00000662):0.00007046):0.00006429,(7_0_0:0.00002168,((7_0_6:0.00000483,(7_0_2:0.00000120,7_0_7:0.00000041):0.00000129):0.00000190,(7_0_9:0.00000355,7_0_8:0.00000535):0.00001102):0.00000131):0.00028115):0.00375220):0.00255841,(((((6_0_8:0.00000535,(6_0_7:0.00000310,6_0_10:0.00000254):0.00000252):0.00004200,6_0_6:0.00001783):0.00002446,((6_0_9:0.00000086,6_0_2:0.00000006):0.00000767,(6_0_0:0.00000129,6_0_3:0.00000108):0.00001274):0.00001966):0.00009917,6_0_4:0.00011226):0.00000048,(6_0_1:0.00003115,6_0_5:0.00000702):0.00002376):0.00975838):0.07906292,(((((((2_0_3:0.00000464,2_0_10:0.00000357):0.00001175,2_0_9:0.00001133):0.00001692,(2_0_4:0.00001495,(2_0_7:0.00000087,2_0_8:0.00000077):0.00002381):0.00000586):0.00006788,(2_0_0:0.00010311,(2_0_6:0.00002298,(2_0_5:0.00000430,2_0_1:0.00000389):0.00000757):0.00010525):0.00013258):0.00021653,2_0_2:0.00021897):0.00052131,((5_0_2:0.00000441,5_0_3:0.00000532):0.00055896,(((5_0_1:0.00002670,5_0_10:0.00000675):0.00001958,5_0_6:0.00004071):0.00005261,(((5_0_5:0.00002819,5_0_4:0.00001156):0.00003418,(5_0_0:0.00001810,5_0_9:0.00003238):0.00004575):0.00000672,(5_0_7:0.00003536,5_0_8:0.00001007):0.00008334):0.00002663):0.00035513):0.00026895):0.01034743,((4_0_9:0.00012724,(4_0_7:0.00000737,(4_0_4:0.00000198,4_0_3:0.00000264):0.00000717):0.00017971):0.00011155,(((4_0_6:0.00006877,(4_0_8:0.00000042,4_0_5:0.00000048):0.00005161):0.00000928,(4_0_1:0.00001054,(4_0_0:0.00001123,4_0_10:0.00000469):0.00000066):0.00006082):0.00000070,4_0_2:0.00013627):0.00005090):0.01895830):0.01026380):0.00759098,((((1_0_6:0.00001162,1_0_3:0.00001404):0.00003535,((1_0_2:0.00000340,1_0_7:0.00000423):0.00002141,1_0_4:0.00001115):0.00004695):0.00002999,(((1_0_1:0.00002927,1_0_10:0.00001558):0.00006933,1_0_8:0.00008626):0.00001181,1_0_5:0.00023878):0.00010545):0.00008199,(1_0_9:0.00000065,1_0_0:0.00000057):0.00037182):0.09344114):0.06571797,0_0_0:0.07920396);
[TREE] T07 (0_0_0:0.19879081,(((((((7_0_3:0.00001714,(7_0_2:0.00001017,(7_0_0:0.00000126,7_0_1:0.00000327):0.00000187):0.00000750):0.00035155,((7_0_5:0.00000747,7_0_7:0.00001249):0.00002156,7_0_8:0.00000712):0.00043091):0.00004848,((7_0_9:0.00000557,7_0_4:0.00001041):0.00002145,(7_0_6:0.00001462,7_0_10:0.00001129):0.00004299):0.00039154):0.01096760,(((3_0_8:0.00004221,(3_0_3:0.00000488,3_0_5:0.00000670):0.00003850):0.00002533,((3_0_9:0.00006754,3_0_4:0.00003887):0.00001465,(3_0_1:0.00005811,3_0_0:0.00009940):0.00003648):0.00003365):0.00012229,((3_0_2:0.00002951,3_0_7:0.00003526):0.00001080,(3_0_10:0.00001091,3_0_6:0.00000282):0.00001782):0.00033163):0.00583634):0.00253340,((6_0_3:0.00010352,(6_0_8:0.00001101,6_0_5:0.00002041):0.00007436):0.00002158,(((6_0_0:0.00004657,6_0_1:0.00000267):0.00000920,(6_0_2:0.00000563,6_0_7:0.00002945):0.00000433):0.00000510,(6_0_9:0.00002137,(6_0_10:0.00000198,(6_0_6:0.00000165,6_0_4:0.00000098):0.00000181):0.00004352):0.00000473):0.00011914):0.00652918):0.01453456,(((((4_0_8:0.00000633,4_0_7:0.00001916):0.00000584,4_0_0:0.00007216):0.00001838,(4_0_10:0.00003006,4_0_6:0.00006528):0.00001740):0.00033739,((4_0_9:0.00000740,(4_0_5:0.00000823,4_0_3:0.00000655):0.00000223):0.00024093,(4_0_4:0.00009202,(4_0_2:0.00001610,4_0_1:0.00001947):0.00003965):0.00019698):0.00015917):0.01251870,(((((2_0_0:0.00001450,(2_0_4:0.00001059,2_0_2:0.00000607):0.00000787):0.00000877,(2_0_1:0.00001349,(2_0_10:0.00000346,(2_0_6:0.00000084,2_0_9:0.00000158):0.00000156):0.00001194):0.00000291):0.00001909,(2_0_5:0.00004483,(2_0_8:0.00004182,2_0_3:0.00002405):0.00000339):0.00003654):0.00019537,2_0_7:0.00012391):0.00049691,((((5_0_9:0.00000599,5_0_0:0.00000376):0.00001038,5_0_3:0.00001018):0.00011062,((5_0_10:0.00003051,5_0_6:0.00003071):0.00003434,(5_0_1:0.00002008,5_0_5:0.00002268):0.00007587):0.00003387):0.00017498,(5_0_2:0.00000635,((5_0_8:0.00000835,5_0_7:0.00000808):0.00000096,5_0_4:0.00000480):0.00000100):0.00067642):0.00017491):0.01313290):0.06370617):0.00117308,((1_0_10:0.00005256,(1_0_7:0.00001056,1_0_2:0.00001217):0.00000691):0.00059626,((1_0_8:0.00001578,(1_0_9:0.00001555,1_0_5:0.00000542):0.00002851):0.00008914,((1_0_0:0.00002903,1_0_4:0.00003049):0.00001086,(1_0_6:0.00000680,(1_0_1:0.00000012,1_0_3:0.00000009):0.00001746):0.00000379):0.00015823):0.00037174):0.01853729):0.05770407);
[TREE] T08 ((((1_0_8:0.00002069,(1_0_4:0.00001632,1_0_5:0.00002260):0.00000538):0.00027740,(((1_0_3:0.00001462,1_0_6:0.00001665):0.00003280,(1_0_10:0.00002462,((1_0_7:0.00001373,1_0_1:0.00000865):0.00002311,1_0_9:0.00002903):0.00002065):0.00000527):0.00003120,(1_0_0:0.00003014,1_0_2:0.00006466):0.00001108):0.00006906):0.05329028,((((((5_0_7:0.00009761,5_0_2:0.00009813):0.00000019,(((5_0_9:0.00001421,5_0_8:0.00000397):0.00003998,((5_0_4:0.00000717,5_0_5:0.00000468):0.00000714,5_0_6:0.00001631):0.00002415):0.00006526,(5_0_1:0.00010121,5_0_10:0.00007168):0.00001092):0.00001122):0.00002609,(5_0_3:0.00000518,5_0_0:0.00003100):0.00007301):0.00041699,((2_0_8:0.00002194,(2_0_10:0.00004791,2_0_3:0.00003485):0.00000125):0.00005193,(((2_0_5:0.00001603,((2_0_6:0.00000661,2_0_4:0.00000362):0.00000417,((2_0_2:0.00000072,2_0_1:0.00000033):0.00000751,2_0_9:0.00000166):0.00000215):0.00001303):0.00000753,2_0_7:0.00001203):0.00000179,2_0_0:0.00004093):0.00003233):0.00098341):0.00585160,((((4_0_2:0.00002201,(4_0_10:0.00001365,4_0_7:0.00000698):0.00000295):0.00001312,((4_0_6:0.00000754,4_0_8:0.00000390):0.00006577,((4_0_0:0.00000290,4_0_1:0.00000195):0.00001631,4_0_5:0.00002652):0.00010764):0.00000648):0.00000127,(4_0_3:0.00008683,4_0_4:0.00002417):0.00000920):0.00007334,4_0_9:0.00010065):0.01348584):0.02861733,((((6_0_0:0.00000080,6_0_4:0.00000089):0.00023626,((6_0_9:0.00011827,6_0_5:0.00007043):0.00001545,(6_0_3:0.00005085,6_0_2:0.00011830):0.00001745):0.00003749):0.00033962,(6_0_7:0.00001004,((6_0_8:0.00000382,(6_0_10:0.00000078,6_0_1:0.00000031):0.00000369):0.00000009,6_0_6:0.00000250):0.00000192):0.00015897):0.01267868,((((7_0_1:0.00002041,(7_0_3:0.00002090,(((7_0_0:0.00000454,7_0_8:0.00000109):0.00000133,7_0_6:0.00002575):0.00000048,(7_0_5:0.00000384,7_0_2:0.00000385):0.00000345):0.00000752):0.00000032):0.00000837,7_0_9:0.00005357):0.00023762,(7_0_7:0.00004576,(7_0_4:0.00001288,7_0_10:0.00000775):0.00002647):0.00013053):0.01162564,((3_0_2:0.00012189,((((3_0_7:0.00000276,3_0_8:0.00000677):0.00001030,3_0_9:0.00003627):0.00000788,3_0_4:0.00002676):0.00005973,(3_0_0:0.00000037,3_0_6:0.00000021):0.00002844):0.00000494):0.00006437,((3_0_3:0.00002369,3_0_10:0.00003777):0.00004612,(3_0_5:0.00000371,3_0_1:0.00000282):0.00001965):0.00006692):0.00938519):0.00160266):0.01963269):0.00542599):0.03941748,0_0_0:0.11483571);
[TREE] T09 (((1_0_2:0.00009390,(1_0_0:0.00019813,(((1_0_3:0.00000204,(1_0_6:0.00000350,1_0_5:0.00000260):0.00000183):0.00001571,1_0_1:0.00002457):0.00004071,(((1_0_4:0.00004187,(1_0_10:0.00000576,1_0_9:0.00001250):0.00001463):0.00004084,1_0_8:0.00003875):0.00001480,1_0_7:0.00003029):0.00007042):0.00003966):0.00011774):0.03446509,(((((4_0_2:0.00012988,4_0_9:0.00012610):0.00007294,((4_0_4:0.00002094,4_0_6:0.00002736):0.00001519,(4_0_5:0.00000929,(4_0_8:0.00007579,(4_0_3:0.00000293,4_0_1:0.00000214):0.00002989):0.00000074):0.00004611):0.00002761):0.00010865,((4_0_0:0.00000361,4_0_7:0.00000099):0.00000521,4_0_10:0.00000767):0.00032483):0.00963695,((2_0_3:0.00049463,((2_0_0:0.00014362,(((2_0_5:0.00000667,2_0_7:0.00001561):0.00006946,((2_0_6:0.00001168,2_0_1:0.00000633):0.00000214,(2_0_4:0.00000648,2_0_10:0.00001297):0.00000124):0.00004564):0.00000256,(2_0_2:0.00000768,2_0_8:0.00001385):0.00002669):0.00000948):0.00001804,2_0_9:0.00006744):0.00031428):0.00082657,(((((((5_0_4:0.00000020,5_0_6:0.00000226):0.00000842,5_0_10:0.00000774):0.00000094,5_0_1:0.00001707):0.00001401,(5_0_0:0.00003674,5_0_9:0.00002440):0.00000782):0.00000964,5_0_2:0.00014821):0.00000914,((5_0_8:0.00000319,5_0_7:0.00000676):0.00014395,5_0_3:0.00002933):0.00001129):0.00017616,5_0_5:0.00033802):0.00110914):0.01305323):0.02056485,((((7_0_10:0.00002510,(7_0_8:0.00001792,7_0_6:0.00003357):0.00000575):0.00025882,((7_0_0:0.00001652,((((7_0_9:0.00000149,7_0_1:0.00000503):0.00000271,7_0_4:0.00000674):0.00000852,(7_0_2:0.00000871,7_0_3:0.00000231):0.00001360):0.00001473,7_0_7:0.00004030):0.00001445):0.00000300,7_0_5:0.00003552):0.00042548):0.00730690,(3_0_9:0.00012669,(((3_0_1:0.00002227,3_0_4:0.00002197):0.00007476,(3_0_5:0.00007706,3_0_10:0.00004778):0.00006140):0.00003715,(((3_0_2:0.00000320,3_0_6:0.00000906):0.00000419,(3_0_7:0.00000591,(3_0_0:0.00000792,3_0_3:0.00000977):0.00000039):0.00000209):0.00006938,3_0_8:0.00011082):0.00002328):0.00018267):0.00819978):0.00290663,((((6_0_1:0.00001464,6_0_9:0.00000495):0.00001857,6_0_4:0.00001297):0.00000772,(6_0_3:0.00007339,((6_0_7:0.00000085,6_0_10:0.00000156):0.00000388,(6_0_2:0.00000730,6_0_8:0.00000171):0.00000158):0.00002119):0.00002636):0.00005868,(6_0_0:0.00007681,(6_0_6:0.00000484,6_0_5:0.00002759):0.00004027):0.00001594):0.02394651):0.01802223):0.00212550):0.05066091,0_0_0:0.07795807);
[TREE] T10 (0_0_0:0.07859669,((((((((3_0_4:0.00000845,(3_0_2:0.00000001,3_0_0:0.00000005):0.00000251):0.00007898,3_0_7:0.00005197):0.00011219,(((3_0_3:0.00003678,3_0_5:0.00003927):0.00001063,3_0_10:0.00001523):0.00005042,3_0_9:0.00015335):0.00005815):0.00008199,(3_0_6:0.00006841,(3_0_8:0.00001708,3_0_1:0.00000709):0.00004238):0.00029808):0.00817433,(((((7_0_7:0.00001642,7_0_3:0.00001806):0.00000173,7_0_6:0.00002844):0.00000855,7_0_8:0.00005018):0.00007105,(7_0_1:0.00003146,(7_0_9:0.00001379,7_0_0:0.00000953):0.00000119):0.00021261):0.00005814,((7_0_4:0.00001021,7_0_2:0.00000961):0.00002900,(7_0_10:0.00000626,7_0_5:0.00002010):0.00001680):0.00009290):0.00447403):0.00305786,((6_0_5:0.00001222,(6_0_10:0.00003291,(6_0_8:0.00000208,(6_0_4:0.00000133,6_0_7:0.00000050):0.00000413):0.00001748):0.00002544):0.00023960,(((6_0_9:0.00006594,6_0_2:0.00005611):0.00001911,(6_0_0:0.00012722,(6_0_6:0.00000144,6_0_1:0.00000182):0.00004557):0.00000918):0.00006696,6_0_3:0.00008774):0.00008473):0.00336622):0.03897223,(((((((5_0_3:0.00000189,(5_0_9:0.00000001,5_0_10:0.00000002):0.00000047):0.00000460,5_0_8:0.00001756):0.00003076,(5_0_5:0.00000599,5_0_0:0.00000442):0.00003432):0.00005053,((5_0_4:0.00002928,5_0_1:0.00001794):0.00001077,(5_0_6:0.00000057,5_0_7:0.00000320):0.00000954):0.00009757):0.00019284,5_0_2:0.00036507):0.00036654,(((2_0_9:0.00001038,(2_0_8:0.00001813,2_0_7:0.00001296):0.00000679):0.00003113,2_0_4:0.00003465):0.00026374,(((2_0_1:0.00002974,((2_0_10:0.00000273,2_0_3:0.00000839):0.00000726,2_0_2:0.00000549):0.00001223):0.00002783,(2_0_6:0.00004048,2_0_0:0.00001373):0.00001470):0.00009075,2_0_5:0.00041308):0.00040323):0.00071579):0.00868958,(4_0_8:0.00011425,((((4_0_3:0.00000682,4_0_0:0.00000484):0.00001210,((4_0_1:0.00000262,4_0_6:0.00000462):0.00000049,(4_0_9:0.00000007,4_0_10:0.00000078):0.00001659):0.00000600):0.00003550,(4_0_5:0.00000866,4_0_4:0.00001954):0.00002868):0.00001163,(4_0_7:0.00000449,4_0_2:0.00001868):0.00003305):0.00001362):0.01253418):0.02821537):0.00563948,((1_0_6:0.00000494,1_0_7:0.00000306):0.00020911,(1_0_9:0.00020427,((((1_0_1:0.00000268,1_0_8:0.00000180):0.00001297,1_0_3:0.00000589):0.00000301,(1_0_4:0.00000134,1_0_2:0.00000142):0.00000665):0.00014003,(1_0_5:0.00002646,(1_0_10:0.00001239,1_0_0:0.00000653):0.00000488):0.00029341):0.00006265):0.00003511):0.05425328):0.02173969);

[PARTITIONS] csSimUnlinked_01 [T01 csSim_unlinked_1 500]
[PARTITIONS] csSimUnlinked_02 [T02 csSim_unlinked_2 500]
[PARTITIONS] csSimUnlinked_03 [T03 csSim_unlinked_3 500]
[PARTITIONS] csSimUnlinked_04 [T04 csSim_unlinked_4 500]
[PARTITIONS] csSimUnlinked_05 [T05 csSim_unlinked_5 500]
[PARTITIONS] csSimUnlinked_06 [T06 csSim_unlinked_6 500]
[PARTITIONS] csSimUnlinked_07 [T07 csSim_unlinked_7 500]
[PARTITIONS] csSimUnlinked_08 [T08 csSim_unlinked_8 500]
[PARTITIONS] csSimUnlinked_09 [T09 csSim_unlinked_9 500]
[PARTITIONS] csSimUnlinked_10 [T10 csSim_unlinked_10 500]

[EVOLVE] csSimUnlinked_01 1 data_01
csSimUnlinked_02 1 data_02
csSimUnlinked_03 1 data_03
csSimUnlinked_04 1 data_04
csSimUnlinked_05 1 data_05
csSimUnlinked_06 1 data_06
csSimUnlinked_07 1 data_07
csSimUnlinked_08 1 data_08
csSimUnlinked_09 1 data_09
csSimUnlinked_10 1 data_10
