[TYPE] NUCLEOTIDE 1 

[SETTINGS]
    [fastaextension] fasta  

[MODEL] csSim_unlinked_1
    [submodel] GTR 0.082519 0.006637 0.021567 0.039984 0.042745 
    [statefreq] 0.136699 0.437133 0.103754 0.322414 
[rates] 0 74.928824 0 

[MODEL] csSim_unlinked_2
    [submodel] GTR 0.073433 0.035340 0.024394 0.012929 0.058951 
    [statefreq] 0.418694 0.086852 0.366235 0.128219 
[rates] 0 9.989752 0 

[MODEL] csSim_unlinked_3
    [submodel] GTR 0.089162 0.008067 0.037805 0.013566 0.058819 
    [statefreq] 0.265070 0.149705 0.162536 0.422688 
[rates] 0 21.394754 0 

[MODEL] csSim_unlinked_4
    [submodel] GTR 0.107276 0.001274 0.039798 0.029580 0.030611 
    [statefreq] 0.262201 0.142756 0.222456 0.372587 
[rates] 0 3.360625 0 

[MODEL] csSim_unlinked_5
    [submodel] GTR 0.114852 0.019750 0.024525 0.021693 0.012766 
    [statefreq] 0.396347 0.125055 0.257441 0.221157 
[rates] 0 4.911882 0 

[MODEL] csSim_unlinked_6
    [submodel] GTR 0.093107 0.006610 0.017326 0.047693 0.020992 
    [statefreq] 0.046477 0.108006 0.580481 0.265035 
[rates] 0 8.178188 0 

[MODEL] csSim_unlinked_7
    [submodel] GTR 0.115087 0.004260 0.013543 0.033737 0.058121 
    [statefreq] 0.332675 0.506977 0.073848 0.086500 
[rates] 0 2.948629 0 

[MODEL] csSim_unlinked_8
    [submodel] GTR 0.097521 0.000784 0.020453 0.035849 0.046082 
    [statefreq] 0.829803 0.110373 0.026936 0.032888 
[rates] 0 11.693858 0 

[MODEL] csSim_unlinked_9
    [submodel] GTR 0.111124 0.013582 0.013196 0.037785 0.045817 
    [statefreq] 0.118134 0.397322 0.139947 0.344596 
[rates] 0 13.421196 0 

[MODEL] csSim_unlinked_10
    [submodel] GTR 0.136252 0.008632 0.026569 0.022601 0.049378 
    [statefreq] 0.087851 0.321788 0.372927 0.217434 
[rates] 0 1.460698 0 


[TREE] T01 (0_0_0:0.04462337,((((8_0_5:0.00055376,(((8_0_4:0.00000881,8_0_2:0.00000459):0.00000090,((8_0_6:0.00000144,8_0_3:0.00000176):0.00000848,8_0_0:0.00001403):0.00000083):0.00001704,8_0_1:0.00002225):0.00029783):0.00744361,((((4_0_1:0.00000263,4_0_6:0.00000281):0.00007122,((4_0_4:0.00002484,4_0_5:0.00002460):0.00001059,4_0_3:0.00004923):0.00008440):0.00009345,(4_0_0:0.00001836,4_0_2:0.00003405):0.00013029):0.00351702,(((((13_0_4:0.00004327,13_0_2:0.00003498):0.00003841,13_0_1:0.00011605):0.00056248,((13_0_6:0.00002796,13_0_3:0.00004793):0.00006892,(13_0_0:0.00001685,13_0_5:0.00000927):0.00007283):0.00048026):0.00133312,(((6_0_1:0.00005253,6_0_4:0.00003067):0.00006485,((6_0_3:0.00002554,6_0_5:0.00004086):0.00003509,(6_0_2:0.00002379,6_0_6:0.00002432):0.00003406):0.00005251):0.00039637,6_0_0:0.00054987):0.00221735):0.00023280,(((11_0_3:0.00001256,11_0_4:0.00000810):0.00005225,11_0_2:0.00005478):0.00017318,(11_0_0:0.00002250,(11_0_1:0.00001528,(11_0_5:0.00000050,11_0_6:0.00000051):0.00000997):0.00000890):0.00017673):0.00359680):0.00296288):0.00271067):0.00494321,(((9_0_3:0.00022764,((9_0_2:0.00002920,((9_0_5:0.00001717,9_0_0:0.00002129):0.00001853,(9_0_6:0.00001037,9_0_1:0.00001514):0.00002289):0.00000241):0.00014221,9_0_4:0.00017393):0.00008835):0.00369295,((5_0_4:0.00009860,(5_0_5:0.00000906,(5_0_3:0.00000005,5_0_2:0.00000003):0.00000707):0.00009778):0.00019195,(5_0_6:0.00014749,(5_0_0:0.00009353,5_0_1:0.00009002):0.00001551):0.00011325):0.00315442):0.00829738,(((((14_0_0:0.00000110,14_0_6:0.00000078):0.00021156,(((14_0_5:0.00000488,14_0_2:0.00000666):0.00000789,14_0_3:0.00002245):0.00017270,(14_0_4:0.00001143,14_0_1:0.00001325):0.00018143):0.00005269):0.00128053,(((17_0_6:0.00001233,(17_0_0:0.00002168,(17_0_1:0.00000012,17_0_3:0.00000012):0.00001581):0.00000156):0.00006321,((17_0_4:0.00002051,17_0_5:0.00001331):0.00001343,17_0_2:0.00002845):0.00009740):0.00081667,(((10_0_5:0.00001429,10_0_6:0.00001303):0.00007505,(10_0_0:0.00004898,((10_0_4:0.00000558,10_0_1:0.00000746):0.00003841,10_0_2:0.00005141):0.00004626):0.00000957):0.00003941,10_0_3:0.00012140):0.00060851):0.00124915):0.00000469,((12_0_5:0.00005891,((12_0_4:0.00004481,((12_0_6:0.00000137,12_0_2:0.00000094):0.00001240,12_0_0:0.00001011):0.00004469):0.00001337,(12_0_1:0.00003758,12_0_3:0.00001344):0.00000972):0.00003676):0.00089194,(15_0_3:0.00028777,(15_0_6:0.00007467,((15_0_2:0.00001254,15_0_1:0.00001099):0.00001985,(15_0_5:0.00001810,(15_0_0:0.00000253,15_0_4:0.00000268):0.00002012):0.00000657):0.00002502):0.00022577):0.00052871):0.00129732):0.00548575,((16_0_1:0.00007360,(((16_0_3:0.00001511,16_0_6:0.00003865):0.00000459,(16_0_0:0.00000538,(16_0_5:0.00000093,16_0_4:0.00000095):0.00000342):0.00002308):0.00000401,16_0_2:0.00004506):0.00002020):0.00080631,(7_0_3:0.00045437,((7_0_6:0.00001783,(7_0_1:0.00000401,7_0_5:0.00000769):0.00000623):0.00001432,((7_0_4:0.00000509,7_0_0:0.00000603):0.00000373,7_0_2:0.00001263):0.00001078):0.00056964):0.00026143):0.00509472):0.00692717):0.00504698):0.00507123,(((2_0_1:0.00010360,(((2_0_2:0.00004120,2_0_3:0.00001847):0.00000611,2_0_4:0.00002850):0.00007166,((2_0_0:0.00000107,2_0_5:0.00000213):0.00000132,2_0_6:0.00000267):0.00006763):0.00004660):0.00118031,(((1_0_1:0.00004535,(1_0_0:0.00001600,1_0_4:0.00001567):0.00003579):0.00003179,(1_0_5:0.00001404,1_0_3:0.00001049):0.00008787):0.00003781,(1_0_2:0.00009049,1_0_6:0.00009299):0.00004658):0.00147476):0.00125244,(((3_0_6:0.00000506,3_0_1:0.00000301):0.00004245,(3_0_3:0.00004534,(3_0_2:0.00000389,3_0_4:0.00000215):0.00006695):0.00001462):0.00008987,(3_0_0:0.00000861,3_0_5:0.00000996):0.00016930):0.00214239):0.01106233):0.01129008);
[TREE] T02 (((((((1_0_6:0.00001977,1_0_4:0.00002391):0.00009401,(1_0_5:0.00009730,1_0_3:0.00009168):0.00004119):0.00010682,(1_0_1:0.00000230,(1_0_2:0.00000266,1_0_0:0.00000249):0.00000149):0.00028045):0.00064157,(((((2_0_4:0.00003489,(2_0_5:0.00002299,2_0_1:0.00003130):0.00000248):0.00000683,2_0_2:0.00003208):0.00000410,2_0_0:0.00003727):0.00011372,2_0_3:0.00013080):0.00029105,2_0_6:0.00045604):0.00105168):0.00106570,(3_0_2:0.00124489,((3_0_4:0.00002630,3_0_6:0.00002675):0.00010646,((3_0_3:0.00002866,3_0_5:0.00002549):0.00002736,(3_0_0:0.00000290,3_0_1:0.00000362):0.00004206):0.00005500):0.00121765):0.00173613):0.01601934,((((((4_0_6:0.00000006,4_0_2:0.00000004):0.00002793,((4_0_4:0.00000800,(4_0_0:0.00000356,4_0_3:0.00000420):0.00000325):0.00001170,4_0_1:0.00002095):0.00000760):0.00000574,4_0_5:0.00004579):0.00430899,(((13_0_1:0.00007730,(((((13_0_4:0.00001095,13_0_0:0.00000679):0.00004326,13_0_6:0.00006667):0.00001402,13_0_5:0.00007205):0.00001571,13_0_3:0.00010533):0.00000495,13_0_2:0.00006044):0.00000026):0.00194724,(((6_0_3:0.00000244,6_0_5:0.00000098):0.00007231,(6_0_0:0.00000166,6_0_1:0.00000360):0.00004618):0.00044206,(6_0_6:0.00006554,(6_0_2:0.00000873,6_0_4:0.00001424):0.00006973):0.00026427):0.00208496):0.00108200,(11_0_0:0.00022283,((11_0_5:0.00003868,11_0_2:0.00004990):0.00005124,(11_0_6:0.00000693,(11_0_4:0.00000347,(11_0_3:0.00000453,11_0_1:0.00000608):0.00000054):0.00000369):0.00006454):0.00021705):0.00366170):0.00443400):0.00177608,(((8_0_0:0.00001944,8_0_6:0.00004122):0.00002727,(8_0_1:0.00000134,8_0_3:0.00000106):0.00004279):0.00018427,(8_0_2:0.00006460,(8_0_5:0.00000724,8_0_4:0.00000469):0.00006676):0.00026817):0.00624038):0.00938997,((((((16_0_4:0.00005003,16_0_2:0.00003485):0.00003734,16_0_5:0.00005187):0.00014873,((16_0_0:0.00003625,16_0_6:0.00005872):0.00003223,(16_0_3:0.00003219,16_0_1:0.00004219):0.00003145):0.00007608):0.00067131,(((7_0_6:0.00002786,(((7_0_4:0.00000230,7_0_1:0.00000106):0.00000708,7_0_2:0.00000469):0.00002005,7_0_0:0.00004147):0.00000197):0.00002469,7_0_3:0.00004032):0.00002720,7_0_5:0.00010626):0.00053061):0.00589756,(((((((12_0_1:0.00006662,(12_0_4:0.00000182,12_0_0:0.00000139):0.00004513):0.00006815,(12_0_6:0.00000771,12_0_3:0.00000984):0.00019736):0.00000124,12_0_2:0.00017072):0.00027177,12_0_5:0.00032692):0.00026266,((((15_0_0:0.00004678,15_0_1:0.00004004):0.00000800,15_0_5:0.00003260):0.00002026,15_0_3:0.00010472):0.00005118,((15_0_4:0.00000724,15_0_2:0.00000715):0.00006171,15_0_6:0.00004637):0.00012155):0.00081751):0.00125312,(((10_0_4:0.00006644,(10_0_6:0.00005980,(10_0_2:0.00000346,10_0_5:0.00000581):0.00002317):0.00005275):0.00004162,(10_0_3:0.00001968,(10_0_1:0.00000211,10_0_0:0.00000204):0.00002407):0.00008247):0.00038400,((((17_0_4:0.00000948,17_0_3:0.00000591):0.00001796,17_0_2:0.00002590):0.00005503,(17_0_6:0.00002738,(17_0_1:0.00000617,17_0_5:0.00000679):0.00001590):0.00004887):0.00016873,17_0_0:0.00018911):0.00033096):0.00064527):0.00001876,(((14_0_6:0.00001046,14_0_1:0.00000971):0.00001647,(14_0_0:0.00000547,14_0_2:0.00000691):0.00002215):0.00008109,(14_0_3:0.00011332,(14_0_5:0.00000690,14_0_4:0.00001044):0.00011848):0.00003914):0.00173371):0.00420017):0.00698990,((((9_0_2:0.00001748,9_0_5:0.00001640):0.00000095,9_0_3:0.00001336):0.00050746,(9_0_6:0.00001669,(9_0_4:0.00000852,(9_0_1:0.00000119,9_0_0:0.00000097):0.00001058):0.00000134):0.00039276):0.00508001,((5_0_5:0.00008815,((5_0_1:0.00001570,5_0_4:0.00002034):0.00004220,5_0_0:0.00004858):0.00003812):0.00027707,((5_0_3:0.00001942,5_0_6:0.00000957):0.00000121,5_0_2:0.00000837):0.00034839):0.00183868):0.00598036):0.00617992):0.00707695):0.02022890,0_0_0:0.03503570);
[TREE] T03 (0_0_0:0.06430042,((((((((5_0_0:0.00000293,5_0_3:0.00000348):0.00001042,(5_0_2:0.00001317,5_0_4:0.00002198):0.00000055):0.00002731,5_0_5:0.00006407):0.00040475,(5_0_6:0.00006921,5_0_1:0.00005441):0.00023792):0.00363615,(((9_0_2:0.00000272,9_0_3:0.00000134):0.00000801,9_0_4:0.00001193):0.00048864,(((9_0_0:0.00000090,9_0_1:0.00000087):0.00001506,9_0_5:0.00003001):0.00004340,9_0_6:0.00011033):0.00025320):0.00213478):0.00974634,((((((10_0_4:0.00001941,10_0_6:0.00001306):0.00034452,((((10_0_5:0.00000279,10_0_0:0.00000305):0.00003714,10_0_1:0.00005268):0.00009116,10_0_2:0.00012274):0.00027665,10_0_3:0.00021434):0.00003142):0.00011044,((17_0_4:0.00005595,17_0_1:0.00006861):0.00003145,(((17_0_3:0.00000263,17_0_2:0.00000279):0.00002218,17_0_6:0.00002021):0.00002190,(17_0_5:0.00004315,17_0_0:0.00003040):0.00001758):0.00006743):0.00041550):0.00098195,((14_0_4:0.00000217,14_0_0:0.00000196):0.00042111,(14_0_6:0.00004693,(14_0_1:0.00001405,(14_0_3:0.00000719,(14_0_2:0.00000216,14_0_5:0.00000542):0.00000388):0.00000645):0.00003071):0.00032401):0.00144467):0.00027896,((15_0_4:0.00008985,(((15_0_1:0.00000140,(15_0_6:0.00000088,15_0_3:0.00000095):0.00000082):0.00000249,15_0_2:0.00000352):0.00005104,(15_0_5:0.00003113,15_0_0:0.00001648):0.00004116):0.00001377):0.00056719,((12_0_2:0.00002075,12_0_6:0.00002529):0.00035535,((12_0_0:0.00012087,(12_0_5:0.00004550,12_0_3:0.00002934):0.00006698):0.00003182,(12_0_4:0.00001203,12_0_1:0.00000973):0.00012336):0.00021976):0.00041066):0.00107847):0.00265414,((((((7_0_4:0.00000169,7_0_6:0.00000185):0.00000147,7_0_0:0.00000283):0.00008972,(7_0_5:0.00000287,7_0_1:0.00000341):0.00016164):0.00005604,7_0_2:0.00016948):0.00001687,7_0_3:0.00019762):0.00043804,((16_0_6:0.00001242,16_0_0:0.00001904):0.00035158,(16_0_2:0.00011039,(16_0_5:0.00003437,((16_0_3:0.00000844,16_0_4:0.00001118):0.00000478,16_0_1:0.00002405):0.00000892):0.00006818):0.00028078):0.00024897):0.00402217):0.00646376):0.00380816,((((8_0_1:0.00003226,((8_0_0:0.00000099,8_0_3:0.00000189):0.00002703,8_0_5:0.00002503):0.00001987):0.00001755,8_0_2:0.00009104):0.00006494,(8_0_6:0.00007727,8_0_4:0.00009298):0.00004686):0.00621746,(((4_0_2:0.00005517,(4_0_3:0.00001374,4_0_1:0.00002264):0.00003252):0.00038215,(4_0_5:0.00012781,(4_0_6:0.00008840,(4_0_0:0.00000247,4_0_4:0.00000162):0.00005951):0.00012727):0.00018610):0.00427061,((11_0_2:0.00025502,(11_0_6:0.00006581,((11_0_3:0.00003466,11_0_5:0.00001679):0.00002118,((11_0_4:0.00000742,11_0_0:0.00000500):0.00001371,11_0_1:0.00002464):0.00001471):0.00003253):0.00012932):0.00210108,(((((6_0_1:0.00002437,6_0_0:0.00002826):0.00000518,6_0_4:0.00003165):0.00003580,(6_0_5:0.00001120,6_0_3:0.00001023):0.00003067):0.00003461,(6_0_6:0.00001006,6_0_2:0.00000937):0.00007322):0.00207910,(13_0_3:0.00014726,(13_0_2:0.00015607,(((13_0_1:0.00001677,13_0_5:0.00002805):0.00000430,13_0_4:0.00002263):0.00004191,(13_0_0:0.00001038,13_0_6:0.00000713):0.00003497):0.00006835):0.00005671):0.00172235):0.00014680):0.00224107):0.00108102):0.00692397):0.00426967,(((3_0_6:0.00005625,((3_0_2:0.00005948,(3_0_4:0.00005130,3_0_3:0.00002273):0.00000867):0.00000745,(3_0_1:0.00001245,3_0_5:0.00001435):0.00002723):0.00001863):0.00027537,3_0_0:0.00035489):0.00349981,((((1_0_1:0.00005570,1_0_5:0.00004081):0.00000132,(1_0_4:0.00000975,1_0_3:0.00001061):0.00002203):0.00010575,(1_0_6:0.00006100,(1_0_2:0.00004443,1_0_0:0.00003687):0.00002811):0.00003592):0.00167706,(((2_0_1:0.00003438,2_0_0:0.00003252):0.00004505,2_0_2:0.00006474):0.00006204,(((2_0_3:0.00000531,2_0_4:0.00000354):0.00000907,2_0_5:0.00001554):0.00002019,2_0_6:0.00002913):0.00012722):0.00176248):0.00145778):0.02663630):0.01772294);
[TREE] T04 (0_0_0:0.05046863,(((((2_0_5:0.00002488,2_0_1:0.00001662):0.00011463,((2_0_3:0.00002010,2_0_0:0.00001769):0.00009680,(2_0_2:0.00001888,(2_0_6:0.00000435,2_0_4:0.00000328):0.00001370):0.00008846):0.00005359):0.00120336,((((1_0_4:0.00000865,1_0_6:0.00001123):0.00000382,1_0_2:0.00001356):0.00002176,(1_0_1:0.00001459,1_0_5:0.00000816):0.00002796):0.00023156,(1_0_3:0.00017378,1_0_0:0.00013767):0.00015744):0.00100792):0.00137859,(3_0_2:0.00046906,((3_0_0:0.00004144,((3_0_5:0.00001963,(3_0_6:0.00002021,3_0_1:0.00002427):0.00000369):0.00000979,3_0_3:0.00004231):0.00003468):0.00005480,3_0_4:0.00011911):0.00035252):0.00122466):0.02062171,(((((8_0_0:0.00003833,8_0_1:0.00001790):0.00011342,(8_0_6:0.00004988,(8_0_5:0.00001290,8_0_3:0.00000931):0.00004625):0.00006969):0.00013374,(8_0_2:0.00002063,8_0_4:0.00004687):0.00028685):0.00833855,(((4_0_6:0.00004663,4_0_0:0.00004906):0.00021099,((4_0_5:0.00000259,4_0_1:0.00000381):0.00006814,(4_0_3:0.00003156,(4_0_4:0.00000284,4_0_2:0.00000276):0.00001733):0.00004074):0.00014625):0.00707432,((((13_0_5:0.00002810,((13_0_0:0.00001271,13_0_3:0.00001181):0.00000623,(13_0_2:0.00001285,(13_0_6:0.00001046,13_0_4:0.00000811):0.00000081):0.00000137):0.00003599):0.00006910,13_0_1:0.00007071):0.00205324,(((6_0_1:0.00001994,6_0_3:0.00002002):0.00002529,(6_0_6:0.00002296,(6_0_2:0.00001996,(6_0_5:0.00000378,6_0_4:0.00000275):0.00001006):0.00000202):0.00004186):0.00081206,6_0_0:0.00098305):0.00146707):0.00012882,(((11_0_6:0.00007997,(11_0_0:0.00000741,(11_0_1:0.00000823,11_0_3:0.00000482):0.00000071):0.00007277):0.00004959,11_0_2:0.00020471):0.00004265,(11_0_4:0.00006777,11_0_5:0.00005174):0.00035399):0.00201734):0.00427948):0.00208195):0.00763840,(((((9_0_3:0.00000703,9_0_0:0.00000593):0.00003941,9_0_2:0.00004637):0.00005567,((9_0_6:0.00004182,(9_0_4:0.00000710,9_0_1:0.00000661):0.00003592):0.00000976,9_0_5:0.00005865):0.00006580):0.00461238,(((5_0_1:0.00001847,5_0_6:0.00001573):0.00004328,5_0_3:0.00013572):0.00010490,(5_0_0:0.00000444,(5_0_4:0.00000696,(5_0_5:0.00000378,5_0_2:0.00000414):0.00000033):0.00000241):0.00009376):0.00361546):0.00655717,(((((16_0_1:0.00000413,16_0_0:0.00000355):0.00001590,16_0_3:0.00002337):0.00003850,((16_0_5:0.00000018,16_0_2:0.00000022):0.00005120,(16_0_6:0.00005176,16_0_4:0.00005132):0.00005719):0.00001088):0.00094065,(7_0_4:0.00052372,((((7_0_5:0.00000850,7_0_6:0.00001051):0.00001755,7_0_0:0.00004593):0.00003069,7_0_2:0.00008919):0.00011859,(7_0_1:0.00001071,7_0_3:0.00001092):0.00017828):0.00023154):0.00032440):0.00466206,((((((12_0_5:0.00005330,(12_0_1:0.00009565,(12_0_2:0.00009095,12_0_3:0.00008087):0.00000201):0.00002866):0.00012924,12_0_4:0.00021414):0.00025481,(12_0_6:0.00005194,12_0_0:0.00004420):0.00033011):0.00012018,((15_0_5:0.00001947,15_0_3:0.00002899):0.00029020,(15_0_6:0.00013389,((15_0_0:0.00002476,15_0_2:0.00002858):0.00009284,(15_0_4:0.00002061,15_0_1:0.00001927):0.00007559):0.00003688):0.00013426):0.00059412):0.00085427,(((14_0_0:0.00001091,14_0_4:0.00000749):0.00003804,(14_0_1:0.00001358,(14_0_2:0.00000660,14_0_3:0.00001052):0.00000724):0.00003194):0.00030314,(14_0_6:0.00002661,14_0_5:0.00004173):0.00023007):0.00211749):0.00000132,(((17_0_5:0.00002568,17_0_6:0.00003047):0.00011125,((17_0_0:0.00000837,17_0_4:0.00000788):0.00008102,(17_0_2:0.00003121,(17_0_1:0.00000106,17_0_3:0.00000123):0.00003210):0.00005601):0.00000424):0.00025171,((((10_0_1:0.00000029,10_0_2:0.00000034):0.00000822,10_0_3:0.00001014):0.00008202,((10_0_0:0.00000074,10_0_5:0.00000067):0.00004987,10_0_6:0.00004114):0.00008648):0.00013741,10_0_4:0.00019971):0.00040977):0.00133757):0.00438760):0.00573210):0.00535253):0.00584608):0.01997136);
[TREE] T05 ((((((((9_0_1:0.00009852,((9_0_0:0.00001995,9_0_5:0.00001678):0.00000726,9_0_2:0.00002781):0.00005701):0.00004385,9_0_4:0.00021081):0.00010917,(9_0_6:0.00007563,9_0_3:0.00015918):0.00014135):0.00338863,(((5_0_4:0.00004613,5_0_1:0.00006469):0.00010833,(5_0_6:0.00004979,5_0_0:0.00003675):0.00009694):0.00036509,((5_0_5:0.00001310,5_0_3:0.00001489):0.00028870,5_0_2:0.00022884):0.00043111):0.00222636):0.01228482,((((7_0_5:0.00000126,7_0_2:0.00000118):0.00033798,(((7_0_3:0.00001425,(7_0_4:0.00000784,7_0_1:0.00000625):0.00000653):0.00001127,7_0_0:0.00001622):0.00013530,7_0_6:0.00018506):0.00009333):0.00073018,(((16_0_0:0.00002335,16_0_3:0.00002750):0.00004748,(16_0_1:0.00002608,(16_0_5:0.00000744,16_0_6:0.00000727):0.00001827):0.00005607):0.00007952,(16_0_2:0.00001041,16_0_4:0.00001083):0.00011733):0.00120824):0.00601941,((((17_0_2:0.00008727,(((17_0_0:0.00000558,17_0_6:0.00000627):0.00003541,17_0_4:0.00001755):0.00001730,17_0_3:0.00002821):0.00003360):0.00023171,(17_0_5:0.00024488,17_0_1:0.00023134):0.00006356):0.00026273,(10_0_1:0.00014310,((10_0_4:0.00003416,10_0_6:0.00004094):0.00004697,(10_0_0:0.00006758,((10_0_5:0.00000634,10_0_2:0.00000563):0.00001948,10_0_3:0.00003494):0.00007718):0.00000896):0.00009111):0.00044667):0.00111642,(((((12_0_4:0.00005016,(12_0_0:0.00003751,(12_0_6:0.00000725,(12_0_2:0.00000175,12_0_1:0.00000138):0.00001236):0.00002915):0.00003691):0.00007078,12_0_5:0.00016965):0.00000494,12_0_3:0.00013195):0.00052904,((15_0_0:0.00003091,((15_0_1:0.00000575,15_0_4:0.00000720):0.00000613,15_0_3:0.00001586):0.00002198):0.00008874,((15_0_2:0.00000095,15_0_6:0.00000112):0.00002680,15_0_5:0.00003443):0.00004331):0.00078407):0.00095680,((((14_0_0:0.00002672,14_0_4:0.00002382):0.00000361,(14_0_5:0.00000605,14_0_1:0.00000501):0.00001805):0.00003086,14_0_3:0.00008457):0.00005573,(14_0_6:0.00011261,14_0_2:0.00006005):0.00008722):0.00135769):0.00001725):0.00628049):0.00570087):0.00337242,(((((((6_0_4:0.00005668,6_0_5:0.00005600):0.00000964,(6_0_3:0.00001768,6_0_1:0.00003256):0.00006684):0.00008900,(6_0_2:0.00001102,(6_0_0:0.00001107,6_0_6:0.00001109):0.00000751):0.00006013):0.00100427,(13_0_2:0.00004668,((13_0_6:0.00001836,13_0_4:0.00001692):0.00004637,(13_0_0:0.00003269,(13_0_3:0.00001510,(13_0_1:0.00002288,13_0_5:0.00002330):0.00000221):0.00002067):0.00000602):0.00000625):0.00129325):0.00129225,((((11_0_0:0.00005913,11_0_5:0.00010419):0.00000089,11_0_1:0.00004580):0.00000131,11_0_6:0.00008434):0.00023136,((11_0_2:0.00000337,11_0_4:0.00000368):0.00006518,11_0_3:0.00006218):0.00022743):0.00199539):0.00345021,(((4_0_4:0.00007676,((4_0_0:0.00001664,4_0_2:0.00000989):0.00002181,(4_0_5:0.00002423,4_0_3:0.00001120):0.00002486):0.00006088):0.00011682,4_0_6:0.00018396):0.00002972,4_0_1:0.00014800):0.00474916):0.00144881,((8_0_4:0.00003182,8_0_3:0.00001605):0.00016212,(8_0_2:0.00006314,(8_0_0:0.00000535,((8_0_5:0.00000330,8_0_1:0.00000361):0.00000186,8_0_6:0.00000642):0.00000122):0.00005721):0.00018241):0.01114290):0.00567331):0.00377654,((((1_0_4:0.00003286,1_0_2:0.00003562):0.00009199,(1_0_0:0.00003776,((1_0_6:0.00001235,(1_0_1:0.00000591,1_0_3:0.00000358):0.00000509):0.00000810,1_0_5:0.00001301):0.00002805):0.00010874):0.00136323,(((2_0_4:0.00007196,2_0_5:0.00006792):0.00009924,(2_0_1:0.00000258,2_0_0:0.00000271):0.00014389):0.00022034,((2_0_6:0.00000746,2_0_2:0.00001164):0.00006736,2_0_3:0.00004647):0.00053898):0.00171385):0.00084084,(((3_0_4:0.00001836,3_0_6:0.00001621):0.00003899,3_0_5:0.00006494):0.00048877,(((3_0_2:0.00001339,3_0_0:0.00001172):0.00003941,3_0_1:0.00005659):0.00002512,3_0_3:0.00008518):0.00047109):0.00200064):0.01513051):0.01751903,0_0_0:0.03551200);
[TREE] T06 (0_0_0:0.04777736,(((3_0_4:0.00015982,((3_0_2:0.00000844,3_0_3:0.00001279):0.00007469,((3_0_5:0.00000221,(3_0_1:0.00000259,3_0_6:0.00000189):0.00000041):0.00001136,3_0_0:0.00001142):0.00007508):0.00006089):0.00259717,(((2_0_0:0.00009971,2_0_6:0.00005183):0.00016871,((2_0_1:0.00002066,(2_0_4:0.00002631,2_0_5:0.00001566):0.00000313):0.00003941,(2_0_3:0.00005146,2_0_2:0.00003169):0.00000847):0.00013914):0.00157676,((1_0_2:0.00012901,1_0_1:0.00013029):0.00016643,(1_0_3:0.00001568,(((1_0_6:0.00000429,1_0_0:0.00000442):0.00000594,1_0_4:0.00001132):0.00000446,1_0_5:0.00001882):0.00000190):0.00025494):0.00208632):0.00146899):0.01576027,((((((5_0_3:0.00005000,(5_0_2:0.00004187,(5_0_6:0.00001184,5_0_4:0.00001692):0.00003192):0.00000147):0.00001021,(5_0_1:0.00002750,5_0_5:0.00003107):0.00002826):0.00017130,5_0_0:0.00032614):0.00331169,(((9_0_0:0.00001603,(9_0_4:0.00000502,(9_0_5:0.00000265,9_0_3:0.00000235):0.00000251):0.00000717):0.00009551,9_0_2:0.00013628):0.00007463,(9_0_1:0.00001307,9_0_6:0.00003040):0.00014030):0.00300533):0.00905130,(((((16_0_3:0.00003431,16_0_5:0.00007004):0.00003138,16_0_1:0.00012662):0.00039062,((16_0_4:0.00001602,16_0_2:0.00001533):0.00009238,(16_0_6:0.00001265,16_0_0:0.00001352):0.00013870):0.00027425):0.00089637,(((7_0_6:0.00001107,7_0_1:0.00001510):0.00001023,7_0_4:0.00004507):0.00039454,(7_0_3:0.00006754,(7_0_5:0.00003552,(7_0_0:0.00002879,7_0_2:0.00003801):0.00000940):0.00001342):0.00059786):0.00067197):0.00576658,((((((14_0_5:0.00000235,14_0_0:0.00000133):0.00001310,14_0_2:0.00001369):0.00009643,14_0_1:0.00011947):0.00048881,(14_0_6:0.00010195,(14_0_3:0.00000815,14_0_4:0.00001577):0.00007655):0.00043989):0.00118946,(((17_0_1:0.00000315,17_0_4:0.00000389):0.00019667,(((17_0_6:0.00002006,17_0_2:0.00002075):0.00000229,17_0_0:0.00002008):0.00010141,(17_0_5:0.00001232,17_0_3:0.00000986):0.00008277):0.00004813):0.00042329,((((10_0_6:0.00003774,10_0_2:0.00003044):0.00001712,(10_0_4:0.00002917,10_0_5:0.00003801):0.00002421):0.00010440,(10_0_3:0.00000681,10_0_1:0.00000669):0.00018967):0.00001289,10_0_0:0.00036946):0.00025769):0.00130973):0.00003773,((((12_0_6:0.00000474,12_0_0:0.00000326):0.00005340,(12_0_3:0.00006912,(12_0_5:0.00000884,12_0_1:0.00000851):0.00005023):0.00000334):0.00000121,(12_0_4:0.00002487,12_0_2:0.00002854):0.00003027):0.00075028,(15_0_0:0.00010715,((((15_0_1:0.00001824,15_0_2:0.00002438):0.00000530,15_0_6:0.00003959):0.00003052,(15_0_3:0.00001287,15_0_5:0.00002223):0.00005289):0.00006087,15_0_4:0.00016717):0.00011274):0.00039529):0.00088393):0.00526028):0.00694665):0.00454137,((((((4_0_5:0.00001324,4_0_6:0.00001196):0.00000302,(4_0_4:0.00002304,(4_0_0:0.00000187,4_0_2:0.00000321):0.00000930):0.00000354):0.00002402,4_0_1:0.00004277):0.00017567,4_0_3:0.00028474):0.00702915,((((11_0_6:0.00000927,11_0_4:0.00001218):0.00014620,11_0_5:0.00021425):0.00021849,((11_0_2:0.00005438,11_0_1:0.00007314):0.00017326,(11_0_0:0.00001808,11_0_3:0.00002912):0.00020206):0.00016191):0.00236477,(((((13_0_1:0.00000944,(13_0_2:0.00000209,13_0_4:0.00000257):0.00000504):0.00000168,13_0_0:0.00000480):0.00004128,(13_0_6:0.00004639,13_0_5:0.00007104):0.00001674):0.00000435,13_0_3:0.00007304):0.00322510,(6_0_1:0.00024907,((6_0_5:0.00001697,6_0_6:0.00001241):0.00034555,((6_0_0:0.00003793,(6_0_4:0.00001542,6_0_2:0.00001367):0.00002213):0.00003220,6_0_3:0.00003749):0.00010296):0.00006855):0.00197452):0.00057659):0.00345776):0.00198158,((8_0_5:0.00005522,(8_0_3:0.00002797,8_0_6:0.00002869):0.00000395):0.00034168,((8_0_2:0.00001457,8_0_1:0.00000918):0.00001488,(8_0_4:0.00000303,8_0_0:0.00000336):0.00003042):0.00038656):0.01089076):0.00858648):0.00498854):0.01703546);
[TREE] T07 (((((3_0_1:0.00005729,(((3_0_4:0.00001592,(3_0_5:0.00000013,3_0_2:0.00000017):0.00001038):0.00000209,3_0_0:0.00002138):0.00000744,3_0_3:0.00001912):0.00003319):0.00002828,3_0_6:0.00006946):0.00328040,(((2_0_1:0.00000224,2_0_3:0.00000415):0.00011746,(((2_0_5:0.00001506,2_0_2:0.00002050):0.00003089,(2_0_4:0.00001660,2_0_6:0.00002012):0.00001809):0.00002888,2_0_0:0.00008207):0.00006702):0.00193381,((((1_0_6:0.00002486,(1_0_5:0.00000483,1_0_4:0.00000308):0.00001436):0.00000288,(1_0_3:0.00000623,1_0_1:0.00000763):0.00001729):0.00001597,1_0_2:0.00003066):0.00076123,1_0_0:0.00040740):0.00141762):0.00124940):0.02089349,(((((((((14_0_0:0.00000879,14_0_6:0.00000594):0.00004743,14_0_2:0.00004729):0.00002172,(14_0_4:0.00000433,14_0_1:0.00000327):0.00006172):0.00009255,(14_0_5:0.00013997,14_0_3:0.00006025):0.00004497):0.00113618,((10_0_1:0.00028417,(((10_0_3:0.00002141,(10_0_0:0.00001435,(10_0_6:0.00000520,10_0_4:0.00000429):0.00000327):0.00002337):0.00001557,10_0_5:0.00005750):0.00000895,10_0_2:0.00008942):0.00008925):0.00020705,((17_0_3:0.00001245,17_0_5:0.00001429):0.00010355,(17_0_6:0.00008082,((17_0_4:0.00001989,(17_0_1:0.00000479,17_0_0:0.00000404):0.00000869):0.00007023,17_0_2:0.00004754):0.00002008):0.00005847):0.00033235):0.00092045):0.00008830,(((12_0_1:0.00008344,12_0_6:0.00014843):0.00079335,(((12_0_3:0.00000883,12_0_2:0.00000749):0.00001916,12_0_5:0.00002003):0.00006561,(12_0_4:0.00007465,12_0_0:0.00007525):0.00001412):0.00064575):0.00039577,((15_0_0:0.00003298,(15_0_3:0.00000793,15_0_4:0.00000853):0.00001270):0.00015073,((15_0_6:0.00007278,(15_0_5:0.00001861,15_0_2:0.00002851):0.00004116):0.00000865,15_0_1:0.00011699):0.00004597):0.00089993):0.00091744):0.00311205,((16_0_1:0.00076120,((7_0_3:0.00001479,7_0_5:0.00000828):0.00025724,((7_0_4:0.00005252,(7_0_6:0.00001690,7_0_1:0.00001332):0.00002359):0.00001687,(7_0_0:0.00000094,7_0_2:0.00000176):0.00007452):0.00012433):0.00042934):0.00002358,(((16_0_5:0.00000742,16_0_0:0.00001107):0.00004697,16_0_6:0.00006812):0.00001227,(16_0_2:0.00002175,(16_0_3:0.00001324,16_0_4:0.00001075):0.00001273):0.00005160):0.00088293):0.00300050):0.00687437,(((((5_0_1:0.00003619,5_0_3:0.00005027):0.00010827,(5_0_6:0.00000141,5_0_2:0.00000208):0.00015480):0.00008460,5_0_0:0.00020514):0.00060442,(5_0_4:0.00009193,5_0_5:0.00012443):0.00120721):0.00323359,((((9_0_2:0.00001782,9_0_4:0.00001941):0.00000205,9_0_3:0.00001918):0.00008682,(9_0_6:0.00002395,9_0_1:0.00001450):0.00010038):0.00044712,(9_0_5:0.00000076,9_0_0:0.00000083):0.00073513):0.00459416):0.00650723):0.00602367,((((8_0_4:0.00001933,8_0_0:0.00002039):0.00004468,((8_0_3:0.00001768,8_0_2:0.00001371):0.00001884,8_0_6:0.00004595):0.00002843):0.00034422,(8_0_1:0.00002357,8_0_5:0.00003352):0.00053567):0.00949621,((((4_0_3:0.00009180,(4_0_5:0.00008461,4_0_6:0.00006593):0.00000880):0.00004779,(4_0_1:0.00007557,(4_0_0:0.00003316,4_0_2:0.00003941):0.00002862):0.00013627):0.00009113,4_0_4:0.00031319):0.00660670,(((((11_0_4:0.00001881,11_0_6:0.00003870):0.00000645,(11_0_1:0.00000576,11_0_5:0.00000957):0.00001978):0.00003512,11_0_2:0.00004789):0.00012015,(11_0_0:0.00000437,11_0_3:0.00000458):0.00019892):0.00192412,((((6_0_0:0.00004724,6_0_6:0.00008407):0.00002574,((6_0_4:0.00000917,6_0_3:0.00001422):0.00002894,6_0_5:0.00002444):0.00006073):0.00013082,(6_0_1:0.00005143,6_0_2:0.00007809):0.00008692):0.00103252,((13_0_0:0.00002392,13_0_4:0.00001464):0.00041828,((13_0_6:0.00001174,13_0_5:0.00001182):0.00003309,(13_0_3:0.00001283,(13_0_2:0.00000487,13_0_1:0.00000970):0.00000691):0.00007903):0.00011799):0.00154934):0.00023301):0.00251169):0.00229426):0.00631814):0.00480662):0.00937971,0_0_0:0.06293856);
[TREE] T08 (((((((2_0_5:0.00007591,2_0_3:0.00007658):0.00006306,(2_0_4:0.00006324,(2_0_2:0.00000262,2_0_0:0.00000254):0.00005116):0.00006623):0.00002806,(2_0_1:0.00000966,2_0_6:0.00000963):0.00017997):0.00100779,(((1_0_6:0.00002373,1_0_4:0.00001521):0.00003402,((1_0_0:0.00001054,1_0_5:0.00001025):0.00003104,1_0_2:0.00002360):0.00003222):0.00017414,(1_0_1:0.00023874,1_0_3:0.00012029):0.00007375):0.00153835):0.00071423,((((3_0_3:0.00000356,3_0_4:0.00000344):0.00000941,3_0_2:0.00000809):0.00000946,(3_0_0:0.00001884,(3_0_6:0.00000390,3_0_5:0.00000387):0.00001482):0.00000548):0.00014014,3_0_1:0.00021941):0.00197491):0.01466559,((((8_0_5:0.00001874,8_0_0:0.00001893):0.00017683,(((8_0_3:0.00003780,(8_0_1:0.00000808,8_0_2:0.00001054):0.00000858):0.00003670,8_0_4:0.00004616):0.00005825,8_0_6:0.00015346):0.00004091):0.01108374,((((13_0_6:0.00015040,(((13_0_1:0.00001350,(13_0_2:0.00000402,13_0_5:0.00000660):0.00001080):0.00007171,(13_0_3:0.00002725,13_0_0:0.00002426):0.00009411):0.00000506,13_0_4:0.00008228):0.00008799):0.00225020,(6_0_5:0.00017377,(6_0_4:0.00006582,(6_0_0:0.00002184,((6_0_2:0.00000502,6_0_3:0.00000554):0.00000482,(6_0_6:0.00000160,6_0_1:0.00000136):0.00000778):0.00000451):0.00004552):0.00024675):0.00210467):0.00013713,((11_0_4:0.00009264,((11_0_5:0.00000578,11_0_6:0.00000627):0.00007667,11_0_3:0.00009312):0.00001598):0.00034552,(11_0_1:0.00002272,(11_0_2:0.00000585,11_0_0:0.00000574):0.00003194):0.00018662):0.00290417):0.00267068,((4_0_1:0.00007791,(4_0_4:0.00012172,4_0_2:0.00006628):0.00000031):0.00004004,(4_0_3:0.00003106,(4_0_0:0.00002697,(4_0_5:0.00001953,4_0_6:0.00002075):0.00000324):0.00002297):0.00005439):0.01225278):0.00274719):0.00974893,(((((((15_0_0:0.00003536,((15_0_6:0.00000756,15_0_2:0.00000359):0.00003467,((15_0_4:0.00000728,15_0_5:0.00000476):0.00001409,15_0_3:0.00003127):0.00000056):0.00000931):0.00003307,15_0_1:0.00007398):0.00043053,(((12_0_0:0.00003544,12_0_5:0.00001762):0.00004233,(12_0_6:0.00000307,12_0_4:0.00000240):0.00007180):0.00014644,(12_0_3:0.00009086,(12_0_1:0.00001644,12_0_2:0.00001741):0.00006304):0.00011688):0.00055156):0.00055859,((((17_0_1:0.00000169,17_0_5:0.00000441):0.00004071,17_0_4:0.00004245):0.00006354,((17_0_2:0.00000068,17_0_6:0.00000097):0.00002057,(17_0_0:0.00002394,17_0_3:0.00001793):0.00001575):0.00007551):0.00076533,(10_0_1:0.00040139,((((10_0_3:0.00002220,10_0_2:0.00001820):0.00000469,10_0_5:0.00003619):0.00003421,(10_0_6:0.00000003,10_0_0:0.00000002):0.00006187):0.00013535,10_0_4:0.00010378):0.00019548):0.00029186):0.00112637):0.00001423,((14_0_4:0.00011468,14_0_1:0.00008310):0.00007859,((14_0_2:0.00006567,(14_0_6:0.00002534,(14_0_0:0.00000100,14_0_3:0.00000159):0.00003685):0.00000738):0.00003938,14_0_5:0.00005104):0.00012970):0.00135497):0.00247339,(((16_0_1:0.00000776,16_0_5:0.00001024):0.00007967,(((16_0_0:0.00000252,16_0_6:0.00000224):0.00008848,(16_0_3:0.00001350,16_0_2:0.00002734):0.00007126):0.00001004,16_0_4:0.00006935):0.00005920):0.00060233,((7_0_5:0.00007018,(7_0_3:0.00006032,(7_0_6:0.00001565,(7_0_0:0.00000662,7_0_4:0.00000575):0.00000660):0.00002700):0.00000584):0.00009474,(7_0_1:0.00001851,7_0_2:0.00001446):0.00010952):0.00067390):0.00465699):0.00413213,(((5_0_3:0.00003145,((5_0_0:0.00002597,5_0_4:0.00001999):0.00000518,5_0_5:0.00002059):0.00002239):0.00006258,((5_0_6:0.00004270,5_0_1:0.00008677):0.00002930,5_0_2:0.00008439):0.00000291):0.00448951,((((9_0_0:0.00001266,(9_0_5:0.00000961,(9_0_3:0.00000376,9_0_4:0.00000527):0.00000884):0.00000451):0.00003467,9_0_2:0.00006230):0.00006356,9_0_6:0.00008206):0.00069593,9_0_1:0.00069878):0.00261040):0.00677742):0.00475339):0.00436433):0.01031480,0_0_0:0.03678504);
[TREE] T09 ((((((2_0_3:0.00013944,2_0_4:0.00014853):0.00033312,((2_0_5:0.00002066,2_0_0:0.00001100):0.00003065,(2_0_2:0.00002163,(2_0_1:0.00000959,2_0_6:0.00001785):0.00000456):0.00002006):0.00037103):0.00154690,(((((1_0_1:0.00000529,(1_0_2:0.00000125,1_0_6:0.00000197):0.00000570):0.00001518,1_0_3:0.00001504):0.00000738,1_0_5:0.00002126):0.00005369,1_0_0:0.00007264):0.00030717,1_0_4:0.00038114):0.00112705):0.00093927,((3_0_3:0.00002636,3_0_1:0.00004861):0.00009584,(3_0_0:0.00003791,((3_0_2:0.00001638,3_0_4:0.00000982):0.00001391,(3_0_6:0.00000886,3_0_5:0.00001017):0.00001410):0.00002693):0.00013300):0.00395612):0.01924081,(((((8_0_3:0.00004449,8_0_2:0.00003858):0.00003234,(8_0_1:0.00000054,8_0_0:0.00000063):0.00006758):0.00021828,((8_0_6:0.00001301,8_0_4:0.00001879):0.00011660,8_0_5:0.00008126):0.00024631):0.00898714,(((4_0_6:0.00004713,(4_0_0:0.00003875,4_0_4:0.00003632):0.00000398):0.00004093,((4_0_3:0.00002051,4_0_2:0.00001272):0.00010340,(4_0_5:0.00001978,4_0_1:0.00001540):0.00009793):0.00000751):0.00765398,(((((6_0_4:0.00008347,(6_0_2:0.00001211,6_0_5:0.00001015):0.00007139):0.00000640,(6_0_3:0.00004614,6_0_6:0.00004222):0.00004370):0.00033825,(6_0_0:0.00010380,6_0_1:0.00003304):0.00026579):0.00178357,((13_0_0:0.00012311,13_0_5:0.00013831):0.00019969,((13_0_3:0.00002060,13_0_2:0.00000772):0.00007236,((13_0_1:0.00000244,13_0_6:0.00000179):0.00001661,13_0_4:0.00000991):0.00006734):0.00021520):0.00204469):0.00022718,(11_0_5:0.00026526,(((11_0_6:0.00000766,11_0_3:0.00001276):0.00007685,11_0_1:0.00003716):0.00017651,(11_0_0:0.00000897,(11_0_2:0.00002001,11_0_4:0.00001341):0.00000107):0.00012574):0.00013917):0.00180354):0.00249070):0.00305423):0.01040590,(((((((12_0_2:0.00006215,(12_0_3:0.00002138,12_0_4:0.00004988):0.00000009):0.00012787,((12_0_5:0.00001877,12_0_0:0.00002130):0.00008805,(12_0_1:0.00007857,12_0_6:0.00004821):0.00002913):0.00005667):0.00060640,(((15_0_0:0.00001707,(15_0_4:0.00001873,15_0_3:0.00000808):0.00000083):0.00005520,15_0_6:0.00007116):0.00002415,(15_0_1:0.00008594,(15_0_5:0.00000715,15_0_2:0.00000624):0.00007026):0.00003452):0.00058354):0.00101744,(((17_0_1:0.00007054,(17_0_6:0.00003239,17_0_3:0.00005038):0.00002150):0.00009053,(17_0_5:0.00000214,(17_0_4:0.00000201,(17_0_2:0.00000097,17_0_0:0.00000262):0.00000104):0.00000028):0.00015529):0.00056794,((((10_0_6:0.00000718,10_0_2:0.00000734):0.00000313,10_0_5:0.00001289):0.00005778,10_0_3:0.00007182):0.00027317,(10_0_0:0.00011174,(10_0_1:0.00003402,10_0_4:0.00002345):0.00007308):0.00020135):0.00033224):0.00089263):0.00014101,(((14_0_3:0.00004919,(14_0_0:0.00002749,14_0_1:0.00002733):0.00003130):0.00020486,14_0_4:0.00020093):0.00003215,((14_0_6:0.00001207,14_0_2:0.00001133):0.00004836,14_0_5:0.00007113):0.00012652):0.00154046):0.00260796,(((((7_0_0:0.00001108,7_0_2:0.00001140):0.00000850,(7_0_4:0.00000144,7_0_6:0.00000137):0.00001516):0.00003282,(7_0_5:0.00000334,7_0_1:0.00000368):0.00006020):0.00005889,7_0_3:0.00014357):0.00043039,((16_0_5:0.00011571,(16_0_1:0.00001732,(16_0_4:0.00000889,16_0_3:0.00001648):0.00000936):0.00009494):0.00000052,((16_0_6:0.00003052,16_0_0:0.00002137):0.00002843,16_0_2:0.00008826):0.00006517):0.00116921):0.00574467):0.00436507,(((((9_0_2:0.00000105,9_0_1:0.00000156):0.00005225,(9_0_4:0.00001914,(9_0_5:0.00001172,9_0_0:0.00000993):0.00001906):0.00001711):0.00001141,9_0_3:0.00008461):0.00000119,9_0_6:0.00005588):0.00285786,((((5_0_2:0.00001451,5_0_3:0.00001184):0.00003895,(5_0_1:0.00002064,5_0_4:0.00001478):0.00006610):0.00002461,5_0_5:0.00007166):0.00017520,(5_0_6:0.00000646,5_0_0:0.00000356):0.00035375):0.00315106):0.00482266):0.00781222):0.00636745):0.01460854,0_0_0:0.03346183);
[TREE] T10 (0_0_0:0.05429182,((((((3_0_4:0.00001614,3_0_5:0.00001804):0.00001707,3_0_2:0.00003171):0.00003373,(3_0_1:0.00008182,(3_0_3:0.00003680,3_0_0:0.00003694):0.00000566):0.00002317):0.00010907,3_0_6:0.00015426):0.00236410,(((2_0_5:0.00021050,((2_0_4:0.00002189,2_0_1:0.00001795):0.00000031,((2_0_3:0.00000298,2_0_0:0.00000400):0.00001136,2_0_6:0.00001075):0.00000352):0.00006911):0.00003357,2_0_2:0.00015095):0.00157448,(((1_0_5:0.00007696,((1_0_6:0.00000637,1_0_3:0.00000460):0.00001896,1_0_0:0.00002368):0.00003127):0.00012782,1_0_4:0.00013182):0.00042159,(1_0_2:0.00001529,1_0_1:0.00000867):0.00063035):0.00127519):0.00110406):0.00861938,(((((7_0_6:0.00032733,((7_0_1:0.00000263,7_0_3:0.00000526):0.00003824,((7_0_4:0.00000013,7_0_5:0.00000014):0.00002484,(7_0_0:0.00002255,7_0_2:0.00002768):0.00000207):0.00000278):0.00036390):0.00040141,(((16_0_1:0.00001647,16_0_6:0.00001745):0.00020651,(16_0_2:0.00006323,16_0_3:0.00009971):0.00020998):0.00002718,(16_0_4:0.00010183,(16_0_5:0.00002677,16_0_0:0.00003839):0.00005624):0.00025084):0.00055708):0.00458255,(((((12_0_5:0.00000461,12_0_3:0.00000442):0.00001981,(12_0_2:0.00002318,((12_0_0:0.00001343,12_0_4:0.00000999):0.00000124,12_0_6:0.00001122):0.00000570):0.00000180):0.00023039,12_0_1:0.00021001):0.00042431,((15_0_0:0.00010439,(15_0_3:0.00002683,15_0_4:0.00002308):0.00007235):0.00002109,(15_0_1:0.00005420,(15_0_2:0.00001206,(15_0_5:0.00000740,15_0_6:0.00000669):0.00000842):0.00004547):0.00004237):0.00076423):0.00087203,((((10_0_4:0.00005019,10_0_5:0.00005912):0.00013405,(((10_0_3:0.00002596,10_0_1:0.00004114):0.00000854,10_0_2:0.00005197):0.00008242,10_0_0:0.00013225):0.00001257):0.00050515,(10_0_6:0.00052513,(((17_0_4:0.00002779,17_0_5:0.00003353):0.00003937,(17_0_3:0.00003937,(17_0_0:0.00000880,17_0_6:0.00000981):0.00002789):0.00003612):0.00015186,(17_0_2:0.00001713,17_0_1:0.00001079):0.00011816):0.00029254):0.00016603):0.00088609,(14_0_6:0.00040568,((((14_0_2:0.00000320,14_0_0:0.00000325):0.00000072,14_0_5:0.00000317):0.00000241,14_0_4:0.00000673):0.00005345,(14_0_1:0.00003623,14_0_3:0.00004245):0.00000094):0.00032342):0.00194466):0.00004139):0.00419288):0.00372760,(((5_0_3:0.00003425,(5_0_5:0.00000011,5_0_0:0.00000011):0.00004116):0.00024059,((5_0_4:0.00000273,(5_0_2:0.00000001,5_0_6:0.00000001):0.00000458):0.00025456,5_0_1:0.00023416):0.00004785):0.00310717,((9_0_4:0.00003120,9_0_6:0.00003422):0.00006803,(9_0_5:0.00002401,(9_0_1:0.00001617,(9_0_3:0.00001511,(9_0_2:0.00001595,9_0_0:0.00001102):0.00000417):0.00001462):0.00000341):0.00007158):0.00503888):0.01035459):0.00580190,(((8_0_4:0.00012758,8_0_1:0.00018430):0.00021270,(8_0_2:0.00022198,((8_0_6:0.00000153,8_0_5:0.00000240):0.00002816,(8_0_0:0.00002049,8_0_3:0.00001097):0.00000905):0.00027185):0.00004423):0.00866837,((((4_0_5:0.00001067,4_0_1:0.00000877):0.00003832,4_0_6:0.00005401):0.00001154,(4_0_0:0.00004778,((4_0_2:0.00000432,4_0_4:0.00000377):0.00001917,4_0_3:0.00003296):0.00001893):0.00001607):0.00913702,((11_0_5:0.00040202,(((11_0_3:0.00001543,11_0_2:0.00003055):0.00001731,11_0_6:0.00005225):0.00012426,((11_0_4:0.00001248,11_0_1:0.00001473):0.00003170,11_0_0:0.00005448):0.00005852):0.00022914):0.00220579,(((13_0_2:0.00011519,(13_0_5:0.00000744,13_0_1:0.00001133):0.00008008):0.00020755,((13_0_3:0.00004855,(13_0_0:0.00001700,13_0_6:0.00001993):0.00002328):0.00005756,13_0_4:0.00009281):0.00023739):0.00098203,((6_0_3:0.00001483,(6_0_6:0.00003600,6_0_0:0.00004741):0.00000407):0.00017659,(6_0_1:0.00010662,(6_0_2:0.00005622,(6_0_4:0.00004034,6_0_5:0.00007626):0.00001354):0.00005465):0.00007995):0.00126439):0.00093649):0.00356456):0.00194215):0.01077460):0.00442350):0.01676698);

[PARTITIONS] csSimUnlinked_01 [T01 csSim_unlinked_1 500]
[PARTITIONS] csSimUnlinked_02 [T02 csSim_unlinked_2 500]
[PARTITIONS] csSimUnlinked_03 [T03 csSim_unlinked_3 500]
[PARTITIONS] csSimUnlinked_04 [T04 csSim_unlinked_4 500]
[PARTITIONS] csSimUnlinked_05 [T05 csSim_unlinked_5 500]
[PARTITIONS] csSimUnlinked_06 [T06 csSim_unlinked_6 500]
[PARTITIONS] csSimUnlinked_07 [T07 csSim_unlinked_7 500]
[PARTITIONS] csSimUnlinked_08 [T08 csSim_unlinked_8 500]
[PARTITIONS] csSimUnlinked_09 [T09 csSim_unlinked_9 500]
[PARTITIONS] csSimUnlinked_10 [T10 csSim_unlinked_10 500]

[EVOLVE] csSimUnlinked_01 1 data_01
csSimUnlinked_02 1 data_02
csSimUnlinked_03 1 data_03
csSimUnlinked_04 1 data_04
csSimUnlinked_05 1 data_05
csSimUnlinked_06 1 data_06
csSimUnlinked_07 1 data_07
csSimUnlinked_08 1 data_08
csSimUnlinked_09 1 data_09
csSimUnlinked_10 1 data_10
