Tree file : INDELible V1.03 (best viewed cut and paste in e.g. excel)

N.B. Simulation blocks with no random trees will have their trees printed for the first replicate only.

FILE	TREE	NTAXA	REP	PART	LENGTH	DEPTH	MAX PAIRWISE DISTANCE	TREE STRING

data_01	T01	171	1	1	0.772864	0.58953	0.656908	(0_0_0:0.58952968,(((((((9_0_2:0.00000046,9_0_4:0.00000031):0.00000294,9_0_5:0.00000548):0.00001214,((9_0_7:0.00000025,9_0_6:0.00000002):0.00002894,(((9_0_1:0.00000004,9_0_8:0.00000001):0.00000211,9_0_0:0.00001221):0.00004279,(9_0_3:0.00000425,9_0_9:0.00000824):0.00001520):0.00000257):0.00005884):0.00228145,(((((8_0_9:0.00000011,8_0_4:0.00000004):0.00001516,(8_0_3:0.00000082,8_0_2:0.00000215):0.00001422):0.00000077,8_0_0:0.00000145):0.00000558,((8_0_7:0.00000084,8_0_8:0.00000002):0.00000245,(8_0_6:0.00001071,8_0_5:0.00000159):0.00000667):0.00014599):0.00001928,8_0_1:0.00029032):0.00002748):0.01353758,((((((5_0_2:0.00000003,5_0_1:0.00000006):0.00000018,5_0_3:0.00000194):0.00000543,(5_0_6:0.00000012,5_0_9:0.00001286):0.00000214):0.00000001,5_0_0:0.00001220):0.00008024,(((5_0_4:0.00000046,5_0_5:0.00000104):0.00000009,5_0_8:0.00000094):0.00000117,5_0_7:0.00000833):0.00000206):0.00713461,(((1_0_2:0.00001131,((1_0_1:0.00000004,1_0_4:0.00000014):0.00000098,1_0_5:0.00000003):0.00000040):0.00002052,(((1_0_6:0.00000078,1_0_9:0.00000044):0.00000163,1_0_7:0.00004242):0.00000351,((1_0_0:0.00000003,1_0_8:0.00000097):0.00000002,1_0_3:0.00000047):0.00002034):0.00001673):0.00027511,(((3_0_7:0.00001307,3_0_4:0.00002487):0.00000682,3_0_6:0.00001223):0.00004649,((3_0_5:0.00000758,(3_0_9:0.00000410,3_0_3:0.00000073):0.00002235):0.00003746,(3_0_1:0.00000483,(3_0_2:0.00000013,(3_0_0:0.00000005,3_0_8:0.00000056):0.00000928):0.00000201):0.00012152):0.00030914):0.00007275):0.00137077):0.00124850):0.00000481,(((((6_0_7:0.00000108,(6_0_1:0.00000829,6_0_2:0.00000358):0.00000276):0.00006014,((((6_0_0:0.00000169,(6_0_8:0.00001397,(6_0_4:0.00001077,6_0_9:0.00000011):0.00000023):0.00000121):0.00000778,6_0_5:0.00001511):0.00004893,6_0_3:0.00004411):0.00000072,6_0_6:0.00000197):0.00001289):0.00787681,((((7_0_6:0.00001040,(7_0_7:0.00000437,7_0_2:0.00000058):0.00000000):0.00001412,7_0_0:0.00004499):0.00000418,((7_0_3:0.00000171,(7_0_9:0.00002123,7_0_8:0.00000045):0.00000016):0.00005640,(7_0_4:0.00000001,7_0_5:0.00000009):0.00001225):0.00000109):0.00000505,7_0_1:0.00005093):0.00334903):0.00023353,((2_0_4:0.00000726,(2_0_5:0.00001369,2_0_2:0.00000353):0.00000535):0.00043259,((((2_0_8:0.00000536,2_0_3:0.00000502):0.00000125,(2_0_1:0.00000013,(2_0_7:0.00000147,2_0_0:0.00000282):0.00000000):0.00000311):0.00000315,2_0_6:0.00000533):0.00000056,2_0_9:0.00001537):0.00006920):0.00001970):0.01201086,((4_0_6:0.00011289,(4_0_7:0.00000491,4_0_2:0.00000270):0.00001351):0.00001883,((((4_0_1:0.00000104,4_0_3:0.00000024):0.00000082,4_0_5:0.00000018):0.00000048,((4_0_4:0.00000112,4_0_8:0.00000122):0.00001769,4_0_0:0.00002894):0.00000143):0.00000865,4_0_9:0.00000062):0.00001716):0.00909665):0.00346071):0.01293374,((((11_0_7:0.00000431,11_0_0:0.00000011):0.00000190,11_0_6:0.00000894):0.00001968,((((11_0_4:0.00000370,11_0_5:0.00000017):0.00000003,11_0_1:0.00001435):0.00000151,11_0_8:0.00003773):0.00000190,(11_0_2:0.00000164,(11_0_9:0.00000490,11_0_3:0.00001163):0.00000006):0.00004640):0.00003352):0.01100551,(((((12_0_8:0.00003037,(12_0_9:0.00004654,((12_0_2:0.00000094,12_0_4:0.00000048):0.00000927,((12_0_5:0.00000512,12_0_7:0.00000006):0.00001696,12_0_0:0.00001606):0.00000088):0.00000493):0.00000765):0.00000217,((12_0_3:0.00000643,12_0_6:0.00000501):0.00000775,12_0_1:0.00000467):0.00004728):0.00148850,((((14_0_9:0.00002969,14_0_6:0.00000082):0.00000018,((14_0_8:0.00000935,14_0_4:0.00000340):0.00000112,14_0_0:0.00000453):0.00002136):0.00000510,14_0_7:0.00003208):0.00003971,((14_0_1:0.00000264,(14_0_5:0.00000675,14_0_2:0.00000472):0.00000026):0.00000136,14_0_3:0.00000770):0.00004606):0.00262591):0.00067454,((((16_0_8:0.00000090,16_0_6:0.00000543):0.00000062,16_0_3:0.00004563):0.00000082,((16_0_7:0.00003305,((16_0_1:0.00000007,16_0_4:0.00000004):0.00000445,(16_0_5:0.00000643,(16_0_0:0.00000034,16_0_2:0.00001072):0.00000417):0.00000193):0.00000075):0.00000685,16_0_9:0.00006036):0.00000082):0.00162747,((((15_0_3:0.00000003,15_0_8:0.00000200):0.00000122,15_0_9:0.00000111):0.00006012,(15_0_1:0.00000084,15_0_0:0.00000349):0.00007266):0.00000988,((15_0_4:0.00000102,15_0_5:0.00000157):0.00006142,((15_0_6:0.00000176,15_0_2:0.00000022):0.00000082,15_0_7:0.00000180):0.00001136):0.00000179):0.00765564):0.00121678):0.00583249,((13_0_7:0.00002219,((13_0_0:0.00000452,13_0_4:0.00012256):0.00000569,(((13_0_6:0.00000009,13_0_5:0.00000018):0.00002664,(13_0_3:0.00000154,(13_0_9:0.00000688,13_0_8:0.00000305):0.00000065):0.00000029):0.00000671,(13_0_2:0.00000023,13_0_1:0.00000203):0.00002859):0.00000302):0.00000683):0.01281334,(((17_0_7:0.00000710,((((17_0_6:0.00000012,17_0_5:0.00000035):0.00000152,17_0_1:0.00000000):0.00000557,17_0_4:0.00000814):0.00000611,(17_0_9:0.00000200,(17_0_2:0.00000190,17_0_8:0.00000001):0.00000832):0.00000160):0.00000112):0.00014691,(17_0_0:0.00000402,17_0_3:0.00000819):0.00021705):0.00063999,(10_0_0:0.00000411,((10_0_1:0.00000641,10_0_9:0.00000019):0.00008179,((10_0_2:0.00000512,10_0_3:0.00001717):0.00001385,(((10_0_6:0.00000683,10_0_5:0.00000095):0.00002778,10_0_7:0.00002484):0.00000024,(10_0_8:0.00000021,10_0_4:0.00000079):0.00000006):0.00000150):0.00000129):0.00000002):0.00292162):0.00071538):0.00773284):0.00309611):0.03926636):0.00433485);

data_02	T02	171	1	1	0.389551	0.203146	0.249967	((((11_0_6:0.00027199,(((11_0_5:0.00001312,(11_0_3:0.00000151,(11_0_2:0.00000337,(11_0_8:0.00000023,11_0_7:0.00000078):0.00000041):0.00000008):0.00000047):0.00002006,(11_0_9:0.00000011,(11_0_1:0.00000655,11_0_0:0.00000003):0.00000094):0.00000114):0.00000667,11_0_4:0.00000042):0.00001685):0.00901391,(((((13_0_8:0.00000270,13_0_4:0.00000358):0.00000390,((13_0_5:0.00000450,(13_0_7:0.00000436,13_0_3:0.00000009):0.00000006):0.00000134,(13_0_1:0.00000002,13_0_9:0.00000043):0.00000207):0.00001180):0.00003125,((13_0_6:0.00000351,13_0_2:0.00000017):0.00002166,13_0_0:0.00001078):0.00007524):0.00046999,(((((10_0_5:0.00000002,10_0_1:0.00000029):0.00000428,(10_0_8:0.00000105,10_0_9:0.00000328):0.00000273):0.00003810,10_0_4:0.00003723):0.00000568,(((10_0_3:0.00000362,(10_0_7:0.00000047,10_0_6:0.00000031):0.00000143):0.00000061,10_0_0:0.00001483):0.00000000,10_0_2:0.00000057):0.00001175):0.01026927,(((((17_0_5:0.00005887,(17_0_8:0.00000277,17_0_1:0.00000206):0.00000128):0.00000035,17_0_7:0.00000879):0.00000308,17_0_3:0.00000670):0.00003437,17_0_4:0.00002195):0.00003141,(17_0_6:0.00000477,((17_0_0:0.00000020,17_0_9:0.00000094):0.00000318,17_0_2:0.00000086):0.00000010):0.00004327):0.00403103):0.00069797):0.00579597,(((((15_0_0:0.00003690,((15_0_6:0.00000049,15_0_5:0.00000145):0.00000352,((15_0_8:0.00000018,(15_0_3:0.00000028,15_0_4:0.00000061):0.00000003):0.00001331,15_0_2:0.00000247):0.00000016):0.00000300):0.00000095,(15_0_9:0.00000214,15_0_1:0.00000042):0.00003070):0.00000614,15_0_7:0.00005386):0.00471631,((16_0_1:0.00002530,((16_0_0:0.00000583,16_0_7:0.00002559):0.00000015,((16_0_3:0.00000662,(16_0_9:0.00000243,16_0_4:0.00000663):0.00000001):0.00000003,16_0_8:0.00000001):0.00000717):0.00000277):0.00000071,((16_0_2:0.00000073,16_0_5:0.00000560):0.00001199,16_0_6:0.00000979):0.00000418):0.00616480):0.00909252,((12_0_5:0.00002032,((12_0_6:0.00000143,12_0_7:0.00000454):0.00000038,((12_0_9:0.00000770,((12_0_4:0.00000155,12_0_0:0.00000034):0.00000003,12_0_8:0.00000292):0.00000738):0.00000307,(12_0_2:0.00000014,(12_0_1:0.00000005,12_0_3:0.00000010):0.00000006):0.00001494):0.00000503):0.00000849):0.00987384,((14_0_4:0.00000054,14_0_2:0.00000097):0.00000646,(((14_0_8:0.00000274,14_0_6:0.00000176):0.00000029,(14_0_5:0.00000499,((14_0_9:0.00000139,(14_0_3:0.00000003,14_0_0:0.00000060):0.00000001):0.00000078,14_0_1:0.00000004):0.00000101):0.00000005):0.00000219,14_0_7:0.00001252):0.00001673):0.00099213):0.00255014):0.00171058):0.00917516):0.03718138,(((((4_0_3:0.00000005,4_0_2:0.00000001):0.00000102,4_0_9:0.00000124):0.00003257,(((4_0_0:0.00000361,(4_0_1:0.00000545,(4_0_5:0.00000049,4_0_6:0.00000115):0.00000295):0.00000279):0.00000048,4_0_7:0.00000483):0.00001258,(4_0_4:0.00000701,4_0_8:0.00002037):0.00001649):0.00003784):0.00736116,(((((6_0_4:0.00004915,(6_0_0:0.00000246,((6_0_7:0.00000022,6_0_3:0.00000110):0.00000112,6_0_6:0.00001077):0.00000199):0.00001005):0.00001668,6_0_5:0.00002133):0.00000273,((6_0_1:0.00000932,(6_0_2:0.00000709,6_0_8:0.00000138):0.00000892):0.00000286,6_0_9:0.00002902):0.00000693):0.00030869,(((((7_0_7:0.00000260,7_0_2:0.00000375):0.00000072,7_0_6:0.00000564):0.00001068,7_0_4:0.00000223):0.00000666,(7_0_8:0.00000145,((7_0_1:0.00000192,7_0_0:0.00000062):0.00000124,7_0_5:0.00000364):0.00000009):0.00001466):0.00002224,(7_0_9:0.00000096,7_0_3:0.00000003):0.00006087):0.00031978):0.00059639,(((2_0_9:0.00000403,2_0_1:0.00000076):0.00000549,(2_0_0:0.00000564,(2_0_3:0.00000044,(2_0_7:0.00000001,2_0_6:0.00000392):0.00000244):0.00000003):0.00002476):0.00000814,(2_0_4:0.00001961,(2_0_5:0.00000094,(2_0_2:0.00002573,2_0_8:0.00001302):0.00000070):0.00002899):0.00005505):0.00130968):0.00384790):0.00016289,(((((((((3_0_5:0.00000421,(3_0_9:0.00000016,3_0_4:0.00000261):0.00000112):0.00000005,3_0_8:0.00000166):0.00000833,3_0_6:0.00000674):0.00000654,3_0_2:0.00000002):0.00001219,(3_0_0:0.00000560,3_0_1:0.00000527):0.00000083):0.00000455,(3_0_3:0.00001759,3_0_7:0.00000010):0.00005429):0.00028914,(((1_0_5:0.00000051,(1_0_7:0.00000043,1_0_0:0.00000271):0.00000067):0.00000105,1_0_8:0.00000715):0.00001411,(((1_0_3:0.00000290,1_0_9:0.00000157):0.00001645,(1_0_1:0.00000069,(1_0_6:0.00000006,1_0_2:0.00000006):0.00000064):0.00000225):0.00005926,1_0_4:0.00002523):0.00015808):0.00010484):0.00603643,((5_0_6:0.00005297,(5_0_1:0.00000143,(5_0_8:0.00002513,5_0_9:0.00000180):0.00000272):0.00000014):0.00000394,(5_0_2:0.00000073,((5_0_5:0.00000009,5_0_7:0.00000013):0.00000542,(5_0_3:0.00001131,(5_0_0:0.00000043,5_0_4:0.00000538):0.00000250):0.00002348):0.00000818):0.00000243):0.00627587):0.02182737,((((((8_0_8:0.00000154,(8_0_9:0.00001476,8_0_5:0.00000013):0.00001245):0.00000013,(8_0_4:0.00000000,8_0_0:0.00000079):0.00000408):0.00001596,(8_0_7:0.00000040,(8_0_6:0.00000123,8_0_3:0.00000004):0.00000095):0.00000017):0.00001693,8_0_2:0.00000055):0.00016447,8_0_1:0.00001576):0.00072264,(((((9_0_0:0.00000045,9_0_9:0.00000003):0.00000078,9_0_1:0.00000243):0.00003357,(9_0_6:0.00000567,9_0_3:0.00000108):0.00000669):0.00000133,(9_0_8:0.00000593,9_0_2:0.00000167):0.00001344):0.00000185,((9_0_7:0.00000032,9_0_5:0.00000445):0.00000132,9_0_4:0.00003681):0.00002014):0.00022257):0.00377605):0.01726854):0.07670400):0.08094910,0_0_0:0.04682022);

data_03	T03	171	1	1	0.556677	0.299221	0.364735	(0_0_0:0.04867734,(((((4_0_2:0.00000228,(4_0_0:0.00000045,4_0_6:0.00000505):0.00000038):0.00004224,(4_0_7:0.00001433,((4_0_9:0.00000939,(4_0_8:0.00000158,(4_0_1:0.00000535,(4_0_5:0.00000090,4_0_3:0.00000107):0.00000045):0.00000908):0.00002078):0.00003925,4_0_4:0.00000205):0.00000022):0.00004788):0.01419813,(((((6_0_2:0.00000052,6_0_0:0.00000159):0.00000614,(6_0_6:0.00000526,6_0_1:0.00000173):0.00001319):0.00001074,(((6_0_7:0.00000001,6_0_9:0.00000449):0.00000149,6_0_4:0.00000423):0.00001297,((6_0_3:0.00000317,6_0_5:0.00000044):0.00000708,6_0_8:0.00000605):0.00001047):0.00001958):0.00379686,(7_0_7:0.00010706,(((7_0_0:0.00000254,((7_0_6:0.00000060,7_0_3:0.00000018):0.00000729,7_0_2:0.00000001):0.00000015):0.00000369,7_0_1:0.00002028):0.00000365,(7_0_5:0.00000438,(7_0_9:0.00000931,(7_0_8:0.00000082,7_0_4:0.00000080):0.00000465):0.00004755):0.00006771):0.00000064):0.00327657):0.00595339,(((2_0_6:0.00000119,2_0_0:0.00000400):0.00002648,((2_0_1:0.00000414,(2_0_8:0.00000093,2_0_2:0.00000160):0.00000833):0.00000195,(2_0_7:0.00001221,2_0_3:0.00000024):0.00000271):0.00002744):0.00022617,(2_0_5:0.00001129,(2_0_4:0.00000856,2_0_9:0.00000051):0.00001566):0.00010170):0.00352049):0.00309252):0.01661626,((((((5_0_9:0.00000183,(5_0_4:0.00000930,5_0_0:0.00000056):0.00000065):0.00000034,5_0_7:0.00001172):0.00000305,((5_0_2:0.00000093,5_0_8:0.00000169):0.00000942,5_0_1:0.00000893):0.00006666):0.00000164,(5_0_3:0.00000487,(5_0_5:0.00000000,5_0_6:0.00001223):0.00000132):0.00001175):0.00404064,(((((1_0_7:0.00000316,1_0_4:0.00000025):0.00000204,1_0_8:0.00000918):0.00000279,(1_0_0:0.00001177,1_0_2:0.00003498):0.00000000):0.00000192,((1_0_3:0.00000183,((1_0_1:0.00000576,1_0_9:0.00000013):0.00000098,1_0_5:0.00000202):0.00000028):0.00001050,1_0_6:0.00004485):0.00000047):0.00060442,((3_0_7:0.00000283,3_0_1:0.00001475):0.00002634,(((((3_0_6:0.00000188,3_0_3:0.00000093):0.00000103,3_0_9:0.00000102):0.00000084,(3_0_2:0.00000009,3_0_5:0.00000016):0.00003879):0.00000003,3_0_4:0.00001248):0.00000773,(3_0_8:0.00000379,3_0_0:0.00000049):0.00010126):0.00005011):0.00000538):0.00157829):0.00111949,((((((8_0_8:0.00000052,8_0_5:0.00000030):0.00000003,8_0_6:0.00000021):0.00000522,8_0_9:0.00000039):0.00001602,((8_0_0:0.00000004,8_0_7:0.00000000):0.00000614,8_0_3:0.00000541):0.00000915):0.00000556,(8_0_2:0.00002551,(8_0_4:0.00000013,8_0_1:0.00000388):0.00000408):0.00000012):0.00316331,(((9_0_7:0.00001151,((9_0_8:0.00000193,9_0_6:0.00000143):0.00000681,((9_0_0:0.00000003,9_0_9:0.00000024):0.00001330,9_0_3:0.00000204):0.00000076):0.00001758):0.00000126,9_0_2:0.00004508):0.00016802,(9_0_1:0.00001274,(9_0_4:0.00000048,9_0_5:0.00000765):0.00000924):0.00001429):0.00154432):0.00089668):0.01783149):0.22643242,((((11_0_8:0.00000551,(11_0_5:0.00000524,(11_0_1:0.00001059,((11_0_0:0.00000213,11_0_7:0.00000176):0.00000212,11_0_3:0.00000357):0.00000029):0.00000596):0.00001319):0.00000171,((11_0_2:0.00000719,11_0_9:0.00000468):0.00000740,11_0_4:0.00004333):0.00007863):0.00011893,11_0_6:0.00003801):0.06493559,(((((((15_0_9:0.00000024,15_0_8:0.00000114):0.00000029,15_0_1:0.00000017):0.00003141,15_0_4:0.00001308):0.00001721,((15_0_7:0.00004053,(15_0_0:0.00001531,(15_0_5:0.00000051,15_0_3:0.00000133):0.00001083):0.00000354):0.00002106,(15_0_6:0.00000826,15_0_2:0.00002671):0.00000024):0.00002498):0.00279050,(((16_0_0:0.00000003,16_0_9:0.00000043):0.00000803,16_0_1:0.00000210):0.00022835,(((16_0_5:0.00000106,16_0_4:0.00000000):0.00001425,((16_0_3:0.00000596,(16_0_7:0.00000004,16_0_2:0.00000007):0.00000100):0.00000061,16_0_8:0.00000009):0.00005013):0.00005290,16_0_6:0.00000892):0.00000184):0.00072611):0.00293515,(((14_0_1:0.00000274,(14_0_5:0.00000676,((((14_0_9:0.00000011,14_0_7:0.00000096):0.00000026,14_0_0:0.00000479):0.00000393,14_0_3:0.00000040):0.00000990,14_0_6:0.00000504):0.00000201):0.00004429):0.00008576,((14_0_4:0.00000209,14_0_8:0.00001025):0.00000287,14_0_2:0.00004937):0.00036622):0.00437437,(((12_0_3:0.00000035,12_0_8:0.00000319):0.00000093,12_0_0:0.00000135):0.00008760,(12_0_1:0.00020726,((12_0_2:0.00000000,12_0_4:0.00000481):0.00000287,((12_0_6:0.00000682,(12_0_9:0.00002683,12_0_5:0.00000162):0.00000091):0.00000488,12_0_7:0.00000513):0.00000079):0.00000058):0.00001872):0.00156906):0.00085657):0.00100298,(((13_0_9:0.00000319,13_0_6:0.00000214):0.00003187,((13_0_3:0.00000005,((13_0_2:0.00000215,13_0_0:0.00000344):0.00000021,13_0_1:0.00000343):0.00000907):0.00000007,((13_0_4:0.00000196,13_0_8:0.00000073):0.00000297,(13_0_5:0.00000868,13_0_7:0.00000063):0.00000279):0.00000544):0.00015573):0.00056067,(((17_0_3:0.00000963,((17_0_0:0.00000061,(((17_0_2:0.00000028,17_0_6:0.00000994):0.00000193,17_0_1:0.00000451):0.00000015,17_0_8:0.00001005):0.00004009):0.00000495,(17_0_5:0.00003004,17_0_9:0.00000087):0.00001093):0.00001534):0.00000026,(17_0_4:0.00009875,17_0_7:0.00008003):0.00000025):0.00859456,((((10_0_8:0.00000158,(10_0_7:0.00000114,(10_0_4:0.00001369,(10_0_3:0.00000007,10_0_1:0.00000023):0.00000681):0.00000098):0.00002798):0.00000200,10_0_0:0.00000011):0.00001188,(10_0_2:0.00000579,(10_0_5:0.00000959,10_0_9:0.00000424):0.00000061):0.00001476):0.00005564,10_0_6:0.00000025):0.00900878):0.00049688):0.00609349):0.00772751):0.04218960):0.04185180);

data_04	T04	171	1	1	1.14613	0.682835	0.805812	(0_0_0:0.12297664,(((((((((3_0_5:0.00001961,(3_0_4:0.00000088,(3_0_6:0.00000000,3_0_1:0.00000001):0.00000004):0.00001673):0.00003341,3_0_0:0.00002586):0.00000313,(3_0_2:0.00000200,(3_0_3:0.00000125,3_0_8:0.00000143):0.00000009):0.00000000):0.00005853,(3_0_7:0.00000222,3_0_9:0.00000953):0.00002520):0.00006731,((1_0_7:0.00004691,((1_0_0:0.00000032,1_0_1:0.00000002):0.00001564,1_0_6:0.00000410):0.00000286):0.00000164,((1_0_3:0.00000066,(1_0_9:0.00000322,1_0_2:0.00000097):0.00001224):0.00001662,((1_0_4:0.00000027,1_0_5:0.00000099):0.00000035,1_0_8:0.00000009):0.00000003):0.00001152):0.00012923):0.01076574,((5_0_2:0.00000072,(5_0_1:0.00000091,5_0_6:0.00000061):0.00002016):0.00000025,(((5_0_0:0.00000011,5_0_5:0.00000037):0.00001871,((5_0_3:0.00000602,(5_0_4:0.00000439,5_0_8:0.00000473):0.00000105):0.00000011,5_0_9:0.00000001):0.00000168):0.00001306,5_0_7:0.00000787):0.00003507):0.00454880):0.00564412,(((((9_0_6:0.00000449,9_0_2:0.00001675):0.00000023,9_0_0:0.00000157):0.00000000,(9_0_4:0.00000426,(((9_0_5:0.00000044,9_0_8:0.00000911):0.00000003,(9_0_7:0.00000022,9_0_9:0.00000262):0.00000001):0.00004129,9_0_1:0.00001153):0.00000065):0.00000489):0.00002708,9_0_3:0.00000265):0.00010806,(((8_0_5:0.00000054,(8_0_2:0.00000730,((((8_0_6:0.00000006,8_0_4:0.00000040):0.00000022,8_0_8:0.00000017):0.00000180,8_0_0:0.00000305):0.00000901,8_0_9:0.00001017):0.00000000):0.00000186):0.00001907,(8_0_3:0.00000026,8_0_1:0.00000363):0.00000003):0.00002951,8_0_7:0.00002379):0.00300303):0.00084182):0.06838739,(((((4_0_8:0.00000276,4_0_7:0.00000000):0.00001405,((4_0_3:0.00005176,(4_0_4:0.00000053,4_0_1:0.00000057):0.00007465):0.00000124,(4_0_5:0.00000041,4_0_0:0.00000664):0.00003440):0.00000306):0.00000155,4_0_6:0.00000163):0.00001507,(4_0_2:0.00000059,4_0_9:0.00000216):0.00008162):0.00384074,((((2_0_8:0.00000318,(2_0_7:0.00000039,2_0_1:0.00000074):0.00000646):0.00001864,(2_0_6:0.00000744,(2_0_0:0.00000017,2_0_3:0.00000381):0.00000017):0.00002036):0.00001394,(2_0_2:0.00004527,(2_0_5:0.00000033,(2_0_4:0.00000078,2_0_9:0.00000413):0.00000569):0.00000353):0.00000054):0.00382912,(((6_0_6:0.00000155,6_0_5:0.00000003):0.00004958,((6_0_4:0.00000293,6_0_0:0.00000940):0.00000116,((6_0_3:0.00000260,6_0_8:0.00000322):0.00000091,(6_0_7:0.00000600,((6_0_2:0.00000292,6_0_9:0.00000071):0.00000885,6_0_1:0.00000126):0.00000062):0.00000168):0.00000508):0.00000217):0.00712170,((((7_0_8:0.00000317,7_0_6:0.00000177):0.00000001,7_0_0:0.00000439):0.00000040,(7_0_4:0.00002369,(7_0_7:0.00000058,(7_0_9:0.00006097,(7_0_1:0.00000200,7_0_5:0.00000621):0.00000021):0.00000196):0.00000001):0.00000825):0.00000013,(7_0_2:0.00003340,7_0_3:0.00005165):0.00000299):0.00195268):0.00002304):0.03395734):0.15741612):0.16155861,((((((13_0_6:0.00000353,13_0_7:0.00001044):0.00000107,((13_0_8:0.00000717,(13_0_0:0.00000096,13_0_2:0.00000019):0.00000021):0.00000436,(13_0_9:0.00001718,13_0_3:0.00000501):0.00002257):0.00002115):0.00003552,((13_0_4:0.00001522,13_0_1:0.00000868):0.00002790,13_0_5:0.00003976):0.00001997):0.00873021,((((17_0_6:0.00001248,(17_0_1:0.00004734,(17_0_9:0.00000066,(17_0_4:0.00000259,17_0_3:0.00000611):0.00000154):0.00000500):0.00002155):0.00000755,(17_0_2:0.00000086,(17_0_0:0.00000241,17_0_5:0.00000172):0.00000061):0.00000005):0.00019820,(17_0_8:0.00000036,17_0_7:0.00000003):0.00007422):0.00621748,((10_0_9:0.00004678,((10_0_1:0.00000194,(10_0_0:0.00000051,(10_0_7:0.00000016,10_0_6:0.00000023):0.00000024):0.00000176):0.00000036,10_0_2:0.00000471):0.00000034):0.00000460,((10_0_4:0.00000735,(10_0_3:0.00000056,10_0_8:0.00000009):0.00000959):0.00000363,10_0_5:0.00000598):0.00000137):0.00502213):0.00005936):0.00581779,((((((12_0_3:0.00002242,12_0_4:0.00002504):0.00000454,(12_0_2:0.00000335,(12_0_8:0.00000070,(12_0_6:0.00000033,12_0_1:0.00000608):0.00000252):0.00000323):0.00000419):0.00000310,(12_0_0:0.00000503,12_0_9:0.00000028):0.00002375):0.00000394,(12_0_7:0.00000139,12_0_5:0.00000109):0.00028646):0.00044159,(((14_0_1:0.00000186,14_0_8:0.00000457):0.00000049,(((14_0_7:0.00000119,14_0_9:0.00001355):0.00000321,(14_0_2:0.00000022,14_0_4:0.00000346):0.00000113):0.00000076,((14_0_0:0.00000242,14_0_5:0.00000108):0.00000008,14_0_3:0.00000238):0.00000233):0.00000055):0.00018922,14_0_6:0.00000464):0.00157228):0.00153554,(((((15_0_6:0.00000151,(15_0_3:0.00000031,15_0_0:0.00000150):0.00000005):0.00003344,15_0_8:0.00000206):0.00003222,15_0_2:0.00000537):0.00000794,(((15_0_9:0.00000008,15_0_4:0.00001059):0.00000223,15_0_7:0.00001939):0.00003595,(15_0_5:0.00000011,15_0_1:0.00000062):0.00000624):0.00062814):0.00038613,(16_0_4:0.00017401,(16_0_1:0.00009126,((16_0_2:0.00000022,16_0_8:0.00000269):0.00000674,(((16_0_5:0.00000012,16_0_9:0.00000559):0.00000010,(16_0_0:0.00000015,16_0_3:0.00000046):0.00000058):0.00000100,(16_0_7:0.00000020,16_0_6:0.00000061):0.00000607):0.00000792):0.00002281):0.00003055):0.00003478):0.01630051):0.00058907):0.02110266,(((11_0_3:0.00000159,11_0_8:0.00000649):0.00005741,(11_0_2:0.00000112,11_0_0:0.00000006):0.00000989):0.00000010,((11_0_6:0.00000011,(11_0_9:0.00000234,(11_0_1:0.00000002,11_0_5:0.00000047):0.00000067):0.00000118):0.00000641,(11_0_4:0.00000244,11_0_7:0.00000067):0.00000798):0.00004149):0.00882442):0.15658776):0.32270740);

data_05	T05	171	1	1	1.33979	0.652825	1.01111	((((((((3_0_0:0.00001139,3_0_7:0.00001843):0.00000323,((3_0_3:0.00002770,(3_0_8:0.00000014,(3_0_6:0.00000013,3_0_9:0.00000035):0.00000018):0.00000924):0.00000252,(3_0_5:0.00001096,((3_0_4:0.00000016,3_0_2:0.00000012):0.00001665,3_0_1:0.00000032):0.00000019):0.00002229):0.00005340):0.00110603,((((1_0_9:0.00000133,1_0_3:0.00000065):0.00000029,(1_0_2:0.00000250,1_0_4:0.00000011):0.00001292):0.00003874,((1_0_5:0.00000015,1_0_1:0.00000104):0.00003293,(1_0_8:0.00000053,1_0_0:0.00000047):0.00001162):0.00002277):0.00009225,(1_0_6:0.00000246,1_0_7:0.00000576):0.00001807):0.00082482):0.00833885,((((5_0_2:0.00000234,5_0_6:0.00000187):0.00000000,5_0_0:0.00000444):0.00000008,5_0_7:0.00000506):0.00000580,(((((5_0_1:0.00000003,5_0_4:0.00000003):0.00000148,5_0_8:0.00000008):0.00000021,5_0_5:0.00000060):0.00000782,5_0_9:0.00000514):0.00000023,5_0_3:0.00001703):0.00013489):0.00573026):0.00962269,((((((8_0_4:0.00000017,8_0_8:0.00000294):0.00001600,8_0_0:0.00000002):0.00000009,(8_0_3:0.00000102,8_0_5:0.00000540):0.00000150):0.00006586,(8_0_2:0.00002616,8_0_6:0.00004024):0.00000018):0.00000584,(8_0_7:0.00000918,(8_0_9:0.00000073,8_0_1:0.00000042):0.00000034):0.00010212):0.00037913,(((9_0_7:0.00000235,9_0_1:0.00000026):0.00000127,9_0_5:0.00001458):0.00001076,((((9_0_3:0.00000120,9_0_0:0.00000363):0.00000198,9_0_8:0.00004764):0.00000459,(9_0_2:0.00000000,9_0_6:0.00000083):0.00003387):0.00000003,(9_0_9:0.00000879,9_0_4:0.00003725):0.00001512):0.00000096):0.00216114):0.00339907):0.05623224,(((((2_0_9:0.00001702,2_0_2:0.00000335):0.00004043,2_0_0:0.00000102):0.00004987,(((2_0_3:0.00000082,(2_0_7:0.00000135,2_0_4:0.00000047):0.00000433):0.00000021,(2_0_8:0.00000036,2_0_1:0.00000321):0.00000032):0.00000667,(2_0_6:0.00000013,2_0_5:0.00000295):0.00000909):0.00000932):0.00304762,((7_0_1:0.00012680,(7_0_0:0.00000806,(((7_0_3:0.00000173,(7_0_9:0.00000027,7_0_2:0.00000026):0.00000016):0.00000001,((7_0_5:0.00000191,(7_0_8:0.00000006,7_0_4:0.00000052):0.00000001):0.00000010,7_0_7:0.00000031):0.00000047):0.00000280,7_0_6:0.00000462):0.00003314):0.00005850):0.00219733,((((6_0_9:0.00000002,6_0_3:0.00000029):0.00000918,(6_0_5:0.00000742,6_0_6:0.00000869):0.00000025):0.00002356,6_0_0:0.00003716):0.00000622,(6_0_8:0.00002018,(6_0_1:0.00000131,(6_0_4:0.00001470,(6_0_7:0.00000060,6_0_2:0.00000072):0.00000905):0.00000278):0.00000265):0.00000340):0.00321913):0.00086522):0.01107704,(4_0_3:0.00027313,(((4_0_5:0.00000387,((4_0_0:0.00000053,4_0_6:0.00000463):0.00000004,4_0_4:0.00000439):0.00000112):0.00000265,((4_0_9:0.00000301,4_0_2:0.00000792):0.00000042,(4_0_1:0.00000252,4_0_8:0.00000436):0.00000036):0.00000009):0.00000261,4_0_7:0.00000249):0.00000000):0.00996622):0.00254249):0.28116235,(((((((((12_0_4:0.00000024,(12_0_7:0.00000001,12_0_9:0.00000001):0.00000064):0.00000974,12_0_8:0.00000175):0.00000124,(12_0_2:0.00000292,12_0_1:0.00000951):0.00000068):0.00001116,(12_0_3:0.00002020,(12_0_6:0.00000248,12_0_0:0.00000473):0.00000680):0.00000163):0.00000028,12_0_5:0.00000109):0.00042271,((14_0_3:0.00000042,14_0_6:0.00000839):0.00026307,((((14_0_8:0.00000124,(14_0_2:0.00000081,14_0_5:0.00000219):0.00000008):0.00001666,(14_0_9:0.00000460,14_0_4:0.00000533):0.00000140):0.00000749,14_0_0:0.00001850):0.00000032,(14_0_1:0.00005586,14_0_7:0.00001229):0.00001423):0.00023875):0.00666006):0.00499152,(((16_0_6:0.00000043,16_0_9:0.00000023):0.00004152,(((16_0_1:0.00000185,16_0_8:0.00000088):0.00000762,((((16_0_7:0.00000003,16_0_3:0.00000007):0.00000006,16_0_4:0.00000112):0.00000587,16_0_2:0.00000231):0.00000658,16_0_5:0.00000339):0.00000251):0.00000033,16_0_0:0.00000603):0.00000245):0.00070688,((15_0_1:0.00000673,15_0_5:0.00000227):0.00007786,((15_0_0:0.00000655,(15_0_2:0.00001244,(15_0_3:0.00002693,15_0_4:0.00000110):0.00000069):0.00000083):0.00000021,(15_0_7:0.00002124,(15_0_8:0.00000102,(15_0_9:0.00000782,15_0_6:0.00000033):0.00000149):0.00000148):0.00007328):0.00005115):0.00581014):0.00211864):0.00584857,((((((17_0_0:0.00000006,17_0_2:0.00000007):0.00000065,17_0_5:0.00000001):0.00000177,(17_0_4:0.00000011,17_0_6:0.00000589):0.00000098):0.00000713,(((17_0_3:0.00001204,17_0_9:0.00000616):0.00000105,17_0_8:0.00000390):0.00000011,(17_0_7:0.00000023,17_0_1:0.00000012):0.00002206):0.00002149):0.00231104,((((10_0_0:0.00000861,(10_0_3:0.00001363,10_0_2:0.00000004):0.00002309):0.00000105,((10_0_9:0.00000119,(10_0_5:0.00000004,10_0_6:0.00000077):0.00000023):0.00000138,10_0_8:0.00001166):0.00001039):0.00000808,10_0_7:0.00000411):0.00000023,(10_0_1:0.00014845,10_0_4:0.00011961):0.00002067):0.00029997):0.00002447,((13_0_1:0.00000220,13_0_2:0.00000485):0.00014419,((13_0_0:0.00009390,(13_0_4:0.00000367,(13_0_5:0.00000315,(13_0_6:0.00000025,13_0_7:0.00000860):0.00000013):0.00000517):0.00000001):0.00017899,((13_0_8:0.00000040,13_0_3:0.00000011):0.00000095,13_0_9:0.00000499):0.00000266):0.00000637):0.00008500):0.00168051):0.00673450,(11_0_7:0.00004249,(((11_0_9:0.00000128,((11_0_8:0.00002479,11_0_5:0.00000597):0.00000380,(11_0_3:0.00000021,11_0_2:0.00000315):0.00000334):0.00000007):0.00001113,((11_0_1:0.00000000,11_0_0:0.00000010):0.00000358,11_0_4:0.00001012):0.00004573):0.00000014,11_0_6:0.00005566):0.00003886):0.05974588):0.18172672):0.00173441,0_0_0:0.65282501);

data_06	T06	171	1	1	0.902954	0.392345	0.718241	((((((((((3_0_1:0.00000313,3_0_0:0.00001321):0.00000008,3_0_8:0.00001669):0.00001288,3_0_4:0.00000912):0.00003535,((3_0_3:0.00000126,3_0_2:0.00000003):0.00017617,(3_0_6:0.00001330,(3_0_5:0.00000032,(3_0_7:0.00000001,3_0_9:0.00000004):0.00000162):0.00000121):0.00000582):0.00000064):0.00006452,((1_0_6:0.00015216,(1_0_0:0.00006097,1_0_4:0.00000503):0.00021631):0.00000084,((1_0_1:0.00000034,1_0_8:0.00000393):0.00004710,(1_0_5:0.00014280,((1_0_2:0.00000200,1_0_3:0.00000002):0.00005042,(1_0_7:0.00000507,1_0_9:0.00000019):0.00000067):0.00000348):0.00001153):0.00002318):0.00001244):0.00619641,((5_0_9:0.00000264,((5_0_5:0.00000229,5_0_2:0.00000477):0.00003039,((5_0_7:0.00000035,(5_0_8:0.00000465,5_0_0:0.00000109):0.00000002):0.00000676,5_0_3:0.00000134):0.00000033):0.00005007):0.00000903,((5_0_4:0.00000481,5_0_6:0.00000029):0.00001318,5_0_1:0.00000343):0.00004541):0.00839262):0.00379440,((9_0_7:0.00004793,(((9_0_8:0.00000564,((9_0_9:0.00000001,9_0_6:0.00000054):0.00000163,9_0_3:0.00000904):0.00000396):0.00001035,(9_0_1:0.00000012,9_0_2:0.00000604):0.00001550):0.00001883,(9_0_5:0.00000025,(9_0_0:0.00000401,9_0_4:0.00001560):0.00000906):0.00000972):0.00000014):0.00012637,(((8_0_1:0.00000041,8_0_2:0.00000005):0.00013293,8_0_6:0.00004653):0.00000320,((8_0_9:0.00003845,8_0_3:0.00001626):0.00000096,((8_0_4:0.00000045,(8_0_8:0.00000009,(8_0_0:0.00000018,8_0_5:0.00000129):0.00000155):0.00000109):0.00002200,8_0_7:0.00003811):0.00002424):0.00000079):0.00001485):0.00095138):0.02445540,(((((((6_0_2:0.00000041,6_0_7:0.00000016):0.00001762,(6_0_4:0.00000049,(6_0_9:0.00000002,6_0_1:0.00000601):0.00000333):0.00000011):0.00000034,((6_0_0:0.00000080,6_0_5:0.00000065):0.00000008,6_0_6:0.00000348):0.00005851):0.00002306,(6_0_3:0.00000053,6_0_8:0.00000049):0.00007537):0.00445364,((7_0_2:0.00000004,7_0_8:0.00000004):0.00002236,((7_0_5:0.00000140,7_0_9:0.00000056):0.00004368,((7_0_0:0.00000667,((7_0_6:0.00000197,7_0_1:0.00000563):0.00000080,7_0_4:0.00000155):0.00001851):0.00000968,(7_0_7:0.00000233,7_0_3:0.00000164):0.00000294):0.00000220):0.00000468):0.00032115):0.00186609,(((2_0_1:0.00000382,2_0_2:0.00000411):0.00000022,((2_0_9:0.00000017,2_0_8:0.00000253):0.00000071,(2_0_3:0.00000029,((2_0_4:0.00000039,2_0_7:0.00000083):0.00000508,2_0_5:0.00000010):0.00000108):0.00001208):0.00010639):0.00000009,(2_0_0:0.00015890,2_0_6:0.00001107):0.00000749):0.00562920):0.00022578,((((4_0_7:0.00000585,(((4_0_5:0.00000001,4_0_4:0.00000186):0.00000076,4_0_3:0.00000271):0.00000001,((4_0_1:0.00000010,4_0_2:0.00000115):0.00000103,4_0_0:0.00000579):0.00000512):0.00000249):0.00000214,4_0_8:0.00001208):0.00000001,4_0_9:0.00002846):0.00001768,4_0_6:0.00003047):0.01160347):0.04819886):0.01164478,(((((((10_0_5:0.00001873,((10_0_6:0.00000000,10_0_4:0.00000037):0.00001313,10_0_1:0.00001559):0.00000400):0.00000943,10_0_9:0.00012109):0.00002405,((10_0_8:0.00000037,10_0_2:0.00000157):0.00001367,((10_0_7:0.00000368,10_0_0:0.00000354):0.00000658,10_0_3:0.00000609):0.00000022):0.00000019):0.02609022,((((17_0_7:0.00000218,(17_0_8:0.00000225,17_0_0:0.00000000):0.00000135):0.00000047,17_0_9:0.00000003):0.00000039,17_0_1:0.00000473):0.00035488,((17_0_4:0.00000111,17_0_6:0.00000013):0.00000112,(17_0_5:0.00000129,(17_0_2:0.00000200,17_0_3:0.00000025):0.00000063):0.00000796):0.00012070):0.00683659):0.00000162,(((13_0_2:0.00005608,13_0_5:0.00000189):0.00000518,((13_0_3:0.00001574,(13_0_0:0.00000014,(13_0_4:0.00000434,13_0_7:0.00000022):0.00000004):0.00000374):0.00000177,13_0_8:0.00000423):0.00002813):0.00000272,((13_0_1:0.00000122,13_0_9:0.00000158):0.00009822,13_0_6:0.00003837):0.00000307):0.00310233):0.01179582,((((14_0_4:0.00011186,14_0_0:0.00006184):0.00000169,(((14_0_3:0.00000219,(14_0_5:0.00000041,14_0_2:0.00000149):0.00000039):0.00000306,(14_0_7:0.00000026,14_0_8:0.00000894):0.00000050):0.00002129,(14_0_9:0.00000530,(14_0_1:0.00000015,14_0_6:0.00000083):0.00000887):0.00002047):0.00002311):0.00139884,(12_0_2:0.00006912,(((12_0_0:0.00000848,12_0_5:0.00000014):0.00000887,(12_0_6:0.00000425,(12_0_4:0.00000820,12_0_1:0.00000158):0.00000025):0.00000006):0.00000740,((12_0_7:0.00000914,12_0_9:0.00000015):0.00000365,(12_0_3:0.00000163,12_0_8:0.00000004):0.00000157):0.00002093):0.00000040):0.00381948):0.00234622,(((((15_0_0:0.00000428,15_0_6:0.00000077):0.00002766,(15_0_1:0.00001722,((15_0_9:0.00000099,15_0_2:0.00000023):0.00000281,15_0_4:0.00000103):0.00000016):0.00001294):0.00000223,(15_0_3:0.00002702,(15_0_8:0.00000251,15_0_5:0.00000362):0.00000524):0.00001781):0.00000567,15_0_7:0.00003829):0.00036923,((((16_0_8:0.00001337,(16_0_4:0.00000000,16_0_3:0.00000186):0.00000072):0.00000537,(16_0_9:0.00000018,16_0_0:0.00000008):0.00000780):0.00000633,16_0_1:0.00001133):0.00000139,((16_0_7:0.00000489,(16_0_5:0.00000254,16_0_2:0.00000681):0.00000504):0.00000010,16_0_6:0.00000891):0.00001949):0.00175482):0.00122196):0.00289413):0.02741482,(((((11_0_1:0.00000021,11_0_3:0.00000009):0.00000025,11_0_9:0.00000039):0.00000075,(11_0_7:0.00000279,11_0_5:0.00000233):0.00000211):0.00000311,11_0_6:0.00007394):0.00001089,((11_0_4:0.00000053,(11_0_0:0.00000137,11_0_8:0.00000004):0.00002203):0.00000272,11_0_2:0.00004434):0.00000206):0.02886177):0.08659583):0.24030115,0_0_0:0.32589607);

data_07	T07	171	1	1	0.625369	0.246731	0.43362	(0_0_0:0.24673135,((((((11_0_7:0.00000094,11_0_5:0.00000009):0.00000023,11_0_9:0.00000039):0.00006044,(((11_0_3:0.00000329,11_0_6:0.00000855):0.00000012,(11_0_8:0.00000188,(11_0_2:0.00000167,11_0_4:0.00000053):0.00000387):0.00000359):0.00000544,11_0_1:0.00000302):0.00000026):0.00002649,11_0_0:0.00021781):0.02892598,(((((15_0_7:0.00002038,(15_0_6:0.00000006,15_0_1:0.00000146):0.00004251):0.00004688,((15_0_2:0.00002802,15_0_5:0.00000013):0.00001532,(15_0_9:0.00002856,((15_0_4:0.00000394,15_0_8:0.00000737):0.00000059,(15_0_3:0.00000074,15_0_0:0.00000084):0.00001296):0.00000135):0.00003505):0.00001291):0.00051564,((((16_0_0:0.00000197,16_0_4:0.00000113):0.00000736,(16_0_9:0.00000152,(16_0_7:0.00001989,16_0_3:0.00000377):0.00001443):0.00000052):0.00000376,(16_0_6:0.00001178,(16_0_8:0.00000036,16_0_2:0.00000606):0.00000281):0.00000547):0.00008798,(16_0_5:0.00000259,16_0_1:0.00005052):0.00002982):0.00045227):0.00113570,((14_0_4:0.00009104,((14_0_3:0.00002434,((14_0_8:0.00000218,14_0_0:0.00000332):0.00002471,((14_0_5:0.00000107,14_0_6:0.00000037):0.00001911,14_0_2:0.00000798):0.00000165):0.00002109):0.00004590,((14_0_1:0.00000122,14_0_9:0.00000244):0.00000952,14_0_7:0.00000748):0.00000444):0.00000025):0.00077780,(((12_0_4:0.00001707,12_0_6:0.00000075):0.00003194,12_0_9:0.00011673):0.00001906,(((12_0_3:0.00000249,12_0_2:0.00000485):0.00000383,((12_0_5:0.00000068,12_0_7:0.00000067):0.00000534,12_0_8:0.00000015):0.00000439):0.00001081,(12_0_1:0.00000609,12_0_0:0.00000861):0.00001735):0.00000454):0.00493557):0.00024833):0.00205443,((((13_0_0:0.00000003,13_0_6:0.00000015):0.00001303,(13_0_3:0.00000986,(((13_0_2:0.00000273,13_0_9:0.00000227):0.00000026,(13_0_4:0.00000002,13_0_7:0.00000021):0.00000128):0.00000128,13_0_5:0.00000337):0.00000219):0.00000094):0.00005684,(13_0_8:0.00002109,13_0_1:0.00000651):0.00004946):0.00136310,((((17_0_1:0.00000115,17_0_3:0.00000089):0.00002719,((17_0_2:0.00000086,17_0_6:0.00001464):0.00000031,17_0_0:0.00000528):0.00001170):0.00003735,((17_0_8:0.00000157,17_0_4:0.00000001):0.00000140,(17_0_5:0.00002006,(17_0_9:0.00000001,17_0_7:0.00000598):0.00000184):0.00000542):0.00000078):0.01884683,(((10_0_0:0.00000001,(10_0_2:0.00000258,10_0_8:0.00000115):0.00000010):0.00005909,10_0_1:0.00002677):0.00000491,(((10_0_7:0.00000072,10_0_4:0.00000003):0.00000168,10_0_3:0.00000061):0.00000332,((10_0_5:0.00000138,10_0_6:0.00000013):0.00000907,10_0_9:0.00001696):0.00000026):0.00010494):0.00454659):0.00048936):0.02603560):0.00998016):0.01983367,(((((((9_0_7:0.00000007,9_0_5:0.00000160):0.00000152,9_0_6:0.00001634):0.00000207,9_0_2:0.00000890):0.00001713,(((9_0_8:0.00000055,9_0_0:0.00000027):0.00000073,((9_0_4:0.00000187,9_0_1:0.00000299):0.00000044,9_0_9:0.00001044):0.00000033):0.00001228,9_0_3:0.00003894):0.00002359):0.00156898,((((((8_0_7:0.00000002,8_0_4:0.00000000):0.00000165,8_0_1:0.00000004):0.00000454,(8_0_2:0.00001425,8_0_3:0.00000052):0.00000211):0.00000596,8_0_9:0.00000815):0.00000661,8_0_6:0.00005334):0.00003892,(8_0_5:0.00008941,(8_0_0:0.00000460,8_0_8:0.00000521):0.00000049):0.00012300):0.00121923):0.00021016,((((5_0_1:0.00004381,(5_0_6:0.00000647,5_0_5:0.00001880):0.00000123):0.00000002,((5_0_9:0.00000016,5_0_8:0.00000002):0.00000780,5_0_4:0.00004694):0.00011345):0.00000535,(5_0_2:0.00011038,(5_0_0:0.00000019,(5_0_3:0.00000461,5_0_7:0.00000170):0.00000008):0.00000294):0.00000882):0.00515065,(((1_0_4:0.00004620,(1_0_6:0.00000013,1_0_8:0.00000002):0.00000341):0.00000888,(((1_0_5:0.00001349,(1_0_1:0.00000087,1_0_2:0.00000029):0.00001159):0.00000307,1_0_3:0.00000057):0.00003799,((1_0_9:0.00000013,1_0_0:0.00000009):0.00000001,1_0_7:0.00001049):0.00005192):0.00009124):0.00015271,((3_0_9:0.00002958,((3_0_2:0.00000659,3_0_8:0.00000098):0.00000096,3_0_1:0.00000134):0.00001802):0.00003126,(((3_0_5:0.00001078,(3_0_3:0.00000026,3_0_7:0.00000126):0.00001003):0.00000169,(3_0_4:0.00000323,3_0_6:0.00000836):0.00000239):0.00000017,3_0_0:0.00000559):0.00005858):0.00024712):0.01067758):0.00198391):0.15248402,(((4_0_7:0.00000205,4_0_0:0.00000034):0.00000004,(4_0_9:0.00004360,(((4_0_3:0.00000006,4_0_8:0.00000469):0.00001096,4_0_5:0.00002004):0.00000022,(4_0_4:0.00000787,((4_0_2:0.00000028,4_0_1:0.00000337):0.00000306,4_0_6:0.00000769):0.00001747):0.00000156):0.00000029):0.00003651):0.00889583,((2_0_6:0.00011120,(((2_0_7:0.00000478,(2_0_9:0.00000005,2_0_3:0.00000064):0.00000864):0.00000113,((2_0_2:0.00000001,2_0_5:0.00000034):0.00000735,2_0_0:0.00001420):0.00000018):0.00000173,((2_0_1:0.00000187,2_0_4:0.00000140):0.00000087,2_0_8:0.00000073):0.00001201):0.00012505):0.00085843,((6_0_5:0.00000152,(((6_0_7:0.00000002,6_0_4:0.00000035):0.00000975,(6_0_2:0.00000025,(6_0_1:0.00000222,(6_0_9:0.00000567,6_0_3:0.00000006):0.00000032):0.00000071):0.00000371):0.00001975,((6_0_8:0.00000163,6_0_6:0.00000085):0.00000974,6_0_0:0.00001532):0.00000053):0.00014218):0.00346419,(7_0_4:0.00003343,(7_0_8:0.00006467,(((((7_0_1:0.00000031,7_0_5:0.00000120):0.00000046,(7_0_6:0.00000087,7_0_3:0.00000027):0.00000018):0.00000357,7_0_7:0.00000005):0.00000071,(7_0_9:0.00000315,7_0_2:0.00000131):0.00000028):0.00000146,7_0_0:0.00003450):0.00000418):0.00000671):0.00049120):0.00093912):0.02232364):0.02232432):0.01872256):0.00270164);

data_08	T08	171	1	1	0.739335	0.42647	0.555798	(((((((((10_0_6:0.00000473,(10_0_3:0.00000023,10_0_4:0.00000007):0.00004858):0.00001186,(((10_0_0:0.00000036,10_0_8:0.00000034):0.00000251,10_0_1:0.00000961):0.00000055,10_0_7:0.00000138):0.00001292):0.00012343,((10_0_2:0.00000028,10_0_5:0.00000014):0.00000001,10_0_9:0.00000385):0.00000782):0.00058886,((17_0_8:0.00002780,(17_0_6:0.00000205,(17_0_1:0.00000438,17_0_4:0.00000271):0.00000955):0.00002164):0.00023662,((17_0_9:0.00000486,(17_0_3:0.00000027,17_0_5:0.00000217):0.00000205):0.00000459,(17_0_2:0.00000940,(17_0_0:0.00000158,17_0_7:0.00000755):0.00000236):0.00002083):0.00000010):0.00081103):0.00081856,(((13_0_8:0.00000425,13_0_4:0.00000119):0.00002408,(((13_0_0:0.00000285,13_0_7:0.00000513):0.00000106,((13_0_9:0.00000000,13_0_3:0.00000006):0.00005937,13_0_1:0.00000007):0.00000041):0.00000002,13_0_6:0.00000056):0.00000016):0.00004066,(13_0_2:0.00000008,13_0_5:0.00000498):0.00000334):0.00441984):0.01163732,(((((14_0_3:0.00000100,14_0_7:0.00000309):0.00000004,((14_0_2:0.00001755,((14_0_8:0.00000043,14_0_9:0.00000019):0.00000595,14_0_0:0.00000081):0.00002835):0.00002095,((14_0_1:0.00000055,14_0_5:0.00000204):0.00000017,14_0_4:0.00000364):0.00010447):0.00000050):0.00000358,14_0_6:0.00029301):0.00926383,((12_0_0:0.00000002,12_0_1:0.00000001):0.00014315,((12_0_9:0.00001668,(12_0_6:0.00000060,12_0_5:0.00000001):0.00000702):0.00001103,(((12_0_4:0.00002848,12_0_7:0.00000174):0.00000136,(12_0_2:0.00000000,12_0_3:0.00000105):0.00001718):0.00000001,12_0_8:0.00000013):0.00000006):0.00002000):0.00803105):0.00258980,((((16_0_1:0.00000013,16_0_8:0.00000007):0.00000044,16_0_0:0.00003119):0.00009129,((16_0_4:0.00003571,((16_0_6:0.00000047,(16_0_9:0.00000008,16_0_2:0.00000094):0.00000029):0.00001159,16_0_7:0.00001035):0.00000309):0.00000009,(16_0_5:0.00000680,16_0_3:0.00000979):0.00003107):0.00000245):0.00148062,((((15_0_1:0.00000489,15_0_5:0.00000887):0.00000102,((15_0_6:0.00000013,15_0_2:0.00001164):0.00000154,15_0_9:0.00000095):0.00000275):0.00005434,15_0_7:0.00000401):0.00000812,((15_0_4:0.00000196,(15_0_8:0.00000192,15_0_0:0.00000058):0.00001008):0.00000671,15_0_3:0.00003219):0.00001534):0.00002016):0.00126275):0.00142814):0.01170980,((((11_0_9:0.00000148,11_0_6:0.00000328):0.00000105,11_0_4:0.00000013):0.00000343,11_0_7:0.00001566):0.00040883,(11_0_3:0.00001126,((11_0_8:0.00000721,(11_0_5:0.00000126,11_0_2:0.00000216):0.00000078):0.00000178,(11_0_1:0.00000041,11_0_0:0.00000280):0.00000001):0.00000177):0.00007182):0.04436726):0.18914597,(((((((3_0_2:0.00000162,3_0_7:0.00000173):0.00007257,((3_0_5:0.00000032,3_0_0:0.00000101):0.00000039,(3_0_4:0.00000042,3_0_1:0.00000139):0.00000064):0.00000718):0.00000000,(3_0_9:0.00000109,(3_0_3:0.00000457,(3_0_8:0.00000143,3_0_6:0.00000080):0.00000022):0.00000297):0.00044663):0.00004811,(((1_0_4:0.00000905,(1_0_2:0.00003518,1_0_3:0.00000270):0.00000857):0.00000531,((1_0_5:0.00000444,((1_0_8:0.00002533,1_0_6:0.00000340):0.00001020,(1_0_1:0.00000020,1_0_9:0.00000008):0.00000363):0.00000015):0.00000528,1_0_7:0.00005184):0.00001330):0.00006718,1_0_0:0.00001906):0.00010908):0.00000726,((5_0_3:0.00000159,(5_0_2:0.00001013,5_0_6:0.00000246):0.00002053):0.00004902,((5_0_4:0.00000061,5_0_1:0.00000154):0.00014792,(((5_0_9:0.00000118,5_0_0:0.00000002):0.00000198,(5_0_5:0.00000102,5_0_7:0.00000043):0.00000336):0.00003405,5_0_8:0.00000232):0.00000188):0.00001476):0.00186917):0.00349565,((((9_0_7:0.00000004,9_0_4:0.00000101):0.00003199,9_0_1:0.00000552):0.00001958,(9_0_2:0.00000283,(9_0_6:0.00001760,((9_0_9:0.00000034,(9_0_5:0.00000320,9_0_8:0.00000136):0.00000007):0.00000328,(9_0_3:0.00000020,9_0_0:0.00000005):0.00000367):0.00000006):0.00000012):0.00004477):0.00111292,(8_0_4:0.00000251,(((8_0_3:0.00000013,8_0_6:0.00000245):0.00002101,((8_0_5:0.00000058,(8_0_1:0.00000558,8_0_7:0.00000607):0.00000739):0.00003664,((8_0_0:0.00000002,8_0_8:0.00002862):0.00000029,8_0_9:0.00001060):0.00000240):0.00000591):0.00000045,8_0_2:0.00032340):0.00000058):0.00243215):0.00120648):0.02449504,(((4_0_5:0.00000817,(4_0_8:0.00000000,4_0_3:0.00000003):0.00005215):0.00002249,(4_0_9:0.00000037,((4_0_2:0.00000397,4_0_4:0.00000293):0.00005672,(((4_0_0:0.00000005,4_0_6:0.00000065):0.00001430,4_0_7:0.00000519):0.00000136,4_0_1:0.00000765):0.00000488):0.00000003):0.00000616):0.00049174,(((((2_0_9:0.00000676,(2_0_8:0.00000036,2_0_5:0.00000022):0.00001062):0.00000206,2_0_3:0.00003950):0.00001190,((2_0_6:0.00001089,2_0_0:0.00000587):0.00000047,(2_0_1:0.00000524,(2_0_7:0.00000013,2_0_2:0.00000025):0.00001713):0.00000013):0.00001003):0.00000074,2_0_4:0.00002562):0.00308616,(((((7_0_8:0.00000005,7_0_3:0.00000006):0.00000627,(7_0_0:0.00000237,7_0_6:0.00000310):0.00004019):0.00000784,(7_0_1:0.00000028,7_0_9:0.00000020):0.00000694):0.00000935,((7_0_2:0.00000220,7_0_4:0.00000408):0.00001041,(7_0_7:0.00002285,7_0_5:0.00000110):0.00000097):0.00000421):0.00271896,((6_0_3:0.00003484,((6_0_4:0.00000592,6_0_8:0.00000637):0.00000424,(6_0_6:0.00000457,6_0_1:0.00000215):0.00000058):0.00000713):0.00000476,((6_0_5:0.00000019,6_0_0:0.00000019):0.00000350,(6_0_7:0.00000000,(6_0_2:0.00000126,6_0_9:0.00000035):0.00000022):0.00000450):0.00000140):0.00259265):0.00311559):0.01361822):0.02433809):0.04051741):0.19253263,0_0_0:0.12932734);

data_09	T09	171	1	1	0.543081	0.28753	0.355764	((((((((4_0_1:0.00000005,4_0_7:0.00000110):0.00000398,4_0_6:0.00000419):0.00000163,((4_0_4:0.00000004,4_0_3:0.00000010):0.00000050,4_0_9:0.00000074):0.00002242):0.00002993,((4_0_5:0.00000034,(4_0_0:0.00000044,4_0_8:0.00000069):0.00000292):0.00000255,4_0_2:0.00001749):0.00029195):0.00687760,(((2_0_8:0.00003400,2_0_9:0.00002918):0.00002040,(((2_0_3:0.00000560,2_0_6:0.00000076):0.00002061,(2_0_1:0.00000358,2_0_7:0.00000549):0.00009211):0.00000768,((2_0_2:0.00001092,2_0_5:0.00001529):0.00001131,(2_0_0:0.00000093,2_0_4:0.00000140):0.00000188):0.00000001):0.00002084):0.00663592,((7_0_9:0.00009125,(((7_0_6:0.00000093,7_0_8:0.00000223):0.00000092,((7_0_4:0.00000417,7_0_1:0.00000010):0.00000053,(7_0_2:0.00000007,7_0_5:0.00000011):0.00000137):0.00000960):0.00000131,((7_0_7:0.00000007,7_0_0:0.00000208):0.00000000,7_0_3:0.00000157):0.00000255):0.00007351):0.00123249,((6_0_5:0.00000027,6_0_9:0.00000024):0.00001968,((6_0_6:0.00000134,((6_0_0:0.00000530,6_0_8:0.00000269):0.00000017,(6_0_4:0.00000066,6_0_2:0.00000112):0.00000146):0.00000304):0.00002045,(6_0_1:0.00004411,(6_0_3:0.00000043,6_0_7:0.00001028):0.00000084):0.00000006):0.00000657):0.00091501):0.00238240):0.00173079):0.00251938,((((((9_0_0:0.00001472,(9_0_3:0.00002051,9_0_2:0.00001052):0.00000261):0.00002605,((9_0_1:0.00000329,(9_0_6:0.00000038,9_0_7:0.00000075):0.00000648):0.00000439,(9_0_4:0.00002613,9_0_9:0.00001026):0.00000622):0.00003834):0.00000071,9_0_8:0.00006863):0.00000434,9_0_5:0.00000489):0.00081903,((8_0_8:0.00000972,((8_0_3:0.00000268,8_0_0:0.00000150):0.00000096,8_0_1:0.00002178):0.00001174):0.00003358,((8_0_5:0.00000005,((8_0_2:0.00000098,8_0_6:0.00000002):0.00000055,8_0_7:0.00000164):0.00000476):0.00000005,(8_0_4:0.00000505,8_0_9:0.00000382):0.00000057):0.00004731):0.00164358):0.01299382,((((1_0_1:0.00000432,(((((1_0_5:0.00000186,1_0_0:0.00000016):0.00000198,1_0_7:0.00001425):0.00000000,1_0_4:0.00000198):0.00001249,1_0_8:0.00000168):0.00000035,(1_0_6:0.00000523,(1_0_9:0.00001387,1_0_2:0.00004403):0.00001193):0.00001149):0.00000194):0.00002249,1_0_3:0.00000653):0.00000003,((((((3_0_4:0.00000034,3_0_7:0.00000070):0.00000120,3_0_2:0.00000086):0.00002179,3_0_1:0.00002214):0.00002733,3_0_3:0.00003839):0.00000013,(3_0_0:0.00000438,(3_0_5:0.00000337,3_0_8:0.00000125):0.00000043):0.00000889):0.00000893,(3_0_6:0.00000237,3_0_9:0.00000020):0.00003912):0.00007481):0.00008713,(((5_0_7:0.00001109,5_0_0:0.00001076):0.00000062,((5_0_2:0.00000013,5_0_9:0.00000068):0.00000059,5_0_4:0.00000689):0.00000730):0.00008493,((5_0_1:0.00003948,((5_0_5:0.00000004,5_0_3:0.00000219):0.00000061,5_0_6:0.00000029):0.00000149):0.00005247,5_0_8:0.00009839):0.00000042):0.01182792):0.00314792):0.03813789):0.19169022,(((((((15_0_6:0.00003945,(15_0_3:0.00000037,15_0_5:0.00000037):0.00000546):0.00001820,(15_0_1:0.00000159,(15_0_8:0.00000007,15_0_0:0.00000003):0.00000111):0.00002523):0.00001883,(15_0_9:0.00000316,((15_0_4:0.00000087,15_0_7:0.00000374):0.00000184,15_0_2:0.00001207):0.00000024):0.00001565):0.00077232,((16_0_4:0.00000047,16_0_1:0.00000679):0.00002792,((16_0_2:0.00000000,16_0_3:0.00000799):0.00004534,((16_0_7:0.00000124,(16_0_5:0.00000590,16_0_0:0.00000961):0.00001085):0.00000262,(16_0_6:0.00000317,(16_0_8:0.00000044,16_0_9:0.00000237):0.00000088):0.00000297):0.00000502):0.00001857):0.00538703):0.00328421,(((((12_0_7:0.00000374,(12_0_2:0.00000001,12_0_4:0.00000030):0.00000002):0.00000444,((12_0_9:0.00000076,(12_0_8:0.00000004,12_0_3:0.00000055):0.00000016):0.00000006,(12_0_5:0.00000023,12_0_0:0.00000164):0.00000015):0.00000453):0.00001071,12_0_6:0.00004813):0.00000052,12_0_1:0.00000481):0.00287645,((14_0_4:0.00001136,((14_0_1:0.00000213,(14_0_6:0.00000000,14_0_5:0.00000029):0.00000009):0.00000428,14_0_0:0.00003230):0.00000012):0.00000443,((((14_0_2:0.00001647,14_0_8:0.00000418):0.00000003,14_0_9:0.00000885):0.00000011,14_0_7:0.00002041):0.00000393,14_0_3:0.00000083):0.00008057):0.00577980):0.00350511):0.01092275,(((((13_0_0:0.00000023,13_0_9:0.00000143):0.00000032,13_0_5:0.00000125):0.00000739,(13_0_1:0.00000189,13_0_7:0.00000012):0.00000040):0.00001008,(13_0_3:0.00000217,(13_0_8:0.00002708,((13_0_2:0.00000062,13_0_6:0.00000111):0.00000241,13_0_4:0.00001658):0.00000123):0.00005407):0.00000599):0.00024025,((((10_0_3:0.00000773,10_0_9:0.00000361):0.00002575,10_0_6:0.00002935):0.00000976,(10_0_2:0.00001881,((10_0_0:0.00000090,10_0_7:0.00000263):0.00000336,((10_0_5:0.00000327,10_0_1:0.00000000):0.00000060,(10_0_4:0.00000108,10_0_8:0.00000137):0.00000575):0.00000764):0.00000625):0.00001522):0.00006297,(((17_0_9:0.00000006,17_0_7:0.00000165):0.00000125,(17_0_5:0.00000171,17_0_1:0.00000026):0.00000329):0.00000669,(((17_0_8:0.00002772,(17_0_0:0.00000030,17_0_6:0.00000080):0.00000244):0.00000055,17_0_4:0.00003680):0.00001226,(17_0_3:0.00005921,17_0_2:0.00001638):0.00010725):0.00002511):0.00219731):0.00080807):0.00290300):0.00729310,((11_0_5:0.00000345,11_0_9:0.00000596):0.00005262,((((11_0_3:0.00000282,11_0_8:0.00000050):0.00000115,(11_0_2:0.00000003,11_0_1:0.00000052):0.00001313):0.00000006,11_0_6:0.00000836):0.00000005,(11_0_4:0.00000448,(11_0_0:0.00000233,11_0_7:0.00000562):0.00002888):0.00000796):0.00001667):0.03625358):0.06388309):0.04262703,0_0_0:0.06823429);

data_10	T10	171	1	1	0.64576	0.293505	0.337576	(0_0_0:0.00633004,(((11_0_9:0.00009868,(((((11_0_1:0.00001616,(11_0_5:0.00000152,11_0_3:0.00000838):0.00000204):0.00000074,11_0_8:0.00000406):0.00000091,11_0_7:0.00002232):0.00000054,(11_0_0:0.00000018,11_0_2:0.00000178):0.00007201):0.00005853,(11_0_4:0.00000026,11_0_6:0.00000014):0.00014019):0.00000131):0.08223715,(((13_0_1:0.00004990,(13_0_3:0.00001770,((((13_0_2:0.00000055,13_0_0:0.00000041):0.00000551,13_0_8:0.00000425):0.00001475,13_0_5:0.00000172):0.00000647,((13_0_6:0.00000067,13_0_4:0.00000056):0.00001462,(13_0_9:0.00000011,13_0_7:0.00000006):0.00000559):0.00005114):0.00008253):0.00000301):0.00706020,(((10_0_7:0.00001206,(((10_0_5:0.00000026,10_0_1:0.00000312):0.00000039,10_0_3:0.00000003):0.00000126,(10_0_6:0.00000312,10_0_4:0.00000005):0.00000933):0.00000134):0.00001033,(((10_0_2:0.00000670,10_0_8:0.00000025):0.00000158,10_0_0:0.00000161):0.00000002,10_0_9:0.00003272):0.00002463):0.00955786,(((17_0_6:0.00000052,17_0_0:0.00000580):0.00002479,((17_0_5:0.00000003,((17_0_1:0.00000006,17_0_8:0.00000443):0.00000697,(17_0_9:0.00000006,17_0_2:0.00000744):0.00000064):0.00000008):0.00000073,(17_0_3:0.00000042,17_0_7:0.00000044):0.00000453):0.00000775):0.00001066,17_0_4:0.00000779):0.01062279):0.00000152):0.00861277,(((((12_0_0:0.00000858,12_0_9:0.00000035):0.00000530,12_0_4:0.00000868):0.00001081,((((12_0_1:0.00004432,12_0_8:0.00000459):0.00000140,(12_0_3:0.00003236,12_0_2:0.00000438):0.00000003):0.00000923,12_0_6:0.00000279):0.00000230,(12_0_7:0.00000824,12_0_5:0.00000357):0.00001284):0.00009341):0.00578156,(14_0_8:0.00002168,(((14_0_4:0.00000144,14_0_9:0.00002047):0.00000300,14_0_3:0.00000898):0.00004900,((14_0_0:0.00000211,14_0_2:0.00000109):0.00000718,((14_0_7:0.00000303,14_0_1:0.00000004):0.00001050,(14_0_5:0.00000677,14_0_6:0.00000836):0.00000437):0.00000010):0.00000530):0.00001176):0.00137055):0.00537666,(((15_0_8:0.00000290,15_0_7:0.00003581):0.00000270,(((15_0_1:0.00000143,15_0_4:0.00000206):0.00000415,(15_0_9:0.00000478,((15_0_2:0.00000008,15_0_3:0.00000409):0.00000006,15_0_6:0.00000069):0.00000768):0.00000359):0.00007638,(15_0_5:0.00000088,15_0_0:0.00000027):0.00000946):0.00000440):0.00459326,(((16_0_8:0.00000065,(16_0_6:0.00000090,16_0_0:0.00000251):0.00000134):0.00000471,(16_0_2:0.00000067,(16_0_7:0.00000014,16_0_5:0.00000059):0.00000128):0.00003475):0.00000030,(((16_0_9:0.00000049,16_0_4:0.00000022):0.00002226,16_0_1:0.00000293):0.00000000,16_0_3:0.00006031):0.00004835):0.00552591):0.00111605):0.00057901):0.01510533):0.09861880,((((((4_0_8:0.00000004,4_0_3:0.00000200):0.00000010,(((4_0_9:0.00000285,(4_0_0:0.00000218,4_0_7:0.00000013):0.00000316):0.00000579,(4_0_4:0.00000348,4_0_1:0.00000113):0.00000272):0.00000095,4_0_5:0.00000407):0.00000002):0.00000557,4_0_2:0.00004647):0.00002870,4_0_6:0.00007804):0.03878156,((((7_0_0:0.00006042,((7_0_2:0.00005875,(7_0_6:0.00000010,7_0_9:0.00000461):0.00003020):0.00001538,7_0_7:0.00003630):0.00000214):0.00001070,((7_0_5:0.00001493,(7_0_1:0.00000286,(7_0_8:0.00000265,7_0_3:0.00000019):0.00000028):0.00000013):0.00000821,7_0_4:0.00000280):0.00001884):0.00027632,(((6_0_3:0.00006023,((6_0_9:0.00000143,6_0_7:0.00000841):0.00000062,6_0_1:0.00000716):0.00002084):0.00001692,((6_0_6:0.00000282,6_0_8:0.00000759):0.00000657,6_0_2:0.00000594):0.00004291):0.00019645,(6_0_5:0.00000578,(6_0_4:0.00000221,6_0_0:0.00000070):0.00001775):0.00008682):0.00013328):0.00409334,(((((2_0_7:0.00000185,2_0_2:0.00000009):0.00000020,2_0_1:0.00000009):0.00000153,((2_0_3:0.00002352,2_0_9:0.00000183):0.00000020,2_0_0:0.00000781):0.00000001):0.00001090,((2_0_5:0.00000292,2_0_6:0.00003053):0.00000001,2_0_8:0.00000494):0.00000874):0.00000178,2_0_4:0.00017213):0.00490433):0.01136705):0.02970898,(((((9_0_2:0.00002354,((9_0_0:0.00000228,(9_0_4:0.00000172,9_0_7:0.00000665):0.00000448):0.00000487,(9_0_8:0.00000085,9_0_1:0.00000045):0.00006434):0.00000028):0.00006514,(9_0_3:0.00000734,(9_0_6:0.00000345,9_0_9:0.00000044):0.00000197):0.00004044):0.00001598,9_0_5:0.00000058):0.00183512,(((((8_0_8:0.00000726,(8_0_5:0.00000238,8_0_7:0.00000187):0.00000118):0.00000753,(8_0_4:0.00000327,8_0_0:0.00000172):0.00000255):0.00002469,8_0_2:0.00000010):0.00008049,(8_0_1:0.00001883,8_0_3:0.00002360):0.00000067):0.00033202,(8_0_9:0.00000805,8_0_6:0.00000166):0.00011239):0.00030176):0.02484787,(((((1_0_4:0.00001238,1_0_8:0.00000652):0.00001908,(((1_0_0:0.00000321,1_0_9:0.00000022):0.00000028,1_0_6:0.00000301):0.00000302,(1_0_5:0.00000825,1_0_3:0.00000425):0.00000001):0.00003719):0.00016856,((1_0_1:0.00000030,1_0_2:0.00000687):0.00003612,1_0_7:0.00001808):0.00005471):0.00016983,((3_0_2:0.00000306,((((3_0_9:0.00000061,3_0_5:0.00000672):0.00000113,3_0_4:0.00000019):0.00000287,(3_0_1:0.00000009,3_0_0:0.00000001):0.00000161):0.00000099,3_0_8:0.00000113):0.00001069):0.00007493,((3_0_6:0.00000201,3_0_3:0.00000025):0.00000364,3_0_7:0.00000958):0.00000000):0.00105959):0.00010086,((((5_0_7:0.00000665,5_0_2:0.00001896):0.00000097,(5_0_9:0.00001287,5_0_0:0.00000001):0.00000524):0.00000088,5_0_1:0.00000929):0.00000479,(((5_0_3:0.00000325,5_0_8:0.00005349):0.00000019,5_0_5:0.00001456):0.00004386,(5_0_6:0.00000023,5_0_4:0.00000024):0.00000500):0.00000025):0.00001773):0.01899897):0.08239548):0.04735346):0.11250750);
