Tree file : INDELible V1.03 (best viewed cut and paste in e.g. excel)

N.B. Simulation blocks with no random trees will have their trees printed for the first replicate only.

FILE	TREE	NTAXA	REP	PART	LENGTH	DEPTH	MAX PAIRWISE DISTANCE	TREE STRING

data_01	T01	99	1	1	0.0927618	0.0602022	0.0771219	(((((((1_0_0:0.00000000,1_0_1:0.00000000):0.00000564,(1_0_5:0.00001072,1_0_3:0.00001227):0.00000089):0.00000085,((1_0_6:0.00000056,1_0_2:0.00000005):0.00000372,1_0_4:0.00000062):0.00000014):0.00020496,((2_0_3:0.00000025,((2_0_5:0.00000007,2_0_2:0.00000015):0.00000105,2_0_4:0.00000046):0.00000018):0.00000772,((2_0_0:0.00001463,2_0_1:0.00001466):0.00001041,2_0_6:0.00000479):0.00001869):0.00008342):0.00053907,(((3_0_4:0.00000042,(3_0_6:0.00000054,(3_0_5:0.00000020,3_0_0:0.00000070):0.00000013):0.00000033):0.00000148,(3_0_1:0.00000122,3_0_3:0.00000057):0.00000403):0.00007054,3_0_2:0.00001008):0.00227203):0.00694987,(((((7_0_3:0.00000947,7_0_2:0.00000286):0.00000024,(7_0_5:0.00001566,(7_0_4:0.00000063,(7_0_0:0.00000074,(7_0_1:0.00000033,7_0_6:0.00000066):0.00000001):0.00000058):0.00000034):0.00000114):0.00224817,(((9_0_2:0.00001530,(9_0_3:0.00000335,9_0_5:0.00000178):0.00000111):0.00000343,(9_0_0:0.00000084,9_0_6:0.00001702):0.00000001):0.00001651,(9_0_4:0.00000024,9_0_1:0.00000078):0.00003792):0.00011648):0.00002219,(((4_0_2:0.00000015,4_0_5:0.00000016):0.00002017,((4_0_4:0.00000295,4_0_0:0.00000116):0.00000943,4_0_1:0.00000451):0.00001219):0.00000332,(4_0_3:0.00002952,4_0_6:0.00002921):0.00006022):0.00236895):0.00142400,(((((8_0_5:0.00000104,8_0_3:0.00000272):0.00000191,(8_0_4:0.00000022,8_0_0:0.00000096):0.00000003):0.00000046,8_0_1:0.00000711):0.00000151,(8_0_6:0.00000002,8_0_2:0.00000022):0.00000707):0.00073777,(((((10_0_6:0.00001989,(10_0_5:0.00000043,10_0_3:0.00000076):0.00000038):0.00008783,((10_0_0:0.00000053,(10_0_1:0.00000002,10_0_4:0.00000014):0.00000009):0.00003683,10_0_2:0.00003053):0.00000623):0.00044939,((((13_0_2:0.00000061,13_0_4:0.00000492):0.00000023,13_0_5:0.00001435):0.00000007,(13_0_3:0.00000019,13_0_1:0.00000216):0.00000145):0.00000863,(13_0_0:0.00000001,13_0_6:0.00000042):0.00008130):0.00013918):0.00005310,(((((14_0_5:0.00000064,14_0_6:0.00000238):0.00000007,14_0_4:0.00001889):0.00001204,(14_0_2:0.00001448,(14_0_3:0.00000214,14_0_1:0.00000025):0.00000100):0.00000889):0.00000024,14_0_0:0.00011386):0.00015320,((((11_0_4:0.00000153,11_0_2:0.00000007):0.00000137,(11_0_1:0.00000025,11_0_3:0.00000043):0.00000260):0.00000001,11_0_6:0.00000634):0.00003273,(11_0_0:0.00000826,11_0_5:0.00004752):0.00001737):0.00006853):0.00005019):0.00003413,((((12_0_4:0.00000271,12_0_1:0.00000201):0.00000133,12_0_6:0.00000105):0.00000604,(12_0_5:0.00000500,(12_0_2:0.00000042,(12_0_0:0.00000010,12_0_3:0.00000055):0.00000018):0.00000062):0.00000334):0.00015909,((((6_0_6:0.00000001,6_0_0:0.00000002):0.00007744,(6_0_5:0.00002347,(6_0_1:0.00000538,6_0_2:0.00000377):0.00000034):0.00000067):0.00006007,(6_0_4:0.00000571,6_0_3:0.00000160):0.00029105):0.00043171,((5_0_6:0.00000880,5_0_1:0.00000030):0.00004086,(5_0_3:0.00001060,((5_0_2:0.00000436,5_0_5:0.00000046):0.00000101,(5_0_0:0.00000019,5_0_4:0.00000074):0.00000017):0.00000061):0.00003443):0.00023054):0.00003813):0.00013767):0.00002737):0.00427685):0.00000886):0.05090447,0_0_0:0.01691974);

data_02	T02	99	1	1	0.133204	0.0820979	0.101252	(((((((9_0_3:0.00000623,((9_0_6:0.00000221,(9_0_4:0.00000031,(9_0_5:0.00000058,9_0_2:0.00000054):0.00000096):0.00000034):0.00000046,9_0_1:0.00000760):0.00000012):0.00000465,9_0_0:0.00005727):0.00102075,(((7_0_6:0.00000193,7_0_0:0.00000100):0.00000030,(7_0_3:0.00000519,(7_0_5:0.00000009,7_0_4:0.00000023):0.00000033):0.00000069):0.00001274,(7_0_1:0.00000597,7_0_2:0.00000317):0.00002857):0.00086903):0.00000583,(4_0_4:0.00007356,((4_0_2:0.00000010,4_0_6:0.00000008):0.00000257,(4_0_5:0.00000021,((4_0_3:0.00000187,4_0_1:0.00000390):0.00000088,4_0_0:0.00000159):0.00000133):0.00000954):0.00000105):0.00194788):0.00277942,(((((5_0_3:0.00008241,((5_0_0:0.00000170,(5_0_4:0.00000111,5_0_5:0.00000010):0.00000076):0.00001065,(5_0_2:0.00002335,(5_0_6:0.00000034,5_0_1:0.00000177):0.00000790):0.00000033):0.00001640):0.00034674,(((6_0_4:0.00000155,(6_0_0:0.00000038,6_0_3:0.00000040):0.00000326):0.00000371,(6_0_6:0.00000717,(6_0_1:0.00000181,6_0_5:0.00000023):0.00000194):0.00000175):0.00005715,6_0_2:0.00004715):0.00007634):0.00009421,(((12_0_3:0.00000066,(12_0_5:0.00000005,12_0_2:0.00000094):0.00000599):0.00000141,(12_0_1:0.00000093,12_0_6:0.00000132):0.00000028):0.00001300,(12_0_4:0.00000007,12_0_0:0.00000002):0.00000155):0.00093684):0.00013025,((((((10_0_3:0.00002026,(10_0_6:0.00000057,10_0_5:0.00000017):0.00000244):0.00001254,10_0_2:0.00001017):0.00001547,(10_0_0:0.00000136,10_0_1:0.00000095):0.00000219):0.00001838,10_0_4:0.00002754):0.00006404,((13_0_5:0.00001599,((13_0_3:0.00000703,13_0_1:0.00001280):0.00000160,13_0_0:0.00000059):0.00000040):0.00002357,(13_0_2:0.00000674,(13_0_6:0.00001084,13_0_4:0.00000084):0.00000395):0.00000290):0.00027216):0.00005991,(((((14_0_0:0.00000033,14_0_3:0.00000019):0.00000386,14_0_1:0.00000397):0.00000586,14_0_5:0.00000532):0.00011529,(14_0_6:0.00000226,(14_0_2:0.00000266,14_0_4:0.00000511):0.00002063):0.00000096):0.00017042,(((11_0_3:0.00000451,11_0_0:0.00000216):0.00002386,(11_0_5:0.00000083,(11_0_4:0.00000024,(11_0_6:0.00000075,11_0_2:0.00000284):0.00000050):0.00000019):0.00000009):0.00000143,11_0_1:0.00000486):0.00132796):0.00001953):0.00000725):0.00006773,((8_0_4:0.00000127,8_0_1:0.00000025):0.00000398,((8_0_2:0.00000776,8_0_3:0.00001171):0.00002935,(8_0_0:0.00000230,(8_0_6:0.00000024,8_0_5:0.00000130):0.00001431):0.00000397):0.00001971):0.00004219):0.00044776):0.01843637,((((((((2_0_3:0.00000001,2_0_0:0.00000018):0.00000052,2_0_4:0.00000061):0.00000385,2_0_5:0.00000297):0.00000419,2_0_2:0.00000249):0.00000088,2_0_6:0.00000602):0.00000147,2_0_1:0.00009180):0.00024917,((1_0_4:0.00000032,1_0_0:0.00000039):0.00003676,(((1_0_6:0.00000282,1_0_2:0.00000012):0.00000416,1_0_3:0.00000091):0.00008848,(1_0_1:0.00000004,1_0_5:0.00000010):0.00004934):0.00001985):0.00055272):0.00066366,(((3_0_1:0.00000352,(3_0_2:0.00000475,3_0_5:0.00000792):0.00001982):0.00000534,3_0_6:0.00000601):0.00003183,((3_0_3:0.00000014,3_0_0:0.00000015):0.00000834,3_0_4:0.00000745):0.00003282):0.00120757):0.02737471):0.05339149,0_0_0:0.01915382);

data_03	T03	99	1	1	0.132085	0.0823086	0.112335	(0_0_0:0.03002669,((((((4_0_1:0.00000340,4_0_3:0.00000193):0.00000024,(4_0_5:0.00000111,4_0_6:0.00000236):0.00000059):0.00001570,(4_0_0:0.00000360,(4_0_2:0.00000064,4_0_4:0.00000075):0.00000279):0.00009521):0.00139115,((((7_0_1:0.00000040,7_0_0:0.00000008):0.00000018,(7_0_6:0.00000062,7_0_4:0.00000053):0.00000103):0.00001162,(7_0_5:0.00001077,(7_0_2:0.00000003,7_0_3:0.00000019):0.00000579):0.00008587):0.00060928,(((9_0_5:0.00000934,((9_0_6:0.00000540,9_0_3:0.00000891):0.00000055,9_0_4:0.00001354):0.00000056):0.00000415,(9_0_1:0.00000016,9_0_0:0.00000327):0.00000141):0.00000112,9_0_2:0.00005177):0.00301517):0.00001417):0.00151586,(((((11_0_3:0.00001378,((11_0_6:0.00000714,(11_0_4:0.00000039,11_0_1:0.00000027):0.00000955):0.00000002,11_0_0:0.00000589):0.00000485):0.00013459,(11_0_5:0.00001248,11_0_2:0.00000803):0.00082939):0.00068096,((14_0_0:0.00000158,14_0_5:0.00000922):0.00000484,(((14_0_4:0.00000134,14_0_2:0.00000030):0.00000253,(14_0_3:0.00000623,14_0_1:0.00001251):0.00000209):0.00000429,14_0_6:0.00000443):0.00000201):0.00009184):0.00000825,((((13_0_5:0.00000276,(13_0_1:0.00000785,(13_0_0:0.00000039,13_0_4:0.00000015):0.00000179):0.00000638):0.00000107,((13_0_3:0.00000013,13_0_6:0.00000014):0.00001445,13_0_2:0.00001926):0.00007728):0.00024044,(10_0_6:0.00001735,((10_0_2:0.00000396,(10_0_3:0.00000029,10_0_0:0.00000106):0.00000908):0.00000121,(10_0_1:0.00000640,(10_0_5:0.00000126,10_0_4:0.00000013):0.00000083):0.00000023):0.00000317):0.00007548):0.00019792,((((6_0_1:0.00000253,6_0_5:0.00000098):0.00002984,(((6_0_6:0.00000025,6_0_2:0.00000068):0.00000118,(6_0_0:0.00000155,6_0_3:0.00000079):0.00000124):0.00000094,6_0_4:0.00001249):0.00004096):0.00120401,(5_0_6:0.00003272,((5_0_1:0.00000327,5_0_3:0.00000046):0.00000303,(((5_0_2:0.00000000,5_0_0:0.00000000):0.00000039,5_0_5:0.00000057):0.00000311,5_0_4:0.00000031):0.00000962):0.00000818):0.00001597):0.00000544,(((12_0_4:0.00000001,12_0_2:0.00000018):0.00000032,12_0_5:0.00000014):0.00001933,(12_0_1:0.00000130,(12_0_3:0.00001685,(12_0_0:0.00000529,12_0_6:0.00000038):0.00000072):0.00000221):0.00000910):0.00059856):0.00013980):0.00002385):0.00004661,(8_0_4:0.00000225,(((8_0_6:0.00000352,8_0_2:0.00000115):0.00000224,(8_0_1:0.00000053,8_0_0:0.00000289):0.00000284):0.00000033,(8_0_5:0.00000410,8_0_3:0.00000280):0.00000102):0.00000254):0.00046143):0.00246376):0.00336720,(((3_0_3:0.00000436,3_0_6:0.00000111):0.00000087,((3_0_5:0.00000273,(3_0_1:0.00000068,(3_0_4:0.00000016,3_0_2:0.00000003):0.00000050):0.00000090):0.00000157,3_0_0:0.00000061):0.00000028):0.00195559,((2_0_2:0.00001464,((2_0_6:0.00000087,((2_0_3:0.00000628,2_0_1:0.00000047):0.00000093,(2_0_4:0.00000235,2_0_0:0.00000669):0.00000003):0.00000003):0.00000019,2_0_5:0.00000034):0.00011118):0.00015366,(((1_0_4:0.00000040,1_0_0:0.00000039):0.00000165,1_0_2:0.00000053):0.00000066,((1_0_1:0.00000170,(1_0_3:0.00000021,1_0_5:0.00000132):0.00000004):0.00000089,1_0_6:0.00000034):0.00000381):0.00087966):0.00054767):0.02016699):0.06018080);

data_04	T04	99	1	1	0.112948	0.0787997	0.0862323	(((((8_0_5:0.00004501,(((8_0_6:0.00000102,8_0_2:0.00000027):0.00000912,((8_0_1:0.00000002,8_0_4:0.00000304):0.00000442,8_0_3:0.00003215):0.00000215):0.00002908,8_0_0:0.00001082):0.00001189):0.00004415,((((((12_0_6:0.00000463,12_0_1:0.00000128):0.00000562,12_0_5:0.00000098):0.00000726,(((12_0_0:0.00000031,12_0_3:0.00000096):0.00000016,12_0_4:0.00000007):0.00000044,12_0_2:0.00000496):0.00001245):0.00021514,(((5_0_2:0.00000022,(5_0_4:0.00000248,5_0_1:0.00000237):0.00000226):0.00000336,(5_0_5:0.00001056,((5_0_3:0.00000017,5_0_0:0.00000017):0.00000502,5_0_6:0.00000527):0.00000014):0.00000794):0.00054444,((((6_0_2:0.00000387,6_0_1:0.00000239):0.00000098,6_0_6:0.00000307):0.00000315,(6_0_5:0.00000237,6_0_0:0.00000075):0.00001411):0.00005598,(6_0_4:0.00000027,6_0_3:0.00000333):0.00006577):0.00012850):0.00003234):0.00007051,((13_0_4:0.00015627,((13_0_0:0.00000054,13_0_6:0.00000081):0.00006358,(13_0_1:0.00000048,((13_0_2:0.00000047,13_0_5:0.00000321):0.00000343,13_0_3:0.00000907):0.00000005):0.00001612):0.00009380):0.00043472,(((10_0_3:0.00000074,10_0_5:0.00000431):0.00000760,10_0_4:0.00000019):0.00001234,((10_0_6:0.00000511,10_0_0:0.00000630):0.00000357,(10_0_2:0.00000152,10_0_1:0.00000157):0.00000453):0.00000316):0.00008751):0.00023973):0.00002954,(((14_0_6:0.00000036,((14_0_1:0.00000002,14_0_4:0.00000000):0.00000962,14_0_2:0.00000533):0.00000259):0.00003044,((14_0_5:0.00000006,14_0_3:0.00000283):0.00000333,14_0_0:0.00001384):0.00000183):0.00002461,((((11_0_3:0.00000063,11_0_6:0.00000007):0.00000024,11_0_1:0.00000797):0.00000700,(11_0_5:0.00004580,(11_0_2:0.00000042,11_0_4:0.00000078):0.00001821):0.00003640):0.00000718,11_0_0:0.00006636):0.00013206):0.00015793):0.00005013):0.00530763,((((((7_0_6:0.00000082,7_0_4:0.00000092):0.00000496,7_0_0:0.00000125):0.00000005,(7_0_2:0.00001237,7_0_3:0.00000152):0.00000423):0.00005083,(7_0_5:0.00000015,7_0_1:0.00000003):0.00005010):0.00215272,((9_0_6:0.00000509,(9_0_0:0.00000245,(9_0_5:0.00000114,(9_0_2:0.00000024,9_0_4:0.00000170):0.00000065):0.00000050):0.00000064):0.00001332,(9_0_1:0.00002588,9_0_3:0.00003089):0.00003422):0.00265180):0.00004512,((4_0_5:0.00000120,(4_0_4:0.00000017,(4_0_1:0.00000003,4_0_2:0.00000137):0.00000044):0.00000643):0.00006655,((4_0_3:0.00000006,4_0_0:0.00000023):0.00000345,4_0_6:0.00000460):0.00000769):0.00041274):0.00061641):0.06080179,((((1_0_6:0.00000073,1_0_2:0.00000100):0.00005196,((1_0_0:0.00000488,(1_0_1:0.00000667,1_0_5:0.00000249):0.00000008):0.00000076,(1_0_3:0.00000048,1_0_4:0.00000037):0.00000206):0.00000722):0.00004947,((((2_0_6:0.00000108,2_0_4:0.00000185):0.00000194,2_0_5:0.00000166):0.00001274,(2_0_3:0.00000207,2_0_1:0.00000017):0.00002109):0.00000408,(2_0_0:0.00000064,2_0_2:0.00000163):0.00003569):0.00029670):0.00033115,(3_0_5:0.00001125,(3_0_0:0.00003241,((3_0_3:0.00000422,3_0_2:0.00001667):0.00000038,(3_0_1:0.00000198,(3_0_4:0.00000091,3_0_6:0.00000070):0.00000020):0.00000284):0.00000737):0.00000057):0.00237501):0.01488269):0.01177800,0_0_0:0.00743257);

data_05	T05	99	1	1	0.175342	0.0811816	0.148534	(((((((1_0_5:0.00000104,1_0_3:0.00000012):0.00000190,1_0_0:0.00000118):0.00000991,(1_0_1:0.00000027,((1_0_2:0.00000000,1_0_4:0.00000000):0.00000010,1_0_6:0.00000258):0.00000025):0.00000909):0.00050232,((2_0_0:0.00000069,2_0_3:0.00000033):0.00000602,(2_0_2:0.00002224,((2_0_4:0.00000012,2_0_6:0.00000003):0.00000267,(2_0_5:0.00000005,2_0_1:0.00000016):0.00000442):0.00000011):0.00000406):0.00018373):0.00045077,((3_0_2:0.00000022,(3_0_3:0.00000756,3_0_1:0.00000234):0.00000495):0.00005447,((3_0_6:0.00000661,3_0_5:0.00000414):0.00004922,(3_0_4:0.00000006,3_0_0:0.00000002):0.00002822):0.00000471):0.00034170):0.02437712,((((8_0_0:0.00000477,(8_0_3:0.00000629,(8_0_5:0.00000245,((8_0_2:0.00000002,8_0_4:0.00000009):0.00000115,8_0_6:0.00000012):0.00000091):0.00000388):0.00003408):0.00000164,8_0_1:0.00000356):0.00044118,((((12_0_5:0.00000499,12_0_4:0.00000523):0.00000353,((12_0_3:0.00000489,((12_0_2:0.00000017,12_0_0:0.00000062):0.00000035,12_0_6:0.00000101):0.00000173):0.00001889,12_0_1:0.00004082):0.00001152):0.00023506,((5_0_0:0.00006018,((((5_0_4:0.00000008,5_0_1:0.00000111):0.00000102,5_0_6:0.00000015):0.00000188,(5_0_5:0.00000103,5_0_3:0.00000056):0.00000006):0.00000492,5_0_2:0.00000038):0.00000133):0.00005924,((6_0_5:0.00000347,6_0_3:0.00000135):0.00002316,(((6_0_0:0.00000568,6_0_4:0.00000076):0.00000007,6_0_2:0.00000546):0.00000194,(6_0_1:0.00000648,6_0_6:0.00001448):0.00000627):0.00000106):0.00011491):0.00002578):0.00014721,(((((14_0_0:0.00000077,14_0_3:0.00000245):0.00000247,((14_0_1:0.00000040,14_0_6:0.00000019):0.00000027,(14_0_5:0.00000306,14_0_4:0.00000076):0.00000081):0.00004261):0.00000001,14_0_2:0.00000272):0.00046552,((11_0_1:0.00005251,((11_0_3:0.00000107,11_0_5:0.00000022):0.00000022,11_0_2:0.00000358):0.00001571):0.00001327,(11_0_0:0.00000238,(11_0_6:0.00000147,11_0_4:0.00000073):0.00001783):0.00000600):0.00001271):0.00000173,(((10_0_1:0.00000571,(10_0_0:0.00000039,10_0_4:0.00000027):0.00000582):0.00001636,((10_0_2:0.00000195,(10_0_5:0.00000119,10_0_3:0.00000228):0.00000927):0.00000015,10_0_6:0.00000210):0.00001745):0.00029814,(((13_0_3:0.00000064,13_0_4:0.00000009):0.00000109,13_0_1:0.00001553):0.00002027,((13_0_2:0.00001827,(13_0_0:0.00000296,13_0_6:0.00000050):0.00000354):0.00000218,13_0_5:0.00000093):0.00001156):0.00042875):0.00003630):0.00001369):0.00013476):0.00031147,((7_0_4:0.00003679,(7_0_0:0.00000900,(7_0_3:0.00000138,((7_0_1:0.00000015,7_0_5:0.00000002):0.00001225,(7_0_2:0.00000876,7_0_6:0.00000086):0.00000105):0.00000257):0.00000240):0.00009343):0.00407347,((9_0_5:0.00001764,((((9_0_1:0.00000001,9_0_2:0.00000001):0.00000290,(9_0_4:0.00000216,9_0_0:0.00000179):0.00000086):0.00000049,9_0_6:0.00000461):0.00000107,9_0_3:0.00000042):0.00000597):0.00223901,((4_0_4:0.00000542,4_0_0:0.00002213):0.00000636,(4_0_5:0.00003260,((4_0_3:0.00000035,4_0_6:0.00000627):0.00000033,(4_0_2:0.00000171,4_0_1:0.00000008):0.00001687):0.00000373):0.00000254):0.00153452):0.00000111):0.00009046):0.01448763):0.05583854,0_0_0:0.06735228);

data_06	T06	99	1	1	0.0615837	0.0330883	0.0457273	(0_0_0:0.01263893,((((((9_0_5:0.00009527,9_0_6:0.00002604):0.00000602,((9_0_3:0.00000871,(9_0_1:0.00000094,9_0_4:0.00000006):0.00000042):0.00001500,(9_0_0:0.00000010,9_0_2:0.00001724):0.00011277):0.00010690):0.00152604,(7_0_5:0.00002650,((7_0_4:0.00000063,((7_0_6:0.00000246,7_0_1:0.00000128):0.00000184,7_0_2:0.00000122):0.00000013):0.00003694,(7_0_0:0.00001345,7_0_3:0.00000265):0.00000063):0.00001742):0.00329135):0.00000936,(4_0_0:0.00004976,(4_0_4:0.00002853,(4_0_1:0.00000818,((4_0_6:0.00000004,4_0_3:0.00000007):0.00000033,(4_0_2:0.00001664,4_0_5:0.00000010):0.00000044):0.00000106):0.00000856):0.00000118):0.00113319):0.00090262,(((((14_0_4:0.00000242,((14_0_2:0.00000254,14_0_5:0.00000383):0.00002077,(14_0_6:0.00000701,(14_0_1:0.00000936,(14_0_0:0.00000604,14_0_3:0.00000327):0.00000226):0.00000515):0.00000906):0.00008551):0.00005204,(11_0_5:0.00000463,(((11_0_2:0.00000005,11_0_1:0.00000049):0.00000214,11_0_4:0.00000152):0.00000036,((11_0_0:0.00000979,11_0_3:0.00000461):0.00000028,11_0_6:0.00000002):0.00000054):0.00003794):0.00025803):0.00002011,((10_0_6:0.00000045,((10_0_3:0.00000005,10_0_5:0.00002707):0.00000092,((10_0_2:0.00000899,(10_0_4:0.00000359,10_0_1:0.00000664):0.00000111):0.00000251,10_0_0:0.00000400):0.00000944):0.00002471):0.00010617,(((13_0_3:0.00000040,13_0_4:0.00000116):0.00000083,(13_0_6:0.00000200,13_0_2:0.00000027):0.00000048):0.00001023,(13_0_1:0.00002966,(13_0_0:0.00000021,13_0_5:0.00000002):0.00000502):0.00000041):0.00005814):0.00004605):0.00001298,(((12_0_4:0.00000027,((12_0_3:0.00000026,12_0_6:0.00000037):0.00000155,12_0_2:0.00000055):0.00000051):0.00001357,((12_0_5:0.00000479,12_0_0:0.00000128):0.00000652,12_0_1:0.00002646):0.00000346):0.00004827,(((((5_0_3:0.00000059,5_0_0:0.00000008):0.00000382,5_0_5:0.00000222):0.00000102,5_0_4:0.00001617):0.00000289,((5_0_1:0.00001380,5_0_6:0.00000162):0.00000022,5_0_2:0.00001313):0.00001802):0.00001806,(6_0_6:0.00000314,(6_0_3:0.00000249,((6_0_4:0.00000038,6_0_0:0.00000071):0.00002038,(6_0_5:0.00000240,(6_0_1:0.00000039,6_0_2:0.00000160):0.00000000):0.00000249):0.00000008):0.00000275):0.00071114):0.00002752):0.00003553):0.00008367,(((8_0_5:0.00000553,8_0_1:0.00000224):0.00000019,(8_0_0:0.00003723,(8_0_6:0.00000718,8_0_4:0.00000333):0.00002734):0.00000106):0.00000058,(8_0_2:0.00000027,8_0_3:0.00000126):0.00002214):0.00047320):0.00059285):0.00448732,(((3_0_3:0.00001617,3_0_6:0.00000144):0.00000044,((3_0_1:0.00000168,3_0_4:0.00001358):0.00000149,(3_0_5:0.00000003,(3_0_0:0.00000077,3_0_2:0.00000008):0.00000239):0.00000332):0.00000440):0.00047556,((((1_0_6:0.00000363,1_0_0:0.00000024):0.00000145,1_0_1:0.00000046):0.00005467,((1_0_2:0.00000001,1_0_4:0.00000001):0.00000487,(1_0_3:0.00000452,1_0_5:0.00000335):0.00000984):0.00002758):0.00006240,(((2_0_0:0.00000277,2_0_1:0.00000443):0.00000322,(2_0_2:0.00000090,(2_0_5:0.00000062,2_0_6:0.00000018):0.00000014):0.00000439):0.00001010,(2_0_4:0.00001231,2_0_3:0.00000426):0.00000744):0.00010491):0.00036022):0.02268441):0.00990889);

data_07	T07	99	1	1	0.112006	0.0447975	0.086625	(0_0_0:0.04479751,(((((8_0_3:0.00000122,((8_0_4:0.00000140,8_0_6:0.00000066):0.00001080,((8_0_5:0.00001426,8_0_0:0.00000797):0.00000014,8_0_2:0.00000085):0.00000106):0.00001975):0.00000301,8_0_1:0.00003960):0.00017429,((((14_0_4:0.00002857,(14_0_3:0.00000019,(14_0_1:0.00000029,14_0_5:0.00000008):0.00000026):0.00002207):0.00004173,((14_0_6:0.00000006,14_0_2:0.00000000):0.00000011,14_0_0:0.00000189):0.00015947):0.00009999,((11_0_1:0.00000002,11_0_0:0.00000011):0.00001220,((11_0_4:0.00000385,(11_0_2:0.00001415,11_0_3:0.00000706):0.00000313):0.00001588,(11_0_6:0.00000639,11_0_5:0.00000284):0.00000891):0.00001691):0.00032800):0.00007005,(((((5_0_6:0.00000445,5_0_5:0.00000089):0.00000160,((5_0_3:0.00000256,5_0_2:0.00000172):0.00001777,((5_0_0:0.00000273,5_0_4:0.00000175):0.00000889,5_0_1:0.00000533):0.00000824):0.00000242):0.00048023,(((6_0_2:0.00000115,6_0_4:0.00000365):0.00000045,(6_0_3:0.00002014,(6_0_6:0.00000329,6_0_5:0.00000109):0.00000844):0.00000345):0.00000268,(6_0_0:0.00001260,6_0_1:0.00000227):0.00002611):0.00060373):0.00001546,((((12_0_4:0.00000025,12_0_3:0.00000035):0.00000009,12_0_5:0.00000015):0.00000102,(12_0_1:0.00000193,(12_0_2:0.00000203,12_0_0:0.00000008):0.00000082):0.00001972):0.00000047,12_0_6:0.00006078):0.00004668):0.00014556,(((10_0_3:0.00000154,(10_0_0:0.00000505,10_0_4:0.00000095):0.00000005):0.00000154,(10_0_6:0.00000453,((10_0_2:0.00000062,10_0_1:0.00000017):0.00000009,10_0_5:0.00000181):0.00000519):0.00001315):0.00092660,(((13_0_1:0.00000381,13_0_3:0.00000799):0.00004343,(13_0_4:0.00000628,13_0_5:0.00000109):0.00000596):0.00000639,((13_0_2:0.00000050,13_0_6:0.00000000):0.00000008,13_0_0:0.00000016):0.00001371):0.00008125):0.00019520):0.00000934):0.00022142):0.00382031,((((4_0_0:0.00001043,(4_0_1:0.00000131,4_0_2:0.00001572):0.00000004):0.00000604,(((4_0_5:0.00000062,4_0_4:0.00000267):0.00000033,4_0_3:0.00000226):0.00000028,4_0_6:0.00000464):0.00001331):0.00068443,((7_0_3:0.00001620,((7_0_6:0.00000287,7_0_1:0.00000101):0.00001449,(7_0_2:0.00000945,7_0_4:0.00000245):0.00000016):0.00005450):0.00001613,(7_0_5:0.00000377,7_0_0:0.00000222):0.00000861):0.00018315):0.00007779,((9_0_4:0.00001275,(9_0_1:0.00000145,(((9_0_3:0.00000339,9_0_2:0.00000038):0.00000039,9_0_6:0.00000085):0.00000354,9_0_0:0.00000004):0.00000153):0.00000038):0.00001583,9_0_5:0.00002492):0.00057089):0.00048993):0.01321212,((((3_0_4:0.00000470,3_0_0:0.00000003):0.00001925,(3_0_2:0.00000257,(3_0_3:0.00000050,3_0_1:0.00000060):0.00000134):0.00000162):0.00001067,(3_0_6:0.00000111,3_0_5:0.00000076):0.00001999):0.00159963,((((2_0_5:0.00000358,2_0_2:0.00000073):0.00003051,(2_0_0:0.00000176,(2_0_6:0.00000022,2_0_1:0.00000042):0.00000654):0.00003142):0.00000167,(2_0_3:0.00000208,2_0_4:0.00000120):0.00007517):0.00004402,((1_0_2:0.00000755,(((1_0_6:0.00000408,1_0_3:0.00000004):0.00000013,1_0_0:0.00000227):0.00000034,1_0_4:0.00000123):0.00000009):0.00003301,(1_0_5:0.00001465,1_0_1:0.00000010):0.00000218):0.00016485):0.00179666):0.03926876):0.00055667);

data_08	T08	99	1	1	0.166792	0.141314	0.144288	((((((((2_0_6:0.00000551,(2_0_3:0.00000035,2_0_2:0.00000001):0.00000559):0.00000031,2_0_4:0.00000439):0.00000194,2_0_0:0.00000059):0.00002575,(2_0_5:0.00000001,2_0_1:0.00000002):0.00000099):0.00068820,((1_0_3:0.00000560,(1_0_0:0.00000323,1_0_2:0.00000997):0.00000260):0.00002033,((1_0_1:0.00000039,1_0_6:0.00000010):0.00007444,(1_0_4:0.00000231,1_0_5:0.00002927):0.00000067):0.00005385):0.00014969):0.00062888,((3_0_4:0.00000225,(3_0_2:0.00000107,3_0_3:0.00000188):0.00000012):0.00000371,(((3_0_0:0.00000022,3_0_6:0.00000065):0.00001487,3_0_1:0.00000363):0.00000026,3_0_5:0.00000567):0.00000083):0.00104722):0.02522724,(((((4_0_6:0.00000125,4_0_0:0.00000110):0.00005493,(4_0_3:0.00001249,(4_0_2:0.00000233,(4_0_4:0.00000052,(4_0_1:0.00000020,4_0_5:0.00000024):0.00000094):0.00000347):0.00000488):0.00001675):0.00006069,((9_0_0:0.00000533,9_0_6:0.00000387):0.00000738,(9_0_4:0.00009101,((9_0_5:0.00000059,9_0_2:0.00000011):0.00000259,(9_0_3:0.00000074,9_0_1:0.00000030):0.00000714):0.00011446):0.00001035):0.00052511):0.00003090,(((7_0_5:0.00000043,(7_0_4:0.00000027,7_0_0:0.00000163):0.00000010):0.00003027,(7_0_3:0.00000873,7_0_6:0.00000359):0.00000407):0.00004245,(7_0_2:0.00001104,7_0_1:0.00005369):0.00000016):0.00361587):0.00142655,((((((12_0_6:0.00000027,12_0_2:0.00000121):0.00000478,((12_0_4:0.00000002,12_0_0:0.00000022):0.00000040,(12_0_5:0.00000005,12_0_1:0.00000035):0.00000020):0.00000231):0.00000327,12_0_3:0.00000065):0.00023291,((((6_0_0:0.00000446,6_0_4:0.00000882):0.00000087,6_0_2:0.00000076):0.00001283,(6_0_6:0.00000838,(6_0_5:0.00000636,(6_0_3:0.00000089,6_0_1:0.00000031):0.00000066):0.00000083):0.00000232):0.00104948,((5_0_0:0.00001075,(5_0_3:0.00000391,(5_0_1:0.00000015,5_0_6:0.00000075):0.00000269):0.00000238):0.00000281,(5_0_5:0.00009936,(5_0_4:0.00000243,5_0_2:0.00000004):0.00001646):0.00000160):0.00019462):0.00000740):0.00001510,(((((13_0_3:0.00000337,13_0_4:0.00001597):0.00000437,((13_0_0:0.00000185,13_0_6:0.00000081):0.00001657,(13_0_2:0.00000147,13_0_5:0.00000016):0.00001694):0.00000231):0.00004928,13_0_1:0.00011832):0.00014777,((10_0_5:0.00000332,(10_0_0:0.00000368,10_0_1:0.00000016):0.00000688):0.00029005,(10_0_6:0.00011528,(10_0_3:0.00000004,(10_0_4:0.00000082,10_0_2:0.00000024):0.00000164):0.00001374):0.00000426):0.00019628):0.00006198,(((11_0_1:0.00000052,11_0_4:0.00000529):0.00020719,((11_0_5:0.00001597,((11_0_3:0.00000461,11_0_6:0.00000475):0.00000014,11_0_0:0.00000034):0.00000316):0.00005641,11_0_2:0.00004714):0.00006979):0.00000229,(((14_0_5:0.00000027,14_0_2:0.00000005):0.00000605,(14_0_1:0.00000116,14_0_0:0.00000163):0.00000532):0.00004132,((14_0_4:0.00000355,14_0_3:0.00000860):0.00000210,14_0_6:0.00001960):0.00003155):0.00102233):0.00000215):0.00000128):0.00027012,(((8_0_6:0.00000391,8_0_0:0.00000143):0.00000722,8_0_3:0.00004745):0.00000400,(((8_0_2:0.00000079,8_0_5:0.00000009):0.00000089,8_0_4:0.00000004):0.00000059,8_0_1:0.00001456):0.00000881):0.00004526):0.00107660):0.00907132):0.11473573,0_0_0:0.00297357);

data_09	T09	99	1	1	0.134701	0.10463	0.111032	(0_0_0:0.00640259,((((((1_0_6:0.00000100,(1_0_3:0.00000093,1_0_5:0.00000037):0.00000141):0.00000664,((1_0_2:0.00000216,1_0_0:0.00000298):0.00000322,1_0_1:0.00000963):0.00000501):0.00000315,1_0_4:0.00006902):0.00045058,(2_0_1:0.00003464,((((2_0_4:0.00000229,2_0_2:0.00000160):0.00000011,2_0_3:0.00000094):0.00000004,2_0_6:0.00000831):0.00000242,(2_0_5:0.00000003,2_0_0:0.00000177):0.00002206):0.00000062):0.00000764):0.00174987,(((3_0_5:0.00000122,3_0_1:0.00000195):0.00000156,3_0_3:0.00000391):0.00001220,((3_0_4:0.00000008,3_0_6:0.00000106):0.00000272,(3_0_0:0.00000342,3_0_2:0.00000087):0.00001206):0.00000227):0.00080621):0.02104322,((((8_0_6:0.00000008,8_0_1:0.00000189):0.00001989,((8_0_5:0.00000005,8_0_0:0.00000031):0.00000449,(8_0_3:0.00000560,(8_0_4:0.00000296,8_0_2:0.00000273):0.00002240):0.00001608):0.00000604):0.00064846,((((13_0_1:0.00000061,(13_0_0:0.00000010,13_0_2:0.00000061):0.00000189):0.00000891,(((13_0_6:0.00000113,13_0_5:0.00000062):0.00000166,13_0_3:0.00001116):0.00000031,13_0_4:0.00000186):0.00000317):0.00010984,((10_0_5:0.00000104,(10_0_6:0.00000149,10_0_3:0.00000030):0.00000212):0.00001932,((10_0_1:0.00000164,10_0_2:0.00000030):0.00000803,(10_0_0:0.00000158,10_0_4:0.00000004):0.00001846):0.00003292):0.00007316):0.00011451,((((12_0_6:0.00000518,12_0_5:0.00000107):0.00000129,((12_0_4:0.00000211,((12_0_3:0.00000054,12_0_0:0.00000065):0.00000006,12_0_2:0.00000034):0.00000087):0.00000172,12_0_1:0.00000274):0.00000126):0.00039119,((((6_0_2:0.00000066,6_0_1:0.00000099):0.00009437,6_0_6:0.00006956):0.00000006,(((6_0_5:0.00000026,6_0_0:0.00000052):0.00000166,6_0_3:0.00000923):0.00000340,6_0_4:0.00002877):0.00000372):0.00108110,((5_0_4:0.00000547,(5_0_3:0.00000082,(5_0_1:0.00000072,5_0_5:0.00000071):0.00000004):0.00000156):0.00003225,((5_0_2:0.00000111,5_0_0:0.00000001):0.00000024,5_0_6:0.00000010):0.00008615):0.00015347):0.00013795):0.00009433,((11_0_6:0.00000119,((11_0_1:0.00000994,(11_0_3:0.00000301,(11_0_2:0.00000124,11_0_5:0.00000039):0.00000007):0.00000145):0.00001120,(11_0_4:0.00003221,11_0_0:0.00000459):0.00000769):0.00000069):0.00044306,(14_0_3:0.00004506,(((14_0_1:0.00000192,14_0_6:0.00000171):0.00001200,(14_0_5:0.00000005,(14_0_2:0.00000025,14_0_4:0.00000010):0.00000020):0.00002493):0.00000011,14_0_0:0.00000590):0.00003800):0.00086660):0.00018834):0.00006187):0.00000074):0.00167787,((((4_0_2:0.00000134,4_0_0:0.00000504):0.00000596,(4_0_3:0.00000002,4_0_6:0.00000002):0.00002606):0.00000029,((4_0_4:0.00000062,4_0_1:0.00000313):0.00000040,4_0_5:0.00000619):0.00001335):0.00190832,(((7_0_3:0.00000105,7_0_0:0.00000396):0.00000178,((7_0_2:0.00000408,((7_0_4:0.00000026,7_0_6:0.00000028):0.00000166,7_0_1:0.00000604):0.00000115):0.00000522,7_0_5:0.00001672):0.00001877):0.00042025,((9_0_3:0.00000436,9_0_1:0.00000742):0.00000621,(((9_0_0:0.00000090,9_0_6:0.00000251):0.00000157,9_0_5:0.00000273):0.00000152,(9_0_4:0.00000007,9_0_2:0.00000003):0.00000192):0.00000279):0.00160329):0.00000483):0.00056109):0.01123839):0.08131702);

data_10	T10	99	1	1	0.110391	0.0711353	0.0888268	(((((8_0_0:0.00000979,((((8_0_3:0.00000923,8_0_5:0.00000373):0.00000051,8_0_2:0.00001403):0.00000042,(8_0_4:0.00000166,8_0_1:0.00000412):0.00000023):0.00000909,8_0_6:0.00000698):0.00003334):0.00042580,(((((12_0_3:0.00001037,12_0_4:0.00003089):0.00000796,((12_0_2:0.00000016,((12_0_6:0.00000074,12_0_1:0.00000153):0.00000064,12_0_0:0.00000029):0.00000035):0.00000037,12_0_5:0.00000887):0.00002413):0.00021915,((((5_0_3:0.00000012,(5_0_1:0.00000017,5_0_6:0.00000015):0.00000000):0.00000516,(5_0_2:0.00000268,(5_0_0:0.00001272,5_0_4:0.00000129):0.00000970):0.00000224):0.00003016,5_0_5:0.00000445):0.00022628,((6_0_0:0.00001419,(6_0_5:0.00000138,6_0_6:0.00000024):0.00002521):0.00000372,((6_0_3:0.00000463,(6_0_2:0.00000016,6_0_4:0.00000078):0.00000048):0.00001460,6_0_1:0.00002474):0.00005357):0.00042110):0.00001592):0.00015047,((((11_0_3:0.00000104,11_0_4:0.00000112):0.00001502,11_0_0:0.00000147):0.00005335,(((11_0_5:0.00000043,11_0_1:0.00000001):0.00000128,11_0_2:0.00000027):0.00000303,11_0_6:0.00000363):0.00001373):0.00141550,(((14_0_0:0.00000011,14_0_5:0.00000032):0.00000043,14_0_4:0.00000177):0.00000188,(14_0_3:0.00000273,((14_0_1:0.00000212,14_0_2:0.00000175):0.00000014,14_0_6:0.00000622):0.00000023):0.00000297):0.00022431):0.00010810):0.00000097,(((13_0_6:0.00000080,13_0_5:0.00000234):0.00001749,((((13_0_2:0.00000156,13_0_3:0.00000067):0.00000030,13_0_4:0.00000013):0.00001366,13_0_0:0.00000754):0.00001383,13_0_1:0.00001050):0.00000030):0.00037672,(10_0_3:0.00000074,(((10_0_0:0.00000496,10_0_4:0.00000477):0.00002187,(10_0_6:0.00000104,10_0_1:0.00000603):0.00000185):0.00000225,(10_0_2:0.00000329,10_0_5:0.00000281):0.00001725):0.00000037):0.00049370):0.00004713):0.00000340):0.00101297,(((4_0_1:0.00001118,((4_0_3:0.00000050,4_0_0:0.00000040):0.00001675,4_0_6:0.00000579):0.00000481):0.00000274,(4_0_2:0.00000007,(4_0_5:0.00000080,4_0_4:0.00000004):0.00000018):0.00002957):0.00132695,(((9_0_0:0.00000053,9_0_3:0.00000167):0.00003609,(((9_0_5:0.00001369,9_0_2:0.00001629):0.00000008,(9_0_6:0.00000063,9_0_1:0.00001089):0.00000087):0.00000870,9_0_4:0.00000007):0.00000898):0.00007332,((7_0_4:0.00001674,(7_0_2:0.00000997,7_0_1:0.00002218):0.00000255):0.00000609,((7_0_5:0.00000775,7_0_6:0.00000478):0.00000054,(7_0_3:0.00000070,7_0_0:0.00000010):0.00000207):0.00001638):0.00107399):0.00002121):0.00101221):0.06813240,((((2_0_2:0.00001102,(2_0_1:0.00000199,(2_0_4:0.00000305,(2_0_0:0.00000181,2_0_5:0.00000167):0.00000005):0.00001922):0.00000518):0.00001399,(2_0_6:0.00000005,2_0_3:0.00000062):0.00007999):0.00036114,(((((1_0_5:0.00000173,1_0_4:0.00000250):0.00000099,(1_0_2:0.00000020,1_0_1:0.00000010):0.00000608):0.00000018,1_0_0:0.00000286):0.00001147,1_0_6:0.00000422):0.00000059,1_0_3:0.00000221):0.00001684):0.00147205,((3_0_1:0.00000027,3_0_0:0.00000025):0.00001388,(((3_0_3:0.00001308,3_0_4:0.00000483):0.00000085,(3_0_6:0.00000027,3_0_2:0.00000025):0.00001009):0.00000548,3_0_5:0.00000219):0.00000005):0.00306451):0.00948353):0.00039252,0_0_0:0.01769148);
