"","Description","Ind1","Ind2","Ind3","Ind4","Ind5","Ind6","Ind7","Ind8","Ind9","Ind10","Ind11","Ind12","Ind13","Ind14","Ind15","Ind16","Ind17","Ind18","Ind19","Ind20","Ind21","Ind22","Ind23","Ind24","Ind25"
"Ind1","4_0_1",-1,0,0,0,0,0,0,0,0,0,0,0,0,0,0,0,0,0,0,0,0,0,0,0,0
"Ind2","4_0_0",0,-1,0,0,0,0,0,0,0,0,0,0,0,0,0,0,0,0,0,0,0,0,0,0,0
"Ind3","7_0_0",24,24,-1,0,0,0,0,0,0,0,0,0,0,0,0,0,0,0,0,0,0,0,0,0,0
"Ind4","7_0_1",24,24,0,-1,0,0,0,0,0,0,0,0,0,0,0,0,0,0,0,0,0,0,0,0,0
"Ind5","3_0_1",25,25,9,9,-1,0,0,0,0,0,0,0,0,0,0,0,0,0,0,0,0,0,0,0,0
"Ind6","3_0_0",24,24,8,8,1,-1,0,0,0,0,0,0,0,0,0,0,0,0,0,0,0,0,0,0,0
"Ind7","10_0_0",38,38,32,32,31,32,-1,0,0,0,0,0,0,0,0,0,0,0,0,0,0,0,0,0,0
"Ind8","10_0_1",38,38,32,32,31,32,0,-1,0,0,0,0,0,0,0,0,0,0,0,0,0,0,0,0,0
"Ind9","11_0_1",45,45,39,39,38,37,43,43,-1,0,0,0,0,0,0,0,0,0,0,0,0,0,0,0,0
"Ind10","11_0_0",45,45,39,39,38,37,43,43,0,-1,0,0,0,0,0,0,0,0,0,0,0,0,0,0,0
"Ind11","8_0_0",48,48,40,40,41,40,46,46,45,45,-1,0,0,0,0,0,0,0,0,0,0,0,0,0,0
"Ind12","8_0_1",48,48,40,40,41,40,46,46,45,45,0,-1,0,0,0,0,0,0,0,0,0,0,0,0,0
"Ind13","9_0_1",51,51,45,45,46,45,51,51,44,44,21,21,-1,0,0,0,0,0,0,0,0,0,0,0,0
"Ind14","9_0_0",51,51,45,45,46,45,51,51,44,44,21,21,0,-1,0,0,0,0,0,0,0,0,0,0,0
"Ind15","2_0_1",43,43,37,37,38,37,43,43,36,36,13,13,14,14,-1,0,0,0,0,0,0,0,0,0,0
"Ind16","2_0_0",43,43,37,37,38,37,43,43,36,36,13,13,14,14,0,-1,0,0,0,0,0,0,0,0,0
"Ind17","12_0_1",47,47,41,41,42,41,45,45,38,38,27,27,24,24,20,20,-1,0,0,0,0,0,0,0,0
"Ind18","12_0_0",47,47,41,41,42,41,45,45,38,38,27,27,24,24,20,20,0,-1,0,0,0,0,0,0,0
"Ind19","5_0_0",39,39,39,39,40,39,47,47,38,38,43,43,42,42,34,34,38,38,-1,0,0,0,0,0,0
"Ind20","5_0_1",39,39,39,39,40,39,47,47,38,38,43,43,42,42,34,34,38,38,0,-1,0,0,0,0,0
"Ind21","6_0_1",37,37,35,35,36,35,43,43,36,36,41,41,42,42,34,34,36,36,14,14,-1,0,0,0,0
"Ind22","6_0_0",37,37,35,35,36,35,43,43,36,36,41,41,42,42,34,34,36,36,14,14,0,-1,0,0,0
"Ind23","1_0_0",58,58,52,52,55,54,54,54,49,49,56,56,55,55,47,47,47,47,53,53,49,49,-1,0,0
"Ind24","1_0_1",58,58,52,52,55,54,54,54,49,49,56,56,55,55,47,47,47,47,53,53,49,49,0,-1,0
"Ind25","0_0_0",115,115,105,105,106,107,110,110,112,112,117,117,114,114,108,108,104,104,112,112,104,104,101,101,-1
