"","Description","Ind1","Ind2","Ind3","Ind4","Ind5","Ind6","Ind7","Ind8","Ind9","Ind10","Ind11","Ind12","Ind13","Ind14","Ind15","Ind16","Ind17","Ind18","Ind19","Ind20","Ind21","Ind22","Ind23","Ind24","Ind25","Ind26","Ind27","Ind28","Ind29","Ind30","Ind31","Ind32","Ind33","Ind34","Ind35","Ind36","Ind37","Ind38","Ind39","Ind40","Ind41","Ind42","Ind43","Ind44","Ind45","Ind46","Ind47","Ind48","Ind49","Ind50","Ind51","Ind52","Ind53","Ind54","Ind55","Ind56","Ind57","Ind58","Ind59","Ind60","Ind61","Ind62","Ind63","Ind64","Ind65","Ind66","Ind67","Ind68","Ind69","Ind70","Ind71","Ind72","Ind73","Ind74","Ind75","Ind76","Ind77","Ind78","Ind79","Ind80","Ind81","Ind82","Ind83","Ind84","Ind85","Ind86","Ind87","Ind88","Ind89","Ind90","Ind91","Ind92","Ind93","Ind94","Ind95","Ind96","Ind97","Ind98","Ind99","Ind100","Ind101","Ind102","Ind103","Ind104","Ind105","Ind106","Ind107","Ind108","Ind109","Ind110","Ind111","Ind112","Ind113","Ind114","Ind115","Ind116","Ind117","Ind118"
"Ind1","1_0_0",-1,0,0,0,0,0,0,0,0,0,0,0,0,0,0,0,0,0,0,0,0,0,0,0,0,0,0,0,0,0,0,0,0,0,0,0,0,0,0,0,0,0,0,0,0,0,0,0,0,0,0,0,0,0,0,0,0,0,0,0,0,0,0,0,0,0,0,0,0,0,0,0,0,0,0,0,0,0,0,0,0,0,0,0,0,0,0,0,0,0,0,0,0,0,0,0,0,0,0,0,0,0,0,0,0,0,0,0,0,0,0,0,0,0,0,0,0,0
"Ind2","1_0_1",0,-1,0,0,0,0,0,0,0,0,0,0,0,0,0,0,0,0,0,0,0,0,0,0,0,0,0,0,0,0,0,0,0,0,0,0,0,0,0,0,0,0,0,0,0,0,0,0,0,0,0,0,0,0,0,0,0,0,0,0,0,0,0,0,0,0,0,0,0,0,0,0,0,0,0,0,0,0,0,0,0,0,0,0,0,0,0,0,0,0,0,0,0,0,0,0,0,0,0,0,0,0,0,0,0,0,0,0,0,0,0,0,0,0,0,0,0,0
"Ind3","1_0_5",0,0,-1,0,0,0,0,0,0,0,0,0,0,0,0,0,0,0,0,0,0,0,0,0,0,0,0,0,0,0,0,0,0,0,0,0,0,0,0,0,0,0,0,0,0,0,0,0,0,0,0,0,0,0,0,0,0,0,0,0,0,0,0,0,0,0,0,0,0,0,0,0,0,0,0,0,0,0,0,0,0,0,0,0,0,0,0,0,0,0,0,0,0,0,0,0,0,0,0,0,0,0,0,0,0,0,0,0,0,0,0,0,0,0,0,0,0,0
"Ind4","1_0_7",1,1,1,-1,0,0,0,0,0,0,0,0,0,0,0,0,0,0,0,0,0,0,0,0,0,0,0,0,0,0,0,0,0,0,0,0,0,0,0,0,0,0,0,0,0,0,0,0,0,0,0,0,0,0,0,0,0,0,0,0,0,0,0,0,0,0,0,0,0,0,0,0,0,0,0,0,0,0,0,0,0,0,0,0,0,0,0,0,0,0,0,0,0,0,0,0,0,0,0,0,0,0,0,0,0,0,0,0,0,0,0,0,0,0,0,0,0,0
"Ind5","1_0_3",1,1,1,0,-1,0,0,0,0,0,0,0,0,0,0,0,0,0,0,0,0,0,0,0,0,0,0,0,0,0,0,0,0,0,0,0,0,0,0,0,0,0,0,0,0,0,0,0,0,0,0,0,0,0,0,0,0,0,0,0,0,0,0,0,0,0,0,0,0,0,0,0,0,0,0,0,0,0,0,0,0,0,0,0,0,0,0,0,0,0,0,0,0,0,0,0,0,0,0,0,0,0,0,0,0,0,0,0,0,0,0,0,0,0,0,0,0,0
"Ind6","1_0_4",1,1,1,0,0,-1,0,0,0,0,0,0,0,0,0,0,0,0,0,0,0,0,0,0,0,0,0,0,0,0,0,0,0,0,0,0,0,0,0,0,0,0,0,0,0,0,0,0,0,0,0,0,0,0,0,0,0,0,0,0,0,0,0,0,0,0,0,0,0,0,0,0,0,0,0,0,0,0,0,0,0,0,0,0,0,0,0,0,0,0,0,0,0,0,0,0,0,0,0,0,0,0,0,0,0,0,0,0,0,0,0,0,0,0,0,0,0,0
"Ind7","1_0_2",1,1,1,0,0,0,-1,0,0,0,0,0,0,0,0,0,0,0,0,0,0,0,0,0,0,0,0,0,0,0,0,0,0,0,0,0,0,0,0,0,0,0,0,0,0,0,0,0,0,0,0,0,0,0,0,0,0,0,0,0,0,0,0,0,0,0,0,0,0,0,0,0,0,0,0,0,0,0,0,0,0,0,0,0,0,0,0,0,0,0,0,0,0,0,0,0,0,0,0,0,0,0,0,0,0,0,0,0,0,0,0,0,0,0,0,0,0,0
"Ind8","1_0_6",1,1,1,0,0,0,0,-1,0,0,0,0,0,0,0,0,0,0,0,0,0,0,0,0,0,0,0,0,0,0,0,0,0,0,0,0,0,0,0,0,0,0,0,0,0,0,0,0,0,0,0,0,0,0,0,0,0,0,0,0,0,0,0,0,0,0,0,0,0,0,0,0,0,0,0,0,0,0,0,0,0,0,0,0,0,0,0,0,0,0,0,0,0,0,0,0,0,0,0,0,0,0,0,0,0,0,0,0,0,0,0,0,0,0,0,0,0,0
"Ind9","1_0_8",1,1,1,0,0,0,0,0,-1,0,0,0,0,0,0,0,0,0,0,0,0,0,0,0,0,0,0,0,0,0,0,0,0,0,0,0,0,0,0,0,0,0,0,0,0,0,0,0,0,0,0,0,0,0,0,0,0,0,0,0,0,0,0,0,0,0,0,0,0,0,0,0,0,0,0,0,0,0,0,0,0,0,0,0,0,0,0,0,0,0,0,0,0,0,0,0,0,0,0,0,0,0,0,0,0,0,0,0,0,0,0,0,0,0,0,0,0,0
"Ind10","2_0_4",0,0,0,1,1,1,1,1,1,-1,0,0,0,0,0,0,0,0,0,0,0,0,0,0,0,0,0,0,0,0,0,0,0,0,0,0,0,0,0,0,0,0,0,0,0,0,0,0,0,0,0,0,0,0,0,0,0,0,0,0,0,0,0,0,0,0,0,0,0,0,0,0,0,0,0,0,0,0,0,0,0,0,0,0,0,0,0,0,0,0,0,0,0,0,0,0,0,0,0,0,0,0,0,0,0,0,0,0,0,0,0,0,0,0,0,0,0,0
"Ind11","2_0_5",0,0,0,1,1,1,1,1,1,0,-1,0,0,0,0,0,0,0,0,0,0,0,0,0,0,0,0,0,0,0,0,0,0,0,0,0,0,0,0,0,0,0,0,0,0,0,0,0,0,0,0,0,0,0,0,0,0,0,0,0,0,0,0,0,0,0,0,0,0,0,0,0,0,0,0,0,0,0,0,0,0,0,0,0,0,0,0,0,0,0,0,0,0,0,0,0,0,0,0,0,0,0,0,0,0,0,0,0,0,0,0,0,0,0,0,0,0,0
"Ind12","2_0_7",0,0,0,1,1,1,1,1,1,0,0,-1,0,0,0,0,0,0,0,0,0,0,0,0,0,0,0,0,0,0,0,0,0,0,0,0,0,0,0,0,0,0,0,0,0,0,0,0,0,0,0,0,0,0,0,0,0,0,0,0,0,0,0,0,0,0,0,0,0,0,0,0,0,0,0,0,0,0,0,0,0,0,0,0,0,0,0,0,0,0,0,0,0,0,0,0,0,0,0,0,0,0,0,0,0,0,0,0,0,0,0,0,0,0,0,0,0,0
"Ind13","2_0_2",0,0,0,1,1,1,1,1,1,0,0,0,-1,0,0,0,0,0,0,0,0,0,0,0,0,0,0,0,0,0,0,0,0,0,0,0,0,0,0,0,0,0,0,0,0,0,0,0,0,0,0,0,0,0,0,0,0,0,0,0,0,0,0,0,0,0,0,0,0,0,0,0,0,0,0,0,0,0,0,0,0,0,0,0,0,0,0,0,0,0,0,0,0,0,0,0,0,0,0,0,0,0,0,0,0,0,0,0,0,0,0,0,0,0,0,0,0,0
"Ind14","2_0_8",0,0,0,1,1,1,1,1,1,0,0,0,0,-1,0,0,0,0,0,0,0,0,0,0,0,0,0,0,0,0,0,0,0,0,0,0,0,0,0,0,0,0,0,0,0,0,0,0,0,0,0,0,0,0,0,0,0,0,0,0,0,0,0,0,0,0,0,0,0,0,0,0,0,0,0,0,0,0,0,0,0,0,0,0,0,0,0,0,0,0,0,0,0,0,0,0,0,0,0,0,0,0,0,0,0,0,0,0,0,0,0,0,0,0,0,0,0,0
"Ind15","2_0_1",0,0,0,1,1,1,1,1,1,0,0,0,0,0,-1,0,0,0,0,0,0,0,0,0,0,0,0,0,0,0,0,0,0,0,0,0,0,0,0,0,0,0,0,0,0,0,0,0,0,0,0,0,0,0,0,0,0,0,0,0,0,0,0,0,0,0,0,0,0,0,0,0,0,0,0,0,0,0,0,0,0,0,0,0,0,0,0,0,0,0,0,0,0,0,0,0,0,0,0,0,0,0,0,0,0,0,0,0,0,0,0,0,0,0,0,0,0,0
"Ind16","2_0_6",0,0,0,1,1,1,1,1,1,0,0,0,0,0,0,-1,0,0,0,0,0,0,0,0,0,0,0,0,0,0,0,0,0,0,0,0,0,0,0,0,0,0,0,0,0,0,0,0,0,0,0,0,0,0,0,0,0,0,0,0,0,0,0,0,0,0,0,0,0,0,0,0,0,0,0,0,0,0,0,0,0,0,0,0,0,0,0,0,0,0,0,0,0,0,0,0,0,0,0,0,0,0,0,0,0,0,0,0,0,0,0,0,0,0,0,0,0,0
"Ind17","2_0_3",0,0,0,1,1,1,1,1,1,0,0,0,0,0,0,0,-1,0,0,0,0,0,0,0,0,0,0,0,0,0,0,0,0,0,0,0,0,0,0,0,0,0,0,0,0,0,0,0,0,0,0,0,0,0,0,0,0,0,0,0,0,0,0,0,0,0,0,0,0,0,0,0,0,0,0,0,0,0,0,0,0,0,0,0,0,0,0,0,0,0,0,0,0,0,0,0,0,0,0,0,0,0,0,0,0,0,0,0,0,0,0,0,0,0,0,0,0,0
"Ind18","2_0_0",0,0,0,1,1,1,1,1,1,0,0,0,0,0,0,0,0,-1,0,0,0,0,0,0,0,0,0,0,0,0,0,0,0,0,0,0,0,0,0,0,0,0,0,0,0,0,0,0,0,0,0,0,0,0,0,0,0,0,0,0,0,0,0,0,0,0,0,0,0,0,0,0,0,0,0,0,0,0,0,0,0,0,0,0,0,0,0,0,0,0,0,0,0,0,0,0,0,0,0,0,0,0,0,0,0,0,0,0,0,0,0,0,0,0,0,0,0,0
"Ind19","3_0_0",36,36,36,37,37,37,37,37,37,36,36,36,36,36,36,36,36,36,-1,0,0,0,0,0,0,0,0,0,0,0,0,0,0,0,0,0,0,0,0,0,0,0,0,0,0,0,0,0,0,0,0,0,0,0,0,0,0,0,0,0,0,0,0,0,0,0,0,0,0,0,0,0,0,0,0,0,0,0,0,0,0,0,0,0,0,0,0,0,0,0,0,0,0,0,0,0,0,0,0,0,0,0,0,0,0,0,0,0,0,0,0,0,0,0,0,0,0,0
"Ind20","3_0_1",36,36,36,37,37,37,37,37,37,36,36,36,36,36,36,36,36,36,0,-1,0,0,0,0,0,0,0,0,0,0,0,0,0,0,0,0,0,0,0,0,0,0,0,0,0,0,0,0,0,0,0,0,0,0,0,0,0,0,0,0,0,0,0,0,0,0,0,0,0,0,0,0,0,0,0,0,0,0,0,0,0,0,0,0,0,0,0,0,0,0,0,0,0,0,0,0,0,0,0,0,0,0,0,0,0,0,0,0,0,0,0,0,0,0,0,0,0,0
"Ind21","3_0_6",36,36,36,37,37,37,37,37,37,36,36,36,36,36,36,36,36,36,0,0,-1,0,0,0,0,0,0,0,0,0,0,0,0,0,0,0,0,0,0,0,0,0,0,0,0,0,0,0,0,0,0,0,0,0,0,0,0,0,0,0,0,0,0,0,0,0,0,0,0,0,0,0,0,0,0,0,0,0,0,0,0,0,0,0,0,0,0,0,0,0,0,0,0,0,0,0,0,0,0,0,0,0,0,0,0,0,0,0,0,0,0,0,0,0,0,0,0,0
"Ind22","3_0_8",36,36,36,37,37,37,37,37,37,36,36,36,36,36,36,36,36,36,0,0,0,-1,0,0,0,0,0,0,0,0,0,0,0,0,0,0,0,0,0,0,0,0,0,0,0,0,0,0,0,0,0,0,0,0,0,0,0,0,0,0,0,0,0,0,0,0,0,0,0,0,0,0,0,0,0,0,0,0,0,0,0,0,0,0,0,0,0,0,0,0,0,0,0,0,0,0,0,0,0,0,0,0,0,0,0,0,0,0,0,0,0,0,0,0,0,0,0,0
"Ind23","3_0_2",36,36,36,37,37,37,37,37,37,36,36,36,36,36,36,36,36,36,0,0,0,0,-1,0,0,0,0,0,0,0,0,0,0,0,0,0,0,0,0,0,0,0,0,0,0,0,0,0,0,0,0,0,0,0,0,0,0,0,0,0,0,0,0,0,0,0,0,0,0,0,0,0,0,0,0,0,0,0,0,0,0,0,0,0,0,0,0,0,0,0,0,0,0,0,0,0,0,0,0,0,0,0,0,0,0,0,0,0,0,0,0,0,0,0,0,0,0,0
"Ind24","3_0_3",36,36,36,37,37,37,37,37,37,36,36,36,36,36,36,36,36,36,0,0,0,0,0,-1,0,0,0,0,0,0,0,0,0,0,0,0,0,0,0,0,0,0,0,0,0,0,0,0,0,0,0,0,0,0,0,0,0,0,0,0,0,0,0,0,0,0,0,0,0,0,0,0,0,0,0,0,0,0,0,0,0,0,0,0,0,0,0,0,0,0,0,0,0,0,0,0,0,0,0,0,0,0,0,0,0,0,0,0,0,0,0,0,0,0,0,0,0,0
"Ind25","3_0_4",36,36,36,37,37,37,37,37,37,36,36,36,36,36,36,36,36,36,0,0,0,0,0,0,-1,0,0,0,0,0,0,0,0,0,0,0,0,0,0,0,0,0,0,0,0,0,0,0,0,0,0,0,0,0,0,0,0,0,0,0,0,0,0,0,0,0,0,0,0,0,0,0,0,0,0,0,0,0,0,0,0,0,0,0,0,0,0,0,0,0,0,0,0,0,0,0,0,0,0,0,0,0,0,0,0,0,0,0,0,0,0,0,0,0,0,0,0,0
"Ind26","3_0_5",36,36,36,37,37,37,37,37,37,36,36,36,36,36,36,36,36,36,0,0,0,0,0,0,0,-1,0,0,0,0,0,0,0,0,0,0,0,0,0,0,0,0,0,0,0,0,0,0,0,0,0,0,0,0,0,0,0,0,0,0,0,0,0,0,0,0,0,0,0,0,0,0,0,0,0,0,0,0,0,0,0,0,0,0,0,0,0,0,0,0,0,0,0,0,0,0,0,0,0,0,0,0,0,0,0,0,0,0,0,0,0,0,0,0,0,0,0,0
"Ind27","3_0_7",36,36,36,37,37,37,37,37,37,36,36,36,36,36,36,36,36,36,0,0,0,0,0,0,0,0,-1,0,0,0,0,0,0,0,0,0,0,0,0,0,0,0,0,0,0,0,0,0,0,0,0,0,0,0,0,0,0,0,0,0,0,0,0,0,0,0,0,0,0,0,0,0,0,0,0,0,0,0,0,0,0,0,0,0,0,0,0,0,0,0,0,0,0,0,0,0,0,0,0,0,0,0,0,0,0,0,0,0,0,0,0,0,0,0,0,0,0,0
"Ind28","4_0_8",41,41,41,42,42,42,42,42,42,41,41,41,41,41,41,41,41,41,27,27,27,27,27,27,27,27,27,-1,0,0,0,0,0,0,0,0,0,0,0,0,0,0,0,0,0,0,0,0,0,0,0,0,0,0,0,0,0,0,0,0,0,0,0,0,0,0,0,0,0,0,0,0,0,0,0,0,0,0,0,0,0,0,0,0,0,0,0,0,0,0,0,0,0,0,0,0,0,0,0,0,0,0,0,0,0,0,0,0,0,0,0,0,0,0,0,0,0,0
"Ind29","4_0_6",41,41,41,42,42,42,42,42,42,41,41,41,41,41,41,41,41,41,27,27,27,27,27,27,27,27,27,0,-1,0,0,0,0,0,0,0,0,0,0,0,0,0,0,0,0,0,0,0,0,0,0,0,0,0,0,0,0,0,0,0,0,0,0,0,0,0,0,0,0,0,0,0,0,0,0,0,0,0,0,0,0,0,0,0,0,0,0,0,0,0,0,0,0,0,0,0,0,0,0,0,0,0,0,0,0,0,0,0,0,0,0,0,0,0,0,0,0,0
"Ind30","4_0_7",41,41,41,42,42,42,42,42,42,41,41,41,41,41,41,41,41,41,27,27,27,27,27,27,27,27,27,0,0,-1,0,0,0,0,0,0,0,0,0,0,0,0,0,0,0,0,0,0,0,0,0,0,0,0,0,0,0,0,0,0,0,0,0,0,0,0,0,0,0,0,0,0,0,0,0,0,0,0,0,0,0,0,0,0,0,0,0,0,0,0,0,0,0,0,0,0,0,0,0,0,0,0,0,0,0,0,0,0,0,0,0,0,0,0,0,0,0,0
"Ind31","4_0_2",41,41,41,42,42,42,42,42,42,41,41,41,41,41,41,41,41,41,27,27,27,27,27,27,27,27,27,0,0,0,-1,0,0,0,0,0,0,0,0,0,0,0,0,0,0,0,0,0,0,0,0,0,0,0,0,0,0,0,0,0,0,0,0,0,0,0,0,0,0,0,0,0,0,0,0,0,0,0,0,0,0,0,0,0,0,0,0,0,0,0,0,0,0,0,0,0,0,0,0,0,0,0,0,0,0,0,0,0,0,0,0,0,0,0,0,0,0,0
"Ind32","4_0_3",41,41,41,42,42,42,42,42,42,41,41,41,41,41,41,41,41,41,27,27,27,27,27,27,27,27,27,0,0,0,0,-1,0,0,0,0,0,0,0,0,0,0,0,0,0,0,0,0,0,0,0,0,0,0,0,0,0,0,0,0,0,0,0,0,0,0,0,0,0,0,0,0,0,0,0,0,0,0,0,0,0,0,0,0,0,0,0,0,0,0,0,0,0,0,0,0,0,0,0,0,0,0,0,0,0,0,0,0,0,0,0,0,0,0,0,0,0,0
"Ind33","4_0_1",41,41,41,42,42,42,42,42,42,41,41,41,41,41,41,41,41,41,27,27,27,27,27,27,27,27,27,0,0,0,0,0,-1,0,0,0,0,0,0,0,0,0,0,0,0,0,0,0,0,0,0,0,0,0,0,0,0,0,0,0,0,0,0,0,0,0,0,0,0,0,0,0,0,0,0,0,0,0,0,0,0,0,0,0,0,0,0,0,0,0,0,0,0,0,0,0,0,0,0,0,0,0,0,0,0,0,0,0,0,0,0,0,0,0,0,0,0,0
"Ind34","4_0_4",41,41,41,42,42,42,42,42,42,41,41,41,41,41,41,41,41,41,27,27,27,27,27,27,27,27,27,0,0,0,0,0,0,-1,0,0,0,0,0,0,0,0,0,0,0,0,0,0,0,0,0,0,0,0,0,0,0,0,0,0,0,0,0,0,0,0,0,0,0,0,0,0,0,0,0,0,0,0,0,0,0,0,0,0,0,0,0,0,0,0,0,0,0,0,0,0,0,0,0,0,0,0,0,0,0,0,0,0,0,0,0,0,0,0,0,0,0,0
"Ind35","4_0_5",41,41,41,42,42,42,42,42,42,41,41,41,41,41,41,41,41,41,27,27,27,27,27,27,27,27,27,0,0,0,0,0,0,0,-1,0,0,0,0,0,0,0,0,0,0,0,0,0,0,0,0,0,0,0,0,0,0,0,0,0,0,0,0,0,0,0,0,0,0,0,0,0,0,0,0,0,0,0,0,0,0,0,0,0,0,0,0,0,0,0,0,0,0,0,0,0,0,0,0,0,0,0,0,0,0,0,0,0,0,0,0,0,0,0,0,0,0,0
"Ind36","4_0_0",41,41,41,42,42,42,42,42,42,41,41,41,41,41,41,41,41,41,27,27,27,27,27,27,27,27,27,0,0,0,0,0,0,0,0,-1,0,0,0,0,0,0,0,0,0,0,0,0,0,0,0,0,0,0,0,0,0,0,0,0,0,0,0,0,0,0,0,0,0,0,0,0,0,0,0,0,0,0,0,0,0,0,0,0,0,0,0,0,0,0,0,0,0,0,0,0,0,0,0,0,0,0,0,0,0,0,0,0,0,0,0,0,0,0,0,0,0,0
"Ind37","6_0_0",32,32,32,33,33,33,33,33,33,32,32,32,32,32,32,32,32,32,52,52,52,52,52,52,52,52,52,61,61,61,61,61,61,61,61,61,-1,0,0,0,0,0,0,0,0,0,0,0,0,0,0,0,0,0,0,0,0,0,0,0,0,0,0,0,0,0,0,0,0,0,0,0,0,0,0,0,0,0,0,0,0,0,0,0,0,0,0,0,0,0,0,0,0,0,0,0,0,0,0,0,0,0,0,0,0,0,0,0,0,0,0,0,0,0,0,0,0,0
"Ind38","6_0_8",32,32,32,33,33,33,33,33,33,32,32,32,32,32,32,32,32,32,52,52,52,52,52,52,52,52,52,61,61,61,61,61,61,61,61,61,0,-1,0,0,0,0,0,0,0,0,0,0,0,0,0,0,0,0,0,0,0,0,0,0,0,0,0,0,0,0,0,0,0,0,0,0,0,0,0,0,0,0,0,0,0,0,0,0,0,0,0,0,0,0,0,0,0,0,0,0,0,0,0,0,0,0,0,0,0,0,0,0,0,0,0,0,0,0,0,0,0,0
"Ind39","6_0_3",32,32,32,33,33,33,33,33,33,32,32,32,32,32,32,32,32,32,52,52,52,52,52,52,52,52,52,61,61,61,61,61,61,61,61,61,0,0,-1,0,0,0,0,0,0,0,0,0,0,0,0,0,0,0,0,0,0,0,0,0,0,0,0,0,0,0,0,0,0,0,0,0,0,0,0,0,0,0,0,0,0,0,0,0,0,0,0,0,0,0,0,0,0,0,0,0,0,0,0,0,0,0,0,0,0,0,0,0,0,0,0,0,0,0,0,0,0,0
"Ind40","6_0_5",32,32,32,33,33,33,33,33,33,32,32,32,32,32,32,32,32,32,52,52,52,52,52,52,52,52,52,61,61,61,61,61,61,61,61,61,0,0,0,-1,0,0,0,0,0,0,0,0,0,0,0,0,0,0,0,0,0,0,0,0,0,0,0,0,0,0,0,0,0,0,0,0,0,0,0,0,0,0,0,0,0,0,0,0,0,0,0,0,0,0,0,0,0,0,0,0,0,0,0,0,0,0,0,0,0,0,0,0,0,0,0,0,0,0,0,0,0,0
"Ind41","6_0_6",32,32,32,33,33,33,33,33,33,32,32,32,32,32,32,32,32,32,52,52,52,52,52,52,52,52,52,61,61,61,61,61,61,61,61,61,0,0,0,0,-1,0,0,0,0,0,0,0,0,0,0,0,0,0,0,0,0,0,0,0,0,0,0,0,0,0,0,0,0,0,0,0,0,0,0,0,0,0,0,0,0,0,0,0,0,0,0,0,0,0,0,0,0,0,0,0,0,0,0,0,0,0,0,0,0,0,0,0,0,0,0,0,0,0,0,0,0,0
"Ind42","6_0_1",32,32,32,33,33,33,33,33,33,32,32,32,32,32,32,32,32,32,52,52,52,52,52,52,52,52,52,61,61,61,61,61,61,61,61,61,0,0,0,0,0,-1,0,0,0,0,0,0,0,0,0,0,0,0,0,0,0,0,0,0,0,0,0,0,0,0,0,0,0,0,0,0,0,0,0,0,0,0,0,0,0,0,0,0,0,0,0,0,0,0,0,0,0,0,0,0,0,0,0,0,0,0,0,0,0,0,0,0,0,0,0,0,0,0,0,0,0,0
"Ind43","6_0_2",32,32,32,33,33,33,33,33,33,32,32,32,32,32,32,32,32,32,52,52,52,52,52,52,52,52,52,61,61,61,61,61,61,61,61,61,0,0,0,0,0,0,-1,0,0,0,0,0,0,0,0,0,0,0,0,0,0,0,0,0,0,0,0,0,0,0,0,0,0,0,0,0,0,0,0,0,0,0,0,0,0,0,0,0,0,0,0,0,0,0,0,0,0,0,0,0,0,0,0,0,0,0,0,0,0,0,0,0,0,0,0,0,0,0,0,0,0,0
"Ind44","6_0_4",32,32,32,33,33,33,33,33,33,32,32,32,32,32,32,32,32,32,52,52,52,52,52,52,52,52,52,61,61,61,61,61,61,61,61,61,0,0,0,0,0,0,0,-1,0,0,0,0,0,0,0,0,0,0,0,0,0,0,0,0,0,0,0,0,0,0,0,0,0,0,0,0,0,0,0,0,0,0,0,0,0,0,0,0,0,0,0,0,0,0,0,0,0,0,0,0,0,0,0,0,0,0,0,0,0,0,0,0,0,0,0,0,0,0,0,0,0,0
"Ind45","6_0_7",32,32,32,33,33,33,33,33,33,32,32,32,32,32,32,32,32,32,52,52,52,52,52,52,52,52,52,61,61,61,61,61,61,61,61,61,0,0,0,0,0,0,0,0,-1,0,0,0,0,0,0,0,0,0,0,0,0,0,0,0,0,0,0,0,0,0,0,0,0,0,0,0,0,0,0,0,0,0,0,0,0,0,0,0,0,0,0,0,0,0,0,0,0,0,0,0,0,0,0,0,0,0,0,0,0,0,0,0,0,0,0,0,0,0,0,0,0,0
"Ind46","5_0_7",20,20,20,21,21,21,21,21,21,20,20,20,20,20,20,20,20,20,44,44,44,44,44,44,44,44,44,51,51,51,51,51,51,51,51,51,22,22,22,22,22,22,22,22,22,-1,0,0,0,0,0,0,0,0,0,0,0,0,0,0,0,0,0,0,0,0,0,0,0,0,0,0,0,0,0,0,0,0,0,0,0,0,0,0,0,0,0,0,0,0,0,0,0,0,0,0,0,0,0,0,0,0,0,0,0,0,0,0,0,0,0,0,0,0,0,0,0,0
"Ind47","5_0_0",20,20,20,21,21,21,21,21,21,20,20,20,20,20,20,20,20,20,44,44,44,44,44,44,44,44,44,51,51,51,51,51,51,51,51,51,22,22,22,22,22,22,22,22,22,0,-1,0,0,0,0,0,0,0,0,0,0,0,0,0,0,0,0,0,0,0,0,0,0,0,0,0,0,0,0,0,0,0,0,0,0,0,0,0,0,0,0,0,0,0,0,0,0,0,0,0,0,0,0,0,0,0,0,0,0,0,0,0,0,0,0,0,0,0,0,0,0,0
"Ind48","5_0_6",20,20,20,21,21,21,21,21,21,20,20,20,20,20,20,20,20,20,44,44,44,44,44,44,44,44,44,51,51,51,51,51,51,51,51,51,22,22,22,22,22,22,22,22,22,0,0,-1,0,0,0,0,0,0,0,0,0,0,0,0,0,0,0,0,0,0,0,0,0,0,0,0,0,0,0,0,0,0,0,0,0,0,0,0,0,0,0,0,0,0,0,0,0,0,0,0,0,0,0,0,0,0,0,0,0,0,0,0,0,0,0,0,0,0,0,0,0,0
"Ind49","5_0_3",20,20,20,21,21,21,21,21,21,20,20,20,20,20,20,20,20,20,44,44,44,44,44,44,44,44,44,51,51,51,51,51,51,51,51,51,22,22,22,22,22,22,22,22,22,0,0,0,-1,0,0,0,0,0,0,0,0,0,0,0,0,0,0,0,0,0,0,0,0,0,0,0,0,0,0,0,0,0,0,0,0,0,0,0,0,0,0,0,0,0,0,0,0,0,0,0,0,0,0,0,0,0,0,0,0,0,0,0,0,0,0,0,0,0,0,0,0,0
"Ind50","5_0_8",20,20,20,21,21,21,21,21,21,20,20,20,20,20,20,20,20,20,44,44,44,44,44,44,44,44,44,51,51,51,51,51,51,51,51,51,22,22,22,22,22,22,22,22,22,0,0,0,0,-1,0,0,0,0,0,0,0,0,0,0,0,0,0,0,0,0,0,0,0,0,0,0,0,0,0,0,0,0,0,0,0,0,0,0,0,0,0,0,0,0,0,0,0,0,0,0,0,0,0,0,0,0,0,0,0,0,0,0,0,0,0,0,0,0,0,0,0,0
"Ind51","5_0_2",20,20,20,21,21,21,21,21,21,20,20,20,20,20,20,20,20,20,44,44,44,44,44,44,44,44,44,51,51,51,51,51,51,51,51,51,22,22,22,22,22,22,22,22,22,0,0,0,0,0,-1,0,0,0,0,0,0,0,0,0,0,0,0,0,0,0,0,0,0,0,0,0,0,0,0,0,0,0,0,0,0,0,0,0,0,0,0,0,0,0,0,0,0,0,0,0,0,0,0,0,0,0,0,0,0,0,0,0,0,0,0,0,0,0,0,0,0,0
"Ind52","5_0_1",20,20,20,21,21,21,21,21,21,20,20,20,20,20,20,20,20,20,44,44,44,44,44,44,44,44,44,51,51,51,51,51,51,51,51,51,22,22,22,22,22,22,22,22,22,0,0,0,0,0,0,-1,0,0,0,0,0,0,0,0,0,0,0,0,0,0,0,0,0,0,0,0,0,0,0,0,0,0,0,0,0,0,0,0,0,0,0,0,0,0,0,0,0,0,0,0,0,0,0,0,0,0,0,0,0,0,0,0,0,0,0,0,0,0,0,0,0,0
"Ind53","5_0_4",20,20,20,21,21,21,21,21,21,20,20,20,20,20,20,20,20,20,44,44,44,44,44,44,44,44,44,51,51,51,51,51,51,51,51,51,22,22,22,22,22,22,22,22,22,0,0,0,0,0,0,0,-1,0,0,0,0,0,0,0,0,0,0,0,0,0,0,0,0,0,0,0,0,0,0,0,0,0,0,0,0,0,0,0,0,0,0,0,0,0,0,0,0,0,0,0,0,0,0,0,0,0,0,0,0,0,0,0,0,0,0,0,0,0,0,0,0,0
"Ind54","5_0_5",20,20,20,21,21,21,21,21,21,20,20,20,20,20,20,20,20,20,44,44,44,44,44,44,44,44,44,51,51,51,51,51,51,51,51,51,22,22,22,22,22,22,22,22,22,0,0,0,0,0,0,0,0,-1,0,0,0,0,0,0,0,0,0,0,0,0,0,0,0,0,0,0,0,0,0,0,0,0,0,0,0,0,0,0,0,0,0,0,0,0,0,0,0,0,0,0,0,0,0,0,0,0,0,0,0,0,0,0,0,0,0,0,0,0,0,0,0,0
"Ind55","12_0_2",25,25,25,26,26,26,26,26,26,25,25,25,25,25,25,25,25,25,45,45,45,45,45,45,45,45,45,52,52,52,52,52,52,52,52,52,23,23,23,23,23,23,23,23,23,7,7,7,7,7,7,7,7,7,-1,0,0,0,0,0,0,0,0,0,0,0,0,0,0,0,0,0,0,0,0,0,0,0,0,0,0,0,0,0,0,0,0,0,0,0,0,0,0,0,0,0,0,0,0,0,0,0,0,0,0,0,0,0,0,0,0,0,0,0,0,0,0,0
"Ind56","12_0_7",25,25,25,26,26,26,26,26,26,25,25,25,25,25,25,25,25,25,45,45,45,45,45,45,45,45,45,52,52,52,52,52,52,52,52,52,23,23,23,23,23,23,23,23,23,7,7,7,7,7,7,7,7,7,0,-1,0,0,0,0,0,0,0,0,0,0,0,0,0,0,0,0,0,0,0,0,0,0,0,0,0,0,0,0,0,0,0,0,0,0,0,0,0,0,0,0,0,0,0,0,0,0,0,0,0,0,0,0,0,0,0,0,0,0,0,0,0,0
"Ind57","12_0_8",25,25,25,26,26,26,26,26,26,25,25,25,25,25,25,25,25,25,45,45,45,45,45,45,45,45,45,52,52,52,52,52,52,52,52,52,23,23,23,23,23,23,23,23,23,7,7,7,7,7,7,7,7,7,0,0,-1,0,0,0,0,0,0,0,0,0,0,0,0,0,0,0,0,0,0,0,0,0,0,0,0,0,0,0,0,0,0,0,0,0,0,0,0,0,0,0,0,0,0,0,0,0,0,0,0,0,0,0,0,0,0,0,0,0,0,0,0,0
"Ind58","12_0_6",25,25,25,26,26,26,26,26,26,25,25,25,25,25,25,25,25,25,45,45,45,45,45,45,45,45,45,52,52,52,52,52,52,52,52,52,23,23,23,23,23,23,23,23,23,7,7,7,7,7,7,7,7,7,0,0,0,-1,0,0,0,0,0,0,0,0,0,0,0,0,0,0,0,0,0,0,0,0,0,0,0,0,0,0,0,0,0,0,0,0,0,0,0,0,0,0,0,0,0,0,0,0,0,0,0,0,0,0,0,0,0,0,0,0,0,0,0,0
"Ind59","12_0_0",25,25,25,26,26,26,26,26,26,25,25,25,25,25,25,25,25,25,45,45,45,45,45,45,45,45,45,52,52,52,52,52,52,52,52,52,23,23,23,23,23,23,23,23,23,7,7,7,7,7,7,7,7,7,0,0,0,0,-1,0,0,0,0,0,0,0,0,0,0,0,0,0,0,0,0,0,0,0,0,0,0,0,0,0,0,0,0,0,0,0,0,0,0,0,0,0,0,0,0,0,0,0,0,0,0,0,0,0,0,0,0,0,0,0,0,0,0,0
"Ind60","12_0_1",25,25,25,26,26,26,26,26,26,25,25,25,25,25,25,25,25,25,45,45,45,45,45,45,45,45,45,52,52,52,52,52,52,52,52,52,23,23,23,23,23,23,23,23,23,7,7,7,7,7,7,7,7,7,0,0,0,0,0,-1,0,0,0,0,0,0,0,0,0,0,0,0,0,0,0,0,0,0,0,0,0,0,0,0,0,0,0,0,0,0,0,0,0,0,0,0,0,0,0,0,0,0,0,0,0,0,0,0,0,0,0,0,0,0,0,0,0,0
"Ind61","12_0_5",25,25,25,26,26,26,26,26,26,25,25,25,25,25,25,25,25,25,45,45,45,45,45,45,45,45,45,52,52,52,52,52,52,52,52,52,23,23,23,23,23,23,23,23,23,7,7,7,7,7,7,7,7,7,0,0,0,0,0,0,-1,0,0,0,0,0,0,0,0,0,0,0,0,0,0,0,0,0,0,0,0,0,0,0,0,0,0,0,0,0,0,0,0,0,0,0,0,0,0,0,0,0,0,0,0,0,0,0,0,0,0,0,0,0,0,0,0,0
"Ind62","12_0_3",25,25,25,26,26,26,26,26,26,25,25,25,25,25,25,25,25,25,45,45,45,45,45,45,45,45,45,52,52,52,52,52,52,52,52,52,23,23,23,23,23,23,23,23,23,7,7,7,7,7,7,7,7,7,0,0,0,0,0,0,0,-1,0,0,0,0,0,0,0,0,0,0,0,0,0,0,0,0,0,0,0,0,0,0,0,0,0,0,0,0,0,0,0,0,0,0,0,0,0,0,0,0,0,0,0,0,0,0,0,0,0,0,0,0,0,0,0,0
"Ind63","12_0_4",25,25,25,26,26,26,26,26,26,25,25,25,25,25,25,25,25,25,45,45,45,45,45,45,45,45,45,52,52,52,52,52,52,52,52,52,23,23,23,23,23,23,23,23,23,7,7,7,7,7,7,7,7,7,0,0,0,0,0,0,0,0,-1,0,0,0,0,0,0,0,0,0,0,0,0,0,0,0,0,0,0,0,0,0,0,0,0,0,0,0,0,0,0,0,0,0,0,0,0,0,0,0,0,0,0,0,0,0,0,0,0,0,0,0,0,0,0,0
"Ind64","7_0_3",25,25,25,26,26,26,26,26,26,25,25,25,25,25,25,25,25,25,45,45,45,45,45,45,45,45,45,52,52,52,52,52,52,52,52,52,23,23,23,23,23,23,23,23,23,7,7,7,7,7,7,7,7,7,2,2,2,2,2,2,2,2,2,-1,0,0,0,0,0,0,0,0,0,0,0,0,0,0,0,0,0,0,0,0,0,0,0,0,0,0,0,0,0,0,0,0,0,0,0,0,0,0,0,0,0,0,0,0,0,0,0,0,0,0,0,0,0,0
"Ind65","7_0_7",25,25,25,26,26,26,26,26,26,25,25,25,25,25,25,25,25,25,45,45,45,45,45,45,45,45,45,52,52,52,52,52,52,52,52,52,23,23,23,23,23,23,23,23,23,7,7,7,7,7,7,7,7,7,2,2,2,2,2,2,2,2,2,0,-1,0,0,0,0,0,0,0,0,0,0,0,0,0,0,0,0,0,0,0,0,0,0,0,0,0,0,0,0,0,0,0,0,0,0,0,0,0,0,0,0,0,0,0,0,0,0,0,0,0,0,0,0,0
"Ind66","7_0_4",25,25,25,26,26,26,26,26,26,25,25,25,25,25,25,25,25,25,45,45,45,45,45,45,45,45,45,52,52,52,52,52,52,52,52,52,23,23,23,23,23,23,23,23,23,7,7,7,7,7,7,7,7,7,2,2,2,2,2,2,2,2,2,0,0,-1,0,0,0,0,0,0,0,0,0,0,0,0,0,0,0,0,0,0,0,0,0,0,0,0,0,0,0,0,0,0,0,0,0,0,0,0,0,0,0,0,0,0,0,0,0,0,0,0,0,0,0,0
"Ind67","7_0_5",25,25,25,26,26,26,26,26,26,25,25,25,25,25,25,25,25,25,45,45,45,45,45,45,45,45,45,52,52,52,52,52,52,52,52,52,23,23,23,23,23,23,23,23,23,7,7,7,7,7,7,7,7,7,2,2,2,2,2,2,2,2,2,0,0,0,-1,0,0,0,0,0,0,0,0,0,0,0,0,0,0,0,0,0,0,0,0,0,0,0,0,0,0,0,0,0,0,0,0,0,0,0,0,0,0,0,0,0,0,0,0,0,0,0,0,0,0,0
"Ind68","7_0_1",25,25,25,26,26,26,26,26,26,25,25,25,25,25,25,25,25,25,45,45,45,45,45,45,45,45,45,52,52,52,52,52,52,52,52,52,23,23,23,23,23,23,23,23,23,7,7,7,7,7,7,7,7,7,2,2,2,2,2,2,2,2,2,0,0,0,0,-1,0,0,0,0,0,0,0,0,0,0,0,0,0,0,0,0,0,0,0,0,0,0,0,0,0,0,0,0,0,0,0,0,0,0,0,0,0,0,0,0,0,0,0,0,0,0,0,0,0,0
"Ind69","7_0_8",25,25,25,26,26,26,26,26,26,25,25,25,25,25,25,25,25,25,45,45,45,45,45,45,45,45,45,52,52,52,52,52,52,52,52,52,23,23,23,23,23,23,23,23,23,7,7,7,7,7,7,7,7,7,2,2,2,2,2,2,2,2,2,0,0,0,0,0,-1,0,0,0,0,0,0,0,0,0,0,0,0,0,0,0,0,0,0,0,0,0,0,0,0,0,0,0,0,0,0,0,0,0,0,0,0,0,0,0,0,0,0,0,0,0,0,0,0,0
"Ind70","7_0_0",25,25,25,26,26,26,26,26,26,25,25,25,25,25,25,25,25,25,45,45,45,45,45,45,45,45,45,52,52,52,52,52,52,52,52,52,23,23,23,23,23,23,23,23,23,7,7,7,7,7,7,7,7,7,2,2,2,2,2,2,2,2,2,0,0,0,0,0,0,-1,0,0,0,0,0,0,0,0,0,0,0,0,0,0,0,0,0,0,0,0,0,0,0,0,0,0,0,0,0,0,0,0,0,0,0,0,0,0,0,0,0,0,0,0,0,0,0,0
"Ind71","7_0_2",25,25,25,26,26,26,26,26,26,25,25,25,25,25,25,25,25,25,45,45,45,45,45,45,45,45,45,52,52,52,52,52,52,52,52,52,23,23,23,23,23,23,23,23,23,7,7,7,7,7,7,7,7,7,2,2,2,2,2,2,2,2,2,0,0,0,0,0,0,0,-1,0,0,0,0,0,0,0,0,0,0,0,0,0,0,0,0,0,0,0,0,0,0,0,0,0,0,0,0,0,0,0,0,0,0,0,0,0,0,0,0,0,0,0,0,0,0,0
"Ind72","7_0_6",25,25,25,26,26,26,26,26,26,25,25,25,25,25,25,25,25,25,45,45,45,45,45,45,45,45,45,52,52,52,52,52,52,52,52,52,23,23,23,23,23,23,23,23,23,7,7,7,7,7,7,7,7,7,2,2,2,2,2,2,2,2,2,0,0,0,0,0,0,0,0,-1,0,0,0,0,0,0,0,0,0,0,0,0,0,0,0,0,0,0,0,0,0,0,0,0,0,0,0,0,0,0,0,0,0,0,0,0,0,0,0,0,0,0,0,0,0,0
"Ind73","8_0_2",35,35,35,34,34,34,34,34,34,35,35,35,35,35,35,35,35,35,53,53,53,53,53,53,53,53,53,58,58,58,58,58,58,58,58,58,31,31,31,31,31,31,31,31,31,29,29,29,29,29,29,29,29,29,30,30,30,30,30,30,30,30,30,30,30,30,30,30,30,30,30,30,-1,0,0,0,0,0,0,0,0,0,0,0,0,0,0,0,0,0,0,0,0,0,0,0,0,0,0,0,0,0,0,0,0,0,0,0,0,0,0,0,0,0,0,0,0,0
"Ind74","8_0_1",35,35,35,34,34,34,34,34,34,35,35,35,35,35,35,35,35,35,53,53,53,53,53,53,53,53,53,58,58,58,58,58,58,58,58,58,31,31,31,31,31,31,31,31,31,29,29,29,29,29,29,29,29,29,30,30,30,30,30,30,30,30,30,30,30,30,30,30,30,30,30,30,0,-1,0,0,0,0,0,0,0,0,0,0,0,0,0,0,0,0,0,0,0,0,0,0,0,0,0,0,0,0,0,0,0,0,0,0,0,0,0,0,0,0,0,0,0,0
"Ind75","8_0_5",35,35,35,34,34,34,34,34,34,35,35,35,35,35,35,35,35,35,53,53,53,53,53,53,53,53,53,58,58,58,58,58,58,58,58,58,31,31,31,31,31,31,31,31,31,29,29,29,29,29,29,29,29,29,30,30,30,30,30,30,30,30,30,30,30,30,30,30,30,30,30,30,0,0,-1,0,0,0,0,0,0,0,0,0,0,0,0,0,0,0,0,0,0,0,0,0,0,0,0,0,0,0,0,0,0,0,0,0,0,0,0,0,0,0,0,0,0,0
"Ind76","8_0_8",35,35,35,34,34,34,34,34,34,35,35,35,35,35,35,35,35,35,53,53,53,53,53,53,53,53,53,58,58,58,58,58,58,58,58,58,31,31,31,31,31,31,31,31,31,29,29,29,29,29,29,29,29,29,30,30,30,30,30,30,30,30,30,30,30,30,30,30,30,30,30,30,0,0,0,-1,0,0,0,0,0,0,0,0,0,0,0,0,0,0,0,0,0,0,0,0,0,0,0,0,0,0,0,0,0,0,0,0,0,0,0,0,0,0,0,0,0,0
"Ind77","8_0_0",35,35,35,34,34,34,34,34,34,35,35,35,35,35,35,35,35,35,53,53,53,53,53,53,53,53,53,58,58,58,58,58,58,58,58,58,31,31,31,31,31,31,31,31,31,29,29,29,29,29,29,29,29,29,30,30,30,30,30,30,30,30,30,30,30,30,30,30,30,30,30,30,0,0,0,0,-1,0,0,0,0,0,0,0,0,0,0,0,0,0,0,0,0,0,0,0,0,0,0,0,0,0,0,0,0,0,0,0,0,0,0,0,0,0,0,0,0,0
"Ind78","8_0_3",35,35,35,34,34,34,34,34,34,35,35,35,35,35,35,35,35,35,53,53,53,53,53,53,53,53,53,58,58,58,58,58,58,58,58,58,31,31,31,31,31,31,31,31,31,29,29,29,29,29,29,29,29,29,30,30,30,30,30,30,30,30,30,30,30,30,30,30,30,30,30,30,0,0,0,0,0,-1,0,0,0,0,0,0,0,0,0,0,0,0,0,0,0,0,0,0,0,0,0,0,0,0,0,0,0,0,0,0,0,0,0,0,0,0,0,0,0,0
"Ind79","8_0_6",35,35,35,34,34,34,34,34,34,35,35,35,35,35,35,35,35,35,53,53,53,53,53,53,53,53,53,58,58,58,58,58,58,58,58,58,31,31,31,31,31,31,31,31,31,29,29,29,29,29,29,29,29,29,30,30,30,30,30,30,30,30,30,30,30,30,30,30,30,30,30,30,0,0,0,0,0,0,-1,0,0,0,0,0,0,0,0,0,0,0,0,0,0,0,0,0,0,0,0,0,0,0,0,0,0,0,0,0,0,0,0,0,0,0,0,0,0,0
"Ind80","8_0_4",35,35,35,34,34,34,34,34,34,35,35,35,35,35,35,35,35,35,53,53,53,53,53,53,53,53,53,58,58,58,58,58,58,58,58,58,31,31,31,31,31,31,31,31,31,29,29,29,29,29,29,29,29,29,30,30,30,30,30,30,30,30,30,30,30,30,30,30,30,30,30,30,0,0,0,0,0,0,0,-1,0,0,0,0,0,0,0,0,0,0,0,0,0,0,0,0,0,0,0,0,0,0,0,0,0,0,0,0,0,0,0,0,0,0,0,0,0,0
"Ind81","8_0_7",35,35,35,34,34,34,34,34,34,35,35,35,35,35,35,35,35,35,53,53,53,53,53,53,53,53,53,58,58,58,58,58,58,58,58,58,31,31,31,31,31,31,31,31,31,29,29,29,29,29,29,29,29,29,30,30,30,30,30,30,30,30,30,30,30,30,30,30,30,30,30,30,0,0,0,0,0,0,0,0,-1,0,0,0,0,0,0,0,0,0,0,0,0,0,0,0,0,0,0,0,0,0,0,0,0,0,0,0,0,0,0,0,0,0,0,0,0,0
"Ind82","10_0_2",40,40,40,39,39,39,39,39,39,40,40,40,40,40,40,40,40,40,58,58,58,58,58,58,58,58,58,63,63,63,63,63,63,63,63,63,36,36,36,36,36,36,36,36,36,32,32,32,32,32,32,32,32,32,33,33,33,33,33,33,33,33,33,33,33,33,33,33,33,33,33,33,29,29,29,29,29,29,29,29,29,-1,0,0,0,0,0,0,0,0,0,0,0,0,0,0,0,0,0,0,0,0,0,0,0,0,0,0,0,0,0,0,0,0,0,0,0,0
"Ind83","10_0_8",40,40,40,39,39,39,39,39,39,40,40,40,40,40,40,40,40,40,58,58,58,58,58,58,58,58,58,63,63,63,63,63,63,63,63,63,36,36,36,36,36,36,36,36,36,32,32,32,32,32,32,32,32,32,33,33,33,33,33,33,33,33,33,33,33,33,33,33,33,33,33,33,29,29,29,29,29,29,29,29,29,0,-1,0,0,0,0,0,0,0,0,0,0,0,0,0,0,0,0,0,0,0,0,0,0,0,0,0,0,0,0,0,0,0,0,0,0,0
"Ind84","10_0_5",40,40,40,39,39,39,39,39,39,40,40,40,40,40,40,40,40,40,58,58,58,58,58,58,58,58,58,63,63,63,63,63,63,63,63,63,36,36,36,36,36,36,36,36,36,32,32,32,32,32,32,32,32,32,33,33,33,33,33,33,33,33,33,33,33,33,33,33,33,33,33,33,29,29,29,29,29,29,29,29,29,0,0,-1,0,0,0,0,0,0,0,0,0,0,0,0,0,0,0,0,0,0,0,0,0,0,0,0,0,0,0,0,0,0,0,0,0,0
"Ind85","10_0_7",40,40,40,39,39,39,39,39,39,40,40,40,40,40,40,40,40,40,58,58,58,58,58,58,58,58,58,63,63,63,63,63,63,63,63,63,36,36,36,36,36,36,36,36,36,32,32,32,32,32,32,32,32,32,33,33,33,33,33,33,33,33,33,33,33,33,33,33,33,33,33,33,29,29,29,29,29,29,29,29,29,0,0,0,-1,0,0,0,0,0,0,0,0,0,0,0,0,0,0,0,0,0,0,0,0,0,0,0,0,0,0,0,0,0,0,0,0,0
"Ind86","10_0_1",40,40,40,39,39,39,39,39,39,40,40,40,40,40,40,40,40,40,58,58,58,58,58,58,58,58,58,63,63,63,63,63,63,63,63,63,36,36,36,36,36,36,36,36,36,32,32,32,32,32,32,32,32,32,33,33,33,33,33,33,33,33,33,33,33,33,33,33,33,33,33,33,29,29,29,29,29,29,29,29,29,0,0,0,0,-1,0,0,0,0,0,0,0,0,0,0,0,0,0,0,0,0,0,0,0,0,0,0,0,0,0,0,0,0,0,0,0,0
"Ind87","10_0_6",40,40,40,39,39,39,39,39,39,40,40,40,40,40,40,40,40,40,58,58,58,58,58,58,58,58,58,63,63,63,63,63,63,63,63,63,36,36,36,36,36,36,36,36,36,32,32,32,32,32,32,32,32,32,33,33,33,33,33,33,33,33,33,33,33,33,33,33,33,33,33,33,29,29,29,29,29,29,29,29,29,0,0,0,0,0,-1,0,0,0,0,0,0,0,0,0,0,0,0,0,0,0,0,0,0,0,0,0,0,0,0,0,0,0,0,0,0,0
"Ind88","10_0_3",40,40,40,39,39,39,39,39,39,40,40,40,40,40,40,40,40,40,58,58,58,58,58,58,58,58,58,63,63,63,63,63,63,63,63,63,36,36,36,36,36,36,36,36,36,32,32,32,32,32,32,32,32,32,33,33,33,33,33,33,33,33,33,33,33,33,33,33,33,33,33,33,29,29,29,29,29,29,29,29,29,0,0,0,0,0,0,-1,0,0,0,0,0,0,0,0,0,0,0,0,0,0,0,0,0,0,0,0,0,0,0,0,0,0,0,0,0,0
"Ind89","10_0_0",40,40,40,39,39,39,39,39,39,40,40,40,40,40,40,40,40,40,58,58,58,58,58,58,58,58,58,63,63,63,63,63,63,63,63,63,36,36,36,36,36,36,36,36,36,32,32,32,32,32,32,32,32,32,33,33,33,33,33,33,33,33,33,33,33,33,33,33,33,33,33,33,29,29,29,29,29,29,29,29,29,0,0,0,0,0,0,0,-1,0,0,0,0,0,0,0,0,0,0,0,0,0,0,0,0,0,0,0,0,0,0,0,0,0,0,0,0,0
"Ind90","10_0_4",40,40,40,39,39,39,39,39,39,40,40,40,40,40,40,40,40,40,58,58,58,58,58,58,58,58,58,63,63,63,63,63,63,63,63,63,36,36,36,36,36,36,36,36,36,32,32,32,32,32,32,32,32,32,33,33,33,33,33,33,33,33,33,33,33,33,33,33,33,33,33,33,29,29,29,29,29,29,29,29,29,0,0,0,0,0,0,0,0,-1,0,0,0,0,0,0,0,0,0,0,0,0,0,0,0,0,0,0,0,0,0,0,0,0,0,0,0,0
"Ind91","13_0_2",39,39,39,38,38,38,38,38,38,39,39,39,39,39,39,39,39,39,57,57,57,57,57,57,57,57,57,62,62,62,62,62,62,62,62,62,35,35,35,35,35,35,35,35,35,31,31,31,31,31,31,31,31,31,32,32,32,32,32,32,32,32,32,32,32,32,32,32,32,32,32,32,28,28,28,28,28,28,28,28,28,1,1,1,1,1,1,1,1,1,-1,0,0,0,0,0,0,0,0,0,0,0,0,0,0,0,0,0,0,0,0,0,0,0,0,0,0,0
"Ind92","13_0_4",39,39,39,38,38,38,38,38,38,39,39,39,39,39,39,39,39,39,57,57,57,57,57,57,57,57,57,62,62,62,62,62,62,62,62,62,35,35,35,35,35,35,35,35,35,31,31,31,31,31,31,31,31,31,32,32,32,32,32,32,32,32,32,32,32,32,32,32,32,32,32,32,28,28,28,28,28,28,28,28,28,1,1,1,1,1,1,1,1,1,0,-1,0,0,0,0,0,0,0,0,0,0,0,0,0,0,0,0,0,0,0,0,0,0,0,0,0,0
"Ind93","13_0_5",39,39,39,38,38,38,38,38,38,39,39,39,39,39,39,39,39,39,57,57,57,57,57,57,57,57,57,62,62,62,62,62,62,62,62,62,35,35,35,35,35,35,35,35,35,31,31,31,31,31,31,31,31,31,32,32,32,32,32,32,32,32,32,32,32,32,32,32,32,32,32,32,28,28,28,28,28,28,28,28,28,1,1,1,1,1,1,1,1,1,0,0,-1,0,0,0,0,0,0,0,0,0,0,0,0,0,0,0,0,0,0,0,0,0,0,0,0,0
"Ind94","13_0_6",39,39,39,38,38,38,38,38,38,39,39,39,39,39,39,39,39,39,57,57,57,57,57,57,57,57,57,62,62,62,62,62,62,62,62,62,35,35,35,35,35,35,35,35,35,31,31,31,31,31,31,31,31,31,32,32,32,32,32,32,32,32,32,32,32,32,32,32,32,32,32,32,28,28,28,28,28,28,28,28,28,1,1,1,1,1,1,1,1,1,0,0,0,-1,0,0,0,0,0,0,0,0,0,0,0,0,0,0,0,0,0,0,0,0,0,0,0,0
"Ind95","13_0_7",39,39,39,38,38,38,38,38,38,39,39,39,39,39,39,39,39,39,57,57,57,57,57,57,57,57,57,62,62,62,62,62,62,62,62,62,35,35,35,35,35,35,35,35,35,31,31,31,31,31,31,31,31,31,32,32,32,32,32,32,32,32,32,32,32,32,32,32,32,32,32,32,28,28,28,28,28,28,28,28,28,1,1,1,1,1,1,1,1,1,0,0,0,0,-1,0,0,0,0,0,0,0,0,0,0,0,0,0,0,0,0,0,0,0,0,0,0,0
"Ind96","13_0_1",39,39,39,38,38,38,38,38,38,39,39,39,39,39,39,39,39,39,57,57,57,57,57,57,57,57,57,62,62,62,62,62,62,62,62,62,35,35,35,35,35,35,35,35,35,31,31,31,31,31,31,31,31,31,32,32,32,32,32,32,32,32,32,32,32,32,32,32,32,32,32,32,28,28,28,28,28,28,28,28,28,1,1,1,1,1,1,1,1,1,0,0,0,0,0,-1,0,0,0,0,0,0,0,0,0,0,0,0,0,0,0,0,0,0,0,0,0,0
"Ind97","13_0_8",39,39,39,38,38,38,38,38,38,39,39,39,39,39,39,39,39,39,57,57,57,57,57,57,57,57,57,62,62,62,62,62,62,62,62,62,35,35,35,35,35,35,35,35,35,31,31,31,31,31,31,31,31,31,32,32,32,32,32,32,32,32,32,32,32,32,32,32,32,32,32,32,28,28,28,28,28,28,28,28,28,1,1,1,1,1,1,1,1,1,0,0,0,0,0,0,-1,0,0,0,0,0,0,0,0,0,0,0,0,0,0,0,0,0,0,0,0,0
"Ind98","13_0_0",39,39,39,38,38,38,38,38,38,39,39,39,39,39,39,39,39,39,57,57,57,57,57,57,57,57,57,62,62,62,62,62,62,62,62,62,35,35,35,35,35,35,35,35,35,31,31,31,31,31,31,31,31,31,32,32,32,32,32,32,32,32,32,32,32,32,32,32,32,32,32,32,28,28,28,28,28,28,28,28,28,1,1,1,1,1,1,1,1,1,0,0,0,0,0,0,0,-1,0,0,0,0,0,0,0,0,0,0,0,0,0,0,0,0,0,0,0,0
"Ind99","13_0_3",39,39,39,38,38,38,38,38,38,39,39,39,39,39,39,39,39,39,57,57,57,57,57,57,57,57,57,62,62,62,62,62,62,62,62,62,35,35,35,35,35,35,35,35,35,31,31,31,31,31,31,31,31,31,32,32,32,32,32,32,32,32,32,32,32,32,32,32,32,32,32,32,28,28,28,28,28,28,28,28,28,1,1,1,1,1,1,1,1,1,0,0,0,0,0,0,0,0,-1,0,0,0,0,0,0,0,0,0,0,0,0,0,0,0,0,0,0,0
"Ind100","9_0_8",22,22,22,23,23,23,23,23,23,22,22,22,22,22,22,22,22,22,42,42,42,42,42,42,42,42,42,47,47,47,47,47,47,47,47,47,24,24,24,24,24,24,24,24,24,14,14,14,14,14,14,14,14,14,17,17,17,17,17,17,17,17,17,17,17,17,17,17,17,17,17,17,25,25,25,25,25,25,25,25,25,28,28,28,28,28,28,28,28,28,27,27,27,27,27,27,27,27,27,-1,0,0,0,0,0,0,0,0,0,0,0,0,0,0,0,0,0,0
"Ind101","9_0_7",22,22,22,23,23,23,23,23,23,22,22,22,22,22,22,22,22,22,42,42,42,42,42,42,42,42,42,47,47,47,47,47,47,47,47,47,24,24,24,24,24,24,24,24,24,14,14,14,14,14,14,14,14,14,17,17,17,17,17,17,17,17,17,17,17,17,17,17,17,17,17,17,25,25,25,25,25,25,25,25,25,28,28,28,28,28,28,28,28,28,27,27,27,27,27,27,27,27,27,0,-1,0,0,0,0,0,0,0,0,0,0,0,0,0,0,0,0,0
"Ind102","9_0_4",22,22,22,23,23,23,23,23,23,22,22,22,22,22,22,22,22,22,42,42,42,42,42,42,42,42,42,47,47,47,47,47,47,47,47,47,24,24,24,24,24,24,24,24,24,14,14,14,14,14,14,14,14,14,17,17,17,17,17,17,17,17,17,17,17,17,17,17,17,17,17,17,25,25,25,25,25,25,25,25,25,28,28,28,28,28,28,28,28,28,27,27,27,27,27,27,27,27,27,0,0,-1,0,0,0,0,0,0,0,0,0,0,0,0,0,0,0,0
"Ind103","9_0_3",22,22,22,23,23,23,23,23,23,22,22,22,22,22,22,22,22,22,42,42,42,42,42,42,42,42,42,47,47,47,47,47,47,47,47,47,24,24,24,24,24,24,24,24,24,14,14,14,14,14,14,14,14,14,17,17,17,17,17,17,17,17,17,17,17,17,17,17,17,17,17,17,25,25,25,25,25,25,25,25,25,28,28,28,28,28,28,28,28,28,27,27,27,27,27,27,27,27,27,0,0,0,-1,0,0,0,0,0,0,0,0,0,0,0,0,0,0,0
"Ind104","9_0_0",22,22,22,23,23,23,23,23,23,22,22,22,22,22,22,22,22,22,42,42,42,42,42,42,42,42,42,47,47,47,47,47,47,47,47,47,24,24,24,24,24,24,24,24,24,14,14,14,14,14,14,14,14,14,17,17,17,17,17,17,17,17,17,17,17,17,17,17,17,17,17,17,25,25,25,25,25,25,25,25,25,28,28,28,28,28,28,28,28,28,27,27,27,27,27,27,27,27,27,0,0,0,0,-1,0,0,0,0,0,0,0,0,0,0,0,0,0,0
"Ind105","9_0_6",22,22,22,23,23,23,23,23,23,22,22,22,22,22,22,22,22,22,42,42,42,42,42,42,42,42,42,47,47,47,47,47,47,47,47,47,24,24,24,24,24,24,24,24,24,14,14,14,14,14,14,14,14,14,17,17,17,17,17,17,17,17,17,17,17,17,17,17,17,17,17,17,25,25,25,25,25,25,25,25,25,28,28,28,28,28,28,28,28,28,27,27,27,27,27,27,27,27,27,0,0,0,0,0,-1,0,0,0,0,0,0,0,0,0,0,0,0,0
"Ind106","9_0_1",22,22,22,23,23,23,23,23,23,22,22,22,22,22,22,22,22,22,42,42,42,42,42,42,42,42,42,47,47,47,47,47,47,47,47,47,24,24,24,24,24,24,24,24,24,14,14,14,14,14,14,14,14,14,17,17,17,17,17,17,17,17,17,17,17,17,17,17,17,17,17,17,25,25,25,25,25,25,25,25,25,28,28,28,28,28,28,28,28,28,27,27,27,27,27,27,27,27,27,0,0,0,0,0,0,-1,0,0,0,0,0,0,0,0,0,0,0,0
"Ind107","9_0_5",22,22,22,23,23,23,23,23,23,22,22,22,22,22,22,22,22,22,42,42,42,42,42,42,42,42,42,47,47,47,47,47,47,47,47,47,24,24,24,24,24,24,24,24,24,14,14,14,14,14,14,14,14,14,17,17,17,17,17,17,17,17,17,17,17,17,17,17,17,17,17,17,25,25,25,25,25,25,25,25,25,28,28,28,28,28,28,28,28,28,27,27,27,27,27,27,27,27,27,0,0,0,0,0,0,0,-1,0,0,0,0,0,0,0,0,0,0,0
"Ind108","9_0_2",22,22,22,23,23,23,23,23,23,22,22,22,22,22,22,22,22,22,42,42,42,42,42,42,42,42,42,47,47,47,47,47,47,47,47,47,24,24,24,24,24,24,24,24,24,14,14,14,14,14,14,14,14,14,17,17,17,17,17,17,17,17,17,17,17,17,17,17,17,17,17,17,25,25,25,25,25,25,25,25,25,28,28,28,28,28,28,28,28,28,27,27,27,27,27,27,27,27,27,0,0,0,0,0,0,0,0,-1,0,0,0,0,0,0,0,0,0,0
"Ind109","11_0_5",22,22,22,23,23,23,23,23,23,22,22,22,22,22,22,22,22,22,42,42,42,42,42,42,42,42,42,49,49,49,49,49,49,49,49,49,24,24,24,24,24,24,24,24,24,14,14,14,14,14,14,14,14,14,17,17,17,17,17,17,17,17,17,17,17,17,17,17,17,17,17,17,25,25,25,25,25,25,25,25,25,28,28,28,28,28,28,28,28,28,27,27,27,27,27,27,27,27,27,10,10,10,10,10,10,10,10,10,-1,0,0,0,0,0,0,0,0,0
"Ind110","11_0_8",22,22,22,23,23,23,23,23,23,22,22,22,22,22,22,22,22,22,42,42,42,42,42,42,42,42,42,49,49,49,49,49,49,49,49,49,24,24,24,24,24,24,24,24,24,14,14,14,14,14,14,14,14,14,17,17,17,17,17,17,17,17,17,17,17,17,17,17,17,17,17,17,25,25,25,25,25,25,25,25,25,28,28,28,28,28,28,28,28,28,27,27,27,27,27,27,27,27,27,10,10,10,10,10,10,10,10,10,0,-1,0,0,0,0,0,0,0,0
"Ind111","11_0_2",22,22,22,23,23,23,23,23,23,22,22,22,22,22,22,22,22,22,42,42,42,42,42,42,42,42,42,49,49,49,49,49,49,49,49,49,24,24,24,24,24,24,24,24,24,14,14,14,14,14,14,14,14,14,17,17,17,17,17,17,17,17,17,17,17,17,17,17,17,17,17,17,25,25,25,25,25,25,25,25,25,28,28,28,28,28,28,28,28,28,27,27,27,27,27,27,27,27,27,10,10,10,10,10,10,10,10,10,0,0,-1,0,0,0,0,0,0,0
"Ind112","11_0_4",22,22,22,23,23,23,23,23,23,22,22,22,22,22,22,22,22,22,42,42,42,42,42,42,42,42,42,49,49,49,49,49,49,49,49,49,24,24,24,24,24,24,24,24,24,14,14,14,14,14,14,14,14,14,17,17,17,17,17,17,17,17,17,17,17,17,17,17,17,17,17,17,25,25,25,25,25,25,25,25,25,28,28,28,28,28,28,28,28,28,27,27,27,27,27,27,27,27,27,10,10,10,10,10,10,10,10,10,0,0,0,-1,0,0,0,0,0,0
"Ind113","11_0_6",22,22,22,23,23,23,23,23,23,22,22,22,22,22,22,22,22,22,42,42,42,42,42,42,42,42,42,49,49,49,49,49,49,49,49,49,24,24,24,24,24,24,24,24,24,14,14,14,14,14,14,14,14,14,17,17,17,17,17,17,17,17,17,17,17,17,17,17,17,17,17,17,25,25,25,25,25,25,25,25,25,28,28,28,28,28,28,28,28,28,27,27,27,27,27,27,27,27,27,10,10,10,10,10,10,10,10,10,0,0,0,0,-1,0,0,0,0,0
"Ind114","11_0_0",22,22,22,23,23,23,23,23,23,22,22,22,22,22,22,22,22,22,42,42,42,42,42,42,42,42,42,49,49,49,49,49,49,49,49,49,24,24,24,24,24,24,24,24,24,14,14,14,14,14,14,14,14,14,17,17,17,17,17,17,17,17,17,17,17,17,17,17,17,17,17,17,25,25,25,25,25,25,25,25,25,28,28,28,28,28,28,28,28,28,27,27,27,27,27,27,27,27,27,10,10,10,10,10,10,10,10,10,0,0,0,0,0,-1,0,0,0,0
"Ind115","11_0_1",22,22,22,23,23,23,23,23,23,22,22,22,22,22,22,22,22,22,42,42,42,42,42,42,42,42,42,49,49,49,49,49,49,49,49,49,24,24,24,24,24,24,24,24,24,14,14,14,14,14,14,14,14,14,17,17,17,17,17,17,17,17,17,17,17,17,17,17,17,17,17,17,25,25,25,25,25,25,25,25,25,28,28,28,28,28,28,28,28,28,27,27,27,27,27,27,27,27,27,10,10,10,10,10,10,10,10,10,0,0,0,0,0,0,-1,0,0,0
"Ind116","11_0_7",22,22,22,23,23,23,23,23,23,22,22,22,22,22,22,22,22,22,42,42,42,42,42,42,42,42,42,49,49,49,49,49,49,49,49,49,24,24,24,24,24,24,24,24,24,14,14,14,14,14,14,14,14,14,17,17,17,17,17,17,17,17,17,17,17,17,17,17,17,17,17,17,25,25,25,25,25,25,25,25,25,28,28,28,28,28,28,28,28,28,27,27,27,27,27,27,27,27,27,10,10,10,10,10,10,10,10,10,0,0,0,0,0,0,0,-1,0,0
"Ind117","11_0_3",22,22,22,23,23,23,23,23,23,22,22,22,22,22,22,22,22,22,42,42,42,42,42,42,42,42,42,49,49,49,49,49,49,49,49,49,24,24,24,24,24,24,24,24,24,14,14,14,14,14,14,14,14,14,17,17,17,17,17,17,17,17,17,17,17,17,17,17,17,17,17,17,25,25,25,25,25,25,25,25,25,28,28,28,28,28,28,28,28,28,27,27,27,27,27,27,27,27,27,10,10,10,10,10,10,10,10,10,0,0,0,0,0,0,0,0,-1,0
"Ind118","0_0_0",62,62,62,63,63,63,63,63,63,62,62,62,62,62,62,62,62,62,78,78,78,78,78,78,78,78,78,83,83,83,83,83,83,83,83,83,72,72,72,72,72,72,72,72,72,64,64,64,64,64,64,64,64,64,65,65,65,65,65,65,65,65,65,63,63,63,63,63,63,63,63,63,75,75,75,75,75,75,75,75,75,82,82,82,82,82,82,82,82,82,81,81,81,81,81,81,81,81,81,68,68,68,68,68,68,68,68,68,66,66,66,66,66,66,66,66,66,-1
