"","Description","Ind1","Ind2","Ind3","Ind4","Ind5","Ind6","Ind7","Ind8","Ind9","Ind10","Ind11","Ind12","Ind13","Ind14","Ind15","Ind16","Ind17","Ind18","Ind19","Ind20","Ind21","Ind22","Ind23","Ind24","Ind25","Ind26","Ind27","Ind28","Ind29","Ind30","Ind31","Ind32","Ind33","Ind34","Ind35","Ind36","Ind37","Ind38","Ind39","Ind40","Ind41"
"Ind1","0_0_0",-1,0,0,0,0,0,0,0,0,0,0,0,0,0,0,0,0,0,0,0,0,0,0,0,0,0,0,0,0,0,0,0,0,0,0,0,0,0,0,0,0
"Ind2","10_0_2",74,-1,0,0,0,0,0,0,0,0,0,0,0,0,0,0,0,0,0,0,0,0,0,0,0,0,0,0,0,0,0,0,0,0,0,0,0,0,0,0,0
"Ind3","10_0_3",74,0,-1,0,0,0,0,0,0,0,0,0,0,0,0,0,0,0,0,0,0,0,0,0,0,0,0,0,0,0,0,0,0,0,0,0,0,0,0,0,0
"Ind4","10_0_1",74,0,0,-1,0,0,0,0,0,0,0,0,0,0,0,0,0,0,0,0,0,0,0,0,0,0,0,0,0,0,0,0,0,0,0,0,0,0,0,0,0
"Ind5","10_0_0",74,0,0,0,-1,0,0,0,0,0,0,0,0,0,0,0,0,0,0,0,0,0,0,0,0,0,0,0,0,0,0,0,0,0,0,0,0,0,0,0,0
"Ind6","9_0_1",74,0,0,0,0,-1,0,0,0,0,0,0,0,0,0,0,0,0,0,0,0,0,0,0,0,0,0,0,0,0,0,0,0,0,0,0,0,0,0,0,0
"Ind7","9_0_0",74,0,0,0,0,0,-1,0,0,0,0,0,0,0,0,0,0,0,0,0,0,0,0,0,0,0,0,0,0,0,0,0,0,0,0,0,0,0,0,0,0
"Ind8","9_0_3",74,0,0,0,0,0,0,-1,0,0,0,0,0,0,0,0,0,0,0,0,0,0,0,0,0,0,0,0,0,0,0,0,0,0,0,0,0,0,0,0,0
"Ind9","9_0_2",74,0,0,0,0,0,0,0,-1,0,0,0,0,0,0,0,0,0,0,0,0,0,0,0,0,0,0,0,0,0,0,0,0,0,0,0,0,0,0,0,0
"Ind10","8_0_1",84,12,12,12,12,12,12,12,12,-1,0,0,0,0,0,0,0,0,0,0,0,0,0,0,0,0,0,0,0,0,0,0,0,0,0,0,0,0,0,0,0
"Ind11","8_0_2",84,12,12,12,12,12,12,12,12,0,-1,0,0,0,0,0,0,0,0,0,0,0,0,0,0,0,0,0,0,0,0,0,0,0,0,0,0,0,0,0,0
"Ind12","8_0_0",84,12,12,12,12,12,12,12,12,0,0,-1,0,0,0,0,0,0,0,0,0,0,0,0,0,0,0,0,0,0,0,0,0,0,0,0,0,0,0,0,0
"Ind13","8_0_3",84,12,12,12,12,12,12,12,12,0,0,0,-1,0,0,0,0,0,0,0,0,0,0,0,0,0,0,0,0,0,0,0,0,0,0,0,0,0,0,0,0
"Ind14","7_0_3",73,12,12,12,12,12,12,12,12,24,24,24,24,-1,0,0,0,0,0,0,0,0,0,0,0,0,0,0,0,0,0,0,0,0,0,0,0,0,0,0,0
"Ind15","7_0_1",73,12,12,12,12,12,12,12,12,24,24,24,24,0,-1,0,0,0,0,0,0,0,0,0,0,0,0,0,0,0,0,0,0,0,0,0,0,0,0,0,0
"Ind16","7_0_2",73,12,12,12,12,12,12,12,12,24,24,24,24,0,0,-1,0,0,0,0,0,0,0,0,0,0,0,0,0,0,0,0,0,0,0,0,0,0,0,0,0
"Ind17","7_0_0",73,12,12,12,12,12,12,12,12,24,24,24,24,0,0,0,-1,0,0,0,0,0,0,0,0,0,0,0,0,0,0,0,0,0,0,0,0,0,0,0,0
"Ind18","5_0_0",72,38,38,38,38,38,38,38,38,50,50,50,50,39,39,39,39,-1,0,0,0,0,0,0,0,0,0,0,0,0,0,0,0,0,0,0,0,0,0,0,0
"Ind19","5_0_3",72,38,38,38,38,38,38,38,38,50,50,50,50,39,39,39,39,0,-1,0,0,0,0,0,0,0,0,0,0,0,0,0,0,0,0,0,0,0,0,0,0
"Ind20","5_0_2",72,38,38,38,38,38,38,38,38,50,50,50,50,39,39,39,39,0,0,-1,0,0,0,0,0,0,0,0,0,0,0,0,0,0,0,0,0,0,0,0,0
"Ind21","5_0_1",72,38,38,38,38,38,38,38,38,50,50,50,50,39,39,39,39,0,0,0,-1,0,0,0,0,0,0,0,0,0,0,0,0,0,0,0,0,0,0,0,0
"Ind22","1_0_0",72,41,41,41,41,41,41,41,41,53,53,53,53,42,42,42,42,7,7,7,7,-1,0,0,0,0,0,0,0,0,0,0,0,0,0,0,0,0,0,0,0
"Ind23","1_0_2",72,41,41,41,41,41,41,41,41,53,53,53,53,42,42,42,42,7,7,7,7,0,-1,0,0,0,0,0,0,0,0,0,0,0,0,0,0,0,0,0,0
"Ind24","1_0_3",72,41,41,41,41,41,41,41,41,53,53,53,53,42,42,42,42,7,7,7,7,0,0,-1,0,0,0,0,0,0,0,0,0,0,0,0,0,0,0,0,0
"Ind25","1_0_1",72,41,41,41,41,41,41,41,41,53,53,53,53,42,42,42,42,7,7,7,7,0,0,0,-1,0,0,0,0,0,0,0,0,0,0,0,0,0,0,0,0
"Ind26","4_0_1",73,40,40,40,40,40,40,40,40,52,52,52,52,39,39,39,39,6,6,6,6,3,3,3,3,-1,0,0,0,0,0,0,0,0,0,0,0,0,0,0,0
"Ind27","4_0_3",73,40,40,40,40,40,40,40,40,52,52,52,52,39,39,39,39,6,6,6,6,3,3,3,3,0,-1,0,0,0,0,0,0,0,0,0,0,0,0,0,0
"Ind28","4_0_2",73,40,40,40,40,40,40,40,40,52,52,52,52,39,39,39,39,6,6,6,6,3,3,3,3,0,0,-1,0,0,0,0,0,0,0,0,0,0,0,0,0
"Ind29","4_0_0",73,40,40,40,40,40,40,40,40,52,52,52,52,39,39,39,39,6,6,6,6,3,3,3,3,0,0,0,-1,0,0,0,0,0,0,0,0,0,0,0,0
"Ind30","3_0_3",71,37,37,37,37,37,37,37,37,49,49,49,49,38,38,38,38,18,18,18,18,21,21,21,21,20,20,20,20,-1,0,0,0,0,0,0,0,0,0,0,0
"Ind31","3_0_2",71,37,37,37,37,37,37,37,37,49,49,49,49,38,38,38,38,18,18,18,18,21,21,21,21,20,20,20,20,0,-1,0,0,0,0,0,0,0,0,0,0
"Ind32","3_0_1",71,37,37,37,37,37,37,37,37,49,49,49,49,38,38,38,38,18,18,18,18,21,21,21,21,20,20,20,20,0,0,-1,0,0,0,0,0,0,0,0,0
"Ind33","3_0_0",71,37,37,37,37,37,37,37,37,49,49,49,49,38,38,38,38,18,18,18,18,21,21,21,21,20,20,20,20,0,0,0,-1,0,0,0,0,0,0,0,0
"Ind34","6_0_3",69,39,39,39,39,39,39,39,39,51,51,51,51,40,40,40,40,22,22,22,22,25,25,25,25,24,24,24,24,6,6,6,6,-1,0,0,0,0,0,0,0
"Ind35","6_0_0",69,39,39,39,39,39,39,39,39,51,51,51,51,40,40,40,40,22,22,22,22,25,25,25,25,24,24,24,24,6,6,6,6,0,-1,0,0,0,0,0,0
"Ind36","6_0_2",69,39,39,39,39,39,39,39,39,51,51,51,51,40,40,40,40,22,22,22,22,25,25,25,25,24,24,24,24,6,6,6,6,0,0,-1,0,0,0,0,0
"Ind37","6_0_1",69,39,39,39,39,39,39,39,39,51,51,51,51,40,40,40,40,22,22,22,22,25,25,25,25,24,24,24,24,6,6,6,6,0,0,0,-1,0,0,0,0
"Ind38","2_0_1",68,36,36,36,36,36,36,36,36,48,48,48,48,37,37,37,37,13,13,13,13,17,17,17,17,16,16,16,16,10,10,10,10,14,14,14,14,-1,0,0,0
"Ind39","2_0_2",68,36,36,36,36,36,36,36,36,48,48,48,48,37,37,37,37,13,13,13,13,17,17,17,17,16,16,16,16,10,10,10,10,14,14,14,14,0,-1,0,0
"Ind40","2_0_0",68,36,36,36,36,36,36,36,36,48,48,48,48,37,37,37,37,13,13,13,13,17,17,17,17,16,16,16,16,10,10,10,10,14,14,14,14,0,0,-1,0
"Ind41","2_0_3",68,36,36,36,36,36,36,36,36,48,48,48,48,37,37,37,37,13,13,13,13,17,17,17,17,16,16,16,16,10,10,10,10,14,14,14,14,0,0,0,-1
