"","Description","Ind1","Ind2","Ind3","Ind4","Ind5","Ind6","Ind7","Ind8","Ind9","Ind10","Ind11","Ind12","Ind13","Ind14","Ind15","Ind16","Ind17","Ind18","Ind19","Ind20","Ind21","Ind22","Ind23","Ind24","Ind25","Ind26","Ind27","Ind28","Ind29","Ind30","Ind31","Ind32","Ind33"
"Ind1","4_0_2",-1,0,0,0,0,0,0,0,0,0,0,0,0,0,0,0,0,0,0,0,0,0,0,0,0,0,0,0,0,0,0,0,0
"Ind2","4_0_5",0,-1,0,0,0,0,0,0,0,0,0,0,0,0,0,0,0,0,0,0,0,0,0,0,0,0,0,0,0,0,0,0,0
"Ind3","4_0_7",0,0,-1,0,0,0,0,0,0,0,0,0,0,0,0,0,0,0,0,0,0,0,0,0,0,0,0,0,0,0,0,0,0
"Ind4","4_0_3",0,0,0,-1,0,0,0,0,0,0,0,0,0,0,0,0,0,0,0,0,0,0,0,0,0,0,0,0,0,0,0,0,0
"Ind5","4_0_0",0,0,0,0,-1,0,0,0,0,0,0,0,0,0,0,0,0,0,0,0,0,0,0,0,0,0,0,0,0,0,0,0,0
"Ind6","4_0_4",0,0,0,0,0,-1,0,0,0,0,0,0,0,0,0,0,0,0,0,0,0,0,0,0,0,0,0,0,0,0,0,0,0
"Ind7","4_0_6",0,0,0,0,0,0,-1,0,0,0,0,0,0,0,0,0,0,0,0,0,0,0,0,0,0,0,0,0,0,0,0,0,0
"Ind8","4_0_1",0,0,0,0,0,0,0,-1,0,0,0,0,0,0,0,0,0,0,0,0,0,0,0,0,0,0,0,0,0,0,0,0,0
"Ind9","3_0_1",50,50,50,50,50,50,50,50,-1,0,0,0,0,0,0,0,0,0,0,0,0,0,0,0,0,0,0,0,0,0,0,0,0
"Ind10","3_0_2",50,50,50,50,50,50,50,50,0,-1,0,0,0,0,0,0,0,0,0,0,0,0,0,0,0,0,0,0,0,0,0,0,0
"Ind11","3_0_6",50,50,50,50,50,50,50,50,0,0,-1,0,0,0,0,0,0,0,0,0,0,0,0,0,0,0,0,0,0,0,0,0,0
"Ind12","3_0_4",50,50,50,50,50,50,50,50,0,0,0,-1,0,0,0,0,0,0,0,0,0,0,0,0,0,0,0,0,0,0,0,0,0
"Ind13","3_0_7",50,50,50,50,50,50,50,50,0,0,0,0,-1,0,0,0,0,0,0,0,0,0,0,0,0,0,0,0,0,0,0,0,0
"Ind14","3_0_0",50,50,50,50,50,50,50,50,0,0,0,0,0,-1,0,0,0,0,0,0,0,0,0,0,0,0,0,0,0,0,0,0,0
"Ind15","3_0_5",50,50,50,50,50,50,50,50,0,0,0,0,0,0,-1,0,0,0,0,0,0,0,0,0,0,0,0,0,0,0,0,0,0
"Ind16","3_0_3",50,50,50,50,50,50,50,50,0,0,0,0,0,0,0,-1,0,0,0,0,0,0,0,0,0,0,0,0,0,0,0,0,0
"Ind17","2_0_2",47,47,47,47,47,47,47,47,27,27,27,27,27,27,27,27,-1,0,0,0,0,0,0,0,0,0,0,0,0,0,0,0,0
"Ind18","2_0_4",47,47,47,47,47,47,47,47,27,27,27,27,27,27,27,27,0,-1,0,0,0,0,0,0,0,0,0,0,0,0,0,0,0
"Ind19","2_0_1",47,47,47,47,47,47,47,47,27,27,27,27,27,27,27,27,0,0,-1,0,0,0,0,0,0,0,0,0,0,0,0,0,0
"Ind20","2_0_5",47,47,47,47,47,47,47,47,27,27,27,27,27,27,27,27,0,0,0,-1,0,0,0,0,0,0,0,0,0,0,0,0,0
"Ind21","2_0_7",47,47,47,47,47,47,47,47,27,27,27,27,27,27,27,27,0,0,0,0,-1,0,0,0,0,0,0,0,0,0,0,0,0
"Ind22","2_0_3",47,47,47,47,47,47,47,47,27,27,27,27,27,27,27,27,0,0,0,0,0,-1,0,0,0,0,0,0,0,0,0,0,0
"Ind23","2_0_6",46,46,46,46,46,46,46,46,26,26,26,26,26,26,26,26,1,1,1,1,1,1,-1,0,0,0,0,0,0,0,0,0,0
"Ind24","2_0_0",46,46,46,46,46,46,46,46,26,26,26,26,26,26,26,26,1,1,1,1,1,1,0,-1,0,0,0,0,0,0,0,0,0
"Ind25","1_0_6",42,42,42,42,42,42,42,42,50,50,50,50,50,50,50,50,47,47,47,47,47,47,46,46,-1,0,0,0,0,0,0,0,0
"Ind26","1_0_0",42,42,42,42,42,42,42,42,50,50,50,50,50,50,50,50,47,47,47,47,47,47,46,46,0,-1,0,0,0,0,0,0,0
"Ind27","1_0_5",42,42,42,42,42,42,42,42,50,50,50,50,50,50,50,50,47,47,47,47,47,47,46,46,0,0,-1,0,0,0,0,0,0
"Ind28","1_0_7",42,42,42,42,42,42,42,42,50,50,50,50,50,50,50,50,47,47,47,47,47,47,46,46,0,0,0,-1,0,0,0,0,0
"Ind29","1_0_3",42,42,42,42,42,42,42,42,50,50,50,50,50,50,50,50,47,47,47,47,47,47,46,46,0,0,0,0,-1,0,0,0,0
"Ind30","1_0_1",42,42,42,42,42,42,42,42,50,50,50,50,50,50,50,50,47,47,47,47,47,47,46,46,0,0,0,0,0,-1,0,0,0
"Ind31","1_0_2",42,42,42,42,42,42,42,42,50,50,50,50,50,50,50,50,47,47,47,47,47,47,46,46,0,0,0,0,0,0,-1,0,0
"Ind32","1_0_4",42,42,42,42,42,42,42,42,50,50,50,50,50,50,50,50,47,47,47,47,47,47,46,46,0,0,0,0,0,0,0,-1,0
"Ind33","0_0_0",111,111,111,111,111,111,111,111,122,122,122,122,122,122,122,122,109,109,109,109,109,109,110,110,109,109,109,109,109,109,109,109,-1
