"","Description","Ind1","Ind2","Ind3","Ind4","Ind5","Ind6","Ind7","Ind8","Ind9","Ind10","Ind11","Ind12","Ind13","Ind14","Ind15","Ind16","Ind17","Ind18","Ind19","Ind20","Ind21","Ind22","Ind23","Ind24","Ind25"
"Ind1","0_0_0",-1,0,0,0,0,0,0,0,0,0,0,0,0,0,0,0,0,0,0,0,0,0,0,0,0
"Ind2","3_0_1",75,-1,0,0,0,0,0,0,0,0,0,0,0,0,0,0,0,0,0,0,0,0,0,0,0
"Ind3","3_0_0",75,0,-1,0,0,0,0,0,0,0,0,0,0,0,0,0,0,0,0,0,0,0,0,0,0
"Ind4","3_0_2",75,0,0,-1,0,0,0,0,0,0,0,0,0,0,0,0,0,0,0,0,0,0,0,0,0
"Ind5","3_0_3",75,0,0,0,-1,0,0,0,0,0,0,0,0,0,0,0,0,0,0,0,0,0,0,0,0
"Ind6","1_0_1",75,0,0,0,0,-1,0,0,0,0,0,0,0,0,0,0,0,0,0,0,0,0,0,0,0
"Ind7","1_0_3",75,0,0,0,0,0,-1,0,0,0,0,0,0,0,0,0,0,0,0,0,0,0,0,0,0
"Ind8","1_0_0",75,0,0,0,0,0,0,-1,0,0,0,0,0,0,0,0,0,0,0,0,0,0,0,0,0
"Ind9","1_0_2",75,0,0,0,0,0,0,0,-1,0,0,0,0,0,0,0,0,0,0,0,0,0,0,0,0
"Ind10","4_0_1",77,2,2,2,2,2,2,2,2,-1,0,0,0,0,0,0,0,0,0,0,0,0,0,0,0
"Ind11","4_0_3",77,2,2,2,2,2,2,2,2,0,-1,0,0,0,0,0,0,0,0,0,0,0,0,0,0
"Ind12","4_0_0",77,2,2,2,2,2,2,2,2,0,0,-1,0,0,0,0,0,0,0,0,0,0,0,0,0
"Ind13","4_0_2",77,2,2,2,2,2,2,2,2,0,0,0,-1,0,0,0,0,0,0,0,0,0,0,0,0
"Ind14","2_0_3",75,0,0,0,0,0,0,0,0,2,2,2,2,-1,0,0,0,0,0,0,0,0,0,0,0
"Ind15","2_0_2",75,0,0,0,0,0,0,0,0,2,2,2,2,0,-1,0,0,0,0,0,0,0,0,0,0
"Ind16","2_0_1",75,0,0,0,0,0,0,0,0,2,2,2,2,0,0,-1,0,0,0,0,0,0,0,0,0
"Ind17","2_0_0",75,0,0,0,0,0,0,0,0,2,2,2,2,0,0,0,-1,0,0,0,0,0,0,0,0
"Ind18","5_0_2",75,0,0,0,0,0,0,0,0,2,2,2,2,0,0,0,0,-1,0,0,0,0,0,0,0
"Ind19","5_0_0",75,0,0,0,0,0,0,0,0,2,2,2,2,0,0,0,0,0,-1,0,0,0,0,0,0
"Ind20","5_0_3",75,0,0,0,0,0,0,0,0,2,2,2,2,0,0,0,0,0,0,-1,0,0,0,0,0
"Ind21","5_0_1",75,0,0,0,0,0,0,0,0,2,2,2,2,0,0,0,0,0,0,0,-1,0,0,0,0
"Ind22","6_0_0",79,55,55,55,55,55,55,55,55,57,57,57,57,55,55,55,55,55,55,55,55,-1,0,0,0
"Ind23","6_0_1",79,55,55,55,55,55,55,55,55,57,57,57,57,55,55,55,55,55,55,55,55,0,-1,0,0
"Ind24","6_0_3",80,56,56,56,56,56,56,56,56,58,58,58,58,56,56,56,56,56,56,56,56,1,1,-1,0
"Ind25","6_0_2",80,56,56,56,56,56,56,56,56,58,58,58,58,56,56,56,56,56,56,56,56,1,1,0,-1
