"","Description","Ind1","Ind2","Ind3","Ind4","Ind5","Ind6","Ind7","Ind8","Ind9","Ind10","Ind11","Ind12","Ind13","Ind14","Ind15","Ind16","Ind17","Ind18","Ind19","Ind20","Ind21","Ind22","Ind23","Ind24","Ind25","Ind26","Ind27","Ind28","Ind29","Ind30","Ind31","Ind32","Ind33","Ind34","Ind35","Ind36","Ind37","Ind38","Ind39","Ind40","Ind41","Ind42","Ind43","Ind44","Ind45","Ind46","Ind47","Ind48","Ind49","Ind50","Ind51","Ind52","Ind53","Ind54","Ind55","Ind56","Ind57","Ind58","Ind59","Ind60","Ind61","Ind62","Ind63","Ind64","Ind65","Ind66","Ind67","Ind68","Ind69","Ind70","Ind71","Ind72","Ind73","Ind74","Ind75","Ind76","Ind77","Ind78","Ind79","Ind80","Ind81","Ind82","Ind83","Ind84","Ind85","Ind86","Ind87","Ind88","Ind89","Ind90","Ind91","Ind92","Ind93","Ind94","Ind95","Ind96","Ind97","Ind98","Ind99","Ind100","Ind101","Ind102","Ind103","Ind104","Ind105","Ind106","Ind107","Ind108","Ind109","Ind110","Ind111","Ind112","Ind113","Ind114","Ind115","Ind116","Ind117","Ind118","Ind119","Ind120","Ind121","Ind122","Ind123","Ind124","Ind125","Ind126","Ind127","Ind128","Ind129","Ind130","Ind131","Ind132","Ind133","Ind134","Ind135","Ind136","Ind137","Ind138","Ind139","Ind140","Ind141"
"Ind1","0_0_0",-1,0,0,0,0,0,0,0,0,0,0,0,0,0,0,0,0,0,0,0,0,0,0,0,0,0,0,0,0,0,0,0,0,0,0,0,0,0,0,0,0,0,0,0,0,0,0,0,0,0,0,0,0,0,0,0,0,0,0,0,0,0,0,0,0,0,0,0,0,0,0,0,0,0,0,0,0,0,0,0,0,0,0,0,0,0,0,0,0,0,0,0,0,0,0,0,0,0,0,0,0,0,0,0,0,0,0,0,0,0,0,0,0,0,0,0,0,0,0,0,0,0,0,0,0,0,0,0,0,0,0,0,0,0,0,0,0,0,0,0,0
"Ind2","2_0_1",52,-1,0,0,0,0,0,0,0,0,0,0,0,0,0,0,0,0,0,0,0,0,0,0,0,0,0,0,0,0,0,0,0,0,0,0,0,0,0,0,0,0,0,0,0,0,0,0,0,0,0,0,0,0,0,0,0,0,0,0,0,0,0,0,0,0,0,0,0,0,0,0,0,0,0,0,0,0,0,0,0,0,0,0,0,0,0,0,0,0,0,0,0,0,0,0,0,0,0,0,0,0,0,0,0,0,0,0,0,0,0,0,0,0,0,0,0,0,0,0,0,0,0,0,0,0,0,0,0,0,0,0,0,0,0,0,0,0,0,0,0
"Ind3","2_0_5",52,0,-1,0,0,0,0,0,0,0,0,0,0,0,0,0,0,0,0,0,0,0,0,0,0,0,0,0,0,0,0,0,0,0,0,0,0,0,0,0,0,0,0,0,0,0,0,0,0,0,0,0,0,0,0,0,0,0,0,0,0,0,0,0,0,0,0,0,0,0,0,0,0,0,0,0,0,0,0,0,0,0,0,0,0,0,0,0,0,0,0,0,0,0,0,0,0,0,0,0,0,0,0,0,0,0,0,0,0,0,0,0,0,0,0,0,0,0,0,0,0,0,0,0,0,0,0,0,0,0,0,0,0,0,0,0,0,0,0,0,0
"Ind4","2_0_4",52,0,0,-1,0,0,0,0,0,0,0,0,0,0,0,0,0,0,0,0,0,0,0,0,0,0,0,0,0,0,0,0,0,0,0,0,0,0,0,0,0,0,0,0,0,0,0,0,0,0,0,0,0,0,0,0,0,0,0,0,0,0,0,0,0,0,0,0,0,0,0,0,0,0,0,0,0,0,0,0,0,0,0,0,0,0,0,0,0,0,0,0,0,0,0,0,0,0,0,0,0,0,0,0,0,0,0,0,0,0,0,0,0,0,0,0,0,0,0,0,0,0,0,0,0,0,0,0,0,0,0,0,0,0,0,0,0,0,0,0,0
"Ind5","2_0_2",52,0,0,0,-1,0,0,0,0,0,0,0,0,0,0,0,0,0,0,0,0,0,0,0,0,0,0,0,0,0,0,0,0,0,0,0,0,0,0,0,0,0,0,0,0,0,0,0,0,0,0,0,0,0,0,0,0,0,0,0,0,0,0,0,0,0,0,0,0,0,0,0,0,0,0,0,0,0,0,0,0,0,0,0,0,0,0,0,0,0,0,0,0,0,0,0,0,0,0,0,0,0,0,0,0,0,0,0,0,0,0,0,0,0,0,0,0,0,0,0,0,0,0,0,0,0,0,0,0,0,0,0,0,0,0,0,0,0,0,0,0
"Ind6","2_0_3",52,0,0,0,0,-1,0,0,0,0,0,0,0,0,0,0,0,0,0,0,0,0,0,0,0,0,0,0,0,0,0,0,0,0,0,0,0,0,0,0,0,0,0,0,0,0,0,0,0,0,0,0,0,0,0,0,0,0,0,0,0,0,0,0,0,0,0,0,0,0,0,0,0,0,0,0,0,0,0,0,0,0,0,0,0,0,0,0,0,0,0,0,0,0,0,0,0,0,0,0,0,0,0,0,0,0,0,0,0,0,0,0,0,0,0,0,0,0,0,0,0,0,0,0,0,0,0,0,0,0,0,0,0,0,0,0,0,0,0,0,0
"Ind7","2_0_6",52,0,0,0,0,0,-1,0,0,0,0,0,0,0,0,0,0,0,0,0,0,0,0,0,0,0,0,0,0,0,0,0,0,0,0,0,0,0,0,0,0,0,0,0,0,0,0,0,0,0,0,0,0,0,0,0,0,0,0,0,0,0,0,0,0,0,0,0,0,0,0,0,0,0,0,0,0,0,0,0,0,0,0,0,0,0,0,0,0,0,0,0,0,0,0,0,0,0,0,0,0,0,0,0,0,0,0,0,0,0,0,0,0,0,0,0,0,0,0,0,0,0,0,0,0,0,0,0,0,0,0,0,0,0,0,0,0,0,0,0,0
"Ind8","2_0_0",52,0,0,0,0,0,0,-1,0,0,0,0,0,0,0,0,0,0,0,0,0,0,0,0,0,0,0,0,0,0,0,0,0,0,0,0,0,0,0,0,0,0,0,0,0,0,0,0,0,0,0,0,0,0,0,0,0,0,0,0,0,0,0,0,0,0,0,0,0,0,0,0,0,0,0,0,0,0,0,0,0,0,0,0,0,0,0,0,0,0,0,0,0,0,0,0,0,0,0,0,0,0,0,0,0,0,0,0,0,0,0,0,0,0,0,0,0,0,0,0,0,0,0,0,0,0,0,0,0,0,0,0,0,0,0,0,0,0,0,0,0
"Ind9","6_0_4",58,18,18,18,18,18,18,18,-1,0,0,0,0,0,0,0,0,0,0,0,0,0,0,0,0,0,0,0,0,0,0,0,0,0,0,0,0,0,0,0,0,0,0,0,0,0,0,0,0,0,0,0,0,0,0,0,0,0,0,0,0,0,0,0,0,0,0,0,0,0,0,0,0,0,0,0,0,0,0,0,0,0,0,0,0,0,0,0,0,0,0,0,0,0,0,0,0,0,0,0,0,0,0,0,0,0,0,0,0,0,0,0,0,0,0,0,0,0,0,0,0,0,0,0,0,0,0,0,0,0,0,0,0,0,0,0,0,0,0,0,0
"Ind10","6_0_5",58,18,18,18,18,18,18,18,0,-1,0,0,0,0,0,0,0,0,0,0,0,0,0,0,0,0,0,0,0,0,0,0,0,0,0,0,0,0,0,0,0,0,0,0,0,0,0,0,0,0,0,0,0,0,0,0,0,0,0,0,0,0,0,0,0,0,0,0,0,0,0,0,0,0,0,0,0,0,0,0,0,0,0,0,0,0,0,0,0,0,0,0,0,0,0,0,0,0,0,0,0,0,0,0,0,0,0,0,0,0,0,0,0,0,0,0,0,0,0,0,0,0,0,0,0,0,0,0,0,0,0,0,0,0,0,0,0,0,0,0,0
"Ind11","6_0_2",58,18,18,18,18,18,18,18,0,0,-1,0,0,0,0,0,0,0,0,0,0,0,0,0,0,0,0,0,0,0,0,0,0,0,0,0,0,0,0,0,0,0,0,0,0,0,0,0,0,0,0,0,0,0,0,0,0,0,0,0,0,0,0,0,0,0,0,0,0,0,0,0,0,0,0,0,0,0,0,0,0,0,0,0,0,0,0,0,0,0,0,0,0,0,0,0,0,0,0,0,0,0,0,0,0,0,0,0,0,0,0,0,0,0,0,0,0,0,0,0,0,0,0,0,0,0,0,0,0,0,0,0,0,0,0,0,0,0,0,0,0
"Ind12","6_0_3",58,18,18,18,18,18,18,18,0,0,0,-1,0,0,0,0,0,0,0,0,0,0,0,0,0,0,0,0,0,0,0,0,0,0,0,0,0,0,0,0,0,0,0,0,0,0,0,0,0,0,0,0,0,0,0,0,0,0,0,0,0,0,0,0,0,0,0,0,0,0,0,0,0,0,0,0,0,0,0,0,0,0,0,0,0,0,0,0,0,0,0,0,0,0,0,0,0,0,0,0,0,0,0,0,0,0,0,0,0,0,0,0,0,0,0,0,0,0,0,0,0,0,0,0,0,0,0,0,0,0,0,0,0,0,0,0,0,0,0,0,0
"Ind13","6_0_6",58,18,18,18,18,18,18,18,0,0,0,0,-1,0,0,0,0,0,0,0,0,0,0,0,0,0,0,0,0,0,0,0,0,0,0,0,0,0,0,0,0,0,0,0,0,0,0,0,0,0,0,0,0,0,0,0,0,0,0,0,0,0,0,0,0,0,0,0,0,0,0,0,0,0,0,0,0,0,0,0,0,0,0,0,0,0,0,0,0,0,0,0,0,0,0,0,0,0,0,0,0,0,0,0,0,0,0,0,0,0,0,0,0,0,0,0,0,0,0,0,0,0,0,0,0,0,0,0,0,0,0,0,0,0,0,0,0,0,0,0,0
"Ind14","6_0_0",58,18,18,18,18,18,18,18,0,0,0,0,0,-1,0,0,0,0,0,0,0,0,0,0,0,0,0,0,0,0,0,0,0,0,0,0,0,0,0,0,0,0,0,0,0,0,0,0,0,0,0,0,0,0,0,0,0,0,0,0,0,0,0,0,0,0,0,0,0,0,0,0,0,0,0,0,0,0,0,0,0,0,0,0,0,0,0,0,0,0,0,0,0,0,0,0,0,0,0,0,0,0,0,0,0,0,0,0,0,0,0,0,0,0,0,0,0,0,0,0,0,0,0,0,0,0,0,0,0,0,0,0,0,0,0,0,0,0,0,0,0
"Ind15","6_0_1",58,18,18,18,18,18,18,18,0,0,0,0,0,0,-1,0,0,0,0,0,0,0,0,0,0,0,0,0,0,0,0,0,0,0,0,0,0,0,0,0,0,0,0,0,0,0,0,0,0,0,0,0,0,0,0,0,0,0,0,0,0,0,0,0,0,0,0,0,0,0,0,0,0,0,0,0,0,0,0,0,0,0,0,0,0,0,0,0,0,0,0,0,0,0,0,0,0,0,0,0,0,0,0,0,0,0,0,0,0,0,0,0,0,0,0,0,0,0,0,0,0,0,0,0,0,0,0,0,0,0,0,0,0,0,0,0,0,0,0,0,0
"Ind16","3_0_3",51,13,13,13,13,13,13,13,7,7,7,7,7,7,7,-1,0,0,0,0,0,0,0,0,0,0,0,0,0,0,0,0,0,0,0,0,0,0,0,0,0,0,0,0,0,0,0,0,0,0,0,0,0,0,0,0,0,0,0,0,0,0,0,0,0,0,0,0,0,0,0,0,0,0,0,0,0,0,0,0,0,0,0,0,0,0,0,0,0,0,0,0,0,0,0,0,0,0,0,0,0,0,0,0,0,0,0,0,0,0,0,0,0,0,0,0,0,0,0,0,0,0,0,0,0,0,0,0,0,0,0,0,0,0,0,0,0,0,0,0,0
"Ind17","3_0_2",51,13,13,13,13,13,13,13,7,7,7,7,7,7,7,0,-1,0,0,0,0,0,0,0,0,0,0,0,0,0,0,0,0,0,0,0,0,0,0,0,0,0,0,0,0,0,0,0,0,0,0,0,0,0,0,0,0,0,0,0,0,0,0,0,0,0,0,0,0,0,0,0,0,0,0,0,0,0,0,0,0,0,0,0,0,0,0,0,0,0,0,0,0,0,0,0,0,0,0,0,0,0,0,0,0,0,0,0,0,0,0,0,0,0,0,0,0,0,0,0,0,0,0,0,0,0,0,0,0,0,0,0,0,0,0,0,0,0,0,0,0
"Ind18","3_0_0",51,13,13,13,13,13,13,13,7,7,7,7,7,7,7,0,0,-1,0,0,0,0,0,0,0,0,0,0,0,0,0,0,0,0,0,0,0,0,0,0,0,0,0,0,0,0,0,0,0,0,0,0,0,0,0,0,0,0,0,0,0,0,0,0,0,0,0,0,0,0,0,0,0,0,0,0,0,0,0,0,0,0,0,0,0,0,0,0,0,0,0,0,0,0,0,0,0,0,0,0,0,0,0,0,0,0,0,0,0,0,0,0,0,0,0,0,0,0,0,0,0,0,0,0,0,0,0,0,0,0,0,0,0,0,0,0,0,0,0,0,0
"Ind19","3_0_6",51,13,13,13,13,13,13,13,7,7,7,7,7,7,7,0,0,0,-1,0,0,0,0,0,0,0,0,0,0,0,0,0,0,0,0,0,0,0,0,0,0,0,0,0,0,0,0,0,0,0,0,0,0,0,0,0,0,0,0,0,0,0,0,0,0,0,0,0,0,0,0,0,0,0,0,0,0,0,0,0,0,0,0,0,0,0,0,0,0,0,0,0,0,0,0,0,0,0,0,0,0,0,0,0,0,0,0,0,0,0,0,0,0,0,0,0,0,0,0,0,0,0,0,0,0,0,0,0,0,0,0,0,0,0,0,0,0,0,0,0,0
"Ind20","3_0_1",51,13,13,13,13,13,13,13,7,7,7,7,7,7,7,0,0,0,0,-1,0,0,0,0,0,0,0,0,0,0,0,0,0,0,0,0,0,0,0,0,0,0,0,0,0,0,0,0,0,0,0,0,0,0,0,0,0,0,0,0,0,0,0,0,0,0,0,0,0,0,0,0,0,0,0,0,0,0,0,0,0,0,0,0,0,0,0,0,0,0,0,0,0,0,0,0,0,0,0,0,0,0,0,0,0,0,0,0,0,0,0,0,0,0,0,0,0,0,0,0,0,0,0,0,0,0,0,0,0,0,0,0,0,0,0,0,0,0,0,0,0
"Ind21","3_0_4",51,13,13,13,13,13,13,13,7,7,7,7,7,7,7,0,0,0,0,0,-1,0,0,0,0,0,0,0,0,0,0,0,0,0,0,0,0,0,0,0,0,0,0,0,0,0,0,0,0,0,0,0,0,0,0,0,0,0,0,0,0,0,0,0,0,0,0,0,0,0,0,0,0,0,0,0,0,0,0,0,0,0,0,0,0,0,0,0,0,0,0,0,0,0,0,0,0,0,0,0,0,0,0,0,0,0,0,0,0,0,0,0,0,0,0,0,0,0,0,0,0,0,0,0,0,0,0,0,0,0,0,0,0,0,0,0,0,0,0,0,0
"Ind22","3_0_5",51,13,13,13,13,13,13,13,7,7,7,7,7,7,7,0,0,0,0,0,0,-1,0,0,0,0,0,0,0,0,0,0,0,0,0,0,0,0,0,0,0,0,0,0,0,0,0,0,0,0,0,0,0,0,0,0,0,0,0,0,0,0,0,0,0,0,0,0,0,0,0,0,0,0,0,0,0,0,0,0,0,0,0,0,0,0,0,0,0,0,0,0,0,0,0,0,0,0,0,0,0,0,0,0,0,0,0,0,0,0,0,0,0,0,0,0,0,0,0,0,0,0,0,0,0,0,0,0,0,0,0,0,0,0,0,0,0,0,0,0,0
"Ind23","1_0_6",58,25,25,25,25,25,25,25,15,15,15,15,15,15,15,12,12,12,12,12,12,12,-1,0,0,0,0,0,0,0,0,0,0,0,0,0,0,0,0,0,0,0,0,0,0,0,0,0,0,0,0,0,0,0,0,0,0,0,0,0,0,0,0,0,0,0,0,0,0,0,0,0,0,0,0,0,0,0,0,0,0,0,0,0,0,0,0,0,0,0,0,0,0,0,0,0,0,0,0,0,0,0,0,0,0,0,0,0,0,0,0,0,0,0,0,0,0,0,0,0,0,0,0,0,0,0,0,0,0,0,0,0,0,0,0,0,0,0,0,0,0
"Ind24","1_0_1",58,25,25,25,25,25,25,25,15,15,15,15,15,15,15,12,12,12,12,12,12,12,0,-1,0,0,0,0,0,0,0,0,0,0,0,0,0,0,0,0,0,0,0,0,0,0,0,0,0,0,0,0,0,0,0,0,0,0,0,0,0,0,0,0,0,0,0,0,0,0,0,0,0,0,0,0,0,0,0,0,0,0,0,0,0,0,0,0,0,0,0,0,0,0,0,0,0,0,0,0,0,0,0,0,0,0,0,0,0,0,0,0,0,0,0,0,0,0,0,0,0,0,0,0,0,0,0,0,0,0,0,0,0,0,0,0,0,0,0,0,0
"Ind25","1_0_5",58,25,25,25,25,25,25,25,15,15,15,15,15,15,15,12,12,12,12,12,12,12,0,0,-1,0,0,0,0,0,0,0,0,0,0,0,0,0,0,0,0,0,0,0,0,0,0,0,0,0,0,0,0,0,0,0,0,0,0,0,0,0,0,0,0,0,0,0,0,0,0,0,0,0,0,0,0,0,0,0,0,0,0,0,0,0,0,0,0,0,0,0,0,0,0,0,0,0,0,0,0,0,0,0,0,0,0,0,0,0,0,0,0,0,0,0,0,0,0,0,0,0,0,0,0,0,0,0,0,0,0,0,0,0,0,0,0,0,0,0,0
"Ind26","1_0_0",58,25,25,25,25,25,25,25,15,15,15,15,15,15,15,12,12,12,12,12,12,12,0,0,0,-1,0,0,0,0,0,0,0,0,0,0,0,0,0,0,0,0,0,0,0,0,0,0,0,0,0,0,0,0,0,0,0,0,0,0,0,0,0,0,0,0,0,0,0,0,0,0,0,0,0,0,0,0,0,0,0,0,0,0,0,0,0,0,0,0,0,0,0,0,0,0,0,0,0,0,0,0,0,0,0,0,0,0,0,0,0,0,0,0,0,0,0,0,0,0,0,0,0,0,0,0,0,0,0,0,0,0,0,0,0,0,0,0,0,0,0
"Ind27","1_0_2",58,25,25,25,25,25,25,25,15,15,15,15,15,15,15,12,12,12,12,12,12,12,0,0,0,0,-1,0,0,0,0,0,0,0,0,0,0,0,0,0,0,0,0,0,0,0,0,0,0,0,0,0,0,0,0,0,0,0,0,0,0,0,0,0,0,0,0,0,0,0,0,0,0,0,0,0,0,0,0,0,0,0,0,0,0,0,0,0,0,0,0,0,0,0,0,0,0,0,0,0,0,0,0,0,0,0,0,0,0,0,0,0,0,0,0,0,0,0,0,0,0,0,0,0,0,0,0,0,0,0,0,0,0,0,0,0,0,0,0,0,0
"Ind28","1_0_4",58,25,25,25,25,25,25,25,15,15,15,15,15,15,15,12,12,12,12,12,12,12,0,0,0,0,0,-1,0,0,0,0,0,0,0,0,0,0,0,0,0,0,0,0,0,0,0,0,0,0,0,0,0,0,0,0,0,0,0,0,0,0,0,0,0,0,0,0,0,0,0,0,0,0,0,0,0,0,0,0,0,0,0,0,0,0,0,0,0,0,0,0,0,0,0,0,0,0,0,0,0,0,0,0,0,0,0,0,0,0,0,0,0,0,0,0,0,0,0,0,0,0,0,0,0,0,0,0,0,0,0,0,0,0,0,0,0,0,0,0,0
"Ind29","1_0_3",58,25,25,25,25,25,25,25,15,15,15,15,15,15,15,12,12,12,12,12,12,12,0,0,0,0,0,0,-1,0,0,0,0,0,0,0,0,0,0,0,0,0,0,0,0,0,0,0,0,0,0,0,0,0,0,0,0,0,0,0,0,0,0,0,0,0,0,0,0,0,0,0,0,0,0,0,0,0,0,0,0,0,0,0,0,0,0,0,0,0,0,0,0,0,0,0,0,0,0,0,0,0,0,0,0,0,0,0,0,0,0,0,0,0,0,0,0,0,0,0,0,0,0,0,0,0,0,0,0,0,0,0,0,0,0,0,0,0,0,0,0
"Ind30","5_0_1",50,14,14,14,14,14,14,14,20,20,20,20,20,20,20,15,15,15,15,15,15,15,27,27,27,27,27,27,27,-1,0,0,0,0,0,0,0,0,0,0,0,0,0,0,0,0,0,0,0,0,0,0,0,0,0,0,0,0,0,0,0,0,0,0,0,0,0,0,0,0,0,0,0,0,0,0,0,0,0,0,0,0,0,0,0,0,0,0,0,0,0,0,0,0,0,0,0,0,0,0,0,0,0,0,0,0,0,0,0,0,0,0,0,0,0,0,0,0,0,0,0,0,0,0,0,0,0,0,0,0,0,0,0,0,0,0,0,0,0,0,0
"Ind31","5_0_2",50,14,14,14,14,14,14,14,20,20,20,20,20,20,20,15,15,15,15,15,15,15,27,27,27,27,27,27,27,0,-1,0,0,0,0,0,0,0,0,0,0,0,0,0,0,0,0,0,0,0,0,0,0,0,0,0,0,0,0,0,0,0,0,0,0,0,0,0,0,0,0,0,0,0,0,0,0,0,0,0,0,0,0,0,0,0,0,0,0,0,0,0,0,0,0,0,0,0,0,0,0,0,0,0,0,0,0,0,0,0,0,0,0,0,0,0,0,0,0,0,0,0,0,0,0,0,0,0,0,0,0,0,0,0,0,0,0,0,0,0,0
"Ind32","5_0_5",50,14,14,14,14,14,14,14,20,20,20,20,20,20,20,15,15,15,15,15,15,15,27,27,27,27,27,27,27,0,0,-1,0,0,0,0,0,0,0,0,0,0,0,0,0,0,0,0,0,0,0,0,0,0,0,0,0,0,0,0,0,0,0,0,0,0,0,0,0,0,0,0,0,0,0,0,0,0,0,0,0,0,0,0,0,0,0,0,0,0,0,0,0,0,0,0,0,0,0,0,0,0,0,0,0,0,0,0,0,0,0,0,0,0,0,0,0,0,0,0,0,0,0,0,0,0,0,0,0,0,0,0,0,0,0,0,0,0,0,0,0
"Ind33","5_0_0",50,14,14,14,14,14,14,14,20,20,20,20,20,20,20,15,15,15,15,15,15,15,27,27,27,27,27,27,27,0,0,0,-1,0,0,0,0,0,0,0,0,0,0,0,0,0,0,0,0,0,0,0,0,0,0,0,0,0,0,0,0,0,0,0,0,0,0,0,0,0,0,0,0,0,0,0,0,0,0,0,0,0,0,0,0,0,0,0,0,0,0,0,0,0,0,0,0,0,0,0,0,0,0,0,0,0,0,0,0,0,0,0,0,0,0,0,0,0,0,0,0,0,0,0,0,0,0,0,0,0,0,0,0,0,0,0,0,0,0,0,0
"Ind34","5_0_4",50,14,14,14,14,14,14,14,20,20,20,20,20,20,20,15,15,15,15,15,15,15,27,27,27,27,27,27,27,0,0,0,0,-1,0,0,0,0,0,0,0,0,0,0,0,0,0,0,0,0,0,0,0,0,0,0,0,0,0,0,0,0,0,0,0,0,0,0,0,0,0,0,0,0,0,0,0,0,0,0,0,0,0,0,0,0,0,0,0,0,0,0,0,0,0,0,0,0,0,0,0,0,0,0,0,0,0,0,0,0,0,0,0,0,0,0,0,0,0,0,0,0,0,0,0,0,0,0,0,0,0,0,0,0,0,0,0,0,0,0,0
"Ind35","5_0_3",50,14,14,14,14,14,14,14,20,20,20,20,20,20,20,15,15,15,15,15,15,15,27,27,27,27,27,27,27,0,0,0,0,0,-1,0,0,0,0,0,0,0,0,0,0,0,0,0,0,0,0,0,0,0,0,0,0,0,0,0,0,0,0,0,0,0,0,0,0,0,0,0,0,0,0,0,0,0,0,0,0,0,0,0,0,0,0,0,0,0,0,0,0,0,0,0,0,0,0,0,0,0,0,0,0,0,0,0,0,0,0,0,0,0,0,0,0,0,0,0,0,0,0,0,0,0,0,0,0,0,0,0,0,0,0,0,0,0,0,0,0
"Ind36","5_0_6",50,14,14,14,14,14,14,14,20,20,20,20,20,20,20,15,15,15,15,15,15,15,27,27,27,27,27,27,27,0,0,0,0,0,0,-1,0,0,0,0,0,0,0,0,0,0,0,0,0,0,0,0,0,0,0,0,0,0,0,0,0,0,0,0,0,0,0,0,0,0,0,0,0,0,0,0,0,0,0,0,0,0,0,0,0,0,0,0,0,0,0,0,0,0,0,0,0,0,0,0,0,0,0,0,0,0,0,0,0,0,0,0,0,0,0,0,0,0,0,0,0,0,0,0,0,0,0,0,0,0,0,0,0,0,0,0,0,0,0,0,0
"Ind37","4_0_1",49,15,15,15,15,15,15,15,19,19,19,19,19,19,19,14,14,14,14,14,14,14,24,24,24,24,24,24,24,11,11,11,11,11,11,11,-1,0,0,0,0,0,0,0,0,0,0,0,0,0,0,0,0,0,0,0,0,0,0,0,0,0,0,0,0,0,0,0,0,0,0,0,0,0,0,0,0,0,0,0,0,0,0,0,0,0,0,0,0,0,0,0,0,0,0,0,0,0,0,0,0,0,0,0,0,0,0,0,0,0,0,0,0,0,0,0,0,0,0,0,0,0,0,0,0,0,0,0,0,0,0,0,0,0,0,0,0,0,0,0,0
"Ind38","4_0_4",49,15,15,15,15,15,15,15,19,19,19,19,19,19,19,14,14,14,14,14,14,14,24,24,24,24,24,24,24,11,11,11,11,11,11,11,0,-1,0,0,0,0,0,0,0,0,0,0,0,0,0,0,0,0,0,0,0,0,0,0,0,0,0,0,0,0,0,0,0,0,0,0,0,0,0,0,0,0,0,0,0,0,0,0,0,0,0,0,0,0,0,0,0,0,0,0,0,0,0,0,0,0,0,0,0,0,0,0,0,0,0,0,0,0,0,0,0,0,0,0,0,0,0,0,0,0,0,0,0,0,0,0,0,0,0,0,0,0,0,0,0
"Ind39","4_0_5",49,15,15,15,15,15,15,15,19,19,19,19,19,19,19,14,14,14,14,14,14,14,24,24,24,24,24,24,24,11,11,11,11,11,11,11,0,0,-1,0,0,0,0,0,0,0,0,0,0,0,0,0,0,0,0,0,0,0,0,0,0,0,0,0,0,0,0,0,0,0,0,0,0,0,0,0,0,0,0,0,0,0,0,0,0,0,0,0,0,0,0,0,0,0,0,0,0,0,0,0,0,0,0,0,0,0,0,0,0,0,0,0,0,0,0,0,0,0,0,0,0,0,0,0,0,0,0,0,0,0,0,0,0,0,0,0,0,0,0,0,0
"Ind40","4_0_6",49,15,15,15,15,15,15,15,19,19,19,19,19,19,19,14,14,14,14,14,14,14,24,24,24,24,24,24,24,11,11,11,11,11,11,11,0,0,0,-1,0,0,0,0,0,0,0,0,0,0,0,0,0,0,0,0,0,0,0,0,0,0,0,0,0,0,0,0,0,0,0,0,0,0,0,0,0,0,0,0,0,0,0,0,0,0,0,0,0,0,0,0,0,0,0,0,0,0,0,0,0,0,0,0,0,0,0,0,0,0,0,0,0,0,0,0,0,0,0,0,0,0,0,0,0,0,0,0,0,0,0,0,0,0,0,0,0,0,0,0,0
"Ind41","4_0_0",49,15,15,15,15,15,15,15,19,19,19,19,19,19,19,14,14,14,14,14,14,14,24,24,24,24,24,24,24,11,11,11,11,11,11,11,0,0,0,0,-1,0,0,0,0,0,0,0,0,0,0,0,0,0,0,0,0,0,0,0,0,0,0,0,0,0,0,0,0,0,0,0,0,0,0,0,0,0,0,0,0,0,0,0,0,0,0,0,0,0,0,0,0,0,0,0,0,0,0,0,0,0,0,0,0,0,0,0,0,0,0,0,0,0,0,0,0,0,0,0,0,0,0,0,0,0,0,0,0,0,0,0,0,0,0,0,0,0,0,0,0
"Ind42","4_0_3",49,15,15,15,15,15,15,15,19,19,19,19,19,19,19,14,14,14,14,14,14,14,24,24,24,24,24,24,24,11,11,11,11,11,11,11,0,0,0,0,0,-1,0,0,0,0,0,0,0,0,0,0,0,0,0,0,0,0,0,0,0,0,0,0,0,0,0,0,0,0,0,0,0,0,0,0,0,0,0,0,0,0,0,0,0,0,0,0,0,0,0,0,0,0,0,0,0,0,0,0,0,0,0,0,0,0,0,0,0,0,0,0,0,0,0,0,0,0,0,0,0,0,0,0,0,0,0,0,0,0,0,0,0,0,0,0,0,0,0,0,0
"Ind43","4_0_2",49,15,15,15,15,15,15,15,19,19,19,19,19,19,19,14,14,14,14,14,14,14,24,24,24,24,24,24,24,11,11,11,11,11,11,11,0,0,0,0,0,0,-1,0,0,0,0,0,0,0,0,0,0,0,0,0,0,0,0,0,0,0,0,0,0,0,0,0,0,0,0,0,0,0,0,0,0,0,0,0,0,0,0,0,0,0,0,0,0,0,0,0,0,0,0,0,0,0,0,0,0,0,0,0,0,0,0,0,0,0,0,0,0,0,0,0,0,0,0,0,0,0,0,0,0,0,0,0,0,0,0,0,0,0,0,0,0,0,0,0,0
"Ind44","18_0_5",39,35,35,35,35,35,35,35,39,39,39,39,39,39,39,34,34,34,34,34,34,34,44,44,44,44,44,44,44,33,33,33,33,33,33,33,34,34,34,34,34,34,34,-1,0,0,0,0,0,0,0,0,0,0,0,0,0,0,0,0,0,0,0,0,0,0,0,0,0,0,0,0,0,0,0,0,0,0,0,0,0,0,0,0,0,0,0,0,0,0,0,0,0,0,0,0,0,0,0,0,0,0,0,0,0,0,0,0,0,0,0,0,0,0,0,0,0,0,0,0,0,0,0,0,0,0,0,0,0,0,0,0,0,0,0,0,0,0,0,0,0
"Ind45","18_0_2",39,35,35,35,35,35,35,35,39,39,39,39,39,39,39,34,34,34,34,34,34,34,44,44,44,44,44,44,44,33,33,33,33,33,33,33,34,34,34,34,34,34,34,0,-1,0,0,0,0,0,0,0,0,0,0,0,0,0,0,0,0,0,0,0,0,0,0,0,0,0,0,0,0,0,0,0,0,0,0,0,0,0,0,0,0,0,0,0,0,0,0,0,0,0,0,0,0,0,0,0,0,0,0,0,0,0,0,0,0,0,0,0,0,0,0,0,0,0,0,0,0,0,0,0,0,0,0,0,0,0,0,0,0,0,0,0,0,0,0,0,0
"Ind46","18_0_3",39,35,35,35,35,35,35,35,39,39,39,39,39,39,39,34,34,34,34,34,34,34,44,44,44,44,44,44,44,33,33,33,33,33,33,33,34,34,34,34,34,34,34,0,0,-1,0,0,0,0,0,0,0,0,0,0,0,0,0,0,0,0,0,0,0,0,0,0,0,0,0,0,0,0,0,0,0,0,0,0,0,0,0,0,0,0,0,0,0,0,0,0,0,0,0,0,0,0,0,0,0,0,0,0,0,0,0,0,0,0,0,0,0,0,0,0,0,0,0,0,0,0,0,0,0,0,0,0,0,0,0,0,0,0,0,0,0,0,0,0,0
"Ind47","18_0_4",39,35,35,35,35,35,35,35,39,39,39,39,39,39,39,34,34,34,34,34,34,34,44,44,44,44,44,44,44,33,33,33,33,33,33,33,34,34,34,34,34,34,34,0,0,0,-1,0,0,0,0,0,0,0,0,0,0,0,0,0,0,0,0,0,0,0,0,0,0,0,0,0,0,0,0,0,0,0,0,0,0,0,0,0,0,0,0,0,0,0,0,0,0,0,0,0,0,0,0,0,0,0,0,0,0,0,0,0,0,0,0,0,0,0,0,0,0,0,0,0,0,0,0,0,0,0,0,0,0,0,0,0,0,0,0,0,0,0,0,0,0
"Ind48","18_0_6",39,35,35,35,35,35,35,35,39,39,39,39,39,39,39,34,34,34,34,34,34,34,44,44,44,44,44,44,44,33,33,33,33,33,33,33,34,34,34,34,34,34,34,0,0,0,0,-1,0,0,0,0,0,0,0,0,0,0,0,0,0,0,0,0,0,0,0,0,0,0,0,0,0,0,0,0,0,0,0,0,0,0,0,0,0,0,0,0,0,0,0,0,0,0,0,0,0,0,0,0,0,0,0,0,0,0,0,0,0,0,0,0,0,0,0,0,0,0,0,0,0,0,0,0,0,0,0,0,0,0,0,0,0,0,0,0,0,0,0,0,0
"Ind49","18_0_0",39,35,35,35,35,35,35,35,39,39,39,39,39,39,39,34,34,34,34,34,34,34,44,44,44,44,44,44,44,33,33,33,33,33,33,33,34,34,34,34,34,34,34,0,0,0,0,0,-1,0,0,0,0,0,0,0,0,0,0,0,0,0,0,0,0,0,0,0,0,0,0,0,0,0,0,0,0,0,0,0,0,0,0,0,0,0,0,0,0,0,0,0,0,0,0,0,0,0,0,0,0,0,0,0,0,0,0,0,0,0,0,0,0,0,0,0,0,0,0,0,0,0,0,0,0,0,0,0,0,0,0,0,0,0,0,0,0,0,0,0,0
"Ind50","18_0_1",39,35,35,35,35,35,35,35,39,39,39,39,39,39,39,34,34,34,34,34,34,34,44,44,44,44,44,44,44,33,33,33,33,33,33,33,34,34,34,34,34,34,34,0,0,0,0,0,0,-1,0,0,0,0,0,0,0,0,0,0,0,0,0,0,0,0,0,0,0,0,0,0,0,0,0,0,0,0,0,0,0,0,0,0,0,0,0,0,0,0,0,0,0,0,0,0,0,0,0,0,0,0,0,0,0,0,0,0,0,0,0,0,0,0,0,0,0,0,0,0,0,0,0,0,0,0,0,0,0,0,0,0,0,0,0,0,0,0,0,0,0
"Ind51","9_0_1",40,36,36,36,36,36,36,36,40,40,40,40,40,40,40,35,35,35,35,35,35,35,45,45,45,45,45,45,45,34,34,34,34,34,34,34,35,35,35,35,35,35,35,1,1,1,1,1,1,1,-1,0,0,0,0,0,0,0,0,0,0,0,0,0,0,0,0,0,0,0,0,0,0,0,0,0,0,0,0,0,0,0,0,0,0,0,0,0,0,0,0,0,0,0,0,0,0,0,0,0,0,0,0,0,0,0,0,0,0,0,0,0,0,0,0,0,0,0,0,0,0,0,0,0,0,0,0,0,0,0,0,0,0,0,0,0,0,0,0,0,0
"Ind52","9_0_2",40,36,36,36,36,36,36,36,40,40,40,40,40,40,40,35,35,35,35,35,35,35,45,45,45,45,45,45,45,34,34,34,34,34,34,34,35,35,35,35,35,35,35,1,1,1,1,1,1,1,0,-1,0,0,0,0,0,0,0,0,0,0,0,0,0,0,0,0,0,0,0,0,0,0,0,0,0,0,0,0,0,0,0,0,0,0,0,0,0,0,0,0,0,0,0,0,0,0,0,0,0,0,0,0,0,0,0,0,0,0,0,0,0,0,0,0,0,0,0,0,0,0,0,0,0,0,0,0,0,0,0,0,0,0,0,0,0,0,0,0,0
"Ind53","9_0_3",40,36,36,36,36,36,36,36,40,40,40,40,40,40,40,35,35,35,35,35,35,35,45,45,45,45,45,45,45,34,34,34,34,34,34,34,35,35,35,35,35,35,35,1,1,1,1,1,1,1,0,0,-1,0,0,0,0,0,0,0,0,0,0,0,0,0,0,0,0,0,0,0,0,0,0,0,0,0,0,0,0,0,0,0,0,0,0,0,0,0,0,0,0,0,0,0,0,0,0,0,0,0,0,0,0,0,0,0,0,0,0,0,0,0,0,0,0,0,0,0,0,0,0,0,0,0,0,0,0,0,0,0,0,0,0,0,0,0,0,0,0
"Ind54","9_0_5",40,36,36,36,36,36,36,36,40,40,40,40,40,40,40,35,35,35,35,35,35,35,45,45,45,45,45,45,45,34,34,34,34,34,34,34,35,35,35,35,35,35,35,1,1,1,1,1,1,1,0,0,0,-1,0,0,0,0,0,0,0,0,0,0,0,0,0,0,0,0,0,0,0,0,0,0,0,0,0,0,0,0,0,0,0,0,0,0,0,0,0,0,0,0,0,0,0,0,0,0,0,0,0,0,0,0,0,0,0,0,0,0,0,0,0,0,0,0,0,0,0,0,0,0,0,0,0,0,0,0,0,0,0,0,0,0,0,0,0,0,0
"Ind55","9_0_0",40,36,36,36,36,36,36,36,40,40,40,40,40,40,40,35,35,35,35,35,35,35,45,45,45,45,45,45,45,34,34,34,34,34,34,34,35,35,35,35,35,35,35,1,1,1,1,1,1,1,0,0,0,0,-1,0,0,0,0,0,0,0,0,0,0,0,0,0,0,0,0,0,0,0,0,0,0,0,0,0,0,0,0,0,0,0,0,0,0,0,0,0,0,0,0,0,0,0,0,0,0,0,0,0,0,0,0,0,0,0,0,0,0,0,0,0,0,0,0,0,0,0,0,0,0,0,0,0,0,0,0,0,0,0,0,0,0,0,0,0,0
"Ind56","9_0_4",40,36,36,36,36,36,36,36,40,40,40,40,40,40,40,35,35,35,35,35,35,35,45,45,45,45,45,45,45,34,34,34,34,34,34,34,35,35,35,35,35,35,35,1,1,1,1,1,1,1,0,0,0,0,0,-1,0,0,0,0,0,0,0,0,0,0,0,0,0,0,0,0,0,0,0,0,0,0,0,0,0,0,0,0,0,0,0,0,0,0,0,0,0,0,0,0,0,0,0,0,0,0,0,0,0,0,0,0,0,0,0,0,0,0,0,0,0,0,0,0,0,0,0,0,0,0,0,0,0,0,0,0,0,0,0,0,0,0,0,0,0
"Ind57","9_0_6",40,36,36,36,36,36,36,36,40,40,40,40,40,40,40,35,35,35,35,35,35,35,45,45,45,45,45,45,45,34,34,34,34,34,34,34,35,35,35,35,35,35,35,1,1,1,1,1,1,1,0,0,0,0,0,0,-1,0,0,0,0,0,0,0,0,0,0,0,0,0,0,0,0,0,0,0,0,0,0,0,0,0,0,0,0,0,0,0,0,0,0,0,0,0,0,0,0,0,0,0,0,0,0,0,0,0,0,0,0,0,0,0,0,0,0,0,0,0,0,0,0,0,0,0,0,0,0,0,0,0,0,0,0,0,0,0,0,0,0,0,0
"Ind58","12_0_6",37,33,33,33,33,33,33,33,37,37,37,37,37,37,37,32,32,32,32,32,32,32,42,42,42,42,42,42,42,33,33,33,33,33,33,33,32,32,32,32,32,32,32,14,14,14,14,14,14,14,15,15,15,15,15,15,15,-1,0,0,0,0,0,0,0,0,0,0,0,0,0,0,0,0,0,0,0,0,0,0,0,0,0,0,0,0,0,0,0,0,0,0,0,0,0,0,0,0,0,0,0,0,0,0,0,0,0,0,0,0,0,0,0,0,0,0,0,0,0,0,0,0,0,0,0,0,0,0,0,0,0,0,0,0,0,0,0,0,0,0,0
"Ind59","12_0_1",37,33,33,33,33,33,33,33,37,37,37,37,37,37,37,32,32,32,32,32,32,32,42,42,42,42,42,42,42,33,33,33,33,33,33,33,32,32,32,32,32,32,32,14,14,14,14,14,14,14,15,15,15,15,15,15,15,0,-1,0,0,0,0,0,0,0,0,0,0,0,0,0,0,0,0,0,0,0,0,0,0,0,0,0,0,0,0,0,0,0,0,0,0,0,0,0,0,0,0,0,0,0,0,0,0,0,0,0,0,0,0,0,0,0,0,0,0,0,0,0,0,0,0,0,0,0,0,0,0,0,0,0,0,0,0,0,0,0,0,0,0
"Ind60","12_0_3",37,33,33,33,33,33,33,33,37,37,37,37,37,37,37,32,32,32,32,32,32,32,42,42,42,42,42,42,42,33,33,33,33,33,33,33,32,32,32,32,32,32,32,14,14,14,14,14,14,14,15,15,15,15,15,15,15,0,0,-1,0,0,0,0,0,0,0,0,0,0,0,0,0,0,0,0,0,0,0,0,0,0,0,0,0,0,0,0,0,0,0,0,0,0,0,0,0,0,0,0,0,0,0,0,0,0,0,0,0,0,0,0,0,0,0,0,0,0,0,0,0,0,0,0,0,0,0,0,0,0,0,0,0,0,0,0,0,0,0,0,0
"Ind61","12_0_0",37,33,33,33,33,33,33,33,37,37,37,37,37,37,37,32,32,32,32,32,32,32,42,42,42,42,42,42,42,33,33,33,33,33,33,33,32,32,32,32,32,32,32,14,14,14,14,14,14,14,15,15,15,15,15,15,15,0,0,0,-1,0,0,0,0,0,0,0,0,0,0,0,0,0,0,0,0,0,0,0,0,0,0,0,0,0,0,0,0,0,0,0,0,0,0,0,0,0,0,0,0,0,0,0,0,0,0,0,0,0,0,0,0,0,0,0,0,0,0,0,0,0,0,0,0,0,0,0,0,0,0,0,0,0,0,0,0,0,0,0,0
"Ind62","12_0_5",37,33,33,33,33,33,33,33,37,37,37,37,37,37,37,32,32,32,32,32,32,32,42,42,42,42,42,42,42,33,33,33,33,33,33,33,32,32,32,32,32,32,32,14,14,14,14,14,14,14,15,15,15,15,15,15,15,0,0,0,0,-1,0,0,0,0,0,0,0,0,0,0,0,0,0,0,0,0,0,0,0,0,0,0,0,0,0,0,0,0,0,0,0,0,0,0,0,0,0,0,0,0,0,0,0,0,0,0,0,0,0,0,0,0,0,0,0,0,0,0,0,0,0,0,0,0,0,0,0,0,0,0,0,0,0,0,0,0,0,0,0
"Ind63","12_0_2",37,33,33,33,33,33,33,33,37,37,37,37,37,37,37,32,32,32,32,32,32,32,42,42,42,42,42,42,42,33,33,33,33,33,33,33,32,32,32,32,32,32,32,14,14,14,14,14,14,14,15,15,15,15,15,15,15,0,0,0,0,0,-1,0,0,0,0,0,0,0,0,0,0,0,0,0,0,0,0,0,0,0,0,0,0,0,0,0,0,0,0,0,0,0,0,0,0,0,0,0,0,0,0,0,0,0,0,0,0,0,0,0,0,0,0,0,0,0,0,0,0,0,0,0,0,0,0,0,0,0,0,0,0,0,0,0,0,0,0,0,0
"Ind64","12_0_4",37,33,33,33,33,33,33,33,37,37,37,37,37,37,37,32,32,32,32,32,32,32,42,42,42,42,42,42,42,33,33,33,33,33,33,33,32,32,32,32,32,32,32,14,14,14,14,14,14,14,15,15,15,15,15,15,15,0,0,0,0,0,0,-1,0,0,0,0,0,0,0,0,0,0,0,0,0,0,0,0,0,0,0,0,0,0,0,0,0,0,0,0,0,0,0,0,0,0,0,0,0,0,0,0,0,0,0,0,0,0,0,0,0,0,0,0,0,0,0,0,0,0,0,0,0,0,0,0,0,0,0,0,0,0,0,0,0,0,0,0,0
"Ind65","10_0_2",48,49,49,49,49,49,49,49,52,52,52,52,52,52,52,48,48,48,48,48,48,48,54,54,54,54,54,54,54,45,45,45,45,45,45,45,42,42,42,42,42,42,42,37,37,37,37,37,37,37,38,38,38,38,38,38,38,33,33,33,33,33,33,33,-1,0,0,0,0,0,0,0,0,0,0,0,0,0,0,0,0,0,0,0,0,0,0,0,0,0,0,0,0,0,0,0,0,0,0,0,0,0,0,0,0,0,0,0,0,0,0,0,0,0,0,0,0,0,0,0,0,0,0,0,0,0,0,0,0,0,0,0,0,0,0,0,0,0,0,0,0
"Ind66","10_0_5",48,49,49,49,49,49,49,49,52,52,52,52,52,52,52,48,48,48,48,48,48,48,54,54,54,54,54,54,54,45,45,45,45,45,45,45,42,42,42,42,42,42,42,37,37,37,37,37,37,37,38,38,38,38,38,38,38,33,33,33,33,33,33,33,0,-1,0,0,0,0,0,0,0,0,0,0,0,0,0,0,0,0,0,0,0,0,0,0,0,0,0,0,0,0,0,0,0,0,0,0,0,0,0,0,0,0,0,0,0,0,0,0,0,0,0,0,0,0,0,0,0,0,0,0,0,0,0,0,0,0,0,0,0,0,0,0,0,0,0,0,0
"Ind67","10_0_6",48,49,49,49,49,49,49,49,52,52,52,52,52,52,52,48,48,48,48,48,48,48,54,54,54,54,54,54,54,45,45,45,45,45,45,45,42,42,42,42,42,42,42,37,37,37,37,37,37,37,38,38,38,38,38,38,38,33,33,33,33,33,33,33,0,0,-1,0,0,0,0,0,0,0,0,0,0,0,0,0,0,0,0,0,0,0,0,0,0,0,0,0,0,0,0,0,0,0,0,0,0,0,0,0,0,0,0,0,0,0,0,0,0,0,0,0,0,0,0,0,0,0,0,0,0,0,0,0,0,0,0,0,0,0,0,0,0,0,0,0,0
"Ind68","10_0_1",48,49,49,49,49,49,49,49,52,52,52,52,52,52,52,48,48,48,48,48,48,48,54,54,54,54,54,54,54,45,45,45,45,45,45,45,42,42,42,42,42,42,42,37,37,37,37,37,37,37,38,38,38,38,38,38,38,33,33,33,33,33,33,33,0,0,0,-1,0,0,0,0,0,0,0,0,0,0,0,0,0,0,0,0,0,0,0,0,0,0,0,0,0,0,0,0,0,0,0,0,0,0,0,0,0,0,0,0,0,0,0,0,0,0,0,0,0,0,0,0,0,0,0,0,0,0,0,0,0,0,0,0,0,0,0,0,0,0,0,0,0
"Ind69","10_0_3",48,49,49,49,49,49,49,49,52,52,52,52,52,52,52,48,48,48,48,48,48,48,54,54,54,54,54,54,54,45,45,45,45,45,45,45,42,42,42,42,42,42,42,37,37,37,37,37,37,37,38,38,38,38,38,38,38,33,33,33,33,33,33,33,0,0,0,0,-1,0,0,0,0,0,0,0,0,0,0,0,0,0,0,0,0,0,0,0,0,0,0,0,0,0,0,0,0,0,0,0,0,0,0,0,0,0,0,0,0,0,0,0,0,0,0,0,0,0,0,0,0,0,0,0,0,0,0,0,0,0,0,0,0,0,0,0,0,0,0,0,0
"Ind70","10_0_0",48,49,49,49,49,49,49,49,52,52,52,52,52,52,52,48,48,48,48,48,48,48,54,54,54,54,54,54,54,45,45,45,45,45,45,45,42,42,42,42,42,42,42,37,37,37,37,37,37,37,38,38,38,38,38,38,38,33,33,33,33,33,33,33,0,0,0,0,0,-1,0,0,0,0,0,0,0,0,0,0,0,0,0,0,0,0,0,0,0,0,0,0,0,0,0,0,0,0,0,0,0,0,0,0,0,0,0,0,0,0,0,0,0,0,0,0,0,0,0,0,0,0,0,0,0,0,0,0,0,0,0,0,0,0,0,0,0,0,0,0,0
"Ind71","10_0_4",48,49,49,49,49,49,49,49,52,52,52,52,52,52,52,48,48,48,48,48,48,48,54,54,54,54,54,54,54,45,45,45,45,45,45,45,42,42,42,42,42,42,42,37,37,37,37,37,37,37,38,38,38,38,38,38,38,33,33,33,33,33,33,33,0,0,0,0,0,0,-1,0,0,0,0,0,0,0,0,0,0,0,0,0,0,0,0,0,0,0,0,0,0,0,0,0,0,0,0,0,0,0,0,0,0,0,0,0,0,0,0,0,0,0,0,0,0,0,0,0,0,0,0,0,0,0,0,0,0,0,0,0,0,0,0,0,0,0,0,0,0
"Ind72","7_0_0",38,34,34,34,34,34,34,34,40,40,40,40,40,40,40,35,35,35,35,35,35,35,45,45,45,45,45,45,45,34,34,34,34,34,34,34,35,35,35,35,35,35,35,29,29,29,29,29,29,29,30,30,30,30,30,30,30,27,27,27,27,27,27,27,40,40,40,40,40,40,40,-1,0,0,0,0,0,0,0,0,0,0,0,0,0,0,0,0,0,0,0,0,0,0,0,0,0,0,0,0,0,0,0,0,0,0,0,0,0,0,0,0,0,0,0,0,0,0,0,0,0,0,0,0,0,0,0,0,0,0,0,0,0,0,0,0,0,0,0,0,0
"Ind73","7_0_2",38,34,34,34,34,34,34,34,40,40,40,40,40,40,40,35,35,35,35,35,35,35,45,45,45,45,45,45,45,34,34,34,34,34,34,34,35,35,35,35,35,35,35,29,29,29,29,29,29,29,30,30,30,30,30,30,30,27,27,27,27,27,27,27,40,40,40,40,40,40,40,0,-1,0,0,0,0,0,0,0,0,0,0,0,0,0,0,0,0,0,0,0,0,0,0,0,0,0,0,0,0,0,0,0,0,0,0,0,0,0,0,0,0,0,0,0,0,0,0,0,0,0,0,0,0,0,0,0,0,0,0,0,0,0,0,0,0,0,0,0,0
"Ind74","7_0_4",38,34,34,34,34,34,34,34,40,40,40,40,40,40,40,35,35,35,35,35,35,35,45,45,45,45,45,45,45,34,34,34,34,34,34,34,35,35,35,35,35,35,35,29,29,29,29,29,29,29,30,30,30,30,30,30,30,27,27,27,27,27,27,27,40,40,40,40,40,40,40,0,0,-1,0,0,0,0,0,0,0,0,0,0,0,0,0,0,0,0,0,0,0,0,0,0,0,0,0,0,0,0,0,0,0,0,0,0,0,0,0,0,0,0,0,0,0,0,0,0,0,0,0,0,0,0,0,0,0,0,0,0,0,0,0,0,0,0,0,0,0
"Ind75","7_0_5",38,34,34,34,34,34,34,34,40,40,40,40,40,40,40,35,35,35,35,35,35,35,45,45,45,45,45,45,45,34,34,34,34,34,34,34,35,35,35,35,35,35,35,29,29,29,29,29,29,29,30,30,30,30,30,30,30,27,27,27,27,27,27,27,40,40,40,40,40,40,40,0,0,0,-1,0,0,0,0,0,0,0,0,0,0,0,0,0,0,0,0,0,0,0,0,0,0,0,0,0,0,0,0,0,0,0,0,0,0,0,0,0,0,0,0,0,0,0,0,0,0,0,0,0,0,0,0,0,0,0,0,0,0,0,0,0,0,0,0,0,0
"Ind76","7_0_3",38,34,34,34,34,34,34,34,40,40,40,40,40,40,40,35,35,35,35,35,35,35,45,45,45,45,45,45,45,34,34,34,34,34,34,34,35,35,35,35,35,35,35,29,29,29,29,29,29,29,30,30,30,30,30,30,30,27,27,27,27,27,27,27,40,40,40,40,40,40,40,0,0,0,0,-1,0,0,0,0,0,0,0,0,0,0,0,0,0,0,0,0,0,0,0,0,0,0,0,0,0,0,0,0,0,0,0,0,0,0,0,0,0,0,0,0,0,0,0,0,0,0,0,0,0,0,0,0,0,0,0,0,0,0,0,0,0,0,0,0,0
"Ind77","7_0_1",38,34,34,34,34,34,34,34,40,40,40,40,40,40,40,35,35,35,35,35,35,35,45,45,45,45,45,45,45,34,34,34,34,34,34,34,35,35,35,35,35,35,35,29,29,29,29,29,29,29,30,30,30,30,30,30,30,27,27,27,27,27,27,27,40,40,40,40,40,40,40,0,0,0,0,0,-1,0,0,0,0,0,0,0,0,0,0,0,0,0,0,0,0,0,0,0,0,0,0,0,0,0,0,0,0,0,0,0,0,0,0,0,0,0,0,0,0,0,0,0,0,0,0,0,0,0,0,0,0,0,0,0,0,0,0,0,0,0,0,0,0
"Ind78","7_0_6",38,34,34,34,34,34,34,34,40,40,40,40,40,40,40,35,35,35,35,35,35,35,45,45,45,45,45,45,45,34,34,34,34,34,34,34,35,35,35,35,35,35,35,29,29,29,29,29,29,29,30,30,30,30,30,30,30,27,27,27,27,27,27,27,40,40,40,40,40,40,40,0,0,0,0,0,0,-1,0,0,0,0,0,0,0,0,0,0,0,0,0,0,0,0,0,0,0,0,0,0,0,0,0,0,0,0,0,0,0,0,0,0,0,0,0,0,0,0,0,0,0,0,0,0,0,0,0,0,0,0,0,0,0,0,0,0,0,0,0,0,0
"Ind79","20_0_2",38,34,34,34,34,34,34,34,40,40,40,40,40,40,40,35,35,35,35,35,35,35,45,45,45,45,45,45,45,34,34,34,34,34,34,34,35,35,35,35,35,35,35,29,29,29,29,29,29,29,30,30,30,30,30,30,30,27,27,27,27,27,27,27,40,40,40,40,40,40,40,0,0,0,0,0,0,0,-1,0,0,0,0,0,0,0,0,0,0,0,0,0,0,0,0,0,0,0,0,0,0,0,0,0,0,0,0,0,0,0,0,0,0,0,0,0,0,0,0,0,0,0,0,0,0,0,0,0,0,0,0,0,0,0,0,0,0,0,0,0,0
"Ind80","20_0_3",38,34,34,34,34,34,34,34,40,40,40,40,40,40,40,35,35,35,35,35,35,35,45,45,45,45,45,45,45,34,34,34,34,34,34,34,35,35,35,35,35,35,35,29,29,29,29,29,29,29,30,30,30,30,30,30,30,27,27,27,27,27,27,27,40,40,40,40,40,40,40,0,0,0,0,0,0,0,0,-1,0,0,0,0,0,0,0,0,0,0,0,0,0,0,0,0,0,0,0,0,0,0,0,0,0,0,0,0,0,0,0,0,0,0,0,0,0,0,0,0,0,0,0,0,0,0,0,0,0,0,0,0,0,0,0,0,0,0,0,0,0
"Ind81","20_0_1",38,34,34,34,34,34,34,34,40,40,40,40,40,40,40,35,35,35,35,35,35,35,45,45,45,45,45,45,45,34,34,34,34,34,34,34,35,35,35,35,35,35,35,29,29,29,29,29,29,29,30,30,30,30,30,30,30,27,27,27,27,27,27,27,40,40,40,40,40,40,40,0,0,0,0,0,0,0,0,0,-1,0,0,0,0,0,0,0,0,0,0,0,0,0,0,0,0,0,0,0,0,0,0,0,0,0,0,0,0,0,0,0,0,0,0,0,0,0,0,0,0,0,0,0,0,0,0,0,0,0,0,0,0,0,0,0,0,0,0,0,0
"Ind82","20_0_6",38,34,34,34,34,34,34,34,40,40,40,40,40,40,40,35,35,35,35,35,35,35,45,45,45,45,45,45,45,34,34,34,34,34,34,34,35,35,35,35,35,35,35,29,29,29,29,29,29,29,30,30,30,30,30,30,30,27,27,27,27,27,27,27,40,40,40,40,40,40,40,0,0,0,0,0,0,0,0,0,0,-1,0,0,0,0,0,0,0,0,0,0,0,0,0,0,0,0,0,0,0,0,0,0,0,0,0,0,0,0,0,0,0,0,0,0,0,0,0,0,0,0,0,0,0,0,0,0,0,0,0,0,0,0,0,0,0,0,0,0,0
"Ind83","20_0_5",38,34,34,34,34,34,34,34,40,40,40,40,40,40,40,35,35,35,35,35,35,35,45,45,45,45,45,45,45,34,34,34,34,34,34,34,35,35,35,35,35,35,35,29,29,29,29,29,29,29,30,30,30,30,30,30,30,27,27,27,27,27,27,27,40,40,40,40,40,40,40,0,0,0,0,0,0,0,0,0,0,0,-1,0,0,0,0,0,0,0,0,0,0,0,0,0,0,0,0,0,0,0,0,0,0,0,0,0,0,0,0,0,0,0,0,0,0,0,0,0,0,0,0,0,0,0,0,0,0,0,0,0,0,0,0,0,0,0,0,0,0
"Ind84","20_0_0",38,34,34,34,34,34,34,34,40,40,40,40,40,40,40,35,35,35,35,35,35,35,45,45,45,45,45,45,45,34,34,34,34,34,34,34,35,35,35,35,35,35,35,29,29,29,29,29,29,29,30,30,30,30,30,30,30,27,27,27,27,27,27,27,40,40,40,40,40,40,40,0,0,0,0,0,0,0,0,0,0,0,0,-1,0,0,0,0,0,0,0,0,0,0,0,0,0,0,0,0,0,0,0,0,0,0,0,0,0,0,0,0,0,0,0,0,0,0,0,0,0,0,0,0,0,0,0,0,0,0,0,0,0,0,0,0,0,0,0,0,0
"Ind85","20_0_4",38,34,34,34,34,34,34,34,40,40,40,40,40,40,40,35,35,35,35,35,35,35,45,45,45,45,45,45,45,34,34,34,34,34,34,34,35,35,35,35,35,35,35,29,29,29,29,29,29,29,30,30,30,30,30,30,30,27,27,27,27,27,27,27,40,40,40,40,40,40,40,0,0,0,0,0,0,0,0,0,0,0,0,0,-1,0,0,0,0,0,0,0,0,0,0,0,0,0,0,0,0,0,0,0,0,0,0,0,0,0,0,0,0,0,0,0,0,0,0,0,0,0,0,0,0,0,0,0,0,0,0,0,0,0,0,0,0,0,0,0,0
"Ind86","11_0_2",38,32,32,32,32,32,32,32,36,36,36,36,36,36,36,31,31,31,31,31,31,31,41,41,41,41,41,41,41,30,30,30,30,30,30,30,31,31,31,31,31,31,31,25,25,25,25,25,25,25,26,26,26,26,26,26,26,23,23,23,23,23,23,23,36,36,36,36,36,36,36,4,4,4,4,4,4,4,4,4,4,4,4,4,4,-1,0,0,0,0,0,0,0,0,0,0,0,0,0,0,0,0,0,0,0,0,0,0,0,0,0,0,0,0,0,0,0,0,0,0,0,0,0,0,0,0,0,0,0,0,0,0,0,0,0,0,0,0,0,0,0
"Ind87","11_0_3",38,32,32,32,32,32,32,32,36,36,36,36,36,36,36,31,31,31,31,31,31,31,41,41,41,41,41,41,41,30,30,30,30,30,30,30,31,31,31,31,31,31,31,25,25,25,25,25,25,25,26,26,26,26,26,26,26,23,23,23,23,23,23,23,36,36,36,36,36,36,36,4,4,4,4,4,4,4,4,4,4,4,4,4,4,0,-1,0,0,0,0,0,0,0,0,0,0,0,0,0,0,0,0,0,0,0,0,0,0,0,0,0,0,0,0,0,0,0,0,0,0,0,0,0,0,0,0,0,0,0,0,0,0,0,0,0,0,0,0,0,0
"Ind88","11_0_1",38,32,32,32,32,32,32,32,36,36,36,36,36,36,36,31,31,31,31,31,31,31,41,41,41,41,41,41,41,30,30,30,30,30,30,30,31,31,31,31,31,31,31,25,25,25,25,25,25,25,26,26,26,26,26,26,26,23,23,23,23,23,23,23,36,36,36,36,36,36,36,4,4,4,4,4,4,4,4,4,4,4,4,4,4,0,0,-1,0,0,0,0,0,0,0,0,0,0,0,0,0,0,0,0,0,0,0,0,0,0,0,0,0,0,0,0,0,0,0,0,0,0,0,0,0,0,0,0,0,0,0,0,0,0,0,0,0,0,0,0,0
"Ind89","11_0_4",38,32,32,32,32,32,32,32,36,36,36,36,36,36,36,31,31,31,31,31,31,31,41,41,41,41,41,41,41,30,30,30,30,30,30,30,31,31,31,31,31,31,31,25,25,25,25,25,25,25,26,26,26,26,26,26,26,23,23,23,23,23,23,23,36,36,36,36,36,36,36,4,4,4,4,4,4,4,4,4,4,4,4,4,4,0,0,0,-1,0,0,0,0,0,0,0,0,0,0,0,0,0,0,0,0,0,0,0,0,0,0,0,0,0,0,0,0,0,0,0,0,0,0,0,0,0,0,0,0,0,0,0,0,0,0,0,0,0,0,0,0
"Ind90","11_0_5",38,32,32,32,32,32,32,32,36,36,36,36,36,36,36,31,31,31,31,31,31,31,41,41,41,41,41,41,41,30,30,30,30,30,30,30,31,31,31,31,31,31,31,25,25,25,25,25,25,25,26,26,26,26,26,26,26,23,23,23,23,23,23,23,36,36,36,36,36,36,36,4,4,4,4,4,4,4,4,4,4,4,4,4,4,0,0,0,0,-1,0,0,0,0,0,0,0,0,0,0,0,0,0,0,0,0,0,0,0,0,0,0,0,0,0,0,0,0,0,0,0,0,0,0,0,0,0,0,0,0,0,0,0,0,0,0,0,0,0,0,0
"Ind91","11_0_0",38,32,32,32,32,32,32,32,36,36,36,36,36,36,36,31,31,31,31,31,31,31,41,41,41,41,41,41,41,30,30,30,30,30,30,30,31,31,31,31,31,31,31,25,25,25,25,25,25,25,26,26,26,26,26,26,26,23,23,23,23,23,23,23,36,36,36,36,36,36,36,4,4,4,4,4,4,4,4,4,4,4,4,4,4,0,0,0,0,0,-1,0,0,0,0,0,0,0,0,0,0,0,0,0,0,0,0,0,0,0,0,0,0,0,0,0,0,0,0,0,0,0,0,0,0,0,0,0,0,0,0,0,0,0,0,0,0,0,0,0,0
"Ind92","11_0_6",38,32,32,32,32,32,32,32,36,36,36,36,36,36,36,31,31,31,31,31,31,31,41,41,41,41,41,41,41,30,30,30,30,30,30,30,31,31,31,31,31,31,31,25,25,25,25,25,25,25,26,26,26,26,26,26,26,23,23,23,23,23,23,23,36,36,36,36,36,36,36,4,4,4,4,4,4,4,4,4,4,4,4,4,4,0,0,0,0,0,0,-1,0,0,0,0,0,0,0,0,0,0,0,0,0,0,0,0,0,0,0,0,0,0,0,0,0,0,0,0,0,0,0,0,0,0,0,0,0,0,0,0,0,0,0,0,0,0,0,0,0
"Ind93","14_0_3",39,33,33,33,33,33,33,33,37,37,37,37,37,37,37,32,32,32,32,32,32,32,42,42,42,42,42,42,42,31,31,31,31,31,31,31,32,32,32,32,32,32,32,26,26,26,26,26,26,26,27,27,27,27,27,27,27,24,24,24,24,24,24,24,37,37,37,37,37,37,37,5,5,5,5,5,5,5,5,5,5,5,5,5,5,1,1,1,1,1,1,1,-1,0,0,0,0,0,0,0,0,0,0,0,0,0,0,0,0,0,0,0,0,0,0,0,0,0,0,0,0,0,0,0,0,0,0,0,0,0,0,0,0,0,0,0,0,0,0,0,0
"Ind94","14_0_1",39,33,33,33,33,33,33,33,37,37,37,37,37,37,37,32,32,32,32,32,32,32,42,42,42,42,42,42,42,31,31,31,31,31,31,31,32,32,32,32,32,32,32,26,26,26,26,26,26,26,27,27,27,27,27,27,27,24,24,24,24,24,24,24,37,37,37,37,37,37,37,5,5,5,5,5,5,5,5,5,5,5,5,5,5,1,1,1,1,1,1,1,0,-1,0,0,0,0,0,0,0,0,0,0,0,0,0,0,0,0,0,0,0,0,0,0,0,0,0,0,0,0,0,0,0,0,0,0,0,0,0,0,0,0,0,0,0,0,0,0,0
"Ind95","14_0_0",39,33,33,33,33,33,33,33,37,37,37,37,37,37,37,32,32,32,32,32,32,32,42,42,42,42,42,42,42,31,31,31,31,31,31,31,32,32,32,32,32,32,32,26,26,26,26,26,26,26,27,27,27,27,27,27,27,24,24,24,24,24,24,24,37,37,37,37,37,37,37,5,5,5,5,5,5,5,5,5,5,5,5,5,5,1,1,1,1,1,1,1,0,0,-1,0,0,0,0,0,0,0,0,0,0,0,0,0,0,0,0,0,0,0,0,0,0,0,0,0,0,0,0,0,0,0,0,0,0,0,0,0,0,0,0,0,0,0,0,0,0
"Ind96","14_0_5",39,33,33,33,33,33,33,33,37,37,37,37,37,37,37,32,32,32,32,32,32,32,42,42,42,42,42,42,42,31,31,31,31,31,31,31,32,32,32,32,32,32,32,26,26,26,26,26,26,26,27,27,27,27,27,27,27,24,24,24,24,24,24,24,37,37,37,37,37,37,37,5,5,5,5,5,5,5,5,5,5,5,5,5,5,1,1,1,1,1,1,1,0,0,0,-1,0,0,0,0,0,0,0,0,0,0,0,0,0,0,0,0,0,0,0,0,0,0,0,0,0,0,0,0,0,0,0,0,0,0,0,0,0,0,0,0,0,0,0,0,0
"Ind97","14_0_2",39,33,33,33,33,33,33,33,37,37,37,37,37,37,37,32,32,32,32,32,32,32,42,42,42,42,42,42,42,31,31,31,31,31,31,31,32,32,32,32,32,32,32,26,26,26,26,26,26,26,27,27,27,27,27,27,27,24,24,24,24,24,24,24,37,37,37,37,37,37,37,5,5,5,5,5,5,5,5,5,5,5,5,5,5,1,1,1,1,1,1,1,0,0,0,0,-1,0,0,0,0,0,0,0,0,0,0,0,0,0,0,0,0,0,0,0,0,0,0,0,0,0,0,0,0,0,0,0,0,0,0,0,0,0,0,0,0,0,0,0,0
"Ind98","14_0_4",39,33,33,33,33,33,33,33,37,37,37,37,37,37,37,32,32,32,32,32,32,32,42,42,42,42,42,42,42,31,31,31,31,31,31,31,32,32,32,32,32,32,32,26,26,26,26,26,26,26,27,27,27,27,27,27,27,24,24,24,24,24,24,24,37,37,37,37,37,37,37,5,5,5,5,5,5,5,5,5,5,5,5,5,5,1,1,1,1,1,1,1,0,0,0,0,0,-1,0,0,0,0,0,0,0,0,0,0,0,0,0,0,0,0,0,0,0,0,0,0,0,0,0,0,0,0,0,0,0,0,0,0,0,0,0,0,0,0,0,0,0
"Ind99","14_0_6",39,33,33,33,33,33,33,33,37,37,37,37,37,37,37,32,32,32,32,32,32,32,42,42,42,42,42,42,42,31,31,31,31,31,31,31,32,32,32,32,32,32,32,26,26,26,26,26,26,26,27,27,27,27,27,27,27,24,24,24,24,24,24,24,37,37,37,37,37,37,37,5,5,5,5,5,5,5,5,5,5,5,5,5,5,1,1,1,1,1,1,1,0,0,0,0,0,0,-1,0,0,0,0,0,0,0,0,0,0,0,0,0,0,0,0,0,0,0,0,0,0,0,0,0,0,0,0,0,0,0,0,0,0,0,0,0,0,0,0,0,0
"Ind100","8_0_1",40,34,34,34,34,34,34,34,36,36,36,36,36,36,36,33,33,33,33,33,33,33,43,43,43,43,43,43,43,32,32,32,32,32,32,32,33,33,33,33,33,33,33,25,25,25,25,25,25,25,26,26,26,26,26,26,26,22,22,22,22,22,22,22,34,34,34,34,34,34,34,20,20,20,20,20,20,20,20,20,20,20,20,20,20,16,16,16,16,16,16,16,17,17,17,17,17,17,17,-1,0,0,0,0,0,0,0,0,0,0,0,0,0,0,0,0,0,0,0,0,0,0,0,0,0,0,0,0,0,0,0,0,0,0,0,0,0,0,0,0,0
"Ind101","8_0_3",40,34,34,34,34,34,34,34,36,36,36,36,36,36,36,33,33,33,33,33,33,33,43,43,43,43,43,43,43,32,32,32,32,32,32,32,33,33,33,33,33,33,33,25,25,25,25,25,25,25,26,26,26,26,26,26,26,22,22,22,22,22,22,22,34,34,34,34,34,34,34,20,20,20,20,20,20,20,20,20,20,20,20,20,20,16,16,16,16,16,16,16,17,17,17,17,17,17,17,0,-1,0,0,0,0,0,0,0,0,0,0,0,0,0,0,0,0,0,0,0,0,0,0,0,0,0,0,0,0,0,0,0,0,0,0,0,0,0,0,0,0
"Ind102","8_0_6",40,34,34,34,34,34,34,34,36,36,36,36,36,36,36,33,33,33,33,33,33,33,43,43,43,43,43,43,43,32,32,32,32,32,32,32,33,33,33,33,33,33,33,25,25,25,25,25,25,25,26,26,26,26,26,26,26,22,22,22,22,22,22,22,34,34,34,34,34,34,34,20,20,20,20,20,20,20,20,20,20,20,20,20,20,16,16,16,16,16,16,16,17,17,17,17,17,17,17,0,0,-1,0,0,0,0,0,0,0,0,0,0,0,0,0,0,0,0,0,0,0,0,0,0,0,0,0,0,0,0,0,0,0,0,0,0,0,0,0,0,0
"Ind103","8_0_4",40,34,34,34,34,34,34,34,36,36,36,36,36,36,36,33,33,33,33,33,33,33,43,43,43,43,43,43,43,32,32,32,32,32,32,32,33,33,33,33,33,33,33,25,25,25,25,25,25,25,26,26,26,26,26,26,26,22,22,22,22,22,22,22,34,34,34,34,34,34,34,20,20,20,20,20,20,20,20,20,20,20,20,20,20,16,16,16,16,16,16,16,17,17,17,17,17,17,17,0,0,0,-1,0,0,0,0,0,0,0,0,0,0,0,0,0,0,0,0,0,0,0,0,0,0,0,0,0,0,0,0,0,0,0,0,0,0,0,0,0,0
"Ind104","8_0_0",40,34,34,34,34,34,34,34,36,36,36,36,36,36,36,33,33,33,33,33,33,33,43,43,43,43,43,43,43,32,32,32,32,32,32,32,33,33,33,33,33,33,33,25,25,25,25,25,25,25,26,26,26,26,26,26,26,22,22,22,22,22,22,22,34,34,34,34,34,34,34,20,20,20,20,20,20,20,20,20,20,20,20,20,20,16,16,16,16,16,16,16,17,17,17,17,17,17,17,0,0,0,0,-1,0,0,0,0,0,0,0,0,0,0,0,0,0,0,0,0,0,0,0,0,0,0,0,0,0,0,0,0,0,0,0,0,0,0,0,0,0
"Ind105","8_0_5",40,34,34,34,34,34,34,34,36,36,36,36,36,36,36,33,33,33,33,33,33,33,43,43,43,43,43,43,43,32,32,32,32,32,32,32,33,33,33,33,33,33,33,25,25,25,25,25,25,25,26,26,26,26,26,26,26,22,22,22,22,22,22,22,34,34,34,34,34,34,34,20,20,20,20,20,20,20,20,20,20,20,20,20,20,16,16,16,16,16,16,16,17,17,17,17,17,17,17,0,0,0,0,0,-1,0,0,0,0,0,0,0,0,0,0,0,0,0,0,0,0,0,0,0,0,0,0,0,0,0,0,0,0,0,0,0,0,0,0,0,0
"Ind106","8_0_2",40,34,34,34,34,34,34,34,36,36,36,36,36,36,36,33,33,33,33,33,33,33,43,43,43,43,43,43,43,32,32,32,32,32,32,32,33,33,33,33,33,33,33,25,25,25,25,25,25,25,26,26,26,26,26,26,26,22,22,22,22,22,22,22,34,34,34,34,34,34,34,20,20,20,20,20,20,20,20,20,20,20,20,20,20,16,16,16,16,16,16,16,17,17,17,17,17,17,17,0,0,0,0,0,0,-1,0,0,0,0,0,0,0,0,0,0,0,0,0,0,0,0,0,0,0,0,0,0,0,0,0,0,0,0,0,0,0,0,0,0,0
"Ind107","16_0_3",43,39,39,39,39,39,39,39,39,39,39,39,39,39,39,36,36,36,36,36,36,36,46,46,46,46,46,46,46,39,39,39,39,39,39,39,38,38,38,38,38,38,38,26,26,26,26,26,26,26,27,27,27,27,27,27,27,26,26,26,26,26,26,26,37,37,37,37,37,37,37,31,31,31,31,31,31,31,31,31,31,31,31,31,31,27,27,27,27,27,27,27,28,28,28,28,28,28,28,27,27,27,27,27,27,27,-1,0,0,0,0,0,0,0,0,0,0,0,0,0,0,0,0,0,0,0,0,0,0,0,0,0,0,0,0,0,0,0,0,0,0
"Ind108","16_0_5",43,39,39,39,39,39,39,39,39,39,39,39,39,39,39,36,36,36,36,36,36,36,46,46,46,46,46,46,46,39,39,39,39,39,39,39,38,38,38,38,38,38,38,26,26,26,26,26,26,26,27,27,27,27,27,27,27,26,26,26,26,26,26,26,37,37,37,37,37,37,37,31,31,31,31,31,31,31,31,31,31,31,31,31,31,27,27,27,27,27,27,27,28,28,28,28,28,28,28,27,27,27,27,27,27,27,0,-1,0,0,0,0,0,0,0,0,0,0,0,0,0,0,0,0,0,0,0,0,0,0,0,0,0,0,0,0,0,0,0,0,0
"Ind109","16_0_2",43,39,39,39,39,39,39,39,39,39,39,39,39,39,39,36,36,36,36,36,36,36,46,46,46,46,46,46,46,39,39,39,39,39,39,39,38,38,38,38,38,38,38,26,26,26,26,26,26,26,27,27,27,27,27,27,27,26,26,26,26,26,26,26,37,37,37,37,37,37,37,31,31,31,31,31,31,31,31,31,31,31,31,31,31,27,27,27,27,27,27,27,28,28,28,28,28,28,28,27,27,27,27,27,27,27,0,0,-1,0,0,0,0,0,0,0,0,0,0,0,0,0,0,0,0,0,0,0,0,0,0,0,0,0,0,0,0,0,0,0,0
"Ind110","16_0_4",43,39,39,39,39,39,39,39,39,39,39,39,39,39,39,36,36,36,36,36,36,36,46,46,46,46,46,46,46,39,39,39,39,39,39,39,38,38,38,38,38,38,38,26,26,26,26,26,26,26,27,27,27,27,27,27,27,26,26,26,26,26,26,26,37,37,37,37,37,37,37,31,31,31,31,31,31,31,31,31,31,31,31,31,31,27,27,27,27,27,27,27,28,28,28,28,28,28,28,27,27,27,27,27,27,27,0,0,0,-1,0,0,0,0,0,0,0,0,0,0,0,0,0,0,0,0,0,0,0,0,0,0,0,0,0,0,0,0,0,0,0
"Ind111","16_0_6",43,39,39,39,39,39,39,39,39,39,39,39,39,39,39,36,36,36,36,36,36,36,46,46,46,46,46,46,46,39,39,39,39,39,39,39,38,38,38,38,38,38,38,26,26,26,26,26,26,26,27,27,27,27,27,27,27,26,26,26,26,26,26,26,37,37,37,37,37,37,37,31,31,31,31,31,31,31,31,31,31,31,31,31,31,27,27,27,27,27,27,27,28,28,28,28,28,28,28,27,27,27,27,27,27,27,0,0,0,0,-1,0,0,0,0,0,0,0,0,0,0,0,0,0,0,0,0,0,0,0,0,0,0,0,0,0,0,0,0,0,0
"Ind112","16_0_0",43,39,39,39,39,39,39,39,39,39,39,39,39,39,39,36,36,36,36,36,36,36,46,46,46,46,46,46,46,39,39,39,39,39,39,39,38,38,38,38,38,38,38,26,26,26,26,26,26,26,27,27,27,27,27,27,27,26,26,26,26,26,26,26,37,37,37,37,37,37,37,31,31,31,31,31,31,31,31,31,31,31,31,31,31,27,27,27,27,27,27,27,28,28,28,28,28,28,28,27,27,27,27,27,27,27,0,0,0,0,0,-1,0,0,0,0,0,0,0,0,0,0,0,0,0,0,0,0,0,0,0,0,0,0,0,0,0,0,0,0,0
"Ind113","16_0_1",43,39,39,39,39,39,39,39,39,39,39,39,39,39,39,36,36,36,36,36,36,36,46,46,46,46,46,46,46,39,39,39,39,39,39,39,38,38,38,38,38,38,38,26,26,26,26,26,26,26,27,27,27,27,27,27,27,26,26,26,26,26,26,26,37,37,37,37,37,37,37,31,31,31,31,31,31,31,31,31,31,31,31,31,31,27,27,27,27,27,27,27,28,28,28,28,28,28,28,27,27,27,27,27,27,27,0,0,0,0,0,0,-1,0,0,0,0,0,0,0,0,0,0,0,0,0,0,0,0,0,0,0,0,0,0,0,0,0,0,0,0
"Ind114","15_0_3",44,40,40,40,40,40,40,40,40,40,40,40,40,40,40,37,37,37,37,37,37,37,47,47,47,47,47,47,47,40,40,40,40,40,40,40,39,39,39,39,39,39,39,27,27,27,27,27,27,27,28,28,28,28,28,28,28,27,27,27,27,27,27,27,38,38,38,38,38,38,38,32,32,32,32,32,32,32,32,32,32,32,32,32,32,28,28,28,28,28,28,28,29,29,29,29,29,29,29,28,28,28,28,28,28,28,1,1,1,1,1,1,1,-1,0,0,0,0,0,0,0,0,0,0,0,0,0,0,0,0,0,0,0,0,0,0,0,0,0,0,0
"Ind115","15_0_2",44,40,40,40,40,40,40,40,40,40,40,40,40,40,40,37,37,37,37,37,37,37,47,47,47,47,47,47,47,40,40,40,40,40,40,40,39,39,39,39,39,39,39,27,27,27,27,27,27,27,28,28,28,28,28,28,28,27,27,27,27,27,27,27,38,38,38,38,38,38,38,32,32,32,32,32,32,32,32,32,32,32,32,32,32,28,28,28,28,28,28,28,29,29,29,29,29,29,29,28,28,28,28,28,28,28,1,1,1,1,1,1,1,0,-1,0,0,0,0,0,0,0,0,0,0,0,0,0,0,0,0,0,0,0,0,0,0,0,0,0,0
"Ind116","15_0_1",44,40,40,40,40,40,40,40,40,40,40,40,40,40,40,37,37,37,37,37,37,37,47,47,47,47,47,47,47,40,40,40,40,40,40,40,39,39,39,39,39,39,39,27,27,27,27,27,27,27,28,28,28,28,28,28,28,27,27,27,27,27,27,27,38,38,38,38,38,38,38,32,32,32,32,32,32,32,32,32,32,32,32,32,32,28,28,28,28,28,28,28,29,29,29,29,29,29,29,28,28,28,28,28,28,28,1,1,1,1,1,1,1,0,0,-1,0,0,0,0,0,0,0,0,0,0,0,0,0,0,0,0,0,0,0,0,0,0,0,0,0
"Ind117","15_0_4",44,40,40,40,40,40,40,40,40,40,40,40,40,40,40,37,37,37,37,37,37,37,47,47,47,47,47,47,47,40,40,40,40,40,40,40,39,39,39,39,39,39,39,27,27,27,27,27,27,27,28,28,28,28,28,28,28,27,27,27,27,27,27,27,38,38,38,38,38,38,38,32,32,32,32,32,32,32,32,32,32,32,32,32,32,28,28,28,28,28,28,28,29,29,29,29,29,29,29,28,28,28,28,28,28,28,1,1,1,1,1,1,1,0,0,0,-1,0,0,0,0,0,0,0,0,0,0,0,0,0,0,0,0,0,0,0,0,0,0,0,0
"Ind118","15_0_5",44,40,40,40,40,40,40,40,40,40,40,40,40,40,40,37,37,37,37,37,37,37,47,47,47,47,47,47,47,40,40,40,40,40,40,40,39,39,39,39,39,39,39,27,27,27,27,27,27,27,28,28,28,28,28,28,28,27,27,27,27,27,27,27,38,38,38,38,38,38,38,32,32,32,32,32,32,32,32,32,32,32,32,32,32,28,28,28,28,28,28,28,29,29,29,29,29,29,29,28,28,28,28,28,28,28,1,1,1,1,1,1,1,0,0,0,0,-1,0,0,0,0,0,0,0,0,0,0,0,0,0,0,0,0,0,0,0,0,0,0,0
"Ind119","15_0_0",44,40,40,40,40,40,40,40,40,40,40,40,40,40,40,37,37,37,37,37,37,37,47,47,47,47,47,47,47,40,40,40,40,40,40,40,39,39,39,39,39,39,39,27,27,27,27,27,27,27,28,28,28,28,28,28,28,27,27,27,27,27,27,27,38,38,38,38,38,38,38,32,32,32,32,32,32,32,32,32,32,32,32,32,32,28,28,28,28,28,28,28,29,29,29,29,29,29,29,28,28,28,28,28,28,28,1,1,1,1,1,1,1,0,0,0,0,0,-1,0,0,0,0,0,0,0,0,0,0,0,0,0,0,0,0,0,0,0,0,0,0
"Ind120","15_0_6",44,40,40,40,40,40,40,40,40,40,40,40,40,40,40,37,37,37,37,37,37,37,47,47,47,47,47,47,47,40,40,40,40,40,40,40,39,39,39,39,39,39,39,27,27,27,27,27,27,27,28,28,28,28,28,28,28,27,27,27,27,27,27,27,38,38,38,38,38,38,38,32,32,32,32,32,32,32,32,32,32,32,32,32,32,28,28,28,28,28,28,28,29,29,29,29,29,29,29,28,28,28,28,28,28,28,1,1,1,1,1,1,1,0,0,0,0,0,0,-1,0,0,0,0,0,0,0,0,0,0,0,0,0,0,0,0,0,0,0,0,0
"Ind121","13_0_4",44,38,38,38,38,38,38,38,40,40,40,40,40,40,40,37,37,37,37,37,37,37,47,47,47,47,47,47,47,38,38,38,38,38,38,38,37,37,37,37,37,37,37,27,27,27,27,27,27,27,28,28,28,28,28,28,28,25,25,25,25,25,25,25,40,40,40,40,40,40,40,30,30,30,30,30,30,30,30,30,30,30,30,30,30,26,26,26,26,26,26,26,27,27,27,27,27,27,27,24,24,24,24,24,24,24,23,23,23,23,23,23,23,24,24,24,24,24,24,24,-1,0,0,0,0,0,0,0,0,0,0,0,0,0,0,0,0,0,0,0,0
"Ind122","13_0_5",44,38,38,38,38,38,38,38,40,40,40,40,40,40,40,37,37,37,37,37,37,37,47,47,47,47,47,47,47,38,38,38,38,38,38,38,37,37,37,37,37,37,37,27,27,27,27,27,27,27,28,28,28,28,28,28,28,25,25,25,25,25,25,25,40,40,40,40,40,40,40,30,30,30,30,30,30,30,30,30,30,30,30,30,30,26,26,26,26,26,26,26,27,27,27,27,27,27,27,24,24,24,24,24,24,24,23,23,23,23,23,23,23,24,24,24,24,24,24,24,0,-1,0,0,0,0,0,0,0,0,0,0,0,0,0,0,0,0,0,0,0
"Ind123","13_0_3",44,38,38,38,38,38,38,38,40,40,40,40,40,40,40,37,37,37,37,37,37,37,47,47,47,47,47,47,47,38,38,38,38,38,38,38,37,37,37,37,37,37,37,27,27,27,27,27,27,27,28,28,28,28,28,28,28,25,25,25,25,25,25,25,40,40,40,40,40,40,40,30,30,30,30,30,30,30,30,30,30,30,30,30,30,26,26,26,26,26,26,26,27,27,27,27,27,27,27,24,24,24,24,24,24,24,23,23,23,23,23,23,23,24,24,24,24,24,24,24,0,0,-1,0,0,0,0,0,0,0,0,0,0,0,0,0,0,0,0,0,0
"Ind124","13_0_1",44,38,38,38,38,38,38,38,40,40,40,40,40,40,40,37,37,37,37,37,37,37,47,47,47,47,47,47,47,38,38,38,38,38,38,38,37,37,37,37,37,37,37,27,27,27,27,27,27,27,28,28,28,28,28,28,28,25,25,25,25,25,25,25,40,40,40,40,40,40,40,30,30,30,30,30,30,30,30,30,30,30,30,30,30,26,26,26,26,26,26,26,27,27,27,27,27,27,27,24,24,24,24,24,24,24,23,23,23,23,23,23,23,24,24,24,24,24,24,24,0,0,0,-1,0,0,0,0,0,0,0,0,0,0,0,0,0,0,0,0,0
"Ind125","13_0_6",44,38,38,38,38,38,38,38,40,40,40,40,40,40,40,37,37,37,37,37,37,37,47,47,47,47,47,47,47,38,38,38,38,38,38,38,37,37,37,37,37,37,37,27,27,27,27,27,27,27,28,28,28,28,28,28,28,25,25,25,25,25,25,25,40,40,40,40,40,40,40,30,30,30,30,30,30,30,30,30,30,30,30,30,30,26,26,26,26,26,26,26,27,27,27,27,27,27,27,24,24,24,24,24,24,24,23,23,23,23,23,23,23,24,24,24,24,24,24,24,0,0,0,0,-1,0,0,0,0,0,0,0,0,0,0,0,0,0,0,0,0
"Ind126","13_0_0",44,38,38,38,38,38,38,38,40,40,40,40,40,40,40,37,37,37,37,37,37,37,47,47,47,47,47,47,47,38,38,38,38,38,38,38,37,37,37,37,37,37,37,27,27,27,27,27,27,27,28,28,28,28,28,28,28,25,25,25,25,25,25,25,40,40,40,40,40,40,40,30,30,30,30,30,30,30,30,30,30,30,30,30,30,26,26,26,26,26,26,26,27,27,27,27,27,27,27,24,24,24,24,24,24,24,23,23,23,23,23,23,23,24,24,24,24,24,24,24,0,0,0,0,0,-1,0,0,0,0,0,0,0,0,0,0,0,0,0,0,0
"Ind127","13_0_2",44,38,38,38,38,38,38,38,40,40,40,40,40,40,40,37,37,37,37,37,37,37,47,47,47,47,47,47,47,38,38,38,38,38,38,38,37,37,37,37,37,37,37,27,27,27,27,27,27,27,28,28,28,28,28,28,28,25,25,25,25,25,25,25,40,40,40,40,40,40,40,30,30,30,30,30,30,30,30,30,30,30,30,30,30,26,26,26,26,26,26,26,27,27,27,27,27,27,27,24,24,24,24,24,24,24,23,23,23,23,23,23,23,24,24,24,24,24,24,24,0,0,0,0,0,0,-1,0,0,0,0,0,0,0,0,0,0,0,0,0,0
"Ind128","17_0_3",54,50,50,50,50,50,50,50,48,48,48,48,48,48,48,45,45,45,45,45,45,45,55,55,55,55,55,55,55,50,50,50,50,50,50,50,49,49,49,49,49,49,49,41,41,41,41,41,41,41,42,42,42,42,42,42,42,37,37,37,37,37,37,37,52,52,52,52,52,52,52,44,44,44,44,44,44,44,44,44,44,44,44,44,44,40,40,40,40,40,40,40,41,41,41,41,41,41,41,40,40,40,40,40,40,40,37,37,37,37,37,37,37,38,38,38,38,38,38,38,36,36,36,36,36,36,36,-1,0,0,0,0,0,0,0,0,0,0,0,0,0
"Ind129","17_0_0",54,50,50,50,50,50,50,50,48,48,48,48,48,48,48,45,45,45,45,45,45,45,55,55,55,55,55,55,55,50,50,50,50,50,50,50,49,49,49,49,49,49,49,41,41,41,41,41,41,41,42,42,42,42,42,42,42,37,37,37,37,37,37,37,52,52,52,52,52,52,52,44,44,44,44,44,44,44,44,44,44,44,44,44,44,40,40,40,40,40,40,40,41,41,41,41,41,41,41,40,40,40,40,40,40,40,37,37,37,37,37,37,37,38,38,38,38,38,38,38,36,36,36,36,36,36,36,0,-1,0,0,0,0,0,0,0,0,0,0,0,0
"Ind130","17_0_6",54,50,50,50,50,50,50,50,48,48,48,48,48,48,48,45,45,45,45,45,45,45,55,55,55,55,55,55,55,50,50,50,50,50,50,50,49,49,49,49,49,49,49,41,41,41,41,41,41,41,42,42,42,42,42,42,42,37,37,37,37,37,37,37,52,52,52,52,52,52,52,44,44,44,44,44,44,44,44,44,44,44,44,44,44,40,40,40,40,40,40,40,41,41,41,41,41,41,41,40,40,40,40,40,40,40,37,37,37,37,37,37,37,38,38,38,38,38,38,38,36,36,36,36,36,36,36,0,0,-1,0,0,0,0,0,0,0,0,0,0,0
"Ind131","17_0_2",54,50,50,50,50,50,50,50,48,48,48,48,48,48,48,45,45,45,45,45,45,45,55,55,55,55,55,55,55,50,50,50,50,50,50,50,49,49,49,49,49,49,49,41,41,41,41,41,41,41,42,42,42,42,42,42,42,37,37,37,37,37,37,37,52,52,52,52,52,52,52,44,44,44,44,44,44,44,44,44,44,44,44,44,44,40,40,40,40,40,40,40,41,41,41,41,41,41,41,40,40,40,40,40,40,40,37,37,37,37,37,37,37,38,38,38,38,38,38,38,36,36,36,36,36,36,36,0,0,0,-1,0,0,0,0,0,0,0,0,0,0
"Ind132","17_0_4",54,50,50,50,50,50,50,50,48,48,48,48,48,48,48,45,45,45,45,45,45,45,55,55,55,55,55,55,55,50,50,50,50,50,50,50,49,49,49,49,49,49,49,41,41,41,41,41,41,41,42,42,42,42,42,42,42,37,37,37,37,37,37,37,52,52,52,52,52,52,52,44,44,44,44,44,44,44,44,44,44,44,44,44,44,40,40,40,40,40,40,40,41,41,41,41,41,41,41,40,40,40,40,40,40,40,37,37,37,37,37,37,37,38,38,38,38,38,38,38,36,36,36,36,36,36,36,0,0,0,0,-1,0,0,0,0,0,0,0,0,0
"Ind133","17_0_5",54,50,50,50,50,50,50,50,48,48,48,48,48,48,48,45,45,45,45,45,45,45,55,55,55,55,55,55,55,50,50,50,50,50,50,50,49,49,49,49,49,49,49,41,41,41,41,41,41,41,42,42,42,42,42,42,42,37,37,37,37,37,37,37,52,52,52,52,52,52,52,44,44,44,44,44,44,44,44,44,44,44,44,44,44,40,40,40,40,40,40,40,41,41,41,41,41,41,41,40,40,40,40,40,40,40,37,37,37,37,37,37,37,38,38,38,38,38,38,38,36,36,36,36,36,36,36,0,0,0,0,0,-1,0,0,0,0,0,0,0,0
"Ind134","17_0_1",54,50,50,50,50,50,50,50,48,48,48,48,48,48,48,45,45,45,45,45,45,45,55,55,55,55,55,55,55,50,50,50,50,50,50,50,49,49,49,49,49,49,49,41,41,41,41,41,41,41,42,42,42,42,42,42,42,37,37,37,37,37,37,37,52,52,52,52,52,52,52,44,44,44,44,44,44,44,44,44,44,44,44,44,44,40,40,40,40,40,40,40,41,41,41,41,41,41,41,40,40,40,40,40,40,40,37,37,37,37,37,37,37,38,38,38,38,38,38,38,36,36,36,36,36,36,36,0,0,0,0,0,0,-1,0,0,0,0,0,0,0
"Ind135","19_0_1",47,43,43,43,43,43,43,43,47,47,47,47,47,47,47,44,44,44,44,44,44,44,54,54,54,54,54,54,54,43,43,43,43,43,43,43,42,42,42,42,42,42,42,36,36,36,36,36,36,36,37,37,37,37,37,37,37,34,34,34,34,34,34,34,45,45,45,45,45,45,45,37,37,37,37,37,37,37,37,37,37,37,37,37,37,35,35,35,35,35,35,35,36,36,36,36,36,36,36,35,35,35,35,35,35,35,32,32,32,32,32,32,32,33,33,33,33,33,33,33,29,29,29,29,29,29,29,13,13,13,13,13,13,13,-1,0,0,0,0,0,0
"Ind136","19_0_2",47,43,43,43,43,43,43,43,47,47,47,47,47,47,47,44,44,44,44,44,44,44,54,54,54,54,54,54,54,43,43,43,43,43,43,43,42,42,42,42,42,42,42,36,36,36,36,36,36,36,37,37,37,37,37,37,37,34,34,34,34,34,34,34,45,45,45,45,45,45,45,37,37,37,37,37,37,37,37,37,37,37,37,37,37,35,35,35,35,35,35,35,36,36,36,36,36,36,36,35,35,35,35,35,35,35,32,32,32,32,32,32,32,33,33,33,33,33,33,33,29,29,29,29,29,29,29,13,13,13,13,13,13,13,0,-1,0,0,0,0,0
"Ind137","19_0_3",47,43,43,43,43,43,43,43,47,47,47,47,47,47,47,44,44,44,44,44,44,44,54,54,54,54,54,54,54,43,43,43,43,43,43,43,42,42,42,42,42,42,42,36,36,36,36,36,36,36,37,37,37,37,37,37,37,34,34,34,34,34,34,34,45,45,45,45,45,45,45,37,37,37,37,37,37,37,37,37,37,37,37,37,37,35,35,35,35,35,35,35,36,36,36,36,36,36,36,35,35,35,35,35,35,35,32,32,32,32,32,32,32,33,33,33,33,33,33,33,29,29,29,29,29,29,29,13,13,13,13,13,13,13,0,0,-1,0,0,0,0
"Ind138","19_0_5",47,43,43,43,43,43,43,43,47,47,47,47,47,47,47,44,44,44,44,44,44,44,54,54,54,54,54,54,54,43,43,43,43,43,43,43,42,42,42,42,42,42,42,36,36,36,36,36,36,36,37,37,37,37,37,37,37,34,34,34,34,34,34,34,45,45,45,45,45,45,45,37,37,37,37,37,37,37,37,37,37,37,37,37,37,35,35,35,35,35,35,35,36,36,36,36,36,36,36,35,35,35,35,35,35,35,32,32,32,32,32,32,32,33,33,33,33,33,33,33,29,29,29,29,29,29,29,13,13,13,13,13,13,13,0,0,0,-1,0,0,0
"Ind139","19_0_0",47,43,43,43,43,43,43,43,47,47,47,47,47,47,47,44,44,44,44,44,44,44,54,54,54,54,54,54,54,43,43,43,43,43,43,43,42,42,42,42,42,42,42,36,36,36,36,36,36,36,37,37,37,37,37,37,37,34,34,34,34,34,34,34,45,45,45,45,45,45,45,37,37,37,37,37,37,37,37,37,37,37,37,37,37,35,35,35,35,35,35,35,36,36,36,36,36,36,36,35,35,35,35,35,35,35,32,32,32,32,32,32,32,33,33,33,33,33,33,33,29,29,29,29,29,29,29,13,13,13,13,13,13,13,0,0,0,0,-1,0,0
"Ind140","19_0_6",47,43,43,43,43,43,43,43,47,47,47,47,47,47,47,44,44,44,44,44,44,44,54,54,54,54,54,54,54,43,43,43,43,43,43,43,42,42,42,42,42,42,42,36,36,36,36,36,36,36,37,37,37,37,37,37,37,34,34,34,34,34,34,34,45,45,45,45,45,45,45,37,37,37,37,37,37,37,37,37,37,37,37,37,37,35,35,35,35,35,35,35,36,36,36,36,36,36,36,35,35,35,35,35,35,35,32,32,32,32,32,32,32,33,33,33,33,33,33,33,29,29,29,29,29,29,29,13,13,13,13,13,13,13,0,0,0,0,0,-1,0
"Ind141","19_0_4",47,43,43,43,43,43,43,43,47,47,47,47,47,47,47,44,44,44,44,44,44,44,54,54,54,54,54,54,54,43,43,43,43,43,43,43,42,42,42,42,42,42,42,36,36,36,36,36,36,36,37,37,37,37,37,37,37,34,34,34,34,34,34,34,45,45,45,45,45,45,45,37,37,37,37,37,37,37,37,37,37,37,37,37,37,35,35,35,35,35,35,35,36,36,36,36,36,36,36,35,35,35,35,35,35,35,32,32,32,32,32,32,32,33,33,33,33,33,33,33,29,29,29,29,29,29,29,13,13,13,13,13,13,13,0,0,0,0,0,0,-1
