"","Description","Ind1","Ind2","Ind3","Ind4","Ind5","Ind6","Ind7","Ind8","Ind9","Ind10","Ind11","Ind12","Ind13","Ind14","Ind15","Ind16","Ind17","Ind18","Ind19","Ind20","Ind21","Ind22","Ind23","Ind24","Ind25","Ind26","Ind27","Ind28","Ind29","Ind30","Ind31","Ind32","Ind33","Ind34","Ind35","Ind36","Ind37","Ind38","Ind39","Ind40","Ind41","Ind42","Ind43","Ind44","Ind45","Ind46","Ind47","Ind48","Ind49","Ind50","Ind51","Ind52","Ind53","Ind54","Ind55","Ind56","Ind57","Ind58","Ind59","Ind60","Ind61","Ind62","Ind63","Ind64","Ind65","Ind66","Ind67","Ind68","Ind69","Ind70","Ind71","Ind72","Ind73","Ind74","Ind75","Ind76","Ind77"
"Ind1","0_0_0",-1,0,0,0,0,0,0,0,0,0,0,0,0,0,0,0,0,0,0,0,0,0,0,0,0,0,0,0,0,0,0,0,0,0,0,0,0,0,0,0,0,0,0,0,0,0,0,0,0,0,0,0,0,0,0,0,0,0,0,0,0,0,0,0,0,0,0,0,0,0,0,0,0,0,0,0,0
"Ind2","14_0_1",22,-1,0,0,0,0,0,0,0,0,0,0,0,0,0,0,0,0,0,0,0,0,0,0,0,0,0,0,0,0,0,0,0,0,0,0,0,0,0,0,0,0,0,0,0,0,0,0,0,0,0,0,0,0,0,0,0,0,0,0,0,0,0,0,0,0,0,0,0,0,0,0,0,0,0,0,0
"Ind3","14_0_0",22,0,-1,0,0,0,0,0,0,0,0,0,0,0,0,0,0,0,0,0,0,0,0,0,0,0,0,0,0,0,0,0,0,0,0,0,0,0,0,0,0,0,0,0,0,0,0,0,0,0,0,0,0,0,0,0,0,0,0,0,0,0,0,0,0,0,0,0,0,0,0,0,0,0,0,0,0
"Ind4","14_0_3",22,0,0,-1,0,0,0,0,0,0,0,0,0,0,0,0,0,0,0,0,0,0,0,0,0,0,0,0,0,0,0,0,0,0,0,0,0,0,0,0,0,0,0,0,0,0,0,0,0,0,0,0,0,0,0,0,0,0,0,0,0,0,0,0,0,0,0,0,0,0,0,0,0,0,0,0,0
"Ind5","14_0_2",22,0,0,0,-1,0,0,0,0,0,0,0,0,0,0,0,0,0,0,0,0,0,0,0,0,0,0,0,0,0,0,0,0,0,0,0,0,0,0,0,0,0,0,0,0,0,0,0,0,0,0,0,0,0,0,0,0,0,0,0,0,0,0,0,0,0,0,0,0,0,0,0,0,0,0,0,0
"Ind6","10_0_3",25,3,3,3,3,-1,0,0,0,0,0,0,0,0,0,0,0,0,0,0,0,0,0,0,0,0,0,0,0,0,0,0,0,0,0,0,0,0,0,0,0,0,0,0,0,0,0,0,0,0,0,0,0,0,0,0,0,0,0,0,0,0,0,0,0,0,0,0,0,0,0,0,0,0,0,0,0
"Ind7","10_0_0",25,3,3,3,3,0,-1,0,0,0,0,0,0,0,0,0,0,0,0,0,0,0,0,0,0,0,0,0,0,0,0,0,0,0,0,0,0,0,0,0,0,0,0,0,0,0,0,0,0,0,0,0,0,0,0,0,0,0,0,0,0,0,0,0,0,0,0,0,0,0,0,0,0,0,0,0,0
"Ind8","10_0_1",25,3,3,3,3,0,0,-1,0,0,0,0,0,0,0,0,0,0,0,0,0,0,0,0,0,0,0,0,0,0,0,0,0,0,0,0,0,0,0,0,0,0,0,0,0,0,0,0,0,0,0,0,0,0,0,0,0,0,0,0,0,0,0,0,0,0,0,0,0,0,0,0,0,0,0,0,0
"Ind9","10_0_2",25,3,3,3,3,0,0,0,-1,0,0,0,0,0,0,0,0,0,0,0,0,0,0,0,0,0,0,0,0,0,0,0,0,0,0,0,0,0,0,0,0,0,0,0,0,0,0,0,0,0,0,0,0,0,0,0,0,0,0,0,0,0,0,0,0,0,0,0,0,0,0,0,0,0,0,0,0
"Ind10","5_0_0",25,3,3,3,3,0,0,0,0,-1,0,0,0,0,0,0,0,0,0,0,0,0,0,0,0,0,0,0,0,0,0,0,0,0,0,0,0,0,0,0,0,0,0,0,0,0,0,0,0,0,0,0,0,0,0,0,0,0,0,0,0,0,0,0,0,0,0,0,0,0,0,0,0,0,0,0,0
"Ind11","5_0_2",25,3,3,3,3,0,0,0,0,0,-1,0,0,0,0,0,0,0,0,0,0,0,0,0,0,0,0,0,0,0,0,0,0,0,0,0,0,0,0,0,0,0,0,0,0,0,0,0,0,0,0,0,0,0,0,0,0,0,0,0,0,0,0,0,0,0,0,0,0,0,0,0,0,0,0,0,0
"Ind12","5_0_1",25,3,3,3,3,0,0,0,0,0,0,-1,0,0,0,0,0,0,0,0,0,0,0,0,0,0,0,0,0,0,0,0,0,0,0,0,0,0,0,0,0,0,0,0,0,0,0,0,0,0,0,0,0,0,0,0,0,0,0,0,0,0,0,0,0,0,0,0,0,0,0,0,0,0,0,0,0
"Ind13","5_0_3",25,3,3,3,3,0,0,0,0,0,0,0,-1,0,0,0,0,0,0,0,0,0,0,0,0,0,0,0,0,0,0,0,0,0,0,0,0,0,0,0,0,0,0,0,0,0,0,0,0,0,0,0,0,0,0,0,0,0,0,0,0,0,0,0,0,0,0,0,0,0,0,0,0,0,0,0,0
"Ind14","18_0_0",26,4,4,4,4,1,1,1,1,1,1,1,1,-1,0,0,0,0,0,0,0,0,0,0,0,0,0,0,0,0,0,0,0,0,0,0,0,0,0,0,0,0,0,0,0,0,0,0,0,0,0,0,0,0,0,0,0,0,0,0,0,0,0,0,0,0,0,0,0,0,0,0,0,0,0,0,0
"Ind15","18_0_3",26,4,4,4,4,1,1,1,1,1,1,1,1,0,-1,0,0,0,0,0,0,0,0,0,0,0,0,0,0,0,0,0,0,0,0,0,0,0,0,0,0,0,0,0,0,0,0,0,0,0,0,0,0,0,0,0,0,0,0,0,0,0,0,0,0,0,0,0,0,0,0,0,0,0,0,0,0
"Ind16","18_0_2",26,4,4,4,4,1,1,1,1,1,1,1,1,0,0,-1,0,0,0,0,0,0,0,0,0,0,0,0,0,0,0,0,0,0,0,0,0,0,0,0,0,0,0,0,0,0,0,0,0,0,0,0,0,0,0,0,0,0,0,0,0,0,0,0,0,0,0,0,0,0,0,0,0,0,0,0,0
"Ind17","18_0_1",26,4,4,4,4,1,1,1,1,1,1,1,1,0,0,0,-1,0,0,0,0,0,0,0,0,0,0,0,0,0,0,0,0,0,0,0,0,0,0,0,0,0,0,0,0,0,0,0,0,0,0,0,0,0,0,0,0,0,0,0,0,0,0,0,0,0,0,0,0,0,0,0,0,0,0,0,0
"Ind18","3_0_2",27,5,5,5,5,3,3,3,3,3,3,3,3,4,4,4,4,-1,0,0,0,0,0,0,0,0,0,0,0,0,0,0,0,0,0,0,0,0,0,0,0,0,0,0,0,0,0,0,0,0,0,0,0,0,0,0,0,0,0,0,0,0,0,0,0,0,0,0,0,0,0,0,0,0,0,0,0
"Ind19","3_0_3",27,5,5,5,5,3,3,3,3,3,3,3,3,4,4,4,4,0,-1,0,0,0,0,0,0,0,0,0,0,0,0,0,0,0,0,0,0,0,0,0,0,0,0,0,0,0,0,0,0,0,0,0,0,0,0,0,0,0,0,0,0,0,0,0,0,0,0,0,0,0,0,0,0,0,0,0,0
"Ind20","3_0_1",27,5,5,5,5,3,3,3,3,3,3,3,3,4,4,4,4,0,0,-1,0,0,0,0,0,0,0,0,0,0,0,0,0,0,0,0,0,0,0,0,0,0,0,0,0,0,0,0,0,0,0,0,0,0,0,0,0,0,0,0,0,0,0,0,0,0,0,0,0,0,0,0,0,0,0,0,0
"Ind21","3_0_0",27,5,5,5,5,3,3,3,3,3,3,3,3,4,4,4,4,0,0,0,-1,0,0,0,0,0,0,0,0,0,0,0,0,0,0,0,0,0,0,0,0,0,0,0,0,0,0,0,0,0,0,0,0,0,0,0,0,0,0,0,0,0,0,0,0,0,0,0,0,0,0,0,0,0,0,0,0
"Ind22","7_0_0",23,1,1,1,1,4,4,4,4,4,4,4,4,5,5,5,5,6,6,6,6,-1,0,0,0,0,0,0,0,0,0,0,0,0,0,0,0,0,0,0,0,0,0,0,0,0,0,0,0,0,0,0,0,0,0,0,0,0,0,0,0,0,0,0,0,0,0,0,0,0,0,0,0,0,0,0,0
"Ind23","7_0_1",23,1,1,1,1,4,4,4,4,4,4,4,4,5,5,5,5,6,6,6,6,0,-1,0,0,0,0,0,0,0,0,0,0,0,0,0,0,0,0,0,0,0,0,0,0,0,0,0,0,0,0,0,0,0,0,0,0,0,0,0,0,0,0,0,0,0,0,0,0,0,0,0,0,0,0,0,0
"Ind24","7_0_2",23,1,1,1,1,4,4,4,4,4,4,4,4,5,5,5,5,6,6,6,6,0,0,-1,0,0,0,0,0,0,0,0,0,0,0,0,0,0,0,0,0,0,0,0,0,0,0,0,0,0,0,0,0,0,0,0,0,0,0,0,0,0,0,0,0,0,0,0,0,0,0,0,0,0,0,0,0
"Ind25","7_0_3",23,1,1,1,1,4,4,4,4,4,4,4,4,5,5,5,5,6,6,6,6,0,0,0,-1,0,0,0,0,0,0,0,0,0,0,0,0,0,0,0,0,0,0,0,0,0,0,0,0,0,0,0,0,0,0,0,0,0,0,0,0,0,0,0,0,0,0,0,0,0,0,0,0,0,0,0,0
"Ind26","19_0_1",22,0,0,0,0,3,3,3,3,3,3,3,3,4,4,4,4,5,5,5,5,1,1,1,1,-1,0,0,0,0,0,0,0,0,0,0,0,0,0,0,0,0,0,0,0,0,0,0,0,0,0,0,0,0,0,0,0,0,0,0,0,0,0,0,0,0,0,0,0,0,0,0,0,0,0,0,0
"Ind27","19_0_0",22,0,0,0,0,3,3,3,3,3,3,3,3,4,4,4,4,5,5,5,5,1,1,1,1,0,-1,0,0,0,0,0,0,0,0,0,0,0,0,0,0,0,0,0,0,0,0,0,0,0,0,0,0,0,0,0,0,0,0,0,0,0,0,0,0,0,0,0,0,0,0,0,0,0,0,0,0
"Ind28","19_0_2",22,0,0,0,0,3,3,3,3,3,3,3,3,4,4,4,4,5,5,5,5,1,1,1,1,0,0,-1,0,0,0,0,0,0,0,0,0,0,0,0,0,0,0,0,0,0,0,0,0,0,0,0,0,0,0,0,0,0,0,0,0,0,0,0,0,0,0,0,0,0,0,0,0,0,0,0,0
"Ind29","19_0_3",22,0,0,0,0,3,3,3,3,3,3,3,3,4,4,4,4,5,5,5,5,1,1,1,1,0,0,0,-1,0,0,0,0,0,0,0,0,0,0,0,0,0,0,0,0,0,0,0,0,0,0,0,0,0,0,0,0,0,0,0,0,0,0,0,0,0,0,0,0,0,0,0,0,0,0,0,0
"Ind30","12_0_1",24,4,4,4,4,7,7,7,7,7,7,7,7,8,8,8,8,9,9,9,9,5,5,5,5,4,4,4,4,-1,0,0,0,0,0,0,0,0,0,0,0,0,0,0,0,0,0,0,0,0,0,0,0,0,0,0,0,0,0,0,0,0,0,0,0,0,0,0,0,0,0,0,0,0,0,0,0
"Ind31","12_0_2",24,4,4,4,4,7,7,7,7,7,7,7,7,8,8,8,8,9,9,9,9,5,5,5,5,4,4,4,4,0,-1,0,0,0,0,0,0,0,0,0,0,0,0,0,0,0,0,0,0,0,0,0,0,0,0,0,0,0,0,0,0,0,0,0,0,0,0,0,0,0,0,0,0,0,0,0,0
"Ind32","12_0_0",24,4,4,4,4,7,7,7,7,7,7,7,7,8,8,8,8,9,9,9,9,5,5,5,5,4,4,4,4,0,0,-1,0,0,0,0,0,0,0,0,0,0,0,0,0,0,0,0,0,0,0,0,0,0,0,0,0,0,0,0,0,0,0,0,0,0,0,0,0,0,0,0,0,0,0,0,0
"Ind33","12_0_3",24,4,4,4,4,7,7,7,7,7,7,7,7,8,8,8,8,9,9,9,9,5,5,5,5,4,4,4,4,0,0,0,-1,0,0,0,0,0,0,0,0,0,0,0,0,0,0,0,0,0,0,0,0,0,0,0,0,0,0,0,0,0,0,0,0,0,0,0,0,0,0,0,0,0,0,0,0
"Ind34","15_0_0",24,4,4,4,4,7,7,7,7,7,7,7,7,8,8,8,8,9,9,9,9,5,5,5,5,4,4,4,4,0,0,0,0,-1,0,0,0,0,0,0,0,0,0,0,0,0,0,0,0,0,0,0,0,0,0,0,0,0,0,0,0,0,0,0,0,0,0,0,0,0,0,0,0,0,0,0,0
"Ind35","15_0_3",24,4,4,4,4,7,7,7,7,7,7,7,7,8,8,8,8,9,9,9,9,5,5,5,5,4,4,4,4,0,0,0,0,0,-1,0,0,0,0,0,0,0,0,0,0,0,0,0,0,0,0,0,0,0,0,0,0,0,0,0,0,0,0,0,0,0,0,0,0,0,0,0,0,0,0,0,0
"Ind36","15_0_1",24,4,4,4,4,7,7,7,7,7,7,7,7,8,8,8,8,9,9,9,9,5,5,5,5,4,4,4,4,0,0,0,0,0,0,-1,0,0,0,0,0,0,0,0,0,0,0,0,0,0,0,0,0,0,0,0,0,0,0,0,0,0,0,0,0,0,0,0,0,0,0,0,0,0,0,0,0
"Ind37","15_0_2",24,4,4,4,4,7,7,7,7,7,7,7,7,8,8,8,8,9,9,9,9,5,5,5,5,4,4,4,4,0,0,0,0,0,0,0,-1,0,0,0,0,0,0,0,0,0,0,0,0,0,0,0,0,0,0,0,0,0,0,0,0,0,0,0,0,0,0,0,0,0,0,0,0,0,0,0,0
"Ind38","13_0_2",21,1,1,1,1,4,4,4,4,4,4,4,4,5,5,5,5,6,6,6,6,2,2,2,2,1,1,1,1,5,5,5,5,5,5,5,5,-1,0,0,0,0,0,0,0,0,0,0,0,0,0,0,0,0,0,0,0,0,0,0,0,0,0,0,0,0,0,0,0,0,0,0,0,0,0,0,0
"Ind39","13_0_1",21,1,1,1,1,4,4,4,4,4,4,4,4,5,5,5,5,6,6,6,6,2,2,2,2,1,1,1,1,5,5,5,5,5,5,5,5,0,-1,0,0,0,0,0,0,0,0,0,0,0,0,0,0,0,0,0,0,0,0,0,0,0,0,0,0,0,0,0,0,0,0,0,0,0,0,0,0
"Ind40","13_0_0",21,1,1,1,1,4,4,4,4,4,4,4,4,5,5,5,5,6,6,6,6,2,2,2,2,1,1,1,1,5,5,5,5,5,5,5,5,0,0,-1,0,0,0,0,0,0,0,0,0,0,0,0,0,0,0,0,0,0,0,0,0,0,0,0,0,0,0,0,0,0,0,0,0,0,0,0,0
"Ind41","13_0_3",21,1,1,1,1,4,4,4,4,4,4,4,4,5,5,5,5,6,6,6,6,2,2,2,2,1,1,1,1,5,5,5,5,5,5,5,5,0,0,0,-1,0,0,0,0,0,0,0,0,0,0,0,0,0,0,0,0,0,0,0,0,0,0,0,0,0,0,0,0,0,0,0,0,0,0,0,0
"Ind42","4_0_3",21,1,1,1,1,4,4,4,4,4,4,4,4,5,5,5,5,6,6,6,6,2,2,2,2,1,1,1,1,5,5,5,5,5,5,5,5,0,0,0,0,-1,0,0,0,0,0,0,0,0,0,0,0,0,0,0,0,0,0,0,0,0,0,0,0,0,0,0,0,0,0,0,0,0,0,0,0
"Ind43","4_0_2",21,1,1,1,1,4,4,4,4,4,4,4,4,5,5,5,5,6,6,6,6,2,2,2,2,1,1,1,1,5,5,5,5,5,5,5,5,0,0,0,0,0,-1,0,0,0,0,0,0,0,0,0,0,0,0,0,0,0,0,0,0,0,0,0,0,0,0,0,0,0,0,0,0,0,0,0,0
"Ind44","4_0_1",21,1,1,1,1,4,4,4,4,4,4,4,4,5,5,5,5,6,6,6,6,2,2,2,2,1,1,1,1,5,5,5,5,5,5,5,5,0,0,0,0,0,0,-1,0,0,0,0,0,0,0,0,0,0,0,0,0,0,0,0,0,0,0,0,0,0,0,0,0,0,0,0,0,0,0,0,0
"Ind45","4_0_0",21,1,1,1,1,4,4,4,4,4,4,4,4,5,5,5,5,6,6,6,6,2,2,2,2,1,1,1,1,5,5,5,5,5,5,5,5,0,0,0,0,0,0,0,-1,0,0,0,0,0,0,0,0,0,0,0,0,0,0,0,0,0,0,0,0,0,0,0,0,0,0,0,0,0,0,0,0
"Ind46","2_0_2",19,13,13,13,13,16,16,16,16,16,16,16,16,17,17,17,17,18,18,18,18,14,14,14,14,13,13,13,13,15,15,15,15,15,15,15,15,12,12,12,12,12,12,12,12,-1,0,0,0,0,0,0,0,0,0,0,0,0,0,0,0,0,0,0,0,0,0,0,0,0,0,0,0,0,0,0,0
"Ind47","2_0_0",19,13,13,13,13,16,16,16,16,16,16,16,16,17,17,17,17,18,18,18,18,14,14,14,14,13,13,13,13,15,15,15,15,15,15,15,15,12,12,12,12,12,12,12,12,0,-1,0,0,0,0,0,0,0,0,0,0,0,0,0,0,0,0,0,0,0,0,0,0,0,0,0,0,0,0,0,0
"Ind48","2_0_1",19,13,13,13,13,16,16,16,16,16,16,16,16,17,17,17,17,18,18,18,18,14,14,14,14,13,13,13,13,15,15,15,15,15,15,15,15,12,12,12,12,12,12,12,12,0,0,-1,0,0,0,0,0,0,0,0,0,0,0,0,0,0,0,0,0,0,0,0,0,0,0,0,0,0,0,0,0
"Ind49","2_0_3",19,13,13,13,13,16,16,16,16,16,16,16,16,17,17,17,17,18,18,18,18,14,14,14,14,13,13,13,13,15,15,15,15,15,15,15,15,12,12,12,12,12,12,12,12,0,0,0,-1,0,0,0,0,0,0,0,0,0,0,0,0,0,0,0,0,0,0,0,0,0,0,0,0,0,0,0,0
"Ind50","6_0_2",19,13,13,13,13,16,16,16,16,16,16,16,16,17,17,17,17,18,18,18,18,14,14,14,14,13,13,13,13,15,15,15,15,15,15,15,15,12,12,12,12,12,12,12,12,2,2,2,2,-1,0,0,0,0,0,0,0,0,0,0,0,0,0,0,0,0,0,0,0,0,0,0,0,0,0,0,0
"Ind51","6_0_0",19,13,13,13,13,16,16,16,16,16,16,16,16,17,17,17,17,18,18,18,18,14,14,14,14,13,13,13,13,15,15,15,15,15,15,15,15,12,12,12,12,12,12,12,12,2,2,2,2,0,-1,0,0,0,0,0,0,0,0,0,0,0,0,0,0,0,0,0,0,0,0,0,0,0,0,0,0
"Ind52","6_0_3",19,13,13,13,13,16,16,16,16,16,16,16,16,17,17,17,17,18,18,18,18,14,14,14,14,13,13,13,13,15,15,15,15,15,15,15,15,12,12,12,12,12,12,12,12,2,2,2,2,0,0,-1,0,0,0,0,0,0,0,0,0,0,0,0,0,0,0,0,0,0,0,0,0,0,0,0,0
"Ind53","6_0_1",19,13,13,13,13,16,16,16,16,16,16,16,16,17,17,17,17,18,18,18,18,14,14,14,14,13,13,13,13,15,15,15,15,15,15,15,15,12,12,12,12,12,12,12,12,2,2,2,2,0,0,0,-1,0,0,0,0,0,0,0,0,0,0,0,0,0,0,0,0,0,0,0,0,0,0,0,0
"Ind54","8_0_3",18,12,12,12,12,15,15,15,15,15,15,15,15,16,16,16,16,17,17,17,17,13,13,13,13,12,12,12,12,16,16,16,16,16,16,16,16,11,11,11,11,11,11,11,11,5,5,5,5,5,5,5,5,-1,0,0,0,0,0,0,0,0,0,0,0,0,0,0,0,0,0,0,0,0,0,0,0
"Ind55","8_0_0",18,12,12,12,12,15,15,15,15,15,15,15,15,16,16,16,16,17,17,17,17,13,13,13,13,12,12,12,12,16,16,16,16,16,16,16,16,11,11,11,11,11,11,11,11,5,5,5,5,5,5,5,5,0,-1,0,0,0,0,0,0,0,0,0,0,0,0,0,0,0,0,0,0,0,0,0,0
"Ind56","8_0_1",18,12,12,12,12,15,15,15,15,15,15,15,15,16,16,16,16,17,17,17,17,13,13,13,13,12,12,12,12,16,16,16,16,16,16,16,16,11,11,11,11,11,11,11,11,5,5,5,5,5,5,5,5,0,0,-1,0,0,0,0,0,0,0,0,0,0,0,0,0,0,0,0,0,0,0,0,0
"Ind57","8_0_2",18,12,12,12,12,15,15,15,15,15,15,15,15,16,16,16,16,17,17,17,17,13,13,13,13,12,12,12,12,16,16,16,16,16,16,16,16,11,11,11,11,11,11,11,11,5,5,5,5,5,5,5,5,0,0,0,-1,0,0,0,0,0,0,0,0,0,0,0,0,0,0,0,0,0,0,0,0
"Ind58","16_0_2",18,10,10,10,10,13,13,13,13,13,13,13,13,14,14,14,14,15,15,15,15,11,11,11,11,10,10,10,10,14,14,14,14,14,14,14,14,9,9,9,9,9,9,9,9,5,5,5,5,5,5,5,5,4,4,4,4,-1,0,0,0,0,0,0,0,0,0,0,0,0,0,0,0,0,0,0,0
"Ind59","16_0_0",18,10,10,10,10,13,13,13,13,13,13,13,13,14,14,14,14,15,15,15,15,11,11,11,11,10,10,10,10,14,14,14,14,14,14,14,14,9,9,9,9,9,9,9,9,5,5,5,5,5,5,5,5,4,4,4,4,0,-1,0,0,0,0,0,0,0,0,0,0,0,0,0,0,0,0,0,0
"Ind60","16_0_3",18,10,10,10,10,13,13,13,13,13,13,13,13,14,14,14,14,15,15,15,15,11,11,11,11,10,10,10,10,14,14,14,14,14,14,14,14,9,9,9,9,9,9,9,9,5,5,5,5,5,5,5,5,4,4,4,4,0,0,-1,0,0,0,0,0,0,0,0,0,0,0,0,0,0,0,0,0
"Ind61","16_0_1",18,10,10,10,10,13,13,13,13,13,13,13,13,14,14,14,14,15,15,15,15,11,11,11,11,10,10,10,10,14,14,14,14,14,14,14,14,9,9,9,9,9,9,9,9,5,5,5,5,5,5,5,5,4,4,4,4,0,0,0,-1,0,0,0,0,0,0,0,0,0,0,0,0,0,0,0,0
"Ind62","9_0_0",18,10,10,10,10,13,13,13,13,13,13,13,13,14,14,14,14,15,15,15,15,11,11,11,11,10,10,10,10,14,14,14,14,14,14,14,14,9,9,9,9,9,9,9,9,5,5,5,5,5,5,5,5,4,4,4,4,0,0,0,0,-1,0,0,0,0,0,0,0,0,0,0,0,0,0,0,0
"Ind63","9_0_2",18,10,10,10,10,13,13,13,13,13,13,13,13,14,14,14,14,15,15,15,15,11,11,11,11,10,10,10,10,14,14,14,14,14,14,14,14,9,9,9,9,9,9,9,9,5,5,5,5,5,5,5,5,4,4,4,4,0,0,0,0,0,-1,0,0,0,0,0,0,0,0,0,0,0,0,0,0
"Ind64","9_0_1",18,10,10,10,10,13,13,13,13,13,13,13,13,14,14,14,14,15,15,15,15,11,11,11,11,10,10,10,10,14,14,14,14,14,14,14,14,9,9,9,9,9,9,9,9,5,5,5,5,5,5,5,5,4,4,4,4,0,0,0,0,0,0,-1,0,0,0,0,0,0,0,0,0,0,0,0,0
"Ind65","9_0_3",18,10,10,10,10,13,13,13,13,13,13,13,13,14,14,14,14,15,15,15,15,11,11,11,11,10,10,10,10,14,14,14,14,14,14,14,14,9,9,9,9,9,9,9,9,5,5,5,5,5,5,5,5,4,4,4,4,0,0,0,0,0,0,0,-1,0,0,0,0,0,0,0,0,0,0,0,0
"Ind66","11_0_2",18,10,10,10,10,13,13,13,13,13,13,13,13,14,14,14,14,15,15,15,15,11,11,11,11,10,10,10,10,14,14,14,14,14,14,14,14,9,9,9,9,9,9,9,9,5,5,5,5,5,5,5,5,4,4,4,4,0,0,0,0,0,0,0,0,-1,0,0,0,0,0,0,0,0,0,0,0
"Ind67","11_0_0",18,10,10,10,10,13,13,13,13,13,13,13,13,14,14,14,14,15,15,15,15,11,11,11,11,10,10,10,10,14,14,14,14,14,14,14,14,9,9,9,9,9,9,9,9,5,5,5,5,5,5,5,5,4,4,4,4,0,0,0,0,0,0,0,0,0,-1,0,0,0,0,0,0,0,0,0,0
"Ind68","11_0_3",18,10,10,10,10,13,13,13,13,13,13,13,13,14,14,14,14,15,15,15,15,11,11,11,11,10,10,10,10,14,14,14,14,14,14,14,14,9,9,9,9,9,9,9,9,5,5,5,5,5,5,5,5,4,4,4,4,0,0,0,0,0,0,0,0,0,0,-1,0,0,0,0,0,0,0,0,0
"Ind69","11_0_1",18,10,10,10,10,13,13,13,13,13,13,13,13,14,14,14,14,15,15,15,15,11,11,11,11,10,10,10,10,14,14,14,14,14,14,14,14,9,9,9,9,9,9,9,9,5,5,5,5,5,5,5,5,4,4,4,4,0,0,0,0,0,0,0,0,0,0,0,-1,0,0,0,0,0,0,0,0
"Ind70","17_0_0",18,10,10,10,10,13,13,13,13,13,13,13,13,14,14,14,14,15,15,15,15,11,11,11,11,10,10,10,10,14,14,14,14,14,14,14,14,9,9,9,9,9,9,9,9,5,5,5,5,5,5,5,5,4,4,4,4,0,0,0,0,0,0,0,0,0,0,0,0,-1,0,0,0,0,0,0,0
"Ind71","17_0_3",18,10,10,10,10,13,13,13,13,13,13,13,13,14,14,14,14,15,15,15,15,11,11,11,11,10,10,10,10,14,14,14,14,14,14,14,14,9,9,9,9,9,9,9,9,5,5,5,5,5,5,5,5,4,4,4,4,0,0,0,0,0,0,0,0,0,0,0,0,0,-1,0,0,0,0,0,0
"Ind72","17_0_1",18,10,10,10,10,13,13,13,13,13,13,13,13,14,14,14,14,15,15,15,15,11,11,11,11,10,10,10,10,14,14,14,14,14,14,14,14,9,9,9,9,9,9,9,9,5,5,5,5,5,5,5,5,4,4,4,4,0,0,0,0,0,0,0,0,0,0,0,0,0,0,-1,0,0,0,0,0
"Ind73","17_0_2",18,10,10,10,10,13,13,13,13,13,13,13,13,14,14,14,14,15,15,15,15,11,11,11,11,10,10,10,10,14,14,14,14,14,14,14,14,9,9,9,9,9,9,9,9,5,5,5,5,5,5,5,5,4,4,4,4,0,0,0,0,0,0,0,0,0,0,0,0,0,0,0,-1,0,0,0,0
"Ind74","1_0_2",18,12,12,12,12,15,15,15,15,15,15,15,15,16,16,16,16,17,17,17,17,13,13,13,13,12,12,12,12,16,16,16,16,16,16,16,16,11,11,11,11,11,11,11,11,5,5,5,5,5,5,5,5,4,4,4,4,4,4,4,4,4,4,4,4,4,4,4,4,4,4,4,4,-1,0,0,0
"Ind75","1_0_0",18,12,12,12,12,15,15,15,15,15,15,15,15,16,16,16,16,17,17,17,17,13,13,13,13,12,12,12,12,16,16,16,16,16,16,16,16,11,11,11,11,11,11,11,11,5,5,5,5,5,5,5,5,4,4,4,4,4,4,4,4,4,4,4,4,4,4,4,4,4,4,4,4,0,-1,0,0
"Ind76","1_0_1",18,12,12,12,12,15,15,15,15,15,15,15,15,16,16,16,16,17,17,17,17,13,13,13,13,12,12,12,12,16,16,16,16,16,16,16,16,11,11,11,11,11,11,11,11,5,5,5,5,5,5,5,5,4,4,4,4,4,4,4,4,4,4,4,4,4,4,4,4,4,4,4,4,0,0,-1,0
"Ind77","1_0_3",18,12,12,12,12,15,15,15,15,15,15,15,15,16,16,16,16,17,17,17,17,13,13,13,13,12,12,12,12,16,16,16,16,16,16,16,16,11,11,11,11,11,11,11,11,5,5,5,5,5,5,5,5,4,4,4,4,4,4,4,4,4,4,4,4,4,4,4,4,4,4,4,4,0,0,0,-1
