********************************************************************************
INDELible V1.03 by Will Fletcher : Simulation began at: Tue Nov 29 13:24:51 2016
********************************************************************************

  * Block 1 was completed in 0.13 seconds.

********************************************************************************


  * Block 2 was completed in 0.13 seconds.

********************************************************************************


  * Block 3 was completed in 0.14 seconds.

********************************************************************************


  * Block 4 was completed in 0.13 seconds.

********************************************************************************


  * Block 5 was completed in 0.13 seconds.

********************************************************************************


  * Block 6 was completed in 0.13 seconds.

********************************************************************************


  * Block 7 was completed in 0.14 seconds.

********************************************************************************


  * Block 8 was completed in 0.15 seconds.

********************************************************************************


  * Block 9 was completed in 0.14 seconds.

********************************************************************************


  * Block 10 was completed in 0.15 seconds.

********************************************************************************

  * Simulation completed. Whole batch took: 1.4 seconds.

INDELible V1.03 Simulations completed at: Tue Nov 29 13:24:52 2016

********************************************************************************


 Original Control File 

-----------------------


[TYPE] NUCLEOTIDE 1 

[SETTINGS]
    [fastaextension] fasta  

[MODEL] csSim_unlinked_1
    [submodel] GTR 0.125696 0.020150 0.006010 0.039244 0.032745 
    [statefreq] 0.149534 0.184224 0.529315 0.136927 
[rates] 0 110.518065 0 

[MODEL] csSim_unlinked_2
    [submodel] GTR 0.105681 0.023208 0.038314 0.025689 0.033677 
    [statefreq] 0.005480 0.046840 0.582692 0.364988 
[rates] 0 6.460245 0 

[MODEL] csSim_unlinked_3
    [submodel] GTR 0.096585 0.011300 0.016564 0.040188 0.045293 
    [statefreq] 0.080832 0.470689 0.232897 0.215582 
[rates] 0 14.562480 0 

[MODEL] csSim_unlinked_4
    [submodel] GTR 0.136407 0.017135 0.012038 0.041980 0.012495 
    [statefreq] 0.259750 0.028913 0.446487 0.264849 
[rates] 0 15.655346 0 

[MODEL] csSim_unlinked_5
    [submodel] GTR 0.115482 0.006068 0.029574 0.027208 0.042951 
    [statefreq] 0.692719 0.122040 0.058363 0.126878 
[rates] 0 15.103885 0 

[MODEL] csSim_unlinked_6
    [submodel] GTR 0.125874 0.011542 0.005088 0.021086 0.052589 
    [statefreq] 0.133499 0.129874 0.464410 0.272217 
[rates] 0 11.756536 0 

[MODEL] csSim_unlinked_7
    [submodel] GTR 0.068016 0.003157 0.016630 0.026190 0.019261 
    [statefreq] 0.375372 0.116182 0.270595 0.237851 
[rates] 0 5.425914 0 

[MODEL] csSim_unlinked_8
    [submodel] GTR 0.079010 0.003754 0.016288 0.037551 0.056775 
    [statefreq] 0.265152 0.286878 0.027144 0.420826 
[rates] 0 59.700544 0 

[MODEL] csSim_unlinked_9
    [submodel] GTR 0.068739 0.021057 0.010292 0.016524 0.046793 
    [statefreq] 0.046690 0.476979 0.090672 0.385658 
[rates] 0 30.881186 0 

[MODEL] csSim_unlinked_10
    [submodel] GTR 0.115952 0.003862 0.023216 0.030978 0.026021 
    [statefreq] 0.232691 0.251818 0.171214 0.344278 
[rates] 0 39.079606 0 


[TREE] T01 (0_0_0:0.08183618,((((((8_0_4:0.00000632,(8_0_1:0.00000202,8_0_3:0.00000047):0.00000069):0.00000185,8_0_0:0.00001629):0.00007320,(8_0_5:0.00000044,8_0_2:0.00000417):0.00003360):0.00117909,((((5_0_1:0.00000103,5_0_3:0.00000152):0.00000061,5_0_5:0.00000095):0.00000494,5_0_2:0.00000676):0.00000194,(5_0_0:0.00000329,5_0_4:0.00000135):0.00011931):0.00000095):0.00000225,(((6_0_0:0.00000024,6_0_3:0.00000250):0.00017203,((6_0_4:0.00000192,6_0_1:0.00001538):0.00001690,(6_0_2:0.00000067,6_0_5:0.00000025):0.00000486):0.00004507):0.00095874,(((4_0_2:0.00000025,(4_0_5:0.00001895,(4_0_4:0.00000003,4_0_0:0.00000669):0.00000329):0.00000008):0.00000948,((7_0_3:0.00000067,((7_0_2:0.00000020,(7_0_1:0.00000012,7_0_0:0.00000001):0.00000030):0.00002602,7_0_4:0.00000757):0.00001469):0.00000002,7_0_5:0.00000759):0.00000474):0.00001257,(4_0_1:0.00000629,4_0_3:0.00002350):0.00002175):0.00043948):0.00003779):0.00376206,((((3_0_3:0.00000020,((3_0_4:0.00000014,(3_0_0:0.00000007,3_0_1:0.00000001):0.00000087):0.00000000,3_0_2:0.00002477):0.00000276):0.00000121,3_0_5:0.00001034):0.00070343,(((1_0_5:0.00000146,1_0_2:0.00000023):0.00000470,(1_0_4:0.00000047,(1_0_0:0.00000038,1_0_1:0.00000132):0.00000338):0.00003470):0.00000000,1_0_3:0.00000277):0.00171865):0.00027105,((2_0_4:0.00000071,(2_0_5:0.00001780,2_0_3:0.00001263):0.00002692):0.00014331,(2_0_2:0.00000249,(2_0_1:0.00000902,2_0_0:0.00000592):0.00000216):0.00000273):0.00098620):0.07939287):0.00277332);
[TREE] T02 (0_0_0:0.00288256,((((((8_0_5:0.00000115,8_0_2:0.00000004):0.00000020,(8_0_0:0.00005677,(8_0_1:0.00000017,8_0_3:0.00000035):0.00000239):0.00000127):0.00018753,8_0_4:0.00014470):0.00010895,(((6_0_3:0.00000279,(6_0_4:0.00000173,6_0_5:0.00000002):0.00000101):0.00008576,((6_0_1:0.00000000,6_0_2:0.00000000):0.00003805,6_0_0:0.00000562):0.00004904):0.00070277,(((4_0_5:0.00000006,(4_0_2:0.00000034,4_0_1:0.00001601):0.00002608):0.00011731,((4_0_3:0.00000412,4_0_4:0.00000106):0.00000130,4_0_0:0.00007975):0.00000013):0.00005580,(7_0_2:0.00015593,(7_0_0:0.00000017,((7_0_3:0.00002495,(7_0_1:0.00000113,7_0_4:0.00000202):0.00001802):0.00000008,7_0_5:0.00005100):0.00000005):0.00000389):0.00000686):0.00000015):0.00019417):0.00001607,(((5_0_1:0.00000019,5_0_4:0.00001384):0.00001868,((5_0_2:0.00000005,5_0_0:0.00000006):0.00000438,5_0_5:0.00000602):0.00001808):0.00000054,5_0_3:0.00000516):0.00123346):0.00005093,(((1_0_4:0.00016688,(1_0_5:0.00000307,(((1_0_3:0.00000000,1_0_2:0.00000001):0.00000120,1_0_1:0.00000002):0.00000157,1_0_0:0.00000000):0.00001518):0.00030971):0.00019335,(((3_0_2:0.00000030,3_0_0:0.00000934):0.00006814,3_0_4:0.00001521):0.00003096,((3_0_5:0.00000146,3_0_3:0.00002249):0.00004844,3_0_1:0.00000492):0.00011923):0.00001349):0.00000339,(2_0_5:0.00014037,(2_0_2:0.00005390,((2_0_0:0.00000767,2_0_3:0.00000227):0.00002917,(2_0_1:0.00000304,2_0_4:0.00000180):0.00000042):0.00000298):0.00001194):0.00005836):0.05095050):0.00683718);
[TREE] T03 ((((((8_0_4:0.00004837,((8_0_1:0.00000127,(8_0_2:0.00000100,8_0_0:0.00000010):0.00000006):0.00000360,8_0_5:0.00000615):0.00000070):0.00000025,8_0_3:0.00033928):0.00008216,((6_0_3:0.00003431,((((6_0_4:0.00000002,6_0_0:0.00000006):0.00000411,6_0_1:0.00002006):0.00000005,6_0_5:0.00000510):0.00001425,6_0_2:0.00000084):0.00000031):0.00054365,(7_0_4:0.00003523,((((4_0_0:0.00000358,(4_0_4:0.00000068,4_0_5:0.00000246):0.00001628):0.00000509,4_0_2:0.00000078):0.00000039,(4_0_3:0.00000292,4_0_1:0.00000511):0.00000244):0.00000018,(((7_0_0:0.00000001,(7_0_5:0.00000002,7_0_2:0.00000023):0.00000327):0.00000357,7_0_3:0.00000019):0.00000064,7_0_1:0.00000478):0.00019827):0.00002448):0.00002411):0.00004622):0.00000603,((5_0_2:0.00002118,(5_0_4:0.00000015,5_0_5:0.00000015):0.00000100):0.00009419,((5_0_3:0.00000000,5_0_1:0.00000070):0.00001074,5_0_0:0.00000095):0.00003632):0.00010616):0.00413301,(((((1_0_0:0.00000152,(1_0_5:0.00000012,1_0_3:0.00000051):0.00000100):0.00001084,1_0_4:0.00000167):0.00002939,(1_0_2:0.00000335,1_0_1:0.00000075):0.00005804):0.00004925,(((3_0_5:0.00000289,3_0_0:0.00000482):0.00000125,3_0_4:0.00001185):0.00000468,((3_0_1:0.00000071,3_0_3:0.00000011):0.00000104,3_0_2:0.00000001):0.00003983):0.00037509):0.00021432,((2_0_2:0.00000067,(2_0_1:0.00000098,2_0_4:0.00000060):0.00000101):0.00000101,((2_0_3:0.00000007,2_0_0:0.00000001):0.00000566,2_0_5:0.00000033):0.00000319):0.00009719):0.00093351):0.00212143,0_0_0:0.05665437);
[TREE] T04 (0_0_0:0.09116016,((((((8_0_3:0.00004348,8_0_2:0.00012565):0.00001464,8_0_5:0.00000249):0.00005748,(8_0_4:0.00000144,(8_0_0:0.00000030,8_0_1:0.00000091):0.00000741):0.00002934):0.00000078,((((5_0_4:0.00000018,5_0_5:0.00000229):0.00000001,(5_0_2:0.00000020,5_0_1:0.00001103):0.00000201):0.00005916,5_0_3:0.00009660):0.00000059,5_0_0:0.00000468):0.00204276):0.00018094,((4_0_5:0.00016036,(((7_0_0:0.00000147,(7_0_3:0.00005248,7_0_4:0.00000107):0.00000222):0.00000428,(7_0_5:0.00001943,(7_0_2:0.00000062,7_0_1:0.00000127):0.00001563):0.00001051):0.00000055,(((4_0_0:0.00001756,4_0_2:0.00000116):0.00000030,4_0_1:0.00001271):0.00002048,(4_0_4:0.00000029,4_0_3:0.00000333):0.00010601):0.00000517):0.00000102):0.00024262,((6_0_1:0.00003812,6_0_4:0.00002886):0.00000038,((6_0_2:0.00002452,6_0_3:0.00000046):0.00000002,(6_0_5:0.00000193,6_0_0:0.00000711):0.00000003):0.00002524):0.00011650):0.00027729):0.04414357,(((2_0_3:0.00000048,2_0_0:0.00000437):0.00000803,((2_0_2:0.00000093,2_0_1:0.00000003):0.00000001,(2_0_5:0.00001329,2_0_4:0.00000262):0.00000040):0.00000094):0.00075543,((3_0_5:0.00002952,((3_0_4:0.00000031,3_0_1:0.00000028):0.00000977,(3_0_0:0.00000395,(3_0_3:0.00000196,3_0_2:0.00000134):0.00000495):0.00000392):0.00002436):0.00007858,((1_0_5:0.00002927,((1_0_1:0.00000002,1_0_4:0.00000001):0.00001269,1_0_2:0.00000062):0.00000679):0.00000784,(1_0_3:0.00000033,1_0_0:0.00000004):0.00006141):0.00000051):0.00046641):0.00940235):0.00795871);
[TREE] T05 (0_0_0:0.03154238,((((5_0_3:0.00001813,(5_0_2:0.00000672,(5_0_4:0.00000014,5_0_5:0.00000019):0.00000082):0.00001158):0.00003999,(5_0_1:0.00000800,5_0_0:0.00000431):0.00001687):0.00044402,(((6_0_0:0.00008182,(((6_0_1:0.00000000,6_0_3:0.00000101):0.00000256,6_0_4:0.00000015):0.00000028,(6_0_2:0.00000599,6_0_5:0.00000682):0.00000502):0.00000010):0.00001438,(((7_0_0:0.00001687,(7_0_2:0.00000123,7_0_5:0.00000214):0.00000911):0.00002372,((4_0_3:0.00000048,(4_0_5:0.00000342,4_0_2:0.00001584):0.00000145):0.00001971,(4_0_4:0.00000768,(4_0_1:0.00000803,4_0_0:0.00000364):0.00001610):0.00004588):0.00012510):0.00000044,(7_0_3:0.00002067,(7_0_1:0.00000002,7_0_4:0.00004872):0.00000157):0.00034069):0.00000537):0.00049053,((8_0_4:0.00002159,(8_0_0:0.00000006,8_0_3:0.00000002):0.00000513):0.00001484,(8_0_2:0.00000187,(8_0_1:0.00000000,8_0_5:0.00000219):0.00000236):0.00007418):0.00060915):0.00000418):0.00855863,(((2_0_3:0.00000089,((2_0_2:0.00000022,2_0_4:0.00000003):0.00000000,2_0_5:0.00000015):0.00001170):0.00003330,(2_0_1:0.00000238,2_0_0:0.00001173):0.00000942):0.00002112,(((3_0_2:0.00000028,3_0_3:0.00001781):0.00002707,((3_0_1:0.00003252,3_0_0:0.00000608):0.00000623,(3_0_4:0.00000002,3_0_5:0.00000516):0.00000806):0.00000024):0.00032166,((((1_0_0:0.00000054,1_0_3:0.00000474):0.00000018,1_0_1:0.00001336):0.00000207,(1_0_2:0.00000000,1_0_4:0.00000436):0.00001066):0.00011047,1_0_5:0.00060339):0.00002032):0.00000143):0.00038834):0.01659927);
[TREE] T06 (0_0_0:0.00165863,((((8_0_0:0.00002235,(8_0_3:0.00000008,8_0_1:0.00000110):0.00016715):0.00003526,(8_0_2:0.00000239,(8_0_5:0.00000002,8_0_4:0.00000034):0.00000003):0.00010849):0.00001449,(((5_0_1:0.00000063,5_0_5:0.00000014):0.00015435,(5_0_4:0.00000000,(5_0_3:0.00000097,(5_0_0:0.00000016,5_0_2:0.00000904):0.00000039):0.00000002):0.00002829):0.00075872,(((6_0_4:0.00002063,(6_0_3:0.00001587,(6_0_5:0.00000008,6_0_2:0.00000005):0.00000116):0.00000150):0.00000974,(6_0_1:0.00002929,6_0_0:0.00001105):0.00010120):0.00035199,((7_0_5:0.00000009,(((7_0_1:0.00006717,(7_0_0:0.00000005,7_0_4:0.00002337):0.00000092):0.00000081,4_0_2:0.00004377):0.00000956,((4_0_1:0.00000052,4_0_5:0.00000048):0.00000025,((4_0_0:0.00000980,4_0_3:0.00000103):0.00000002,4_0_4:0.00000587):0.00000031):0.00001396):0.00002705):0.00001363,(7_0_2:0.00000000,7_0_3:0.00000011):0.00000818):0.00120113):0.00007926):0.00000386):0.01095697,(((((3_0_4:0.00006564,((3_0_5:0.00000623,3_0_3:0.00003851):0.00001368,3_0_1:0.00000124):0.00000000):0.00000137,3_0_2:0.00003859):0.00001441,3_0_0:0.00031845):0.00048068,(1_0_3:0.00005517,((1_0_5:0.00008510,((1_0_0:0.00000113,1_0_1:0.00000021):0.00000761,1_0_2:0.00000032):0.00000004):0.00000144,1_0_4:0.00000225):0.00001787):0.00002895):0.00002457,((2_0_2:0.00000003,2_0_1:0.00000019):0.00008510,(((2_0_0:0.00000264,2_0_4:0.00000109):0.00001556,2_0_5:0.00000002):0.00000042,2_0_3:0.00002276):0.00000136):0.00033896):0.00285000):0.00107325);
[TREE] T07 (((((5_0_4:0.00000003,(5_0_0:0.00000919,5_0_2:0.00000545):0.00000000):0.00000001,((5_0_3:0.00000050,5_0_5:0.00000161):0.00008025,5_0_1:0.00000003):0.00000000):0.00198270,((((6_0_4:0.00000011,6_0_3:0.00001062):0.00002816,(6_0_5:0.00002660,((6_0_1:0.00002317,6_0_0:0.00000001):0.00000467,6_0_2:0.00000759):0.00002288):0.00000494):0.00096819,((((4_0_0:0.00000711,4_0_1:0.00000265):0.00000056,4_0_2:0.00002043):0.00003029,((4_0_5:0.00000704,4_0_4:0.00001028):0.00000003,4_0_3:0.00000146):0.00003690):0.00003777,((7_0_2:0.00000082,((7_0_3:0.00001600,7_0_1:0.00000489):0.00000032,7_0_0:0.00000251):0.00002339):0.00000516,(7_0_5:0.00000054,7_0_4:0.00000126):0.00015230):0.00028502):0.00225588):0.00000010,((8_0_4:0.00000000,8_0_0:0.00000448):0.00003489,((8_0_2:0.00000001,8_0_1:0.00001750):0.00000437,(8_0_5:0.00000173,8_0_3:0.00000593):0.00000166):0.00003447):0.00002728):0.00008595):0.00092815,(((2_0_2:0.00002484,2_0_5:0.00000000):0.00026137,(2_0_1:0.00000003,((2_0_4:0.00001748,2_0_3:0.00000090):0.00001173,2_0_0:0.00000349):0.00002726):0.00006618):0.00010043,(((3_0_3:0.00001263,(3_0_2:0.00000094,3_0_5:0.00000001):0.00001300):0.00000015,((3_0_4:0.00000017,3_0_0:0.00000618):0.00001001,3_0_1:0.00000014):0.00000006):0.00003473,((1_0_1:0.00001069,(1_0_0:0.00000318,1_0_2:0.00001352):0.00002954):0.00001693,(1_0_4:0.00009257,(1_0_3:0.00000035,1_0_5:0.00000056):0.00001022):0.00000395):0.00041094):0.00009485):0.02807975):0.03591664,0_0_0:0.00773155);
[TREE] T08 (0_0_0:0.00783041,(((((((3_0_2:0.00000037,3_0_1:0.00000027):0.00000006,3_0_4:0.00000007):0.00003607,3_0_0:0.00002837):0.00001838,(3_0_5:0.00000038,3_0_3:0.00001120):0.00000108):0.00007606,((((1_0_4:0.00000694,1_0_0:0.00004887):0.00000563,1_0_2:0.00001707):0.00001034,1_0_5:0.00001403):0.00000303,(1_0_1:0.00002062,1_0_3:0.00001479):0.00004553):0.00028226):0.00001683,((2_0_5:0.00000091,2_0_2:0.00000016):0.00001962,((2_0_3:0.00000145,(2_0_4:0.00000050,2_0_0:0.00000006):0.00000028):0.00000001,2_0_1:0.00000024):0.00000001):0.00000760):0.00004299,(((((8_0_3:0.00000576,8_0_0:0.00000192):0.00000118,(8_0_4:0.00000062,8_0_1:0.00000001):0.00002284):0.00000924,(8_0_2:0.00000023,8_0_5:0.00003811):0.00000412):0.00066651,((((4_0_4:0.00000954,4_0_5:0.00000139):0.00008773,(4_0_2:0.00000846,(4_0_0:0.00000435,(4_0_1:0.00000052,4_0_3:0.00000000):0.00000030):0.00005131):0.00037034):0.00001184,(7_0_2:0.00013556,((7_0_3:0.00002702,7_0_4:0.00002075):0.00000006,(7_0_0:0.00000001,(7_0_5:0.00001903,7_0_1:0.00000310):0.00000035):0.00000268):0.00000427):0.00004554):0.00009922,((6_0_5:0.00000053,(6_0_3:0.00000246,6_0_2:0.00000038):0.00000001):0.00000003,((6_0_0:0.00001470,6_0_4:0.00000010):0.00000000,6_0_1:0.00000679):0.00000005):0.00020098):0.00010830):0.00037041,(5_0_4:0.00009072,(5_0_0:0.00004000,(5_0_3:0.00000208,((5_0_1:0.00000018,5_0_2:0.00000557):0.00000205,5_0_5:0.00000396):0.00001013):0.00001611):0.00000553):0.00043465):0.03774863):0.01282659);
[TREE] T09 ((((((((6_0_1:0.00000041,6_0_3:0.00000372):0.00000513,6_0_5:0.00000000):0.00000053,(6_0_0:0.00000002,6_0_2:0.00000098):0.00000228):0.00035145,6_0_4:0.00000465):0.00012000,((7_0_4:0.00001679,(((4_0_1:0.00000021,4_0_2:0.00000003):0.00001006,4_0_4:0.00000524):0.00000562,((4_0_0:0.00000088,4_0_3:0.00000015):0.00003544,4_0_5:0.00004408):0.00002207):0.00014713):0.00000724,(7_0_3:0.00002804,(((7_0_2:0.00000984,7_0_0:0.00000006):0.00000043,7_0_5:0.00000480):0.00000004,7_0_1:0.00001163):0.00001558):0.00009241):0.00000845):0.00002264,(((((8_0_1:0.00001176,8_0_4:0.00000119):0.00000004,8_0_5:0.00001382):0.00000035,(8_0_2:0.00000541,8_0_3:0.00000033):0.00000313):0.00000756,8_0_0:0.00007769):0.00131989,((5_0_4:0.00000091,(5_0_3:0.00000118,5_0_2:0.00000021):0.00002193):0.00003896,((5_0_0:0.00001340,5_0_5:0.00000163):0.00006630,5_0_1:0.00003955):0.00000006):0.00027622):0.00000521):0.00229401,(((((2_0_3:0.00000151,2_0_1:0.00000525):0.00004849,((2_0_5:0.00000150,2_0_4:0.00000003):0.00000000,2_0_0:0.00000289):0.00001367):0.00002543,2_0_2:0.00007907):0.00083449,(((3_0_3:0.00000048,3_0_1:0.00000273):0.00004723,((3_0_2:0.00000113,3_0_5:0.00000034):0.00002322,3_0_4:0.00000020):0.00000946):0.00000629,3_0_0:0.00008266):0.00149290):0.00001278,(1_0_2:0.00038021,(1_0_3:0.00000760,(((1_0_5:0.00000001,1_0_1:0.00000000):0.00000133,1_0_0:0.00000000):0.00000366,1_0_4:0.00003050):0.00000195):0.00015587):0.00023383):0.01426367):0.00033373,0_0_0:0.05626701);
[TREE] T10 (((((5_0_3:0.00000013,5_0_4:0.00000002):0.00001225,((5_0_5:0.00000017,5_0_2:0.00000957):0.00000007,(5_0_1:0.00000111,5_0_0:0.00000055):0.00000060):0.00000779):0.00016466,((((8_0_5:0.00007470,(8_0_3:0.00000005,8_0_1:0.00000007):0.00000559):0.00000081,(8_0_4:0.00000427,8_0_0:0.00000151):0.00001375):0.00011185,8_0_2:0.00009812):0.00031981,((((6_0_3:0.00000007,6_0_4:0.00000028):0.00000443,(6_0_0:0.00000041,6_0_2:0.00000425):0.00000008):0.00006614,(6_0_5:0.00000125,6_0_1:0.00000191):0.00000878):0.00005736,(((7_0_1:0.00000056,(7_0_4:0.00000390,7_0_5:0.00000198):0.00006398):0.00000008,((7_0_2:0.00000068,7_0_0:0.00000362):0.00010970,7_0_3:0.00001320):0.00003321):0.00032939,((4_0_1:0.00000024,4_0_4:0.00001321):0.00000151,((4_0_3:0.00000689,4_0_5:0.00000080):0.00002289,(4_0_0:0.00000023,4_0_2:0.00000583):0.00001291):0.00000297):0.00004557):0.00008893):0.00021330):0.00000267):0.01221050,(((3_0_5:0.00000894,(((3_0_3:0.00000008,3_0_1:0.00000481):0.00002077,(3_0_4:0.00000013,3_0_0:0.00000079):0.00000030):0.00000427,3_0_2:0.00003175):0.00000000):0.00039589,(((1_0_1:0.00000026,1_0_4:0.00000088):0.00000441,(1_0_2:0.00000179,1_0_5:0.00000224):0.00001127):0.00000192,(1_0_0:0.00000001,1_0_3:0.00000005):0.00002472):0.00000230):0.00011779,((2_0_4:0.00000249,2_0_3:0.00000440):0.00000284,(2_0_0:0.00000008,((2_0_5:0.00000010,2_0_1:0.00000004):0.00000005,2_0_2:0.00000010):0.00000689):0.00034411):0.00023688):0.00018834):0.00687524,0_0_0:0.00014598);

[PARTITIONS] csSimUnlinked_01 [T01 csSim_unlinked_1 500]
[PARTITIONS] csSimUnlinked_02 [T02 csSim_unlinked_2 500]
[PARTITIONS] csSimUnlinked_03 [T03 csSim_unlinked_3 500]
[PARTITIONS] csSimUnlinked_04 [T04 csSim_unlinked_4 500]
[PARTITIONS] csSimUnlinked_05 [T05 csSim_unlinked_5 500]
[PARTITIONS] csSimUnlinked_06 [T06 csSim_unlinked_6 500]
[PARTITIONS] csSimUnlinked_07 [T07 csSim_unlinked_7 500]
[PARTITIONS] csSimUnlinked_08 [T08 csSim_unlinked_8 500]
[PARTITIONS] csSimUnlinked_09 [T09 csSim_unlinked_9 500]
[PARTITIONS] csSimUnlinked_10 [T10 csSim_unlinked_10 500]

[EVOLVE] csSimUnlinked_01 1 data_01
csSimUnlinked_02 1 data_02
csSimUnlinked_03 1 data_03
csSimUnlinked_04 1 data_04
csSimUnlinked_05 1 data_05
csSimUnlinked_06 1 data_06
csSimUnlinked_07 1 data_07
csSimUnlinked_08 1 data_08
csSimUnlinked_09 1 data_09
csSimUnlinked_10 1 data_10
