Tree file : INDELible V1.03 (best viewed cut and paste in e.g. excel)

N.B. Simulation blocks with no random trees will have their trees printed for the first replicate only.

FILE	TREE	NTAXA	REP	PART	LENGTH	DEPTH	MAX PAIRWISE DISTANCE	TREE STRING

data_01	T01	43	1	1	0.0782613	0.0329037	0.0567658	(0_0_0:0.02386214,((((((2_0_3:0.00000148,(2_0_1:0.00000165,2_0_6:0.00000213):0.00000007):0.00000487,2_0_2:0.00000545):0.00002206,(2_0_5:0.00000112,(2_0_0:0.00000044,2_0_4:0.00000016):0.00000077):0.00002352):0.00236870,((1_0_2:0.00000043,1_0_6:0.00000067):0.00000341,(((1_0_0:0.00000071,1_0_4:0.00000059):0.00000095,1_0_1:0.00000150):0.00000035,(1_0_3:0.00000056,1_0_5:0.00000089):0.00000090):0.00000391):0.00182515):0.00192620,((4_0_3:0.00001769,((4_0_0:0.00000168,((4_0_1:0.00000042,4_0_6:0.00000026):0.00000023,4_0_2:0.00000066):0.00000068):0.00000345,(4_0_4:0.00000096,4_0_5:0.00000121):0.00000247):0.00000994):0.00068112,(3_0_2:0.00000116,(3_0_1:0.00000071,((3_0_3:0.00000044,3_0_6:0.00000060):0.00000044,((3_0_4:0.00000014,3_0_0:0.00000019):0.00000037,3_0_5:0.00000044):0.00000013):0.00000027):0.00000110):0.00062529):0.00327557):0.01009121,((((5_0_4:0.00000052,(5_0_6:0.00000013,5_0_0:0.00000011):0.00000031):0.00000306,5_0_5:0.00000539):0.00003047,(5_0_2:0.00000435,(5_0_1:0.00000015,5_0_3:0.00000027):0.00000428):0.00001514):0.00229313,((6_0_5:0.00000197,(6_0_0:0.00000115,(6_0_1:0.00000143,6_0_4:0.00000089):0.00000007):0.00000070):0.00000265,((6_0_6:0.00000042,6_0_2:0.00000058):0.00000029,6_0_3:0.00000069):0.00000375):0.00150604):0.01111532):0.01848842);

data_02	T02	43	1	1	0.0725018	0.0272787	0.0511733	(0_0_0:0.02727867,((((6_0_3:0.00000326,(6_0_2:0.00000190,6_0_5:0.00000254):0.00000232):0.00000647,(((6_0_4:0.00000030,6_0_6:0.00000029):0.00000039,6_0_1:0.00000047):0.00000100,6_0_0:0.00000073):0.00000681):0.00251761,(5_0_2:0.00000851,(((5_0_3:0.00000041,5_0_4:0.00000049):0.00000124,(5_0_6:0.00000140,5_0_5:0.00000108):0.00000124):0.00000263,(5_0_0:0.00000031,5_0_1:0.00000025):0.00000416):0.00000423):0.00252600):0.01139698,(((((4_0_2:0.00000106,4_0_1:0.00000113):0.00000476,(4_0_0:0.00000134,(4_0_3:0.00000004,4_0_5:0.00000002):0.00000114):0.00000456):0.00000319,(4_0_6:0.00000348,4_0_4:0.00000138):0.00000631):0.00070109,((((3_0_0:0.00000149,3_0_2:0.00000114):0.00000006,(3_0_3:0.00000054,(3_0_5:0.00000068,3_0_4:0.00000019):0.00000008):0.00000083):0.00000106,3_0_1:0.00000329):0.00000662,3_0_6:0.00001458):0.00108452):0.00216134,((2_0_0:0.00002566,((2_0_2:0.00000177,(2_0_4:0.00000017,2_0_1:0.00000020):0.00000147):0.00000034,((2_0_5:0.00000083,2_0_3:0.00000144):0.00000038,2_0_6:0.00000105):0.00000091):0.00001043):0.00430639,((1_0_4:0.00000204,(1_0_3:0.00000150,((1_0_5:0.00000003,1_0_6:0.00000003):0.00000010,1_0_0:0.00000010):0.00000091):0.00000261):0.00000293,(1_0_2:0.00000336,1_0_1:0.00000269):0.00000203):0.00221466):0.00123097):0.00694707):0.00996212);

data_03	T03	43	1	1	0.0752789	0.0325083	0.0550581	(0_0_0:0.03250830,((((4_0_1:0.00002327,((4_0_3:0.00000006,4_0_5:0.00000010):0.00000464,(((4_0_0:0.00000053,4_0_4:0.00000058):0.00000108,4_0_2:0.00000178):0.00000135,4_0_6:0.00000227):0.00000069):0.00001745):0.00064054,((3_0_0:0.00000470,((3_0_6:0.00000010,3_0_5:0.00000010):0.00000221,3_0_2:0.00000187):0.00000293):0.00000401,(3_0_3:0.00001015,(3_0_1:0.00000858,3_0_4:0.00000479):0.00000369):0.00000061):0.00098051):0.00296668,((((1_0_2:0.00000155,1_0_3:0.00000161):0.00000006,1_0_4:0.00000226):0.00001051,(((1_0_5:0.00000109,1_0_1:0.00000104):0.00000016,1_0_0:0.00000118):0.00000413,1_0_6:0.00000431):0.00000681):0.00228929,((((2_0_4:0.00000004,2_0_0:0.00000003):0.00000246,(2_0_6:0.00000082,2_0_3:0.00000086):0.00000134):0.00000091,2_0_5:0.00000136):0.00001212,(2_0_2:0.00000116,2_0_1:0.00000123):0.00001081):0.00275027):0.00187899):0.00718540,((6_0_1:0.00001073,(6_0_4:0.00000685,((6_0_2:0.00000140,(6_0_6:0.00000111,6_0_0:0.00000089):0.00000028):0.00000132,(6_0_3:0.00000214,6_0_5:0.00000135):0.00000062):0.00000607):0.00000251):0.00244799,(((((5_0_1:0.00000003,5_0_5:0.00000005):0.00000046,5_0_0:0.00000026):0.00000024,5_0_6:0.00000065):0.00000217,5_0_4:0.00000249):0.00000192,(5_0_3:0.00000334,5_0_2:0.00000474):0.00000018):0.00197024):0.00872387):0.01071959);

data_04	T04	43	1	1	0.0800428	0.0352316	0.0585392	(0_0_0:0.03523156,(((((6_0_1:0.00000055,(6_0_4:0.00000023,(6_0_2:0.00000023,6_0_6:0.00000030):0.00000005):0.00000046):0.00000073,6_0_5:0.00000096):0.00000292,(6_0_0:0.00000059,6_0_3:0.00000030):0.00000363):0.00510724,(5_0_2:0.00000976,(((5_0_4:0.00000236,5_0_0:0.00000239):0.00000022,5_0_1:0.00000401):0.00000138,(5_0_3:0.00000330,(5_0_5:0.00000227,5_0_6:0.00000244):0.00000253):0.00000127):0.00000526):0.00275161):0.00927357,(((((4_0_3:0.00000027,4_0_4:0.00000015):0.00000205,((4_0_5:0.00000012,(4_0_6:0.00000024,4_0_0:0.00000009):0.00000004):0.00000120,4_0_1:0.00000092):0.00000079):0.00000252,4_0_2:0.00000372):0.00076383,(((3_0_3:0.00000307,(((3_0_4:0.00000003,3_0_6:0.00000002):0.00000039,3_0_2:0.00000030):0.00000042,3_0_5:0.00000139):0.00000278):0.00000017,3_0_0:0.00000329):0.00000407,3_0_1:0.00001182):0.00097163):0.00155773,((2_0_3:0.00001177,((((2_0_4:0.00000151,2_0_6:0.00000126):0.00000029,2_0_5:0.00000128):0.00000204,2_0_0:0.00000345):0.00000023,(2_0_2:0.00000105,2_0_1:0.00000155):0.00000260):0.00000889):0.00304541,(((1_0_3:0.00000258,1_0_6:0.00000208):0.00000546,1_0_2:0.00000810):0.00000939,((1_0_4:0.00000052,1_0_5:0.00000052):0.00000038,(1_0_1:0.00000067,1_0_0:0.00000107):0.00000006):0.00001579):0.00230644):0.00183733):0.00810354):0.00892236);

data_05	T05	43	1	1	0.0751771	0.0322445	0.0593842	(0_0_0:0.03224451,(((((2_0_2:0.00000394,2_0_4:0.00000398):0.00000203,(2_0_3:0.00000235,(((2_0_6:0.00000046,2_0_1:0.00000082):0.00000012,2_0_0:0.00000134):0.00000059,2_0_5:0.00000172):0.00000006):0.00000369):0.00124346,(((1_0_2:0.00000134,(1_0_0:0.00000050,1_0_6:0.00000035):0.00000094):0.00000081,(1_0_1:0.00000051,(1_0_4:0.00000015,1_0_5:0.00000017):0.00000094):0.00000130):0.00000874,1_0_3:0.00001549):0.00170084):0.00209771,(((3_0_1:0.00000091,(3_0_6:0.00000007,3_0_3:0.00000034):0.00000123):0.00000643,(3_0_0:0.00000299,((3_0_5:0.00000089,3_0_2:0.00000225):0.00000015,3_0_4:0.00000085):0.00000192):0.00000587):0.00076642,(((4_0_4:0.00000059,4_0_1:0.00000056):0.00000646,((4_0_5:0.00000009,4_0_2:0.00000004):0.00000035,4_0_0:0.00000053):0.00000347):0.00001204,(4_0_6:0.00000022,4_0_3:0.00000013):0.00002392):0.00076120):0.00387627):0.00990659,(((6_0_6:0.00000024,6_0_5:0.00000036):0.00000381,(((6_0_4:0.00000065,6_0_1:0.00000047):0.00000250,(6_0_0:0.00000201,6_0_3:0.00000130):0.00000254):0.00000062,6_0_2:0.00000558):0.00000132):0.00154158,(5_0_1:0.00001574,(5_0_4:0.00000213,((5_0_2:0.00000191,(5_0_3:0.00000002,5_0_5:0.00000001):0.00000088):0.00000030,(5_0_0:0.00000074,5_0_6:0.00000068):0.00000054):0.00000070):0.00001108):0.00205963):0.00622666):0.01257148);

data_06	T06	43	1	1	0.0859699	0.0368747	0.0663182	(0_0_0:0.03687474,((((5_0_0:0.00000016,5_0_6:0.00000028):0.00001296,(5_0_2:0.00000621,(5_0_1:0.00000841,(5_0_4:0.00000036,(5_0_3:0.00000058,5_0_5:0.00000041):0.00000008):0.00000642):0.00000144):0.00000275):0.00332498,(((6_0_0:0.00000375,(6_0_1:0.00000127,(6_0_2:0.00000050,6_0_4:0.00000088):0.00000032):0.00000137):0.00000163,6_0_5:0.00000286):0.00001934,(6_0_3:0.00000366,6_0_6:0.00000179):0.00001247):0.00160550):0.00858187,((((1_0_4:0.00000308,1_0_1:0.00000369):0.00000446,((1_0_3:0.00000141,1_0_0:0.00000144):0.00000457,(1_0_2:0.00000214,(1_0_6:0.00000072,1_0_5:0.00000056):0.00000192):0.00000304):0.00000219):0.00096054,((2_0_3:0.00000203,(2_0_1:0.00000037,(2_0_5:0.00000022,2_0_2:0.00000019):0.00000023):0.00000203):0.00000322,((2_0_6:0.00000477,2_0_0:0.00000239):0.00000318,2_0_4:0.00000698):0.00000087):0.00215852):0.00188930,(((3_0_3:0.00000912,(3_0_1:0.00000113,3_0_6:0.00000109):0.00000855):0.00000117,((3_0_2:0.00000112,3_0_0:0.00000232):0.00000262,(3_0_5:0.00000137,3_0_4:0.00000179):0.00000151):0.00000939):0.00157317,(4_0_3:0.00000760,((4_0_1:0.00000351,(4_0_4:0.00000208,4_0_0:0.00000164):0.00000077):0.00000047,((4_0_5:0.00000042,4_0_6:0.00000020):0.00000020,4_0_2:0.00000034):0.00000242):0.00000396):0.00093499):0.00369814):0.01051615):0.01364162);

data_07	T07	43	1	1	0.0955243	0.0419396	0.0743829	((((((4_0_4:0.00000195,(((4_0_6:0.00000031,4_0_1:0.00000031):0.00000004,(4_0_0:0.00000028,4_0_3:0.00000046):0.00000009):0.00000131,4_0_2:0.00000199):0.00000034):0.00000307,4_0_5:0.00000853):0.00123199,(((3_0_3:0.00000023,3_0_4:0.00000019):0.00000116,(3_0_5:0.00000008,3_0_1:0.00000015):0.00000104):0.00001100,(3_0_2:0.00000902,(3_0_6:0.00000041,3_0_0:0.00000037):0.00000895):0.00000207):0.00117495):0.00156480,((((1_0_2:0.00000085,(1_0_6:0.00000033,1_0_1:0.00000035):0.00000035):0.00000853,1_0_4:0.00000382):0.00000016,(1_0_0:0.00000053,(1_0_5:0.00000036,1_0_3:0.00000033):0.00000021):0.00000828):0.00442815,((2_0_6:0.00000335,((2_0_2:0.00000104,2_0_1:0.00000114):0.00000096,(2_0_0:0.00000112,(2_0_3:0.00000084,2_0_4:0.00000052):0.00000013):0.00000101):0.00000285):0.00000051,2_0_5:0.00000540):0.00163988):0.00137249):0.01317656,(((((6_0_6:0.00000220,((6_0_1:0.00000004,6_0_5:0.00000005):0.00000223,6_0_2:0.00000234):0.00000110):0.00000071,6_0_3:0.00000456):0.00000188,6_0_0:0.00000487):0.00000724,6_0_4:0.00001175):0.00195155,((5_0_1:0.00000365,5_0_3:0.00000534):0.00000486,(((5_0_5:0.00000018,(5_0_6:0.00000010,5_0_2:0.00000018):0.00000004):0.00000075,5_0_4:0.00000121):0.00001070,5_0_0:0.00000565):0.00000022):0.00406153):0.00935817):0.02295287,0_0_0:0.03244324);

data_08	T08	43	1	1	0.0911917	0.0417299	0.0731064	(0_0_0:0.04172986,(((((4_0_5:0.00000023,4_0_3:0.00000019):0.00000562,(4_0_6:0.00000294,(4_0_1:0.00000098,((4_0_2:0.00000028,4_0_4:0.00000018):0.00000003,4_0_0:0.00000019):0.00000072):0.00000399):0.00000159):0.00073739,(((3_0_4:0.00000098,3_0_1:0.00000148):0.00000181,((3_0_2:0.00000009,3_0_6:0.00000009):0.00000052,3_0_5:0.00000080):0.00000178):0.00000964,(3_0_3:0.00000015,3_0_0:0.00000015):0.00001695):0.00091623):0.00254169,((1_0_5:0.00000680,((1_0_0:0.00000228,(1_0_3:0.00000008,1_0_6:0.00000006):0.00000188):0.00000508,((1_0_4:0.00000076,1_0_2:0.00000047):0.00000167,1_0_1:0.00000434):0.00000201):0.00000013):0.00229208,(((2_0_6:0.00000172,2_0_3:0.00000309):0.00000076,(((2_0_1:0.00000012,2_0_4:0.00000024):0.00000010,2_0_5:0.00000037):0.00000184,2_0_0:0.00000232):0.00000178):0.00000899,2_0_2:0.00001237):0.00191361):0.00194085):0.00528755,((((5_0_1:0.00000490,(((5_0_5:0.00000003,5_0_0:0.00000003):0.00000049,5_0_2:0.00000072):0.00000038,5_0_3:0.00000048):0.00000720):0.00000084,5_0_6:0.00000536):0.00001450,5_0_4:0.00001742):0.00395426,(((6_0_2:0.00000218,6_0_3:0.00000137):0.00000145,(6_0_0:0.00000358,(6_0_6:0.00000054,(6_0_1:0.00000075,6_0_5:0.00000061):0.00000002):0.00000338):0.00000041):0.00000051,6_0_4:0.00000420):0.00229753):0.00694058):0.02045810);

data_09	T09	43	1	1	0.0784453	0.0322976	0.0581818	(0_0_0:0.03229759,(((((5_0_2:0.00000069,5_0_6:0.00000039):0.00000167,5_0_0:0.00000334):0.00000626,((5_0_5:0.00000129,5_0_1:0.00000194):0.00000244,(5_0_4:0.00000167,5_0_3:0.00000235):0.00000084):0.00000542):0.00282363,((((6_0_3:0.00000144,6_0_0:0.00000135):0.00000066,6_0_4:0.00000194):0.00000011,6_0_1:0.00000262):0.00000674,((6_0_5:0.00000019,6_0_2:0.00000035):0.00000018,6_0_6:0.00000080):0.00000605):0.00274183):0.00903653,((((4_0_6:0.00001159,(4_0_0:0.00000447,(4_0_1:0.00000364,4_0_5:0.00000318):0.00000365):0.00000302):0.00000575,((4_0_3:0.00000101,4_0_4:0.00000026):0.00000385,4_0_2:0.00000429):0.00001009):0.00066861,((3_0_5:0.00000379,3_0_4:0.00000328):0.00000772,((3_0_6:0.00000087,3_0_2:0.00000090):0.00000413,((3_0_3:0.00000074,3_0_1:0.00000061):0.00000275,3_0_0:0.00000260):0.00000330):0.00000644):0.00097497):0.00194278,(((((2_0_2:0.00000065,2_0_1:0.00000080):0.00000014,(2_0_5:0.00000036,(2_0_0:0.00000014,2_0_6:0.00000011):0.00000008):0.00000027):0.00000152,2_0_3:0.00000367):0.00000577,2_0_4:0.00000994):0.00188984,((1_0_3:0.00000535,(((1_0_5:0.00000032,1_0_0:0.00000045):0.00000212,1_0_2:0.00000185):0.00000047,1_0_1:0.00000184):0.00000276):0.00000348,(1_0_6:0.00000051,1_0_4:0.00000058):0.00001067):0.00316764):0.00133073):0.01075848):0.01061613);

data_10	T10	43	1	1	0.0891826	0.0422165	0.0693435	((((6_0_0:0.00001605,(((6_0_1:0.00000096,(6_0_3:0.00000026,6_0_4:0.00000070):0.00000043):0.00000036,6_0_5:0.00000268):0.00000128,(6_0_6:0.00000009,6_0_2:0.00000010):0.00000394):0.00000681):0.00271780,((5_0_0:0.00000009,5_0_1:0.00000009):0.00000986,(((5_0_2:0.00000090,5_0_4:0.00000062):0.00000119,(5_0_3:0.00000001,5_0_6:0.00000001):0.00000286):0.00000175,5_0_5:0.00000341):0.00001494):0.00137176):0.00981568,((((1_0_2:0.00000281,1_0_6:0.00000339):0.00000147,((1_0_1:0.00000208,1_0_3:0.00000322):0.00000389,((1_0_0:0.00000069,1_0_4:0.00000041):0.00000049,1_0_5:0.00000058):0.00000435):0.00000044):0.00217030,((2_0_2:0.00000036,2_0_0:0.00000061):0.00000868,((((2_0_6:0.00000036,2_0_4:0.00000050):0.00000011,2_0_1:0.00000028):0.00000202,2_0_3:0.00000146):0.00000061,2_0_5:0.00000256):0.00000389):0.00265595):0.00099913,(((4_0_3:0.00000620,4_0_4:0.00000389):0.00000572,((((4_0_2:0.00000045,4_0_1:0.00000053):0.00000028,4_0_5:0.00000099):0.00000047,4_0_6:0.00000167):0.00000373,4_0_0:0.00000633):0.00000618):0.00093617,(((3_0_6:0.00000394,3_0_0:0.00000418):0.00000178,(((3_0_4:0.00000014,3_0_2:0.00000010):0.00000013,3_0_5:0.00000037):0.00000015,3_0_3:0.00000036):0.00000374):0.00000169,3_0_1:0.00000823):0.00084509):0.00181569):0.00964337):0.01381925,0_0_0:0.04221648);
