"","Description","Ind1","Ind2","Ind3","Ind4","Ind5","Ind6","Ind7","Ind8","Ind9","Ind10","Ind11","Ind12","Ind13","Ind14","Ind15","Ind16","Ind17","Ind18","Ind19","Ind20","Ind21","Ind22","Ind23","Ind24","Ind25","Ind26","Ind27","Ind28","Ind29","Ind30","Ind31","Ind32","Ind33","Ind34","Ind35","Ind36","Ind37","Ind38","Ind39","Ind40","Ind41"
"Ind1","8_0_1",-1,0,0,0,0,0,0,0,0,0,0,0,0,0,0,0,0,0,0,0,0,0,0,0,0,0,0,0,0,0,0,0,0,0,0,0,0,0,0,0,0
"Ind2","8_0_0",2,-1,0,0,0,0,0,0,0,0,0,0,0,0,0,0,0,0,0,0,0,0,0,0,0,0,0,0,0,0,0,0,0,0,0,0,0,0,0,0,0
"Ind3","8_0_4",39,41,-1,0,0,0,0,0,0,0,0,0,0,0,0,0,0,0,0,0,0,0,0,0,0,0,0,0,0,0,0,0,0,0,0,0,0,0,0,0,0
"Ind4","8_0_3",42,44,11,-1,0,0,0,0,0,0,0,0,0,0,0,0,0,0,0,0,0,0,0,0,0,0,0,0,0,0,0,0,0,0,0,0,0,0,0,0,0
"Ind5","8_0_2",43,43,12,9,-1,0,0,0,0,0,0,0,0,0,0,0,0,0,0,0,0,0,0,0,0,0,0,0,0,0,0,0,0,0,0,0,0,0,0,0,0
"Ind6","6_0_0",234,232,230,228,231,-1,0,0,0,0,0,0,0,0,0,0,0,0,0,0,0,0,0,0,0,0,0,0,0,0,0,0,0,0,0,0,0,0,0,0,0
"Ind7","2_0_2",225,223,217,215,214,68,-1,0,0,0,0,0,0,0,0,0,0,0,0,0,0,0,0,0,0,0,0,0,0,0,0,0,0,0,0,0,0,0,0,0,0
"Ind8","2_0_1",226,224,218,216,215,67,1,-1,0,0,0,0,0,0,0,0,0,0,0,0,0,0,0,0,0,0,0,0,0,0,0,0,0,0,0,0,0,0,0,0,0
"Ind9","5_0_0",229,227,217,215,214,72,12,11,-1,0,0,0,0,0,0,0,0,0,0,0,0,0,0,0,0,0,0,0,0,0,0,0,0,0,0,0,0,0,0,0,0
"Ind10","5_0_3",226,224,212,214,213,77,21,20,13,-1,0,0,0,0,0,0,0,0,0,0,0,0,0,0,0,0,0,0,0,0,0,0,0,0,0,0,0,0,0,0,0
"Ind11","5_0_2",225,223,213,215,214,76,20,19,12,7,-1,0,0,0,0,0,0,0,0,0,0,0,0,0,0,0,0,0,0,0,0,0,0,0,0,0,0,0,0,0,0
"Ind12","5_0_4",228,226,216,216,213,74,20,19,12,13,11,-1,0,0,0,0,0,0,0,0,0,0,0,0,0,0,0,0,0,0,0,0,0,0,0,0,0,0,0,0,0
"Ind13","5_0_1",226,224,214,214,213,72,17,16,12,13,12,12,-1,0,0,0,0,0,0,0,0,0,0,0,0,0,0,0,0,0,0,0,0,0,0,0,0,0,0,0,0
"Ind14","4_0_3",226,224,218,214,215,67,25,24,25,34,33,31,33,-1,0,0,0,0,0,0,0,0,0,0,0,0,0,0,0,0,0,0,0,0,0,0,0,0,0,0,0
"Ind15","1_0_1",225,223,215,213,212,64,22,21,22,31,30,28,30,5,-1,0,0,0,0,0,0,0,0,0,0,0,0,0,0,0,0,0,0,0,0,0,0,0,0,0,0
"Ind16","7_0_2",222,220,216,214,213,69,29,28,29,38,37,35,37,12,11,-1,0,0,0,0,0,0,0,0,0,0,0,0,0,0,0,0,0,0,0,0,0,0,0,0,0
"Ind17","7_0_1",221,219,215,213,212,68,28,27,28,37,36,34,36,11,10,1,-1,0,0,0,0,0,0,0,0,0,0,0,0,0,0,0,0,0,0,0,0,0,0,0,0
"Ind18","7_0_4",222,220,216,214,213,67,27,26,29,38,37,35,35,12,11,2,1,-1,0,0,0,0,0,0,0,0,0,0,0,0,0,0,0,0,0,0,0,0,0,0,0
"Ind19","7_0_0",221,219,215,213,212,68,28,27,28,37,36,34,36,11,10,1,0,1,-1,0,0,0,0,0,0,0,0,0,0,0,0,0,0,0,0,0,0,0,0,0,0
"Ind20","2_0_0",222,220,214,212,211,72,32,31,32,41,40,38,40,17,16,13,12,13,12,-1,0,0,0,0,0,0,0,0,0,0,0,0,0,0,0,0,0,0,0,0,0
"Ind21","1_0_0",227,225,219,221,220,70,30,29,30,33,32,33,36,15,14,19,18,19,18,24,-1,0,0,0,0,0,0,0,0,0,0,0,0,0,0,0,0,0,0,0,0
"Ind22","4_0_0",225,223,217,219,220,70,32,31,32,35,34,35,38,17,16,21,20,21,20,26,2,-1,0,0,0,0,0,0,0,0,0,0,0,0,0,0,0,0,0,0,0
"Ind23","3_0_3",225,223,219,219,218,68,28,27,28,35,34,34,36,15,14,17,16,17,16,24,8,10,-1,0,0,0,0,0,0,0,0,0,0,0,0,0,0,0,0,0,0
"Ind24","4_0_4",227,225,217,217,216,70,28,27,26,35,34,34,36,13,12,15,14,15,14,22,6,8,6,-1,0,0,0,0,0,0,0,0,0,0,0,0,0,0,0,0,0
"Ind25","4_0_1",227,225,225,223,222,72,34,33,34,43,42,40,40,21,20,25,24,25,24,26,18,20,18,16,-1,0,0,0,0,0,0,0,0,0,0,0,0,0,0,0,0
"Ind26","2_0_3",226,224,218,218,217,73,35,34,33,42,43,37,41,22,21,22,21,22,21,31,19,21,19,13,21,-1,0,0,0,0,0,0,0,0,0,0,0,0,0,0,0
"Ind27","6_0_4",220,218,214,212,211,76,36,35,36,45,44,44,42,29,26,29,30,31,30,38,30,32,30,26,34,33,-1,0,0,0,0,0,0,0,0,0,0,0,0,0,0
"Ind28","3_0_1",224,222,218,216,215,69,23,22,23,32,31,31,31,16,13,20,19,20,19,25,21,23,21,19,27,28,25,-1,0,0,0,0,0,0,0,0,0,0,0,0,0
"Ind29","3_0_0",224,222,218,216,215,69,23,22,23,32,31,31,31,16,13,20,19,20,19,25,21,23,21,19,27,28,25,0,-1,0,0,0,0,0,0,0,0,0,0,0,0
"Ind30","3_0_2",225,223,219,219,218,72,26,25,26,35,34,34,34,19,16,21,20,21,20,28,22,24,22,20,28,25,26,5,5,-1,0,0,0,0,0,0,0,0,0,0,0
"Ind31","1_0_4",224,222,218,216,215,69,23,22,23,32,31,31,31,16,13,20,19,20,19,25,21,23,21,19,27,28,25,2,2,5,-1,0,0,0,0,0,0,0,0,0,0
"Ind32","1_0_2",223,221,217,215,214,70,20,19,20,29,28,28,28,15,12,19,18,19,18,24,20,22,20,18,26,27,26,9,9,12,9,-1,0,0,0,0,0,0,0,0,0
"Ind33","3_0_4",226,224,216,214,213,65,19,18,19,28,27,27,25,12,9,16,15,16,15,21,17,19,17,15,23,24,23,6,6,9,6,5,-1,0,0,0,0,0,0,0,0
"Ind34","1_0_3",226,224,218,216,215,67,19,18,19,28,27,27,27,12,9,16,15,16,15,21,17,19,17,15,23,24,23,6,6,9,6,5,2,-1,0,0,0,0,0,0,0
"Ind35","7_0_3",227,225,219,217,216,68,22,21,22,31,30,30,30,15,12,19,18,19,18,22,20,22,20,18,26,27,26,11,11,14,11,10,7,7,-1,0,0,0,0,0,0
"Ind36","2_0_4",227,225,219,217,216,68,20,19,20,29,28,28,28,13,10,17,16,17,16,22,18,20,18,16,24,25,24,9,9,12,9,8,5,5,2,-1,0,0,0,0,0
"Ind37","4_0_2",228,226,216,214,213,69,27,26,25,34,33,31,33,20,17,24,23,24,23,29,25,27,25,21,31,28,33,20,20,23,20,19,16,16,19,17,-1,0,0,0,0
"Ind38","6_0_3",230,228,220,216,217,63,33,32,31,40,41,39,41,32,29,30,29,30,29,39,35,37,35,33,43,38,39,30,30,33,28,29,26,26,29,27,30,-1,0,0,0
"Ind39","6_0_1",229,227,221,217,218,64,32,31,30,39,40,38,40,31,28,29,28,29,28,38,32,34,32,30,40,35,38,29,29,32,27,28,25,25,27,26,29,5,-1,0,0
"Ind40","6_0_2",228,226,220,216,217,63,31,30,29,38,39,37,39,30,27,28,27,28,27,37,33,35,33,31,41,36,37,28,28,31,26,27,24,24,26,25,28,4,1,-1,0
"Ind41","0_0_0",234,234,242,246,243,228,228,227,230,225,228,232,223,231,228,227,226,225,226,224,232,232,230,234,230,239,222,227,227,226,227,224,225,227,228,228,235,237,236,235,-1
