"","Description","Ind1","Ind2","Ind3","Ind4","Ind5","Ind6","Ind7","Ind8","Ind9","Ind10","Ind11","Ind12","Ind13","Ind14","Ind15","Ind16","Ind17","Ind18","Ind19","Ind20","Ind21","Ind22","Ind23","Ind24","Ind25","Ind26","Ind27","Ind28","Ind29","Ind30","Ind31","Ind32","Ind33","Ind34","Ind35","Ind36","Ind37","Ind38","Ind39","Ind40","Ind41","Ind42","Ind43","Ind44","Ind45","Ind46","Ind47","Ind48","Ind49","Ind50","Ind51","Ind52","Ind53","Ind54","Ind55","Ind56","Ind57","Ind58"
"Ind1","0_0_0",-1,0,0,0,0,0,0,0,0,0,0,0,0,0,0,0,0,0,0,0,0,0,0,0,0,0,0,0,0,0,0,0,0,0,0,0,0,0,0,0,0,0,0,0,0,0,0,0,0,0,0,0,0,0,0,0,0,0
"Ind2","16_0_1",123,-1,0,0,0,0,0,0,0,0,0,0,0,0,0,0,0,0,0,0,0,0,0,0,0,0,0,0,0,0,0,0,0,0,0,0,0,0,0,0,0,0,0,0,0,0,0,0,0,0,0,0,0,0,0,0,0,0
"Ind3","16_0_0",122,1,-1,0,0,0,0,0,0,0,0,0,0,0,0,0,0,0,0,0,0,0,0,0,0,0,0,0,0,0,0,0,0,0,0,0,0,0,0,0,0,0,0,0,0,0,0,0,0,0,0,0,0,0,0,0,0,0
"Ind4","16_0_2",123,2,1,-1,0,0,0,0,0,0,0,0,0,0,0,0,0,0,0,0,0,0,0,0,0,0,0,0,0,0,0,0,0,0,0,0,0,0,0,0,0,0,0,0,0,0,0,0,0,0,0,0,0,0,0,0,0,0
"Ind5","17_0_0",119,4,5,6,-1,0,0,0,0,0,0,0,0,0,0,0,0,0,0,0,0,0,0,0,0,0,0,0,0,0,0,0,0,0,0,0,0,0,0,0,0,0,0,0,0,0,0,0,0,0,0,0,0,0,0,0,0,0
"Ind6","17_0_1",120,3,4,5,1,-1,0,0,0,0,0,0,0,0,0,0,0,0,0,0,0,0,0,0,0,0,0,0,0,0,0,0,0,0,0,0,0,0,0,0,0,0,0,0,0,0,0,0,0,0,0,0,0,0,0,0,0,0
"Ind7","17_0_2",120,4,5,6,2,1,-1,0,0,0,0,0,0,0,0,0,0,0,0,0,0,0,0,0,0,0,0,0,0,0,0,0,0,0,0,0,0,0,0,0,0,0,0,0,0,0,0,0,0,0,0,0,0,0,0,0,0,0
"Ind8","15_0_0",122,1,2,3,5,4,5,-1,0,0,0,0,0,0,0,0,0,0,0,0,0,0,0,0,0,0,0,0,0,0,0,0,0,0,0,0,0,0,0,0,0,0,0,0,0,0,0,0,0,0,0,0,0,0,0,0,0,0
"Ind9","15_0_2",122,1,2,3,5,4,5,0,-1,0,0,0,0,0,0,0,0,0,0,0,0,0,0,0,0,0,0,0,0,0,0,0,0,0,0,0,0,0,0,0,0,0,0,0,0,0,0,0,0,0,0,0,0,0,0,0,0,0
"Ind10","15_0_1",123,2,3,4,6,5,6,1,1,-1,0,0,0,0,0,0,0,0,0,0,0,0,0,0,0,0,0,0,0,0,0,0,0,0,0,0,0,0,0,0,0,0,0,0,0,0,0,0,0,0,0,0,0,0,0,0,0,0
"Ind11","18_0_1",121,4,5,6,8,7,8,5,5,6,-1,0,0,0,0,0,0,0,0,0,0,0,0,0,0,0,0,0,0,0,0,0,0,0,0,0,0,0,0,0,0,0,0,0,0,0,0,0,0,0,0,0,0,0,0,0,0,0
"Ind12","18_0_2",121,4,5,6,8,7,8,5,5,6,0,-1,0,0,0,0,0,0,0,0,0,0,0,0,0,0,0,0,0,0,0,0,0,0,0,0,0,0,0,0,0,0,0,0,0,0,0,0,0,0,0,0,0,0,0,0,0,0
"Ind13","18_0_0",121,4,5,6,8,7,8,5,5,6,0,0,-1,0,0,0,0,0,0,0,0,0,0,0,0,0,0,0,0,0,0,0,0,0,0,0,0,0,0,0,0,0,0,0,0,0,0,0,0,0,0,0,0,0,0,0,0,0
"Ind14","19_0_0",125,6,7,8,10,9,10,5,5,6,10,10,10,-1,0,0,0,0,0,0,0,0,0,0,0,0,0,0,0,0,0,0,0,0,0,0,0,0,0,0,0,0,0,0,0,0,0,0,0,0,0,0,0,0,0,0,0,0
"Ind15","19_0_1",125,6,7,8,10,9,10,5,5,6,10,10,10,0,-1,0,0,0,0,0,0,0,0,0,0,0,0,0,0,0,0,0,0,0,0,0,0,0,0,0,0,0,0,0,0,0,0,0,0,0,0,0,0,0,0,0,0,0
"Ind16","19_0_2",125,6,7,8,10,9,10,5,5,6,10,10,10,0,0,-1,0,0,0,0,0,0,0,0,0,0,0,0,0,0,0,0,0,0,0,0,0,0,0,0,0,0,0,0,0,0,0,0,0,0,0,0,0,0,0,0,0,0
"Ind17","9_0_1",124,106,107,108,104,105,106,107,107,106,110,110,110,110,110,110,-1,0,0,0,0,0,0,0,0,0,0,0,0,0,0,0,0,0,0,0,0,0,0,0,0,0,0,0,0,0,0,0,0,0,0,0,0,0,0,0,0,0
"Ind18","9_0_2",124,106,107,108,104,105,106,107,107,106,110,110,110,110,110,110,0,-1,0,0,0,0,0,0,0,0,0,0,0,0,0,0,0,0,0,0,0,0,0,0,0,0,0,0,0,0,0,0,0,0,0,0,0,0,0,0,0,0
"Ind19","9_0_0",124,104,105,106,104,105,106,105,105,104,108,108,108,108,108,108,6,6,-1,0,0,0,0,0,0,0,0,0,0,0,0,0,0,0,0,0,0,0,0,0,0,0,0,0,0,0,0,0,0,0,0,0,0,0,0,0,0,0
"Ind20","5_0_0",118,98,99,100,98,99,100,99,99,100,102,102,102,102,102,102,10,10,10,-1,0,0,0,0,0,0,0,0,0,0,0,0,0,0,0,0,0,0,0,0,0,0,0,0,0,0,0,0,0,0,0,0,0,0,0,0,0,0
"Ind21","5_0_2",118,98,99,100,98,99,100,99,99,100,102,102,102,102,102,102,10,10,10,0,-1,0,0,0,0,0,0,0,0,0,0,0,0,0,0,0,0,0,0,0,0,0,0,0,0,0,0,0,0,0,0,0,0,0,0,0,0,0
"Ind22","5_0_1",118,98,99,100,98,99,100,99,99,100,102,102,102,102,102,102,10,10,10,0,0,-1,0,0,0,0,0,0,0,0,0,0,0,0,0,0,0,0,0,0,0,0,0,0,0,0,0,0,0,0,0,0,0,0,0,0,0,0
"Ind23","4_0_1",124,104,105,106,104,105,106,105,105,106,108,108,108,108,108,108,14,14,14,8,8,8,-1,0,0,0,0,0,0,0,0,0,0,0,0,0,0,0,0,0,0,0,0,0,0,0,0,0,0,0,0,0,0,0,0,0,0,0
"Ind24","4_0_0",124,104,105,106,104,105,106,105,105,106,108,108,108,108,108,108,14,14,14,8,8,8,0,-1,0,0,0,0,0,0,0,0,0,0,0,0,0,0,0,0,0,0,0,0,0,0,0,0,0,0,0,0,0,0,0,0,0,0
"Ind25","4_0_2",124,104,105,106,104,105,106,105,105,106,108,108,108,108,108,108,14,14,14,8,8,8,0,0,-1,0,0,0,0,0,0,0,0,0,0,0,0,0,0,0,0,0,0,0,0,0,0,0,0,0,0,0,0,0,0,0,0,0
"Ind26","12_0_1",126,104,105,106,104,105,106,105,105,106,108,108,108,108,108,108,16,16,16,10,10,10,4,4,4,-1,0,0,0,0,0,0,0,0,0,0,0,0,0,0,0,0,0,0,0,0,0,0,0,0,0,0,0,0,0,0,0,0
"Ind27","12_0_0",127,105,106,107,105,106,107,106,106,107,109,109,109,109,109,109,17,17,17,11,11,11,5,5,5,1,-1,0,0,0,0,0,0,0,0,0,0,0,0,0,0,0,0,0,0,0,0,0,0,0,0,0,0,0,0,0,0,0
"Ind28","12_0_2",125,103,104,105,103,104,105,104,104,105,107,107,107,107,107,107,17,17,17,11,11,11,5,5,5,1,2,-1,0,0,0,0,0,0,0,0,0,0,0,0,0,0,0,0,0,0,0,0,0,0,0,0,0,0,0,0,0,0
"Ind29","11_0_0",118,102,103,104,102,103,104,101,101,102,106,106,106,104,104,104,24,24,24,16,16,16,20,20,20,22,23,23,-1,0,0,0,0,0,0,0,0,0,0,0,0,0,0,0,0,0,0,0,0,0,0,0,0,0,0,0,0,0
"Ind30","11_0_2",118,102,103,104,102,103,104,101,101,102,106,106,106,104,104,104,22,22,22,16,16,16,18,18,18,20,21,21,2,-1,0,0,0,0,0,0,0,0,0,0,0,0,0,0,0,0,0,0,0,0,0,0,0,0,0,0,0,0
"Ind31","11_0_1",118,102,103,104,102,103,104,101,101,102,106,106,106,104,104,104,22,22,22,16,16,16,18,18,18,20,21,21,2,0,-1,0,0,0,0,0,0,0,0,0,0,0,0,0,0,0,0,0,0,0,0,0,0,0,0,0,0,0
"Ind32","14_0_0",116,104,105,106,104,105,106,103,103,104,106,106,106,106,106,106,24,24,24,18,18,18,20,20,20,22,23,23,10,8,8,-1,0,0,0,0,0,0,0,0,0,0,0,0,0,0,0,0,0,0,0,0,0,0,0,0,0,0
"Ind33","8_0_1",116,104,105,106,104,105,106,103,103,104,106,106,106,106,106,106,24,24,24,18,18,18,20,20,20,22,23,23,10,8,8,0,-1,0,0,0,0,0,0,0,0,0,0,0,0,0,0,0,0,0,0,0,0,0,0,0,0,0
"Ind34","7_0_0",116,104,105,106,104,105,106,103,103,104,106,106,106,106,106,106,24,24,24,18,18,18,20,20,20,22,23,23,10,8,8,0,0,-1,0,0,0,0,0,0,0,0,0,0,0,0,0,0,0,0,0,0,0,0,0,0,0,0
"Ind35","14_0_2",116,104,105,106,104,105,106,103,103,104,106,106,106,106,106,106,24,24,24,18,18,18,20,20,20,22,23,23,10,8,8,0,0,0,-1,0,0,0,0,0,0,0,0,0,0,0,0,0,0,0,0,0,0,0,0,0,0,0
"Ind36","14_0_1",116,104,105,106,104,105,106,103,103,104,106,106,106,106,106,106,24,24,24,18,18,18,20,20,20,22,23,23,10,8,8,0,0,0,0,-1,0,0,0,0,0,0,0,0,0,0,0,0,0,0,0,0,0,0,0,0,0,0
"Ind37","7_0_1",116,104,105,106,104,105,106,103,103,104,106,106,106,106,106,106,24,24,24,18,18,18,20,20,20,22,23,23,10,8,8,0,0,0,0,0,-1,0,0,0,0,0,0,0,0,0,0,0,0,0,0,0,0,0,0,0,0,0
"Ind38","8_0_0",117,99,100,101,99,100,101,98,98,99,103,103,103,101,101,101,25,25,25,17,17,17,21,21,21,23,24,24,11,9,9,9,9,9,9,9,9,-1,0,0,0,0,0,0,0,0,0,0,0,0,0,0,0,0,0,0,0,0
"Ind39","8_0_2",117,99,100,101,99,100,101,98,98,99,103,103,103,101,101,101,25,25,25,17,17,17,21,21,21,23,24,24,11,9,9,9,9,9,9,9,9,0,-1,0,0,0,0,0,0,0,0,0,0,0,0,0,0,0,0,0,0,0
"Ind40","7_0_2",118,100,101,102,100,101,102,99,99,100,104,104,104,102,102,102,24,24,24,18,18,18,20,20,20,22,23,23,10,8,8,8,8,8,8,8,8,1,1,-1,0,0,0,0,0,0,0,0,0,0,0,0,0,0,0,0,0,0
"Ind41","1_0_1",117,105,106,107,105,106,107,104,104,105,109,109,109,107,107,107,23,23,23,17,17,17,19,19,19,21,22,22,9,7,7,9,9,9,9,9,9,10,10,9,-1,0,0,0,0,0,0,0,0,0,0,0,0,0,0,0,0,0
"Ind42","1_0_2",117,105,106,107,105,106,107,104,104,105,109,109,109,107,107,107,23,23,23,17,17,17,19,19,19,21,22,22,9,7,7,9,9,9,9,9,9,10,10,9,0,-1,0,0,0,0,0,0,0,0,0,0,0,0,0,0,0,0
"Ind43","1_0_0",117,105,106,107,105,106,107,104,104,105,109,109,109,107,107,107,23,23,23,17,17,17,19,19,19,21,22,22,9,7,7,9,9,9,9,9,9,10,10,9,0,0,-1,0,0,0,0,0,0,0,0,0,0,0,0,0,0,0
"Ind44","2_0_0",120,106,107,108,106,107,108,105,105,106,110,110,110,108,108,108,22,22,22,16,16,16,18,18,18,20,21,21,8,6,6,8,8,8,8,8,8,9,9,8,5,5,5,-1,0,0,0,0,0,0,0,0,0,0,0,0,0,0
"Ind45","2_0_1",119,105,106,107,105,106,107,104,104,105,109,109,109,107,107,107,21,21,21,15,15,15,17,17,17,19,20,20,7,5,5,7,7,7,7,7,7,8,8,7,4,4,4,3,-1,0,0,0,0,0,0,0,0,0,0,0,0,0
"Ind46","3_0_1",119,105,106,107,105,106,107,104,104,105,109,109,109,107,107,107,21,21,21,15,15,15,17,17,17,19,20,20,7,5,5,7,7,7,7,7,7,8,8,7,4,4,4,3,0,-1,0,0,0,0,0,0,0,0,0,0,0,0
"Ind47","3_0_2",118,104,105,106,104,105,106,103,103,104,108,108,108,106,106,106,20,20,20,14,14,14,16,16,16,18,19,19,6,4,4,6,6,6,6,6,6,7,7,6,3,3,3,2,1,1,-1,0,0,0,0,0,0,0,0,0,0,0
"Ind48","2_0_2",118,104,105,106,104,105,106,103,103,104,108,108,108,106,106,106,20,20,20,14,14,14,16,16,16,18,19,19,6,4,4,6,6,6,6,6,6,7,7,6,3,3,3,2,1,1,0,-1,0,0,0,0,0,0,0,0,0,0
"Ind49","3_0_0",118,104,105,106,104,105,106,103,103,104,108,108,108,106,106,106,20,20,20,14,14,14,16,16,16,18,19,19,6,4,4,6,6,6,6,6,6,7,7,6,3,3,3,2,1,1,0,0,-1,0,0,0,0,0,0,0,0,0
"Ind50","13_0_2",117,103,104,105,103,104,105,102,102,103,107,107,107,105,105,105,21,21,21,15,15,15,17,17,17,19,20,20,7,5,5,7,7,7,7,7,7,8,8,7,4,4,4,3,2,2,1,1,1,-1,0,0,0,0,0,0,0,0
"Ind51","13_0_1",117,103,104,105,103,104,105,102,102,103,107,107,107,105,105,105,21,21,21,15,15,15,17,17,17,19,20,20,7,5,5,7,7,7,7,7,7,8,8,7,4,4,4,3,2,2,1,1,1,0,-1,0,0,0,0,0,0,0
"Ind52","13_0_0",117,103,104,105,103,104,105,102,102,103,107,107,107,105,105,105,21,21,21,15,15,15,17,17,17,19,20,20,7,5,5,7,7,7,7,7,7,8,8,7,4,4,4,3,2,2,1,1,1,0,0,-1,0,0,0,0,0,0
"Ind53","6_0_2",117,103,104,105,103,104,105,102,102,103,107,107,107,105,105,105,21,21,21,15,15,15,17,17,17,19,20,20,7,5,5,7,7,7,7,7,7,8,8,7,4,4,4,3,2,2,1,1,1,2,2,2,-1,0,0,0,0,0
"Ind54","6_0_0",117,103,104,105,103,104,105,102,102,103,107,107,107,105,105,105,21,21,21,15,15,15,17,17,17,19,20,20,7,5,5,7,7,7,7,7,7,8,8,7,4,4,4,3,2,2,1,1,1,2,2,2,0,-1,0,0,0,0
"Ind55","6_0_1",116,102,103,104,102,103,104,101,101,102,106,106,106,104,104,104,22,22,22,16,16,16,18,18,18,20,21,21,8,6,6,8,8,8,8,8,8,9,9,8,5,5,5,4,3,3,2,2,2,3,3,3,1,1,-1,0,0,0
"Ind56","10_0_2",121,103,104,105,103,104,105,104,104,105,107,107,107,107,107,107,30,30,30,24,24,24,26,26,26,28,29,29,32,30,30,32,32,32,32,32,32,31,31,30,31,31,31,30,29,29,28,28,28,29,29,29,29,29,30,-1,0,0
"Ind57","10_0_0",121,103,104,105,103,104,105,104,104,105,107,107,107,107,107,107,30,30,30,24,24,24,26,26,26,28,29,29,32,30,30,32,32,32,32,32,32,31,31,30,31,31,31,30,29,29,28,28,28,29,29,29,29,29,30,0,-1,0
"Ind58","10_0_1",121,103,104,105,103,104,105,104,104,105,107,107,107,107,107,107,30,30,30,24,24,24,26,26,26,28,29,29,32,30,30,32,32,32,32,32,32,31,31,30,31,31,31,30,29,29,28,28,28,29,29,29,29,29,30,0,0,-1
