"","Description","Ind1","Ind2","Ind3","Ind4","Ind5","Ind6","Ind7","Ind8","Ind9","Ind10","Ind11","Ind12","Ind13","Ind14","Ind15","Ind16","Ind17","Ind18","Ind19","Ind20","Ind21","Ind22","Ind23","Ind24","Ind25","Ind26","Ind27","Ind28","Ind29","Ind30","Ind31","Ind32","Ind33"
"Ind1","0_0_0",-1,0,0,0,0,0,0,0,0,0,0,0,0,0,0,0,0,0,0,0,0,0,0,0,0,0,0,0,0,0,0,0,0
"Ind2","1_0_1",56,-1,0,0,0,0,0,0,0,0,0,0,0,0,0,0,0,0,0,0,0,0,0,0,0,0,0,0,0,0,0,0,0
"Ind3","1_0_0",56,0,-1,0,0,0,0,0,0,0,0,0,0,0,0,0,0,0,0,0,0,0,0,0,0,0,0,0,0,0,0,0,0
"Ind4","2_0_0",56,0,0,-1,0,0,0,0,0,0,0,0,0,0,0,0,0,0,0,0,0,0,0,0,0,0,0,0,0,0,0,0,0
"Ind5","2_0_1",56,0,0,0,-1,0,0,0,0,0,0,0,0,0,0,0,0,0,0,0,0,0,0,0,0,0,0,0,0,0,0,0,0
"Ind6","14_0_1",58,15,15,15,15,-1,0,0,0,0,0,0,0,0,0,0,0,0,0,0,0,0,0,0,0,0,0,0,0,0,0,0,0
"Ind7","14_0_0",58,15,15,15,15,0,-1,0,0,0,0,0,0,0,0,0,0,0,0,0,0,0,0,0,0,0,0,0,0,0,0,0,0
"Ind8","7_0_0",58,15,15,15,15,0,0,-1,0,0,0,0,0,0,0,0,0,0,0,0,0,0,0,0,0,0,0,0,0,0,0,0,0
"Ind9","4_0_0",58,15,15,15,15,0,0,0,-1,0,0,0,0,0,0,0,0,0,0,0,0,0,0,0,0,0,0,0,0,0,0,0,0
"Ind10","7_0_1",58,15,15,15,15,0,0,0,0,-1,0,0,0,0,0,0,0,0,0,0,0,0,0,0,0,0,0,0,0,0,0,0,0
"Ind11","4_0_1",59,16,16,16,16,1,1,1,1,1,-1,0,0,0,0,0,0,0,0,0,0,0,0,0,0,0,0,0,0,0,0,0,0
"Ind12","13_0_1",58,15,15,15,15,0,0,0,0,0,1,-1,0,0,0,0,0,0,0,0,0,0,0,0,0,0,0,0,0,0,0,0,0
"Ind13","13_0_0",58,15,15,15,15,0,0,0,0,0,1,0,-1,0,0,0,0,0,0,0,0,0,0,0,0,0,0,0,0,0,0,0,0
"Ind14","11_0_1",58,17,17,17,17,6,6,6,6,6,7,6,6,-1,0,0,0,0,0,0,0,0,0,0,0,0,0,0,0,0,0,0,0
"Ind15","11_0_0",59,16,16,16,16,5,5,5,5,5,6,5,5,1,-1,0,0,0,0,0,0,0,0,0,0,0,0,0,0,0,0,0,0
"Ind16","5_0_0",56,13,13,13,13,2,2,2,2,2,3,2,2,4,3,-1,0,0,0,0,0,0,0,0,0,0,0,0,0,0,0,0,0
"Ind17","5_0_1",56,13,13,13,13,2,2,2,2,2,3,2,2,4,3,0,-1,0,0,0,0,0,0,0,0,0,0,0,0,0,0,0,0
"Ind18","6_0_0",56,13,13,13,13,2,2,2,2,2,3,2,2,4,3,0,0,-1,0,0,0,0,0,0,0,0,0,0,0,0,0,0,0
"Ind19","6_0_1",56,13,13,13,13,2,2,2,2,2,3,2,2,4,3,0,0,0,-1,0,0,0,0,0,0,0,0,0,0,0,0,0,0
"Ind20","9_0_1",58,15,15,15,15,4,4,4,4,4,5,4,4,6,5,2,2,2,2,-1,0,0,0,0,0,0,0,0,0,0,0,0,0
"Ind21","9_0_0",58,15,15,15,15,4,4,4,4,4,5,4,4,6,5,2,2,2,2,0,-1,0,0,0,0,0,0,0,0,0,0,0,0
"Ind22","10_0_0",56,15,15,15,15,6,6,6,6,6,7,6,6,8,7,4,4,4,4,6,6,-1,0,0,0,0,0,0,0,0,0,0,0
"Ind23","10_0_1",57,14,14,14,14,7,7,7,7,7,8,7,7,9,8,5,5,5,5,7,7,7,-1,0,0,0,0,0,0,0,0,0,0
"Ind24","3_0_1",55,12,12,12,12,3,3,3,3,3,4,3,3,5,4,1,1,1,1,3,3,3,4,-1,0,0,0,0,0,0,0,0,0
"Ind25","3_0_0",55,12,12,12,12,3,3,3,3,3,4,3,3,5,4,1,1,1,1,3,3,3,4,0,-1,0,0,0,0,0,0,0,0
"Ind26","8_0_1",55,12,12,12,12,3,3,3,3,3,4,3,3,5,4,1,1,1,1,3,3,3,4,0,0,-1,0,0,0,0,0,0,0
"Ind27","8_0_0",56,13,13,13,13,4,4,4,4,4,5,4,4,6,5,2,2,2,2,4,4,4,5,1,1,1,-1,0,0,0,0,0,0
"Ind28","15_0_0",55,12,12,12,12,3,3,3,3,3,4,3,3,5,4,1,1,1,1,3,3,3,4,0,0,0,1,-1,0,0,0,0,0
"Ind29","15_0_1",55,12,12,12,12,3,3,3,3,3,4,3,3,5,4,1,1,1,1,3,3,3,4,0,0,0,1,0,-1,0,0,0,0
"Ind30","12_0_1",55,14,14,14,14,5,5,5,5,5,6,5,5,7,6,3,3,3,3,5,5,5,6,2,2,2,3,2,2,-1,0,0,0
"Ind31","12_0_0",55,14,14,14,14,5,5,5,5,5,6,5,5,7,6,3,3,3,3,5,5,5,6,2,2,2,3,2,2,0,-1,0,0
"Ind32","16_0_0",55,14,14,14,14,5,5,5,5,5,6,5,5,7,6,3,3,3,3,5,5,5,6,2,2,2,3,2,2,0,0,-1,0
"Ind33","16_0_1",55,14,14,14,14,5,5,5,5,5,6,5,5,7,6,3,3,3,3,5,5,5,6,2,2,2,3,2,2,0,0,0,-1
