"","Description","Ind1","Ind2","Ind3","Ind4","Ind5","Ind6","Ind7","Ind8","Ind9","Ind10","Ind11","Ind12","Ind13","Ind14","Ind15","Ind16","Ind17","Ind18","Ind19","Ind20","Ind21","Ind22","Ind23","Ind24","Ind25","Ind26","Ind27","Ind28","Ind29","Ind30","Ind31","Ind32","Ind33","Ind34","Ind35","Ind36","Ind37","Ind38","Ind39","Ind40","Ind41","Ind42","Ind43","Ind44","Ind45","Ind46","Ind47","Ind48","Ind49","Ind50","Ind51","Ind52","Ind53","Ind54","Ind55","Ind56","Ind57","Ind58","Ind59","Ind60","Ind61","Ind62","Ind63","Ind64","Ind65","Ind66","Ind67","Ind68","Ind69","Ind70","Ind71","Ind72","Ind73","Ind74","Ind75","Ind76","Ind77","Ind78","Ind79","Ind80","Ind81","Ind82","Ind83","Ind84","Ind85","Ind86","Ind87","Ind88","Ind89","Ind90","Ind91","Ind92","Ind93","Ind94","Ind95","Ind96","Ind97","Ind98","Ind99","Ind100","Ind101","Ind102","Ind103","Ind104","Ind105","Ind106","Ind107","Ind108","Ind109","Ind110","Ind111","Ind112","Ind113","Ind114","Ind115","Ind116","Ind117","Ind118","Ind119","Ind120","Ind121","Ind122","Ind123","Ind124","Ind125","Ind126","Ind127","Ind128","Ind129","Ind130","Ind131","Ind132","Ind133","Ind134","Ind135","Ind136","Ind137","Ind138","Ind139","Ind140","Ind141","Ind142","Ind143","Ind144","Ind145","Ind146","Ind147","Ind148","Ind149","Ind150","Ind151","Ind152","Ind153","Ind154","Ind155"
"Ind1","2_0_7",-1,0,0,0,0,0,0,0,0,0,0,0,0,0,0,0,0,0,0,0,0,0,0,0,0,0,0,0,0,0,0,0,0,0,0,0,0,0,0,0,0,0,0,0,0,0,0,0,0,0,0,0,0,0,0,0,0,0,0,0,0,0,0,0,0,0,0,0,0,0,0,0,0,0,0,0,0,0,0,0,0,0,0,0,0,0,0,0,0,0,0,0,0,0,0,0,0,0,0,0,0,0,0,0,0,0,0,0,0,0,0,0,0,0,0,0,0,0,0,0,0,0,0,0,0,0,0,0,0,0,0,0,0,0,0,0,0,0,0,0,0,0,0,0,0,0,0,0,0,0,0,0,0,0,0
"Ind2","2_0_12",0,-1,0,0,0,0,0,0,0,0,0,0,0,0,0,0,0,0,0,0,0,0,0,0,0,0,0,0,0,0,0,0,0,0,0,0,0,0,0,0,0,0,0,0,0,0,0,0,0,0,0,0,0,0,0,0,0,0,0,0,0,0,0,0,0,0,0,0,0,0,0,0,0,0,0,0,0,0,0,0,0,0,0,0,0,0,0,0,0,0,0,0,0,0,0,0,0,0,0,0,0,0,0,0,0,0,0,0,0,0,0,0,0,0,0,0,0,0,0,0,0,0,0,0,0,0,0,0,0,0,0,0,0,0,0,0,0,0,0,0,0,0,0,0,0,0,0,0,0,0,0,0,0,0,0
"Ind3","2_0_4",0,0,-1,0,0,0,0,0,0,0,0,0,0,0,0,0,0,0,0,0,0,0,0,0,0,0,0,0,0,0,0,0,0,0,0,0,0,0,0,0,0,0,0,0,0,0,0,0,0,0,0,0,0,0,0,0,0,0,0,0,0,0,0,0,0,0,0,0,0,0,0,0,0,0,0,0,0,0,0,0,0,0,0,0,0,0,0,0,0,0,0,0,0,0,0,0,0,0,0,0,0,0,0,0,0,0,0,0,0,0,0,0,0,0,0,0,0,0,0,0,0,0,0,0,0,0,0,0,0,0,0,0,0,0,0,0,0,0,0,0,0,0,0,0,0,0,0,0,0,0,0,0,0,0,0
"Ind4","2_0_6",2,2,2,-1,0,0,0,0,0,0,0,0,0,0,0,0,0,0,0,0,0,0,0,0,0,0,0,0,0,0,0,0,0,0,0,0,0,0,0,0,0,0,0,0,0,0,0,0,0,0,0,0,0,0,0,0,0,0,0,0,0,0,0,0,0,0,0,0,0,0,0,0,0,0,0,0,0,0,0,0,0,0,0,0,0,0,0,0,0,0,0,0,0,0,0,0,0,0,0,0,0,0,0,0,0,0,0,0,0,0,0,0,0,0,0,0,0,0,0,0,0,0,0,0,0,0,0,0,0,0,0,0,0,0,0,0,0,0,0,0,0,0,0,0,0,0,0,0,0,0,0,0,0,0,0
"Ind5","2_0_13",2,2,2,0,-1,0,0,0,0,0,0,0,0,0,0,0,0,0,0,0,0,0,0,0,0,0,0,0,0,0,0,0,0,0,0,0,0,0,0,0,0,0,0,0,0,0,0,0,0,0,0,0,0,0,0,0,0,0,0,0,0,0,0,0,0,0,0,0,0,0,0,0,0,0,0,0,0,0,0,0,0,0,0,0,0,0,0,0,0,0,0,0,0,0,0,0,0,0,0,0,0,0,0,0,0,0,0,0,0,0,0,0,0,0,0,0,0,0,0,0,0,0,0,0,0,0,0,0,0,0,0,0,0,0,0,0,0,0,0,0,0,0,0,0,0,0,0,0,0,0,0,0,0,0,0
"Ind6","2_0_0",2,2,2,0,0,-1,0,0,0,0,0,0,0,0,0,0,0,0,0,0,0,0,0,0,0,0,0,0,0,0,0,0,0,0,0,0,0,0,0,0,0,0,0,0,0,0,0,0,0,0,0,0,0,0,0,0,0,0,0,0,0,0,0,0,0,0,0,0,0,0,0,0,0,0,0,0,0,0,0,0,0,0,0,0,0,0,0,0,0,0,0,0,0,0,0,0,0,0,0,0,0,0,0,0,0,0,0,0,0,0,0,0,0,0,0,0,0,0,0,0,0,0,0,0,0,0,0,0,0,0,0,0,0,0,0,0,0,0,0,0,0,0,0,0,0,0,0,0,0,0,0,0,0,0,0
"Ind7","2_0_5",2,2,2,0,0,0,-1,0,0,0,0,0,0,0,0,0,0,0,0,0,0,0,0,0,0,0,0,0,0,0,0,0,0,0,0,0,0,0,0,0,0,0,0,0,0,0,0,0,0,0,0,0,0,0,0,0,0,0,0,0,0,0,0,0,0,0,0,0,0,0,0,0,0,0,0,0,0,0,0,0,0,0,0,0,0,0,0,0,0,0,0,0,0,0,0,0,0,0,0,0,0,0,0,0,0,0,0,0,0,0,0,0,0,0,0,0,0,0,0,0,0,0,0,0,0,0,0,0,0,0,0,0,0,0,0,0,0,0,0,0,0,0,0,0,0,0,0,0,0,0,0,0,0,0,0
"Ind8","2_0_10",2,2,2,0,0,0,0,-1,0,0,0,0,0,0,0,0,0,0,0,0,0,0,0,0,0,0,0,0,0,0,0,0,0,0,0,0,0,0,0,0,0,0,0,0,0,0,0,0,0,0,0,0,0,0,0,0,0,0,0,0,0,0,0,0,0,0,0,0,0,0,0,0,0,0,0,0,0,0,0,0,0,0,0,0,0,0,0,0,0,0,0,0,0,0,0,0,0,0,0,0,0,0,0,0,0,0,0,0,0,0,0,0,0,0,0,0,0,0,0,0,0,0,0,0,0,0,0,0,0,0,0,0,0,0,0,0,0,0,0,0,0,0,0,0,0,0,0,0,0,0,0,0,0,0,0
"Ind9","2_0_9",2,2,2,0,0,0,0,0,-1,0,0,0,0,0,0,0,0,0,0,0,0,0,0,0,0,0,0,0,0,0,0,0,0,0,0,0,0,0,0,0,0,0,0,0,0,0,0,0,0,0,0,0,0,0,0,0,0,0,0,0,0,0,0,0,0,0,0,0,0,0,0,0,0,0,0,0,0,0,0,0,0,0,0,0,0,0,0,0,0,0,0,0,0,0,0,0,0,0,0,0,0,0,0,0,0,0,0,0,0,0,0,0,0,0,0,0,0,0,0,0,0,0,0,0,0,0,0,0,0,0,0,0,0,0,0,0,0,0,0,0,0,0,0,0,0,0,0,0,0,0,0,0,0,0,0
"Ind10","2_0_1",2,2,2,0,0,0,0,0,0,-1,0,0,0,0,0,0,0,0,0,0,0,0,0,0,0,0,0,0,0,0,0,0,0,0,0,0,0,0,0,0,0,0,0,0,0,0,0,0,0,0,0,0,0,0,0,0,0,0,0,0,0,0,0,0,0,0,0,0,0,0,0,0,0,0,0,0,0,0,0,0,0,0,0,0,0,0,0,0,0,0,0,0,0,0,0,0,0,0,0,0,0,0,0,0,0,0,0,0,0,0,0,0,0,0,0,0,0,0,0,0,0,0,0,0,0,0,0,0,0,0,0,0,0,0,0,0,0,0,0,0,0,0,0,0,0,0,0,0,0,0,0,0,0,0,0
"Ind11","2_0_2",2,2,2,0,0,0,0,0,0,0,-1,0,0,0,0,0,0,0,0,0,0,0,0,0,0,0,0,0,0,0,0,0,0,0,0,0,0,0,0,0,0,0,0,0,0,0,0,0,0,0,0,0,0,0,0,0,0,0,0,0,0,0,0,0,0,0,0,0,0,0,0,0,0,0,0,0,0,0,0,0,0,0,0,0,0,0,0,0,0,0,0,0,0,0,0,0,0,0,0,0,0,0,0,0,0,0,0,0,0,0,0,0,0,0,0,0,0,0,0,0,0,0,0,0,0,0,0,0,0,0,0,0,0,0,0,0,0,0,0,0,0,0,0,0,0,0,0,0,0,0,0,0,0,0,0
"Ind12","2_0_3",2,2,2,0,0,0,0,0,0,0,0,-1,0,0,0,0,0,0,0,0,0,0,0,0,0,0,0,0,0,0,0,0,0,0,0,0,0,0,0,0,0,0,0,0,0,0,0,0,0,0,0,0,0,0,0,0,0,0,0,0,0,0,0,0,0,0,0,0,0,0,0,0,0,0,0,0,0,0,0,0,0,0,0,0,0,0,0,0,0,0,0,0,0,0,0,0,0,0,0,0,0,0,0,0,0,0,0,0,0,0,0,0,0,0,0,0,0,0,0,0,0,0,0,0,0,0,0,0,0,0,0,0,0,0,0,0,0,0,0,0,0,0,0,0,0,0,0,0,0,0,0,0,0,0,0
"Ind13","2_0_8",1,1,1,1,1,1,1,1,1,1,1,1,-1,0,0,0,0,0,0,0,0,0,0,0,0,0,0,0,0,0,0,0,0,0,0,0,0,0,0,0,0,0,0,0,0,0,0,0,0,0,0,0,0,0,0,0,0,0,0,0,0,0,0,0,0,0,0,0,0,0,0,0,0,0,0,0,0,0,0,0,0,0,0,0,0,0,0,0,0,0,0,0,0,0,0,0,0,0,0,0,0,0,0,0,0,0,0,0,0,0,0,0,0,0,0,0,0,0,0,0,0,0,0,0,0,0,0,0,0,0,0,0,0,0,0,0,0,0,0,0,0,0,0,0,0,0,0,0,0,0,0,0,0,0,0
"Ind14","2_0_11",1,1,1,1,1,1,1,1,1,1,1,1,0,-1,0,0,0,0,0,0,0,0,0,0,0,0,0,0,0,0,0,0,0,0,0,0,0,0,0,0,0,0,0,0,0,0,0,0,0,0,0,0,0,0,0,0,0,0,0,0,0,0,0,0,0,0,0,0,0,0,0,0,0,0,0,0,0,0,0,0,0,0,0,0,0,0,0,0,0,0,0,0,0,0,0,0,0,0,0,0,0,0,0,0,0,0,0,0,0,0,0,0,0,0,0,0,0,0,0,0,0,0,0,0,0,0,0,0,0,0,0,0,0,0,0,0,0,0,0,0,0,0,0,0,0,0,0,0,0,0,0,0,0,0,0
"Ind15","1_0_5",7,7,7,9,9,9,9,9,9,9,9,9,8,8,-1,0,0,0,0,0,0,0,0,0,0,0,0,0,0,0,0,0,0,0,0,0,0,0,0,0,0,0,0,0,0,0,0,0,0,0,0,0,0,0,0,0,0,0,0,0,0,0,0,0,0,0,0,0,0,0,0,0,0,0,0,0,0,0,0,0,0,0,0,0,0,0,0,0,0,0,0,0,0,0,0,0,0,0,0,0,0,0,0,0,0,0,0,0,0,0,0,0,0,0,0,0,0,0,0,0,0,0,0,0,0,0,0,0,0,0,0,0,0,0,0,0,0,0,0,0,0,0,0,0,0,0,0,0,0,0,0,0,0,0,0
"Ind16","1_0_12",7,7,7,9,9,9,9,9,9,9,9,9,8,8,0,-1,0,0,0,0,0,0,0,0,0,0,0,0,0,0,0,0,0,0,0,0,0,0,0,0,0,0,0,0,0,0,0,0,0,0,0,0,0,0,0,0,0,0,0,0,0,0,0,0,0,0,0,0,0,0,0,0,0,0,0,0,0,0,0,0,0,0,0,0,0,0,0,0,0,0,0,0,0,0,0,0,0,0,0,0,0,0,0,0,0,0,0,0,0,0,0,0,0,0,0,0,0,0,0,0,0,0,0,0,0,0,0,0,0,0,0,0,0,0,0,0,0,0,0,0,0,0,0,0,0,0,0,0,0,0,0,0,0,0,0
"Ind17","1_0_7",7,7,7,9,9,9,9,9,9,9,9,9,8,8,0,0,-1,0,0,0,0,0,0,0,0,0,0,0,0,0,0,0,0,0,0,0,0,0,0,0,0,0,0,0,0,0,0,0,0,0,0,0,0,0,0,0,0,0,0,0,0,0,0,0,0,0,0,0,0,0,0,0,0,0,0,0,0,0,0,0,0,0,0,0,0,0,0,0,0,0,0,0,0,0,0,0,0,0,0,0,0,0,0,0,0,0,0,0,0,0,0,0,0,0,0,0,0,0,0,0,0,0,0,0,0,0,0,0,0,0,0,0,0,0,0,0,0,0,0,0,0,0,0,0,0,0,0,0,0,0,0,0,0,0,0
"Ind18","1_0_11",7,7,7,9,9,9,9,9,9,9,9,9,8,8,0,0,0,-1,0,0,0,0,0,0,0,0,0,0,0,0,0,0,0,0,0,0,0,0,0,0,0,0,0,0,0,0,0,0,0,0,0,0,0,0,0,0,0,0,0,0,0,0,0,0,0,0,0,0,0,0,0,0,0,0,0,0,0,0,0,0,0,0,0,0,0,0,0,0,0,0,0,0,0,0,0,0,0,0,0,0,0,0,0,0,0,0,0,0,0,0,0,0,0,0,0,0,0,0,0,0,0,0,0,0,0,0,0,0,0,0,0,0,0,0,0,0,0,0,0,0,0,0,0,0,0,0,0,0,0,0,0,0,0,0,0
"Ind19","1_0_9",7,7,7,9,9,9,9,9,9,9,9,9,8,8,0,0,0,0,-1,0,0,0,0,0,0,0,0,0,0,0,0,0,0,0,0,0,0,0,0,0,0,0,0,0,0,0,0,0,0,0,0,0,0,0,0,0,0,0,0,0,0,0,0,0,0,0,0,0,0,0,0,0,0,0,0,0,0,0,0,0,0,0,0,0,0,0,0,0,0,0,0,0,0,0,0,0,0,0,0,0,0,0,0,0,0,0,0,0,0,0,0,0,0,0,0,0,0,0,0,0,0,0,0,0,0,0,0,0,0,0,0,0,0,0,0,0,0,0,0,0,0,0,0,0,0,0,0,0,0,0,0,0,0,0,0
"Ind20","1_0_4",7,7,7,9,9,9,9,9,9,9,9,9,8,8,0,0,0,0,0,-1,0,0,0,0,0,0,0,0,0,0,0,0,0,0,0,0,0,0,0,0,0,0,0,0,0,0,0,0,0,0,0,0,0,0,0,0,0,0,0,0,0,0,0,0,0,0,0,0,0,0,0,0,0,0,0,0,0,0,0,0,0,0,0,0,0,0,0,0,0,0,0,0,0,0,0,0,0,0,0,0,0,0,0,0,0,0,0,0,0,0,0,0,0,0,0,0,0,0,0,0,0,0,0,0,0,0,0,0,0,0,0,0,0,0,0,0,0,0,0,0,0,0,0,0,0,0,0,0,0,0,0,0,0,0,0
"Ind21","1_0_8",7,7,7,9,9,9,9,9,9,9,9,9,8,8,0,0,0,0,0,0,-1,0,0,0,0,0,0,0,0,0,0,0,0,0,0,0,0,0,0,0,0,0,0,0,0,0,0,0,0,0,0,0,0,0,0,0,0,0,0,0,0,0,0,0,0,0,0,0,0,0,0,0,0,0,0,0,0,0,0,0,0,0,0,0,0,0,0,0,0,0,0,0,0,0,0,0,0,0,0,0,0,0,0,0,0,0,0,0,0,0,0,0,0,0,0,0,0,0,0,0,0,0,0,0,0,0,0,0,0,0,0,0,0,0,0,0,0,0,0,0,0,0,0,0,0,0,0,0,0,0,0,0,0,0,0
"Ind22","1_0_0",7,7,7,9,9,9,9,9,9,9,9,9,8,8,0,0,0,0,0,0,0,-1,0,0,0,0,0,0,0,0,0,0,0,0,0,0,0,0,0,0,0,0,0,0,0,0,0,0,0,0,0,0,0,0,0,0,0,0,0,0,0,0,0,0,0,0,0,0,0,0,0,0,0,0,0,0,0,0,0,0,0,0,0,0,0,0,0,0,0,0,0,0,0,0,0,0,0,0,0,0,0,0,0,0,0,0,0,0,0,0,0,0,0,0,0,0,0,0,0,0,0,0,0,0,0,0,0,0,0,0,0,0,0,0,0,0,0,0,0,0,0,0,0,0,0,0,0,0,0,0,0,0,0,0,0
"Ind23","1_0_6",7,7,7,9,9,9,9,9,9,9,9,9,8,8,0,0,0,0,0,0,0,0,-1,0,0,0,0,0,0,0,0,0,0,0,0,0,0,0,0,0,0,0,0,0,0,0,0,0,0,0,0,0,0,0,0,0,0,0,0,0,0,0,0,0,0,0,0,0,0,0,0,0,0,0,0,0,0,0,0,0,0,0,0,0,0,0,0,0,0,0,0,0,0,0,0,0,0,0,0,0,0,0,0,0,0,0,0,0,0,0,0,0,0,0,0,0,0,0,0,0,0,0,0,0,0,0,0,0,0,0,0,0,0,0,0,0,0,0,0,0,0,0,0,0,0,0,0,0,0,0,0,0,0,0,0
"Ind24","1_0_3",7,7,7,9,9,9,9,9,9,9,9,9,8,8,0,0,0,0,0,0,0,0,0,-1,0,0,0,0,0,0,0,0,0,0,0,0,0,0,0,0,0,0,0,0,0,0,0,0,0,0,0,0,0,0,0,0,0,0,0,0,0,0,0,0,0,0,0,0,0,0,0,0,0,0,0,0,0,0,0,0,0,0,0,0,0,0,0,0,0,0,0,0,0,0,0,0,0,0,0,0,0,0,0,0,0,0,0,0,0,0,0,0,0,0,0,0,0,0,0,0,0,0,0,0,0,0,0,0,0,0,0,0,0,0,0,0,0,0,0,0,0,0,0,0,0,0,0,0,0,0,0,0,0,0,0
"Ind25","1_0_10",8,8,8,10,10,10,10,10,10,10,10,10,9,9,1,1,1,1,1,1,1,1,1,1,-1,0,0,0,0,0,0,0,0,0,0,0,0,0,0,0,0,0,0,0,0,0,0,0,0,0,0,0,0,0,0,0,0,0,0,0,0,0,0,0,0,0,0,0,0,0,0,0,0,0,0,0,0,0,0,0,0,0,0,0,0,0,0,0,0,0,0,0,0,0,0,0,0,0,0,0,0,0,0,0,0,0,0,0,0,0,0,0,0,0,0,0,0,0,0,0,0,0,0,0,0,0,0,0,0,0,0,0,0,0,0,0,0,0,0,0,0,0,0,0,0,0,0,0,0,0,0,0,0,0,0
"Ind26","1_0_1",8,8,8,10,10,10,10,10,10,10,10,10,9,9,1,1,1,1,1,1,1,1,1,1,2,-1,0,0,0,0,0,0,0,0,0,0,0,0,0,0,0,0,0,0,0,0,0,0,0,0,0,0,0,0,0,0,0,0,0,0,0,0,0,0,0,0,0,0,0,0,0,0,0,0,0,0,0,0,0,0,0,0,0,0,0,0,0,0,0,0,0,0,0,0,0,0,0,0,0,0,0,0,0,0,0,0,0,0,0,0,0,0,0,0,0,0,0,0,0,0,0,0,0,0,0,0,0,0,0,0,0,0,0,0,0,0,0,0,0,0,0,0,0,0,0,0,0,0,0,0,0,0,0,0,0
"Ind27","1_0_2",8,8,8,10,10,10,10,10,10,10,10,10,9,9,1,1,1,1,1,1,1,1,1,1,2,0,-1,0,0,0,0,0,0,0,0,0,0,0,0,0,0,0,0,0,0,0,0,0,0,0,0,0,0,0,0,0,0,0,0,0,0,0,0,0,0,0,0,0,0,0,0,0,0,0,0,0,0,0,0,0,0,0,0,0,0,0,0,0,0,0,0,0,0,0,0,0,0,0,0,0,0,0,0,0,0,0,0,0,0,0,0,0,0,0,0,0,0,0,0,0,0,0,0,0,0,0,0,0,0,0,0,0,0,0,0,0,0,0,0,0,0,0,0,0,0,0,0,0,0,0,0,0,0,0,0
"Ind28","1_0_13",8,8,8,10,10,10,10,10,10,10,10,10,9,9,1,1,1,1,1,1,1,1,1,1,2,0,0,-1,0,0,0,0,0,0,0,0,0,0,0,0,0,0,0,0,0,0,0,0,0,0,0,0,0,0,0,0,0,0,0,0,0,0,0,0,0,0,0,0,0,0,0,0,0,0,0,0,0,0,0,0,0,0,0,0,0,0,0,0,0,0,0,0,0,0,0,0,0,0,0,0,0,0,0,0,0,0,0,0,0,0,0,0,0,0,0,0,0,0,0,0,0,0,0,0,0,0,0,0,0,0,0,0,0,0,0,0,0,0,0,0,0,0,0,0,0,0,0,0,0,0,0,0,0,0,0
"Ind29","4_0_3",17,17,17,19,19,19,19,19,19,19,19,19,18,18,18,18,18,18,18,18,18,18,18,18,19,19,19,19,-1,0,0,0,0,0,0,0,0,0,0,0,0,0,0,0,0,0,0,0,0,0,0,0,0,0,0,0,0,0,0,0,0,0,0,0,0,0,0,0,0,0,0,0,0,0,0,0,0,0,0,0,0,0,0,0,0,0,0,0,0,0,0,0,0,0,0,0,0,0,0,0,0,0,0,0,0,0,0,0,0,0,0,0,0,0,0,0,0,0,0,0,0,0,0,0,0,0,0,0,0,0,0,0,0,0,0,0,0,0,0,0,0,0,0,0,0,0,0,0,0,0,0,0,0,0,0
"Ind30","4_0_7",17,17,17,19,19,19,19,19,19,19,19,19,18,18,18,18,18,18,18,18,18,18,18,18,19,19,19,19,0,-1,0,0,0,0,0,0,0,0,0,0,0,0,0,0,0,0,0,0,0,0,0,0,0,0,0,0,0,0,0,0,0,0,0,0,0,0,0,0,0,0,0,0,0,0,0,0,0,0,0,0,0,0,0,0,0,0,0,0,0,0,0,0,0,0,0,0,0,0,0,0,0,0,0,0,0,0,0,0,0,0,0,0,0,0,0,0,0,0,0,0,0,0,0,0,0,0,0,0,0,0,0,0,0,0,0,0,0,0,0,0,0,0,0,0,0,0,0,0,0,0,0,0,0,0,0
"Ind31","4_0_1",17,17,17,19,19,19,19,19,19,19,19,19,18,18,18,18,18,18,18,18,18,18,18,18,19,19,19,19,0,0,-1,0,0,0,0,0,0,0,0,0,0,0,0,0,0,0,0,0,0,0,0,0,0,0,0,0,0,0,0,0,0,0,0,0,0,0,0,0,0,0,0,0,0,0,0,0,0,0,0,0,0,0,0,0,0,0,0,0,0,0,0,0,0,0,0,0,0,0,0,0,0,0,0,0,0,0,0,0,0,0,0,0,0,0,0,0,0,0,0,0,0,0,0,0,0,0,0,0,0,0,0,0,0,0,0,0,0,0,0,0,0,0,0,0,0,0,0,0,0,0,0,0,0,0,0
"Ind32","4_0_8",17,17,17,19,19,19,19,19,19,19,19,19,18,18,18,18,18,18,18,18,18,18,18,18,19,19,19,19,0,0,0,-1,0,0,0,0,0,0,0,0,0,0,0,0,0,0,0,0,0,0,0,0,0,0,0,0,0,0,0,0,0,0,0,0,0,0,0,0,0,0,0,0,0,0,0,0,0,0,0,0,0,0,0,0,0,0,0,0,0,0,0,0,0,0,0,0,0,0,0,0,0,0,0,0,0,0,0,0,0,0,0,0,0,0,0,0,0,0,0,0,0,0,0,0,0,0,0,0,0,0,0,0,0,0,0,0,0,0,0,0,0,0,0,0,0,0,0,0,0,0,0,0,0,0,0
"Ind33","4_0_0",18,18,18,20,20,20,20,20,20,20,20,20,19,19,19,19,19,19,19,19,19,19,19,19,20,20,20,20,1,1,1,1,-1,0,0,0,0,0,0,0,0,0,0,0,0,0,0,0,0,0,0,0,0,0,0,0,0,0,0,0,0,0,0,0,0,0,0,0,0,0,0,0,0,0,0,0,0,0,0,0,0,0,0,0,0,0,0,0,0,0,0,0,0,0,0,0,0,0,0,0,0,0,0,0,0,0,0,0,0,0,0,0,0,0,0,0,0,0,0,0,0,0,0,0,0,0,0,0,0,0,0,0,0,0,0,0,0,0,0,0,0,0,0,0,0,0,0,0,0,0,0,0,0,0,0
"Ind34","4_0_12",19,19,19,21,21,21,21,21,21,21,21,21,20,20,20,20,20,20,20,20,20,20,20,20,21,21,21,21,2,2,2,2,3,-1,0,0,0,0,0,0,0,0,0,0,0,0,0,0,0,0,0,0,0,0,0,0,0,0,0,0,0,0,0,0,0,0,0,0,0,0,0,0,0,0,0,0,0,0,0,0,0,0,0,0,0,0,0,0,0,0,0,0,0,0,0,0,0,0,0,0,0,0,0,0,0,0,0,0,0,0,0,0,0,0,0,0,0,0,0,0,0,0,0,0,0,0,0,0,0,0,0,0,0,0,0,0,0,0,0,0,0,0,0,0,0,0,0,0,0,0,0,0,0,0,0
"Ind35","4_0_6",19,19,19,21,21,21,21,21,21,21,21,21,20,20,20,20,20,20,20,20,20,20,20,20,21,21,21,21,2,2,2,2,3,2,-1,0,0,0,0,0,0,0,0,0,0,0,0,0,0,0,0,0,0,0,0,0,0,0,0,0,0,0,0,0,0,0,0,0,0,0,0,0,0,0,0,0,0,0,0,0,0,0,0,0,0,0,0,0,0,0,0,0,0,0,0,0,0,0,0,0,0,0,0,0,0,0,0,0,0,0,0,0,0,0,0,0,0,0,0,0,0,0,0,0,0,0,0,0,0,0,0,0,0,0,0,0,0,0,0,0,0,0,0,0,0,0,0,0,0,0,0,0,0,0,0
"Ind36","4_0_4",19,19,19,21,21,21,21,21,21,21,21,21,20,20,20,20,20,20,20,20,20,20,20,20,21,21,21,21,2,2,2,2,3,2,0,-1,0,0,0,0,0,0,0,0,0,0,0,0,0,0,0,0,0,0,0,0,0,0,0,0,0,0,0,0,0,0,0,0,0,0,0,0,0,0,0,0,0,0,0,0,0,0,0,0,0,0,0,0,0,0,0,0,0,0,0,0,0,0,0,0,0,0,0,0,0,0,0,0,0,0,0,0,0,0,0,0,0,0,0,0,0,0,0,0,0,0,0,0,0,0,0,0,0,0,0,0,0,0,0,0,0,0,0,0,0,0,0,0,0,0,0,0,0,0,0
"Ind37","4_0_13",19,19,19,21,21,21,21,21,21,21,21,21,20,20,20,20,20,20,20,20,20,20,20,20,21,21,21,21,2,2,2,2,3,2,0,0,-1,0,0,0,0,0,0,0,0,0,0,0,0,0,0,0,0,0,0,0,0,0,0,0,0,0,0,0,0,0,0,0,0,0,0,0,0,0,0,0,0,0,0,0,0,0,0,0,0,0,0,0,0,0,0,0,0,0,0,0,0,0,0,0,0,0,0,0,0,0,0,0,0,0,0,0,0,0,0,0,0,0,0,0,0,0,0,0,0,0,0,0,0,0,0,0,0,0,0,0,0,0,0,0,0,0,0,0,0,0,0,0,0,0,0,0,0,0,0
"Ind38","4_0_5",19,19,19,21,21,21,21,21,21,21,21,21,20,20,20,20,20,20,20,20,20,20,20,20,21,21,21,21,2,2,2,2,3,2,0,0,0,-1,0,0,0,0,0,0,0,0,0,0,0,0,0,0,0,0,0,0,0,0,0,0,0,0,0,0,0,0,0,0,0,0,0,0,0,0,0,0,0,0,0,0,0,0,0,0,0,0,0,0,0,0,0,0,0,0,0,0,0,0,0,0,0,0,0,0,0,0,0,0,0,0,0,0,0,0,0,0,0,0,0,0,0,0,0,0,0,0,0,0,0,0,0,0,0,0,0,0,0,0,0,0,0,0,0,0,0,0,0,0,0,0,0,0,0,0,0
"Ind39","4_0_9",19,19,19,21,21,21,21,21,21,21,21,21,20,20,20,20,20,20,20,20,20,20,20,20,21,21,21,21,2,2,2,2,3,2,0,0,0,0,-1,0,0,0,0,0,0,0,0,0,0,0,0,0,0,0,0,0,0,0,0,0,0,0,0,0,0,0,0,0,0,0,0,0,0,0,0,0,0,0,0,0,0,0,0,0,0,0,0,0,0,0,0,0,0,0,0,0,0,0,0,0,0,0,0,0,0,0,0,0,0,0,0,0,0,0,0,0,0,0,0,0,0,0,0,0,0,0,0,0,0,0,0,0,0,0,0,0,0,0,0,0,0,0,0,0,0,0,0,0,0,0,0,0,0,0,0
"Ind40","4_0_11",19,19,19,21,21,21,21,21,21,21,21,21,20,20,20,20,20,20,20,20,20,20,20,20,21,21,21,21,2,2,2,2,3,2,0,0,0,0,0,-1,0,0,0,0,0,0,0,0,0,0,0,0,0,0,0,0,0,0,0,0,0,0,0,0,0,0,0,0,0,0,0,0,0,0,0,0,0,0,0,0,0,0,0,0,0,0,0,0,0,0,0,0,0,0,0,0,0,0,0,0,0,0,0,0,0,0,0,0,0,0,0,0,0,0,0,0,0,0,0,0,0,0,0,0,0,0,0,0,0,0,0,0,0,0,0,0,0,0,0,0,0,0,0,0,0,0,0,0,0,0,0,0,0,0,0
"Ind41","4_0_2",19,19,19,21,21,21,21,21,21,21,21,21,20,20,20,20,20,20,20,20,20,20,20,20,21,21,21,21,2,2,2,2,3,2,0,0,0,0,0,0,-1,0,0,0,0,0,0,0,0,0,0,0,0,0,0,0,0,0,0,0,0,0,0,0,0,0,0,0,0,0,0,0,0,0,0,0,0,0,0,0,0,0,0,0,0,0,0,0,0,0,0,0,0,0,0,0,0,0,0,0,0,0,0,0,0,0,0,0,0,0,0,0,0,0,0,0,0,0,0,0,0,0,0,0,0,0,0,0,0,0,0,0,0,0,0,0,0,0,0,0,0,0,0,0,0,0,0,0,0,0,0,0,0,0,0
"Ind42","4_0_10",18,18,18,20,20,20,20,20,20,20,20,20,19,19,19,19,19,19,19,19,19,19,19,19,20,20,20,20,1,1,1,1,2,1,1,1,1,1,1,1,1,-1,0,0,0,0,0,0,0,0,0,0,0,0,0,0,0,0,0,0,0,0,0,0,0,0,0,0,0,0,0,0,0,0,0,0,0,0,0,0,0,0,0,0,0,0,0,0,0,0,0,0,0,0,0,0,0,0,0,0,0,0,0,0,0,0,0,0,0,0,0,0,0,0,0,0,0,0,0,0,0,0,0,0,0,0,0,0,0,0,0,0,0,0,0,0,0,0,0,0,0,0,0,0,0,0,0,0,0,0,0,0,0,0,0
"Ind43","3_0_2",18,18,18,20,20,20,20,20,20,20,20,20,19,19,19,19,19,19,19,19,19,19,19,19,20,20,20,20,1,1,1,1,2,3,3,3,3,3,3,3,3,2,-1,0,0,0,0,0,0,0,0,0,0,0,0,0,0,0,0,0,0,0,0,0,0,0,0,0,0,0,0,0,0,0,0,0,0,0,0,0,0,0,0,0,0,0,0,0,0,0,0,0,0,0,0,0,0,0,0,0,0,0,0,0,0,0,0,0,0,0,0,0,0,0,0,0,0,0,0,0,0,0,0,0,0,0,0,0,0,0,0,0,0,0,0,0,0,0,0,0,0,0,0,0,0,0,0,0,0,0,0,0,0,0,0
"Ind44","3_0_7",18,18,18,20,20,20,20,20,20,20,20,20,19,19,19,19,19,19,19,19,19,19,19,19,20,20,20,20,1,1,1,1,2,3,3,3,3,3,3,3,3,2,0,-1,0,0,0,0,0,0,0,0,0,0,0,0,0,0,0,0,0,0,0,0,0,0,0,0,0,0,0,0,0,0,0,0,0,0,0,0,0,0,0,0,0,0,0,0,0,0,0,0,0,0,0,0,0,0,0,0,0,0,0,0,0,0,0,0,0,0,0,0,0,0,0,0,0,0,0,0,0,0,0,0,0,0,0,0,0,0,0,0,0,0,0,0,0,0,0,0,0,0,0,0,0,0,0,0,0,0,0,0,0,0,0
"Ind45","3_0_9",18,18,18,20,20,20,20,20,20,20,20,20,19,19,19,19,19,19,19,19,19,19,19,19,20,20,20,20,1,1,1,1,2,3,3,3,3,3,3,3,3,2,0,0,-1,0,0,0,0,0,0,0,0,0,0,0,0,0,0,0,0,0,0,0,0,0,0,0,0,0,0,0,0,0,0,0,0,0,0,0,0,0,0,0,0,0,0,0,0,0,0,0,0,0,0,0,0,0,0,0,0,0,0,0,0,0,0,0,0,0,0,0,0,0,0,0,0,0,0,0,0,0,0,0,0,0,0,0,0,0,0,0,0,0,0,0,0,0,0,0,0,0,0,0,0,0,0,0,0,0,0,0,0,0,0
"Ind46","3_0_0",18,18,18,20,20,20,20,20,20,20,20,20,19,19,19,19,19,19,19,19,19,19,19,19,20,20,20,20,1,1,1,1,2,3,3,3,3,3,3,3,3,2,0,0,0,-1,0,0,0,0,0,0,0,0,0,0,0,0,0,0,0,0,0,0,0,0,0,0,0,0,0,0,0,0,0,0,0,0,0,0,0,0,0,0,0,0,0,0,0,0,0,0,0,0,0,0,0,0,0,0,0,0,0,0,0,0,0,0,0,0,0,0,0,0,0,0,0,0,0,0,0,0,0,0,0,0,0,0,0,0,0,0,0,0,0,0,0,0,0,0,0,0,0,0,0,0,0,0,0,0,0,0,0,0,0
"Ind47","3_0_8",18,18,18,20,20,20,20,20,20,20,20,20,19,19,19,19,19,19,19,19,19,19,19,19,20,20,20,20,1,1,1,1,2,3,3,3,3,3,3,3,3,2,0,0,0,0,-1,0,0,0,0,0,0,0,0,0,0,0,0,0,0,0,0,0,0,0,0,0,0,0,0,0,0,0,0,0,0,0,0,0,0,0,0,0,0,0,0,0,0,0,0,0,0,0,0,0,0,0,0,0,0,0,0,0,0,0,0,0,0,0,0,0,0,0,0,0,0,0,0,0,0,0,0,0,0,0,0,0,0,0,0,0,0,0,0,0,0,0,0,0,0,0,0,0,0,0,0,0,0,0,0,0,0,0,0
"Ind48","3_0_4",18,18,18,20,20,20,20,20,20,20,20,20,19,19,19,19,19,19,19,19,19,19,19,19,20,20,20,20,1,1,1,1,2,3,3,3,3,3,3,3,3,2,2,2,2,2,2,-1,0,0,0,0,0,0,0,0,0,0,0,0,0,0,0,0,0,0,0,0,0,0,0,0,0,0,0,0,0,0,0,0,0,0,0,0,0,0,0,0,0,0,0,0,0,0,0,0,0,0,0,0,0,0,0,0,0,0,0,0,0,0,0,0,0,0,0,0,0,0,0,0,0,0,0,0,0,0,0,0,0,0,0,0,0,0,0,0,0,0,0,0,0,0,0,0,0,0,0,0,0,0,0,0,0,0,0
"Ind49","3_0_13",19,19,19,21,21,21,21,21,21,21,21,21,20,20,20,20,20,20,20,20,20,20,20,20,21,21,21,21,2,2,2,2,3,4,4,4,4,4,4,4,4,3,3,3,3,3,3,1,-1,0,0,0,0,0,0,0,0,0,0,0,0,0,0,0,0,0,0,0,0,0,0,0,0,0,0,0,0,0,0,0,0,0,0,0,0,0,0,0,0,0,0,0,0,0,0,0,0,0,0,0,0,0,0,0,0,0,0,0,0,0,0,0,0,0,0,0,0,0,0,0,0,0,0,0,0,0,0,0,0,0,0,0,0,0,0,0,0,0,0,0,0,0,0,0,0,0,0,0,0,0,0,0,0,0,0
"Ind50","3_0_1",18,18,18,20,20,20,20,20,20,20,20,20,19,19,19,19,19,19,19,19,19,19,19,19,20,20,20,20,1,1,1,1,2,3,3,3,3,3,3,3,3,2,2,2,2,2,2,0,1,-1,0,0,0,0,0,0,0,0,0,0,0,0,0,0,0,0,0,0,0,0,0,0,0,0,0,0,0,0,0,0,0,0,0,0,0,0,0,0,0,0,0,0,0,0,0,0,0,0,0,0,0,0,0,0,0,0,0,0,0,0,0,0,0,0,0,0,0,0,0,0,0,0,0,0,0,0,0,0,0,0,0,0,0,0,0,0,0,0,0,0,0,0,0,0,0,0,0,0,0,0,0,0,0,0,0
"Ind51","3_0_12",18,18,18,20,20,20,20,20,20,20,20,20,19,19,19,19,19,19,19,19,19,19,19,19,20,20,20,20,1,1,1,1,2,3,3,3,3,3,3,3,3,2,2,2,2,2,2,0,1,0,-1,0,0,0,0,0,0,0,0,0,0,0,0,0,0,0,0,0,0,0,0,0,0,0,0,0,0,0,0,0,0,0,0,0,0,0,0,0,0,0,0,0,0,0,0,0,0,0,0,0,0,0,0,0,0,0,0,0,0,0,0,0,0,0,0,0,0,0,0,0,0,0,0,0,0,0,0,0,0,0,0,0,0,0,0,0,0,0,0,0,0,0,0,0,0,0,0,0,0,0,0,0,0,0,0
"Ind52","3_0_3",18,18,18,20,20,20,20,20,20,20,20,20,19,19,19,19,19,19,19,19,19,19,19,19,20,20,20,20,1,1,1,1,2,3,3,3,3,3,3,3,3,2,2,2,2,2,2,0,1,0,0,-1,0,0,0,0,0,0,0,0,0,0,0,0,0,0,0,0,0,0,0,0,0,0,0,0,0,0,0,0,0,0,0,0,0,0,0,0,0,0,0,0,0,0,0,0,0,0,0,0,0,0,0,0,0,0,0,0,0,0,0,0,0,0,0,0,0,0,0,0,0,0,0,0,0,0,0,0,0,0,0,0,0,0,0,0,0,0,0,0,0,0,0,0,0,0,0,0,0,0,0,0,0,0,0
"Ind53","3_0_10",18,18,18,20,20,20,20,20,20,20,20,20,19,19,19,19,19,19,19,19,19,19,19,19,20,20,20,20,1,1,1,1,2,3,3,3,3,3,3,3,3,2,2,2,2,2,2,0,1,0,0,0,-1,0,0,0,0,0,0,0,0,0,0,0,0,0,0,0,0,0,0,0,0,0,0,0,0,0,0,0,0,0,0,0,0,0,0,0,0,0,0,0,0,0,0,0,0,0,0,0,0,0,0,0,0,0,0,0,0,0,0,0,0,0,0,0,0,0,0,0,0,0,0,0,0,0,0,0,0,0,0,0,0,0,0,0,0,0,0,0,0,0,0,0,0,0,0,0,0,0,0,0,0,0,0
"Ind54","3_0_6",18,18,18,20,20,20,20,20,20,20,20,20,19,19,19,19,19,19,19,19,19,19,19,19,20,20,20,20,1,1,1,1,2,3,3,3,3,3,3,3,3,2,2,2,2,2,2,0,1,0,0,0,0,-1,0,0,0,0,0,0,0,0,0,0,0,0,0,0,0,0,0,0,0,0,0,0,0,0,0,0,0,0,0,0,0,0,0,0,0,0,0,0,0,0,0,0,0,0,0,0,0,0,0,0,0,0,0,0,0,0,0,0,0,0,0,0,0,0,0,0,0,0,0,0,0,0,0,0,0,0,0,0,0,0,0,0,0,0,0,0,0,0,0,0,0,0,0,0,0,0,0,0,0,0,0
"Ind55","3_0_11",18,18,18,20,20,20,20,20,20,20,20,20,19,19,19,19,19,19,19,19,19,19,19,19,20,20,20,20,1,1,1,1,2,3,3,3,3,3,3,3,3,2,2,2,2,2,2,0,1,0,0,0,0,0,-1,0,0,0,0,0,0,0,0,0,0,0,0,0,0,0,0,0,0,0,0,0,0,0,0,0,0,0,0,0,0,0,0,0,0,0,0,0,0,0,0,0,0,0,0,0,0,0,0,0,0,0,0,0,0,0,0,0,0,0,0,0,0,0,0,0,0,0,0,0,0,0,0,0,0,0,0,0,0,0,0,0,0,0,0,0,0,0,0,0,0,0,0,0,0,0,0,0,0,0,0
"Ind56","3_0_5",18,18,18,20,20,20,20,20,20,20,20,20,19,19,19,19,19,19,19,19,19,19,19,19,20,20,20,20,1,1,1,1,2,3,3,3,3,3,3,3,3,2,2,2,2,2,2,0,1,0,0,0,0,0,0,-1,0,0,0,0,0,0,0,0,0,0,0,0,0,0,0,0,0,0,0,0,0,0,0,0,0,0,0,0,0,0,0,0,0,0,0,0,0,0,0,0,0,0,0,0,0,0,0,0,0,0,0,0,0,0,0,0,0,0,0,0,0,0,0,0,0,0,0,0,0,0,0,0,0,0,0,0,0,0,0,0,0,0,0,0,0,0,0,0,0,0,0,0,0,0,0,0,0,0,0
"Ind57","11_0_0",158,158,158,158,158,158,158,158,158,158,158,158,157,157,155,155,155,155,155,155,155,155,155,155,154,154,154,154,159,159,159,159,160,159,161,161,161,161,161,161,161,160,160,160,160,160,160,160,161,160,160,160,160,160,160,160,-1,0,0,0,0,0,0,0,0,0,0,0,0,0,0,0,0,0,0,0,0,0,0,0,0,0,0,0,0,0,0,0,0,0,0,0,0,0,0,0,0,0,0,0,0,0,0,0,0,0,0,0,0,0,0,0,0,0,0,0,0,0,0,0,0,0,0,0,0,0,0,0,0,0,0,0,0,0,0,0,0,0,0,0,0,0,0,0,0,0,0,0,0,0,0,0,0,0,0
"Ind58","11_0_1",158,158,158,158,158,158,158,158,158,158,158,158,157,157,155,155,155,155,155,155,155,155,155,155,154,154,154,154,159,159,159,159,160,159,161,161,161,161,161,161,161,160,160,160,160,160,160,160,161,160,160,160,160,160,160,160,0,-1,0,0,0,0,0,0,0,0,0,0,0,0,0,0,0,0,0,0,0,0,0,0,0,0,0,0,0,0,0,0,0,0,0,0,0,0,0,0,0,0,0,0,0,0,0,0,0,0,0,0,0,0,0,0,0,0,0,0,0,0,0,0,0,0,0,0,0,0,0,0,0,0,0,0,0,0,0,0,0,0,0,0,0,0,0,0,0,0,0,0,0,0,0,0,0,0,0
"Ind59","11_0_12",158,158,158,158,158,158,158,158,158,158,158,158,157,157,155,155,155,155,155,155,155,155,155,155,154,154,154,154,159,159,159,159,160,159,161,161,161,161,161,161,161,160,160,160,160,160,160,160,161,160,160,160,160,160,160,160,0,0,-1,0,0,0,0,0,0,0,0,0,0,0,0,0,0,0,0,0,0,0,0,0,0,0,0,0,0,0,0,0,0,0,0,0,0,0,0,0,0,0,0,0,0,0,0,0,0,0,0,0,0,0,0,0,0,0,0,0,0,0,0,0,0,0,0,0,0,0,0,0,0,0,0,0,0,0,0,0,0,0,0,0,0,0,0,0,0,0,0,0,0,0,0,0,0,0,0
"Ind60","11_0_8",158,158,158,158,158,158,158,158,158,158,158,158,157,157,155,155,155,155,155,155,155,155,155,155,154,154,154,154,157,157,157,157,158,157,159,159,159,159,159,159,159,158,158,158,158,158,158,158,159,158,158,158,158,158,158,158,2,2,2,-1,0,0,0,0,0,0,0,0,0,0,0,0,0,0,0,0,0,0,0,0,0,0,0,0,0,0,0,0,0,0,0,0,0,0,0,0,0,0,0,0,0,0,0,0,0,0,0,0,0,0,0,0,0,0,0,0,0,0,0,0,0,0,0,0,0,0,0,0,0,0,0,0,0,0,0,0,0,0,0,0,0,0,0,0,0,0,0,0,0,0,0,0,0,0,0
"Ind61","11_0_7",157,157,157,157,157,157,157,157,157,157,157,157,156,156,154,154,154,154,154,154,154,154,154,154,153,153,153,153,158,158,158,158,159,158,160,160,160,160,160,160,160,159,159,159,159,159,159,159,160,159,159,159,159,159,159,159,1,1,1,1,-1,0,0,0,0,0,0,0,0,0,0,0,0,0,0,0,0,0,0,0,0,0,0,0,0,0,0,0,0,0,0,0,0,0,0,0,0,0,0,0,0,0,0,0,0,0,0,0,0,0,0,0,0,0,0,0,0,0,0,0,0,0,0,0,0,0,0,0,0,0,0,0,0,0,0,0,0,0,0,0,0,0,0,0,0,0,0,0,0,0,0,0,0,0,0
"Ind62","11_0_3",157,157,157,157,157,157,157,157,157,157,157,157,156,156,154,154,154,154,154,154,154,154,154,154,153,153,153,153,158,158,158,158,159,158,160,160,160,160,160,160,160,159,159,159,159,159,159,159,160,159,159,159,159,159,159,159,1,1,1,1,0,-1,0,0,0,0,0,0,0,0,0,0,0,0,0,0,0,0,0,0,0,0,0,0,0,0,0,0,0,0,0,0,0,0,0,0,0,0,0,0,0,0,0,0,0,0,0,0,0,0,0,0,0,0,0,0,0,0,0,0,0,0,0,0,0,0,0,0,0,0,0,0,0,0,0,0,0,0,0,0,0,0,0,0,0,0,0,0,0,0,0,0,0,0,0
"Ind63","11_0_4",157,157,157,157,157,157,157,157,157,157,157,157,156,156,154,154,154,154,154,154,154,154,154,154,153,153,153,153,158,158,158,158,159,158,160,160,160,160,160,160,160,159,159,159,159,159,159,159,160,159,159,159,159,159,159,159,1,1,1,1,0,0,-1,0,0,0,0,0,0,0,0,0,0,0,0,0,0,0,0,0,0,0,0,0,0,0,0,0,0,0,0,0,0,0,0,0,0,0,0,0,0,0,0,0,0,0,0,0,0,0,0,0,0,0,0,0,0,0,0,0,0,0,0,0,0,0,0,0,0,0,0,0,0,0,0,0,0,0,0,0,0,0,0,0,0,0,0,0,0,0,0,0,0,0,0
"Ind64","11_0_6",153,153,153,155,155,155,155,155,155,155,155,155,154,154,150,150,150,150,150,150,150,150,150,150,149,149,149,149,154,154,154,154,155,154,156,156,156,156,156,156,156,155,155,155,155,155,155,155,156,155,155,155,155,155,155,155,7,7,7,7,6,6,6,-1,0,0,0,0,0,0,0,0,0,0,0,0,0,0,0,0,0,0,0,0,0,0,0,0,0,0,0,0,0,0,0,0,0,0,0,0,0,0,0,0,0,0,0,0,0,0,0,0,0,0,0,0,0,0,0,0,0,0,0,0,0,0,0,0,0,0,0,0,0,0,0,0,0,0,0,0,0,0,0,0,0,0,0,0,0,0,0,0,0,0,0
"Ind65","11_0_9",153,153,153,155,155,155,155,155,155,155,155,155,154,154,150,150,150,150,150,150,150,150,150,150,149,149,149,149,154,154,154,154,155,154,156,156,156,156,156,156,156,155,155,155,155,155,155,155,156,155,155,155,155,155,155,155,7,7,7,7,6,6,6,0,-1,0,0,0,0,0,0,0,0,0,0,0,0,0,0,0,0,0,0,0,0,0,0,0,0,0,0,0,0,0,0,0,0,0,0,0,0,0,0,0,0,0,0,0,0,0,0,0,0,0,0,0,0,0,0,0,0,0,0,0,0,0,0,0,0,0,0,0,0,0,0,0,0,0,0,0,0,0,0,0,0,0,0,0,0,0,0,0,0,0,0
"Ind66","11_0_13",153,153,153,155,155,155,155,155,155,155,155,155,154,154,150,150,150,150,150,150,150,150,150,150,149,149,149,149,154,154,154,154,155,154,156,156,156,156,156,156,156,155,155,155,155,155,155,155,156,155,155,155,155,155,155,155,7,7,7,7,6,6,6,0,0,-1,0,0,0,0,0,0,0,0,0,0,0,0,0,0,0,0,0,0,0,0,0,0,0,0,0,0,0,0,0,0,0,0,0,0,0,0,0,0,0,0,0,0,0,0,0,0,0,0,0,0,0,0,0,0,0,0,0,0,0,0,0,0,0,0,0,0,0,0,0,0,0,0,0,0,0,0,0,0,0,0,0,0,0,0,0,0,0,0,0
"Ind67","11_0_10",153,153,153,155,155,155,155,155,155,155,155,155,154,154,150,150,150,150,150,150,150,150,150,150,149,149,149,149,154,154,154,154,155,154,156,156,156,156,156,156,156,155,155,155,155,155,155,155,156,155,155,155,155,155,155,155,7,7,7,7,6,6,6,0,0,0,-1,0,0,0,0,0,0,0,0,0,0,0,0,0,0,0,0,0,0,0,0,0,0,0,0,0,0,0,0,0,0,0,0,0,0,0,0,0,0,0,0,0,0,0,0,0,0,0,0,0,0,0,0,0,0,0,0,0,0,0,0,0,0,0,0,0,0,0,0,0,0,0,0,0,0,0,0,0,0,0,0,0,0,0,0,0,0,0,0
"Ind68","11_0_5",153,153,153,155,155,155,155,155,155,155,155,155,154,154,150,150,150,150,150,150,150,150,150,150,149,149,149,149,154,154,154,154,155,154,156,156,156,156,156,156,156,155,155,155,155,155,155,155,156,155,155,155,155,155,155,155,7,7,7,7,6,6,6,0,0,0,0,-1,0,0,0,0,0,0,0,0,0,0,0,0,0,0,0,0,0,0,0,0,0,0,0,0,0,0,0,0,0,0,0,0,0,0,0,0,0,0,0,0,0,0,0,0,0,0,0,0,0,0,0,0,0,0,0,0,0,0,0,0,0,0,0,0,0,0,0,0,0,0,0,0,0,0,0,0,0,0,0,0,0,0,0,0,0,0,0
"Ind69","11_0_11",155,155,155,157,157,157,157,157,157,157,157,157,156,156,152,152,152,152,152,152,152,152,152,152,151,151,151,151,156,156,156,156,157,156,158,158,158,158,158,158,158,157,157,157,157,157,157,157,158,157,157,157,157,157,157,157,9,9,9,9,8,8,8,2,2,2,2,2,-1,0,0,0,0,0,0,0,0,0,0,0,0,0,0,0,0,0,0,0,0,0,0,0,0,0,0,0,0,0,0,0,0,0,0,0,0,0,0,0,0,0,0,0,0,0,0,0,0,0,0,0,0,0,0,0,0,0,0,0,0,0,0,0,0,0,0,0,0,0,0,0,0,0,0,0,0,0,0,0,0,0,0,0,0,0,0
"Ind70","11_0_2",155,155,155,157,157,157,157,157,157,157,157,157,156,156,152,152,152,152,152,152,152,152,152,152,151,151,151,151,156,156,156,156,157,156,158,158,158,158,158,158,158,157,157,157,157,157,157,157,158,157,157,157,157,157,157,157,9,9,9,9,8,8,8,2,2,2,2,2,0,-1,0,0,0,0,0,0,0,0,0,0,0,0,0,0,0,0,0,0,0,0,0,0,0,0,0,0,0,0,0,0,0,0,0,0,0,0,0,0,0,0,0,0,0,0,0,0,0,0,0,0,0,0,0,0,0,0,0,0,0,0,0,0,0,0,0,0,0,0,0,0,0,0,0,0,0,0,0,0,0,0,0,0,0,0,0
"Ind71","8_0_2",158,158,158,160,160,160,160,160,160,160,160,160,159,159,155,155,155,155,155,155,155,155,155,155,154,154,154,154,157,157,157,157,156,157,159,159,159,159,159,159,159,158,158,158,158,158,158,158,159,158,158,158,158,158,158,158,23,23,23,23,22,22,22,20,20,20,20,20,22,22,-1,0,0,0,0,0,0,0,0,0,0,0,0,0,0,0,0,0,0,0,0,0,0,0,0,0,0,0,0,0,0,0,0,0,0,0,0,0,0,0,0,0,0,0,0,0,0,0,0,0,0,0,0,0,0,0,0,0,0,0,0,0,0,0,0,0,0,0,0,0,0,0,0,0,0,0,0,0,0,0,0,0,0,0,0
"Ind72","8_0_5",158,158,158,160,160,160,160,160,160,160,160,160,159,159,155,155,155,155,155,155,155,155,155,155,154,154,154,154,157,157,157,157,156,157,159,159,159,159,159,159,159,158,158,158,158,158,158,158,159,158,158,158,158,158,158,158,23,23,23,23,22,22,22,20,20,20,20,20,22,22,0,-1,0,0,0,0,0,0,0,0,0,0,0,0,0,0,0,0,0,0,0,0,0,0,0,0,0,0,0,0,0,0,0,0,0,0,0,0,0,0,0,0,0,0,0,0,0,0,0,0,0,0,0,0,0,0,0,0,0,0,0,0,0,0,0,0,0,0,0,0,0,0,0,0,0,0,0,0,0,0,0,0,0,0,0
"Ind73","8_0_12",158,158,158,160,160,160,160,160,160,160,160,160,159,159,155,155,155,155,155,155,155,155,155,155,154,154,154,154,157,157,157,157,156,157,159,159,159,159,159,159,159,158,158,158,158,158,158,158,159,158,158,158,158,158,158,158,23,23,23,23,22,22,22,20,20,20,20,20,22,22,0,0,-1,0,0,0,0,0,0,0,0,0,0,0,0,0,0,0,0,0,0,0,0,0,0,0,0,0,0,0,0,0,0,0,0,0,0,0,0,0,0,0,0,0,0,0,0,0,0,0,0,0,0,0,0,0,0,0,0,0,0,0,0,0,0,0,0,0,0,0,0,0,0,0,0,0,0,0,0,0,0,0,0,0,0
"Ind74","8_0_7",157,157,157,159,159,159,159,159,159,159,159,159,158,158,154,154,154,154,154,154,154,154,154,154,153,155,155,155,156,156,156,156,155,156,158,158,158,158,158,158,158,157,157,157,157,157,157,157,158,157,157,157,157,157,157,157,24,24,24,24,23,23,23,21,21,21,21,21,23,23,1,1,1,-1,0,0,0,0,0,0,0,0,0,0,0,0,0,0,0,0,0,0,0,0,0,0,0,0,0,0,0,0,0,0,0,0,0,0,0,0,0,0,0,0,0,0,0,0,0,0,0,0,0,0,0,0,0,0,0,0,0,0,0,0,0,0,0,0,0,0,0,0,0,0,0,0,0,0,0,0,0,0,0,0,0
"Ind75","8_0_0",157,157,157,159,159,159,159,159,159,159,159,159,158,158,154,154,154,154,154,154,154,154,154,154,153,153,153,153,156,156,156,156,155,156,158,158,158,158,158,158,158,157,157,157,157,157,157,157,158,157,157,157,157,157,157,157,24,24,24,24,23,23,23,21,21,21,21,21,23,23,1,1,1,2,-1,0,0,0,0,0,0,0,0,0,0,0,0,0,0,0,0,0,0,0,0,0,0,0,0,0,0,0,0,0,0,0,0,0,0,0,0,0,0,0,0,0,0,0,0,0,0,0,0,0,0,0,0,0,0,0,0,0,0,0,0,0,0,0,0,0,0,0,0,0,0,0,0,0,0,0,0,0,0,0,0
"Ind76","8_0_6",159,159,159,161,161,161,161,161,161,161,161,161,160,160,156,156,156,156,156,156,156,156,156,156,155,155,155,155,158,158,158,158,157,158,160,160,160,160,160,160,160,159,159,159,159,159,159,159,160,159,159,159,159,159,159,159,24,24,24,24,23,23,23,21,21,21,21,21,23,23,1,1,1,2,2,-1,0,0,0,0,0,0,0,0,0,0,0,0,0,0,0,0,0,0,0,0,0,0,0,0,0,0,0,0,0,0,0,0,0,0,0,0,0,0,0,0,0,0,0,0,0,0,0,0,0,0,0,0,0,0,0,0,0,0,0,0,0,0,0,0,0,0,0,0,0,0,0,0,0,0,0,0,0,0,0
"Ind77","8_0_13",159,159,159,161,161,161,161,161,161,161,161,161,160,160,156,156,156,156,156,156,156,156,156,156,155,155,155,155,158,158,158,158,157,158,160,160,160,160,160,160,160,159,159,159,159,159,159,159,160,159,159,159,159,159,159,159,24,24,24,24,23,23,23,21,21,21,21,21,23,23,1,1,1,2,2,2,-1,0,0,0,0,0,0,0,0,0,0,0,0,0,0,0,0,0,0,0,0,0,0,0,0,0,0,0,0,0,0,0,0,0,0,0,0,0,0,0,0,0,0,0,0,0,0,0,0,0,0,0,0,0,0,0,0,0,0,0,0,0,0,0,0,0,0,0,0,0,0,0,0,0,0,0,0,0,0
"Ind78","8_0_1",159,159,159,161,161,161,161,161,161,161,161,161,160,160,156,156,156,156,156,156,156,156,156,156,155,155,155,155,158,158,158,158,157,158,160,160,160,160,160,160,160,159,159,159,159,159,159,159,160,159,159,159,159,159,159,159,24,24,24,24,23,23,23,21,21,21,21,21,23,23,1,1,1,2,2,2,0,-1,0,0,0,0,0,0,0,0,0,0,0,0,0,0,0,0,0,0,0,0,0,0,0,0,0,0,0,0,0,0,0,0,0,0,0,0,0,0,0,0,0,0,0,0,0,0,0,0,0,0,0,0,0,0,0,0,0,0,0,0,0,0,0,0,0,0,0,0,0,0,0,0,0,0,0,0,0
"Ind79","8_0_10",157,157,157,159,159,159,159,159,159,159,159,159,158,158,154,154,154,154,154,154,154,154,154,154,153,153,153,153,156,156,156,156,155,156,158,158,158,158,158,158,158,157,157,157,157,157,157,157,158,157,157,157,157,157,157,157,24,24,24,24,23,23,23,21,21,21,21,21,23,23,1,1,1,2,2,2,2,2,-1,0,0,0,0,0,0,0,0,0,0,0,0,0,0,0,0,0,0,0,0,0,0,0,0,0,0,0,0,0,0,0,0,0,0,0,0,0,0,0,0,0,0,0,0,0,0,0,0,0,0,0,0,0,0,0,0,0,0,0,0,0,0,0,0,0,0,0,0,0,0,0,0,0,0,0,0
"Ind80","8_0_4",158,158,158,160,160,160,160,160,160,160,160,160,159,159,155,155,155,155,155,155,155,155,155,155,154,154,154,154,157,157,157,157,156,157,159,159,159,159,159,159,159,158,158,158,158,158,158,158,159,158,158,158,158,158,158,158,23,23,23,23,22,22,22,20,20,20,20,20,22,22,0,0,0,1,1,1,1,1,1,-1,0,0,0,0,0,0,0,0,0,0,0,0,0,0,0,0,0,0,0,0,0,0,0,0,0,0,0,0,0,0,0,0,0,0,0,0,0,0,0,0,0,0,0,0,0,0,0,0,0,0,0,0,0,0,0,0,0,0,0,0,0,0,0,0,0,0,0,0,0,0,0,0,0,0,0
"Ind81","8_0_9",159,159,159,161,161,161,161,161,161,161,161,161,160,160,156,156,156,156,156,156,156,156,156,156,155,155,155,155,158,158,158,158,157,158,160,160,160,160,160,160,160,159,159,159,159,159,159,159,160,159,159,159,159,159,159,159,24,24,24,24,23,23,23,21,21,21,21,21,23,23,1,1,1,2,2,2,2,2,2,1,-1,0,0,0,0,0,0,0,0,0,0,0,0,0,0,0,0,0,0,0,0,0,0,0,0,0,0,0,0,0,0,0,0,0,0,0,0,0,0,0,0,0,0,0,0,0,0,0,0,0,0,0,0,0,0,0,0,0,0,0,0,0,0,0,0,0,0,0,0,0,0,0,0,0,0
"Ind82","8_0_3",159,159,159,161,161,161,161,161,161,161,161,161,160,160,156,156,156,156,156,156,156,156,156,156,155,155,155,155,158,158,158,158,157,158,160,160,160,160,160,160,160,159,159,159,159,159,159,159,160,159,159,159,159,159,159,159,24,24,24,24,23,23,23,21,21,21,21,21,23,23,1,1,1,2,2,2,2,2,2,1,0,-1,0,0,0,0,0,0,0,0,0,0,0,0,0,0,0,0,0,0,0,0,0,0,0,0,0,0,0,0,0,0,0,0,0,0,0,0,0,0,0,0,0,0,0,0,0,0,0,0,0,0,0,0,0,0,0,0,0,0,0,0,0,0,0,0,0,0,0,0,0,0,0,0,0
"Ind83","8_0_11",159,159,159,161,161,161,161,161,161,161,161,161,160,160,156,156,156,156,156,156,156,156,156,156,155,155,155,155,158,158,158,158,157,158,160,160,160,160,160,160,160,159,159,159,159,159,159,159,160,159,159,159,159,159,159,159,24,24,24,24,23,23,23,21,21,21,21,21,23,23,1,1,1,2,2,2,2,2,2,1,0,0,-1,0,0,0,0,0,0,0,0,0,0,0,0,0,0,0,0,0,0,0,0,0,0,0,0,0,0,0,0,0,0,0,0,0,0,0,0,0,0,0,0,0,0,0,0,0,0,0,0,0,0,0,0,0,0,0,0,0,0,0,0,0,0,0,0,0,0,0,0,0,0,0,0
"Ind84","8_0_8",159,159,159,161,161,161,161,161,161,161,161,161,160,160,156,156,156,156,156,156,156,156,156,156,155,155,155,155,158,158,158,158,157,158,160,160,160,160,160,160,160,159,159,159,159,159,159,159,160,159,159,159,159,159,159,159,24,24,24,24,23,23,23,21,21,21,21,21,23,23,1,1,1,2,2,2,2,2,2,1,0,0,0,-1,0,0,0,0,0,0,0,0,0,0,0,0,0,0,0,0,0,0,0,0,0,0,0,0,0,0,0,0,0,0,0,0,0,0,0,0,0,0,0,0,0,0,0,0,0,0,0,0,0,0,0,0,0,0,0,0,0,0,0,0,0,0,0,0,0,0,0,0,0,0,0
"Ind85","6_0_3",154,154,154,152,152,152,152,152,152,152,152,152,153,153,153,153,153,153,153,153,153,153,153,153,152,154,154,154,152,152,152,152,153,152,152,152,152,152,152,152,152,151,153,153,153,153,153,153,154,153,153,153,153,153,153,153,74,74,74,74,73,73,73,73,73,73,73,73,75,75,71,71,71,70,72,72,70,70,70,71,72,72,72,72,-1,0,0,0,0,0,0,0,0,0,0,0,0,0,0,0,0,0,0,0,0,0,0,0,0,0,0,0,0,0,0,0,0,0,0,0,0,0,0,0,0,0,0,0,0,0,0,0,0,0,0,0,0,0,0,0,0,0,0,0,0,0,0,0,0,0,0,0,0,0,0
"Ind86","6_0_2",154,154,154,152,152,152,152,152,152,152,152,152,153,153,153,153,153,153,153,153,153,153,153,153,152,154,154,154,152,152,152,152,153,152,152,152,152,152,152,152,152,151,153,153,153,153,153,153,154,153,153,153,153,153,153,153,74,74,74,74,73,73,73,73,73,73,73,73,75,75,71,71,71,70,72,72,70,70,70,71,72,72,72,72,0,-1,0,0,0,0,0,0,0,0,0,0,0,0,0,0,0,0,0,0,0,0,0,0,0,0,0,0,0,0,0,0,0,0,0,0,0,0,0,0,0,0,0,0,0,0,0,0,0,0,0,0,0,0,0,0,0,0,0,0,0,0,0,0,0,0,0,0,0,0,0
"Ind87","6_0_11",154,154,154,152,152,152,152,152,152,152,152,152,153,153,153,153,153,153,153,153,153,153,153,153,152,154,154,154,152,152,152,152,153,152,152,152,152,152,152,152,152,151,153,153,153,153,153,153,154,153,153,153,153,153,153,153,74,74,74,74,73,73,73,73,73,73,73,73,75,75,71,71,71,70,72,72,70,70,70,71,72,72,72,72,0,0,-1,0,0,0,0,0,0,0,0,0,0,0,0,0,0,0,0,0,0,0,0,0,0,0,0,0,0,0,0,0,0,0,0,0,0,0,0,0,0,0,0,0,0,0,0,0,0,0,0,0,0,0,0,0,0,0,0,0,0,0,0,0,0,0,0,0,0,0,0
"Ind88","6_0_5",152,152,152,152,152,152,152,152,152,152,152,152,153,153,151,151,151,151,151,151,151,151,151,151,150,152,152,152,152,152,152,152,153,152,152,152,152,152,152,152,152,151,153,153,153,153,153,153,154,153,153,153,153,153,153,153,70,70,70,70,69,69,69,67,67,67,67,67,69,69,69,69,69,68,70,70,68,68,68,69,70,70,70,70,6,6,6,-1,0,0,0,0,0,0,0,0,0,0,0,0,0,0,0,0,0,0,0,0,0,0,0,0,0,0,0,0,0,0,0,0,0,0,0,0,0,0,0,0,0,0,0,0,0,0,0,0,0,0,0,0,0,0,0,0,0,0,0,0,0,0,0,0,0,0,0
"Ind89","5_0_5",154,154,154,154,154,154,154,154,154,154,154,154,155,155,153,153,153,153,153,153,153,153,153,153,152,154,154,154,152,152,152,152,153,152,152,152,152,152,152,152,152,151,153,153,153,153,153,153,154,153,153,153,153,153,153,153,74,74,74,74,73,73,73,71,71,71,71,71,73,73,71,71,71,70,72,72,70,70,70,71,72,72,72,72,12,12,12,10,-1,0,0,0,0,0,0,0,0,0,0,0,0,0,0,0,0,0,0,0,0,0,0,0,0,0,0,0,0,0,0,0,0,0,0,0,0,0,0,0,0,0,0,0,0,0,0,0,0,0,0,0,0,0,0,0,0,0,0,0,0,0,0,0,0,0,0
"Ind90","5_0_0",153,153,153,153,153,153,153,153,153,153,153,153,154,154,152,152,152,152,152,152,152,152,152,152,151,153,153,153,151,151,151,151,152,151,151,151,151,151,151,151,151,150,152,152,152,152,152,152,153,152,152,152,152,152,152,152,75,75,75,75,74,74,74,72,72,72,72,72,74,74,72,72,72,71,73,73,71,71,71,72,73,73,73,73,13,13,13,11,1,-1,0,0,0,0,0,0,0,0,0,0,0,0,0,0,0,0,0,0,0,0,0,0,0,0,0,0,0,0,0,0,0,0,0,0,0,0,0,0,0,0,0,0,0,0,0,0,0,0,0,0,0,0,0,0,0,0,0,0,0,0,0,0,0,0,0
"Ind91","5_0_11",153,153,153,153,153,153,153,153,153,153,153,153,154,154,152,152,152,152,152,152,152,152,152,152,151,153,153,153,151,151,151,151,152,151,151,151,151,151,151,151,151,150,152,152,152,152,152,152,153,152,152,152,152,152,152,152,75,75,75,75,74,74,74,72,72,72,72,72,74,74,72,72,72,71,73,73,71,71,71,72,73,73,73,73,13,13,13,11,1,2,-1,0,0,0,0,0,0,0,0,0,0,0,0,0,0,0,0,0,0,0,0,0,0,0,0,0,0,0,0,0,0,0,0,0,0,0,0,0,0,0,0,0,0,0,0,0,0,0,0,0,0,0,0,0,0,0,0,0,0,0,0,0,0,0,0
"Ind92","5_0_12",154,154,154,154,154,154,154,154,154,154,154,154,155,155,153,153,153,153,153,153,153,153,153,153,152,154,154,154,152,152,152,152,153,152,152,152,152,152,152,152,152,151,153,153,153,153,153,153,154,153,153,153,153,153,153,153,74,74,74,74,73,73,73,71,71,71,71,71,73,73,71,71,71,70,72,72,70,70,70,71,72,72,72,72,12,12,12,10,0,1,1,-1,0,0,0,0,0,0,0,0,0,0,0,0,0,0,0,0,0,0,0,0,0,0,0,0,0,0,0,0,0,0,0,0,0,0,0,0,0,0,0,0,0,0,0,0,0,0,0,0,0,0,0,0,0,0,0,0,0,0,0,0,0,0,0
"Ind93","5_0_2",154,154,154,154,154,154,154,154,154,154,154,154,155,155,153,153,153,153,153,153,153,153,153,153,152,154,154,154,152,152,152,152,153,152,152,152,152,152,152,152,152,151,153,153,153,153,153,153,154,153,153,153,153,153,153,153,74,74,74,74,73,73,73,71,71,71,71,71,73,73,71,71,71,70,72,72,70,70,70,71,72,72,72,72,12,12,12,10,0,1,1,0,-1,0,0,0,0,0,0,0,0,0,0,0,0,0,0,0,0,0,0,0,0,0,0,0,0,0,0,0,0,0,0,0,0,0,0,0,0,0,0,0,0,0,0,0,0,0,0,0,0,0,0,0,0,0,0,0,0,0,0,0,0,0,0
"Ind94","5_0_1",154,154,154,154,154,154,154,154,154,154,154,154,155,155,153,153,153,153,153,153,153,153,153,153,152,154,154,154,152,152,152,152,153,152,152,152,152,152,152,152,152,151,153,153,153,153,153,153,154,153,153,153,153,153,153,153,74,74,74,74,73,73,73,71,71,71,71,71,73,73,71,71,71,70,72,72,70,70,70,71,72,72,72,72,12,12,12,10,0,1,1,0,0,-1,0,0,0,0,0,0,0,0,0,0,0,0,0,0,0,0,0,0,0,0,0,0,0,0,0,0,0,0,0,0,0,0,0,0,0,0,0,0,0,0,0,0,0,0,0,0,0,0,0,0,0,0,0,0,0,0,0,0,0,0,0
"Ind95","5_0_4",154,154,154,154,154,154,154,154,154,154,154,154,155,155,153,153,153,153,153,153,153,153,153,153,152,154,154,154,152,152,152,152,153,152,152,152,152,152,152,152,152,151,153,153,153,153,153,153,154,153,153,153,153,153,153,153,74,74,74,74,73,73,73,71,71,71,71,71,73,73,71,71,71,70,72,72,70,70,70,71,72,72,72,72,12,12,12,10,0,1,1,0,0,0,-1,0,0,0,0,0,0,0,0,0,0,0,0,0,0,0,0,0,0,0,0,0,0,0,0,0,0,0,0,0,0,0,0,0,0,0,0,0,0,0,0,0,0,0,0,0,0,0,0,0,0,0,0,0,0,0,0,0,0,0,0
"Ind96","5_0_7",153,153,153,153,153,153,153,153,153,153,153,153,154,154,152,152,152,152,152,152,152,152,152,152,151,153,153,153,151,151,151,151,152,151,151,151,151,151,151,151,151,150,152,152,152,152,152,152,153,152,152,152,152,152,152,152,75,75,75,75,74,74,74,72,72,72,72,72,74,74,72,72,72,71,73,73,71,71,71,72,73,73,73,73,13,13,13,11,1,2,2,1,1,1,1,-1,0,0,0,0,0,0,0,0,0,0,0,0,0,0,0,0,0,0,0,0,0,0,0,0,0,0,0,0,0,0,0,0,0,0,0,0,0,0,0,0,0,0,0,0,0,0,0,0,0,0,0,0,0,0,0,0,0,0,0
"Ind97","5_0_3",153,153,153,153,153,153,153,153,153,153,153,153,154,154,152,152,152,152,152,152,152,152,152,152,151,153,153,153,151,151,151,151,152,151,151,151,151,151,151,151,151,150,152,152,152,152,152,152,153,152,152,152,152,152,152,152,75,75,75,75,74,74,74,72,72,72,72,72,74,74,72,72,72,71,73,73,71,71,71,72,73,73,73,73,13,13,13,11,1,2,2,1,1,1,1,0,-1,0,0,0,0,0,0,0,0,0,0,0,0,0,0,0,0,0,0,0,0,0,0,0,0,0,0,0,0,0,0,0,0,0,0,0,0,0,0,0,0,0,0,0,0,0,0,0,0,0,0,0,0,0,0,0,0,0,0
"Ind98","5_0_10",154,154,154,154,154,154,154,154,154,154,154,154,155,155,153,153,153,153,153,153,153,153,153,153,152,154,154,154,152,152,152,152,153,152,152,152,152,152,152,152,152,151,153,153,153,153,153,153,154,153,153,153,153,153,153,153,74,74,74,74,73,73,73,71,71,71,71,71,73,73,71,71,71,70,72,72,70,70,70,71,72,72,72,72,12,12,12,10,0,1,1,0,0,0,0,1,1,-1,0,0,0,0,0,0,0,0,0,0,0,0,0,0,0,0,0,0,0,0,0,0,0,0,0,0,0,0,0,0,0,0,0,0,0,0,0,0,0,0,0,0,0,0,0,0,0,0,0,0,0,0,0,0,0,0,0
"Ind99","5_0_8",154,154,154,154,154,154,154,154,154,154,154,154,155,155,153,153,153,153,153,153,153,153,153,153,152,154,154,154,152,152,152,152,153,152,152,152,152,152,152,152,152,151,153,153,153,153,153,153,154,153,153,153,153,153,153,153,74,74,74,74,73,73,73,71,71,71,71,71,73,73,71,71,71,70,72,72,70,70,70,71,72,72,72,72,12,12,12,10,0,1,1,0,0,0,0,1,1,0,-1,0,0,0,0,0,0,0,0,0,0,0,0,0,0,0,0,0,0,0,0,0,0,0,0,0,0,0,0,0,0,0,0,0,0,0,0,0,0,0,0,0,0,0,0,0,0,0,0,0,0,0,0,0,0,0,0
"Ind100","5_0_13",154,154,154,154,154,154,154,154,154,154,154,154,155,155,153,153,153,153,153,153,153,153,153,153,152,154,154,154,152,152,152,152,153,152,152,152,152,152,152,152,152,151,153,153,153,153,153,153,154,153,153,153,153,153,153,153,74,74,74,74,73,73,73,71,71,71,71,71,73,73,71,71,71,70,72,72,70,70,70,71,72,72,72,72,12,12,12,10,0,1,1,0,0,0,0,1,1,0,0,-1,0,0,0,0,0,0,0,0,0,0,0,0,0,0,0,0,0,0,0,0,0,0,0,0,0,0,0,0,0,0,0,0,0,0,0,0,0,0,0,0,0,0,0,0,0,0,0,0,0,0,0,0,0,0,0
"Ind101","5_0_9",154,154,154,154,154,154,154,154,154,154,154,154,155,155,153,153,153,153,153,153,153,153,153,153,152,154,154,154,152,152,152,152,153,152,152,152,152,152,152,152,152,151,153,153,153,153,153,153,154,153,153,153,153,153,153,153,74,74,74,74,73,73,73,71,71,71,71,71,73,73,71,71,71,70,72,72,70,70,70,71,72,72,72,72,12,12,12,10,0,1,1,0,0,0,0,1,1,0,0,0,-1,0,0,0,0,0,0,0,0,0,0,0,0,0,0,0,0,0,0,0,0,0,0,0,0,0,0,0,0,0,0,0,0,0,0,0,0,0,0,0,0,0,0,0,0,0,0,0,0,0,0,0,0,0,0
"Ind102","5_0_6",157,157,157,157,157,157,157,157,157,157,157,157,158,158,156,156,156,156,156,156,156,156,156,156,155,157,157,157,155,155,155,155,156,155,155,155,155,155,155,155,155,154,156,156,156,156,156,156,157,156,156,156,156,156,156,156,71,71,71,71,70,70,70,68,68,68,68,68,70,70,68,68,68,67,69,69,67,67,67,68,69,69,69,69,9,9,9,7,5,6,6,5,5,5,5,6,6,5,5,5,5,-1,0,0,0,0,0,0,0,0,0,0,0,0,0,0,0,0,0,0,0,0,0,0,0,0,0,0,0,0,0,0,0,0,0,0,0,0,0,0,0,0,0,0,0,0,0,0,0,0,0,0,0,0,0
"Ind103","6_0_0",157,157,157,157,157,157,157,157,157,157,157,157,158,158,156,156,156,156,156,156,156,156,156,156,155,157,157,157,155,155,155,155,156,155,155,155,155,155,155,155,155,154,156,156,156,156,156,156,157,156,156,156,156,156,156,156,69,69,69,69,68,68,68,66,66,66,66,66,68,68,66,66,66,65,67,67,65,65,65,66,67,67,67,67,9,9,9,7,7,8,8,7,7,7,7,8,8,7,7,7,7,4,-1,0,0,0,0,0,0,0,0,0,0,0,0,0,0,0,0,0,0,0,0,0,0,0,0,0,0,0,0,0,0,0,0,0,0,0,0,0,0,0,0,0,0,0,0,0,0,0,0,0,0,0,0
"Ind104","6_0_7",157,157,157,157,157,157,157,157,157,157,157,157,158,158,156,156,156,156,156,156,156,156,156,156,155,157,157,157,155,155,155,155,156,155,155,155,155,155,155,155,155,154,156,156,156,156,156,156,157,156,156,156,156,156,156,156,69,69,69,69,68,68,68,66,66,66,66,66,68,68,66,66,66,65,67,67,65,65,65,66,67,67,67,67,9,9,9,7,7,8,8,7,7,7,7,8,8,7,7,7,7,4,0,-1,0,0,0,0,0,0,0,0,0,0,0,0,0,0,0,0,0,0,0,0,0,0,0,0,0,0,0,0,0,0,0,0,0,0,0,0,0,0,0,0,0,0,0,0,0,0,0,0,0,0,0
"Ind105","6_0_4",159,159,159,159,159,159,159,159,159,159,159,159,160,160,158,158,158,158,158,158,158,158,158,158,157,159,159,159,157,157,157,157,158,157,157,157,157,157,157,157,157,156,158,158,158,158,158,158,159,158,158,158,158,158,158,158,69,69,69,69,68,68,68,66,66,66,66,66,68,68,66,66,66,65,67,67,65,65,65,66,67,67,67,67,11,11,11,9,9,10,10,9,9,9,9,10,10,9,9,9,9,6,2,2,-1,0,0,0,0,0,0,0,0,0,0,0,0,0,0,0,0,0,0,0,0,0,0,0,0,0,0,0,0,0,0,0,0,0,0,0,0,0,0,0,0,0,0,0,0,0,0,0,0,0,0
"Ind106","6_0_12",162,162,162,160,160,160,160,160,160,160,160,160,161,161,161,161,161,161,161,161,161,161,161,161,160,162,162,162,160,160,160,160,161,160,160,160,160,160,160,160,160,159,161,161,161,161,161,161,162,161,161,161,161,161,161,161,70,70,70,70,69,69,69,71,71,71,71,71,73,73,71,71,71,70,72,72,70,70,70,71,72,72,72,72,10,10,10,10,10,11,11,10,10,10,10,11,11,10,10,10,10,7,5,5,7,-1,0,0,0,0,0,0,0,0,0,0,0,0,0,0,0,0,0,0,0,0,0,0,0,0,0,0,0,0,0,0,0,0,0,0,0,0,0,0,0,0,0,0,0,0,0,0,0,0,0
"Ind107","6_0_13",156,156,156,156,156,156,156,156,156,156,156,156,157,157,155,155,155,155,155,155,155,155,155,155,154,156,156,156,154,154,154,154,155,154,154,154,154,154,154,154,154,153,155,155,155,155,155,155,156,155,155,155,155,155,155,155,70,70,70,70,69,69,69,67,67,67,67,67,69,69,67,67,67,66,68,68,66,66,66,67,68,68,68,68,8,8,8,6,6,7,7,6,6,6,6,7,7,6,6,6,6,3,3,3,5,6,-1,0,0,0,0,0,0,0,0,0,0,0,0,0,0,0,0,0,0,0,0,0,0,0,0,0,0,0,0,0,0,0,0,0,0,0,0,0,0,0,0,0,0,0,0,0,0,0,0
"Ind108","6_0_8",156,156,156,156,156,156,156,156,156,156,156,156,157,157,155,155,155,155,155,155,155,155,155,155,154,156,156,156,154,154,154,154,155,154,154,154,154,154,154,154,154,153,155,155,155,155,155,155,156,155,155,155,155,155,155,155,70,70,70,70,69,69,69,67,67,67,67,67,69,69,67,67,67,66,68,68,66,66,66,67,68,68,68,68,8,8,8,6,6,7,7,6,6,6,6,7,7,6,6,6,6,3,3,3,5,6,0,-1,0,0,0,0,0,0,0,0,0,0,0,0,0,0,0,0,0,0,0,0,0,0,0,0,0,0,0,0,0,0,0,0,0,0,0,0,0,0,0,0,0,0,0,0,0,0,0
"Ind109","6_0_6",156,156,156,156,156,156,156,156,156,156,156,156,157,157,155,155,155,155,155,155,155,155,155,155,154,156,156,156,154,154,154,154,155,154,154,154,154,154,154,154,154,153,155,155,155,155,155,155,156,155,155,155,155,155,155,155,70,70,70,70,69,69,69,67,67,67,67,67,69,69,67,67,67,66,68,68,66,66,66,67,68,68,68,68,8,8,8,6,6,7,7,6,6,6,6,7,7,6,6,6,6,3,3,3,5,6,0,0,-1,0,0,0,0,0,0,0,0,0,0,0,0,0,0,0,0,0,0,0,0,0,0,0,0,0,0,0,0,0,0,0,0,0,0,0,0,0,0,0,0,0,0,0,0,0,0
"Ind110","6_0_9",158,158,158,158,158,158,158,158,158,158,158,158,159,159,157,157,157,157,157,157,157,157,157,157,156,158,158,158,156,156,156,156,157,156,156,156,156,156,156,156,156,155,157,157,157,157,157,157,156,157,157,157,157,157,157,157,72,72,72,72,71,71,71,69,69,69,69,69,71,71,69,69,69,68,70,70,68,68,68,69,70,70,70,70,10,10,10,8,8,9,9,8,8,8,8,9,9,8,8,8,8,5,5,5,7,8,2,2,2,-1,0,0,0,0,0,0,0,0,0,0,0,0,0,0,0,0,0,0,0,0,0,0,0,0,0,0,0,0,0,0,0,0,0,0,0,0,0,0,0,0,0,0,0,0,0
"Ind111","6_0_10",156,156,156,156,156,156,156,156,156,156,156,156,157,157,155,155,155,155,155,155,155,155,155,155,154,156,156,156,154,154,154,154,155,154,154,154,154,154,154,154,154,153,155,155,155,155,155,155,156,155,155,155,155,155,155,155,70,70,70,70,69,69,69,67,67,67,67,67,69,69,67,67,67,66,68,68,66,66,66,67,68,68,68,68,8,8,8,6,6,7,7,6,6,6,6,7,7,6,6,6,6,3,3,3,5,6,0,0,0,2,-1,0,0,0,0,0,0,0,0,0,0,0,0,0,0,0,0,0,0,0,0,0,0,0,0,0,0,0,0,0,0,0,0,0,0,0,0,0,0,0,0,0,0,0,0
"Ind112","6_0_1",156,156,156,156,156,156,156,156,156,156,156,156,157,157,155,155,155,155,155,155,155,155,155,155,154,156,156,156,154,154,154,154,155,154,154,154,154,154,154,154,154,153,155,155,155,155,155,155,156,155,155,155,155,155,155,155,70,70,70,70,69,69,69,67,67,67,67,67,69,69,67,67,67,66,68,68,66,66,66,67,68,68,68,68,8,8,8,6,6,7,7,6,6,6,6,7,7,6,6,6,6,3,3,3,5,6,0,0,0,2,0,-1,0,0,0,0,0,0,0,0,0,0,0,0,0,0,0,0,0,0,0,0,0,0,0,0,0,0,0,0,0,0,0,0,0,0,0,0,0,0,0,0,0,0,0
"Ind113","9_0_4",155,155,155,155,155,155,155,155,155,155,155,155,156,156,154,154,154,154,154,154,154,154,154,154,153,155,155,155,155,155,155,155,156,155,155,155,155,155,155,155,155,154,156,156,156,156,156,156,157,156,156,156,156,156,156,156,71,71,71,71,70,70,70,68,68,68,68,68,70,70,68,68,68,67,69,69,67,67,67,68,69,69,69,69,11,11,11,9,9,10,10,9,9,9,9,10,10,9,9,9,9,6,6,6,8,9,3,3,3,5,3,3,-1,0,0,0,0,0,0,0,0,0,0,0,0,0,0,0,0,0,0,0,0,0,0,0,0,0,0,0,0,0,0,0,0,0,0,0,0,0,0,0,0,0,0
"Ind114","9_0_10",155,155,155,155,155,155,155,155,155,155,155,155,156,156,154,154,154,154,154,154,154,154,154,154,153,155,155,155,155,155,155,155,156,155,155,155,155,155,155,155,155,154,156,156,156,156,156,156,157,156,156,156,156,156,156,156,71,71,71,71,70,70,70,68,68,68,68,68,70,70,68,68,68,67,69,69,67,67,67,68,69,69,69,69,11,11,11,9,9,10,10,9,9,9,9,10,10,9,9,9,9,6,6,6,8,9,3,3,3,5,3,3,0,-1,0,0,0,0,0,0,0,0,0,0,0,0,0,0,0,0,0,0,0,0,0,0,0,0,0,0,0,0,0,0,0,0,0,0,0,0,0,0,0,0,0
"Ind115","9_0_5",156,156,156,156,156,156,156,156,156,156,156,156,157,157,155,155,155,155,155,155,155,155,155,155,154,156,156,156,154,154,154,154,155,154,154,154,154,154,154,154,154,153,155,155,155,155,155,155,156,155,155,155,155,155,155,155,70,70,70,70,69,69,69,67,67,67,67,67,69,69,67,67,67,66,68,68,66,66,66,67,68,68,68,68,10,10,10,8,8,9,9,8,8,8,8,9,9,8,8,8,8,5,5,5,7,8,2,2,2,4,2,2,1,1,-1,0,0,0,0,0,0,0,0,0,0,0,0,0,0,0,0,0,0,0,0,0,0,0,0,0,0,0,0,0,0,0,0,0,0,0,0,0,0,0,0
"Ind116","9_0_1",157,157,157,157,157,157,157,157,157,157,157,157,158,158,156,156,156,156,156,156,156,156,156,156,155,157,157,157,155,155,155,155,156,155,155,155,155,155,155,155,155,154,156,156,156,156,156,156,157,156,156,156,156,156,156,156,71,71,71,71,70,70,70,68,68,68,68,68,70,70,68,68,68,67,69,69,67,67,67,68,69,69,69,69,11,11,11,9,9,10,10,9,9,9,9,10,10,9,9,9,9,6,6,6,8,9,3,3,3,5,3,3,2,2,1,-1,0,0,0,0,0,0,0,0,0,0,0,0,0,0,0,0,0,0,0,0,0,0,0,0,0,0,0,0,0,0,0,0,0,0,0,0,0,0,0
"Ind117","9_0_13",157,157,157,157,157,157,157,157,157,157,157,157,158,158,156,156,156,156,156,156,156,156,156,156,155,157,157,157,155,155,155,155,156,155,155,155,155,155,155,155,155,154,156,156,156,156,156,156,157,156,156,156,156,156,156,156,71,71,71,71,70,70,70,68,68,68,68,68,70,70,68,68,68,67,69,69,67,67,67,68,69,69,69,69,11,11,11,9,9,10,10,9,9,9,9,10,10,9,9,9,9,6,6,6,8,9,3,3,3,5,3,3,2,2,1,0,-1,0,0,0,0,0,0,0,0,0,0,0,0,0,0,0,0,0,0,0,0,0,0,0,0,0,0,0,0,0,0,0,0,0,0,0,0,0,0
"Ind118","7_0_3",156,156,156,156,156,156,156,156,156,156,156,156,157,157,155,155,155,155,155,155,155,155,155,155,154,156,156,156,156,156,156,156,157,156,156,156,156,156,156,156,156,155,157,157,157,157,157,157,158,157,157,157,157,157,157,157,74,74,74,74,73,73,73,71,71,71,71,71,73,73,71,71,71,70,72,72,70,70,70,71,72,72,72,72,12,12,12,10,12,13,13,12,12,12,12,13,13,12,12,12,12,9,9,9,11,12,6,6,6,8,6,6,5,5,4,5,5,-1,0,0,0,0,0,0,0,0,0,0,0,0,0,0,0,0,0,0,0,0,0,0,0,0,0,0,0,0,0,0,0,0,0,0,0,0,0
"Ind119","7_0_6",156,156,156,156,156,156,156,156,156,156,156,156,157,157,155,155,155,155,155,155,155,155,155,155,154,156,156,156,156,156,156,156,157,156,156,156,156,156,156,156,156,155,157,157,157,157,157,157,158,157,157,157,157,157,157,157,74,74,74,74,73,73,73,71,71,71,71,71,73,73,71,71,71,70,72,72,70,70,70,71,72,72,72,72,12,12,12,10,12,13,13,12,12,12,12,13,13,12,12,12,12,9,9,9,11,12,6,6,6,8,6,6,5,5,4,5,5,0,-1,0,0,0,0,0,0,0,0,0,0,0,0,0,0,0,0,0,0,0,0,0,0,0,0,0,0,0,0,0,0,0,0,0,0,0,0
"Ind120","10_0_1",156,156,156,156,156,156,156,156,156,156,156,156,157,157,155,155,155,155,155,155,155,155,155,155,154,156,156,156,156,156,156,156,157,156,156,156,156,156,156,156,156,155,157,157,157,157,157,157,158,157,157,157,157,157,157,157,74,74,74,74,73,73,73,71,71,71,71,71,73,73,71,71,71,70,72,72,70,70,70,71,72,72,72,72,12,12,12,10,12,13,13,12,12,12,12,13,13,12,12,12,12,9,9,9,11,12,6,6,6,8,6,6,5,5,4,5,5,0,0,-1,0,0,0,0,0,0,0,0,0,0,0,0,0,0,0,0,0,0,0,0,0,0,0,0,0,0,0,0,0,0,0,0,0,0,0
"Ind121","10_0_4",156,156,156,156,156,156,156,156,156,156,156,156,157,157,155,155,155,155,155,155,155,155,155,155,154,156,156,156,156,156,156,156,157,156,156,156,156,156,156,156,156,155,157,157,157,157,157,157,158,157,157,157,157,157,157,157,74,74,74,74,73,73,73,71,71,71,71,71,73,73,71,71,71,70,72,72,70,70,70,71,72,72,72,72,12,12,12,10,12,13,13,12,12,12,12,13,13,12,12,12,12,9,9,9,11,12,6,6,6,8,6,6,5,5,4,5,5,0,0,0,-1,0,0,0,0,0,0,0,0,0,0,0,0,0,0,0,0,0,0,0,0,0,0,0,0,0,0,0,0,0,0,0,0,0,0
"Ind122","10_0_12",156,156,156,156,156,156,156,156,156,156,156,156,157,157,155,155,155,155,155,155,155,155,155,155,154,156,156,156,156,156,156,156,157,156,156,156,156,156,156,156,156,155,157,157,157,157,157,157,158,157,157,157,157,157,157,157,74,74,74,74,73,73,73,71,71,71,71,71,73,73,71,71,71,70,72,72,70,70,70,71,72,72,72,72,12,12,12,10,12,13,13,12,12,12,12,13,13,12,12,12,12,9,9,9,11,12,6,6,6,8,6,6,5,5,4,5,5,0,0,0,0,-1,0,0,0,0,0,0,0,0,0,0,0,0,0,0,0,0,0,0,0,0,0,0,0,0,0,0,0,0,0,0,0,0,0
"Ind123","7_0_10",156,156,156,156,156,156,156,156,156,156,156,156,157,157,155,155,155,155,155,155,155,155,155,155,154,156,156,156,156,156,156,156,157,156,156,156,156,156,156,156,156,155,157,157,157,157,157,157,158,157,157,157,157,157,157,157,74,74,74,74,73,73,73,71,71,71,71,71,73,73,71,71,71,70,72,72,70,70,70,71,72,72,72,72,12,12,12,10,12,13,13,12,12,12,12,13,13,12,12,12,12,9,9,9,11,12,6,6,6,8,6,6,5,5,4,5,5,0,0,0,0,0,-1,0,0,0,0,0,0,0,0,0,0,0,0,0,0,0,0,0,0,0,0,0,0,0,0,0,0,0,0,0,0,0,0
"Ind124","10_0_13",156,156,156,156,156,156,156,156,156,156,156,156,157,157,155,155,155,155,155,155,155,155,155,155,154,156,156,156,156,156,156,156,157,156,156,156,156,156,156,156,156,155,157,157,157,157,157,157,158,157,157,157,157,157,157,157,74,74,74,74,73,73,73,71,71,71,71,71,73,73,71,71,71,70,72,72,70,70,70,71,72,72,72,72,12,12,12,10,12,13,13,12,12,12,12,13,13,12,12,12,12,9,9,9,11,12,6,6,6,8,6,6,5,5,4,5,5,0,0,0,0,0,0,-1,0,0,0,0,0,0,0,0,0,0,0,0,0,0,0,0,0,0,0,0,0,0,0,0,0,0,0,0,0,0,0
"Ind125","10_0_3",156,156,156,156,156,156,156,156,156,156,156,156,157,157,155,155,155,155,155,155,155,155,155,155,154,156,156,156,156,156,156,156,157,156,156,156,156,156,156,156,156,155,157,157,157,157,157,157,158,157,157,157,157,157,157,157,74,74,74,74,73,73,73,71,71,71,71,71,73,73,71,71,71,70,72,72,70,70,70,71,72,72,72,72,12,12,12,10,12,13,13,12,12,12,12,13,13,12,12,12,12,9,9,9,11,12,6,6,6,8,6,6,5,5,4,5,5,0,0,0,0,0,0,0,-1,0,0,0,0,0,0,0,0,0,0,0,0,0,0,0,0,0,0,0,0,0,0,0,0,0,0,0,0,0,0
"Ind126","7_0_2",156,156,156,156,156,156,156,156,156,156,156,156,157,157,155,155,155,155,155,155,155,155,155,155,154,156,156,156,156,156,156,156,157,156,156,156,156,156,156,156,156,155,157,157,157,157,157,157,158,157,157,157,157,157,157,157,74,74,74,74,73,73,73,71,71,71,71,71,73,73,71,71,71,70,72,72,70,70,70,71,72,72,72,72,12,12,12,10,12,13,13,12,12,12,12,13,13,12,12,12,12,9,9,9,11,12,6,6,6,8,6,6,5,5,4,5,5,0,0,0,0,0,0,0,0,-1,0,0,0,0,0,0,0,0,0,0,0,0,0,0,0,0,0,0,0,0,0,0,0,0,0,0,0,0,0
"Ind127","10_0_9",158,158,158,158,158,158,158,158,158,158,158,158,159,159,157,157,157,157,157,157,157,157,157,157,156,158,158,158,158,158,158,158,159,158,158,158,158,158,158,158,158,157,159,159,159,159,159,159,160,159,159,159,159,159,159,159,74,74,74,74,73,73,73,71,71,71,71,71,73,73,71,71,71,70,72,72,70,70,70,71,72,72,72,72,14,14,14,12,12,13,13,12,12,12,12,13,13,12,12,12,12,9,9,9,11,12,6,6,6,8,6,6,5,5,4,5,5,2,2,2,2,2,2,2,2,2,-1,0,0,0,0,0,0,0,0,0,0,0,0,0,0,0,0,0,0,0,0,0,0,0,0,0,0,0,0
"Ind128","10_0_11",158,158,158,158,158,158,158,158,158,158,158,158,159,159,157,157,157,157,157,157,157,157,157,157,156,158,158,158,158,158,158,158,159,158,158,158,158,158,158,158,158,157,159,159,159,159,159,159,160,159,159,159,159,159,159,159,74,74,74,74,73,73,73,71,71,71,71,71,73,73,71,71,71,70,72,72,70,70,70,71,72,72,72,72,14,14,14,12,12,13,13,12,12,12,12,13,13,12,12,12,12,9,9,9,11,12,6,6,6,8,6,6,5,5,4,5,5,2,2,2,2,2,2,2,2,2,0,-1,0,0,0,0,0,0,0,0,0,0,0,0,0,0,0,0,0,0,0,0,0,0,0,0,0,0,0
"Ind129","7_0_4",158,158,158,158,158,158,158,158,158,158,158,158,159,159,157,157,157,157,157,157,157,157,157,157,156,158,158,158,158,158,158,158,159,158,158,158,158,158,158,158,158,157,159,159,159,159,159,159,160,159,159,159,159,159,159,159,74,74,74,74,73,73,73,71,71,71,71,71,73,73,71,71,71,70,72,72,70,70,70,71,72,72,72,72,14,14,14,12,12,13,13,12,12,12,12,13,13,12,12,12,12,9,9,9,11,12,6,6,6,8,6,6,5,5,4,5,5,2,2,2,2,2,2,2,2,2,0,0,-1,0,0,0,0,0,0,0,0,0,0,0,0,0,0,0,0,0,0,0,0,0,0,0,0,0,0
"Ind130","7_0_5",159,159,159,159,159,159,159,159,159,159,159,159,160,160,158,158,158,158,158,158,158,158,158,158,157,159,159,159,159,159,159,159,160,159,159,159,159,159,159,159,159,158,160,160,160,160,160,160,161,160,160,160,160,160,160,160,75,75,75,75,74,74,74,72,72,72,72,72,74,74,72,72,72,71,73,73,71,71,71,72,73,73,73,73,15,15,15,13,13,14,14,13,13,13,13,14,14,13,13,13,13,8,10,10,12,13,7,7,7,9,7,7,6,6,5,6,6,3,3,3,3,3,3,3,3,3,1,1,1,-1,0,0,0,0,0,0,0,0,0,0,0,0,0,0,0,0,0,0,0,0,0,0,0,0,0
"Ind131","10_0_2",159,159,159,159,159,159,159,159,159,159,159,159,160,160,158,158,158,158,158,158,158,158,158,158,157,159,159,159,159,159,159,159,160,159,159,159,159,159,159,159,159,158,160,160,160,160,160,160,161,160,160,160,160,160,160,160,75,75,75,75,74,74,74,72,72,72,72,72,74,74,72,72,72,71,73,73,71,71,71,72,73,73,73,73,15,15,15,13,13,14,14,13,13,13,13,14,14,13,13,13,13,8,10,10,12,13,7,7,7,9,7,7,6,6,5,6,6,3,3,3,3,3,3,3,3,3,1,1,1,0,-1,0,0,0,0,0,0,0,0,0,0,0,0,0,0,0,0,0,0,0,0,0,0,0,0
"Ind132","7_0_7",158,158,158,158,158,158,158,158,158,158,158,158,159,159,157,157,157,157,157,157,157,157,157,157,156,158,158,158,158,158,158,158,159,158,158,158,158,158,158,158,158,157,159,159,159,159,159,159,160,159,159,159,159,159,159,159,74,74,74,74,73,73,73,71,71,71,71,71,73,73,71,71,71,70,72,72,70,70,70,71,72,72,72,72,14,14,14,12,12,13,13,12,12,12,12,13,13,12,12,12,12,9,9,9,11,12,6,6,6,8,6,6,5,5,4,5,5,2,2,2,2,2,2,2,2,2,0,0,0,1,1,-1,0,0,0,0,0,0,0,0,0,0,0,0,0,0,0,0,0,0,0,0,0,0,0
"Ind133","10_0_6",158,158,158,158,158,158,158,158,158,158,158,158,159,159,157,157,157,157,157,157,157,157,157,157,156,158,158,158,158,158,158,158,159,158,158,158,158,158,158,158,158,157,159,159,159,159,159,159,160,159,159,159,159,159,159,159,74,74,74,74,73,73,73,71,71,71,71,71,73,73,71,71,71,70,72,72,70,70,70,71,72,72,72,72,14,14,14,12,12,13,13,12,12,12,12,13,13,12,12,12,12,9,9,9,11,12,6,6,6,8,6,6,5,5,4,5,5,2,2,2,2,2,2,2,2,2,2,2,2,3,3,2,-1,0,0,0,0,0,0,0,0,0,0,0,0,0,0,0,0,0,0,0,0,0,0
"Ind134","10_0_10",158,158,158,158,158,158,158,158,158,158,158,158,159,159,157,157,157,157,157,157,157,157,157,157,156,158,158,158,158,158,158,158,159,158,158,158,158,158,158,158,158,157,159,159,159,159,159,159,160,159,159,159,159,159,159,159,74,74,74,74,73,73,73,71,71,71,71,71,73,73,71,71,71,70,72,72,70,70,70,71,72,72,72,72,14,14,14,12,12,13,13,12,12,12,12,13,13,12,12,12,12,9,9,9,11,12,6,6,6,8,6,6,5,5,4,5,5,2,2,2,2,2,2,2,2,2,2,2,2,3,3,2,0,-1,0,0,0,0,0,0,0,0,0,0,0,0,0,0,0,0,0,0,0,0,0
"Ind135","10_0_7",158,158,158,158,158,158,158,158,158,158,158,158,159,159,157,157,157,157,157,157,157,157,157,157,156,158,158,158,158,158,158,158,159,158,158,158,158,158,158,158,158,157,159,159,159,159,159,159,160,159,159,159,159,159,159,159,74,74,74,74,73,73,73,71,71,71,71,71,73,73,71,71,71,70,72,72,70,70,70,71,72,72,72,72,14,14,14,12,12,13,13,12,12,12,12,13,13,12,12,12,12,9,9,9,11,12,6,6,6,8,6,6,5,5,4,5,5,2,2,2,2,2,2,2,2,2,2,2,2,3,3,2,0,0,-1,0,0,0,0,0,0,0,0,0,0,0,0,0,0,0,0,0,0,0,0
"Ind136","7_0_13",157,157,157,157,157,157,157,157,157,157,157,157,158,158,156,156,156,156,156,156,156,156,156,156,155,157,157,157,157,157,157,157,158,157,157,157,157,157,157,157,157,156,158,158,158,158,158,158,159,158,158,158,158,158,158,158,73,73,73,73,72,72,72,70,70,70,70,70,72,72,70,70,70,69,71,71,69,69,69,70,71,71,71,71,13,13,13,11,11,12,12,11,11,11,11,12,12,11,11,11,11,8,8,8,10,11,5,5,5,7,5,5,4,4,3,4,4,1,1,1,1,1,1,1,1,1,1,1,1,2,2,1,1,1,1,-1,0,0,0,0,0,0,0,0,0,0,0,0,0,0,0,0,0,0,0
"Ind137","7_0_12",157,157,157,157,157,157,157,157,157,157,157,157,158,158,156,156,156,156,156,156,156,156,156,156,155,157,157,157,157,157,157,157,158,157,157,157,157,157,157,157,157,156,158,158,158,158,158,158,159,158,158,158,158,158,158,158,73,73,73,73,72,72,72,70,70,70,70,70,72,72,70,70,70,69,71,71,69,69,69,70,71,71,71,71,13,13,13,11,11,12,12,11,11,11,11,12,12,11,11,11,11,8,8,8,10,11,5,5,5,7,5,5,4,4,3,4,4,1,1,1,1,1,1,1,1,1,1,1,1,2,2,1,1,1,1,0,-1,0,0,0,0,0,0,0,0,0,0,0,0,0,0,0,0,0,0
"Ind138","7_0_1",157,157,157,157,157,157,157,157,157,157,157,157,158,158,156,156,156,156,156,156,156,156,156,156,155,157,157,157,157,157,157,157,158,157,157,157,157,157,157,157,157,156,158,158,158,158,158,158,159,158,158,158,158,158,158,158,73,73,73,73,72,72,72,70,70,70,70,70,72,72,70,70,70,69,71,71,69,69,69,70,71,71,71,71,13,13,13,11,11,12,12,11,11,11,11,12,12,11,11,11,11,8,8,8,10,11,5,5,5,7,5,5,4,4,3,4,4,1,1,1,1,1,1,1,1,1,1,1,1,2,2,1,1,1,1,0,0,-1,0,0,0,0,0,0,0,0,0,0,0,0,0,0,0,0,0
"Ind139","10_0_0",157,157,157,157,157,157,157,157,157,157,157,157,158,158,156,156,156,156,156,156,156,156,156,156,155,157,157,157,157,157,157,157,158,157,157,157,157,157,157,157,157,156,158,158,158,158,158,158,159,158,158,158,158,158,158,158,73,73,73,73,72,72,72,70,70,70,70,70,72,72,70,70,70,69,71,71,69,69,69,70,71,71,71,71,13,13,13,11,11,12,12,11,11,11,11,12,12,11,11,11,11,8,8,8,10,11,5,5,5,7,5,5,4,4,3,4,4,1,1,1,1,1,1,1,1,1,1,1,1,2,2,1,1,1,1,0,0,0,-1,0,0,0,0,0,0,0,0,0,0,0,0,0,0,0,0
"Ind140","10_0_8",157,157,157,157,157,157,157,157,157,157,157,157,158,158,156,156,156,156,156,156,156,156,156,156,155,157,157,157,157,157,157,157,158,157,157,157,157,157,157,157,157,156,158,158,158,158,158,158,159,158,158,158,158,158,158,158,73,73,73,73,72,72,72,70,70,70,70,70,72,72,70,70,70,69,71,71,69,69,69,70,71,71,71,71,13,13,13,11,11,12,12,11,11,11,11,12,12,11,11,11,11,8,8,8,10,11,5,5,5,7,5,5,4,4,3,4,4,1,1,1,1,1,1,1,1,1,1,1,1,2,2,1,1,1,1,0,0,0,0,-1,0,0,0,0,0,0,0,0,0,0,0,0,0,0,0
"Ind141","7_0_11",157,157,157,157,157,157,157,157,157,157,157,157,158,158,156,156,156,156,156,156,156,156,156,156,155,157,157,157,157,157,157,157,158,157,157,157,157,157,157,157,157,156,158,158,158,158,158,158,159,158,158,158,158,158,158,158,73,73,73,73,72,72,72,70,70,70,70,70,72,72,70,70,70,69,71,71,69,69,69,70,71,71,71,71,13,13,13,11,11,12,12,11,11,11,11,12,12,11,11,11,11,8,8,8,10,11,5,5,5,7,5,5,4,4,3,4,4,1,1,1,1,1,1,1,1,1,1,1,1,2,2,1,1,1,1,0,0,0,0,0,-1,0,0,0,0,0,0,0,0,0,0,0,0,0,0
"Ind142","10_0_5",157,157,157,157,157,157,157,157,157,157,157,157,158,158,156,156,156,156,156,156,156,156,156,156,155,157,157,157,157,157,157,157,158,157,157,157,157,157,157,157,157,156,158,158,158,158,158,158,159,158,158,158,158,158,158,158,73,73,73,73,72,72,72,70,70,70,70,70,72,72,70,70,70,69,71,71,69,69,69,70,71,71,71,71,13,13,13,11,11,12,12,11,11,11,11,12,12,11,11,11,11,8,8,8,10,11,5,5,5,7,5,5,4,4,3,4,4,1,1,1,1,1,1,1,1,1,1,1,1,2,2,1,1,1,1,0,0,0,0,0,0,-1,0,0,0,0,0,0,0,0,0,0,0,0,0
"Ind143","7_0_8",157,157,157,157,157,157,157,157,157,157,157,157,158,158,156,156,156,156,156,156,156,156,156,156,155,157,157,157,157,157,157,157,158,157,157,157,157,157,157,157,157,156,158,158,158,158,158,158,159,158,158,158,158,158,158,158,73,73,73,73,72,72,72,70,70,70,70,70,72,72,70,70,70,69,71,71,69,69,69,70,71,71,71,71,13,13,13,11,11,12,12,11,11,11,11,12,12,11,11,11,11,8,8,8,10,11,5,5,5,7,5,5,4,4,3,4,4,1,1,1,1,1,1,1,1,1,1,1,1,2,2,1,1,1,1,0,0,0,0,0,0,0,-1,0,0,0,0,0,0,0,0,0,0,0,0
"Ind144","7_0_0",157,157,157,157,157,157,157,157,157,157,157,157,158,158,156,156,156,156,156,156,156,156,156,156,155,157,157,157,157,157,157,157,158,157,157,157,157,157,157,157,157,156,158,158,158,158,158,158,159,158,158,158,158,158,158,158,73,73,73,73,72,72,72,70,70,70,70,70,72,72,70,70,70,69,71,71,69,69,69,70,71,71,71,71,13,13,13,11,11,12,12,11,11,11,11,12,12,11,11,11,11,8,8,8,10,11,5,5,5,7,5,5,4,4,3,4,4,1,1,1,1,1,1,1,1,1,1,1,1,2,2,1,1,1,1,0,0,0,0,0,0,0,0,-1,0,0,0,0,0,0,0,0,0,0,0
"Ind145","7_0_9",159,159,159,159,159,159,159,159,159,159,159,159,160,160,158,158,158,158,158,158,158,158,158,158,157,159,159,159,159,159,159,159,160,159,159,159,159,159,159,159,159,158,160,160,160,160,160,160,161,160,160,160,160,160,160,160,77,77,77,77,76,76,76,74,74,74,74,74,76,76,74,74,74,73,75,75,73,73,73,74,75,75,75,75,17,17,17,15,15,16,16,15,15,15,15,16,16,15,15,15,15,12,12,12,14,15,9,9,9,11,9,9,8,8,7,8,8,5,5,5,5,5,5,5,5,5,5,5,5,6,6,5,5,5,5,4,4,4,4,4,4,4,4,4,-1,0,0,0,0,0,0,0,0,0,0
"Ind146","9_0_8",156,156,156,156,156,156,156,156,156,156,156,156,157,157,155,155,155,155,155,155,155,155,155,155,154,156,156,156,154,154,154,154,155,154,154,154,154,154,154,154,154,153,155,155,155,155,155,155,156,155,155,155,155,155,155,155,70,70,70,70,69,69,69,67,67,67,67,67,69,69,67,67,67,66,68,68,66,66,66,67,68,68,68,68,10,10,10,8,8,9,9,8,8,8,8,9,9,8,8,8,8,5,5,5,7,8,2,2,2,4,2,2,1,1,0,1,1,4,4,4,4,4,4,4,4,4,4,4,4,5,5,4,4,4,4,3,3,3,3,3,3,3,3,3,7,-1,0,0,0,0,0,0,0,0,0
"Ind147","9_0_7",156,156,156,156,156,156,156,156,156,156,156,156,157,157,155,155,155,155,155,155,155,155,155,155,154,156,156,156,154,154,154,154,155,154,154,154,154,154,154,154,154,153,155,155,155,155,155,155,156,155,155,155,155,155,155,155,70,70,70,70,69,69,69,67,67,67,67,67,69,69,67,67,67,66,68,68,66,66,66,67,68,68,68,68,10,10,10,8,8,9,9,8,8,8,8,9,9,8,8,8,8,5,5,5,7,8,2,2,2,4,2,2,1,1,0,1,1,4,4,4,4,4,4,4,4,4,4,4,4,5,5,4,4,4,4,3,3,3,3,3,3,3,3,3,7,0,-1,0,0,0,0,0,0,0,0
"Ind148","9_0_12",156,156,156,156,156,156,156,156,156,156,156,156,157,157,155,155,155,155,155,155,155,155,155,155,154,156,156,156,154,154,154,154,155,154,154,154,154,154,154,154,154,153,155,155,155,155,155,155,156,155,155,155,155,155,155,155,70,70,70,70,69,69,69,67,67,67,67,67,69,69,67,67,67,66,68,68,66,66,66,67,68,68,68,68,10,10,10,8,8,9,9,8,8,8,8,9,9,8,8,8,8,5,5,5,7,8,2,2,2,4,2,2,1,1,0,1,1,4,4,4,4,4,4,4,4,4,4,4,4,5,5,4,4,4,4,3,3,3,3,3,3,3,3,3,7,0,0,-1,0,0,0,0,0,0,0
"Ind149","9_0_3",156,156,156,156,156,156,156,156,156,156,156,156,157,157,155,155,155,155,155,155,155,155,155,155,154,156,156,156,154,154,154,154,155,154,154,154,154,154,154,154,154,153,155,155,155,155,155,155,156,155,155,155,155,155,155,155,70,70,70,70,69,69,69,67,67,67,67,67,69,69,67,67,67,66,68,68,66,66,66,67,68,68,68,68,10,10,10,8,8,9,9,8,8,8,8,9,9,8,8,8,8,5,5,5,7,8,2,2,2,4,2,2,1,1,0,1,1,4,4,4,4,4,4,4,4,4,4,4,4,5,5,4,4,4,4,3,3,3,3,3,3,3,3,3,7,0,0,0,-1,0,0,0,0,0,0
"Ind150","9_0_9",156,156,156,156,156,156,156,156,156,156,156,156,157,157,155,155,155,155,155,155,155,155,155,155,154,156,156,156,154,154,154,154,155,154,154,154,154,154,154,154,154,153,155,155,155,155,155,155,156,155,155,155,155,155,155,155,71,71,71,71,70,70,70,68,68,68,68,68,70,70,66,66,66,65,67,67,65,65,65,66,67,67,67,67,11,11,11,9,9,10,10,9,9,9,9,10,10,9,9,9,9,6,6,6,8,9,3,3,3,5,3,3,2,2,1,2,2,5,5,5,5,5,5,5,5,5,5,5,5,6,6,5,5,5,5,4,4,4,4,4,4,4,4,4,8,1,1,1,1,-1,0,0,0,0,0
"Ind151","9_0_2",156,156,156,156,156,156,156,156,156,156,156,156,157,157,155,155,155,155,155,155,155,155,155,155,154,156,156,156,154,154,154,154,155,154,154,154,154,154,154,154,154,153,155,155,155,155,155,155,156,155,155,155,155,155,155,155,71,71,71,71,70,70,70,68,68,68,68,68,70,70,66,66,66,65,67,67,65,65,65,66,67,67,67,67,11,11,11,9,9,10,10,9,9,9,9,10,10,9,9,9,9,6,6,6,8,9,3,3,3,5,3,3,2,2,1,2,2,5,5,5,5,5,5,5,5,5,5,5,5,6,6,5,5,5,5,4,4,4,4,4,4,4,4,4,8,1,1,1,1,0,-1,0,0,0,0
"Ind152","9_0_0",156,156,156,156,156,156,156,156,156,156,156,156,157,157,155,155,155,155,155,155,155,155,155,155,154,156,156,156,154,154,154,154,155,154,154,154,154,154,154,154,154,153,155,155,155,155,155,155,156,155,155,155,155,155,155,155,70,70,70,70,69,69,69,67,67,67,67,67,69,69,67,67,67,66,68,68,66,66,66,67,68,68,68,68,10,10,10,8,8,9,9,8,8,8,8,9,9,8,8,8,8,5,5,5,7,8,2,2,2,4,2,2,1,1,0,1,1,4,4,4,4,4,4,4,4,4,4,4,4,5,5,4,4,4,4,3,3,3,3,3,3,3,3,3,7,0,0,0,0,1,1,-1,0,0,0
"Ind153","9_0_11",156,156,156,156,156,156,156,156,156,156,156,156,157,157,155,155,155,155,155,155,155,155,155,155,154,156,156,156,154,154,154,154,155,154,154,154,154,154,154,154,154,153,155,155,155,155,155,155,156,155,155,155,155,155,155,155,70,70,70,70,69,69,69,67,67,67,67,67,69,69,67,67,67,66,68,68,66,66,66,67,68,68,68,68,10,10,10,8,8,9,9,8,8,8,8,9,9,8,8,8,8,5,5,5,7,8,2,2,2,4,2,2,1,1,0,1,1,4,4,4,4,4,4,4,4,4,4,4,4,5,5,4,4,4,4,3,3,3,3,3,3,3,3,3,7,0,0,0,0,1,1,0,-1,0,0
"Ind154","9_0_6",156,156,156,156,156,156,156,156,156,156,156,156,157,157,155,155,155,155,155,155,155,155,155,155,154,156,156,156,154,154,154,154,155,154,154,154,154,154,154,154,154,153,155,155,155,155,155,155,156,155,155,155,155,155,155,155,70,70,70,70,69,69,69,67,67,67,67,67,69,69,67,67,67,66,68,68,66,66,66,67,68,68,68,68,10,10,10,8,8,9,9,8,8,8,8,9,9,8,8,8,8,5,5,5,7,8,2,2,2,4,2,2,1,1,0,1,1,4,4,4,4,4,4,4,4,4,4,4,4,5,5,4,4,4,4,3,3,3,3,3,3,3,3,3,7,0,0,0,0,1,1,0,0,-1,0
"Ind155","0_0_0",221,221,221,219,219,219,219,219,219,219,219,219,220,220,218,218,218,218,218,218,218,218,218,218,217,217,217,217,216,216,216,216,215,216,214,214,214,214,214,214,214,215,217,217,217,217,217,217,216,217,217,217,217,217,217,217,197,197,197,198,198,198,198,198,198,198,198,198,198,198,198,198,198,199,199,197,198,198,197,198,199,199,199,199,200,200,200,204,201,201,200,201,201,201,201,202,202,201,201,201,201,202,203,203,205,202,202,202,202,200,202,202,201,201,200,199,199,202,202,202,202,202,202,202,202,202,200,200,200,200,200,200,200,200,200,201,201,201,201,201,201,201,201,201,199,200,200,200,200,201,201,200,200,200,-1
