"","Description","Ind1","Ind2","Ind3","Ind4","Ind5","Ind6","Ind7","Ind8","Ind9","Ind10","Ind11","Ind12","Ind13","Ind14","Ind15","Ind16","Ind17","Ind18","Ind19","Ind20","Ind21","Ind22","Ind23","Ind24","Ind25","Ind26","Ind27","Ind28","Ind29","Ind30","Ind31","Ind32","Ind33","Ind34","Ind35","Ind36","Ind37","Ind38","Ind39","Ind40","Ind41","Ind42","Ind43","Ind44","Ind45","Ind46","Ind47","Ind48","Ind49","Ind50","Ind51","Ind52","Ind53","Ind54","Ind55","Ind56","Ind57","Ind58","Ind59","Ind60","Ind61","Ind62","Ind63","Ind64","Ind65","Ind66","Ind67","Ind68","Ind69","Ind70","Ind71","Ind72","Ind73","Ind74","Ind75","Ind76","Ind77","Ind78","Ind79","Ind80","Ind81","Ind82","Ind83","Ind84","Ind85","Ind86","Ind87","Ind88","Ind89","Ind90","Ind91","Ind92","Ind93","Ind94","Ind95","Ind96","Ind97","Ind98","Ind99","Ind100","Ind101","Ind102","Ind103","Ind104","Ind105","Ind106","Ind107","Ind108","Ind109","Ind110","Ind111"
"Ind1","1_0_9",-1,0,0,0,0,0,0,0,0,0,0,0,0,0,0,0,0,0,0,0,0,0,0,0,0,0,0,0,0,0,0,0,0,0,0,0,0,0,0,0,0,0,0,0,0,0,0,0,0,0,0,0,0,0,0,0,0,0,0,0,0,0,0,0,0,0,0,0,0,0,0,0,0,0,0,0,0,0,0,0,0,0,0,0,0,0,0,0,0,0,0,0,0,0,0,0,0,0,0,0,0,0,0,0,0,0,0,0,0,0,0
"Ind2","1_0_7",0,-1,0,0,0,0,0,0,0,0,0,0,0,0,0,0,0,0,0,0,0,0,0,0,0,0,0,0,0,0,0,0,0,0,0,0,0,0,0,0,0,0,0,0,0,0,0,0,0,0,0,0,0,0,0,0,0,0,0,0,0,0,0,0,0,0,0,0,0,0,0,0,0,0,0,0,0,0,0,0,0,0,0,0,0,0,0,0,0,0,0,0,0,0,0,0,0,0,0,0,0,0,0,0,0,0,0,0,0,0,0
"Ind3","1_0_3",10,10,-1,0,0,0,0,0,0,0,0,0,0,0,0,0,0,0,0,0,0,0,0,0,0,0,0,0,0,0,0,0,0,0,0,0,0,0,0,0,0,0,0,0,0,0,0,0,0,0,0,0,0,0,0,0,0,0,0,0,0,0,0,0,0,0,0,0,0,0,0,0,0,0,0,0,0,0,0,0,0,0,0,0,0,0,0,0,0,0,0,0,0,0,0,0,0,0,0,0,0,0,0,0,0,0,0,0,0,0,0
"Ind4","1_0_2",4,4,10,-1,0,0,0,0,0,0,0,0,0,0,0,0,0,0,0,0,0,0,0,0,0,0,0,0,0,0,0,0,0,0,0,0,0,0,0,0,0,0,0,0,0,0,0,0,0,0,0,0,0,0,0,0,0,0,0,0,0,0,0,0,0,0,0,0,0,0,0,0,0,0,0,0,0,0,0,0,0,0,0,0,0,0,0,0,0,0,0,0,0,0,0,0,0,0,0,0,0,0,0,0,0,0,0,0,0,0,0
"Ind5","1_0_10",4,4,12,2,-1,0,0,0,0,0,0,0,0,0,0,0,0,0,0,0,0,0,0,0,0,0,0,0,0,0,0,0,0,0,0,0,0,0,0,0,0,0,0,0,0,0,0,0,0,0,0,0,0,0,0,0,0,0,0,0,0,0,0,0,0,0,0,0,0,0,0,0,0,0,0,0,0,0,0,0,0,0,0,0,0,0,0,0,0,0,0,0,0,0,0,0,0,0,0,0,0,0,0,0,0,0,0,0,0,0,0
"Ind6","1_0_0",4,4,10,0,2,-1,0,0,0,0,0,0,0,0,0,0,0,0,0,0,0,0,0,0,0,0,0,0,0,0,0,0,0,0,0,0,0,0,0,0,0,0,0,0,0,0,0,0,0,0,0,0,0,0,0,0,0,0,0,0,0,0,0,0,0,0,0,0,0,0,0,0,0,0,0,0,0,0,0,0,0,0,0,0,0,0,0,0,0,0,0,0,0,0,0,0,0,0,0,0,0,0,0,0,0,0,0,0,0,0,0
"Ind7","1_0_1",6,6,12,4,6,4,-1,0,0,0,0,0,0,0,0,0,0,0,0,0,0,0,0,0,0,0,0,0,0,0,0,0,0,0,0,0,0,0,0,0,0,0,0,0,0,0,0,0,0,0,0,0,0,0,0,0,0,0,0,0,0,0,0,0,0,0,0,0,0,0,0,0,0,0,0,0,0,0,0,0,0,0,0,0,0,0,0,0,0,0,0,0,0,0,0,0,0,0,0,0,0,0,0,0,0,0,0,0,0,0,0
"Ind8","1_0_5",4,4,10,2,4,2,2,-1,0,0,0,0,0,0,0,0,0,0,0,0,0,0,0,0,0,0,0,0,0,0,0,0,0,0,0,0,0,0,0,0,0,0,0,0,0,0,0,0,0,0,0,0,0,0,0,0,0,0,0,0,0,0,0,0,0,0,0,0,0,0,0,0,0,0,0,0,0,0,0,0,0,0,0,0,0,0,0,0,0,0,0,0,0,0,0,0,0,0,0,0,0,0,0,0,0,0,0,0,0,0,0
"Ind9","1_0_4",5,5,11,5,7,5,7,5,-1,0,0,0,0,0,0,0,0,0,0,0,0,0,0,0,0,0,0,0,0,0,0,0,0,0,0,0,0,0,0,0,0,0,0,0,0,0,0,0,0,0,0,0,0,0,0,0,0,0,0,0,0,0,0,0,0,0,0,0,0,0,0,0,0,0,0,0,0,0,0,0,0,0,0,0,0,0,0,0,0,0,0,0,0,0,0,0,0,0,0,0,0,0,0,0,0,0,0,0,0,0,0
"Ind10","1_0_8",5,5,11,5,7,5,7,5,0,-1,0,0,0,0,0,0,0,0,0,0,0,0,0,0,0,0,0,0,0,0,0,0,0,0,0,0,0,0,0,0,0,0,0,0,0,0,0,0,0,0,0,0,0,0,0,0,0,0,0,0,0,0,0,0,0,0,0,0,0,0,0,0,0,0,0,0,0,0,0,0,0,0,0,0,0,0,0,0,0,0,0,0,0,0,0,0,0,0,0,0,0,0,0,0,0,0,0,0,0,0,0
"Ind11","1_0_6",6,6,11,6,8,6,8,6,5,5,-1,0,0,0,0,0,0,0,0,0,0,0,0,0,0,0,0,0,0,0,0,0,0,0,0,0,0,0,0,0,0,0,0,0,0,0,0,0,0,0,0,0,0,0,0,0,0,0,0,0,0,0,0,0,0,0,0,0,0,0,0,0,0,0,0,0,0,0,0,0,0,0,0,0,0,0,0,0,0,0,0,0,0,0,0,0,0,0,0,0,0,0,0,0,0,0,0,0,0,0,0
"Ind12","2_0_9",57,57,57,57,59,57,61,59,60,60,61,-1,0,0,0,0,0,0,0,0,0,0,0,0,0,0,0,0,0,0,0,0,0,0,0,0,0,0,0,0,0,0,0,0,0,0,0,0,0,0,0,0,0,0,0,0,0,0,0,0,0,0,0,0,0,0,0,0,0,0,0,0,0,0,0,0,0,0,0,0,0,0,0,0,0,0,0,0,0,0,0,0,0,0,0,0,0,0,0,0,0,0,0,0,0,0,0,0,0,0,0
"Ind13","2_0_2",56,56,56,56,58,56,60,58,59,59,60,1,-1,0,0,0,0,0,0,0,0,0,0,0,0,0,0,0,0,0,0,0,0,0,0,0,0,0,0,0,0,0,0,0,0,0,0,0,0,0,0,0,0,0,0,0,0,0,0,0,0,0,0,0,0,0,0,0,0,0,0,0,0,0,0,0,0,0,0,0,0,0,0,0,0,0,0,0,0,0,0,0,0,0,0,0,0,0,0,0,0,0,0,0,0,0,0,0,0,0,0
"Ind14","2_0_8",56,56,58,58,58,58,62,60,61,61,62,5,4,-1,0,0,0,0,0,0,0,0,0,0,0,0,0,0,0,0,0,0,0,0,0,0,0,0,0,0,0,0,0,0,0,0,0,0,0,0,0,0,0,0,0,0,0,0,0,0,0,0,0,0,0,0,0,0,0,0,0,0,0,0,0,0,0,0,0,0,0,0,0,0,0,0,0,0,0,0,0,0,0,0,0,0,0,0,0,0,0,0,0,0,0,0,0,0,0,0,0
"Ind15","2_0_3",60,60,60,60,62,60,64,62,63,63,64,7,6,4,-1,0,0,0,0,0,0,0,0,0,0,0,0,0,0,0,0,0,0,0,0,0,0,0,0,0,0,0,0,0,0,0,0,0,0,0,0,0,0,0,0,0,0,0,0,0,0,0,0,0,0,0,0,0,0,0,0,0,0,0,0,0,0,0,0,0,0,0,0,0,0,0,0,0,0,0,0,0,0,0,0,0,0,0,0,0,0,0,0,0,0,0,0,0,0,0,0
"Ind16","2_0_5",57,57,57,57,59,57,61,59,60,60,61,4,3,1,3,-1,0,0,0,0,0,0,0,0,0,0,0,0,0,0,0,0,0,0,0,0,0,0,0,0,0,0,0,0,0,0,0,0,0,0,0,0,0,0,0,0,0,0,0,0,0,0,0,0,0,0,0,0,0,0,0,0,0,0,0,0,0,0,0,0,0,0,0,0,0,0,0,0,0,0,0,0,0,0,0,0,0,0,0,0,0,0,0,0,0,0,0,0,0,0,0
"Ind17","2_0_1",54,54,56,54,56,54,58,56,57,57,58,4,3,5,7,4,-1,0,0,0,0,0,0,0,0,0,0,0,0,0,0,0,0,0,0,0,0,0,0,0,0,0,0,0,0,0,0,0,0,0,0,0,0,0,0,0,0,0,0,0,0,0,0,0,0,0,0,0,0,0,0,0,0,0,0,0,0,0,0,0,0,0,0,0,0,0,0,0,0,0,0,0,0,0,0,0,0,0,0,0,0,0,0,0,0,0,0,0,0,0,0
"Ind18","2_0_10",42,42,44,42,42,42,46,44,45,45,46,29,28,28,32,29,27,-1,0,0,0,0,0,0,0,0,0,0,0,0,0,0,0,0,0,0,0,0,0,0,0,0,0,0,0,0,0,0,0,0,0,0,0,0,0,0,0,0,0,0,0,0,0,0,0,0,0,0,0,0,0,0,0,0,0,0,0,0,0,0,0,0,0,0,0,0,0,0,0,0,0,0,0,0,0,0,0,0,0,0,0,0,0,0,0,0,0,0,0,0,0
"Ind19","2_0_0",44,44,44,42,44,42,46,44,45,45,46,29,28,30,30,29,27,4,-1,0,0,0,0,0,0,0,0,0,0,0,0,0,0,0,0,0,0,0,0,0,0,0,0,0,0,0,0,0,0,0,0,0,0,0,0,0,0,0,0,0,0,0,0,0,0,0,0,0,0,0,0,0,0,0,0,0,0,0,0,0,0,0,0,0,0,0,0,0,0,0,0,0,0,0,0,0,0,0,0,0,0,0,0,0,0,0,0,0,0,0,0
"Ind20","2_0_4",47,47,47,45,47,45,49,47,48,48,49,32,31,33,35,32,30,11,11,-1,0,0,0,0,0,0,0,0,0,0,0,0,0,0,0,0,0,0,0,0,0,0,0,0,0,0,0,0,0,0,0,0,0,0,0,0,0,0,0,0,0,0,0,0,0,0,0,0,0,0,0,0,0,0,0,0,0,0,0,0,0,0,0,0,0,0,0,0,0,0,0,0,0,0,0,0,0,0,0,0,0,0,0,0,0,0,0,0,0,0,0
"Ind21","2_0_7",54,54,54,52,54,52,56,54,55,55,56,37,36,38,38,37,35,14,10,11,-1,0,0,0,0,0,0,0,0,0,0,0,0,0,0,0,0,0,0,0,0,0,0,0,0,0,0,0,0,0,0,0,0,0,0,0,0,0,0,0,0,0,0,0,0,0,0,0,0,0,0,0,0,0,0,0,0,0,0,0,0,0,0,0,0,0,0,0,0,0,0,0,0,0,0,0,0,0,0,0,0,0,0,0,0,0,0,0,0,0,0
"Ind22","2_0_6",56,56,56,54,56,54,58,56,57,57,58,39,38,40,40,39,37,16,12,13,2,-1,0,0,0,0,0,0,0,0,0,0,0,0,0,0,0,0,0,0,0,0,0,0,0,0,0,0,0,0,0,0,0,0,0,0,0,0,0,0,0,0,0,0,0,0,0,0,0,0,0,0,0,0,0,0,0,0,0,0,0,0,0,0,0,0,0,0,0,0,0,0,0,0,0,0,0,0,0,0,0,0,0,0,0,0,0,0,0,0,0
"Ind23","3_0_1",95,95,98,95,93,95,99,97,98,98,98,109,109,109,112,110,108,99,101,108,107,109,-1,0,0,0,0,0,0,0,0,0,0,0,0,0,0,0,0,0,0,0,0,0,0,0,0,0,0,0,0,0,0,0,0,0,0,0,0,0,0,0,0,0,0,0,0,0,0,0,0,0,0,0,0,0,0,0,0,0,0,0,0,0,0,0,0,0,0,0,0,0,0,0,0,0,0,0,0,0,0,0,0,0,0,0,0,0,0,0,0
"Ind24","3_0_6",95,95,98,95,93,95,99,97,98,98,98,109,109,109,112,110,108,99,101,108,107,109,0,-1,0,0,0,0,0,0,0,0,0,0,0,0,0,0,0,0,0,0,0,0,0,0,0,0,0,0,0,0,0,0,0,0,0,0,0,0,0,0,0,0,0,0,0,0,0,0,0,0,0,0,0,0,0,0,0,0,0,0,0,0,0,0,0,0,0,0,0,0,0,0,0,0,0,0,0,0,0,0,0,0,0,0,0,0,0,0,0
"Ind25","3_0_3",95,95,98,95,93,95,99,97,98,98,98,109,109,109,112,110,108,99,101,108,107,109,0,0,-1,0,0,0,0,0,0,0,0,0,0,0,0,0,0,0,0,0,0,0,0,0,0,0,0,0,0,0,0,0,0,0,0,0,0,0,0,0,0,0,0,0,0,0,0,0,0,0,0,0,0,0,0,0,0,0,0,0,0,0,0,0,0,0,0,0,0,0,0,0,0,0,0,0,0,0,0,0,0,0,0,0,0,0,0,0,0
"Ind26","3_0_4",94,94,97,94,92,94,98,96,97,97,97,110,110,110,113,111,109,100,102,109,108,110,3,3,3,-1,0,0,0,0,0,0,0,0,0,0,0,0,0,0,0,0,0,0,0,0,0,0,0,0,0,0,0,0,0,0,0,0,0,0,0,0,0,0,0,0,0,0,0,0,0,0,0,0,0,0,0,0,0,0,0,0,0,0,0,0,0,0,0,0,0,0,0,0,0,0,0,0,0,0,0,0,0,0,0,0,0,0,0,0,0
"Ind27","3_0_0",95,95,98,95,93,95,99,97,98,98,98,109,109,109,112,110,108,99,101,108,107,109,2,2,2,1,-1,0,0,0,0,0,0,0,0,0,0,0,0,0,0,0,0,0,0,0,0,0,0,0,0,0,0,0,0,0,0,0,0,0,0,0,0,0,0,0,0,0,0,0,0,0,0,0,0,0,0,0,0,0,0,0,0,0,0,0,0,0,0,0,0,0,0,0,0,0,0,0,0,0,0,0,0,0,0,0,0,0,0,0,0
"Ind28","3_0_7",100,100,103,100,98,100,104,102,103,103,103,112,112,112,115,113,111,104,106,113,112,114,6,6,6,9,8,-1,0,0,0,0,0,0,0,0,0,0,0,0,0,0,0,0,0,0,0,0,0,0,0,0,0,0,0,0,0,0,0,0,0,0,0,0,0,0,0,0,0,0,0,0,0,0,0,0,0,0,0,0,0,0,0,0,0,0,0,0,0,0,0,0,0,0,0,0,0,0,0,0,0,0,0,0,0,0,0,0,0,0,0
"Ind29","3_0_10",100,100,103,100,98,100,104,102,103,103,103,114,114,114,117,115,113,104,106,113,112,114,11,11,11,14,13,17,-1,0,0,0,0,0,0,0,0,0,0,0,0,0,0,0,0,0,0,0,0,0,0,0,0,0,0,0,0,0,0,0,0,0,0,0,0,0,0,0,0,0,0,0,0,0,0,0,0,0,0,0,0,0,0,0,0,0,0,0,0,0,0,0,0,0,0,0,0,0,0,0,0,0,0,0,0,0,0,0,0,0,0
"Ind30","3_0_5",97,97,100,97,95,97,101,99,100,100,100,111,111,111,114,112,110,101,103,110,109,111,9,9,9,12,11,13,5,-1,0,0,0,0,0,0,0,0,0,0,0,0,0,0,0,0,0,0,0,0,0,0,0,0,0,0,0,0,0,0,0,0,0,0,0,0,0,0,0,0,0,0,0,0,0,0,0,0,0,0,0,0,0,0,0,0,0,0,0,0,0,0,0,0,0,0,0,0,0,0,0,0,0,0,0,0,0,0,0,0,0
"Ind31","3_0_2",96,96,99,96,94,96,100,98,99,99,99,111,111,111,114,112,110,101,103,110,109,111,11,11,11,13,13,15,6,3,-1,0,0,0,0,0,0,0,0,0,0,0,0,0,0,0,0,0,0,0,0,0,0,0,0,0,0,0,0,0,0,0,0,0,0,0,0,0,0,0,0,0,0,0,0,0,0,0,0,0,0,0,0,0,0,0,0,0,0,0,0,0,0,0,0,0,0,0,0,0,0,0,0,0,0,0,0,0,0,0,0
"Ind32","3_0_9",97,97,100,97,95,97,101,99,100,100,100,111,111,111,114,112,110,101,103,110,109,111,9,9,9,12,11,13,4,1,2,-1,0,0,0,0,0,0,0,0,0,0,0,0,0,0,0,0,0,0,0,0,0,0,0,0,0,0,0,0,0,0,0,0,0,0,0,0,0,0,0,0,0,0,0,0,0,0,0,0,0,0,0,0,0,0,0,0,0,0,0,0,0,0,0,0,0,0,0,0,0,0,0,0,0,0,0,0,0,0,0
"Ind33","3_0_8",96,96,99,96,94,96,100,98,99,99,99,110,110,110,113,111,109,100,102,109,108,110,8,8,8,11,10,12,5,2,3,1,-1,0,0,0,0,0,0,0,0,0,0,0,0,0,0,0,0,0,0,0,0,0,0,0,0,0,0,0,0,0,0,0,0,0,0,0,0,0,0,0,0,0,0,0,0,0,0,0,0,0,0,0,0,0,0,0,0,0,0,0,0,0,0,0,0,0,0,0,0,0,0,0,0,0,0,0,0,0,0
"Ind34","4_0_2",188,188,190,188,188,188,192,190,192,192,190,200,200,199,200,200,201,192,192,199,200,199,180,180,180,182,182,185,184,182,180,182,181,-1,0,0,0,0,0,0,0,0,0,0,0,0,0,0,0,0,0,0,0,0,0,0,0,0,0,0,0,0,0,0,0,0,0,0,0,0,0,0,0,0,0,0,0,0,0,0,0,0,0,0,0,0,0,0,0,0,0,0,0,0,0,0,0,0,0,0,0,0,0,0,0,0,0,0,0,0,0
"Ind35","4_0_4",190,190,190,190,190,190,194,192,194,194,192,202,202,201,202,202,203,196,196,205,202,201,180,180,180,182,182,185,185,183,181,183,182,33,-1,0,0,0,0,0,0,0,0,0,0,0,0,0,0,0,0,0,0,0,0,0,0,0,0,0,0,0,0,0,0,0,0,0,0,0,0,0,0,0,0,0,0,0,0,0,0,0,0,0,0,0,0,0,0,0,0,0,0,0,0,0,0,0,0,0,0,0,0,0,0,0,0,0,0,0,0
"Ind36","4_0_0",190,190,190,190,190,190,194,192,194,194,192,202,202,201,202,202,203,196,196,205,202,201,180,180,180,182,182,185,185,183,181,183,182,33,0,-1,0,0,0,0,0,0,0,0,0,0,0,0,0,0,0,0,0,0,0,0,0,0,0,0,0,0,0,0,0,0,0,0,0,0,0,0,0,0,0,0,0,0,0,0,0,0,0,0,0,0,0,0,0,0,0,0,0,0,0,0,0,0,0,0,0,0,0,0,0,0,0,0,0,0,0
"Ind37","4_0_1",191,191,191,191,191,191,195,193,195,195,193,202,202,201,202,202,203,197,197,206,203,202,181,181,181,183,183,186,186,184,182,184,183,34,1,1,-1,0,0,0,0,0,0,0,0,0,0,0,0,0,0,0,0,0,0,0,0,0,0,0,0,0,0,0,0,0,0,0,0,0,0,0,0,0,0,0,0,0,0,0,0,0,0,0,0,0,0,0,0,0,0,0,0,0,0,0,0,0,0,0,0,0,0,0,0,0,0,0,0,0,0
"Ind38","4_0_5",190,190,190,190,190,190,194,192,194,194,192,202,202,201,202,202,203,196,196,205,202,201,180,180,180,182,182,185,185,183,181,183,182,33,0,0,1,-1,0,0,0,0,0,0,0,0,0,0,0,0,0,0,0,0,0,0,0,0,0,0,0,0,0,0,0,0,0,0,0,0,0,0,0,0,0,0,0,0,0,0,0,0,0,0,0,0,0,0,0,0,0,0,0,0,0,0,0,0,0,0,0,0,0,0,0,0,0,0,0,0,0
"Ind39","4_0_7",191,191,191,191,191,191,195,193,195,195,193,201,201,200,201,201,202,195,195,202,201,200,180,180,180,182,182,185,185,183,181,183,182,33,6,6,7,6,-1,0,0,0,0,0,0,0,0,0,0,0,0,0,0,0,0,0,0,0,0,0,0,0,0,0,0,0,0,0,0,0,0,0,0,0,0,0,0,0,0,0,0,0,0,0,0,0,0,0,0,0,0,0,0,0,0,0,0,0,0,0,0,0,0,0,0,0,0,0,0,0,0
"Ind40","4_0_6",189,189,191,189,189,189,193,191,193,193,191,199,199,198,199,199,200,191,191,200,197,196,176,176,176,178,178,181,181,179,177,179,178,27,14,14,15,14,14,-1,0,0,0,0,0,0,0,0,0,0,0,0,0,0,0,0,0,0,0,0,0,0,0,0,0,0,0,0,0,0,0,0,0,0,0,0,0,0,0,0,0,0,0,0,0,0,0,0,0,0,0,0,0,0,0,0,0,0,0,0,0,0,0,0,0,0,0,0,0,0,0
"Ind41","4_0_8",190,190,192,190,190,190,194,192,194,194,192,200,200,199,200,200,201,192,192,201,198,197,175,175,175,177,177,180,180,178,176,178,177,27,16,16,17,16,16,2,-1,0,0,0,0,0,0,0,0,0,0,0,0,0,0,0,0,0,0,0,0,0,0,0,0,0,0,0,0,0,0,0,0,0,0,0,0,0,0,0,0,0,0,0,0,0,0,0,0,0,0,0,0,0,0,0,0,0,0,0,0,0,0,0,0,0,0,0,0,0,0
"Ind42","4_0_9",190,190,192,190,190,190,194,192,194,194,192,200,200,199,200,200,201,192,192,201,198,197,175,175,175,177,177,180,180,178,176,178,177,27,16,16,17,16,16,2,0,-1,0,0,0,0,0,0,0,0,0,0,0,0,0,0,0,0,0,0,0,0,0,0,0,0,0,0,0,0,0,0,0,0,0,0,0,0,0,0,0,0,0,0,0,0,0,0,0,0,0,0,0,0,0,0,0,0,0,0,0,0,0,0,0,0,0,0,0,0,0
"Ind43","4_0_3",184,184,186,184,184,184,188,186,188,188,186,196,196,195,196,196,197,188,188,195,194,193,171,171,171,173,173,176,176,174,172,174,173,30,17,17,18,17,17,13,15,15,-1,0,0,0,0,0,0,0,0,0,0,0,0,0,0,0,0,0,0,0,0,0,0,0,0,0,0,0,0,0,0,0,0,0,0,0,0,0,0,0,0,0,0,0,0,0,0,0,0,0,0,0,0,0,0,0,0,0,0,0,0,0,0,0,0,0,0,0,0
"Ind44","4_0_10",183,183,185,183,183,183,187,185,187,187,185,195,195,194,195,195,196,187,187,194,193,192,170,170,170,172,172,175,175,173,171,173,172,29,16,16,17,16,16,12,14,14,3,-1,0,0,0,0,0,0,0,0,0,0,0,0,0,0,0,0,0,0,0,0,0,0,0,0,0,0,0,0,0,0,0,0,0,0,0,0,0,0,0,0,0,0,0,0,0,0,0,0,0,0,0,0,0,0,0,0,0,0,0,0,0,0,0,0,0,0,0
"Ind45","10_0_5",177,177,178,178,176,178,182,180,180,180,178,174,174,176,176,177,176,175,176,180,183,184,161,161,161,160,161,165,166,164,164,164,164,209,215,215,216,215,218,212,211,211,206,207,-1,0,0,0,0,0,0,0,0,0,0,0,0,0,0,0,0,0,0,0,0,0,0,0,0,0,0,0,0,0,0,0,0,0,0,0,0,0,0,0,0,0,0,0,0,0,0,0,0,0,0,0,0,0,0,0,0,0,0,0,0,0,0,0,0,0,0
"Ind46","10_0_6",177,177,178,178,176,178,182,180,180,180,178,174,174,176,176,177,176,175,176,180,183,184,161,161,161,160,161,165,166,164,164,164,164,209,215,215,216,215,218,212,211,211,206,207,5,-1,0,0,0,0,0,0,0,0,0,0,0,0,0,0,0,0,0,0,0,0,0,0,0,0,0,0,0,0,0,0,0,0,0,0,0,0,0,0,0,0,0,0,0,0,0,0,0,0,0,0,0,0,0,0,0,0,0,0,0,0,0,0,0,0,0
"Ind47","10_0_7",175,175,176,176,174,176,180,178,178,178,176,172,172,174,174,175,174,173,174,178,181,182,159,159,159,158,159,163,164,162,162,162,162,209,215,215,216,215,218,212,211,211,206,207,3,2,-1,0,0,0,0,0,0,0,0,0,0,0,0,0,0,0,0,0,0,0,0,0,0,0,0,0,0,0,0,0,0,0,0,0,0,0,0,0,0,0,0,0,0,0,0,0,0,0,0,0,0,0,0,0,0,0,0,0,0,0,0,0,0,0,0
"Ind48","10_0_1",175,175,176,176,174,176,180,178,178,178,176,172,172,174,174,175,174,173,174,178,181,182,159,159,159,158,159,163,164,162,162,162,162,209,215,215,216,215,218,212,211,211,206,207,6,5,3,-1,0,0,0,0,0,0,0,0,0,0,0,0,0,0,0,0,0,0,0,0,0,0,0,0,0,0,0,0,0,0,0,0,0,0,0,0,0,0,0,0,0,0,0,0,0,0,0,0,0,0,0,0,0,0,0,0,0,0,0,0,0,0,0
"Ind49","10_0_9",175,175,176,176,174,176,180,178,178,178,176,172,172,174,174,175,174,173,174,178,181,182,159,159,159,158,159,163,164,162,162,162,162,210,216,216,217,216,219,213,212,212,207,208,5,4,2,1,-1,0,0,0,0,0,0,0,0,0,0,0,0,0,0,0,0,0,0,0,0,0,0,0,0,0,0,0,0,0,0,0,0,0,0,0,0,0,0,0,0,0,0,0,0,0,0,0,0,0,0,0,0,0,0,0,0,0,0,0,0,0,0
"Ind50","10_0_0",175,175,176,176,174,176,180,178,178,178,176,172,172,174,174,175,174,173,174,178,181,182,159,159,159,158,159,163,164,162,162,162,162,210,216,216,217,216,219,213,212,212,207,208,5,4,2,1,0,-1,0,0,0,0,0,0,0,0,0,0,0,0,0,0,0,0,0,0,0,0,0,0,0,0,0,0,0,0,0,0,0,0,0,0,0,0,0,0,0,0,0,0,0,0,0,0,0,0,0,0,0,0,0,0,0,0,0,0,0,0,0
"Ind51","10_0_4",179,179,180,180,178,180,184,182,182,182,180,177,177,178,178,179,178,177,178,180,183,184,164,164,164,163,164,168,169,167,167,167,167,206,214,214,215,214,215,209,208,208,205,206,23,22,20,17,18,18,-1,0,0,0,0,0,0,0,0,0,0,0,0,0,0,0,0,0,0,0,0,0,0,0,0,0,0,0,0,0,0,0,0,0,0,0,0,0,0,0,0,0,0,0,0,0,0,0,0,0,0,0,0,0,0,0,0,0,0,0,0
"Ind52","10_0_2",180,180,181,181,179,181,185,183,183,183,181,178,178,179,179,180,179,178,179,181,184,185,165,165,165,164,165,169,170,168,168,168,168,207,215,215,216,215,216,210,209,209,206,207,24,23,21,18,19,19,1,-1,0,0,0,0,0,0,0,0,0,0,0,0,0,0,0,0,0,0,0,0,0,0,0,0,0,0,0,0,0,0,0,0,0,0,0,0,0,0,0,0,0,0,0,0,0,0,0,0,0,0,0,0,0,0,0,0,0,0,0
"Ind53","10_0_10",182,182,183,183,181,183,187,185,185,185,183,180,180,181,181,182,181,180,181,183,186,187,165,165,165,164,165,169,170,168,168,168,168,206,214,214,215,214,215,209,208,208,205,206,22,21,19,16,17,17,5,6,-1,0,0,0,0,0,0,0,0,0,0,0,0,0,0,0,0,0,0,0,0,0,0,0,0,0,0,0,0,0,0,0,0,0,0,0,0,0,0,0,0,0,0,0,0,0,0,0,0,0,0,0,0,0,0,0,0,0,0
"Ind54","10_0_8",183,183,184,184,182,184,188,186,186,186,184,179,179,180,180,181,180,181,182,182,185,186,166,166,166,165,166,170,171,169,169,169,169,207,215,215,216,215,216,210,209,209,206,207,23,22,20,17,18,18,6,7,1,-1,0,0,0,0,0,0,0,0,0,0,0,0,0,0,0,0,0,0,0,0,0,0,0,0,0,0,0,0,0,0,0,0,0,0,0,0,0,0,0,0,0,0,0,0,0,0,0,0,0,0,0,0,0,0,0,0,0
"Ind55","10_0_3",181,181,182,182,180,182,186,184,184,184,182,179,179,180,180,181,180,179,180,182,185,186,166,166,166,165,166,170,171,169,169,169,169,207,215,215,216,215,216,210,209,209,206,207,23,22,20,17,18,18,6,7,1,2,-1,0,0,0,0,0,0,0,0,0,0,0,0,0,0,0,0,0,0,0,0,0,0,0,0,0,0,0,0,0,0,0,0,0,0,0,0,0,0,0,0,0,0,0,0,0,0,0,0,0,0,0,0,0,0,0,0
"Ind56","9_0_7",165,165,170,166,164,166,170,168,168,168,166,162,163,163,165,164,163,158,158,160,160,161,161,161,161,160,161,167,164,162,162,162,162,200,201,201,202,201,202,198,199,199,193,194,115,116,114,111,112,112,115,116,116,117,117,-1,0,0,0,0,0,0,0,0,0,0,0,0,0,0,0,0,0,0,0,0,0,0,0,0,0,0,0,0,0,0,0,0,0,0,0,0,0,0,0,0,0,0,0,0,0,0,0,0,0,0,0,0,0,0,0
"Ind57","9_0_9",165,165,168,166,164,166,170,168,170,170,168,163,163,163,163,164,163,156,156,158,162,163,159,159,159,158,159,165,162,160,160,160,160,197,196,196,197,196,198,195,196,196,190,191,107,108,106,103,104,104,107,108,108,109,109,16,-1,0,0,0,0,0,0,0,0,0,0,0,0,0,0,0,0,0,0,0,0,0,0,0,0,0,0,0,0,0,0,0,0,0,0,0,0,0,0,0,0,0,0,0,0,0,0,0,0,0,0,0,0,0,0
"Ind58","9_0_2",165,165,168,166,164,166,170,168,170,170,168,163,163,163,163,164,163,156,156,158,162,163,159,159,159,158,159,165,162,160,160,160,160,197,196,196,197,196,198,195,196,196,190,191,107,108,106,103,104,104,107,108,108,109,109,16,0,-1,0,0,0,0,0,0,0,0,0,0,0,0,0,0,0,0,0,0,0,0,0,0,0,0,0,0,0,0,0,0,0,0,0,0,0,0,0,0,0,0,0,0,0,0,0,0,0,0,0,0,0,0,0
"Ind59","9_0_6",165,165,168,166,164,166,170,168,170,170,168,163,163,163,163,164,163,156,156,158,162,163,157,157,157,156,157,163,160,158,158,158,158,198,197,197,198,197,199,196,197,197,191,192,105,106,104,101,102,102,105,106,106,107,107,16,2,2,-1,0,0,0,0,0,0,0,0,0,0,0,0,0,0,0,0,0,0,0,0,0,0,0,0,0,0,0,0,0,0,0,0,0,0,0,0,0,0,0,0,0,0,0,0,0,0,0,0,0,0,0,0
"Ind60","9_0_4",164,164,167,165,163,165,169,167,169,169,167,162,162,162,162,163,162,155,155,157,161,162,158,158,158,157,158,164,161,159,159,159,159,197,196,196,197,196,198,195,196,196,190,191,106,107,105,102,103,103,106,107,107,108,108,15,1,1,1,-1,0,0,0,0,0,0,0,0,0,0,0,0,0,0,0,0,0,0,0,0,0,0,0,0,0,0,0,0,0,0,0,0,0,0,0,0,0,0,0,0,0,0,0,0,0,0,0,0,0,0,0
"Ind61","9_0_8",167,167,174,168,166,168,170,170,172,172,171,165,165,165,167,166,165,162,162,164,166,167,163,163,163,162,163,169,166,164,164,164,164,200,199,199,200,199,201,200,201,201,193,194,111,112,110,107,108,108,113,114,114,115,115,21,15,15,15,14,-1,0,0,0,0,0,0,0,0,0,0,0,0,0,0,0,0,0,0,0,0,0,0,0,0,0,0,0,0,0,0,0,0,0,0,0,0,0,0,0,0,0,0,0,0,0,0,0,0,0,0
"Ind62","9_0_0",165,165,170,166,164,166,170,168,170,170,168,163,163,163,163,164,163,158,158,160,162,163,159,159,159,158,159,165,162,160,160,160,160,198,197,197,198,197,199,196,197,197,191,192,108,109,107,104,105,105,108,109,109,110,110,13,5,5,5,4,10,-1,0,0,0,0,0,0,0,0,0,0,0,0,0,0,0,0,0,0,0,0,0,0,0,0,0,0,0,0,0,0,0,0,0,0,0,0,0,0,0,0,0,0,0,0,0,0,0,0,0
"Ind63","9_0_5",165,165,170,166,164,166,170,168,170,170,168,163,163,163,163,164,163,158,158,160,162,163,159,159,159,158,159,165,162,160,160,160,160,198,197,197,198,197,199,196,197,197,191,192,108,109,107,104,105,105,108,109,109,110,110,13,5,5,5,4,10,0,-1,0,0,0,0,0,0,0,0,0,0,0,0,0,0,0,0,0,0,0,0,0,0,0,0,0,0,0,0,0,0,0,0,0,0,0,0,0,0,0,0,0,0,0,0,0,0,0,0
"Ind64","9_0_10",162,162,167,163,161,163,167,165,167,167,165,164,164,164,167,165,164,159,161,163,169,170,153,153,153,152,153,159,159,157,157,157,157,196,196,196,197,196,198,191,192,192,188,189,115,116,114,111,112,112,112,111,113,114,113,32,24,24,26,25,32,25,25,-1,0,0,0,0,0,0,0,0,0,0,0,0,0,0,0,0,0,0,0,0,0,0,0,0,0,0,0,0,0,0,0,0,0,0,0,0,0,0,0,0,0,0,0,0,0,0,0
"Ind65","9_0_1",163,163,168,164,162,164,168,166,168,168,166,163,163,163,166,164,163,158,160,160,164,165,154,154,154,153,154,160,160,158,158,158,158,199,199,199,200,199,199,196,197,197,191,192,115,116,114,111,112,112,114,113,115,116,115,32,26,26,28,27,32,25,25,8,-1,0,0,0,0,0,0,0,0,0,0,0,0,0,0,0,0,0,0,0,0,0,0,0,0,0,0,0,0,0,0,0,0,0,0,0,0,0,0,0,0,0,0,0,0,0,0
"Ind66","9_0_3",163,163,168,164,162,164,168,166,168,168,166,165,165,165,168,166,165,160,162,162,166,167,154,154,154,153,154,160,160,158,158,158,158,199,199,199,200,199,201,194,195,195,191,192,116,117,115,112,113,113,115,114,116,117,116,31,25,25,27,26,31,24,24,5,3,-1,0,0,0,0,0,0,0,0,0,0,0,0,0,0,0,0,0,0,0,0,0,0,0,0,0,0,0,0,0,0,0,0,0,0,0,0,0,0,0,0,0,0,0,0,0
"Ind67","8_0_5",170,170,169,171,169,171,175,173,174,174,175,173,173,173,172,174,173,166,166,166,168,168,160,160,160,159,160,166,163,161,161,161,161,193,191,191,192,191,190,191,192,192,188,189,114,114,113,110,111,111,111,112,112,113,113,53,42,42,42,41,53,43,43,58,58,57,-1,0,0,0,0,0,0,0,0,0,0,0,0,0,0,0,0,0,0,0,0,0,0,0,0,0,0,0,0,0,0,0,0,0,0,0,0,0,0,0,0,0,0,0,0
"Ind68","8_0_6",169,169,168,170,168,170,174,172,173,173,174,172,172,172,171,173,172,165,165,165,167,168,159,159,159,158,159,165,162,160,160,160,160,193,191,191,192,191,190,191,192,192,188,189,113,113,112,109,110,110,110,111,111,112,112,52,41,41,41,40,52,42,42,57,57,56,1,-1,0,0,0,0,0,0,0,0,0,0,0,0,0,0,0,0,0,0,0,0,0,0,0,0,0,0,0,0,0,0,0,0,0,0,0,0,0,0,0,0,0,0,0
"Ind69","8_0_3",170,170,169,171,169,171,175,173,174,174,175,173,173,173,172,174,173,166,166,166,168,169,160,160,160,159,160,166,163,161,161,161,161,192,192,192,193,192,191,192,193,193,189,190,114,114,113,110,111,111,111,112,112,113,113,53,42,42,42,41,53,43,43,58,58,57,2,1,-1,0,0,0,0,0,0,0,0,0,0,0,0,0,0,0,0,0,0,0,0,0,0,0,0,0,0,0,0,0,0,0,0,0,0,0,0,0,0,0,0,0,0
"Ind70","8_0_1",172,172,171,173,171,173,177,175,176,176,177,173,173,173,172,174,173,164,164,167,168,169,159,159,159,160,159,165,162,160,161,160,160,197,198,198,199,198,200,197,198,198,193,194,118,116,115,112,113,113,114,115,115,116,116,61,52,52,52,51,62,53,53,66,64,63,18,17,18,-1,0,0,0,0,0,0,0,0,0,0,0,0,0,0,0,0,0,0,0,0,0,0,0,0,0,0,0,0,0,0,0,0,0,0,0,0,0,0,0,0,0
"Ind71","8_0_9",172,172,171,173,171,173,177,175,176,176,177,173,173,173,172,174,173,164,164,167,168,169,159,159,159,160,159,165,162,160,161,160,160,197,198,198,199,198,200,197,198,198,193,194,118,116,115,112,113,113,114,115,115,116,116,61,52,52,52,51,62,53,53,66,64,63,18,17,18,0,-1,0,0,0,0,0,0,0,0,0,0,0,0,0,0,0,0,0,0,0,0,0,0,0,0,0,0,0,0,0,0,0,0,0,0,0,0,0,0,0,0
"Ind72","8_0_0",174,174,173,175,173,175,179,177,178,178,179,175,175,175,174,176,175,166,164,168,168,169,163,163,163,164,163,169,166,164,165,164,164,195,195,195,196,195,196,195,196,196,191,192,120,118,117,114,115,115,115,116,116,117,117,60,49,49,49,48,59,50,50,65,63,62,17,16,17,5,5,-1,0,0,0,0,0,0,0,0,0,0,0,0,0,0,0,0,0,0,0,0,0,0,0,0,0,0,0,0,0,0,0,0,0,0,0,0,0,0,0
"Ind73","8_0_4",174,174,173,175,173,175,179,177,178,178,179,175,175,175,174,176,175,166,164,168,168,169,163,163,163,164,163,169,166,164,165,164,164,195,195,195,196,195,196,195,196,196,191,192,120,118,117,114,115,115,115,116,116,117,117,60,49,49,49,48,59,50,50,65,63,62,17,16,17,5,5,0,-1,0,0,0,0,0,0,0,0,0,0,0,0,0,0,0,0,0,0,0,0,0,0,0,0,0,0,0,0,0,0,0,0,0,0,0,0,0,0
"Ind74","8_0_10",174,174,173,175,173,175,179,177,178,178,179,175,175,175,174,176,175,166,164,168,168,169,163,163,163,164,163,169,166,164,165,164,164,195,195,195,196,195,196,195,196,196,191,192,120,118,117,114,115,115,115,116,116,117,117,60,49,49,49,48,59,50,50,65,63,62,17,16,17,5,5,0,0,-1,0,0,0,0,0,0,0,0,0,0,0,0,0,0,0,0,0,0,0,0,0,0,0,0,0,0,0,0,0,0,0,0,0,0,0,0,0
"Ind75","8_0_2",175,175,174,176,174,176,180,178,179,179,180,176,176,176,175,177,176,167,165,169,169,170,162,162,162,163,162,168,165,163,164,163,163,195,195,195,196,195,196,195,196,196,191,192,121,119,118,115,116,116,116,117,117,118,118,61,50,50,50,49,60,51,51,66,64,63,16,15,16,4,4,1,1,1,-1,0,0,0,0,0,0,0,0,0,0,0,0,0,0,0,0,0,0,0,0,0,0,0,0,0,0,0,0,0,0,0,0,0,0,0,0
"Ind76","8_0_8",173,173,172,174,172,174,178,176,177,177,178,174,174,174,173,175,174,165,165,169,171,172,160,160,160,161,160,166,163,161,162,161,161,197,197,197,198,197,198,197,198,198,193,194,120,118,117,114,115,115,115,116,116,117,117,64,53,53,53,52,63,54,54,67,67,66,19,18,19,5,5,6,6,6,5,-1,0,0,0,0,0,0,0,0,0,0,0,0,0,0,0,0,0,0,0,0,0,0,0,0,0,0,0,0,0,0,0,0,0,0,0
"Ind77","8_0_7",174,174,173,175,173,175,179,177,178,178,179,175,175,175,174,176,175,166,166,168,170,171,161,161,161,162,161,167,164,162,163,162,162,196,196,196,197,196,197,196,197,197,192,193,120,118,117,114,115,115,115,116,116,117,117,60,49,49,49,48,59,50,50,65,63,62,15,14,15,3,3,2,2,2,1,4,-1,0,0,0,0,0,0,0,0,0,0,0,0,0,0,0,0,0,0,0,0,0,0,0,0,0,0,0,0,0,0,0,0,0,0
"Ind78","6_0_7",167,167,168,168,166,168,170,170,171,171,169,170,170,170,171,171,170,168,166,175,174,175,160,160,160,159,160,166,163,161,161,161,161,201,205,205,206,205,209,204,203,203,203,204,124,125,123,120,121,121,124,125,125,126,126,85,78,78,77,77,87,79,79,86,90,89,77,76,77,82,82,80,80,80,81,80,82,-1,0,0,0,0,0,0,0,0,0,0,0,0,0,0,0,0,0,0,0,0,0,0,0,0,0,0,0,0,0,0,0,0,0
"Ind79","6_0_5",162,162,163,163,161,163,165,165,166,166,164,167,167,167,168,168,167,165,163,170,171,172,161,161,161,160,161,167,164,162,162,162,162,198,200,200,201,200,202,203,202,202,198,199,123,124,122,119,120,120,123,124,124,125,125,84,77,77,76,76,86,78,78,87,87,90,76,75,76,81,81,79,79,79,80,79,81,7,-1,0,0,0,0,0,0,0,0,0,0,0,0,0,0,0,0,0,0,0,0,0,0,0,0,0,0,0,0,0,0,0,0
"Ind80","6_0_4",162,162,163,163,161,163,165,165,166,166,164,167,167,167,168,168,167,165,163,170,171,172,161,161,161,160,161,167,164,162,162,162,162,198,200,200,201,200,202,203,202,202,198,199,123,124,122,119,120,120,123,124,124,125,125,84,77,77,76,76,86,78,78,87,87,90,76,75,76,81,81,79,79,79,80,79,81,7,0,-1,0,0,0,0,0,0,0,0,0,0,0,0,0,0,0,0,0,0,0,0,0,0,0,0,0,0,0,0,0,0,0
"Ind81","6_0_3",166,166,167,167,165,167,169,169,170,170,168,169,169,169,170,170,169,167,165,172,173,174,161,161,161,160,161,167,164,162,162,162,162,202,204,204,205,204,206,205,204,204,202,203,125,126,124,121,122,122,125,126,126,127,127,86,79,79,78,78,88,80,80,87,89,90,78,77,78,83,83,81,81,81,82,81,83,7,4,4,-1,0,0,0,0,0,0,0,0,0,0,0,0,0,0,0,0,0,0,0,0,0,0,0,0,0,0,0,0,0,0
"Ind82","6_0_8",165,165,166,166,164,166,168,168,169,169,167,168,168,168,169,169,168,166,164,171,172,173,160,160,160,159,160,166,165,163,163,163,163,201,203,203,204,203,205,204,203,203,201,202,124,125,123,120,121,121,124,125,125,126,126,85,78,78,77,77,87,79,79,84,86,87,77,76,77,82,82,80,80,80,81,80,82,6,3,3,3,-1,0,0,0,0,0,0,0,0,0,0,0,0,0,0,0,0,0,0,0,0,0,0,0,0,0,0,0,0,0
"Ind83","6_0_0",167,167,168,168,166,168,170,170,171,171,169,168,168,168,169,169,168,166,164,173,172,173,162,162,162,161,162,168,165,163,163,163,163,205,207,207,208,207,209,206,205,205,205,206,124,125,123,120,121,121,124,125,125,126,126,87,80,80,79,79,89,81,81,86,88,89,79,78,79,84,84,82,82,82,83,82,84,4,7,7,7,6,-1,0,0,0,0,0,0,0,0,0,0,0,0,0,0,0,0,0,0,0,0,0,0,0,0,0,0,0,0
"Ind84","6_0_9",169,169,170,170,168,170,172,172,173,173,171,172,172,172,173,173,172,170,168,177,176,177,162,162,162,161,162,166,165,163,163,163,163,203,207,207,208,207,211,206,205,205,205,206,126,127,125,122,123,123,126,127,127,128,128,87,80,80,79,79,89,81,81,88,92,91,79,78,79,84,84,82,82,82,83,82,84,2,9,9,9,8,6,-1,0,0,0,0,0,0,0,0,0,0,0,0,0,0,0,0,0,0,0,0,0,0,0,0,0,0,0
"Ind85","6_0_6",170,170,171,171,169,171,173,173,174,174,172,173,173,173,174,174,173,171,169,178,177,178,163,163,163,162,163,167,166,164,164,164,164,203,207,207,208,207,211,206,205,205,205,206,127,128,126,123,124,124,127,128,128,129,129,90,83,83,82,82,92,84,84,89,93,92,82,81,82,87,87,85,85,85,86,85,87,5,12,12,12,11,9,3,-1,0,0,0,0,0,0,0,0,0,0,0,0,0,0,0,0,0,0,0,0,0,0,0,0,0,0
"Ind86","6_0_10",170,170,171,171,169,171,173,173,174,174,172,173,173,173,174,174,173,171,169,178,177,178,163,163,163,162,163,167,166,164,164,164,164,203,207,207,208,207,211,206,205,205,205,206,127,128,126,123,124,124,127,128,128,129,129,90,83,83,82,82,92,84,84,89,93,92,82,81,82,87,87,85,85,85,86,85,87,5,12,12,12,11,9,3,0,-1,0,0,0,0,0,0,0,0,0,0,0,0,0,0,0,0,0,0,0,0,0,0,0,0,0
"Ind87","6_0_1",174,174,175,175,173,175,177,177,178,178,176,173,173,173,174,174,173,172,170,180,178,179,160,160,160,161,160,166,163,161,162,161,161,205,209,209,210,209,213,208,207,207,207,208,127,128,126,123,124,124,127,128,128,129,129,89,82,82,81,81,90,83,83,90,94,93,81,80,81,82,82,80,80,80,81,82,82,12,19,19,19,18,16,14,17,17,-1,0,0,0,0,0,0,0,0,0,0,0,0,0,0,0,0,0,0,0,0,0,0,0,0
"Ind88","6_0_2",174,174,177,175,173,175,177,177,178,178,177,173,173,173,174,174,173,172,170,180,178,179,164,164,164,165,164,170,167,165,166,165,165,206,210,210,211,210,214,209,208,208,206,209,125,126,124,121,122,122,125,126,126,127,127,89,82,82,81,81,88,83,83,90,94,93,81,80,81,84,84,82,82,82,83,84,84,14,21,21,21,20,18,16,19,19,6,-1,0,0,0,0,0,0,0,0,0,0,0,0,0,0,0,0,0,0,0,0,0,0,0
"Ind89","7_0_10",169,169,170,170,168,170,174,172,171,171,172,162,162,162,163,163,162,161,159,165,165,167,150,150,150,151,150,154,154,152,153,152,152,189,192,192,193,192,191,186,185,185,189,188,115,114,112,111,112,112,112,113,111,112,111,96,86,86,84,85,95,89,89,90,91,90,86,85,86,91,91,88,88,88,89,94,90,107,110,110,112,111,109,109,110,110,109,109,-1,0,0,0,0,0,0,0,0,0,0,0,0,0,0,0,0,0,0,0,0,0,0
"Ind90","7_0_7",169,169,170,170,168,170,174,172,171,171,172,162,162,162,163,163,162,161,159,165,165,167,150,150,150,151,150,154,154,152,153,152,152,189,192,192,193,192,191,186,185,185,189,188,115,114,112,111,112,112,112,113,111,112,111,96,86,86,84,85,95,89,89,90,91,90,85,84,85,90,90,87,87,87,88,93,89,107,110,110,112,111,109,109,110,110,109,109,2,-1,0,0,0,0,0,0,0,0,0,0,0,0,0,0,0,0,0,0,0,0,0
"Ind91","7_0_8",167,167,168,168,166,168,172,170,169,169,170,162,162,162,163,163,162,161,159,165,165,167,150,150,150,149,150,154,154,152,152,152,152,188,191,191,192,191,190,185,184,184,188,187,113,112,110,109,110,110,110,111,109,110,109,94,84,84,82,83,93,87,87,88,89,88,85,84,85,92,92,89,89,89,90,95,91,105,108,108,110,109,107,107,108,108,109,109,2,2,-1,0,0,0,0,0,0,0,0,0,0,0,0,0,0,0,0,0,0,0,0
"Ind92","7_0_4",167,167,168,168,166,168,172,170,169,169,170,162,162,162,163,163,162,161,159,165,165,167,150,150,150,149,150,154,154,152,152,152,152,188,191,191,192,191,190,185,184,184,188,187,113,112,110,107,108,108,108,109,107,108,107,92,82,82,80,81,91,85,85,86,87,86,83,82,83,90,90,87,87,87,88,93,89,103,106,106,108,107,105,105,106,106,107,107,4,4,2,-1,0,0,0,0,0,0,0,0,0,0,0,0,0,0,0,0,0,0,0
"Ind93","7_0_3",170,170,171,171,169,171,175,173,172,172,173,165,165,165,166,166,165,164,162,168,168,170,151,151,151,150,151,155,155,153,153,153,153,190,193,193,194,193,192,187,186,186,188,187,114,113,111,110,111,111,111,112,110,111,110,93,83,83,81,82,90,86,86,89,90,89,84,83,84,90,90,87,87,87,88,93,89,107,110,110,112,111,109,109,110,110,111,111,7,7,5,7,-1,0,0,0,0,0,0,0,0,0,0,0,0,0,0,0,0,0,0
"Ind94","7_0_2",169,169,170,170,168,170,174,172,171,171,172,164,164,164,165,165,164,163,161,167,167,169,149,149,149,148,149,153,153,151,151,151,151,189,192,192,193,192,191,186,185,185,187,186,113,112,110,109,110,110,110,111,109,110,109,97,87,87,85,86,94,90,90,91,92,91,88,87,88,94,94,91,91,91,92,97,93,108,111,111,113,112,110,110,111,111,112,112,5,5,3,5,4,-1,0,0,0,0,0,0,0,0,0,0,0,0,0,0,0,0,0
"Ind95","7_0_9",169,169,170,170,168,170,174,172,171,171,172,164,164,164,165,165,164,163,161,167,167,169,149,149,149,148,149,153,153,151,151,151,151,189,192,192,193,192,191,186,185,185,187,186,113,112,110,109,110,110,110,111,109,110,109,97,87,87,85,86,94,90,90,91,92,91,88,87,88,94,94,91,91,91,92,97,93,108,111,111,113,112,110,110,111,111,112,112,5,5,3,5,4,0,-1,0,0,0,0,0,0,0,0,0,0,0,0,0,0,0,0
"Ind96","7_0_5",168,168,169,169,167,169,173,171,170,170,171,163,163,163,164,164,163,162,160,166,166,168,149,149,149,148,149,153,153,151,151,151,151,190,193,193,194,193,192,187,186,186,188,187,113,112,110,109,110,110,110,111,109,110,109,96,86,86,84,85,93,89,89,90,91,90,87,86,87,93,93,90,90,90,91,96,92,107,110,110,112,111,109,109,110,110,111,111,4,4,2,4,3,1,1,-1,0,0,0,0,0,0,0,0,0,0,0,0,0,0,0
"Ind97","7_0_0",168,168,169,169,167,169,173,171,170,170,171,163,163,163,164,164,163,162,160,166,166,168,149,149,149,148,149,153,153,151,151,151,151,190,193,193,194,193,192,187,186,186,188,187,113,112,110,109,110,110,110,111,109,110,109,96,86,86,84,85,93,89,89,90,91,90,87,86,87,93,93,90,90,90,91,96,92,107,110,110,112,111,109,109,110,110,111,111,4,4,2,4,3,1,1,0,-1,0,0,0,0,0,0,0,0,0,0,0,0,0,0
"Ind98","7_0_6",169,169,170,170,168,170,174,172,171,171,170,167,167,165,166,166,167,165,164,169,172,173,154,154,154,153,154,158,158,156,156,156,156,194,198,198,199,198,197,194,193,193,195,194,117,116,114,113,114,114,116,117,115,116,115,98,88,88,86,87,95,91,91,92,93,92,90,89,90,97,97,95,95,95,96,100,96,108,111,111,113,112,110,110,111,111,111,111,27,27,25,27,28,28,28,27,27,-1,0,0,0,0,0,0,0,0,0,0,0,0,0
"Ind99","7_0_1",169,169,170,170,168,170,174,172,171,171,172,167,167,165,166,166,167,165,164,169,172,173,152,152,152,151,152,156,156,154,154,154,154,194,198,198,199,198,197,194,193,193,195,194,117,116,114,113,114,114,116,117,115,116,115,98,88,88,86,87,95,91,91,92,93,92,88,87,88,95,95,93,93,93,94,98,94,108,111,111,113,112,110,110,111,111,111,111,27,27,25,27,28,28,28,27,27,4,-1,0,0,0,0,0,0,0,0,0,0,0,0
"Ind100","5_0_10",168,168,169,169,167,169,173,171,170,170,171,164,164,164,165,165,164,164,162,168,168,169,155,155,155,154,155,159,159,157,157,157,157,193,198,198,198,198,197,192,191,191,193,192,115,114,112,111,112,112,112,113,111,112,111,96,86,86,84,85,93,89,89,90,89,90,87,86,87,94,94,91,91,91,92,97,93,104,107,107,109,108,106,106,107,107,108,108,23,23,21,23,24,24,24,23,23,26,26,-1,0,0,0,0,0,0,0,0,0,0,0
"Ind101","5_0_9",167,167,168,168,166,168,172,170,169,169,170,163,163,163,164,164,163,163,161,167,167,168,152,152,152,151,152,156,156,154,154,154,154,191,196,196,196,196,195,190,189,189,191,190,113,112,110,109,110,110,110,111,109,110,109,92,82,82,80,81,89,85,85,86,85,86,83,82,83,90,90,87,87,87,88,93,89,100,103,103,105,104,102,102,103,103,104,104,21,21,19,21,22,22,22,21,21,22,22,4,-1,0,0,0,0,0,0,0,0,0,0
"Ind102","5_0_4",168,168,169,169,167,169,173,171,170,170,171,164,164,164,165,165,164,162,160,166,166,167,151,151,151,150,151,155,155,153,153,153,153,190,193,193,194,193,192,187,186,186,190,189,113,112,110,109,110,110,110,111,109,110,109,88,78,78,76,77,85,81,81,82,83,82,79,78,79,84,84,81,81,81,82,87,83,98,101,101,103,102,100,100,101,101,102,102,17,17,15,17,18,18,18,17,17,18,18,14,10,-1,0,0,0,0,0,0,0,0,0
"Ind103","5_0_8",167,167,168,168,166,168,172,170,169,169,170,163,163,163,164,164,163,161,159,165,165,166,150,150,150,149,150,154,154,152,152,152,152,188,191,191,192,191,190,185,184,184,188,187,112,111,109,108,109,109,109,110,108,109,108,87,75,75,75,76,84,80,80,79,80,79,78,77,78,85,85,82,82,82,83,88,84,99,102,102,104,103,101,101,102,102,103,103,16,16,14,16,17,17,17,16,16,17,17,13,9,3,-1,0,0,0,0,0,0,0,0
"Ind104","5_0_1",167,167,168,168,166,168,172,170,169,169,170,163,163,163,164,164,163,161,159,165,165,166,150,150,150,149,150,154,154,152,152,152,152,188,191,191,192,191,190,185,184,184,188,187,112,111,109,108,109,109,109,110,108,109,108,87,77,77,75,76,84,80,80,81,82,81,78,77,78,85,85,82,82,82,83,88,84,99,102,102,104,103,101,101,102,102,103,103,16,16,14,16,17,17,17,16,16,17,17,13,9,3,2,-1,0,0,0,0,0,0,0
"Ind105","5_0_7",168,168,167,167,165,167,171,169,168,168,169,164,164,164,165,165,164,160,158,164,164,165,144,144,144,143,144,148,150,148,148,148,148,189,192,192,193,192,193,186,185,185,189,188,115,114,112,111,112,112,112,113,111,112,111,90,80,80,78,79,87,83,83,82,83,82,83,82,83,88,88,85,85,85,86,91,87,101,104,104,106,103,103,103,104,104,105,105,22,22,20,22,23,23,23,22,22,23,23,20,16,12,11,11,-1,0,0,0,0,0,0
"Ind106","5_0_0",169,169,168,168,166,168,172,170,169,169,170,165,165,165,166,166,165,161,159,165,165,166,146,146,146,145,146,150,152,150,150,150,150,188,191,191,192,191,192,185,184,184,188,187,115,114,112,111,112,112,112,113,111,112,111,90,80,80,78,79,87,83,83,82,83,82,83,82,83,88,88,85,85,85,86,91,87,101,104,104,106,103,103,103,104,104,105,105,22,22,20,22,23,23,23,22,22,23,23,20,16,12,11,11,2,-1,0,0,0,0,0
"Ind107","5_0_3",170,170,169,169,167,169,173,171,170,170,171,166,166,166,167,167,166,162,160,166,166,167,149,149,149,148,149,153,153,151,151,151,151,186,189,189,190,189,190,183,182,182,186,185,114,113,111,110,111,111,111,112,110,111,110,89,79,79,77,78,86,82,82,83,84,83,82,81,82,87,87,84,84,84,85,90,86,100,103,103,105,104,102,102,103,103,104,104,21,21,19,21,22,22,22,21,21,22,22,19,15,11,10,10,5,5,-1,0,0,0,0
"Ind108","5_0_6",169,169,168,168,166,168,172,170,169,169,170,165,165,165,166,166,165,161,159,165,165,166,148,148,148,147,148,152,152,150,150,150,150,187,190,190,191,190,191,184,183,183,187,186,113,112,110,109,110,110,110,111,109,110,109,88,78,78,76,77,85,81,81,82,83,82,81,80,81,86,86,83,83,83,84,89,85,99,102,102,104,103,101,101,102,102,103,103,20,20,18,20,21,21,21,20,20,21,21,18,14,10,9,9,4,4,1,-1,0,0,0
"Ind109","5_0_2",168,168,167,167,165,167,171,169,168,168,169,164,164,164,165,165,164,160,158,166,166,167,147,147,147,146,147,151,151,149,149,149,149,184,187,187,188,187,186,181,180,180,184,183,114,113,111,110,111,111,111,112,110,111,110,91,81,81,79,80,88,84,84,83,86,85,82,81,82,89,89,86,86,86,87,90,88,100,103,103,105,104,102,102,103,103,104,104,21,21,19,21,22,22,22,21,21,22,22,19,15,11,10,10,7,7,6,5,-1,0,0
"Ind110","5_0_5",168,168,167,167,165,167,171,169,168,168,169,164,164,164,165,165,164,160,158,166,166,167,147,147,147,146,147,151,151,149,149,149,149,184,187,187,188,187,186,181,180,180,184,183,114,113,111,110,111,111,111,112,110,111,110,91,81,81,79,80,88,84,84,83,86,85,82,81,82,89,89,86,86,86,87,90,88,100,103,103,105,104,102,102,103,103,104,104,21,21,19,21,22,22,22,21,21,22,22,19,15,11,10,10,7,7,6,5,0,-1,0
"Ind111","0_0_0",207,207,209,210,209,210,210,209,210,210,211,213,213,213,212,214,215,211,212,215,215,216,205,205,205,202,203,207,206,206,205,206,206,234,233,233,234,233,232,233,234,234,232,233,199,203,201,200,201,201,198,199,199,200,199,202,197,197,195,196,199,194,194,194,193,193,188,187,186,188,188,188,188,188,188,185,188,204,199,199,202,202,204,206,205,205,207,207,199,199,197,197,199,196,196,197,197,201,200,197,196,195,195,195,197,197,196,195,195,195,-1
