"","Description","Ind1","Ind2","Ind3","Ind4","Ind5","Ind6","Ind7","Ind8","Ind9","Ind10","Ind11","Ind12","Ind13","Ind14","Ind15","Ind16","Ind17","Ind18","Ind19","Ind20","Ind21","Ind22","Ind23","Ind24","Ind25","Ind26","Ind27","Ind28","Ind29","Ind30","Ind31","Ind32","Ind33","Ind34","Ind35","Ind36","Ind37","Ind38","Ind39","Ind40","Ind41","Ind42","Ind43","Ind44","Ind45","Ind46","Ind47","Ind48","Ind49","Ind50","Ind51","Ind52","Ind53","Ind54","Ind55","Ind56","Ind57","Ind58","Ind59","Ind60","Ind61","Ind62","Ind63","Ind64","Ind65","Ind66","Ind67","Ind68","Ind69","Ind70","Ind71","Ind72","Ind73","Ind74","Ind75","Ind76","Ind77","Ind78","Ind79","Ind80","Ind81","Ind82","Ind83","Ind84","Ind85","Ind86","Ind87","Ind88","Ind89","Ind90","Ind91","Ind92","Ind93","Ind94","Ind95","Ind96","Ind97","Ind98","Ind99","Ind100","Ind101","Ind102","Ind103","Ind104","Ind105","Ind106","Ind107","Ind108","Ind109","Ind110","Ind111","Ind112","Ind113","Ind114","Ind115","Ind116","Ind117","Ind118","Ind119","Ind120","Ind121","Ind122","Ind123","Ind124","Ind125","Ind126","Ind127"
"Ind1","0_0_0",-1,0,0,0,0,0,0,0,0,0,0,0,0,0,0,0,0,0,0,0,0,0,0,0,0,0,0,0,0,0,0,0,0,0,0,0,0,0,0,0,0,0,0,0,0,0,0,0,0,0,0,0,0,0,0,0,0,0,0,0,0,0,0,0,0,0,0,0,0,0,0,0,0,0,0,0,0,0,0,0,0,0,0,0,0,0,0,0,0,0,0,0,0,0,0,0,0,0,0,0,0,0,0,0,0,0,0,0,0,0,0,0,0,0,0,0,0,0,0,0,0,0,0,0,0,0,0
"Ind2","9_0_4",305,-1,0,0,0,0,0,0,0,0,0,0,0,0,0,0,0,0,0,0,0,0,0,0,0,0,0,0,0,0,0,0,0,0,0,0,0,0,0,0,0,0,0,0,0,0,0,0,0,0,0,0,0,0,0,0,0,0,0,0,0,0,0,0,0,0,0,0,0,0,0,0,0,0,0,0,0,0,0,0,0,0,0,0,0,0,0,0,0,0,0,0,0,0,0,0,0,0,0,0,0,0,0,0,0,0,0,0,0,0,0,0,0,0,0,0,0,0,0,0,0,0,0,0,0,0,0
"Ind3","9_0_3",305,0,-1,0,0,0,0,0,0,0,0,0,0,0,0,0,0,0,0,0,0,0,0,0,0,0,0,0,0,0,0,0,0,0,0,0,0,0,0,0,0,0,0,0,0,0,0,0,0,0,0,0,0,0,0,0,0,0,0,0,0,0,0,0,0,0,0,0,0,0,0,0,0,0,0,0,0,0,0,0,0,0,0,0,0,0,0,0,0,0,0,0,0,0,0,0,0,0,0,0,0,0,0,0,0,0,0,0,0,0,0,0,0,0,0,0,0,0,0,0,0,0,0,0,0,0,0
"Ind4","9_0_0",305,1,1,-1,0,0,0,0,0,0,0,0,0,0,0,0,0,0,0,0,0,0,0,0,0,0,0,0,0,0,0,0,0,0,0,0,0,0,0,0,0,0,0,0,0,0,0,0,0,0,0,0,0,0,0,0,0,0,0,0,0,0,0,0,0,0,0,0,0,0,0,0,0,0,0,0,0,0,0,0,0,0,0,0,0,0,0,0,0,0,0,0,0,0,0,0,0,0,0,0,0,0,0,0,0,0,0,0,0,0,0,0,0,0,0,0,0,0,0,0,0,0,0,0,0,0,0
"Ind5","13_0_5",305,5,5,6,-1,0,0,0,0,0,0,0,0,0,0,0,0,0,0,0,0,0,0,0,0,0,0,0,0,0,0,0,0,0,0,0,0,0,0,0,0,0,0,0,0,0,0,0,0,0,0,0,0,0,0,0,0,0,0,0,0,0,0,0,0,0,0,0,0,0,0,0,0,0,0,0,0,0,0,0,0,0,0,0,0,0,0,0,0,0,0,0,0,0,0,0,0,0,0,0,0,0,0,0,0,0,0,0,0,0,0,0,0,0,0,0,0,0,0,0,0,0,0,0,0,0,0
"Ind6","13_0_1",305,5,5,6,0,-1,0,0,0,0,0,0,0,0,0,0,0,0,0,0,0,0,0,0,0,0,0,0,0,0,0,0,0,0,0,0,0,0,0,0,0,0,0,0,0,0,0,0,0,0,0,0,0,0,0,0,0,0,0,0,0,0,0,0,0,0,0,0,0,0,0,0,0,0,0,0,0,0,0,0,0,0,0,0,0,0,0,0,0,0,0,0,0,0,0,0,0,0,0,0,0,0,0,0,0,0,0,0,0,0,0,0,0,0,0,0,0,0,0,0,0,0,0,0,0,0,0
"Ind7","9_0_2",305,5,5,6,0,0,-1,0,0,0,0,0,0,0,0,0,0,0,0,0,0,0,0,0,0,0,0,0,0,0,0,0,0,0,0,0,0,0,0,0,0,0,0,0,0,0,0,0,0,0,0,0,0,0,0,0,0,0,0,0,0,0,0,0,0,0,0,0,0,0,0,0,0,0,0,0,0,0,0,0,0,0,0,0,0,0,0,0,0,0,0,0,0,0,0,0,0,0,0,0,0,0,0,0,0,0,0,0,0,0,0,0,0,0,0,0,0,0,0,0,0,0,0,0,0,0,0
"Ind8","9_0_7",304,11,11,12,8,8,8,-1,0,0,0,0,0,0,0,0,0,0,0,0,0,0,0,0,0,0,0,0,0,0,0,0,0,0,0,0,0,0,0,0,0,0,0,0,0,0,0,0,0,0,0,0,0,0,0,0,0,0,0,0,0,0,0,0,0,0,0,0,0,0,0,0,0,0,0,0,0,0,0,0,0,0,0,0,0,0,0,0,0,0,0,0,0,0,0,0,0,0,0,0,0,0,0,0,0,0,0,0,0,0,0,0,0,0,0,0,0,0,0,0,0,0,0,0,0,0,0
"Ind9","9_0_6",304,21,21,22,22,22,22,27,-1,0,0,0,0,0,0,0,0,0,0,0,0,0,0,0,0,0,0,0,0,0,0,0,0,0,0,0,0,0,0,0,0,0,0,0,0,0,0,0,0,0,0,0,0,0,0,0,0,0,0,0,0,0,0,0,0,0,0,0,0,0,0,0,0,0,0,0,0,0,0,0,0,0,0,0,0,0,0,0,0,0,0,0,0,0,0,0,0,0,0,0,0,0,0,0,0,0,0,0,0,0,0,0,0,0,0,0,0,0,0,0,0,0,0,0,0,0,0
"Ind10","9_0_5",308,13,13,14,16,16,16,22,18,-1,0,0,0,0,0,0,0,0,0,0,0,0,0,0,0,0,0,0,0,0,0,0,0,0,0,0,0,0,0,0,0,0,0,0,0,0,0,0,0,0,0,0,0,0,0,0,0,0,0,0,0,0,0,0,0,0,0,0,0,0,0,0,0,0,0,0,0,0,0,0,0,0,0,0,0,0,0,0,0,0,0,0,0,0,0,0,0,0,0,0,0,0,0,0,0,0,0,0,0,0,0,0,0,0,0,0,0,0,0,0,0,0,0,0,0,0,0
"Ind11","13_0_8",305,20,20,21,21,21,21,25,29,21,-1,0,0,0,0,0,0,0,0,0,0,0,0,0,0,0,0,0,0,0,0,0,0,0,0,0,0,0,0,0,0,0,0,0,0,0,0,0,0,0,0,0,0,0,0,0,0,0,0,0,0,0,0,0,0,0,0,0,0,0,0,0,0,0,0,0,0,0,0,0,0,0,0,0,0,0,0,0,0,0,0,0,0,0,0,0,0,0,0,0,0,0,0,0,0,0,0,0,0,0,0,0,0,0,0,0,0,0,0,0,0,0,0,0,0,0,0
"Ind12","9_0_8",305,54,54,55,57,57,57,63,60,58,61,-1,0,0,0,0,0,0,0,0,0,0,0,0,0,0,0,0,0,0,0,0,0,0,0,0,0,0,0,0,0,0,0,0,0,0,0,0,0,0,0,0,0,0,0,0,0,0,0,0,0,0,0,0,0,0,0,0,0,0,0,0,0,0,0,0,0,0,0,0,0,0,0,0,0,0,0,0,0,0,0,0,0,0,0,0,0,0,0,0,0,0,0,0,0,0,0,0,0,0,0,0,0,0,0,0,0,0,0,0,0,0,0,0,0,0,0
"Ind13","13_0_2",308,53,53,54,56,56,56,62,59,57,60,4,-1,0,0,0,0,0,0,0,0,0,0,0,0,0,0,0,0,0,0,0,0,0,0,0,0,0,0,0,0,0,0,0,0,0,0,0,0,0,0,0,0,0,0,0,0,0,0,0,0,0,0,0,0,0,0,0,0,0,0,0,0,0,0,0,0,0,0,0,0,0,0,0,0,0,0,0,0,0,0,0,0,0,0,0,0,0,0,0,0,0,0,0,0,0,0,0,0,0,0,0,0,0,0,0,0,0,0,0,0,0,0,0,0,0,0
"Ind14","13_0_0",308,54,54,55,57,57,57,63,58,56,62,12,10,-1,0,0,0,0,0,0,0,0,0,0,0,0,0,0,0,0,0,0,0,0,0,0,0,0,0,0,0,0,0,0,0,0,0,0,0,0,0,0,0,0,0,0,0,0,0,0,0,0,0,0,0,0,0,0,0,0,0,0,0,0,0,0,0,0,0,0,0,0,0,0,0,0,0,0,0,0,0,0,0,0,0,0,0,0,0,0,0,0,0,0,0,0,0,0,0,0,0,0,0,0,0,0,0,0,0,0,0,0,0,0,0,0,0
"Ind15","9_0_1",307,55,55,56,58,58,58,64,59,57,62,10,8,6,-1,0,0,0,0,0,0,0,0,0,0,0,0,0,0,0,0,0,0,0,0,0,0,0,0,0,0,0,0,0,0,0,0,0,0,0,0,0,0,0,0,0,0,0,0,0,0,0,0,0,0,0,0,0,0,0,0,0,0,0,0,0,0,0,0,0,0,0,0,0,0,0,0,0,0,0,0,0,0,0,0,0,0,0,0,0,0,0,0,0,0,0,0,0,0,0,0,0,0,0,0,0,0,0,0,0,0,0,0,0,0,0,0
"Ind16","13_0_3",306,55,55,56,58,58,58,64,59,57,62,14,12,8,4,-1,0,0,0,0,0,0,0,0,0,0,0,0,0,0,0,0,0,0,0,0,0,0,0,0,0,0,0,0,0,0,0,0,0,0,0,0,0,0,0,0,0,0,0,0,0,0,0,0,0,0,0,0,0,0,0,0,0,0,0,0,0,0,0,0,0,0,0,0,0,0,0,0,0,0,0,0,0,0,0,0,0,0,0,0,0,0,0,0,0,0,0,0,0,0,0,0,0,0,0,0,0,0,0,0,0,0,0,0,0,0,0
"Ind17","13_0_7",307,55,55,56,58,58,58,64,59,57,62,10,8,6,0,4,-1,0,0,0,0,0,0,0,0,0,0,0,0,0,0,0,0,0,0,0,0,0,0,0,0,0,0,0,0,0,0,0,0,0,0,0,0,0,0,0,0,0,0,0,0,0,0,0,0,0,0,0,0,0,0,0,0,0,0,0,0,0,0,0,0,0,0,0,0,0,0,0,0,0,0,0,0,0,0,0,0,0,0,0,0,0,0,0,0,0,0,0,0,0,0,0,0,0,0,0,0,0,0,0,0,0,0,0,0,0,0
"Ind18","12_0_5",309,139,139,140,142,142,142,143,137,138,142,143,145,141,142,141,142,-1,0,0,0,0,0,0,0,0,0,0,0,0,0,0,0,0,0,0,0,0,0,0,0,0,0,0,0,0,0,0,0,0,0,0,0,0,0,0,0,0,0,0,0,0,0,0,0,0,0,0,0,0,0,0,0,0,0,0,0,0,0,0,0,0,0,0,0,0,0,0,0,0,0,0,0,0,0,0,0,0,0,0,0,0,0,0,0,0,0,0,0,0,0,0,0,0,0,0,0,0,0,0,0,0,0,0,0,0,0
"Ind19","12_0_2",310,133,133,133,136,136,136,135,137,134,135,133,135,135,134,132,134,54,-1,0,0,0,0,0,0,0,0,0,0,0,0,0,0,0,0,0,0,0,0,0,0,0,0,0,0,0,0,0,0,0,0,0,0,0,0,0,0,0,0,0,0,0,0,0,0,0,0,0,0,0,0,0,0,0,0,0,0,0,0,0,0,0,0,0,0,0,0,0,0,0,0,0,0,0,0,0,0,0,0,0,0,0,0,0,0,0,0,0,0,0,0,0,0,0,0,0,0,0,0,0,0,0,0,0,0,0,0
"Ind20","12_0_7",309,126,126,126,129,129,129,130,132,131,132,131,133,133,132,130,132,57,11,-1,0,0,0,0,0,0,0,0,0,0,0,0,0,0,0,0,0,0,0,0,0,0,0,0,0,0,0,0,0,0,0,0,0,0,0,0,0,0,0,0,0,0,0,0,0,0,0,0,0,0,0,0,0,0,0,0,0,0,0,0,0,0,0,0,0,0,0,0,0,0,0,0,0,0,0,0,0,0,0,0,0,0,0,0,0,0,0,0,0,0,0,0,0,0,0,0,0,0,0,0,0,0,0,0,0,0,0
"Ind21","12_0_8",307,128,128,128,131,131,131,130,134,133,134,131,133,133,132,130,132,57,11,4,-1,0,0,0,0,0,0,0,0,0,0,0,0,0,0,0,0,0,0,0,0,0,0,0,0,0,0,0,0,0,0,0,0,0,0,0,0,0,0,0,0,0,0,0,0,0,0,0,0,0,0,0,0,0,0,0,0,0,0,0,0,0,0,0,0,0,0,0,0,0,0,0,0,0,0,0,0,0,0,0,0,0,0,0,0,0,0,0,0,0,0,0,0,0,0,0,0,0,0,0,0,0,0,0,0,0,0
"Ind22","12_0_4",306,126,126,126,129,129,129,128,132,131,132,129,131,131,130,128,130,57,11,4,2,-1,0,0,0,0,0,0,0,0,0,0,0,0,0,0,0,0,0,0,0,0,0,0,0,0,0,0,0,0,0,0,0,0,0,0,0,0,0,0,0,0,0,0,0,0,0,0,0,0,0,0,0,0,0,0,0,0,0,0,0,0,0,0,0,0,0,0,0,0,0,0,0,0,0,0,0,0,0,0,0,0,0,0,0,0,0,0,0,0,0,0,0,0,0,0,0,0,0,0,0,0,0,0,0,0,0
"Ind23","12_0_6",306,126,126,126,129,129,129,128,132,131,132,129,131,131,130,128,130,57,11,4,2,0,-1,0,0,0,0,0,0,0,0,0,0,0,0,0,0,0,0,0,0,0,0,0,0,0,0,0,0,0,0,0,0,0,0,0,0,0,0,0,0,0,0,0,0,0,0,0,0,0,0,0,0,0,0,0,0,0,0,0,0,0,0,0,0,0,0,0,0,0,0,0,0,0,0,0,0,0,0,0,0,0,0,0,0,0,0,0,0,0,0,0,0,0,0,0,0,0,0,0,0,0,0,0,0,0,0
"Ind24","12_0_3",307,130,130,130,133,133,133,132,136,134,136,133,135,134,134,132,134,58,12,9,9,9,9,-1,0,0,0,0,0,0,0,0,0,0,0,0,0,0,0,0,0,0,0,0,0,0,0,0,0,0,0,0,0,0,0,0,0,0,0,0,0,0,0,0,0,0,0,0,0,0,0,0,0,0,0,0,0,0,0,0,0,0,0,0,0,0,0,0,0,0,0,0,0,0,0,0,0,0,0,0,0,0,0,0,0,0,0,0,0,0,0,0,0,0,0,0,0,0,0,0,0,0,0,0,0,0,0
"Ind25","12_0_0",308,132,132,132,135,135,135,134,138,137,138,135,137,136,136,134,136,57,11,8,8,8,8,5,-1,0,0,0,0,0,0,0,0,0,0,0,0,0,0,0,0,0,0,0,0,0,0,0,0,0,0,0,0,0,0,0,0,0,0,0,0,0,0,0,0,0,0,0,0,0,0,0,0,0,0,0,0,0,0,0,0,0,0,0,0,0,0,0,0,0,0,0,0,0,0,0,0,0,0,0,0,0,0,0,0,0,0,0,0,0,0,0,0,0,0,0,0,0,0,0,0,0,0,0,0,0,0
"Ind26","12_0_1",307,132,132,132,133,133,133,132,139,136,137,134,136,136,135,133,135,54,13,14,14,14,14,15,14,-1,0,0,0,0,0,0,0,0,0,0,0,0,0,0,0,0,0,0,0,0,0,0,0,0,0,0,0,0,0,0,0,0,0,0,0,0,0,0,0,0,0,0,0,0,0,0,0,0,0,0,0,0,0,0,0,0,0,0,0,0,0,0,0,0,0,0,0,0,0,0,0,0,0,0,0,0,0,0,0,0,0,0,0,0,0,0,0,0,0,0,0,0,0,0,0,0,0,0,0,0,0
"Ind27","13_0_4",296,102,102,103,105,105,105,107,106,106,110,114,111,109,112,110,112,134,135,131,129,127,127,132,135,133,-1,0,0,0,0,0,0,0,0,0,0,0,0,0,0,0,0,0,0,0,0,0,0,0,0,0,0,0,0,0,0,0,0,0,0,0,0,0,0,0,0,0,0,0,0,0,0,0,0,0,0,0,0,0,0,0,0,0,0,0,0,0,0,0,0,0,0,0,0,0,0,0,0,0,0,0,0,0,0,0,0,0,0,0,0,0,0,0,0,0,0,0,0,0,0,0,0,0,0,0,0
"Ind28","13_0_6",297,105,105,106,108,108,108,110,109,109,113,116,113,111,114,112,114,130,131,127,125,123,123,128,131,129,5,-1,0,0,0,0,0,0,0,0,0,0,0,0,0,0,0,0,0,0,0,0,0,0,0,0,0,0,0,0,0,0,0,0,0,0,0,0,0,0,0,0,0,0,0,0,0,0,0,0,0,0,0,0,0,0,0,0,0,0,0,0,0,0,0,0,0,0,0,0,0,0,0,0,0,0,0,0,0,0,0,0,0,0,0,0,0,0,0,0,0,0,0,0,0,0,0,0,0,0,0
"Ind29","11_0_7",300,131,131,132,134,134,134,133,133,134,131,121,119,123,122,126,122,148,153,152,150,148,148,155,156,154,131,130,-1,0,0,0,0,0,0,0,0,0,0,0,0,0,0,0,0,0,0,0,0,0,0,0,0,0,0,0,0,0,0,0,0,0,0,0,0,0,0,0,0,0,0,0,0,0,0,0,0,0,0,0,0,0,0,0,0,0,0,0,0,0,0,0,0,0,0,0,0,0,0,0,0,0,0,0,0,0,0,0,0,0,0,0,0,0,0,0,0,0,0,0,0,0,0,0,0,0,0
"Ind30","11_0_2",301,126,126,127,129,129,129,128,128,129,126,116,114,118,117,121,117,144,149,148,146,144,144,151,152,150,127,126,5,-1,0,0,0,0,0,0,0,0,0,0,0,0,0,0,0,0,0,0,0,0,0,0,0,0,0,0,0,0,0,0,0,0,0,0,0,0,0,0,0,0,0,0,0,0,0,0,0,0,0,0,0,0,0,0,0,0,0,0,0,0,0,0,0,0,0,0,0,0,0,0,0,0,0,0,0,0,0,0,0,0,0,0,0,0,0,0,0,0,0,0,0,0,0,0,0,0,0
"Ind31","11_0_4",301,126,126,127,129,129,129,128,127,129,128,118,116,120,119,123,119,145,150,149,147,145,145,152,153,151,127,126,7,2,-1,0,0,0,0,0,0,0,0,0,0,0,0,0,0,0,0,0,0,0,0,0,0,0,0,0,0,0,0,0,0,0,0,0,0,0,0,0,0,0,0,0,0,0,0,0,0,0,0,0,0,0,0,0,0,0,0,0,0,0,0,0,0,0,0,0,0,0,0,0,0,0,0,0,0,0,0,0,0,0,0,0,0,0,0,0,0,0,0,0,0,0,0,0,0,0,0
"Ind32","11_0_5",300,128,128,129,131,131,131,130,130,131,128,118,116,120,119,123,119,145,150,149,147,145,145,152,153,151,129,128,5,4,6,-1,0,0,0,0,0,0,0,0,0,0,0,0,0,0,0,0,0,0,0,0,0,0,0,0,0,0,0,0,0,0,0,0,0,0,0,0,0,0,0,0,0,0,0,0,0,0,0,0,0,0,0,0,0,0,0,0,0,0,0,0,0,0,0,0,0,0,0,0,0,0,0,0,0,0,0,0,0,0,0,0,0,0,0,0,0,0,0,0,0,0,0,0,0,0,0
"Ind33","11_0_0",302,130,130,131,133,133,133,132,130,131,129,118,118,123,123,125,123,146,150,149,147,145,145,152,153,151,134,135,15,14,16,14,-1,0,0,0,0,0,0,0,0,0,0,0,0,0,0,0,0,0,0,0,0,0,0,0,0,0,0,0,0,0,0,0,0,0,0,0,0,0,0,0,0,0,0,0,0,0,0,0,0,0,0,0,0,0,0,0,0,0,0,0,0,0,0,0,0,0,0,0,0,0,0,0,0,0,0,0,0,0,0,0,0,0,0,0,0,0,0,0,0,0,0,0,0,0,0
"Ind34","11_0_8",305,133,133,132,136,136,136,136,139,138,136,122,122,126,125,127,125,140,147,147,145,145,145,148,149,147,129,127,46,43,45,45,40,-1,0,0,0,0,0,0,0,0,0,0,0,0,0,0,0,0,0,0,0,0,0,0,0,0,0,0,0,0,0,0,0,0,0,0,0,0,0,0,0,0,0,0,0,0,0,0,0,0,0,0,0,0,0,0,0,0,0,0,0,0,0,0,0,0,0,0,0,0,0,0,0,0,0,0,0,0,0,0,0,0,0,0,0,0,0,0,0,0,0,0,0,0,0
"Ind35","11_0_3",307,140,140,139,141,141,141,141,142,143,141,129,129,133,132,134,132,149,154,156,154,154,154,157,158,154,134,131,46,43,45,45,41,22,-1,0,0,0,0,0,0,0,0,0,0,0,0,0,0,0,0,0,0,0,0,0,0,0,0,0,0,0,0,0,0,0,0,0,0,0,0,0,0,0,0,0,0,0,0,0,0,0,0,0,0,0,0,0,0,0,0,0,0,0,0,0,0,0,0,0,0,0,0,0,0,0,0,0,0,0,0,0,0,0,0,0,0,0,0,0,0,0,0,0,0,0,0
"Ind36","11_0_6",300,134,134,133,137,137,137,137,136,135,133,123,123,129,128,130,128,147,152,150,148,146,146,153,154,154,128,127,32,29,31,29,29,32,32,-1,0,0,0,0,0,0,0,0,0,0,0,0,0,0,0,0,0,0,0,0,0,0,0,0,0,0,0,0,0,0,0,0,0,0,0,0,0,0,0,0,0,0,0,0,0,0,0,0,0,0,0,0,0,0,0,0,0,0,0,0,0,0,0,0,0,0,0,0,0,0,0,0,0,0,0,0,0,0,0,0,0,0,0,0,0,0,0,0,0,0,0
"Ind37","11_0_1",304,138,138,137,141,141,141,141,138,139,137,125,125,131,130,132,130,145,154,152,150,148,148,155,156,156,130,129,32,29,31,31,29,32,32,6,-1,0,0,0,0,0,0,0,0,0,0,0,0,0,0,0,0,0,0,0,0,0,0,0,0,0,0,0,0,0,0,0,0,0,0,0,0,0,0,0,0,0,0,0,0,0,0,0,0,0,0,0,0,0,0,0,0,0,0,0,0,0,0,0,0,0,0,0,0,0,0,0,0,0,0,0,0,0,0,0,0,0,0,0,0,0,0,0,0,0,0
"Ind38","14_0_1",304,145,145,144,148,148,148,149,148,148,145,137,139,138,139,139,139,155,157,155,154,153,153,160,161,159,128,125,69,69,71,69,74,77,76,68,70,-1,0,0,0,0,0,0,0,0,0,0,0,0,0,0,0,0,0,0,0,0,0,0,0,0,0,0,0,0,0,0,0,0,0,0,0,0,0,0,0,0,0,0,0,0,0,0,0,0,0,0,0,0,0,0,0,0,0,0,0,0,0,0,0,0,0,0,0,0,0,0,0,0,0,0,0,0,0,0,0,0,0,0,0,0,0,0,0,0,0
"Ind39","14_0_4",303,144,144,143,147,147,147,148,147,147,144,136,138,137,138,138,138,154,156,154,153,152,152,159,160,158,127,124,70,70,72,70,75,78,77,69,71,1,-1,0,0,0,0,0,0,0,0,0,0,0,0,0,0,0,0,0,0,0,0,0,0,0,0,0,0,0,0,0,0,0,0,0,0,0,0,0,0,0,0,0,0,0,0,0,0,0,0,0,0,0,0,0,0,0,0,0,0,0,0,0,0,0,0,0,0,0,0,0,0,0,0,0,0,0,0,0,0,0,0,0,0,0,0,0,0,0,0
"Ind40","14_0_3",303,151,151,150,154,154,154,155,152,152,151,141,143,142,143,145,143,158,163,161,160,159,159,166,167,163,137,134,71,71,73,71,76,77,78,70,72,20,19,-1,0,0,0,0,0,0,0,0,0,0,0,0,0,0,0,0,0,0,0,0,0,0,0,0,0,0,0,0,0,0,0,0,0,0,0,0,0,0,0,0,0,0,0,0,0,0,0,0,0,0,0,0,0,0,0,0,0,0,0,0,0,0,0,0,0,0,0,0,0,0,0,0,0,0,0,0,0,0,0,0,0,0,0,0,0,0,0
"Ind41","14_0_6",303,149,149,148,152,152,152,153,150,150,149,139,141,140,141,143,141,158,163,161,160,159,159,166,167,163,136,133,70,70,72,70,75,76,73,69,71,15,14,10,-1,0,0,0,0,0,0,0,0,0,0,0,0,0,0,0,0,0,0,0,0,0,0,0,0,0,0,0,0,0,0,0,0,0,0,0,0,0,0,0,0,0,0,0,0,0,0,0,0,0,0,0,0,0,0,0,0,0,0,0,0,0,0,0,0,0,0,0,0,0,0,0,0,0,0,0,0,0,0,0,0,0,0,0,0,0,0
"Ind42","14_0_2",304,145,145,144,148,148,148,149,146,148,145,130,132,131,132,136,132,156,162,160,160,158,158,165,166,162,134,131,63,63,65,63,69,75,72,64,66,20,19,21,19,-1,0,0,0,0,0,0,0,0,0,0,0,0,0,0,0,0,0,0,0,0,0,0,0,0,0,0,0,0,0,0,0,0,0,0,0,0,0,0,0,0,0,0,0,0,0,0,0,0,0,0,0,0,0,0,0,0,0,0,0,0,0,0,0,0,0,0,0,0,0,0,0,0,0,0,0,0,0,0,0,0,0,0,0,0,0
"Ind43","14_0_0",303,144,144,143,147,147,147,148,145,147,144,137,139,138,139,141,139,155,161,159,159,157,157,164,165,161,135,132,70,69,71,69,74,79,74,68,70,23,22,24,23,18,-1,0,0,0,0,0,0,0,0,0,0,0,0,0,0,0,0,0,0,0,0,0,0,0,0,0,0,0,0,0,0,0,0,0,0,0,0,0,0,0,0,0,0,0,0,0,0,0,0,0,0,0,0,0,0,0,0,0,0,0,0,0,0,0,0,0,0,0,0,0,0,0,0,0,0,0,0,0,0,0,0,0,0,0,0
"Ind44","14_0_7",303,142,142,141,145,145,145,146,143,147,144,136,138,137,138,140,138,155,161,157,157,155,155,162,163,161,133,130,72,69,71,71,76,81,76,70,72,25,24,26,25,20,2,-1,0,0,0,0,0,0,0,0,0,0,0,0,0,0,0,0,0,0,0,0,0,0,0,0,0,0,0,0,0,0,0,0,0,0,0,0,0,0,0,0,0,0,0,0,0,0,0,0,0,0,0,0,0,0,0,0,0,0,0,0,0,0,0,0,0,0,0,0,0,0,0,0,0,0,0,0,0,0,0,0,0,0,0
"Ind45","14_0_8",303,142,142,141,145,145,145,146,143,147,144,136,138,137,138,140,138,155,161,157,157,155,155,162,163,161,133,130,72,69,71,71,76,81,76,70,72,25,24,26,25,20,2,0,-1,0,0,0,0,0,0,0,0,0,0,0,0,0,0,0,0,0,0,0,0,0,0,0,0,0,0,0,0,0,0,0,0,0,0,0,0,0,0,0,0,0,0,0,0,0,0,0,0,0,0,0,0,0,0,0,0,0,0,0,0,0,0,0,0,0,0,0,0,0,0,0,0,0,0,0,0,0,0,0,0,0,0
"Ind46","14_0_5",304,144,144,143,147,147,147,148,145,147,144,135,137,136,137,139,137,155,161,159,159,157,157,164,165,161,135,132,68,67,69,67,72,77,72,66,68,21,20,22,21,16,2,4,4,-1,0,0,0,0,0,0,0,0,0,0,0,0,0,0,0,0,0,0,0,0,0,0,0,0,0,0,0,0,0,0,0,0,0,0,0,0,0,0,0,0,0,0,0,0,0,0,0,0,0,0,0,0,0,0,0,0,0,0,0,0,0,0,0,0,0,0,0,0,0,0,0,0,0,0,0,0,0,0,0,0,0
"Ind47","8_0_1",288,139,139,140,142,142,142,140,145,145,139,130,134,134,136,136,136,149,159,161,159,158,158,159,160,159,137,137,112,107,109,109,115,108,114,110,112,118,117,125,122,113,116,116,116,116,-1,0,0,0,0,0,0,0,0,0,0,0,0,0,0,0,0,0,0,0,0,0,0,0,0,0,0,0,0,0,0,0,0,0,0,0,0,0,0,0,0,0,0,0,0,0,0,0,0,0,0,0,0,0,0,0,0,0,0,0,0,0,0,0,0,0,0,0,0,0,0,0,0,0,0,0,0,0,0,0,0
"Ind48","8_0_8",298,137,137,138,140,140,140,139,141,141,139,129,132,129,133,132,133,142,153,153,151,149,149,153,152,155,127,126,107,104,106,104,108,98,101,98,98,101,101,113,109,104,107,109,109,107,77,-1,0,0,0,0,0,0,0,0,0,0,0,0,0,0,0,0,0,0,0,0,0,0,0,0,0,0,0,0,0,0,0,0,0,0,0,0,0,0,0,0,0,0,0,0,0,0,0,0,0,0,0,0,0,0,0,0,0,0,0,0,0,0,0,0,0,0,0,0,0,0,0,0,0,0,0,0,0,0,0
"Ind49","8_0_5",295,133,133,134,136,136,136,135,137,137,133,129,132,129,133,132,133,146,151,151,149,147,147,151,150,155,130,127,104,101,103,101,105,99,104,99,99,102,102,114,110,105,108,110,110,108,75,13,-1,0,0,0,0,0,0,0,0,0,0,0,0,0,0,0,0,0,0,0,0,0,0,0,0,0,0,0,0,0,0,0,0,0,0,0,0,0,0,0,0,0,0,0,0,0,0,0,0,0,0,0,0,0,0,0,0,0,0,0,0,0,0,0,0,0,0,0,0,0,0,0,0,0,0,0,0,0,0
"Ind50","8_0_0",295,137,137,138,140,140,140,139,141,141,137,129,132,129,133,132,133,141,150,150,148,146,146,150,149,152,123,122,109,106,108,106,110,99,105,100,100,103,103,114,109,106,111,113,113,111,81,8,15,-1,0,0,0,0,0,0,0,0,0,0,0,0,0,0,0,0,0,0,0,0,0,0,0,0,0,0,0,0,0,0,0,0,0,0,0,0,0,0,0,0,0,0,0,0,0,0,0,0,0,0,0,0,0,0,0,0,0,0,0,0,0,0,0,0,0,0,0,0,0,0,0,0,0,0,0,0,0
"Ind51","8_0_4",298,136,136,137,139,139,139,138,142,140,138,130,133,130,134,133,134,145,152,154,151,150,150,154,153,156,128,129,113,108,110,110,114,104,109,104,104,107,107,117,113,110,115,115,115,115,80,10,19,12,-1,0,0,0,0,0,0,0,0,0,0,0,0,0,0,0,0,0,0,0,0,0,0,0,0,0,0,0,0,0,0,0,0,0,0,0,0,0,0,0,0,0,0,0,0,0,0,0,0,0,0,0,0,0,0,0,0,0,0,0,0,0,0,0,0,0,0,0,0,0,0,0,0,0,0,0,0
"Ind52","8_0_7",298,136,136,137,139,139,139,138,142,140,138,130,133,130,134,133,134,145,152,154,151,150,150,154,153,156,128,129,113,108,110,110,114,104,109,104,104,107,107,117,113,110,115,115,115,115,80,10,19,12,0,-1,0,0,0,0,0,0,0,0,0,0,0,0,0,0,0,0,0,0,0,0,0,0,0,0,0,0,0,0,0,0,0,0,0,0,0,0,0,0,0,0,0,0,0,0,0,0,0,0,0,0,0,0,0,0,0,0,0,0,0,0,0,0,0,0,0,0,0,0,0,0,0,0,0,0,0
"Ind53","8_0_6",298,137,137,138,140,140,140,139,143,141,139,131,134,131,135,134,135,146,151,155,153,151,151,155,154,157,129,130,112,109,111,111,115,105,108,105,105,106,106,116,112,107,112,112,112,112,81,11,20,13,3,3,-1,0,0,0,0,0,0,0,0,0,0,0,0,0,0,0,0,0,0,0,0,0,0,0,0,0,0,0,0,0,0,0,0,0,0,0,0,0,0,0,0,0,0,0,0,0,0,0,0,0,0,0,0,0,0,0,0,0,0,0,0,0,0,0,0,0,0,0,0,0,0,0,0,0,0
"Ind54","8_0_2",298,136,136,137,139,139,139,138,142,140,138,130,133,130,134,133,134,145,152,154,152,150,150,154,153,156,128,129,111,108,110,110,114,104,109,104,104,107,107,117,113,108,113,113,113,113,80,10,19,12,2,2,1,-1,0,0,0,0,0,0,0,0,0,0,0,0,0,0,0,0,0,0,0,0,0,0,0,0,0,0,0,0,0,0,0,0,0,0,0,0,0,0,0,0,0,0,0,0,0,0,0,0,0,0,0,0,0,0,0,0,0,0,0,0,0,0,0,0,0,0,0,0,0,0,0,0,0
"Ind55","8_0_3",298,136,136,137,139,139,139,138,142,140,138,130,133,130,134,133,134,145,152,154,151,150,150,154,153,156,128,129,113,108,110,110,114,104,109,104,104,107,107,117,113,110,115,115,115,115,80,10,19,12,0,0,3,2,-1,0,0,0,0,0,0,0,0,0,0,0,0,0,0,0,0,0,0,0,0,0,0,0,0,0,0,0,0,0,0,0,0,0,0,0,0,0,0,0,0,0,0,0,0,0,0,0,0,0,0,0,0,0,0,0,0,0,0,0,0,0,0,0,0,0,0,0,0,0,0,0,0
"Ind56","7_0_3",274,139,139,138,142,142,142,141,145,142,141,140,143,140,143,144,143,153,153,153,151,149,149,154,153,153,127,127,120,116,118,116,122,119,124,118,119,116,115,117,118,113,113,113,113,114,112,104,99,104,107,107,108,107,107,-1,0,0,0,0,0,0,0,0,0,0,0,0,0,0,0,0,0,0,0,0,0,0,0,0,0,0,0,0,0,0,0,0,0,0,0,0,0,0,0,0,0,0,0,0,0,0,0,0,0,0,0,0,0,0,0,0,0,0,0,0,0,0,0,0,0,0,0,0,0,0,0
"Ind57","7_0_0",288,136,136,135,139,139,139,138,144,140,142,140,140,140,141,144,141,149,154,156,154,152,152,159,158,154,130,131,123,119,121,119,127,117,120,122,124,118,117,123,122,117,119,119,119,120,118,116,113,116,115,115,114,115,115,58,-1,0,0,0,0,0,0,0,0,0,0,0,0,0,0,0,0,0,0,0,0,0,0,0,0,0,0,0,0,0,0,0,0,0,0,0,0,0,0,0,0,0,0,0,0,0,0,0,0,0,0,0,0,0,0,0,0,0,0,0,0,0,0,0,0,0,0,0,0,0,0
"Ind58","7_0_2",285,136,136,135,139,139,139,140,142,140,139,134,135,134,137,138,137,153,158,155,153,151,151,158,157,155,127,125,121,116,118,118,120,117,125,118,120,124,123,131,130,125,124,124,124,124,124,118,113,116,121,121,122,121,121,62,62,-1,0,0,0,0,0,0,0,0,0,0,0,0,0,0,0,0,0,0,0,0,0,0,0,0,0,0,0,0,0,0,0,0,0,0,0,0,0,0,0,0,0,0,0,0,0,0,0,0,0,0,0,0,0,0,0,0,0,0,0,0,0,0,0,0,0,0,0,0,0
"Ind59","7_0_5",285,137,137,136,140,140,140,141,143,141,140,133,134,135,138,139,138,154,159,156,154,152,152,159,158,156,127,125,120,115,117,117,119,118,126,117,119,125,124,132,131,126,125,125,125,125,123,117,112,115,120,120,121,120,120,63,63,1,-1,0,0,0,0,0,0,0,0,0,0,0,0,0,0,0,0,0,0,0,0,0,0,0,0,0,0,0,0,0,0,0,0,0,0,0,0,0,0,0,0,0,0,0,0,0,0,0,0,0,0,0,0,0,0,0,0,0,0,0,0,0,0,0,0,0,0,0,0
"Ind60","7_0_1",286,135,135,134,138,138,138,139,141,139,138,133,134,133,136,137,136,149,154,151,149,147,147,154,155,151,125,121,122,117,119,119,121,116,124,119,121,123,122,130,129,124,123,123,123,123,123,121,116,119,124,124,125,124,124,66,65,6,7,-1,0,0,0,0,0,0,0,0,0,0,0,0,0,0,0,0,0,0,0,0,0,0,0,0,0,0,0,0,0,0,0,0,0,0,0,0,0,0,0,0,0,0,0,0,0,0,0,0,0,0,0,0,0,0,0,0,0,0,0,0,0,0,0,0,0,0,0
"Ind61","7_0_8",281,143,143,142,146,146,146,145,149,147,148,140,142,142,145,146,145,147,161,158,156,154,154,161,160,156,131,129,124,120,122,122,124,119,125,120,122,123,122,124,127,122,121,121,121,121,118,116,111,116,117,117,118,117,117,55,51,35,34,35,-1,0,0,0,0,0,0,0,0,0,0,0,0,0,0,0,0,0,0,0,0,0,0,0,0,0,0,0,0,0,0,0,0,0,0,0,0,0,0,0,0,0,0,0,0,0,0,0,0,0,0,0,0,0,0,0,0,0,0,0,0,0,0,0,0,0,0
"Ind62","7_0_4",284,143,143,142,146,146,146,145,149,147,148,140,142,142,145,146,145,147,160,157,155,153,153,160,159,157,133,131,124,120,122,122,124,119,127,120,122,125,124,128,129,126,125,125,125,125,120,118,113,116,119,119,120,119,119,59,53,35,34,35,4,-1,0,0,0,0,0,0,0,0,0,0,0,0,0,0,0,0,0,0,0,0,0,0,0,0,0,0,0,0,0,0,0,0,0,0,0,0,0,0,0,0,0,0,0,0,0,0,0,0,0,0,0,0,0,0,0,0,0,0,0,0,0,0,0,0,0
"Ind63","7_0_7",287,146,146,145,149,149,149,147,150,149,149,142,142,146,145,144,145,153,159,157,155,153,153,160,159,157,137,135,124,120,122,122,126,123,129,124,126,127,126,132,133,124,125,125,125,125,119,119,114,119,122,122,123,122,122,59,58,43,42,43,30,32,-1,0,0,0,0,0,0,0,0,0,0,0,0,0,0,0,0,0,0,0,0,0,0,0,0,0,0,0,0,0,0,0,0,0,0,0,0,0,0,0,0,0,0,0,0,0,0,0,0,0,0,0,0,0,0,0,0,0,0,0,0,0,0,0,0
"Ind64","7_0_6",287,143,143,142,144,144,144,142,146,146,149,144,146,146,149,150,149,153,161,159,157,155,155,162,161,159,136,134,126,122,122,124,126,119,123,124,126,127,126,130,127,126,125,125,125,125,118,115,112,115,118,118,119,118,118,56,63,42,41,42,31,33,26,-1,0,0,0,0,0,0,0,0,0,0,0,0,0,0,0,0,0,0,0,0,0,0,0,0,0,0,0,0,0,0,0,0,0,0,0,0,0,0,0,0,0,0,0,0,0,0,0,0,0,0,0,0,0,0,0,0,0,0,0,0,0,0,0
"Ind65","10_0_0",295,149,149,150,150,150,150,149,146,150,150,142,144,142,143,140,143,150,153,150,149,147,147,156,151,155,137,136,125,121,120,123,126,122,128,121,122,126,127,133,129,129,138,138,138,136,131,123,120,119,124,124,125,124,124,131,129,132,131,135,133,135,133,133,-1,0,0,0,0,0,0,0,0,0,0,0,0,0,0,0,0,0,0,0,0,0,0,0,0,0,0,0,0,0,0,0,0,0,0,0,0,0,0,0,0,0,0,0,0,0,0,0,0,0,0,0,0,0,0,0,0,0,0,0,0,0,0
"Ind66","10_0_4",296,146,146,147,149,149,149,145,149,147,145,147,149,146,149,148,149,159,158,158,156,154,154,163,158,160,136,138,118,116,117,116,117,121,124,114,114,123,124,130,125,127,132,134,134,131,131,120,117,116,121,121,122,121,121,130,131,134,133,135,136,136,137,132,85,-1,0,0,0,0,0,0,0,0,0,0,0,0,0,0,0,0,0,0,0,0,0,0,0,0,0,0,0,0,0,0,0,0,0,0,0,0,0,0,0,0,0,0,0,0,0,0,0,0,0,0,0,0,0,0,0,0,0,0,0,0,0
"Ind67","10_0_3",297,145,145,146,148,148,148,144,148,148,146,147,149,146,149,148,149,159,160,158,156,154,154,163,158,162,135,137,121,119,120,119,120,124,127,117,117,126,127,133,128,130,135,135,135,134,133,123,120,119,124,124,125,124,124,133,132,136,135,137,138,138,139,134,86,5,-1,0,0,0,0,0,0,0,0,0,0,0,0,0,0,0,0,0,0,0,0,0,0,0,0,0,0,0,0,0,0,0,0,0,0,0,0,0,0,0,0,0,0,0,0,0,0,0,0,0,0,0,0,0,0,0,0,0,0,0,0
"Ind68","10_0_5",290,149,149,150,152,152,152,148,152,151,146,143,145,141,144,143,144,153,153,153,151,149,149,156,155,155,133,137,115,112,113,112,114,116,117,111,110,118,119,127,122,122,125,127,127,124,123,114,111,110,116,116,115,116,116,129,126,131,130,134,134,134,137,134,85,28,28,-1,0,0,0,0,0,0,0,0,0,0,0,0,0,0,0,0,0,0,0,0,0,0,0,0,0,0,0,0,0,0,0,0,0,0,0,0,0,0,0,0,0,0,0,0,0,0,0,0,0,0,0,0,0,0,0,0,0,0,0
"Ind69","10_0_8",293,148,148,149,151,151,151,147,151,148,145,142,144,142,145,144,145,155,158,156,154,152,152,159,156,158,136,138,115,113,114,112,114,117,118,110,110,120,121,127,122,124,125,127,127,124,118,116,113,114,121,121,122,121,121,128,127,132,131,133,132,132,134,131,85,24,26,18,-1,0,0,0,0,0,0,0,0,0,0,0,0,0,0,0,0,0,0,0,0,0,0,0,0,0,0,0,0,0,0,0,0,0,0,0,0,0,0,0,0,0,0,0,0,0,0,0,0,0,0,0,0,0,0,0,0,0,0
"Ind70","10_0_7",293,148,148,149,151,151,151,147,151,148,145,146,146,142,145,144,145,156,157,155,153,151,151,158,155,157,134,136,113,111,112,110,114,117,120,110,110,121,122,128,123,125,128,130,130,127,122,118,113,114,121,121,122,121,121,130,127,132,131,133,134,134,134,133,83,22,24,16,4,-1,0,0,0,0,0,0,0,0,0,0,0,0,0,0,0,0,0,0,0,0,0,0,0,0,0,0,0,0,0,0,0,0,0,0,0,0,0,0,0,0,0,0,0,0,0,0,0,0,0,0,0,0,0,0,0,0,0
"Ind71","10_0_1",290,144,144,145,147,147,147,149,151,148,146,138,139,139,139,139,139,157,156,154,154,152,152,157,154,154,135,137,117,114,115,114,115,111,116,110,110,120,121,127,124,121,123,125,125,124,123,116,115,114,119,119,120,119,119,120,127,123,122,124,125,129,121,122,85,47,50,49,47,45,-1,0,0,0,0,0,0,0,0,0,0,0,0,0,0,0,0,0,0,0,0,0,0,0,0,0,0,0,0,0,0,0,0,0,0,0,0,0,0,0,0,0,0,0,0,0,0,0,0,0,0,0,0,0,0,0,0
"Ind72","10_0_6",290,144,144,145,147,147,147,149,151,148,146,138,139,139,139,139,139,157,156,154,154,152,152,157,154,154,135,137,117,114,115,114,115,111,116,110,110,120,121,127,124,121,123,125,125,124,123,116,115,114,119,119,120,119,119,120,127,123,122,124,125,129,121,122,85,47,50,49,47,45,0,-1,0,0,0,0,0,0,0,0,0,0,0,0,0,0,0,0,0,0,0,0,0,0,0,0,0,0,0,0,0,0,0,0,0,0,0,0,0,0,0,0,0,0,0,0,0,0,0,0,0,0,0,0,0,0,0
"Ind73","10_0_2",296,145,145,146,146,146,146,144,144,145,147,137,139,131,136,135,136,156,154,155,153,151,151,154,151,155,130,132,113,111,110,113,116,115,115,110,110,115,116,121,117,116,124,124,124,123,124,115,112,111,115,115,114,113,115,122,128,125,126,128,130,130,130,128,79,49,51,54,53,51,57,57,-1,0,0,0,0,0,0,0,0,0,0,0,0,0,0,0,0,0,0,0,0,0,0,0,0,0,0,0,0,0,0,0,0,0,0,0,0,0,0,0,0,0,0,0,0,0,0,0,0,0,0,0,0,0,0
"Ind74","5_0_2",288,283,283,283,284,284,284,284,281,280,287,284,287,283,284,284,284,287,290,292,290,290,290,290,293,294,280,279,291,290,291,291,290,281,281,285,286,292,292,297,295,300,299,298,298,299,294,284,281,282,285,285,285,285,285,286,283,278,279,277,281,279,289,282,278,285,285,283,288,288,289,289,286,-1,0,0,0,0,0,0,0,0,0,0,0,0,0,0,0,0,0,0,0,0,0,0,0,0,0,0,0,0,0,0,0,0,0,0,0,0,0,0,0,0,0,0,0,0,0,0,0,0,0,0,0,0,0
"Ind75","2_0_3",292,288,288,288,287,287,287,289,284,286,291,291,294,290,291,291,291,289,293,291,290,290,290,292,293,293,279,278,296,295,296,294,292,285,283,287,286,288,288,290,291,293,293,294,294,293,293,281,280,281,284,284,284,284,284,286,285,281,282,280,280,283,292,283,276,281,282,285,283,283,283,283,284,70,-1,0,0,0,0,0,0,0,0,0,0,0,0,0,0,0,0,0,0,0,0,0,0,0,0,0,0,0,0,0,0,0,0,0,0,0,0,0,0,0,0,0,0,0,0,0,0,0,0,0,0,0,0
"Ind76","2_0_5",294,290,290,290,289,289,289,291,286,288,293,291,294,290,291,291,291,289,293,291,290,290,290,292,293,293,279,278,296,295,296,294,292,285,283,287,286,288,288,290,291,293,293,294,294,293,293,281,280,281,284,284,284,284,284,286,285,281,282,280,280,283,292,283,278,283,284,285,285,285,283,283,284,69,6,-1,0,0,0,0,0,0,0,0,0,0,0,0,0,0,0,0,0,0,0,0,0,0,0,0,0,0,0,0,0,0,0,0,0,0,0,0,0,0,0,0,0,0,0,0,0,0,0,0,0,0,0
"Ind77","2_0_4",293,285,285,285,284,284,284,284,281,283,288,286,287,285,286,286,286,289,293,293,290,290,290,294,293,293,278,277,293,292,293,291,291,286,284,288,289,290,290,293,293,296,294,295,295,294,291,285,282,284,288,288,288,288,288,287,285,281,280,278,279,281,289,282,273,278,279,282,280,278,283,283,282,69,23,23,-1,0,0,0,0,0,0,0,0,0,0,0,0,0,0,0,0,0,0,0,0,0,0,0,0,0,0,0,0,0,0,0,0,0,0,0,0,0,0,0,0,0,0,0,0,0,0,0,0,0,0
"Ind78","2_0_7",294,287,287,287,286,286,286,286,283,285,290,290,291,287,288,288,288,291,295,295,292,292,292,296,295,295,280,279,295,294,295,293,293,288,286,288,289,290,291,295,294,298,296,297,297,296,296,288,285,286,291,291,291,291,291,290,288,283,284,280,285,286,295,287,277,282,283,286,284,282,288,288,284,73,24,24,10,-1,0,0,0,0,0,0,0,0,0,0,0,0,0,0,0,0,0,0,0,0,0,0,0,0,0,0,0,0,0,0,0,0,0,0,0,0,0,0,0,0,0,0,0,0,0,0,0,0,0
"Ind79","2_0_2",297,284,284,284,283,283,283,283,280,282,287,286,287,283,284,284,284,283,285,285,282,282,282,284,285,287,276,275,293,292,293,291,291,284,284,290,289,287,287,291,290,294,296,297,297,296,290,283,282,281,286,286,286,286,286,289,284,280,281,277,283,282,291,284,272,281,282,283,283,281,283,283,282,68,35,37,35,41,-1,0,0,0,0,0,0,0,0,0,0,0,0,0,0,0,0,0,0,0,0,0,0,0,0,0,0,0,0,0,0,0,0,0,0,0,0,0,0,0,0,0,0,0,0,0,0,0,0
"Ind80","2_0_1",297,284,284,284,283,283,283,283,280,282,287,286,287,283,284,284,284,283,285,285,282,282,282,284,285,287,276,275,293,292,293,291,291,284,284,290,289,287,287,291,290,294,296,297,297,296,290,283,282,281,286,286,286,286,286,289,284,280,281,277,283,282,291,284,272,281,282,283,283,281,283,283,282,68,35,37,35,41,0,-1,0,0,0,0,0,0,0,0,0,0,0,0,0,0,0,0,0,0,0,0,0,0,0,0,0,0,0,0,0,0,0,0,0,0,0,0,0,0,0,0,0,0,0,0,0,0,0
"Ind81","2_0_0",298,289,289,289,288,288,288,288,286,287,293,292,293,291,292,292,292,293,299,299,296,296,296,298,299,299,280,279,298,297,298,296,296,286,284,292,291,290,290,292,293,295,295,296,296,295,294,286,283,286,289,289,289,289,289,293,286,289,290,288,288,291,298,291,283,289,289,290,288,288,294,294,291,79,39,39,42,49,34,34,-1,0,0,0,0,0,0,0,0,0,0,0,0,0,0,0,0,0,0,0,0,0,0,0,0,0,0,0,0,0,0,0,0,0,0,0,0,0,0,0,0,0,0,0,0,0,0
"Ind82","5_0_4",292,283,283,283,284,284,284,284,281,281,288,283,286,282,283,283,283,282,285,285,282,282,282,284,285,287,275,274,292,291,292,290,288,284,287,287,286,284,284,288,287,290,291,292,292,291,287,280,277,278,283,283,283,283,283,281,278,272,273,271,275,274,285,276,270,275,276,276,277,277,279,279,277,81,46,46,48,52,45,45,55,-1,0,0,0,0,0,0,0,0,0,0,0,0,0,0,0,0,0,0,0,0,0,0,0,0,0,0,0,0,0,0,0,0,0,0,0,0,0,0,0,0,0,0,0,0,0
"Ind83","5_0_8",292,282,282,282,283,283,283,283,280,280,287,282,285,281,282,282,282,281,284,284,281,281,281,283,284,286,274,273,291,290,291,289,287,283,286,286,285,283,283,287,286,289,290,291,291,290,286,279,276,277,282,282,282,282,282,280,277,271,272,270,274,273,284,275,269,274,275,275,276,276,278,278,276,80,45,45,47,51,44,44,54,3,-1,0,0,0,0,0,0,0,0,0,0,0,0,0,0,0,0,0,0,0,0,0,0,0,0,0,0,0,0,0,0,0,0,0,0,0,0,0,0,0,0,0,0,0,0
"Ind84","2_0_6",292,288,288,288,287,287,287,287,285,287,291,286,288,285,286,286,286,286,287,287,284,284,284,288,287,289,282,281,291,290,291,289,287,281,282,284,283,289,289,288,289,291,290,291,291,290,287,287,284,287,290,290,290,290,290,282,283,278,279,275,281,282,289,280,275,281,281,282,283,283,281,281,281,74,40,41,41,46,46,46,54,47,48,-1,0,0,0,0,0,0,0,0,0,0,0,0,0,0,0,0,0,0,0,0,0,0,0,0,0,0,0,0,0,0,0,0,0,0,0,0,0,0,0,0,0,0,0
"Ind85","2_0_8",292,289,289,289,288,288,288,288,286,288,292,287,289,286,287,287,287,286,285,285,282,282,282,286,285,287,283,282,293,292,293,291,289,283,284,286,285,291,291,290,291,293,292,293,293,292,287,289,286,289,292,292,292,292,292,284,284,280,281,277,283,284,291,282,277,283,283,284,285,285,283,283,284,75,41,42,42,47,47,47,55,50,49,5,-1,0,0,0,0,0,0,0,0,0,0,0,0,0,0,0,0,0,0,0,0,0,0,0,0,0,0,0,0,0,0,0,0,0,0,0,0,0,0,0,0,0,0
"Ind86","5_0_7",294,290,290,290,289,289,289,289,288,288,293,285,288,286,287,287,287,290,292,292,289,289,289,293,292,294,284,283,297,296,297,295,293,285,287,292,293,287,288,292,291,293,293,294,294,293,284,280,278,280,283,283,283,283,283,279,282,274,273,273,275,276,279,270,278,280,281,281,281,281,285,285,283,92,52,53,52,59,54,54,61,57,56,48,49,-1,0,0,0,0,0,0,0,0,0,0,0,0,0,0,0,0,0,0,0,0,0,0,0,0,0,0,0,0,0,0,0,0,0,0,0,0,0,0,0,0,0
"Ind87","5_0_3",294,290,290,290,289,289,289,289,288,288,293,285,288,286,287,287,287,290,292,292,289,289,289,293,292,294,284,283,297,296,297,295,293,285,287,292,293,287,288,292,291,293,293,294,294,293,284,280,278,280,283,283,283,283,283,279,282,274,273,273,275,276,279,270,278,280,281,281,281,281,285,285,283,92,52,53,52,59,54,54,61,57,56,48,49,0,-1,0,0,0,0,0,0,0,0,0,0,0,0,0,0,0,0,0,0,0,0,0,0,0,0,0,0,0,0,0,0,0,0,0,0,0,0,0,0,0,0
"Ind88","5_0_5",294,290,290,290,289,289,289,289,288,288,293,285,288,286,287,287,287,290,292,292,289,289,289,293,292,294,284,283,297,296,297,295,293,285,287,292,293,287,288,292,291,293,293,294,294,293,284,280,278,280,283,283,283,283,283,279,282,274,273,273,275,276,279,270,278,280,281,281,281,281,285,285,283,92,52,53,52,59,54,54,61,57,56,48,49,0,0,-1,0,0,0,0,0,0,0,0,0,0,0,0,0,0,0,0,0,0,0,0,0,0,0,0,0,0,0,0,0,0,0,0,0,0,0,0,0,0,0
"Ind89","5_0_6",294,290,290,290,289,289,289,289,288,288,293,285,288,286,287,287,287,290,292,292,289,289,289,293,292,294,284,283,297,296,297,295,293,285,287,292,293,287,288,292,291,293,293,294,294,293,284,280,278,280,283,283,283,283,283,279,282,274,273,273,275,276,279,270,278,280,281,281,281,281,285,285,283,92,52,53,52,59,54,54,61,57,56,48,49,0,0,0,-1,0,0,0,0,0,0,0,0,0,0,0,0,0,0,0,0,0,0,0,0,0,0,0,0,0,0,0,0,0,0,0,0,0,0,0,0,0,0
"Ind90","5_0_0",298,293,293,293,292,292,292,292,291,291,294,291,294,292,293,293,293,295,296,296,293,293,293,297,296,298,289,288,297,296,297,295,292,289,288,290,293,291,292,294,293,297,297,298,298,297,293,288,283,288,291,291,291,291,291,287,287,285,284,282,286,287,292,283,277,286,287,286,288,288,288,288,291,79,50,51,52,53,56,56,64,59,58,46,47,43,43,43,43,-1,0,0,0,0,0,0,0,0,0,0,0,0,0,0,0,0,0,0,0,0,0,0,0,0,0,0,0,0,0,0,0,0,0,0,0,0,0
"Ind91","5_0_1",296,291,291,291,292,292,292,292,291,289,294,290,293,289,290,290,290,292,294,294,291,291,291,295,294,294,286,285,294,293,294,292,290,285,281,287,290,284,285,289,288,290,290,291,291,290,294,285,280,285,288,288,288,288,288,286,284,284,285,281,285,288,293,284,273,282,283,282,284,284,284,284,285,72,44,45,48,49,48,48,58,53,52,44,45,45,45,45,45,16,-1,0,0,0,0,0,0,0,0,0,0,0,0,0,0,0,0,0,0,0,0,0,0,0,0,0,0,0,0,0,0,0,0,0,0,0,0
"Ind92","6_0_7",306,288,288,288,289,289,289,289,287,286,293,289,292,290,291,291,291,287,296,294,293,293,293,296,296,298,285,284,292,289,290,290,289,282,282,284,285,288,288,291,291,294,293,292,292,293,290,282,277,282,283,283,283,283,283,290,286,288,287,284,287,288,290,286,281,286,286,286,288,288,292,292,289,83,87,86,83,88,84,84,91,103,100,93,94,105,105,105,105,94,87,-1,0,0,0,0,0,0,0,0,0,0,0,0,0,0,0,0,0,0,0,0,0,0,0,0,0,0,0,0,0,0,0,0,0,0,0
"Ind93","6_0_1",303,284,284,284,285,285,285,285,285,282,289,285,288,286,287,287,287,289,294,292,291,291,291,294,294,296,283,282,290,287,288,288,287,280,280,282,287,286,286,289,289,292,291,290,290,291,287,282,277,282,283,283,283,283,283,290,283,285,284,281,284,285,290,285,278,283,283,283,285,285,289,289,286,79,86,87,78,85,83,83,88,102,101,90,89,100,100,100,100,89,82,18,-1,0,0,0,0,0,0,0,0,0,0,0,0,0,0,0,0,0,0,0,0,0,0,0,0,0,0,0,0,0,0,0,0,0,0
"Ind94","6_0_6",304,290,290,290,291,291,291,291,292,289,295,289,292,292,293,291,293,293,297,297,294,294,294,297,297,299,286,285,292,289,290,290,290,282,283,286,289,290,290,293,293,296,295,294,294,295,288,285,280,285,286,286,286,286,286,294,289,291,290,287,290,291,292,289,280,284,284,284,284,286,290,290,286,85,92,93,88,93,93,93,92,108,105,96,97,110,110,110,110,95,90,24,24,-1,0,0,0,0,0,0,0,0,0,0,0,0,0,0,0,0,0,0,0,0,0,0,0,0,0,0,0,0,0,0,0,0,0
"Ind95","6_0_8",299,288,288,288,289,289,289,289,289,286,293,294,297,293,294,294,294,290,296,293,292,292,292,295,295,297,283,282,291,289,290,290,289,284,282,284,287,289,289,289,289,293,292,291,291,292,286,283,278,283,284,284,284,284,284,288,287,285,286,282,289,290,290,285,284,280,280,284,282,282,287,287,280,96,89,90,91,94,94,94,93,104,101,95,98,108,108,108,108,102,93,58,58,62,-1,0,0,0,0,0,0,0,0,0,0,0,0,0,0,0,0,0,0,0,0,0,0,0,0,0,0,0,0,0,0,0,0
"Ind96","6_0_3",299,287,287,287,288,288,288,288,288,285,292,293,296,292,293,293,293,291,297,294,293,293,293,296,296,298,284,283,292,290,291,291,290,285,283,283,288,290,290,290,290,294,293,292,292,293,287,284,279,284,285,285,285,285,285,289,288,286,287,283,290,291,291,286,284,281,281,285,283,283,288,288,281,94,89,90,89,92,94,94,93,104,101,95,98,108,108,108,108,100,91,58,56,62,2,-1,0,0,0,0,0,0,0,0,0,0,0,0,0,0,0,0,0,0,0,0,0,0,0,0,0,0,0,0,0,0,0
"Ind97","6_0_2",297,283,283,283,284,284,284,284,286,283,290,289,292,290,291,291,291,288,293,291,292,292,292,293,293,295,282,281,294,291,292,292,291,284,282,286,289,288,288,290,288,294,293,292,292,293,285,284,279,282,285,285,285,285,285,290,286,285,286,282,291,290,292,287,284,280,280,284,280,282,287,287,280,91,87,90,90,90,90,90,93,99,96,95,96,106,106,106,106,100,93,61,61,63,19,19,-1,0,0,0,0,0,0,0,0,0,0,0,0,0,0,0,0,0,0,0,0,0,0,0,0,0,0,0,0,0,0
"Ind98","6_0_4",297,283,283,283,284,284,284,284,286,283,290,287,290,288,289,289,289,290,295,293,292,292,292,295,295,297,280,279,292,289,290,290,289,282,280,284,287,286,286,288,286,292,291,290,290,291,283,282,277,280,283,283,283,283,283,288,284,283,284,280,289,288,290,285,282,278,278,282,278,280,285,285,278,91,87,90,90,90,88,88,93,99,96,95,96,105,105,105,105,100,93,58,56,60,16,16,7,-1,0,0,0,0,0,0,0,0,0,0,0,0,0,0,0,0,0,0,0,0,0,0,0,0,0,0,0,0,0
"Ind99","6_0_5",292,281,281,281,282,282,282,282,283,279,286,287,290,286,287,287,287,288,291,289,288,288,288,291,289,293,276,275,293,290,289,291,290,283,283,285,288,285,285,289,287,291,291,290,290,291,285,278,273,275,279,279,279,279,279,283,282,280,281,279,286,285,287,282,275,276,276,280,278,278,283,283,273,94,93,94,92,94,96,96,97,105,102,99,100,110,110,110,110,106,97,60,60,66,22,22,25,22,-1,0,0,0,0,0,0,0,0,0,0,0,0,0,0,0,0,0,0,0,0,0,0,0,0,0,0,0,0
"Ind100","6_0_0",298,283,283,283,284,284,284,284,284,281,288,290,293,289,290,290,290,290,296,294,293,293,293,296,296,298,280,279,293,290,291,291,290,285,283,285,288,286,286,288,286,291,291,290,290,291,286,283,278,281,284,284,284,284,284,289,286,284,285,281,290,289,291,286,283,279,279,283,281,281,288,288,279,91,87,88,88,90,90,90,93,102,101,93,94,106,106,106,106,102,95,56,54,62,17,17,20,17,19,-1,0,0,0,0,0,0,0,0,0,0,0,0,0,0,0,0,0,0,0,0,0,0,0,0,0,0,0
"Ind101","4_0_5",290,284,284,284,285,285,285,283,283,282,288,283,286,284,284,284,284,291,291,291,287,288,288,287,289,291,275,277,293,290,289,291,288,285,285,284,286,284,284,291,289,291,289,288,288,289,288,281,280,279,280,280,280,280,280,280,280,277,277,276,279,280,286,281,280,285,288,286,288,288,289,289,281,100,100,100,99,105,101,101,110,102,99,101,102,106,106,106,106,108,102,106,102,108,108,108,106,104,105,105,-1,0,0,0,0,0,0,0,0,0,0,0,0,0,0,0,0,0,0,0,0,0,0,0,0,0,0
"Ind102","4_0_7",290,284,284,284,285,285,285,283,283,282,288,283,286,284,284,284,284,291,291,291,287,288,288,287,289,291,275,277,293,290,289,291,288,285,285,284,286,284,284,291,289,291,289,288,288,289,288,281,280,279,280,280,280,280,280,280,280,277,277,276,279,280,286,281,280,285,288,286,288,288,289,289,281,100,100,100,99,105,101,101,110,102,99,101,102,106,106,106,106,108,102,106,102,108,108,108,106,104,105,105,0,-1,0,0,0,0,0,0,0,0,0,0,0,0,0,0,0,0,0,0,0,0,0,0,0,0,0
"Ind103","4_0_8",291,291,291,291,292,292,292,292,289,289,295,288,291,289,289,287,289,294,294,294,291,291,291,292,292,294,278,280,295,295,294,294,291,289,289,287,289,289,289,296,294,296,293,292,292,293,293,284,285,282,283,283,283,283,283,284,285,280,280,281,284,285,289,285,279,293,295,294,293,293,294,294,288,100,99,102,100,102,105,105,114,104,103,99,100,104,104,104,104,102,96,109,101,107,109,109,109,107,107,106,31,31,-1,0,0,0,0,0,0,0,0,0,0,0,0,0,0,0,0,0,0,0,0,0,0,0,0
"Ind104","4_0_6",289,289,289,289,290,290,290,290,287,287,293,286,289,288,287,287,287,292,293,293,290,290,290,293,293,293,276,278,294,293,292,292,289,287,287,285,287,286,286,293,291,293,290,289,289,290,292,284,285,282,283,283,283,283,283,282,282,278,278,279,281,282,288,283,278,288,290,289,288,288,289,289,284,100,97,100,96,102,101,101,110,107,104,96,97,101,101,101,101,105,99,106,100,106,108,110,108,106,106,105,32,32,15,-1,0,0,0,0,0,0,0,0,0,0,0,0,0,0,0,0,0,0,0,0,0,0,0
"Ind105","4_0_3",292,290,290,290,291,291,291,291,288,286,291,287,288,286,287,284,287,286,285,286,283,283,283,286,286,286,278,277,293,292,291,291,292,291,291,289,288,289,290,298,296,298,297,297,297,297,294,281,281,279,282,282,282,282,282,284,284,279,278,278,280,279,283,279,277,288,289,287,289,287,289,289,283,95,96,97,94,97,92,92,109,107,104,100,99,106,106,106,106,107,102,100,101,102,100,100,96,92,95,100,94,94,90,89,-1,0,0,0,0,0,0,0,0,0,0,0,0,0,0,0,0,0,0,0,0,0,0
"Ind106","4_0_1",294,281,281,281,282,282,282,282,280,277,284,284,285,281,282,282,282,282,284,284,281,281,281,282,284,287,276,275,289,288,287,287,288,285,286,287,287,287,288,295,293,295,292,291,291,292,289,283,280,281,284,284,284,284,284,283,280,275,276,272,280,279,285,280,273,279,279,279,280,278,284,284,275,86,87,88,87,90,80,80,97,98,95,87,88,101,101,101,101,100,94,94,93,98,93,93,91,85,87,91,84,84,89,86,45,-1,0,0,0,0,0,0,0,0,0,0,0,0,0,0,0,0,0,0,0,0,0
"Ind107","4_0_0",293,281,281,281,282,282,282,282,280,277,284,284,285,281,282,282,282,282,284,284,281,281,281,282,284,287,276,275,289,288,287,287,288,285,286,287,287,287,288,295,293,295,292,291,291,292,290,283,280,281,284,284,284,284,284,283,280,275,276,272,280,279,285,280,273,279,279,279,280,278,284,284,275,84,87,88,87,90,80,80,97,98,95,87,88,101,101,101,101,98,92,92,91,96,91,91,89,83,85,89,82,82,87,84,43,2,-1,0,0,0,0,0,0,0,0,0,0,0,0,0,0,0,0,0,0,0,0
"Ind108","4_0_2",296,284,284,284,285,285,285,285,281,280,287,285,286,282,283,283,283,283,287,287,284,284,284,285,287,290,279,278,292,291,290,290,291,288,289,290,288,288,289,296,294,296,293,292,292,293,293,284,283,282,285,285,285,285,285,285,283,278,279,275,283,282,286,281,276,282,282,282,283,281,287,287,278,87,88,89,88,91,81,81,100,98,95,88,89,100,100,100,100,101,95,93,94,99,94,94,92,86,88,92,81,81,86,84,42,7,5,-1,0,0,0,0,0,0,0,0,0,0,0,0,0,0,0,0,0,0,0
"Ind109","4_0_4",293,283,283,283,284,284,284,284,280,279,286,284,285,281,282,282,282,282,286,286,283,283,283,284,286,289,278,277,291,290,289,289,290,287,288,289,287,287,288,295,293,295,292,291,291,292,292,283,282,281,284,284,284,284,284,284,282,277,278,274,282,281,287,282,274,281,281,281,282,280,286,286,277,84,88,89,88,91,81,81,100,99,96,86,87,102,102,102,102,99,93,89,90,95,94,94,92,86,88,92,80,80,84,79,41,8,6,5,-1,0,0,0,0,0,0,0,0,0,0,0,0,0,0,0,0,0,0
"Ind110","1_0_4",294,287,287,287,287,287,287,287,284,285,291,287,288,286,285,287,285,289,295,295,292,292,292,293,293,297,275,275,290,287,288,288,289,284,286,285,286,290,290,294,294,293,294,293,293,294,288,285,281,285,285,285,285,285,285,280,279,278,279,277,280,282,284,280,279,286,286,288,288,288,287,287,285,86,86,89,84,90,87,87,98,94,91,85,86,105,105,105,105,99,94,90,93,96,98,98,98,98,97,98,91,91,90,87,102,83,81,82,81,-1,0,0,0,0,0,0,0,0,0,0,0,0,0,0,0,0,0
"Ind111","3_0_4",293,287,287,287,287,287,287,287,284,285,291,287,288,286,285,287,285,289,295,295,292,292,292,293,293,297,275,275,290,287,288,288,289,284,286,285,286,290,290,294,294,293,294,293,293,294,288,285,281,285,285,285,285,285,285,280,279,278,279,277,280,282,284,280,278,286,286,288,288,288,287,287,285,84,84,87,82,88,85,85,96,92,91,83,84,103,103,103,103,97,92,92,91,96,100,100,100,100,99,98,91,91,88,87,104,85,83,84,83,2,-1,0,0,0,0,0,0,0,0,0,0,0,0,0,0,0,0
"Ind112","1_0_7",293,286,286,286,286,286,286,286,283,284,290,287,288,284,285,285,285,285,291,291,288,288,288,289,289,293,272,271,289,286,287,287,286,280,282,282,283,287,287,291,291,292,291,290,290,291,288,281,277,281,282,282,282,282,282,278,280,274,275,273,278,280,284,276,278,283,283,285,285,285,285,285,282,82,83,84,81,87,84,84,93,91,88,82,83,101,101,101,101,95,90,85,88,92,91,91,93,93,90,91,89,89,88,85,98,79,77,78,77,11,13,-1,0,0,0,0,0,0,0,0,0,0,0,0,0,0,0
"Ind113","1_0_8",291,289,289,289,289,289,289,289,288,287,292,287,288,288,285,287,285,287,289,289,286,286,286,287,287,287,274,273,290,287,288,288,287,281,283,283,286,288,288,292,292,291,292,291,291,292,287,282,280,282,283,283,283,283,283,278,277,273,274,272,277,279,279,275,279,281,281,283,283,283,282,282,285,90,88,91,92,98,91,91,100,98,95,87,86,105,105,105,105,98,91,98,95,103,100,100,98,98,98,100,95,95,91,88,106,84,82,85,85,23,25,18,-1,0,0,0,0,0,0,0,0,0,0,0,0,0,0
"Ind114","1_0_2",291,289,289,289,289,289,289,289,288,287,292,287,288,288,285,287,285,287,289,289,286,286,286,287,287,287,274,273,290,287,288,288,287,280,282,283,286,288,288,291,291,291,292,291,291,292,287,282,280,282,283,283,283,283,283,278,277,273,274,272,277,279,279,274,278,280,280,282,282,282,281,281,285,89,87,90,91,97,90,90,99,97,94,86,85,104,104,104,104,97,90,97,94,102,99,99,97,97,97,99,95,95,91,88,106,84,82,85,85,24,26,19,1,-1,0,0,0,0,0,0,0,0,0,0,0,0,0
"Ind115","1_0_1",290,288,288,288,288,288,288,288,287,286,291,286,287,287,284,286,284,288,290,290,287,287,287,288,288,288,273,272,289,286,287,287,286,280,282,282,285,287,287,291,291,290,291,290,290,291,286,281,279,281,282,282,282,282,282,277,276,272,273,271,276,278,278,274,278,280,280,282,282,282,281,281,284,90,88,91,92,98,91,91,100,98,95,87,86,105,105,105,105,98,91,98,95,103,100,100,100,98,97,100,95,95,91,88,106,82,80,83,83,23,25,18,2,3,-1,0,0,0,0,0,0,0,0,0,0,0,0
"Ind116","1_0_3",290,288,288,288,288,288,288,288,287,286,291,286,287,287,284,286,284,288,290,290,287,287,287,288,288,288,273,272,289,286,287,287,286,280,282,282,285,287,287,291,291,290,291,290,290,291,286,281,279,281,282,282,282,282,282,277,276,272,273,271,276,278,278,274,278,280,280,282,282,282,281,281,284,91,89,92,93,97,92,92,101,99,96,88,87,106,106,106,106,99,92,97,94,102,99,99,99,97,96,99,96,96,92,89,107,83,81,84,84,24,26,19,3,4,1,-1,0,0,0,0,0,0,0,0,0,0,0
"Ind117","3_0_8",291,283,283,283,283,283,283,283,282,281,287,285,286,282,283,283,283,283,289,289,286,286,286,287,287,289,268,267,285,282,283,283,282,276,278,278,281,283,283,287,287,288,287,286,286,287,284,277,275,277,278,278,278,278,278,277,276,270,271,269,274,276,280,272,274,279,279,281,281,281,281,281,280,85,83,84,87,93,86,86,95,93,92,82,83,100,100,100,100,93,86,95,92,98,97,97,97,95,95,95,91,91,86,85,103,81,79,82,82,20,20,13,9,10,9,10,-1,0,0,0,0,0,0,0,0,0,0
"Ind118","3_0_0",290,283,283,283,283,283,283,283,282,281,287,283,284,282,281,283,281,285,291,291,288,288,288,289,289,291,268,267,283,280,281,281,282,276,278,278,281,283,283,287,287,286,287,286,286,287,282,277,275,277,278,278,278,278,278,277,274,270,271,269,274,276,278,272,274,279,279,281,281,281,280,280,280,85,87,86,89,95,90,90,97,95,92,86,87,104,104,104,104,97,90,95,94,98,97,97,98,96,95,97,93,93,90,87,105,83,81,84,84,20,22,13,9,10,9,10,4,-1,0,0,0,0,0,0,0,0,0
"Ind119","3_0_5",289,283,283,283,282,282,282,282,279,281,286,289,292,287,289,289,289,283,290,290,287,287,287,286,288,292,274,273,291,288,289,289,288,282,285,285,286,287,287,293,291,292,291,290,290,291,285,282,279,282,283,283,283,283,283,280,284,279,280,276,283,284,287,280,280,286,286,288,288,288,290,290,284,92,89,90,90,92,85,85,102,96,93,85,86,103,103,103,103,96,94,82,85,85,91,91,89,87,93,87,96,96,95,96,90,77,75,76,75,50,52,41,54,54,54,53,49,51,-1,0,0,0,0,0,0,0,0
"Ind120","1_0_0",291,283,283,283,282,282,282,282,279,281,286,287,290,285,287,287,287,283,291,291,288,288,288,287,289,293,274,273,289,286,287,287,286,280,283,283,284,285,285,292,290,290,289,288,288,289,283,280,277,280,281,281,281,281,281,279,282,277,278,274,281,282,285,278,278,284,284,286,286,286,288,288,283,90,86,87,87,89,84,84,99,95,92,83,84,101,101,101,101,95,94,80,83,83,90,90,88,86,92,86,95,95,94,95,91,76,74,75,74,46,48,39,52,52,52,51,47,49,6,-1,0,0,0,0,0,0,0
"Ind121","1_0_6",291,283,283,283,282,282,282,282,279,281,286,287,290,285,287,287,287,283,291,291,288,288,288,287,289,293,274,273,289,286,287,287,286,280,283,283,284,285,285,292,290,290,289,288,288,289,283,280,277,280,281,281,281,281,281,279,282,277,278,274,281,282,285,278,278,284,284,286,286,286,288,288,283,90,86,87,87,89,84,84,99,95,92,83,84,101,101,101,101,95,94,80,83,83,90,90,88,86,92,86,95,95,94,95,91,76,74,75,74,46,48,39,52,52,52,51,47,49,6,0,-1,0,0,0,0,0,0
"Ind122","3_0_7",293,283,283,283,282,282,282,282,279,281,286,287,290,285,287,287,287,283,291,291,288,288,288,287,289,293,274,273,289,286,287,287,286,280,283,283,284,285,285,292,290,290,289,288,288,289,283,280,277,280,281,281,281,281,281,279,282,277,278,274,281,282,285,278,278,284,284,286,286,286,288,288,283,93,86,87,87,91,84,84,99,95,92,83,84,100,100,100,100,97,94,81,84,86,91,91,91,89,93,87,94,94,93,94,94,76,75,76,75,47,49,38,51,51,51,50,46,48,7,3,3,-1,0,0,0,0,0
"Ind123","3_0_3",292,284,284,284,283,283,283,283,280,282,287,288,291,286,288,288,288,284,292,292,289,289,289,288,290,292,275,274,292,289,290,290,289,283,286,287,287,286,286,295,291,293,292,291,291,292,286,283,280,281,284,284,284,284,284,279,280,275,276,272,281,280,285,278,279,283,283,285,285,285,289,289,282,91,89,92,89,90,87,87,104,96,93,86,87,103,103,103,103,97,96,85,88,88,95,95,91,89,95,89,96,96,93,94,94,78,76,77,76,49,51,40,51,51,51,50,50,52,11,7,7,8,-1,0,0,0,0
"Ind124","3_0_1",294,283,283,283,282,282,282,282,279,281,286,287,290,285,287,287,287,283,291,291,288,288,288,287,289,293,274,273,291,288,289,289,288,282,285,286,286,285,285,294,290,292,291,290,290,291,285,282,279,280,283,283,283,283,283,281,282,277,278,274,283,282,287,280,278,284,284,285,286,286,290,290,283,93,89,92,89,90,87,87,102,96,93,86,87,103,103,103,103,97,98,85,88,88,95,95,91,89,95,89,97,97,95,96,94,78,76,77,76,51,53,42,55,55,55,54,52,54,11,7,7,8,4,-1,0,0,0
"Ind125","3_0_6",293,282,282,282,281,281,281,281,278,280,285,286,289,284,286,286,286,282,290,290,287,287,287,286,288,292,273,272,290,287,288,288,287,281,284,285,285,284,284,293,289,291,290,289,289,290,284,281,278,279,282,282,282,282,282,280,281,276,277,273,282,281,286,279,277,283,283,285,285,285,289,289,282,91,89,92,89,90,85,85,102,96,93,86,87,103,103,103,103,97,96,83,86,86,93,93,89,87,93,87,95,95,93,94,92,76,74,75,74,49,51,40,53,53,53,52,50,52,9,5,5,6,2,2,-1,0,0
"Ind126","1_0_5",293,281,281,281,280,280,280,280,277,279,284,285,288,283,285,285,285,281,289,289,286,286,286,285,287,291,272,271,289,286,287,287,286,280,283,284,284,283,283,292,288,290,289,288,288,289,283,280,277,278,281,281,281,281,281,279,280,275,276,272,281,280,285,278,276,282,282,284,284,284,288,288,281,91,89,92,89,92,85,85,102,96,93,86,87,102,102,102,102,96,96,85,88,88,95,95,91,89,95,89,95,95,92,93,92,76,74,75,74,49,51,40,53,53,53,54,50,52,11,7,7,8,4,4,2,-1,0
"Ind127","3_0_2",294,290,290,290,289,289,289,289,286,288,293,294,297,292,294,294,294,289,297,297,294,294,294,293,295,299,282,281,290,287,288,288,287,284,288,286,287,292,293,298,298,298,297,296,296,297,288,288,285,288,289,289,289,289,289,285,288,281,282,278,285,286,291,284,283,289,289,291,291,291,293,293,288,91,88,89,87,87,86,86,100,93,92,81,83,101,101,101,101,94,93,84,85,86,96,96,96,94,102,92,94,94,90,93,99,84,82,83,82,51,51,42,55,55,55,54,48,52,21,17,17,18,20,22,20,22,-1
