"","Description","Ind1","Ind2","Ind3","Ind4","Ind5","Ind6","Ind7","Ind8","Ind9","Ind10","Ind11","Ind12","Ind13","Ind14","Ind15","Ind16","Ind17","Ind18","Ind19","Ind20","Ind21","Ind22","Ind23","Ind24","Ind25","Ind26","Ind27","Ind28","Ind29","Ind30","Ind31","Ind32","Ind33","Ind34","Ind35","Ind36","Ind37","Ind38","Ind39","Ind40","Ind41","Ind42","Ind43","Ind44","Ind45","Ind46","Ind47","Ind48","Ind49","Ind50","Ind51","Ind52","Ind53","Ind54","Ind55","Ind56","Ind57","Ind58","Ind59","Ind60","Ind61","Ind62","Ind63","Ind64","Ind65"
"Ind1","0_0_0",-1,0,0,0,0,0,0,0,0,0,0,0,0,0,0,0,0,0,0,0,0,0,0,0,0,0,0,0,0,0,0,0,0,0,0,0,0,0,0,0,0,0,0,0,0,0,0,0,0,0,0,0,0,0,0,0,0,0,0,0,0,0,0,0,0
"Ind2","1_0_1",273,-1,0,0,0,0,0,0,0,0,0,0,0,0,0,0,0,0,0,0,0,0,0,0,0,0,0,0,0,0,0,0,0,0,0,0,0,0,0,0,0,0,0,0,0,0,0,0,0,0,0,0,0,0,0,0,0,0,0,0,0,0,0,0,0
"Ind3","1_0_9",273,0,-1,0,0,0,0,0,0,0,0,0,0,0,0,0,0,0,0,0,0,0,0,0,0,0,0,0,0,0,0,0,0,0,0,0,0,0,0,0,0,0,0,0,0,0,0,0,0,0,0,0,0,0,0,0,0,0,0,0,0,0,0,0,0
"Ind4","1_0_13",273,0,0,-1,0,0,0,0,0,0,0,0,0,0,0,0,0,0,0,0,0,0,0,0,0,0,0,0,0,0,0,0,0,0,0,0,0,0,0,0,0,0,0,0,0,0,0,0,0,0,0,0,0,0,0,0,0,0,0,0,0,0,0,0,0
"Ind5","1_0_6",273,0,0,0,-1,0,0,0,0,0,0,0,0,0,0,0,0,0,0,0,0,0,0,0,0,0,0,0,0,0,0,0,0,0,0,0,0,0,0,0,0,0,0,0,0,0,0,0,0,0,0,0,0,0,0,0,0,0,0,0,0,0,0,0,0
"Ind6","1_0_14",273,0,0,0,0,-1,0,0,0,0,0,0,0,0,0,0,0,0,0,0,0,0,0,0,0,0,0,0,0,0,0,0,0,0,0,0,0,0,0,0,0,0,0,0,0,0,0,0,0,0,0,0,0,0,0,0,0,0,0,0,0,0,0,0,0
"Ind7","1_0_11",273,0,0,0,0,0,-1,0,0,0,0,0,0,0,0,0,0,0,0,0,0,0,0,0,0,0,0,0,0,0,0,0,0,0,0,0,0,0,0,0,0,0,0,0,0,0,0,0,0,0,0,0,0,0,0,0,0,0,0,0,0,0,0,0,0
"Ind8","1_0_3",273,0,0,0,0,0,0,-1,0,0,0,0,0,0,0,0,0,0,0,0,0,0,0,0,0,0,0,0,0,0,0,0,0,0,0,0,0,0,0,0,0,0,0,0,0,0,0,0,0,0,0,0,0,0,0,0,0,0,0,0,0,0,0,0,0
"Ind9","1_0_8",274,2,2,2,2,2,2,2,-1,0,0,0,0,0,0,0,0,0,0,0,0,0,0,0,0,0,0,0,0,0,0,0,0,0,0,0,0,0,0,0,0,0,0,0,0,0,0,0,0,0,0,0,0,0,0,0,0,0,0,0,0,0,0,0,0
"Ind10","1_0_4",274,2,2,2,2,2,2,2,0,-1,0,0,0,0,0,0,0,0,0,0,0,0,0,0,0,0,0,0,0,0,0,0,0,0,0,0,0,0,0,0,0,0,0,0,0,0,0,0,0,0,0,0,0,0,0,0,0,0,0,0,0,0,0,0,0
"Ind11","1_0_12",274,2,2,2,2,2,2,2,0,0,-1,0,0,0,0,0,0,0,0,0,0,0,0,0,0,0,0,0,0,0,0,0,0,0,0,0,0,0,0,0,0,0,0,0,0,0,0,0,0,0,0,0,0,0,0,0,0,0,0,0,0,0,0,0,0
"Ind12","1_0_10",273,4,4,4,4,4,4,4,6,6,6,-1,0,0,0,0,0,0,0,0,0,0,0,0,0,0,0,0,0,0,0,0,0,0,0,0,0,0,0,0,0,0,0,0,0,0,0,0,0,0,0,0,0,0,0,0,0,0,0,0,0,0,0,0,0
"Ind13","1_0_0",273,4,4,4,4,4,4,4,6,6,6,0,-1,0,0,0,0,0,0,0,0,0,0,0,0,0,0,0,0,0,0,0,0,0,0,0,0,0,0,0,0,0,0,0,0,0,0,0,0,0,0,0,0,0,0,0,0,0,0,0,0,0,0,0,0
"Ind14","1_0_5",273,4,4,4,4,4,4,4,6,6,6,0,0,-1,0,0,0,0,0,0,0,0,0,0,0,0,0,0,0,0,0,0,0,0,0,0,0,0,0,0,0,0,0,0,0,0,0,0,0,0,0,0,0,0,0,0,0,0,0,0,0,0,0,0,0
"Ind15","1_0_2",273,4,4,4,4,4,4,4,6,6,6,0,0,0,-1,0,0,0,0,0,0,0,0,0,0,0,0,0,0,0,0,0,0,0,0,0,0,0,0,0,0,0,0,0,0,0,0,0,0,0,0,0,0,0,0,0,0,0,0,0,0,0,0,0,0
"Ind16","1_0_7",273,4,4,4,4,4,4,4,6,6,6,0,0,0,0,-1,0,0,0,0,0,0,0,0,0,0,0,0,0,0,0,0,0,0,0,0,0,0,0,0,0,0,0,0,0,0,0,0,0,0,0,0,0,0,0,0,0,0,0,0,0,0,0,0,0
"Ind17","1_0_15",273,4,4,4,4,4,4,4,6,6,6,0,0,0,0,0,-1,0,0,0,0,0,0,0,0,0,0,0,0,0,0,0,0,0,0,0,0,0,0,0,0,0,0,0,0,0,0,0,0,0,0,0,0,0,0,0,0,0,0,0,0,0,0,0,0
"Ind18","3_0_12",280,114,114,114,114,114,114,114,116,116,116,114,114,114,114,114,114,-1,0,0,0,0,0,0,0,0,0,0,0,0,0,0,0,0,0,0,0,0,0,0,0,0,0,0,0,0,0,0,0,0,0,0,0,0,0,0,0,0,0,0,0,0,0,0,0
"Ind19","3_0_13",280,114,114,114,114,114,114,114,116,116,116,114,114,114,114,114,114,0,-1,0,0,0,0,0,0,0,0,0,0,0,0,0,0,0,0,0,0,0,0,0,0,0,0,0,0,0,0,0,0,0,0,0,0,0,0,0,0,0,0,0,0,0,0,0,0
"Ind20","3_0_7",280,114,114,114,114,114,114,114,116,116,116,114,114,114,114,114,114,0,0,-1,0,0,0,0,0,0,0,0,0,0,0,0,0,0,0,0,0,0,0,0,0,0,0,0,0,0,0,0,0,0,0,0,0,0,0,0,0,0,0,0,0,0,0,0,0
"Ind21","3_0_5",280,114,114,114,114,114,114,114,116,116,116,114,114,114,114,114,114,0,0,0,-1,0,0,0,0,0,0,0,0,0,0,0,0,0,0,0,0,0,0,0,0,0,0,0,0,0,0,0,0,0,0,0,0,0,0,0,0,0,0,0,0,0,0,0,0
"Ind22","3_0_8",280,114,114,114,114,114,114,114,116,116,116,114,114,114,114,114,114,0,0,0,0,-1,0,0,0,0,0,0,0,0,0,0,0,0,0,0,0,0,0,0,0,0,0,0,0,0,0,0,0,0,0,0,0,0,0,0,0,0,0,0,0,0,0,0,0
"Ind23","3_0_15",280,114,114,114,114,114,114,114,116,116,116,114,114,114,114,114,114,0,0,0,0,0,-1,0,0,0,0,0,0,0,0,0,0,0,0,0,0,0,0,0,0,0,0,0,0,0,0,0,0,0,0,0,0,0,0,0,0,0,0,0,0,0,0,0,0
"Ind24","3_0_11",280,114,114,114,114,114,114,114,116,116,116,114,114,114,114,114,114,0,0,0,0,0,0,-1,0,0,0,0,0,0,0,0,0,0,0,0,0,0,0,0,0,0,0,0,0,0,0,0,0,0,0,0,0,0,0,0,0,0,0,0,0,0,0,0,0
"Ind25","3_0_10",280,114,114,114,114,114,114,114,116,116,116,114,114,114,114,114,114,0,0,0,0,0,0,0,-1,0,0,0,0,0,0,0,0,0,0,0,0,0,0,0,0,0,0,0,0,0,0,0,0,0,0,0,0,0,0,0,0,0,0,0,0,0,0,0,0
"Ind26","3_0_9",280,114,114,114,114,114,114,114,116,116,116,114,114,114,114,114,114,0,0,0,0,0,0,0,0,-1,0,0,0,0,0,0,0,0,0,0,0,0,0,0,0,0,0,0,0,0,0,0,0,0,0,0,0,0,0,0,0,0,0,0,0,0,0,0,0
"Ind27","3_0_0",280,114,114,114,114,114,114,114,116,116,116,114,114,114,114,114,114,0,0,0,0,0,0,0,0,0,-1,0,0,0,0,0,0,0,0,0,0,0,0,0,0,0,0,0,0,0,0,0,0,0,0,0,0,0,0,0,0,0,0,0,0,0,0,0,0
"Ind28","3_0_1",280,114,114,114,114,114,114,114,116,116,116,114,114,114,114,114,114,0,0,0,0,0,0,0,0,0,0,-1,0,0,0,0,0,0,0,0,0,0,0,0,0,0,0,0,0,0,0,0,0,0,0,0,0,0,0,0,0,0,0,0,0,0,0,0,0
"Ind29","3_0_2",280,114,114,114,114,114,114,114,116,116,116,114,114,114,114,114,114,0,0,0,0,0,0,0,0,0,0,0,-1,0,0,0,0,0,0,0,0,0,0,0,0,0,0,0,0,0,0,0,0,0,0,0,0,0,0,0,0,0,0,0,0,0,0,0,0
"Ind30","3_0_3",279,114,114,114,114,114,114,114,116,116,116,114,114,114,114,114,114,2,2,2,2,2,2,2,2,2,2,2,2,-1,0,0,0,0,0,0,0,0,0,0,0,0,0,0,0,0,0,0,0,0,0,0,0,0,0,0,0,0,0,0,0,0,0,0,0
"Ind31","3_0_4",279,114,114,114,114,114,114,114,116,116,116,114,114,114,114,114,114,2,2,2,2,2,2,2,2,2,2,2,2,0,-1,0,0,0,0,0,0,0,0,0,0,0,0,0,0,0,0,0,0,0,0,0,0,0,0,0,0,0,0,0,0,0,0,0,0
"Ind32","3_0_14",279,114,114,114,114,114,114,114,116,116,116,114,114,114,114,114,114,2,2,2,2,2,2,2,2,2,2,2,2,0,0,-1,0,0,0,0,0,0,0,0,0,0,0,0,0,0,0,0,0,0,0,0,0,0,0,0,0,0,0,0,0,0,0,0,0
"Ind33","3_0_6",279,114,114,114,114,114,114,114,116,116,116,114,114,114,114,114,114,2,2,2,2,2,2,2,2,2,2,2,2,0,0,0,-1,0,0,0,0,0,0,0,0,0,0,0,0,0,0,0,0,0,0,0,0,0,0,0,0,0,0,0,0,0,0,0,0
"Ind34","4_0_7",283,138,138,138,138,138,138,138,138,138,138,138,138,138,138,138,138,56,56,56,56,56,56,56,56,56,56,56,56,54,54,54,54,-1,0,0,0,0,0,0,0,0,0,0,0,0,0,0,0,0,0,0,0,0,0,0,0,0,0,0,0,0,0,0,0
"Ind35","4_0_12",283,138,138,138,138,138,138,138,138,138,138,138,138,138,138,138,138,56,56,56,56,56,56,56,56,56,56,56,56,54,54,54,54,0,-1,0,0,0,0,0,0,0,0,0,0,0,0,0,0,0,0,0,0,0,0,0,0,0,0,0,0,0,0,0,0
"Ind36","4_0_9",283,138,138,138,138,138,138,138,138,138,138,138,138,138,138,138,138,56,56,56,56,56,56,56,56,56,56,56,56,54,54,54,54,0,0,-1,0,0,0,0,0,0,0,0,0,0,0,0,0,0,0,0,0,0,0,0,0,0,0,0,0,0,0,0,0
"Ind37","4_0_2",283,138,138,138,138,138,138,138,138,138,138,138,138,138,138,138,138,56,56,56,56,56,56,56,56,56,56,56,56,54,54,54,54,0,0,0,-1,0,0,0,0,0,0,0,0,0,0,0,0,0,0,0,0,0,0,0,0,0,0,0,0,0,0,0,0
"Ind38","4_0_6",283,138,138,138,138,138,138,138,138,138,138,138,138,138,138,138,138,56,56,56,56,56,56,56,56,56,56,56,56,54,54,54,54,0,0,0,0,-1,0,0,0,0,0,0,0,0,0,0,0,0,0,0,0,0,0,0,0,0,0,0,0,0,0,0,0
"Ind39","4_0_3",282,137,137,137,137,137,137,137,137,137,137,137,137,137,137,137,137,55,55,55,55,55,55,55,55,55,55,55,55,53,53,53,53,1,1,1,1,1,-1,0,0,0,0,0,0,0,0,0,0,0,0,0,0,0,0,0,0,0,0,0,0,0,0,0,0
"Ind40","4_0_4",282,137,137,137,137,137,137,137,137,137,137,137,137,137,137,137,137,55,55,55,55,55,55,55,55,55,55,55,55,53,53,53,53,1,1,1,1,1,0,-1,0,0,0,0,0,0,0,0,0,0,0,0,0,0,0,0,0,0,0,0,0,0,0,0,0
"Ind41","4_0_11",282,137,137,137,137,137,137,137,137,137,137,137,137,137,137,137,137,55,55,55,55,55,55,55,55,55,55,55,55,53,53,53,53,1,1,1,1,1,0,0,-1,0,0,0,0,0,0,0,0,0,0,0,0,0,0,0,0,0,0,0,0,0,0,0,0
"Ind42","4_0_14",282,137,137,137,137,137,137,137,137,137,137,137,137,137,137,137,137,55,55,55,55,55,55,55,55,55,55,55,55,53,53,53,53,1,1,1,1,1,0,0,0,-1,0,0,0,0,0,0,0,0,0,0,0,0,0,0,0,0,0,0,0,0,0,0,0
"Ind43","4_0_5",282,137,137,137,137,137,137,137,137,137,137,137,137,137,137,137,137,55,55,55,55,55,55,55,55,55,55,55,55,53,53,53,53,1,1,1,1,1,0,0,0,0,-1,0,0,0,0,0,0,0,0,0,0,0,0,0,0,0,0,0,0,0,0,0,0
"Ind44","4_0_8",282,137,137,137,137,137,137,137,137,137,137,137,137,137,137,137,137,55,55,55,55,55,55,55,55,55,55,55,55,53,53,53,53,1,1,1,1,1,0,0,0,0,0,-1,0,0,0,0,0,0,0,0,0,0,0,0,0,0,0,0,0,0,0,0,0
"Ind45","4_0_15",282,138,138,138,138,138,138,138,136,136,136,138,138,138,138,138,138,56,56,56,56,56,56,56,56,56,56,56,56,54,54,54,54,2,2,2,2,2,1,1,1,1,1,1,-1,0,0,0,0,0,0,0,0,0,0,0,0,0,0,0,0,0,0,0,0
"Ind46","4_0_0",281,137,137,137,137,137,137,137,135,135,135,137,137,137,137,137,137,57,57,57,57,57,57,57,57,57,57,57,57,55,55,55,55,3,3,3,3,3,2,2,2,2,2,2,1,-1,0,0,0,0,0,0,0,0,0,0,0,0,0,0,0,0,0,0,0
"Ind47","4_0_1",282,138,138,138,138,138,138,138,136,136,136,138,138,138,138,138,138,56,56,56,56,56,56,56,56,56,56,56,56,54,54,54,54,2,2,2,2,2,1,1,1,1,1,1,0,1,-1,0,0,0,0,0,0,0,0,0,0,0,0,0,0,0,0,0,0
"Ind48","4_0_10",281,139,139,139,139,139,139,139,137,137,137,139,139,139,139,139,139,57,57,57,57,57,57,57,57,57,57,57,57,55,55,55,55,3,3,3,3,3,2,2,2,2,2,2,1,2,1,-1,0,0,0,0,0,0,0,0,0,0,0,0,0,0,0,0,0
"Ind49","4_0_13",283,138,138,138,138,138,138,138,136,136,136,138,138,138,138,138,138,57,57,57,57,57,57,57,57,57,57,57,57,55,55,55,55,3,3,3,3,3,2,2,2,2,2,2,1,2,1,2,-1,0,0,0,0,0,0,0,0,0,0,0,0,0,0,0,0
"Ind50","2_0_7",283,139,139,139,139,139,139,139,139,139,139,139,139,139,139,139,139,56,56,56,56,56,56,56,56,56,56,56,56,54,54,54,54,4,4,4,4,4,3,3,3,3,3,3,4,5,4,5,5,-1,0,0,0,0,0,0,0,0,0,0,0,0,0,0,0
"Ind51","2_0_11",283,139,139,139,139,139,139,139,139,139,139,139,139,139,139,139,139,56,56,56,56,56,56,56,56,56,56,56,56,54,54,54,54,4,4,4,4,4,3,3,3,3,3,3,4,5,4,5,5,0,-1,0,0,0,0,0,0,0,0,0,0,0,0,0,0
"Ind52","2_0_14",282,137,137,137,137,137,137,137,137,137,137,137,137,137,137,137,137,56,56,56,56,56,56,56,56,56,56,56,56,54,54,54,54,4,4,4,4,4,3,3,3,3,3,3,4,5,4,5,5,2,2,-1,0,0,0,0,0,0,0,0,0,0,0,0,0
"Ind53","2_0_3",282,137,137,137,137,137,137,137,137,137,137,137,137,137,137,137,137,56,56,56,56,56,56,56,56,56,56,56,56,54,54,54,54,4,4,4,4,4,3,3,3,3,3,3,4,5,4,5,5,2,2,0,-1,0,0,0,0,0,0,0,0,0,0,0,0
"Ind54","2_0_2",282,137,137,137,137,137,137,137,137,137,137,137,137,137,137,137,137,56,56,56,56,56,56,56,56,56,56,56,56,54,54,54,54,4,4,4,4,4,3,3,3,3,3,3,4,5,4,5,5,2,2,0,0,-1,0,0,0,0,0,0,0,0,0,0,0
"Ind55","2_0_15",282,137,137,137,137,137,137,137,137,137,137,137,137,137,137,137,137,56,56,56,56,56,56,56,56,56,56,56,56,54,54,54,54,4,4,4,4,4,3,3,3,3,3,3,4,5,4,5,5,2,2,0,0,0,-1,0,0,0,0,0,0,0,0,0,0
"Ind56","2_0_1",282,137,137,137,137,137,137,137,137,137,137,137,137,137,137,137,137,56,56,56,56,56,56,56,56,56,56,56,56,54,54,54,54,4,4,4,4,4,3,3,3,3,3,3,4,5,4,5,5,2,2,0,0,0,0,-1,0,0,0,0,0,0,0,0,0
"Ind57","2_0_8",282,137,137,137,137,137,137,137,137,137,137,137,137,137,137,137,137,56,56,56,56,56,56,56,56,56,56,56,56,54,54,54,54,4,4,4,4,4,3,3,3,3,3,3,4,5,4,5,5,2,2,0,0,0,0,0,-1,0,0,0,0,0,0,0,0
"Ind58","2_0_10",282,137,137,137,137,137,137,137,137,137,137,137,137,137,137,137,137,56,56,56,56,56,56,56,56,56,56,56,56,54,54,54,54,4,4,4,4,4,3,3,3,3,3,3,4,5,4,5,5,2,2,0,0,0,0,0,0,-1,0,0,0,0,0,0,0
"Ind59","2_0_6",281,138,138,138,138,138,138,138,138,138,138,138,138,138,138,138,138,55,55,55,55,55,55,55,55,55,55,55,55,53,53,53,53,7,7,7,7,7,6,6,6,6,6,6,7,8,7,8,8,5,5,5,5,5,5,5,5,5,-1,0,0,0,0,0,0
"Ind60","2_0_13",281,138,138,138,138,138,138,138,138,138,138,138,138,138,138,138,138,55,55,55,55,55,55,55,55,55,55,55,55,53,53,53,53,7,7,7,7,7,6,6,6,6,6,6,7,8,7,8,8,5,5,5,5,5,5,5,5,5,0,-1,0,0,0,0,0
"Ind61","2_0_0",282,138,138,138,138,138,138,138,138,138,138,138,138,138,138,138,138,53,53,53,53,53,53,53,53,53,53,53,53,51,51,51,51,5,5,5,5,5,4,4,4,4,4,4,5,6,5,6,6,3,3,3,3,3,3,3,3,3,2,2,-1,0,0,0,0
"Ind62","2_0_4",282,138,138,138,138,138,138,138,138,138,138,138,138,138,138,138,138,53,53,53,53,53,53,53,53,53,53,53,53,51,51,51,51,5,5,5,5,5,4,4,4,4,4,4,5,6,5,6,6,3,3,3,3,3,3,3,3,3,2,2,0,-1,0,0,0
"Ind63","2_0_12",282,139,139,139,139,139,139,139,139,139,139,139,139,139,139,139,139,56,56,56,56,56,56,56,56,56,56,56,56,54,54,54,54,6,6,6,6,6,5,5,5,5,5,5,6,7,6,7,7,4,4,4,4,4,4,4,4,4,5,5,3,3,-1,0,0
"Ind64","2_0_9",282,139,139,139,139,139,139,139,139,139,139,139,139,139,139,139,139,56,56,56,56,56,56,56,56,56,56,56,56,54,54,54,54,6,6,6,6,6,5,5,5,5,5,5,6,7,6,7,7,4,4,4,4,4,4,4,4,4,5,5,3,3,0,-1,0
"Ind65","2_0_5",282,139,139,139,139,139,139,139,139,139,139,139,139,139,139,139,139,56,56,56,56,56,56,56,56,56,56,56,56,54,54,54,54,6,6,6,6,6,5,5,5,5,5,5,6,7,6,7,7,4,4,4,4,4,4,4,4,4,5,5,3,3,0,0,-1
