"","Description","Ind1","Ind2","Ind3","Ind4","Ind5","Ind6","Ind7","Ind8","Ind9","Ind10","Ind11","Ind12","Ind13","Ind14","Ind15","Ind16","Ind17","Ind18","Ind19","Ind20","Ind21","Ind22","Ind23","Ind24","Ind25","Ind26","Ind27","Ind28","Ind29","Ind30","Ind31","Ind32","Ind33","Ind34","Ind35","Ind36","Ind37","Ind38","Ind39","Ind40","Ind41","Ind42","Ind43","Ind44","Ind45","Ind46","Ind47","Ind48","Ind49","Ind50","Ind51","Ind52","Ind53","Ind54","Ind55","Ind56","Ind57","Ind58","Ind59","Ind60","Ind61","Ind62","Ind63","Ind64","Ind65","Ind66","Ind67","Ind68","Ind69","Ind70","Ind71","Ind72","Ind73","Ind74","Ind75","Ind76","Ind77","Ind78","Ind79","Ind80","Ind81","Ind82","Ind83","Ind84","Ind85","Ind86","Ind87","Ind88","Ind89","Ind90","Ind91","Ind92","Ind93","Ind94","Ind95","Ind96","Ind97","Ind98","Ind99","Ind100","Ind101","Ind102","Ind103","Ind104","Ind105","Ind106","Ind107","Ind108","Ind109","Ind110","Ind111","Ind112","Ind113","Ind114","Ind115","Ind116","Ind117","Ind118","Ind119","Ind120","Ind121","Ind122","Ind123","Ind124","Ind125","Ind126","Ind127","Ind128","Ind129","Ind130","Ind131","Ind132","Ind133","Ind134","Ind135","Ind136","Ind137","Ind138","Ind139","Ind140","Ind141","Ind142","Ind143","Ind144","Ind145","Ind146","Ind147","Ind148","Ind149","Ind150","Ind151","Ind152","Ind153","Ind154","Ind155","Ind156","Ind157","Ind158","Ind159","Ind160","Ind161","Ind162","Ind163","Ind164","Ind165","Ind166","Ind167","Ind168","Ind169","Ind170","Ind171","Ind172","Ind173","Ind174","Ind175","Ind176","Ind177","Ind178","Ind179","Ind180","Ind181"
"Ind1","0_0_0",-1,0,0,0,0,0,0,0,0,0,0,0,0,0,0,0,0,0,0,0,0,0,0,0,0,0,0,0,0,0,0,0,0,0,0,0,0,0,0,0,0,0,0,0,0,0,0,0,0,0,0,0,0,0,0,0,0,0,0,0,0,0,0,0,0,0,0,0,0,0,0,0,0,0,0,0,0,0,0,0,0,0,0,0,0,0,0,0,0,0,0,0,0,0,0,0,0,0,0,0,0,0,0,0,0,0,0,0,0,0,0,0,0,0,0,0,0,0,0,0,0,0,0,0,0,0,0,0,0,0,0,0,0,0,0,0,0,0,0,0,0,0,0,0,0,0,0,0,0,0,0,0,0,0,0,0,0,0,0,0,0,0,0,0,0,0,0,0,0,0,0,0,0,0,0,0,0,0,0,0,0
"Ind2","4_0_1",209,-1,0,0,0,0,0,0,0,0,0,0,0,0,0,0,0,0,0,0,0,0,0,0,0,0,0,0,0,0,0,0,0,0,0,0,0,0,0,0,0,0,0,0,0,0,0,0,0,0,0,0,0,0,0,0,0,0,0,0,0,0,0,0,0,0,0,0,0,0,0,0,0,0,0,0,0,0,0,0,0,0,0,0,0,0,0,0,0,0,0,0,0,0,0,0,0,0,0,0,0,0,0,0,0,0,0,0,0,0,0,0,0,0,0,0,0,0,0,0,0,0,0,0,0,0,0,0,0,0,0,0,0,0,0,0,0,0,0,0,0,0,0,0,0,0,0,0,0,0,0,0,0,0,0,0,0,0,0,0,0,0,0,0,0,0,0,0,0,0,0,0,0,0,0,0,0,0,0,0,0
"Ind3","4_0_5",210,3,-1,0,0,0,0,0,0,0,0,0,0,0,0,0,0,0,0,0,0,0,0,0,0,0,0,0,0,0,0,0,0,0,0,0,0,0,0,0,0,0,0,0,0,0,0,0,0,0,0,0,0,0,0,0,0,0,0,0,0,0,0,0,0,0,0,0,0,0,0,0,0,0,0,0,0,0,0,0,0,0,0,0,0,0,0,0,0,0,0,0,0,0,0,0,0,0,0,0,0,0,0,0,0,0,0,0,0,0,0,0,0,0,0,0,0,0,0,0,0,0,0,0,0,0,0,0,0,0,0,0,0,0,0,0,0,0,0,0,0,0,0,0,0,0,0,0,0,0,0,0,0,0,0,0,0,0,0,0,0,0,0,0,0,0,0,0,0,0,0,0,0,0,0,0,0,0,0,0,0
"Ind4","4_0_0",213,6,5,-1,0,0,0,0,0,0,0,0,0,0,0,0,0,0,0,0,0,0,0,0,0,0,0,0,0,0,0,0,0,0,0,0,0,0,0,0,0,0,0,0,0,0,0,0,0,0,0,0,0,0,0,0,0,0,0,0,0,0,0,0,0,0,0,0,0,0,0,0,0,0,0,0,0,0,0,0,0,0,0,0,0,0,0,0,0,0,0,0,0,0,0,0,0,0,0,0,0,0,0,0,0,0,0,0,0,0,0,0,0,0,0,0,0,0,0,0,0,0,0,0,0,0,0,0,0,0,0,0,0,0,0,0,0,0,0,0,0,0,0,0,0,0,0,0,0,0,0,0,0,0,0,0,0,0,0,0,0,0,0,0,0,0,0,0,0,0,0,0,0,0,0,0,0,0,0,0,0
"Ind5","4_0_7",209,28,27,32,-1,0,0,0,0,0,0,0,0,0,0,0,0,0,0,0,0,0,0,0,0,0,0,0,0,0,0,0,0,0,0,0,0,0,0,0,0,0,0,0,0,0,0,0,0,0,0,0,0,0,0,0,0,0,0,0,0,0,0,0,0,0,0,0,0,0,0,0,0,0,0,0,0,0,0,0,0,0,0,0,0,0,0,0,0,0,0,0,0,0,0,0,0,0,0,0,0,0,0,0,0,0,0,0,0,0,0,0,0,0,0,0,0,0,0,0,0,0,0,0,0,0,0,0,0,0,0,0,0,0,0,0,0,0,0,0,0,0,0,0,0,0,0,0,0,0,0,0,0,0,0,0,0,0,0,0,0,0,0,0,0,0,0,0,0,0,0,0,0,0,0,0,0,0,0,0,0
"Ind6","4_0_6",212,40,37,42,12,-1,0,0,0,0,0,0,0,0,0,0,0,0,0,0,0,0,0,0,0,0,0,0,0,0,0,0,0,0,0,0,0,0,0,0,0,0,0,0,0,0,0,0,0,0,0,0,0,0,0,0,0,0,0,0,0,0,0,0,0,0,0,0,0,0,0,0,0,0,0,0,0,0,0,0,0,0,0,0,0,0,0,0,0,0,0,0,0,0,0,0,0,0,0,0,0,0,0,0,0,0,0,0,0,0,0,0,0,0,0,0,0,0,0,0,0,0,0,0,0,0,0,0,0,0,0,0,0,0,0,0,0,0,0,0,0,0,0,0,0,0,0,0,0,0,0,0,0,0,0,0,0,0,0,0,0,0,0,0,0,0,0,0,0,0,0,0,0,0,0,0,0,0,0,0,0
"Ind7","4_0_9",212,40,37,42,12,0,-1,0,0,0,0,0,0,0,0,0,0,0,0,0,0,0,0,0,0,0,0,0,0,0,0,0,0,0,0,0,0,0,0,0,0,0,0,0,0,0,0,0,0,0,0,0,0,0,0,0,0,0,0,0,0,0,0,0,0,0,0,0,0,0,0,0,0,0,0,0,0,0,0,0,0,0,0,0,0,0,0,0,0,0,0,0,0,0,0,0,0,0,0,0,0,0,0,0,0,0,0,0,0,0,0,0,0,0,0,0,0,0,0,0,0,0,0,0,0,0,0,0,0,0,0,0,0,0,0,0,0,0,0,0,0,0,0,0,0,0,0,0,0,0,0,0,0,0,0,0,0,0,0,0,0,0,0,0,0,0,0,0,0,0,0,0,0,0,0,0,0,0,0,0,0
"Ind8","4_0_4",204,43,42,45,21,27,27,-1,0,0,0,0,0,0,0,0,0,0,0,0,0,0,0,0,0,0,0,0,0,0,0,0,0,0,0,0,0,0,0,0,0,0,0,0,0,0,0,0,0,0,0,0,0,0,0,0,0,0,0,0,0,0,0,0,0,0,0,0,0,0,0,0,0,0,0,0,0,0,0,0,0,0,0,0,0,0,0,0,0,0,0,0,0,0,0,0,0,0,0,0,0,0,0,0,0,0,0,0,0,0,0,0,0,0,0,0,0,0,0,0,0,0,0,0,0,0,0,0,0,0,0,0,0,0,0,0,0,0,0,0,0,0,0,0,0,0,0,0,0,0,0,0,0,0,0,0,0,0,0,0,0,0,0,0,0,0,0,0,0,0,0,0,0,0,0,0,0,0,0,0,0
"Ind9","4_0_3",204,32,29,34,8,18,18,13,-1,0,0,0,0,0,0,0,0,0,0,0,0,0,0,0,0,0,0,0,0,0,0,0,0,0,0,0,0,0,0,0,0,0,0,0,0,0,0,0,0,0,0,0,0,0,0,0,0,0,0,0,0,0,0,0,0,0,0,0,0,0,0,0,0,0,0,0,0,0,0,0,0,0,0,0,0,0,0,0,0,0,0,0,0,0,0,0,0,0,0,0,0,0,0,0,0,0,0,0,0,0,0,0,0,0,0,0,0,0,0,0,0,0,0,0,0,0,0,0,0,0,0,0,0,0,0,0,0,0,0,0,0,0,0,0,0,0,0,0,0,0,0,0,0,0,0,0,0,0,0,0,0,0,0,0,0,0,0,0,0,0,0,0,0,0,0,0,0,0,0,0,0
"Ind10","4_0_8",206,36,33,38,18,28,28,30,20,-1,0,0,0,0,0,0,0,0,0,0,0,0,0,0,0,0,0,0,0,0,0,0,0,0,0,0,0,0,0,0,0,0,0,0,0,0,0,0,0,0,0,0,0,0,0,0,0,0,0,0,0,0,0,0,0,0,0,0,0,0,0,0,0,0,0,0,0,0,0,0,0,0,0,0,0,0,0,0,0,0,0,0,0,0,0,0,0,0,0,0,0,0,0,0,0,0,0,0,0,0,0,0,0,0,0,0,0,0,0,0,0,0,0,0,0,0,0,0,0,0,0,0,0,0,0,0,0,0,0,0,0,0,0,0,0,0,0,0,0,0,0,0,0,0,0,0,0,0,0,0,0,0,0,0,0,0,0,0,0,0,0,0,0,0,0,0,0,0,0,0,0
"Ind11","4_0_2",203,35,32,37,17,27,27,30,19,7,-1,0,0,0,0,0,0,0,0,0,0,0,0,0,0,0,0,0,0,0,0,0,0,0,0,0,0,0,0,0,0,0,0,0,0,0,0,0,0,0,0,0,0,0,0,0,0,0,0,0,0,0,0,0,0,0,0,0,0,0,0,0,0,0,0,0,0,0,0,0,0,0,0,0,0,0,0,0,0,0,0,0,0,0,0,0,0,0,0,0,0,0,0,0,0,0,0,0,0,0,0,0,0,0,0,0,0,0,0,0,0,0,0,0,0,0,0,0,0,0,0,0,0,0,0,0,0,0,0,0,0,0,0,0,0,0,0,0,0,0,0,0,0,0,0,0,0,0,0,0,0,0,0,0,0,0,0,0,0,0,0,0,0,0,0,0,0,0,0,0,0
"Ind12","6_0_7",211,32,29,34,20,30,30,33,24,24,24,-1,0,0,0,0,0,0,0,0,0,0,0,0,0,0,0,0,0,0,0,0,0,0,0,0,0,0,0,0,0,0,0,0,0,0,0,0,0,0,0,0,0,0,0,0,0,0,0,0,0,0,0,0,0,0,0,0,0,0,0,0,0,0,0,0,0,0,0,0,0,0,0,0,0,0,0,0,0,0,0,0,0,0,0,0,0,0,0,0,0,0,0,0,0,0,0,0,0,0,0,0,0,0,0,0,0,0,0,0,0,0,0,0,0,0,0,0,0,0,0,0,0,0,0,0,0,0,0,0,0,0,0,0,0,0,0,0,0,0,0,0,0,0,0,0,0,0,0,0,0,0,0,0,0,0,0,0,0,0,0,0,0,0,0,0,0,0,0,0,0
"Ind13","6_0_3",211,31,28,33,19,29,29,34,23,23,23,3,-1,0,0,0,0,0,0,0,0,0,0,0,0,0,0,0,0,0,0,0,0,0,0,0,0,0,0,0,0,0,0,0,0,0,0,0,0,0,0,0,0,0,0,0,0,0,0,0,0,0,0,0,0,0,0,0,0,0,0,0,0,0,0,0,0,0,0,0,0,0,0,0,0,0,0,0,0,0,0,0,0,0,0,0,0,0,0,0,0,0,0,0,0,0,0,0,0,0,0,0,0,0,0,0,0,0,0,0,0,0,0,0,0,0,0,0,0,0,0,0,0,0,0,0,0,0,0,0,0,0,0,0,0,0,0,0,0,0,0,0,0,0,0,0,0,0,0,0,0,0,0,0,0,0,0,0,0,0,0,0,0,0,0,0,0,0,0,0,0
"Ind14","6_0_2",202,40,37,42,30,38,38,45,34,33,32,22,21,-1,0,0,0,0,0,0,0,0,0,0,0,0,0,0,0,0,0,0,0,0,0,0,0,0,0,0,0,0,0,0,0,0,0,0,0,0,0,0,0,0,0,0,0,0,0,0,0,0,0,0,0,0,0,0,0,0,0,0,0,0,0,0,0,0,0,0,0,0,0,0,0,0,0,0,0,0,0,0,0,0,0,0,0,0,0,0,0,0,0,0,0,0,0,0,0,0,0,0,0,0,0,0,0,0,0,0,0,0,0,0,0,0,0,0,0,0,0,0,0,0,0,0,0,0,0,0,0,0,0,0,0,0,0,0,0,0,0,0,0,0,0,0,0,0,0,0,0,0,0,0,0,0,0,0,0,0,0,0,0,0,0,0,0,0,0,0,0
"Ind15","6_0_1",207,33,30,35,25,31,31,40,29,30,29,17,16,11,-1,0,0,0,0,0,0,0,0,0,0,0,0,0,0,0,0,0,0,0,0,0,0,0,0,0,0,0,0,0,0,0,0,0,0,0,0,0,0,0,0,0,0,0,0,0,0,0,0,0,0,0,0,0,0,0,0,0,0,0,0,0,0,0,0,0,0,0,0,0,0,0,0,0,0,0,0,0,0,0,0,0,0,0,0,0,0,0,0,0,0,0,0,0,0,0,0,0,0,0,0,0,0,0,0,0,0,0,0,0,0,0,0,0,0,0,0,0,0,0,0,0,0,0,0,0,0,0,0,0,0,0,0,0,0,0,0,0,0,0,0,0,0,0,0,0,0,0,0,0,0,0,0,0,0,0,0,0,0,0,0,0,0,0,0,0,0
"Ind16","6_0_5",210,31,28,33,23,31,31,40,27,28,27,15,14,13,6,-1,0,0,0,0,0,0,0,0,0,0,0,0,0,0,0,0,0,0,0,0,0,0,0,0,0,0,0,0,0,0,0,0,0,0,0,0,0,0,0,0,0,0,0,0,0,0,0,0,0,0,0,0,0,0,0,0,0,0,0,0,0,0,0,0,0,0,0,0,0,0,0,0,0,0,0,0,0,0,0,0,0,0,0,0,0,0,0,0,0,0,0,0,0,0,0,0,0,0,0,0,0,0,0,0,0,0,0,0,0,0,0,0,0,0,0,0,0,0,0,0,0,0,0,0,0,0,0,0,0,0,0,0,0,0,0,0,0,0,0,0,0,0,0,0,0,0,0,0,0,0,0,0,0,0,0,0,0,0,0,0,0,0,0,0,0
"Ind17","6_0_0",210,31,28,33,23,31,31,40,27,28,27,15,14,13,6,0,-1,0,0,0,0,0,0,0,0,0,0,0,0,0,0,0,0,0,0,0,0,0,0,0,0,0,0,0,0,0,0,0,0,0,0,0,0,0,0,0,0,0,0,0,0,0,0,0,0,0,0,0,0,0,0,0,0,0,0,0,0,0,0,0,0,0,0,0,0,0,0,0,0,0,0,0,0,0,0,0,0,0,0,0,0,0,0,0,0,0,0,0,0,0,0,0,0,0,0,0,0,0,0,0,0,0,0,0,0,0,0,0,0,0,0,0,0,0,0,0,0,0,0,0,0,0,0,0,0,0,0,0,0,0,0,0,0,0,0,0,0,0,0,0,0,0,0,0,0,0,0,0,0,0,0,0,0,0,0,0,0,0,0,0,0
"Ind18","6_0_4",211,33,30,35,25,33,33,42,29,30,29,17,16,15,8,2,2,-1,0,0,0,0,0,0,0,0,0,0,0,0,0,0,0,0,0,0,0,0,0,0,0,0,0,0,0,0,0,0,0,0,0,0,0,0,0,0,0,0,0,0,0,0,0,0,0,0,0,0,0,0,0,0,0,0,0,0,0,0,0,0,0,0,0,0,0,0,0,0,0,0,0,0,0,0,0,0,0,0,0,0,0,0,0,0,0,0,0,0,0,0,0,0,0,0,0,0,0,0,0,0,0,0,0,0,0,0,0,0,0,0,0,0,0,0,0,0,0,0,0,0,0,0,0,0,0,0,0,0,0,0,0,0,0,0,0,0,0,0,0,0,0,0,0,0,0,0,0,0,0,0,0,0,0,0,0,0,0,0,0,0,0
"Ind19","6_0_9",210,32,29,34,23,31,31,40,27,30,27,19,18,19,12,6,6,8,-1,0,0,0,0,0,0,0,0,0,0,0,0,0,0,0,0,0,0,0,0,0,0,0,0,0,0,0,0,0,0,0,0,0,0,0,0,0,0,0,0,0,0,0,0,0,0,0,0,0,0,0,0,0,0,0,0,0,0,0,0,0,0,0,0,0,0,0,0,0,0,0,0,0,0,0,0,0,0,0,0,0,0,0,0,0,0,0,0,0,0,0,0,0,0,0,0,0,0,0,0,0,0,0,0,0,0,0,0,0,0,0,0,0,0,0,0,0,0,0,0,0,0,0,0,0,0,0,0,0,0,0,0,0,0,0,0,0,0,0,0,0,0,0,0,0,0,0,0,0,0,0,0,0,0,0,0,0,0,0,0,0,0
"Ind20","6_0_8",210,32,29,34,23,31,31,40,27,30,27,19,18,19,12,6,6,8,0,-1,0,0,0,0,0,0,0,0,0,0,0,0,0,0,0,0,0,0,0,0,0,0,0,0,0,0,0,0,0,0,0,0,0,0,0,0,0,0,0,0,0,0,0,0,0,0,0,0,0,0,0,0,0,0,0,0,0,0,0,0,0,0,0,0,0,0,0,0,0,0,0,0,0,0,0,0,0,0,0,0,0,0,0,0,0,0,0,0,0,0,0,0,0,0,0,0,0,0,0,0,0,0,0,0,0,0,0,0,0,0,0,0,0,0,0,0,0,0,0,0,0,0,0,0,0,0,0,0,0,0,0,0,0,0,0,0,0,0,0,0,0,0,0,0,0,0,0,0,0,0,0,0,0,0,0,0,0,0,0,0,0
"Ind21","6_0_6",211,34,31,36,27,35,35,44,31,32,31,21,20,19,12,6,6,8,10,10,-1,0,0,0,0,0,0,0,0,0,0,0,0,0,0,0,0,0,0,0,0,0,0,0,0,0,0,0,0,0,0,0,0,0,0,0,0,0,0,0,0,0,0,0,0,0,0,0,0,0,0,0,0,0,0,0,0,0,0,0,0,0,0,0,0,0,0,0,0,0,0,0,0,0,0,0,0,0,0,0,0,0,0,0,0,0,0,0,0,0,0,0,0,0,0,0,0,0,0,0,0,0,0,0,0,0,0,0,0,0,0,0,0,0,0,0,0,0,0,0,0,0,0,0,0,0,0,0,0,0,0,0,0,0,0,0,0,0,0,0,0,0,0,0,0,0,0,0,0,0,0,0,0,0,0,0,0,0,0,0,0
"Ind22","8_0_3",215,41,38,39,42,50,50,59,46,49,46,41,40,49,46,44,44,46,45,45,47,-1,0,0,0,0,0,0,0,0,0,0,0,0,0,0,0,0,0,0,0,0,0,0,0,0,0,0,0,0,0,0,0,0,0,0,0,0,0,0,0,0,0,0,0,0,0,0,0,0,0,0,0,0,0,0,0,0,0,0,0,0,0,0,0,0,0,0,0,0,0,0,0,0,0,0,0,0,0,0,0,0,0,0,0,0,0,0,0,0,0,0,0,0,0,0,0,0,0,0,0,0,0,0,0,0,0,0,0,0,0,0,0,0,0,0,0,0,0,0,0,0,0,0,0,0,0,0,0,0,0,0,0,0,0,0,0,0,0,0,0,0,0,0,0,0,0,0,0,0,0,0,0,0,0,0,0,0,0,0,0
"Ind23","5_0_7",214,41,38,39,42,50,50,59,46,49,46,41,40,49,46,44,44,46,45,45,47,6,-1,0,0,0,0,0,0,0,0,0,0,0,0,0,0,0,0,0,0,0,0,0,0,0,0,0,0,0,0,0,0,0,0,0,0,0,0,0,0,0,0,0,0,0,0,0,0,0,0,0,0,0,0,0,0,0,0,0,0,0,0,0,0,0,0,0,0,0,0,0,0,0,0,0,0,0,0,0,0,0,0,0,0,0,0,0,0,0,0,0,0,0,0,0,0,0,0,0,0,0,0,0,0,0,0,0,0,0,0,0,0,0,0,0,0,0,0,0,0,0,0,0,0,0,0,0,0,0,0,0,0,0,0,0,0,0,0,0,0,0,0,0,0,0,0,0,0,0,0,0,0,0,0,0,0,0,0,0,0
"Ind24","5_0_8",212,39,36,37,40,48,48,55,44,47,46,39,38,47,44,42,42,44,43,43,45,8,8,-1,0,0,0,0,0,0,0,0,0,0,0,0,0,0,0,0,0,0,0,0,0,0,0,0,0,0,0,0,0,0,0,0,0,0,0,0,0,0,0,0,0,0,0,0,0,0,0,0,0,0,0,0,0,0,0,0,0,0,0,0,0,0,0,0,0,0,0,0,0,0,0,0,0,0,0,0,0,0,0,0,0,0,0,0,0,0,0,0,0,0,0,0,0,0,0,0,0,0,0,0,0,0,0,0,0,0,0,0,0,0,0,0,0,0,0,0,0,0,0,0,0,0,0,0,0,0,0,0,0,0,0,0,0,0,0,0,0,0,0,0,0,0,0,0,0,0,0,0,0,0,0,0,0,0,0,0,0
"Ind25","8_0_2",217,52,49,52,49,53,53,62,53,51,51,50,49,58,55,53,53,55,54,54,56,39,41,35,-1,0,0,0,0,0,0,0,0,0,0,0,0,0,0,0,0,0,0,0,0,0,0,0,0,0,0,0,0,0,0,0,0,0,0,0,0,0,0,0,0,0,0,0,0,0,0,0,0,0,0,0,0,0,0,0,0,0,0,0,0,0,0,0,0,0,0,0,0,0,0,0,0,0,0,0,0,0,0,0,0,0,0,0,0,0,0,0,0,0,0,0,0,0,0,0,0,0,0,0,0,0,0,0,0,0,0,0,0,0,0,0,0,0,0,0,0,0,0,0,0,0,0,0,0,0,0,0,0,0,0,0,0,0,0,0,0,0,0,0,0,0,0,0,0,0,0,0,0,0,0,0,0,0,0,0,0
"Ind26","5_0_0",216,51,48,51,48,52,52,61,52,50,50,49,48,57,54,52,52,54,53,53,55,38,40,34,1,-1,0,0,0,0,0,0,0,0,0,0,0,0,0,0,0,0,0,0,0,0,0,0,0,0,0,0,0,0,0,0,0,0,0,0,0,0,0,0,0,0,0,0,0,0,0,0,0,0,0,0,0,0,0,0,0,0,0,0,0,0,0,0,0,0,0,0,0,0,0,0,0,0,0,0,0,0,0,0,0,0,0,0,0,0,0,0,0,0,0,0,0,0,0,0,0,0,0,0,0,0,0,0,0,0,0,0,0,0,0,0,0,0,0,0,0,0,0,0,0,0,0,0,0,0,0,0,0,0,0,0,0,0,0,0,0,0,0,0,0,0,0,0,0,0,0,0,0,0,0,0,0,0,0,0,0
"Ind27","5_0_6",215,52,49,52,49,53,53,62,53,51,51,50,49,58,55,53,53,55,54,54,56,39,41,35,2,1,-1,0,0,0,0,0,0,0,0,0,0,0,0,0,0,0,0,0,0,0,0,0,0,0,0,0,0,0,0,0,0,0,0,0,0,0,0,0,0,0,0,0,0,0,0,0,0,0,0,0,0,0,0,0,0,0,0,0,0,0,0,0,0,0,0,0,0,0,0,0,0,0,0,0,0,0,0,0,0,0,0,0,0,0,0,0,0,0,0,0,0,0,0,0,0,0,0,0,0,0,0,0,0,0,0,0,0,0,0,0,0,0,0,0,0,0,0,0,0,0,0,0,0,0,0,0,0,0,0,0,0,0,0,0,0,0,0,0,0,0,0,0,0,0,0,0,0,0,0,0,0,0,0,0,0
"Ind28","2_0_3",217,52,49,52,49,53,53,64,55,55,55,52,51,60,57,55,55,57,56,56,58,39,41,35,16,15,14,-1,0,0,0,0,0,0,0,0,0,0,0,0,0,0,0,0,0,0,0,0,0,0,0,0,0,0,0,0,0,0,0,0,0,0,0,0,0,0,0,0,0,0,0,0,0,0,0,0,0,0,0,0,0,0,0,0,0,0,0,0,0,0,0,0,0,0,0,0,0,0,0,0,0,0,0,0,0,0,0,0,0,0,0,0,0,0,0,0,0,0,0,0,0,0,0,0,0,0,0,0,0,0,0,0,0,0,0,0,0,0,0,0,0,0,0,0,0,0,0,0,0,0,0,0,0,0,0,0,0,0,0,0,0,0,0,0,0,0,0,0,0,0,0,0,0,0,0,0,0,0,0,0,0
"Ind29","2_0_0",214,47,44,47,46,50,50,57,48,48,48,47,46,55,52,50,50,52,51,51,53,36,38,32,13,12,13,7,-1,0,0,0,0,0,0,0,0,0,0,0,0,0,0,0,0,0,0,0,0,0,0,0,0,0,0,0,0,0,0,0,0,0,0,0,0,0,0,0,0,0,0,0,0,0,0,0,0,0,0,0,0,0,0,0,0,0,0,0,0,0,0,0,0,0,0,0,0,0,0,0,0,0,0,0,0,0,0,0,0,0,0,0,0,0,0,0,0,0,0,0,0,0,0,0,0,0,0,0,0,0,0,0,0,0,0,0,0,0,0,0,0,0,0,0,0,0,0,0,0,0,0,0,0,0,0,0,0,0,0,0,0,0,0,0,0,0,0,0,0,0,0,0,0,0,0,0,0,0,0,0,0
"Ind30","2_0_6",216,47,44,47,46,50,50,59,50,50,50,47,46,55,52,50,50,52,51,51,53,36,38,32,11,10,11,5,2,-1,0,0,0,0,0,0,0,0,0,0,0,0,0,0,0,0,0,0,0,0,0,0,0,0,0,0,0,0,0,0,0,0,0,0,0,0,0,0,0,0,0,0,0,0,0,0,0,0,0,0,0,0,0,0,0,0,0,0,0,0,0,0,0,0,0,0,0,0,0,0,0,0,0,0,0,0,0,0,0,0,0,0,0,0,0,0,0,0,0,0,0,0,0,0,0,0,0,0,0,0,0,0,0,0,0,0,0,0,0,0,0,0,0,0,0,0,0,0,0,0,0,0,0,0,0,0,0,0,0,0,0,0,0,0,0,0,0,0,0,0,0,0,0,0,0,0,0,0,0,0,0
"Ind31","2_0_4",216,47,44,47,46,50,50,59,50,50,50,47,46,55,52,50,50,52,51,51,53,36,38,32,11,10,11,5,2,0,-1,0,0,0,0,0,0,0,0,0,0,0,0,0,0,0,0,0,0,0,0,0,0,0,0,0,0,0,0,0,0,0,0,0,0,0,0,0,0,0,0,0,0,0,0,0,0,0,0,0,0,0,0,0,0,0,0,0,0,0,0,0,0,0,0,0,0,0,0,0,0,0,0,0,0,0,0,0,0,0,0,0,0,0,0,0,0,0,0,0,0,0,0,0,0,0,0,0,0,0,0,0,0,0,0,0,0,0,0,0,0,0,0,0,0,0,0,0,0,0,0,0,0,0,0,0,0,0,0,0,0,0,0,0,0,0,0,0,0,0,0,0,0,0,0,0,0,0,0,0,0
"Ind32","2_0_7",214,51,48,51,48,52,52,61,52,52,52,49,48,57,54,52,52,54,53,53,55,38,40,34,11,10,11,9,6,4,4,-1,0,0,0,0,0,0,0,0,0,0,0,0,0,0,0,0,0,0,0,0,0,0,0,0,0,0,0,0,0,0,0,0,0,0,0,0,0,0,0,0,0,0,0,0,0,0,0,0,0,0,0,0,0,0,0,0,0,0,0,0,0,0,0,0,0,0,0,0,0,0,0,0,0,0,0,0,0,0,0,0,0,0,0,0,0,0,0,0,0,0,0,0,0,0,0,0,0,0,0,0,0,0,0,0,0,0,0,0,0,0,0,0,0,0,0,0,0,0,0,0,0,0,0,0,0,0,0,0,0,0,0,0,0,0,0,0,0,0,0,0,0,0,0,0,0,0,0,0,0
"Ind33","2_0_1",214,52,49,52,49,53,53,62,53,53,53,50,49,58,55,53,53,55,54,54,56,39,41,35,12,11,12,10,7,5,5,1,-1,0,0,0,0,0,0,0,0,0,0,0,0,0,0,0,0,0,0,0,0,0,0,0,0,0,0,0,0,0,0,0,0,0,0,0,0,0,0,0,0,0,0,0,0,0,0,0,0,0,0,0,0,0,0,0,0,0,0,0,0,0,0,0,0,0,0,0,0,0,0,0,0,0,0,0,0,0,0,0,0,0,0,0,0,0,0,0,0,0,0,0,0,0,0,0,0,0,0,0,0,0,0,0,0,0,0,0,0,0,0,0,0,0,0,0,0,0,0,0,0,0,0,0,0,0,0,0,0,0,0,0,0,0,0,0,0,0,0,0,0,0,0,0,0,0,0,0,0
"Ind34","2_0_9",214,53,50,53,50,54,54,63,54,52,52,51,50,59,56,54,54,56,55,55,57,40,42,36,11,10,11,11,8,6,6,2,3,-1,0,0,0,0,0,0,0,0,0,0,0,0,0,0,0,0,0,0,0,0,0,0,0,0,0,0,0,0,0,0,0,0,0,0,0,0,0,0,0,0,0,0,0,0,0,0,0,0,0,0,0,0,0,0,0,0,0,0,0,0,0,0,0,0,0,0,0,0,0,0,0,0,0,0,0,0,0,0,0,0,0,0,0,0,0,0,0,0,0,0,0,0,0,0,0,0,0,0,0,0,0,0,0,0,0,0,0,0,0,0,0,0,0,0,0,0,0,0,0,0,0,0,0,0,0,0,0,0,0,0,0,0,0,0,0,0,0,0,0,0,0,0,0,0,0,0,0
"Ind35","2_0_2",214,53,50,53,50,54,54,63,54,52,52,51,50,59,56,54,54,56,55,55,57,40,42,36,11,10,11,11,8,6,6,2,3,0,-1,0,0,0,0,0,0,0,0,0,0,0,0,0,0,0,0,0,0,0,0,0,0,0,0,0,0,0,0,0,0,0,0,0,0,0,0,0,0,0,0,0,0,0,0,0,0,0,0,0,0,0,0,0,0,0,0,0,0,0,0,0,0,0,0,0,0,0,0,0,0,0,0,0,0,0,0,0,0,0,0,0,0,0,0,0,0,0,0,0,0,0,0,0,0,0,0,0,0,0,0,0,0,0,0,0,0,0,0,0,0,0,0,0,0,0,0,0,0,0,0,0,0,0,0,0,0,0,0,0,0,0,0,0,0,0,0,0,0,0,0,0,0,0,0,0,0
"Ind36","2_0_5",217,50,47,50,49,53,53,62,53,53,53,50,49,56,53,51,51,53,52,52,54,41,43,37,16,15,16,14,11,9,9,7,8,9,9,-1,0,0,0,0,0,0,0,0,0,0,0,0,0,0,0,0,0,0,0,0,0,0,0,0,0,0,0,0,0,0,0,0,0,0,0,0,0,0,0,0,0,0,0,0,0,0,0,0,0,0,0,0,0,0,0,0,0,0,0,0,0,0,0,0,0,0,0,0,0,0,0,0,0,0,0,0,0,0,0,0,0,0,0,0,0,0,0,0,0,0,0,0,0,0,0,0,0,0,0,0,0,0,0,0,0,0,0,0,0,0,0,0,0,0,0,0,0,0,0,0,0,0,0,0,0,0,0,0,0,0,0,0,0,0,0,0,0,0,0,0,0,0,0,0,0
"Ind37","2_0_8",217,50,47,50,49,53,53,62,53,53,53,50,49,56,53,51,51,53,52,52,54,41,43,37,16,15,16,14,11,9,9,7,8,9,9,0,-1,0,0,0,0,0,0,0,0,0,0,0,0,0,0,0,0,0,0,0,0,0,0,0,0,0,0,0,0,0,0,0,0,0,0,0,0,0,0,0,0,0,0,0,0,0,0,0,0,0,0,0,0,0,0,0,0,0,0,0,0,0,0,0,0,0,0,0,0,0,0,0,0,0,0,0,0,0,0,0,0,0,0,0,0,0,0,0,0,0,0,0,0,0,0,0,0,0,0,0,0,0,0,0,0,0,0,0,0,0,0,0,0,0,0,0,0,0,0,0,0,0,0,0,0,0,0,0,0,0,0,0,0,0,0,0,0,0,0,0,0,0,0,0,0
"Ind38","8_0_9",217,54,51,54,53,57,57,66,57,55,55,54,53,60,57,55,55,57,56,56,58,43,45,39,16,15,14,12,11,9,9,9,10,11,11,12,12,-1,0,0,0,0,0,0,0,0,0,0,0,0,0,0,0,0,0,0,0,0,0,0,0,0,0,0,0,0,0,0,0,0,0,0,0,0,0,0,0,0,0,0,0,0,0,0,0,0,0,0,0,0,0,0,0,0,0,0,0,0,0,0,0,0,0,0,0,0,0,0,0,0,0,0,0,0,0,0,0,0,0,0,0,0,0,0,0,0,0,0,0,0,0,0,0,0,0,0,0,0,0,0,0,0,0,0,0,0,0,0,0,0,0,0,0,0,0,0,0,0,0,0,0,0,0,0,0,0,0,0,0,0,0,0,0,0,0,0,0,0,0,0,0
"Ind39","8_0_7",217,54,51,54,53,57,57,66,57,55,55,54,53,60,57,55,55,57,56,56,58,43,45,39,16,15,14,12,11,9,9,9,10,11,11,12,12,0,-1,0,0,0,0,0,0,0,0,0,0,0,0,0,0,0,0,0,0,0,0,0,0,0,0,0,0,0,0,0,0,0,0,0,0,0,0,0,0,0,0,0,0,0,0,0,0,0,0,0,0,0,0,0,0,0,0,0,0,0,0,0,0,0,0,0,0,0,0,0,0,0,0,0,0,0,0,0,0,0,0,0,0,0,0,0,0,0,0,0,0,0,0,0,0,0,0,0,0,0,0,0,0,0,0,0,0,0,0,0,0,0,0,0,0,0,0,0,0,0,0,0,0,0,0,0,0,0,0,0,0,0,0,0,0,0,0,0,0,0,0,0,0
"Ind40","5_0_4",216,51,48,51,48,52,52,63,52,51,52,51,50,55,54,52,52,54,53,53,55,38,40,34,15,14,15,13,10,8,8,10,11,12,12,15,15,15,15,-1,0,0,0,0,0,0,0,0,0,0,0,0,0,0,0,0,0,0,0,0,0,0,0,0,0,0,0,0,0,0,0,0,0,0,0,0,0,0,0,0,0,0,0,0,0,0,0,0,0,0,0,0,0,0,0,0,0,0,0,0,0,0,0,0,0,0,0,0,0,0,0,0,0,0,0,0,0,0,0,0,0,0,0,0,0,0,0,0,0,0,0,0,0,0,0,0,0,0,0,0,0,0,0,0,0,0,0,0,0,0,0,0,0,0,0,0,0,0,0,0,0,0,0,0,0,0,0,0,0,0,0,0,0,0,0,0,0,0,0,0,0
"Ind41","5_0_9",217,52,49,52,49,53,53,62,53,51,53,50,49,56,55,53,53,55,54,54,56,39,41,35,14,13,14,12,9,7,7,9,10,11,11,14,14,14,14,1,-1,0,0,0,0,0,0,0,0,0,0,0,0,0,0,0,0,0,0,0,0,0,0,0,0,0,0,0,0,0,0,0,0,0,0,0,0,0,0,0,0,0,0,0,0,0,0,0,0,0,0,0,0,0,0,0,0,0,0,0,0,0,0,0,0,0,0,0,0,0,0,0,0,0,0,0,0,0,0,0,0,0,0,0,0,0,0,0,0,0,0,0,0,0,0,0,0,0,0,0,0,0,0,0,0,0,0,0,0,0,0,0,0,0,0,0,0,0,0,0,0,0,0,0,0,0,0,0,0,0,0,0,0,0,0,0,0,0,0,0,0
"Ind42","8_0_5",217,62,59,62,57,63,63,64,59,63,63,60,59,68,65,63,63,65,62,62,66,49,51,43,32,31,32,32,29,29,29,27,28,29,29,32,32,34,34,33,32,-1,0,0,0,0,0,0,0,0,0,0,0,0,0,0,0,0,0,0,0,0,0,0,0,0,0,0,0,0,0,0,0,0,0,0,0,0,0,0,0,0,0,0,0,0,0,0,0,0,0,0,0,0,0,0,0,0,0,0,0,0,0,0,0,0,0,0,0,0,0,0,0,0,0,0,0,0,0,0,0,0,0,0,0,0,0,0,0,0,0,0,0,0,0,0,0,0,0,0,0,0,0,0,0,0,0,0,0,0,0,0,0,0,0,0,0,0,0,0,0,0,0,0,0,0,0,0,0,0,0,0,0,0,0,0,0,0,0,0,0
"Ind43","5_0_2",218,64,61,64,59,65,65,66,61,63,65,60,59,68,65,63,63,65,62,62,66,51,53,45,34,33,34,34,31,31,31,29,30,31,31,34,34,36,36,35,34,2,-1,0,0,0,0,0,0,0,0,0,0,0,0,0,0,0,0,0,0,0,0,0,0,0,0,0,0,0,0,0,0,0,0,0,0,0,0,0,0,0,0,0,0,0,0,0,0,0,0,0,0,0,0,0,0,0,0,0,0,0,0,0,0,0,0,0,0,0,0,0,0,0,0,0,0,0,0,0,0,0,0,0,0,0,0,0,0,0,0,0,0,0,0,0,0,0,0,0,0,0,0,0,0,0,0,0,0,0,0,0,0,0,0,0,0,0,0,0,0,0,0,0,0,0,0,0,0,0,0,0,0,0,0,0,0,0,0,0,0
"Ind44","5_0_1",216,62,59,62,57,63,63,64,59,63,63,58,57,66,63,61,61,63,60,60,64,51,53,45,34,33,34,34,31,31,31,29,30,31,31,34,34,36,36,35,34,2,2,-1,0,0,0,0,0,0,0,0,0,0,0,0,0,0,0,0,0,0,0,0,0,0,0,0,0,0,0,0,0,0,0,0,0,0,0,0,0,0,0,0,0,0,0,0,0,0,0,0,0,0,0,0,0,0,0,0,0,0,0,0,0,0,0,0,0,0,0,0,0,0,0,0,0,0,0,0,0,0,0,0,0,0,0,0,0,0,0,0,0,0,0,0,0,0,0,0,0,0,0,0,0,0,0,0,0,0,0,0,0,0,0,0,0,0,0,0,0,0,0,0,0,0,0,0,0,0,0,0,0,0,0,0,0,0,0,0,0
"Ind45","5_0_5",216,62,59,62,57,63,63,64,59,63,63,58,57,66,63,61,61,63,60,60,64,51,53,45,34,33,34,34,31,31,31,29,30,31,31,34,34,36,36,35,34,2,2,0,-1,0,0,0,0,0,0,0,0,0,0,0,0,0,0,0,0,0,0,0,0,0,0,0,0,0,0,0,0,0,0,0,0,0,0,0,0,0,0,0,0,0,0,0,0,0,0,0,0,0,0,0,0,0,0,0,0,0,0,0,0,0,0,0,0,0,0,0,0,0,0,0,0,0,0,0,0,0,0,0,0,0,0,0,0,0,0,0,0,0,0,0,0,0,0,0,0,0,0,0,0,0,0,0,0,0,0,0,0,0,0,0,0,0,0,0,0,0,0,0,0,0,0,0,0,0,0,0,0,0,0,0,0,0,0,0,0
"Ind46","8_0_8",217,62,59,62,57,63,63,64,59,63,63,60,59,68,65,63,63,65,62,62,66,49,51,43,32,31,32,32,29,29,29,27,28,29,29,32,32,34,34,33,32,0,2,2,2,-1,0,0,0,0,0,0,0,0,0,0,0,0,0,0,0,0,0,0,0,0,0,0,0,0,0,0,0,0,0,0,0,0,0,0,0,0,0,0,0,0,0,0,0,0,0,0,0,0,0,0,0,0,0,0,0,0,0,0,0,0,0,0,0,0,0,0,0,0,0,0,0,0,0,0,0,0,0,0,0,0,0,0,0,0,0,0,0,0,0,0,0,0,0,0,0,0,0,0,0,0,0,0,0,0,0,0,0,0,0,0,0,0,0,0,0,0,0,0,0,0,0,0,0,0,0,0,0,0,0,0,0,0,0,0,0
"Ind47","8_0_4",217,62,59,62,57,63,63,64,59,63,63,60,59,68,65,63,63,65,62,62,66,49,51,43,32,31,32,32,29,29,29,27,28,29,29,32,32,34,34,33,32,0,2,2,2,0,-1,0,0,0,0,0,0,0,0,0,0,0,0,0,0,0,0,0,0,0,0,0,0,0,0,0,0,0,0,0,0,0,0,0,0,0,0,0,0,0,0,0,0,0,0,0,0,0,0,0,0,0,0,0,0,0,0,0,0,0,0,0,0,0,0,0,0,0,0,0,0,0,0,0,0,0,0,0,0,0,0,0,0,0,0,0,0,0,0,0,0,0,0,0,0,0,0,0,0,0,0,0,0,0,0,0,0,0,0,0,0,0,0,0,0,0,0,0,0,0,0,0,0,0,0,0,0,0,0,0,0,0,0,0,0
"Ind48","8_0_0",218,63,60,63,56,62,62,63,58,64,64,61,60,69,66,64,64,66,63,63,67,50,52,44,33,32,33,33,30,30,30,28,29,30,30,33,33,35,35,34,33,1,3,3,3,1,1,-1,0,0,0,0,0,0,0,0,0,0,0,0,0,0,0,0,0,0,0,0,0,0,0,0,0,0,0,0,0,0,0,0,0,0,0,0,0,0,0,0,0,0,0,0,0,0,0,0,0,0,0,0,0,0,0,0,0,0,0,0,0,0,0,0,0,0,0,0,0,0,0,0,0,0,0,0,0,0,0,0,0,0,0,0,0,0,0,0,0,0,0,0,0,0,0,0,0,0,0,0,0,0,0,0,0,0,0,0,0,0,0,0,0,0,0,0,0,0,0,0,0,0,0,0,0,0,0,0,0,0,0,0,0
"Ind49","8_0_6",218,63,60,63,56,62,62,63,58,64,64,61,60,69,66,64,64,66,63,63,67,50,52,44,33,32,33,33,30,30,30,28,29,30,30,33,33,35,35,34,33,1,3,3,3,1,1,0,-1,0,0,0,0,0,0,0,0,0,0,0,0,0,0,0,0,0,0,0,0,0,0,0,0,0,0,0,0,0,0,0,0,0,0,0,0,0,0,0,0,0,0,0,0,0,0,0,0,0,0,0,0,0,0,0,0,0,0,0,0,0,0,0,0,0,0,0,0,0,0,0,0,0,0,0,0,0,0,0,0,0,0,0,0,0,0,0,0,0,0,0,0,0,0,0,0,0,0,0,0,0,0,0,0,0,0,0,0,0,0,0,0,0,0,0,0,0,0,0,0,0,0,0,0,0,0,0,0,0,0,0,0
"Ind50","8_0_1",217,64,61,64,59,65,65,66,61,65,65,62,61,70,67,65,65,67,64,64,68,51,53,45,34,33,34,34,31,31,31,29,30,31,31,34,34,36,36,35,34,2,4,4,4,2,2,3,3,-1,0,0,0,0,0,0,0,0,0,0,0,0,0,0,0,0,0,0,0,0,0,0,0,0,0,0,0,0,0,0,0,0,0,0,0,0,0,0,0,0,0,0,0,0,0,0,0,0,0,0,0,0,0,0,0,0,0,0,0,0,0,0,0,0,0,0,0,0,0,0,0,0,0,0,0,0,0,0,0,0,0,0,0,0,0,0,0,0,0,0,0,0,0,0,0,0,0,0,0,0,0,0,0,0,0,0,0,0,0,0,0,0,0,0,0,0,0,0,0,0,0,0,0,0,0,0,0,0,0,0,0
"Ind51","5_0_3",218,63,62,63,60,66,66,63,62,66,66,63,62,71,68,66,66,68,65,65,69,50,52,46,35,34,35,35,32,32,32,30,31,32,32,35,35,37,37,36,35,3,5,5,5,3,3,4,4,5,-1,0,0,0,0,0,0,0,0,0,0,0,0,0,0,0,0,0,0,0,0,0,0,0,0,0,0,0,0,0,0,0,0,0,0,0,0,0,0,0,0,0,0,0,0,0,0,0,0,0,0,0,0,0,0,0,0,0,0,0,0,0,0,0,0,0,0,0,0,0,0,0,0,0,0,0,0,0,0,0,0,0,0,0,0,0,0,0,0,0,0,0,0,0,0,0,0,0,0,0,0,0,0,0,0,0,0,0,0,0,0,0,0,0,0,0,0,0,0,0,0,0,0,0,0,0,0,0,0,0,0
"Ind52","7_0_8",213,45,42,45,49,53,53,62,49,54,51,50,49,58,51,49,49,49,50,50,51,33,35,31,34,33,34,38,31,33,33,33,34,35,35,36,36,36,36,33,34,44,46,46,46,44,44,45,45,46,47,-1,0,0,0,0,0,0,0,0,0,0,0,0,0,0,0,0,0,0,0,0,0,0,0,0,0,0,0,0,0,0,0,0,0,0,0,0,0,0,0,0,0,0,0,0,0,0,0,0,0,0,0,0,0,0,0,0,0,0,0,0,0,0,0,0,0,0,0,0,0,0,0,0,0,0,0,0,0,0,0,0,0,0,0,0,0,0,0,0,0,0,0,0,0,0,0,0,0,0,0,0,0,0,0,0,0,0,0,0,0,0,0,0,0,0,0,0,0,0,0,0,0,0,0,0,0,0,0,0,0
"Ind53","7_0_0",213,43,40,43,47,51,51,62,49,52,51,48,47,56,49,47,47,47,48,48,49,31,33,29,32,31,32,36,31,31,31,31,32,33,33,34,34,32,32,33,34,44,46,46,46,44,44,45,45,46,47,4,-1,0,0,0,0,0,0,0,0,0,0,0,0,0,0,0,0,0,0,0,0,0,0,0,0,0,0,0,0,0,0,0,0,0,0,0,0,0,0,0,0,0,0,0,0,0,0,0,0,0,0,0,0,0,0,0,0,0,0,0,0,0,0,0,0,0,0,0,0,0,0,0,0,0,0,0,0,0,0,0,0,0,0,0,0,0,0,0,0,0,0,0,0,0,0,0,0,0,0,0,0,0,0,0,0,0,0,0,0,0,0,0,0,0,0,0,0,0,0,0,0,0,0,0,0,0,0,0,0
"Ind54","7_0_5",213,43,40,43,47,51,51,62,49,52,51,48,47,56,49,47,47,47,48,48,49,31,33,29,32,31,32,36,31,31,31,31,32,33,33,34,34,32,32,33,34,44,46,46,46,44,44,45,45,46,47,4,0,-1,0,0,0,0,0,0,0,0,0,0,0,0,0,0,0,0,0,0,0,0,0,0,0,0,0,0,0,0,0,0,0,0,0,0,0,0,0,0,0,0,0,0,0,0,0,0,0,0,0,0,0,0,0,0,0,0,0,0,0,0,0,0,0,0,0,0,0,0,0,0,0,0,0,0,0,0,0,0,0,0,0,0,0,0,0,0,0,0,0,0,0,0,0,0,0,0,0,0,0,0,0,0,0,0,0,0,0,0,0,0,0,0,0,0,0,0,0,0,0,0,0,0,0,0,0,0,0
"Ind55","7_0_9",215,43,40,43,47,49,49,62,49,54,53,48,47,56,49,47,47,49,48,48,49,31,33,29,32,31,32,36,31,31,31,31,32,33,33,34,34,34,34,33,34,42,44,44,44,42,42,43,43,44,45,8,6,6,-1,0,0,0,0,0,0,0,0,0,0,0,0,0,0,0,0,0,0,0,0,0,0,0,0,0,0,0,0,0,0,0,0,0,0,0,0,0,0,0,0,0,0,0,0,0,0,0,0,0,0,0,0,0,0,0,0,0,0,0,0,0,0,0,0,0,0,0,0,0,0,0,0,0,0,0,0,0,0,0,0,0,0,0,0,0,0,0,0,0,0,0,0,0,0,0,0,0,0,0,0,0,0,0,0,0,0,0,0,0,0,0,0,0,0,0,0,0,0,0,0,0,0,0,0,0,0
"Ind56","7_0_4",215,41,38,41,45,47,47,60,47,52,51,46,45,54,47,45,45,47,46,46,47,29,31,27,30,29,30,34,29,29,29,29,30,31,31,32,32,32,32,31,32,42,44,44,44,42,42,43,43,44,45,6,4,4,2,-1,0,0,0,0,0,0,0,0,0,0,0,0,0,0,0,0,0,0,0,0,0,0,0,0,0,0,0,0,0,0,0,0,0,0,0,0,0,0,0,0,0,0,0,0,0,0,0,0,0,0,0,0,0,0,0,0,0,0,0,0,0,0,0,0,0,0,0,0,0,0,0,0,0,0,0,0,0,0,0,0,0,0,0,0,0,0,0,0,0,0,0,0,0,0,0,0,0,0,0,0,0,0,0,0,0,0,0,0,0,0,0,0,0,0,0,0,0,0,0,0,0,0,0,0,0
"Ind57","7_0_1",214,41,38,41,47,49,49,62,49,54,53,48,47,54,47,45,45,47,46,46,47,31,33,29,32,31,32,36,31,31,31,31,32,33,33,32,32,32,32,33,34,44,46,46,46,44,44,45,45,46,47,6,4,4,4,2,-1,0,0,0,0,0,0,0,0,0,0,0,0,0,0,0,0,0,0,0,0,0,0,0,0,0,0,0,0,0,0,0,0,0,0,0,0,0,0,0,0,0,0,0,0,0,0,0,0,0,0,0,0,0,0,0,0,0,0,0,0,0,0,0,0,0,0,0,0,0,0,0,0,0,0,0,0,0,0,0,0,0,0,0,0,0,0,0,0,0,0,0,0,0,0,0,0,0,0,0,0,0,0,0,0,0,0,0,0,0,0,0,0,0,0,0,0,0,0,0,0,0,0,0,0
"Ind58","7_0_6",204,48,47,48,50,56,56,65,54,55,52,50,49,59,53,51,51,53,52,52,56,45,49,45,55,54,53,55,54,54,54,54,55,56,56,53,53,53,53,56,57,63,65,63,63,63,63,64,64,65,64,52,50,50,52,50,50,-1,0,0,0,0,0,0,0,0,0,0,0,0,0,0,0,0,0,0,0,0,0,0,0,0,0,0,0,0,0,0,0,0,0,0,0,0,0,0,0,0,0,0,0,0,0,0,0,0,0,0,0,0,0,0,0,0,0,0,0,0,0,0,0,0,0,0,0,0,0,0,0,0,0,0,0,0,0,0,0,0,0,0,0,0,0,0,0,0,0,0,0,0,0,0,0,0,0,0,0,0,0,0,0,0,0,0,0,0,0,0,0,0,0,0,0,0,0,0,0,0,0,0,0
"Ind59","7_0_2",208,49,48,49,49,57,57,64,53,56,53,49,48,60,54,52,52,54,53,53,57,44,48,44,58,57,56,58,57,57,57,57,58,59,59,56,56,58,58,59,60,66,68,66,66,66,66,67,67,68,67,55,55,55,55,53,53,11,-1,0,0,0,0,0,0,0,0,0,0,0,0,0,0,0,0,0,0,0,0,0,0,0,0,0,0,0,0,0,0,0,0,0,0,0,0,0,0,0,0,0,0,0,0,0,0,0,0,0,0,0,0,0,0,0,0,0,0,0,0,0,0,0,0,0,0,0,0,0,0,0,0,0,0,0,0,0,0,0,0,0,0,0,0,0,0,0,0,0,0,0,0,0,0,0,0,0,0,0,0,0,0,0,0,0,0,0,0,0,0,0,0,0,0,0,0,0,0,0,0,0,0
"Ind60","7_0_3",211,53,52,53,53,59,59,64,57,60,57,51,52,64,56,56,56,58,57,57,61,48,52,48,62,61,60,62,61,61,61,61,62,63,63,60,60,62,62,63,64,70,72,70,70,70,70,71,71,72,71,59,59,59,59,57,57,15,4,-1,0,0,0,0,0,0,0,0,0,0,0,0,0,0,0,0,0,0,0,0,0,0,0,0,0,0,0,0,0,0,0,0,0,0,0,0,0,0,0,0,0,0,0,0,0,0,0,0,0,0,0,0,0,0,0,0,0,0,0,0,0,0,0,0,0,0,0,0,0,0,0,0,0,0,0,0,0,0,0,0,0,0,0,0,0,0,0,0,0,0,0,0,0,0,0,0,0,0,0,0,0,0,0,0,0,0,0,0,0,0,0,0,0,0,0,0,0,0,0,0,0
"Ind61","7_0_7",206,43,42,43,47,55,55,62,51,54,51,47,46,56,52,50,50,52,51,51,55,40,44,40,52,51,50,52,51,51,51,51,52,53,53,50,50,52,52,51,52,60,62,60,60,60,60,61,61,62,61,47,47,47,49,47,45,9,10,14,-1,0,0,0,0,0,0,0,0,0,0,0,0,0,0,0,0,0,0,0,0,0,0,0,0,0,0,0,0,0,0,0,0,0,0,0,0,0,0,0,0,0,0,0,0,0,0,0,0,0,0,0,0,0,0,0,0,0,0,0,0,0,0,0,0,0,0,0,0,0,0,0,0,0,0,0,0,0,0,0,0,0,0,0,0,0,0,0,0,0,0,0,0,0,0,0,0,0,0,0,0,0,0,0,0,0,0,0,0,0,0,0,0,0,0,0,0,0,0,0,0
"Ind62","3_0_7",208,107,106,109,105,109,109,113,109,109,106,106,107,106,109,103,103,105,103,103,106,107,110,108,117,116,115,119,118,118,118,118,119,118,118,117,117,117,117,118,119,121,123,121,121,121,121,122,122,122,122,109,109,109,109,107,107,108,108,110,101,-1,0,0,0,0,0,0,0,0,0,0,0,0,0,0,0,0,0,0,0,0,0,0,0,0,0,0,0,0,0,0,0,0,0,0,0,0,0,0,0,0,0,0,0,0,0,0,0,0,0,0,0,0,0,0,0,0,0,0,0,0,0,0,0,0,0,0,0,0,0,0,0,0,0,0,0,0,0,0,0,0,0,0,0,0,0,0,0,0,0,0,0,0,0,0,0,0,0,0,0,0,0,0,0,0,0,0,0,0,0,0,0,0,0,0,0,0,0,0,0
"Ind63","3_0_2",209,108,107,110,106,110,110,114,110,110,107,107,108,107,110,104,104,106,104,104,107,108,111,109,118,117,116,120,119,119,119,119,120,119,119,118,118,118,118,119,120,122,124,122,122,122,122,123,123,123,123,110,110,110,110,108,108,107,107,109,100,3,-1,0,0,0,0,0,0,0,0,0,0,0,0,0,0,0,0,0,0,0,0,0,0,0,0,0,0,0,0,0,0,0,0,0,0,0,0,0,0,0,0,0,0,0,0,0,0,0,0,0,0,0,0,0,0,0,0,0,0,0,0,0,0,0,0,0,0,0,0,0,0,0,0,0,0,0,0,0,0,0,0,0,0,0,0,0,0,0,0,0,0,0,0,0,0,0,0,0,0,0,0,0,0,0,0,0,0,0,0,0,0,0,0,0,0,0,0,0,0
"Ind64","3_0_5",209,108,107,110,106,110,110,114,110,110,107,107,108,107,110,104,104,106,104,104,107,108,111,109,118,117,116,120,119,119,119,119,120,117,117,118,118,118,118,119,120,122,124,122,122,122,122,123,123,123,123,110,110,110,110,108,108,107,107,109,100,5,4,-1,0,0,0,0,0,0,0,0,0,0,0,0,0,0,0,0,0,0,0,0,0,0,0,0,0,0,0,0,0,0,0,0,0,0,0,0,0,0,0,0,0,0,0,0,0,0,0,0,0,0,0,0,0,0,0,0,0,0,0,0,0,0,0,0,0,0,0,0,0,0,0,0,0,0,0,0,0,0,0,0,0,0,0,0,0,0,0,0,0,0,0,0,0,0,0,0,0,0,0,0,0,0,0,0,0,0,0,0,0,0,0,0,0,0,0,0,0
"Ind65","3_0_4",209,119,118,121,118,118,118,125,123,124,123,119,120,119,122,116,116,118,116,116,119,121,124,122,131,130,129,129,130,130,130,130,131,132,132,129,129,129,129,130,131,131,133,131,131,131,131,132,132,132,132,126,124,124,124,122,122,123,121,123,116,24,25,27,-1,0,0,0,0,0,0,0,0,0,0,0,0,0,0,0,0,0,0,0,0,0,0,0,0,0,0,0,0,0,0,0,0,0,0,0,0,0,0,0,0,0,0,0,0,0,0,0,0,0,0,0,0,0,0,0,0,0,0,0,0,0,0,0,0,0,0,0,0,0,0,0,0,0,0,0,0,0,0,0,0,0,0,0,0,0,0,0,0,0,0,0,0,0,0,0,0,0,0,0,0,0,0,0,0,0,0,0,0,0,0,0,0,0,0,0,0
"Ind66","1_0_7",211,118,117,120,117,119,119,126,122,123,120,120,119,118,121,115,115,117,115,115,118,118,121,119,132,131,130,128,129,129,129,131,132,133,133,130,130,130,130,129,130,134,136,134,134,134,134,135,135,135,135,125,125,125,125,123,123,120,118,122,113,27,28,30,15,-1,0,0,0,0,0,0,0,0,0,0,0,0,0,0,0,0,0,0,0,0,0,0,0,0,0,0,0,0,0,0,0,0,0,0,0,0,0,0,0,0,0,0,0,0,0,0,0,0,0,0,0,0,0,0,0,0,0,0,0,0,0,0,0,0,0,0,0,0,0,0,0,0,0,0,0,0,0,0,0,0,0,0,0,0,0,0,0,0,0,0,0,0,0,0,0,0,0,0,0,0,0,0,0,0,0,0,0,0,0,0,0,0,0,0,0
"Ind67","1_0_3",211,115,114,117,114,118,118,121,119,120,117,115,116,115,118,112,112,114,112,112,115,117,120,118,129,128,127,125,126,126,126,128,129,130,130,127,127,127,127,126,127,131,133,131,131,131,131,132,132,132,132,122,122,122,122,120,120,117,115,117,110,26,27,29,14,7,-1,0,0,0,0,0,0,0,0,0,0,0,0,0,0,0,0,0,0,0,0,0,0,0,0,0,0,0,0,0,0,0,0,0,0,0,0,0,0,0,0,0,0,0,0,0,0,0,0,0,0,0,0,0,0,0,0,0,0,0,0,0,0,0,0,0,0,0,0,0,0,0,0,0,0,0,0,0,0,0,0,0,0,0,0,0,0,0,0,0,0,0,0,0,0,0,0,0,0,0,0,0,0,0,0,0,0,0,0,0,0,0,0,0,0
"Ind68","1_0_0",210,116,115,118,115,117,117,122,120,121,118,116,117,114,119,113,113,115,113,113,116,118,121,119,130,129,128,126,127,127,127,129,130,131,131,128,128,128,128,127,128,132,134,132,132,132,132,133,133,133,133,123,123,123,123,121,121,118,116,118,111,25,26,28,13,6,3,-1,0,0,0,0,0,0,0,0,0,0,0,0,0,0,0,0,0,0,0,0,0,0,0,0,0,0,0,0,0,0,0,0,0,0,0,0,0,0,0,0,0,0,0,0,0,0,0,0,0,0,0,0,0,0,0,0,0,0,0,0,0,0,0,0,0,0,0,0,0,0,0,0,0,0,0,0,0,0,0,0,0,0,0,0,0,0,0,0,0,0,0,0,0,0,0,0,0,0,0,0,0,0,0,0,0,0,0,0,0,0,0,0,0
"Ind69","1_0_6",208,114,113,116,113,115,115,120,118,119,116,114,115,118,117,111,111,113,111,111,114,118,121,117,128,127,126,124,125,125,125,127,128,129,129,126,126,126,126,125,126,130,132,130,130,130,130,131,131,131,131,121,121,121,121,119,119,116,114,116,109,25,26,28,13,6,5,4,-1,0,0,0,0,0,0,0,0,0,0,0,0,0,0,0,0,0,0,0,0,0,0,0,0,0,0,0,0,0,0,0,0,0,0,0,0,0,0,0,0,0,0,0,0,0,0,0,0,0,0,0,0,0,0,0,0,0,0,0,0,0,0,0,0,0,0,0,0,0,0,0,0,0,0,0,0,0,0,0,0,0,0,0,0,0,0,0,0,0,0,0,0,0,0,0,0,0,0,0,0,0,0,0,0,0,0,0,0,0,0,0,0
"Ind70","1_0_5",208,115,114,117,114,116,116,123,119,118,117,115,116,115,118,112,112,114,112,112,115,117,120,118,129,128,127,125,126,126,126,128,129,130,130,127,127,127,127,124,125,131,133,131,131,131,131,132,132,132,132,122,122,122,120,120,120,117,115,117,110,26,27,29,16,9,8,7,7,-1,0,0,0,0,0,0,0,0,0,0,0,0,0,0,0,0,0,0,0,0,0,0,0,0,0,0,0,0,0,0,0,0,0,0,0,0,0,0,0,0,0,0,0,0,0,0,0,0,0,0,0,0,0,0,0,0,0,0,0,0,0,0,0,0,0,0,0,0,0,0,0,0,0,0,0,0,0,0,0,0,0,0,0,0,0,0,0,0,0,0,0,0,0,0,0,0,0,0,0,0,0,0,0,0,0,0,0,0,0,0,0
"Ind71","1_0_2",208,115,114,117,114,116,116,123,119,118,117,115,116,115,118,112,112,114,112,112,115,115,118,116,127,126,125,123,124,124,124,126,127,128,128,125,125,125,125,122,123,129,131,129,129,129,129,130,130,130,130,120,120,120,118,118,118,117,115,117,110,28,29,31,18,11,10,9,9,2,-1,0,0,0,0,0,0,0,0,0,0,0,0,0,0,0,0,0,0,0,0,0,0,0,0,0,0,0,0,0,0,0,0,0,0,0,0,0,0,0,0,0,0,0,0,0,0,0,0,0,0,0,0,0,0,0,0,0,0,0,0,0,0,0,0,0,0,0,0,0,0,0,0,0,0,0,0,0,0,0,0,0,0,0,0,0,0,0,0,0,0,0,0,0,0,0,0,0,0,0,0,0,0,0,0,0,0,0,0,0,0
"Ind72","1_0_4",208,117,116,119,116,118,118,123,121,118,117,117,118,115,120,114,114,116,114,114,117,119,122,120,129,128,127,125,126,126,126,128,129,130,130,127,127,127,127,124,125,131,133,131,131,131,131,132,132,132,132,124,124,124,122,122,122,119,117,119,112,28,29,31,18,11,10,9,9,4,6,-1,0,0,0,0,0,0,0,0,0,0,0,0,0,0,0,0,0,0,0,0,0,0,0,0,0,0,0,0,0,0,0,0,0,0,0,0,0,0,0,0,0,0,0,0,0,0,0,0,0,0,0,0,0,0,0,0,0,0,0,0,0,0,0,0,0,0,0,0,0,0,0,0,0,0,0,0,0,0,0,0,0,0,0,0,0,0,0,0,0,0,0,0,0,0,0,0,0,0,0,0,0,0,0,0,0,0,0,0,0
"Ind73","1_0_1",209,118,117,120,117,119,119,124,122,119,118,118,119,116,121,115,115,117,115,115,118,120,123,121,130,129,128,126,127,127,127,129,130,131,131,128,128,128,128,125,126,132,134,132,132,132,132,133,133,133,133,125,125,125,123,123,123,120,118,120,113,27,28,30,17,10,9,8,8,3,5,1,-1,0,0,0,0,0,0,0,0,0,0,0,0,0,0,0,0,0,0,0,0,0,0,0,0,0,0,0,0,0,0,0,0,0,0,0,0,0,0,0,0,0,0,0,0,0,0,0,0,0,0,0,0,0,0,0,0,0,0,0,0,0,0,0,0,0,0,0,0,0,0,0,0,0,0,0,0,0,0,0,0,0,0,0,0,0,0,0,0,0,0,0,0,0,0,0,0,0,0,0,0,0,0,0,0,0,0,0,0
"Ind74","1_0_8",209,118,117,120,117,119,119,124,122,119,118,118,119,116,121,115,115,117,115,115,118,120,123,121,130,129,128,126,127,127,127,129,130,131,131,128,128,128,128,125,126,132,134,132,132,132,132,133,133,133,133,125,125,125,123,123,123,120,118,120,113,27,28,30,17,10,9,8,8,3,5,1,0,-1,0,0,0,0,0,0,0,0,0,0,0,0,0,0,0,0,0,0,0,0,0,0,0,0,0,0,0,0,0,0,0,0,0,0,0,0,0,0,0,0,0,0,0,0,0,0,0,0,0,0,0,0,0,0,0,0,0,0,0,0,0,0,0,0,0,0,0,0,0,0,0,0,0,0,0,0,0,0,0,0,0,0,0,0,0,0,0,0,0,0,0,0,0,0,0,0,0,0,0,0,0,0,0,0,0,0,0
"Ind75","1_0_9",208,117,116,119,117,119,119,124,122,123,120,118,119,118,121,115,115,117,115,115,118,119,122,120,129,128,127,125,128,128,128,128,129,130,130,127,127,127,127,128,129,133,135,133,133,133,133,134,134,134,134,124,124,124,124,122,122,117,115,117,110,25,26,28,13,8,7,6,6,9,11,11,10,10,-1,0,0,0,0,0,0,0,0,0,0,0,0,0,0,0,0,0,0,0,0,0,0,0,0,0,0,0,0,0,0,0,0,0,0,0,0,0,0,0,0,0,0,0,0,0,0,0,0,0,0,0,0,0,0,0,0,0,0,0,0,0,0,0,0,0,0,0,0,0,0,0,0,0,0,0,0,0,0,0,0,0,0,0,0,0,0,0,0,0,0,0,0,0,0,0,0,0,0,0,0,0,0,0,0,0,0
"Ind76","3_0_6",199,110,109,112,112,114,114,116,116,115,115,109,110,113,116,112,112,114,112,112,115,107,112,110,119,118,117,121,120,120,120,120,121,122,122,119,119,119,119,120,119,123,125,123,123,123,123,124,124,124,124,109,109,109,107,105,105,109,111,113,104,37,38,40,45,48,47,46,46,45,45,47,46,46,45,-1,0,0,0,0,0,0,0,0,0,0,0,0,0,0,0,0,0,0,0,0,0,0,0,0,0,0,0,0,0,0,0,0,0,0,0,0,0,0,0,0,0,0,0,0,0,0,0,0,0,0,0,0,0,0,0,0,0,0,0,0,0,0,0,0,0,0,0,0,0,0,0,0,0,0,0,0,0,0,0,0,0,0,0,0,0,0,0,0,0,0,0,0,0,0,0,0,0,0,0,0,0,0,0,0,0
"Ind77","3_0_3",202,112,111,114,114,116,116,118,118,117,117,111,112,115,118,114,114,116,114,114,117,111,114,112,121,120,119,123,122,122,122,122,123,124,124,121,121,121,121,121,120,125,127,125,125,125,125,126,126,126,126,111,111,111,109,107,107,113,115,117,108,39,40,42,47,50,49,48,48,47,47,49,48,48,47,6,-1,0,0,0,0,0,0,0,0,0,0,0,0,0,0,0,0,0,0,0,0,0,0,0,0,0,0,0,0,0,0,0,0,0,0,0,0,0,0,0,0,0,0,0,0,0,0,0,0,0,0,0,0,0,0,0,0,0,0,0,0,0,0,0,0,0,0,0,0,0,0,0,0,0,0,0,0,0,0,0,0,0,0,0,0,0,0,0,0,0,0,0,0,0,0,0,0,0,0,0,0,0,0,0,0
"Ind78","3_0_1",202,112,111,114,114,116,116,118,118,117,117,111,112,115,118,114,114,116,114,114,117,111,114,112,121,120,119,123,122,122,122,122,123,124,124,121,121,121,121,121,120,125,127,125,125,125,125,126,126,126,126,111,111,111,109,107,107,113,115,117,108,39,40,42,47,50,49,48,48,47,47,49,48,48,47,6,0,-1,0,0,0,0,0,0,0,0,0,0,0,0,0,0,0,0,0,0,0,0,0,0,0,0,0,0,0,0,0,0,0,0,0,0,0,0,0,0,0,0,0,0,0,0,0,0,0,0,0,0,0,0,0,0,0,0,0,0,0,0,0,0,0,0,0,0,0,0,0,0,0,0,0,0,0,0,0,0,0,0,0,0,0,0,0,0,0,0,0,0,0,0,0,0,0,0,0,0,0,0,0,0,0
"Ind79","3_0_0",202,114,113,116,116,118,118,120,120,117,117,113,114,117,120,116,116,118,116,116,119,113,116,114,123,122,121,125,124,124,124,124,125,126,126,123,123,123,123,123,122,127,129,127,127,127,127,128,128,128,128,113,113,113,111,109,109,115,117,119,110,41,42,44,49,51,51,50,50,49,49,51,50,50,49,8,2,2,-1,0,0,0,0,0,0,0,0,0,0,0,0,0,0,0,0,0,0,0,0,0,0,0,0,0,0,0,0,0,0,0,0,0,0,0,0,0,0,0,0,0,0,0,0,0,0,0,0,0,0,0,0,0,0,0,0,0,0,0,0,0,0,0,0,0,0,0,0,0,0,0,0,0,0,0,0,0,0,0,0,0,0,0,0,0,0,0,0,0,0,0,0,0,0,0,0,0,0,0,0,0,0
"Ind80","3_0_8",202,112,111,114,114,116,116,118,118,117,117,111,112,115,118,114,114,116,114,114,117,111,114,112,121,120,119,123,122,122,122,122,123,124,124,121,121,121,121,121,120,125,127,125,125,125,125,126,126,126,126,111,111,111,109,107,107,113,115,117,108,39,40,42,47,50,49,48,48,47,47,49,48,48,47,6,0,0,2,-1,0,0,0,0,0,0,0,0,0,0,0,0,0,0,0,0,0,0,0,0,0,0,0,0,0,0,0,0,0,0,0,0,0,0,0,0,0,0,0,0,0,0,0,0,0,0,0,0,0,0,0,0,0,0,0,0,0,0,0,0,0,0,0,0,0,0,0,0,0,0,0,0,0,0,0,0,0,0,0,0,0,0,0,0,0,0,0,0,0,0,0,0,0,0,0,0,0,0,0,0,0
"Ind81","3_0_9",205,117,116,119,119,120,120,123,123,120,120,116,117,117,122,118,118,120,118,118,121,115,118,116,123,122,121,125,124,124,124,124,125,126,126,121,121,123,123,123,122,129,131,129,129,129,129,130,130,130,130,115,115,115,113,111,111,117,120,122,113,44,45,47,52,55,54,53,53,52,52,52,51,51,52,12,6,6,8,6,-1,0,0,0,0,0,0,0,0,0,0,0,0,0,0,0,0,0,0,0,0,0,0,0,0,0,0,0,0,0,0,0,0,0,0,0,0,0,0,0,0,0,0,0,0,0,0,0,0,0,0,0,0,0,0,0,0,0,0,0,0,0,0,0,0,0,0,0,0,0,0,0,0,0,0,0,0,0,0,0,0,0,0,0,0,0,0,0,0,0,0,0,0,0,0,0,0,0,0,0,0
"Ind82","15_0_3",222,159,160,157,158,164,164,161,165,160,162,160,159,152,157,157,157,157,162,162,156,162,167,161,157,157,158,160,160,158,158,158,159,158,158,155,155,160,160,163,162,158,160,158,158,158,158,159,159,159,157,171,170,170,173,171,171,150,150,150,149,136,137,137,141,144,143,142,142,143,145,141,142,142,140,140,145,145,147,145,148,-1,0,0,0,0,0,0,0,0,0,0,0,0,0,0,0,0,0,0,0,0,0,0,0,0,0,0,0,0,0,0,0,0,0,0,0,0,0,0,0,0,0,0,0,0,0,0,0,0,0,0,0,0,0,0,0,0,0,0,0,0,0,0,0,0,0,0,0,0,0,0,0,0,0,0,0,0,0,0,0,0,0,0,0,0,0,0,0,0,0,0,0,0,0,0,0,0,0,0,0
"Ind83","15_0_8",227,160,161,158,159,165,165,162,166,161,163,161,160,157,160,158,158,158,163,163,157,161,166,160,156,156,157,159,159,157,157,159,160,159,159,156,156,159,159,162,161,159,161,161,161,159,159,160,160,160,158,172,171,171,174,172,172,151,151,151,150,135,136,136,138,141,140,139,139,140,142,138,139,139,137,139,144,144,146,144,147,11,-1,0,0,0,0,0,0,0,0,0,0,0,0,0,0,0,0,0,0,0,0,0,0,0,0,0,0,0,0,0,0,0,0,0,0,0,0,0,0,0,0,0,0,0,0,0,0,0,0,0,0,0,0,0,0,0,0,0,0,0,0,0,0,0,0,0,0,0,0,0,0,0,0,0,0,0,0,0,0,0,0,0,0,0,0,0,0,0,0,0,0,0,0,0,0,0,0,0,0
"Ind84","15_0_1",227,160,161,158,159,167,167,162,166,161,163,161,160,155,160,158,158,158,163,163,157,163,168,162,158,158,159,161,161,159,159,161,162,161,161,158,158,161,161,164,163,159,161,161,161,159,159,160,160,160,158,174,173,173,176,174,174,153,153,153,152,135,136,136,138,141,140,139,139,140,142,138,139,139,137,139,144,144,146,144,147,11,2,-1,0,0,0,0,0,0,0,0,0,0,0,0,0,0,0,0,0,0,0,0,0,0,0,0,0,0,0,0,0,0,0,0,0,0,0,0,0,0,0,0,0,0,0,0,0,0,0,0,0,0,0,0,0,0,0,0,0,0,0,0,0,0,0,0,0,0,0,0,0,0,0,0,0,0,0,0,0,0,0,0,0,0,0,0,0,0,0,0,0,0,0,0,0,0,0,0,0
"Ind85","15_0_4",227,160,161,158,159,167,167,162,166,161,163,161,160,155,160,158,158,158,163,163,157,163,168,162,158,158,159,161,161,159,159,161,162,161,161,158,158,161,161,164,163,159,161,161,161,159,159,160,160,160,158,174,173,173,176,174,174,153,153,153,152,135,136,136,138,141,140,139,139,140,142,138,139,139,137,139,144,144,146,144,147,11,2,0,-1,0,0,0,0,0,0,0,0,0,0,0,0,0,0,0,0,0,0,0,0,0,0,0,0,0,0,0,0,0,0,0,0,0,0,0,0,0,0,0,0,0,0,0,0,0,0,0,0,0,0,0,0,0,0,0,0,0,0,0,0,0,0,0,0,0,0,0,0,0,0,0,0,0,0,0,0,0,0,0,0,0,0,0,0,0,0,0,0,0,0,0,0,0,0,0,0
"Ind86","15_0_0",226,161,162,159,160,168,168,163,167,162,164,162,161,156,161,159,159,159,164,164,158,164,169,163,159,159,160,162,162,160,160,162,163,162,162,159,159,162,162,165,164,160,162,162,162,160,160,161,161,161,159,175,174,174,177,175,175,154,154,154,153,136,137,137,139,142,141,140,140,141,143,139,140,140,138,140,145,145,147,145,148,12,3,1,1,-1,0,0,0,0,0,0,0,0,0,0,0,0,0,0,0,0,0,0,0,0,0,0,0,0,0,0,0,0,0,0,0,0,0,0,0,0,0,0,0,0,0,0,0,0,0,0,0,0,0,0,0,0,0,0,0,0,0,0,0,0,0,0,0,0,0,0,0,0,0,0,0,0,0,0,0,0,0,0,0,0,0,0,0,0,0,0,0,0,0,0,0,0,0,0,0
"Ind87","11_0_4",223,162,163,160,161,165,165,162,166,163,165,164,163,158,163,161,161,161,165,165,159,165,170,164,162,162,163,165,165,163,163,165,166,165,165,162,162,165,165,168,167,163,165,163,163,163,163,164,164,164,162,174,173,173,176,174,174,155,155,155,154,135,136,136,137,142,141,140,140,141,143,139,140,140,140,139,144,144,146,144,147,13,10,10,10,11,-1,0,0,0,0,0,0,0,0,0,0,0,0,0,0,0,0,0,0,0,0,0,0,0,0,0,0,0,0,0,0,0,0,0,0,0,0,0,0,0,0,0,0,0,0,0,0,0,0,0,0,0,0,0,0,0,0,0,0,0,0,0,0,0,0,0,0,0,0,0,0,0,0,0,0,0,0,0,0,0,0,0,0,0,0,0,0,0,0,0,0,0,0,0,0
"Ind88","11_0_3",219,159,160,157,162,168,168,165,167,162,164,162,161,154,161,159,159,159,164,164,158,162,167,161,161,161,162,164,164,162,162,164,165,164,164,161,161,164,164,167,166,164,166,164,164,164,164,165,165,165,163,171,170,170,173,171,171,152,152,154,151,134,135,135,134,139,138,137,137,138,140,136,137,137,137,136,141,141,143,141,144,16,15,15,15,16,7,-1,0,0,0,0,0,0,0,0,0,0,0,0,0,0,0,0,0,0,0,0,0,0,0,0,0,0,0,0,0,0,0,0,0,0,0,0,0,0,0,0,0,0,0,0,0,0,0,0,0,0,0,0,0,0,0,0,0,0,0,0,0,0,0,0,0,0,0,0,0,0,0,0,0,0,0,0,0,0,0,0,0,0,0,0,0,0,0,0,0,0,0,0,0
"Ind89","11_0_2",219,158,159,156,161,167,167,164,166,161,163,161,160,155,160,158,158,158,163,163,157,161,166,160,160,160,161,163,163,161,161,163,164,163,163,160,160,163,163,166,165,163,165,163,163,163,163,164,164,164,162,170,169,169,172,170,170,151,151,153,150,135,136,136,135,140,139,138,138,139,141,137,138,138,138,137,142,142,144,142,145,18,15,17,17,18,9,2,-1,0,0,0,0,0,0,0,0,0,0,0,0,0,0,0,0,0,0,0,0,0,0,0,0,0,0,0,0,0,0,0,0,0,0,0,0,0,0,0,0,0,0,0,0,0,0,0,0,0,0,0,0,0,0,0,0,0,0,0,0,0,0,0,0,0,0,0,0,0,0,0,0,0,0,0,0,0,0,0,0,0,0,0,0,0,0,0,0,0,0,0,0
"Ind90","11_0_0",219,158,159,156,161,167,167,164,166,161,163,161,160,155,160,158,158,158,163,163,157,161,166,160,160,160,161,163,163,161,161,163,164,163,163,160,160,163,163,166,165,163,165,163,163,163,163,164,164,164,162,170,169,169,172,170,170,151,151,153,150,135,136,136,135,140,139,138,138,139,141,137,138,138,138,137,142,142,144,142,145,18,15,17,17,18,9,2,0,-1,0,0,0,0,0,0,0,0,0,0,0,0,0,0,0,0,0,0,0,0,0,0,0,0,0,0,0,0,0,0,0,0,0,0,0,0,0,0,0,0,0,0,0,0,0,0,0,0,0,0,0,0,0,0,0,0,0,0,0,0,0,0,0,0,0,0,0,0,0,0,0,0,0,0,0,0,0,0,0,0,0,0,0,0,0,0,0,0,0,0,0
"Ind91","11_0_7",221,158,159,158,161,165,165,162,166,161,163,161,160,155,160,158,158,158,163,163,157,163,168,162,160,160,161,163,163,161,161,163,164,163,163,160,160,163,163,166,165,163,165,163,163,163,163,164,164,164,162,170,169,169,172,170,170,153,153,153,152,137,138,138,139,144,143,142,142,143,145,141,142,142,142,141,146,146,148,146,149,15,14,14,14,15,6,7,9,9,-1,0,0,0,0,0,0,0,0,0,0,0,0,0,0,0,0,0,0,0,0,0,0,0,0,0,0,0,0,0,0,0,0,0,0,0,0,0,0,0,0,0,0,0,0,0,0,0,0,0,0,0,0,0,0,0,0,0,0,0,0,0,0,0,0,0,0,0,0,0,0,0,0,0,0,0,0,0,0,0,0,0,0,0,0,0,0,0,0,0,0
"Ind92","11_0_1",219,154,155,152,157,161,161,158,162,159,161,161,160,153,158,156,156,156,161,161,155,159,162,156,156,156,157,157,157,155,155,157,158,157,157,154,154,157,157,160,159,155,157,155,155,155,155,156,156,156,154,166,165,165,168,166,166,153,153,151,150,139,140,140,141,144,141,140,142,143,145,141,142,142,142,143,146,146,148,146,149,23,20,20,20,21,12,17,19,19,16,-1,0,0,0,0,0,0,0,0,0,0,0,0,0,0,0,0,0,0,0,0,0,0,0,0,0,0,0,0,0,0,0,0,0,0,0,0,0,0,0,0,0,0,0,0,0,0,0,0,0,0,0,0,0,0,0,0,0,0,0,0,0,0,0,0,0,0,0,0,0,0,0,0,0,0,0,0,0,0,0,0,0,0,0,0,0,0,0,0,0
"Ind93","11_0_9",222,161,162,159,162,166,166,163,167,164,166,164,163,158,163,161,161,161,166,166,160,164,169,163,161,161,162,164,164,162,162,164,165,164,164,161,161,164,164,167,166,162,164,162,162,162,162,163,163,163,161,173,172,172,175,173,173,154,154,154,153,134,135,135,136,141,140,139,139,140,142,138,139,139,139,138,143,143,145,143,146,12,9,9,9,10,1,6,8,8,5,11,-1,0,0,0,0,0,0,0,0,0,0,0,0,0,0,0,0,0,0,0,0,0,0,0,0,0,0,0,0,0,0,0,0,0,0,0,0,0,0,0,0,0,0,0,0,0,0,0,0,0,0,0,0,0,0,0,0,0,0,0,0,0,0,0,0,0,0,0,0,0,0,0,0,0,0,0,0,0,0,0,0,0,0,0,0,0,0,0,0
"Ind94","10_0_6",223,157,158,155,158,162,162,161,165,160,162,160,159,154,157,155,155,155,158,158,156,159,164,158,158,158,159,159,159,157,157,159,160,159,159,156,156,159,159,162,161,159,161,159,159,159,159,160,160,160,158,170,169,169,172,170,170,151,153,153,150,128,129,129,133,136,137,134,134,135,137,133,134,134,132,133,138,138,140,138,141,19,16,16,16,17,18,23,25,25,22,26,17,-1,0,0,0,0,0,0,0,0,0,0,0,0,0,0,0,0,0,0,0,0,0,0,0,0,0,0,0,0,0,0,0,0,0,0,0,0,0,0,0,0,0,0,0,0,0,0,0,0,0,0,0,0,0,0,0,0,0,0,0,0,0,0,0,0,0,0,0,0,0,0,0,0,0,0,0,0,0,0,0,0,0,0,0,0,0,0,0
"Ind95","10_0_1",223,161,162,159,162,168,168,167,169,164,166,162,161,156,161,157,157,157,160,160,158,163,168,162,160,160,161,163,163,161,161,163,164,163,163,160,160,163,163,166,165,163,163,161,161,163,163,164,164,164,162,174,173,173,176,174,174,156,156,158,155,133,134,134,138,141,141,138,139,140,142,138,139,139,137,139,144,144,146,144,147,22,19,19,19,20,20,23,25,25,24,27,19,11,-1,0,0,0,0,0,0,0,0,0,0,0,0,0,0,0,0,0,0,0,0,0,0,0,0,0,0,0,0,0,0,0,0,0,0,0,0,0,0,0,0,0,0,0,0,0,0,0,0,0,0,0,0,0,0,0,0,0,0,0,0,0,0,0,0,0,0,0,0,0,0,0,0,0,0,0,0,0,0,0,0,0,0,0,0,0,0
"Ind96","10_0_8",223,161,162,159,162,168,168,167,169,164,166,162,161,156,161,157,157,157,160,160,158,163,168,162,160,160,161,163,163,161,161,163,164,163,163,160,160,163,163,166,165,163,163,161,161,163,163,164,164,164,162,174,173,173,176,174,174,156,156,158,155,133,134,134,138,141,141,138,139,140,142,138,139,139,137,139,144,144,146,144,147,22,19,19,19,20,20,23,25,25,24,27,19,11,0,-1,0,0,0,0,0,0,0,0,0,0,0,0,0,0,0,0,0,0,0,0,0,0,0,0,0,0,0,0,0,0,0,0,0,0,0,0,0,0,0,0,0,0,0,0,0,0,0,0,0,0,0,0,0,0,0,0,0,0,0,0,0,0,0,0,0,0,0,0,0,0,0,0,0,0,0,0,0,0,0,0,0,0,0,0,0
"Ind97","17_0_8",228,161,162,159,162,166,166,165,169,164,166,162,161,158,161,159,159,159,162,162,160,164,169,163,163,163,164,162,162,160,160,164,165,164,164,161,161,164,164,165,164,168,170,168,168,168,168,169,169,169,167,177,176,176,179,177,177,157,157,157,156,136,135,135,137,136,137,134,134,135,137,133,134,134,134,138,143,143,145,143,146,25,22,22,22,23,24,29,31,31,28,34,23,20,21,21,-1,0,0,0,0,0,0,0,0,0,0,0,0,0,0,0,0,0,0,0,0,0,0,0,0,0,0,0,0,0,0,0,0,0,0,0,0,0,0,0,0,0,0,0,0,0,0,0,0,0,0,0,0,0,0,0,0,0,0,0,0,0,0,0,0,0,0,0,0,0,0,0,0,0,0,0,0,0,0,0,0,0,0,0,0
"Ind98","13_0_0",221,162,163,160,163,167,167,166,170,165,167,163,162,159,162,160,160,160,163,163,161,163,168,162,162,162,161,161,163,161,161,165,166,165,165,162,162,161,161,166,165,167,169,167,167,167,167,168,168,168,166,174,173,173,176,174,174,156,156,156,155,133,132,132,134,135,136,133,133,134,134,132,133,133,133,133,138,138,140,138,141,22,19,19,19,20,21,26,28,28,25,31,20,17,18,18,11,-1,0,0,0,0,0,0,0,0,0,0,0,0,0,0,0,0,0,0,0,0,0,0,0,0,0,0,0,0,0,0,0,0,0,0,0,0,0,0,0,0,0,0,0,0,0,0,0,0,0,0,0,0,0,0,0,0,0,0,0,0,0,0,0,0,0,0,0,0,0,0,0,0,0,0,0,0,0,0,0,0,0,0,0
"Ind99","17_0_7",225,164,165,162,163,167,167,166,170,163,165,161,160,161,166,164,164,164,165,165,165,167,172,168,164,164,165,169,167,165,165,169,170,167,167,168,168,171,171,170,169,171,173,171,171,171,171,172,172,172,170,180,179,179,182,180,182,164,160,160,163,139,138,138,140,141,142,139,141,140,142,140,139,139,141,143,148,148,150,148,151,36,31,31,31,32,35,40,42,42,39,45,34,31,32,32,23,22,-1,0,0,0,0,0,0,0,0,0,0,0,0,0,0,0,0,0,0,0,0,0,0,0,0,0,0,0,0,0,0,0,0,0,0,0,0,0,0,0,0,0,0,0,0,0,0,0,0,0,0,0,0,0,0,0,0,0,0,0,0,0,0,0,0,0,0,0,0,0,0,0,0,0,0,0,0,0,0,0,0,0,0
"Ind100","17_0_1",227,165,166,163,164,168,168,167,171,164,166,162,161,162,167,165,165,165,166,166,166,166,171,167,164,165,166,168,168,166,166,170,171,168,168,169,169,172,172,171,170,172,174,172,172,172,172,173,173,173,171,181,180,180,183,181,183,163,161,161,162,140,139,139,141,142,143,140,142,141,143,141,140,140,140,144,149,149,151,149,152,36,31,31,31,32,35,40,42,42,39,45,34,31,32,32,23,22,4,-1,0,0,0,0,0,0,0,0,0,0,0,0,0,0,0,0,0,0,0,0,0,0,0,0,0,0,0,0,0,0,0,0,0,0,0,0,0,0,0,0,0,0,0,0,0,0,0,0,0,0,0,0,0,0,0,0,0,0,0,0,0,0,0,0,0,0,0,0,0,0,0,0,0,0,0,0,0,0,0,0,0
"Ind101","17_0_4",227,165,166,163,164,168,168,167,171,164,166,162,161,162,167,165,165,165,166,166,166,166,171,167,164,165,166,168,168,166,166,170,171,168,168,169,169,172,172,171,170,172,174,172,172,172,172,173,173,173,171,181,180,180,183,181,183,163,161,161,162,140,139,139,141,142,143,140,142,141,143,141,140,140,140,144,149,149,151,149,152,36,31,31,31,32,35,40,42,42,39,45,34,31,32,32,23,22,4,0,-1,0,0,0,0,0,0,0,0,0,0,0,0,0,0,0,0,0,0,0,0,0,0,0,0,0,0,0,0,0,0,0,0,0,0,0,0,0,0,0,0,0,0,0,0,0,0,0,0,0,0,0,0,0,0,0,0,0,0,0,0,0,0,0,0,0,0,0,0,0,0,0,0,0,0,0,0,0,0,0,0
"Ind102","13_0_6",218,158,157,156,159,161,161,160,164,157,159,161,160,153,158,156,156,156,159,159,157,163,168,162,158,158,157,159,161,159,159,163,164,163,163,160,160,161,161,164,163,165,167,165,165,165,165,166,166,166,164,174,173,173,176,174,174,155,155,155,154,133,130,132,136,135,136,133,133,134,136,132,133,133,133,135,140,140,142,140,143,32,29,29,29,30,31,36,38,38,33,39,30,27,28,28,23,18,34,34,34,-1,0,0,0,0,0,0,0,0,0,0,0,0,0,0,0,0,0,0,0,0,0,0,0,0,0,0,0,0,0,0,0,0,0,0,0,0,0,0,0,0,0,0,0,0,0,0,0,0,0,0,0,0,0,0,0,0,0,0,0,0,0,0,0,0,0,0,0,0,0,0,0,0,0,0,0,0,0,0,0
"Ind103","13_0_5",216,156,157,156,159,161,161,160,164,157,159,161,160,153,158,156,156,156,159,159,157,163,168,162,158,158,157,159,161,159,159,163,164,163,163,160,160,161,161,164,163,165,167,165,165,165,165,166,166,166,164,174,173,173,176,174,174,153,153,153,152,131,128,130,134,133,134,131,131,132,134,130,131,131,131,133,138,138,140,138,141,32,29,29,29,30,31,36,38,38,33,39,30,27,28,28,23,18,34,34,34,2,-1,0,0,0,0,0,0,0,0,0,0,0,0,0,0,0,0,0,0,0,0,0,0,0,0,0,0,0,0,0,0,0,0,0,0,0,0,0,0,0,0,0,0,0,0,0,0,0,0,0,0,0,0,0,0,0,0,0,0,0,0,0,0,0,0,0,0,0,0,0,0,0,0,0,0,0,0,0,0
"Ind104","13_0_3",219,161,162,161,160,164,164,163,167,160,162,162,161,156,161,159,159,159,162,162,160,166,171,165,161,161,160,160,162,160,160,164,165,164,164,161,161,162,162,165,164,166,168,166,166,166,166,167,167,167,165,177,176,176,179,177,177,156,156,156,155,134,131,133,135,136,137,134,134,135,137,133,134,134,134,136,141,141,143,141,144,27,24,24,24,25,24,29,31,31,26,34,23,24,25,25,18,13,29,29,29,7,7,-1,0,0,0,0,0,0,0,0,0,0,0,0,0,0,0,0,0,0,0,0,0,0,0,0,0,0,0,0,0,0,0,0,0,0,0,0,0,0,0,0,0,0,0,0,0,0,0,0,0,0,0,0,0,0,0,0,0,0,0,0,0,0,0,0,0,0,0,0,0,0,0,0,0,0,0,0,0
"Ind105","13_0_1",219,161,162,161,160,164,164,163,167,160,162,162,161,156,161,159,159,159,162,162,160,166,171,165,161,161,160,160,162,160,160,164,165,164,164,161,161,162,162,165,164,166,168,166,166,166,166,167,167,167,165,177,176,176,179,177,177,156,156,156,155,134,131,133,135,136,137,134,134,135,137,133,134,134,134,136,141,141,143,141,144,27,24,24,24,25,24,29,31,31,26,34,23,24,25,25,18,13,29,29,29,7,7,0,-1,0,0,0,0,0,0,0,0,0,0,0,0,0,0,0,0,0,0,0,0,0,0,0,0,0,0,0,0,0,0,0,0,0,0,0,0,0,0,0,0,0,0,0,0,0,0,0,0,0,0,0,0,0,0,0,0,0,0,0,0,0,0,0,0,0,0,0,0,0,0,0,0,0,0,0,0
"Ind106","13_0_8",219,161,162,161,160,164,164,163,167,160,162,162,161,156,161,159,159,159,162,162,160,166,171,165,161,161,160,160,162,160,160,164,165,164,164,161,161,162,162,165,164,166,168,166,166,166,166,167,167,167,165,177,176,176,179,177,177,156,156,156,155,134,131,133,135,136,137,134,134,135,137,133,134,134,134,136,141,141,143,141,144,27,24,24,24,25,24,29,31,31,26,34,23,24,25,25,18,13,29,29,29,7,7,0,0,-1,0,0,0,0,0,0,0,0,0,0,0,0,0,0,0,0,0,0,0,0,0,0,0,0,0,0,0,0,0,0,0,0,0,0,0,0,0,0,0,0,0,0,0,0,0,0,0,0,0,0,0,0,0,0,0,0,0,0,0,0,0,0,0,0,0,0,0,0,0,0,0,0,0,0,0
"Ind107","13_0_2",221,157,158,157,158,162,162,161,165,158,160,158,157,154,157,155,155,155,158,158,156,162,167,161,159,159,160,160,160,158,158,162,163,162,162,159,159,162,162,163,162,164,166,164,164,164,164,165,165,165,163,173,172,172,175,173,173,155,155,155,154,134,133,133,135,136,137,134,134,135,137,133,134,134,134,136,141,141,143,141,144,25,22,22,22,23,24,29,31,31,26,32,23,20,21,21,14,11,25,25,25,13,13,8,8,8,-1,0,0,0,0,0,0,0,0,0,0,0,0,0,0,0,0,0,0,0,0,0,0,0,0,0,0,0,0,0,0,0,0,0,0,0,0,0,0,0,0,0,0,0,0,0,0,0,0,0,0,0,0,0,0,0,0,0,0,0,0,0,0,0,0,0,0,0,0,0,0,0,0,0,0
"Ind108","13_0_4",222,156,157,156,157,161,161,160,164,157,159,157,156,153,156,154,154,154,157,157,155,161,166,160,158,158,159,159,159,157,157,161,162,161,161,158,158,161,161,162,161,163,165,163,163,163,163,164,164,164,162,172,171,171,174,172,172,154,154,154,153,133,132,132,134,135,136,133,133,134,136,132,133,133,133,135,140,140,142,140,143,26,23,23,23,24,25,30,32,32,27,33,24,21,22,22,15,12,24,24,24,14,14,9,9,9,1,-1,0,0,0,0,0,0,0,0,0,0,0,0,0,0,0,0,0,0,0,0,0,0,0,0,0,0,0,0,0,0,0,0,0,0,0,0,0,0,0,0,0,0,0,0,0,0,0,0,0,0,0,0,0,0,0,0,0,0,0,0,0,0,0,0,0,0,0,0,0,0,0,0,0
"Ind109","13_0_7",222,156,157,156,157,161,161,160,164,157,159,157,156,153,156,154,154,154,157,157,155,161,166,160,158,158,159,159,159,157,157,161,162,161,161,158,158,161,161,162,161,163,165,163,163,163,163,164,164,164,162,172,171,171,174,172,172,154,154,154,153,133,132,132,134,135,136,133,133,134,136,132,133,133,133,135,140,140,142,140,143,26,23,23,23,24,25,30,32,32,27,33,24,21,22,22,15,12,24,24,24,14,14,9,9,9,1,0,-1,0,0,0,0,0,0,0,0,0,0,0,0,0,0,0,0,0,0,0,0,0,0,0,0,0,0,0,0,0,0,0,0,0,0,0,0,0,0,0,0,0,0,0,0,0,0,0,0,0,0,0,0,0,0,0,0,0,0,0,0,0,0,0,0,0,0,0,0,0,0,0,0
"Ind110","10_0_4",224,161,162,159,162,166,166,165,169,163,165,162,161,160,163,161,161,161,162,162,162,164,169,163,162,162,163,164,164,162,162,166,167,165,165,163,163,166,166,167,166,166,168,166,166,166,166,167,167,167,165,177,176,176,179,177,177,157,157,157,156,133,132,132,133,134,135,132,132,133,135,131,132,132,132,134,139,139,141,139,142,25,22,22,22,21,24,27,29,29,28,34,23,20,21,21,14,11,24,23,23,23,23,18,18,18,14,15,15,-1,0,0,0,0,0,0,0,0,0,0,0,0,0,0,0,0,0,0,0,0,0,0,0,0,0,0,0,0,0,0,0,0,0,0,0,0,0,0,0,0,0,0,0,0,0,0,0,0,0,0,0,0,0,0,0,0,0,0,0,0,0,0,0,0,0,0,0,0,0,0,0
"Ind111","10_0_2",224,161,162,159,162,166,166,165,169,163,165,162,161,160,163,161,161,161,162,162,162,164,169,163,162,162,163,164,164,162,162,166,167,165,165,163,163,164,164,167,166,166,168,166,166,166,166,167,167,167,165,175,174,174,177,175,175,157,157,157,156,134,133,133,134,135,136,133,133,134,136,132,133,133,133,134,139,139,141,139,142,27,24,24,24,23,26,29,31,31,30,36,25,20,23,23,16,11,26,25,25,25,25,20,20,20,16,17,17,2,-1,0,0,0,0,0,0,0,0,0,0,0,0,0,0,0,0,0,0,0,0,0,0,0,0,0,0,0,0,0,0,0,0,0,0,0,0,0,0,0,0,0,0,0,0,0,0,0,0,0,0,0,0,0,0,0,0,0,0,0,0,0,0,0,0,0,0,0,0,0,0
"Ind112","10_0_9",225,163,164,161,162,168,168,164,169,163,165,162,161,158,161,161,161,161,162,162,162,165,170,164,163,163,164,165,165,163,163,167,168,166,166,164,164,167,167,168,167,167,169,167,167,167,167,168,168,168,166,178,177,177,180,178,178,159,159,159,158,132,129,131,136,137,136,135,135,136,138,134,135,135,135,137,142,142,144,142,145,27,26,26,26,25,28,31,33,33,32,38,27,24,25,25,20,17,30,29,29,27,27,22,22,22,20,21,21,8,10,-1,0,0,0,0,0,0,0,0,0,0,0,0,0,0,0,0,0,0,0,0,0,0,0,0,0,0,0,0,0,0,0,0,0,0,0,0,0,0,0,0,0,0,0,0,0,0,0,0,0,0,0,0,0,0,0,0,0,0,0,0,0,0,0,0,0,0,0,0,0
"Ind113","10_0_3",223,157,158,155,158,160,160,161,163,157,159,160,157,158,161,159,159,159,162,162,160,160,165,159,158,158,159,160,158,158,158,162,163,161,161,159,159,162,162,163,162,162,164,162,162,162,162,163,163,163,161,171,172,172,175,173,173,155,155,157,154,137,136,136,141,140,143,140,140,141,143,139,140,140,140,140,145,145,147,145,148,30,31,31,31,30,33,38,40,40,37,43,32,29,30,30,23,20,33,33,33,32,32,27,27,27,21,22,22,15,17,21,-1,0,0,0,0,0,0,0,0,0,0,0,0,0,0,0,0,0,0,0,0,0,0,0,0,0,0,0,0,0,0,0,0,0,0,0,0,0,0,0,0,0,0,0,0,0,0,0,0,0,0,0,0,0,0,0,0,0,0,0,0,0,0,0,0,0,0,0,0
"Ind114","10_0_5",224,157,158,155,158,160,160,161,163,157,159,160,157,158,161,159,159,159,162,162,160,160,165,159,158,158,159,160,158,158,158,162,163,161,161,159,159,162,162,163,162,162,164,162,162,162,162,163,163,163,161,171,172,172,175,173,173,155,155,157,154,137,136,136,141,140,143,140,140,141,143,139,140,140,140,140,145,145,147,145,148,29,30,30,30,29,32,37,39,39,36,42,31,28,29,29,22,19,32,32,32,31,31,26,26,26,20,21,21,14,16,20,1,-1,0,0,0,0,0,0,0,0,0,0,0,0,0,0,0,0,0,0,0,0,0,0,0,0,0,0,0,0,0,0,0,0,0,0,0,0,0,0,0,0,0,0,0,0,0,0,0,0,0,0,0,0,0,0,0,0,0,0,0,0,0,0,0,0,0,0,0
"Ind115","10_0_0",224,157,158,155,160,162,162,165,167,161,163,162,159,160,163,161,161,161,164,164,162,160,165,159,158,158,159,160,160,158,158,162,163,161,161,159,159,162,162,163,162,164,166,164,164,164,164,165,165,165,163,173,172,172,175,173,173,157,157,159,156,139,138,138,143,142,145,142,142,143,143,141,142,142,142,138,143,143,145,143,147,31,32,32,32,31,34,39,41,41,38,44,33,30,31,31,24,19,34,34,34,31,31,28,28,28,22,23,23,16,18,22,5,4,-1,0,0,0,0,0,0,0,0,0,0,0,0,0,0,0,0,0,0,0,0,0,0,0,0,0,0,0,0,0,0,0,0,0,0,0,0,0,0,0,0,0,0,0,0,0,0,0,0,0,0,0,0,0,0,0,0,0,0,0,0,0,0,0,0,0,0
"Ind116","10_0_7",227,154,155,152,155,157,157,162,162,156,158,157,154,157,158,156,156,156,159,159,157,157,162,158,155,155,156,157,157,155,155,159,160,158,158,156,156,159,159,160,159,163,165,163,163,163,163,164,164,164,162,170,169,169,172,170,170,154,154,156,153,134,133,133,138,139,142,139,139,140,142,138,139,139,139,137,142,142,144,142,145,30,31,31,31,30,33,38,40,40,37,43,32,29,30,30,23,20,33,33,33,32,32,27,27,27,21,22,22,15,17,21,4,3,5,-1,0,0,0,0,0,0,0,0,0,0,0,0,0,0,0,0,0,0,0,0,0,0,0,0,0,0,0,0,0,0,0,0,0,0,0,0,0,0,0,0,0,0,0,0,0,0,0,0,0,0,0,0,0,0,0,0,0,0,0,0,0,0,0,0,0
"Ind117","11_0_8",224,159,160,157,160,164,164,165,167,162,164,160,159,158,159,157,157,157,160,160,156,162,167,163,161,161,162,160,160,158,158,160,161,160,160,157,157,160,160,163,162,162,164,162,162,162,162,163,163,163,161,173,172,172,175,173,173,153,153,153,152,132,133,133,135,138,139,136,136,137,139,135,136,136,134,138,143,143,145,143,146,20,17,17,17,18,17,22,24,24,21,27,16,15,15,15,17,16,30,30,30,28,28,23,23,23,19,20,20,19,21,25,28,27,29,26,-1,0,0,0,0,0,0,0,0,0,0,0,0,0,0,0,0,0,0,0,0,0,0,0,0,0,0,0,0,0,0,0,0,0,0,0,0,0,0,0,0,0,0,0,0,0,0,0,0,0,0,0,0,0,0,0,0,0,0,0,0,0,0,0,0
"Ind118","17_0_2",228,160,161,158,161,165,165,166,168,161,163,161,160,159,160,158,158,158,161,161,157,163,168,164,162,162,163,161,161,159,159,161,162,161,161,158,158,161,161,164,163,163,165,163,163,163,163,164,164,164,162,174,173,173,176,174,174,154,152,152,153,134,135,135,135,138,139,136,136,137,137,135,136,136,134,140,145,145,147,145,148,25,22,22,22,23,22,27,29,29,26,32,21,18,20,20,22,21,35,35,35,31,31,26,26,26,22,23,23,24,26,30,33,32,34,31,7,-1,0,0,0,0,0,0,0,0,0,0,0,0,0,0,0,0,0,0,0,0,0,0,0,0,0,0,0,0,0,0,0,0,0,0,0,0,0,0,0,0,0,0,0,0,0,0,0,0,0,0,0,0,0,0,0,0,0,0,0,0,0,0,0
"Ind119","17_0_6",228,160,161,158,161,165,165,166,168,161,163,161,160,159,160,158,158,158,161,161,157,163,168,164,162,162,163,161,161,159,159,161,162,161,161,158,158,161,161,164,163,163,165,163,163,163,163,164,164,164,162,174,173,173,176,174,174,154,152,152,153,134,135,135,135,138,139,136,136,137,137,135,136,136,134,140,145,145,147,145,148,25,22,22,22,23,22,27,29,29,26,32,21,18,20,20,22,21,35,35,35,31,31,26,26,26,22,23,23,24,26,30,33,32,34,31,7,0,-1,0,0,0,0,0,0,0,0,0,0,0,0,0,0,0,0,0,0,0,0,0,0,0,0,0,0,0,0,0,0,0,0,0,0,0,0,0,0,0,0,0,0,0,0,0,0,0,0,0,0,0,0,0,0,0,0,0,0,0,0,0,0
"Ind120","17_0_5",229,155,156,153,158,162,162,164,164,158,160,158,157,156,155,155,155,155,158,158,154,162,167,163,161,161,162,160,160,158,158,160,161,160,160,157,157,160,160,163,162,162,164,162,162,162,162,163,163,163,161,171,170,170,173,171,171,153,153,153,152,131,132,132,134,137,138,135,135,136,136,134,135,135,133,135,140,140,142,140,143,30,27,27,27,28,27,32,34,34,31,37,26,23,25,25,27,26,40,40,40,36,36,31,31,31,27,28,28,29,31,35,38,37,39,36,12,9,9,-1,0,0,0,0,0,0,0,0,0,0,0,0,0,0,0,0,0,0,0,0,0,0,0,0,0,0,0,0,0,0,0,0,0,0,0,0,0,0,0,0,0,0,0,0,0,0,0,0,0,0,0,0,0,0,0,0,0,0,0,0,0
"Ind121","17_0_3",227,160,161,158,163,167,167,167,169,163,165,163,162,161,160,160,160,160,163,163,159,165,170,166,164,164,165,163,163,161,161,163,164,163,163,160,160,163,163,166,165,165,167,165,165,165,165,166,166,166,164,174,173,173,176,174,174,156,156,156,155,136,137,137,139,142,143,140,140,141,141,139,140,140,138,140,145,145,147,145,148,31,28,28,28,29,28,33,35,35,32,38,27,24,26,26,28,27,41,41,41,37,37,32,32,32,28,29,29,30,32,36,39,38,40,37,13,8,8,5,-1,0,0,0,0,0,0,0,0,0,0,0,0,0,0,0,0,0,0,0,0,0,0,0,0,0,0,0,0,0,0,0,0,0,0,0,0,0,0,0,0,0,0,0,0,0,0,0,0,0,0,0,0,0,0,0,0,0,0,0,0
"Ind122","17_0_9",227,160,161,158,161,165,165,166,168,161,163,161,160,159,160,158,158,158,161,161,157,163,168,164,161,162,163,161,161,159,159,161,162,161,161,158,158,161,161,164,163,163,165,163,163,163,163,164,164,164,162,174,173,173,176,174,174,154,154,154,153,134,135,135,137,140,141,138,138,139,139,137,138,138,136,140,145,145,147,145,148,26,23,23,23,24,23,28,30,30,27,33,22,19,21,21,23,22,36,34,34,30,30,25,25,25,23,24,24,25,27,31,34,33,35,32,8,3,3,10,9,-1,0,0,0,0,0,0,0,0,0,0,0,0,0,0,0,0,0,0,0,0,0,0,0,0,0,0,0,0,0,0,0,0,0,0,0,0,0,0,0,0,0,0,0,0,0,0,0,0,0,0,0,0,0,0,0,0,0,0,0
"Ind123","17_0_0",226,158,159,156,159,163,163,166,166,160,161,161,160,157,158,156,156,156,159,159,155,161,166,162,162,162,163,161,161,159,159,161,162,161,161,158,158,161,161,162,163,163,165,163,163,163,163,164,164,164,162,172,171,171,174,172,172,152,152,152,151,132,133,133,135,138,139,136,136,137,137,135,136,136,134,140,145,145,147,145,148,25,22,22,22,23,22,27,29,29,26,32,21,18,20,20,22,21,35,35,35,31,31,26,26,26,22,23,23,24,26,30,33,32,34,31,7,2,2,9,8,3,-1,0,0,0,0,0,0,0,0,0,0,0,0,0,0,0,0,0,0,0,0,0,0,0,0,0,0,0,0,0,0,0,0,0,0,0,0,0,0,0,0,0,0,0,0,0,0,0,0,0,0,0,0,0,0,0,0,0,0
"Ind124","13_0_9",229,158,159,156,161,165,165,166,168,159,161,159,158,158,159,157,157,157,160,160,156,161,166,162,160,160,161,159,159,157,157,159,160,159,159,156,156,159,159,161,160,160,162,160,160,160,160,161,161,161,159,171,171,171,174,172,172,153,153,153,152,134,135,135,137,140,141,138,138,139,139,137,138,138,136,140,145,145,147,145,148,29,26,26,26,27,26,31,33,33,30,36,25,22,24,24,26,25,39,39,39,35,35,30,30,30,26,27,27,27,29,33,36,35,37,34,11,6,6,13,12,7,6,-1,0,0,0,0,0,0,0,0,0,0,0,0,0,0,0,0,0,0,0,0,0,0,0,0,0,0,0,0,0,0,0,0,0,0,0,0,0,0,0,0,0,0,0,0,0,0,0,0,0,0,0,0,0,0,0,0,0
"Ind125","16_0_3",229,167,168,165,170,172,172,175,177,174,176,172,171,174,173,171,171,171,174,174,172,173,174,170,173,173,174,174,172,172,172,174,175,174,174,171,171,174,174,175,174,174,176,174,174,174,174,175,175,175,173,179,180,180,183,181,181,163,163,163,160,138,139,139,137,140,141,138,138,141,143,143,142,142,136,138,141,141,143,141,144,52,49,49,49,50,49,52,54,54,53,53,48,45,46,46,49,46,56,56,56,56,56,53,53,53,49,50,50,45,47,53,54,53,55,54,46,51,51,54,55,52,51,53,-1,0,0,0,0,0,0,0,0,0,0,0,0,0,0,0,0,0,0,0,0,0,0,0,0,0,0,0,0,0,0,0,0,0,0,0,0,0,0,0,0,0,0,0,0,0,0,0,0,0,0,0,0,0,0,0,0
"Ind126","14_0_8",228,165,166,163,168,170,170,173,175,172,174,168,167,170,171,169,169,169,172,172,170,169,172,166,171,171,172,172,170,170,170,172,173,172,172,169,169,172,172,173,172,174,176,174,174,174,174,175,175,175,173,177,178,178,181,179,179,161,161,161,158,134,135,135,135,136,137,134,134,137,139,139,138,138,132,134,137,137,139,137,140,50,47,47,47,48,47,50,52,52,51,51,46,43,44,44,47,44,54,54,54,54,54,51,51,51,47,48,48,43,45,51,52,51,53,52,44,49,49,52,53,50,49,51,4,-1,0,0,0,0,0,0,0,0,0,0,0,0,0,0,0,0,0,0,0,0,0,0,0,0,0,0,0,0,0,0,0,0,0,0,0,0,0,0,0,0,0,0,0,0,0,0,0,0,0,0,0,0,0,0,0
"Ind127","16_0_6",222,165,166,163,166,166,166,173,173,167,168,168,167,166,169,167,167,167,170,170,168,169,172,166,173,173,174,172,170,170,170,172,173,172,172,169,169,172,172,173,174,176,178,176,176,176,176,177,177,177,175,179,178,178,179,177,177,159,159,159,158,132,133,133,133,134,135,132,132,135,137,133,134,134,130,134,137,137,139,137,138,47,44,44,44,45,44,47,49,49,48,50,43,40,43,43,46,43,53,53,53,51,51,48,48,48,44,45,45,42,44,50,51,50,52,51,41,44,44,47,48,45,42,47,19,15,-1,0,0,0,0,0,0,0,0,0,0,0,0,0,0,0,0,0,0,0,0,0,0,0,0,0,0,0,0,0,0,0,0,0,0,0,0,0,0,0,0,0,0,0,0,0,0,0,0,0,0,0,0,0,0
"Ind128","14_0_6",222,164,165,162,166,168,168,173,173,168,169,165,164,163,166,164,164,164,167,167,165,168,171,163,170,170,171,169,167,167,167,167,168,167,167,164,164,169,169,168,169,173,175,173,173,173,173,174,174,174,174,174,175,175,178,176,176,156,156,156,155,137,138,138,138,139,140,137,137,140,142,138,139,139,135,141,142,142,144,142,143,49,48,48,48,49,48,49,51,51,50,54,47,44,47,47,48,47,57,57,57,57,57,54,54,54,50,51,51,46,48,54,55,54,56,55,45,50,50,53,54,51,48,52,21,17,10,-1,0,0,0,0,0,0,0,0,0,0,0,0,0,0,0,0,0,0,0,0,0,0,0,0,0,0,0,0,0,0,0,0,0,0,0,0,0,0,0,0,0,0,0,0,0,0,0,0,0,0,0,0,0
"Ind129","14_0_1",222,165,166,163,167,169,169,174,174,169,170,166,165,164,167,165,165,165,168,168,166,169,172,164,169,169,170,168,166,166,166,166,167,166,166,165,165,168,168,167,168,172,174,172,172,172,172,173,173,173,173,175,176,176,179,177,177,157,157,157,156,136,137,137,137,138,139,136,136,139,141,137,138,138,134,140,141,141,143,141,142,52,51,51,51,52,51,52,54,54,53,57,50,47,50,50,51,50,58,58,58,60,60,57,57,57,53,52,52,49,51,57,58,57,59,58,48,53,53,56,57,54,51,55,24,20,13,3,-1,0,0,0,0,0,0,0,0,0,0,0,0,0,0,0,0,0,0,0,0,0,0,0,0,0,0,0,0,0,0,0,0,0,0,0,0,0,0,0,0,0,0,0,0,0,0,0,0,0,0,0,0
"Ind130","14_0_0",222,162,163,160,164,166,166,171,171,166,167,163,162,161,164,162,162,162,165,165,163,167,170,162,168,168,169,167,165,165,165,165,166,165,165,162,162,167,167,166,167,171,173,171,171,171,171,172,172,172,172,172,173,173,176,174,174,154,154,154,153,135,136,136,136,137,138,135,135,138,140,136,137,137,133,139,140,140,142,140,143,49,48,48,48,49,48,49,51,51,50,54,47,44,47,47,48,47,55,55,55,57,57,54,54,54,50,49,49,46,48,54,55,54,56,55,45,50,50,53,54,51,48,52,23,19,12,2,3,-1,0,0,0,0,0,0,0,0,0,0,0,0,0,0,0,0,0,0,0,0,0,0,0,0,0,0,0,0,0,0,0,0,0,0,0,0,0,0,0,0,0,0,0,0,0,0,0,0,0,0,0
"Ind131","14_0_2",222,162,163,160,164,166,166,171,171,166,167,163,162,161,164,162,162,162,165,165,163,167,170,162,168,168,169,167,165,165,165,165,166,165,165,162,162,167,167,166,167,171,173,171,171,171,171,172,172,172,172,172,173,173,176,174,174,154,154,154,153,135,136,136,136,137,138,135,135,138,140,136,137,137,133,139,140,140,142,140,143,49,48,48,48,49,48,49,51,51,50,54,47,44,47,47,48,47,55,55,55,57,57,54,54,54,50,49,49,46,48,54,55,54,56,55,45,50,50,53,54,51,48,52,23,19,12,2,3,0,-1,0,0,0,0,0,0,0,0,0,0,0,0,0,0,0,0,0,0,0,0,0,0,0,0,0,0,0,0,0,0,0,0,0,0,0,0,0,0,0,0,0,0,0,0,0,0,0,0,0,0
"Ind132","16_0_7",224,164,165,162,165,167,167,172,172,168,169,165,164,165,168,166,166,166,169,169,167,167,170,164,171,171,172,170,168,168,168,170,171,170,170,167,167,170,170,169,170,174,176,174,174,174,174,175,175,175,173,175,176,176,179,177,177,158,158,158,157,131,132,132,134,137,138,135,135,138,140,136,137,137,133,137,140,140,142,140,141,48,45,45,45,46,45,48,50,50,49,51,44,39,40,40,45,42,52,52,52,52,52,49,49,49,45,46,46,41,43,47,50,49,51,50,40,45,45,48,49,46,43,47,16,12,9,11,14,13,13,-1,0,0,0,0,0,0,0,0,0,0,0,0,0,0,0,0,0,0,0,0,0,0,0,0,0,0,0,0,0,0,0,0,0,0,0,0,0,0,0,0,0,0,0,0,0,0,0,0,0
"Ind133","16_0_2",224,164,165,162,165,167,167,172,172,168,169,165,164,165,168,166,166,166,169,169,167,167,170,164,171,171,172,170,168,168,168,170,171,170,170,167,167,170,170,169,170,174,176,174,174,174,174,175,175,175,173,175,176,176,179,177,177,158,158,158,157,131,132,132,134,137,138,135,135,138,140,136,137,137,133,137,140,140,142,140,141,48,45,45,45,46,45,48,50,50,49,51,44,39,40,40,45,42,52,52,52,52,52,49,49,49,45,46,46,41,43,47,50,49,51,50,40,45,45,48,49,46,43,47,16,12,9,11,14,13,13,0,-1,0,0,0,0,0,0,0,0,0,0,0,0,0,0,0,0,0,0,0,0,0,0,0,0,0,0,0,0,0,0,0,0,0,0,0,0,0,0,0,0,0,0,0,0,0,0,0,0
"Ind134","16_0_4",224,164,165,162,165,167,167,172,172,168,169,165,164,165,168,166,166,166,169,169,167,167,170,164,171,171,172,170,168,168,168,170,171,170,170,167,167,170,170,169,170,174,176,174,174,174,174,175,175,175,173,175,176,176,179,177,177,158,158,158,157,131,132,132,134,137,138,135,135,138,140,136,137,137,133,137,140,140,142,140,141,48,45,45,45,46,45,48,50,50,49,51,44,39,40,40,45,42,52,52,52,52,52,49,49,49,45,46,46,41,43,47,50,49,51,50,40,45,45,48,49,46,43,47,16,12,9,11,14,13,13,0,0,-1,0,0,0,0,0,0,0,0,0,0,0,0,0,0,0,0,0,0,0,0,0,0,0,0,0,0,0,0,0,0,0,0,0,0,0,0,0,0,0,0,0,0,0,0,0,0,0
"Ind135","15_0_2",214,165,164,163,165,169,169,169,167,162,163,163,162,159,164,164,164,166,165,165,165,165,165,161,170,170,169,171,169,171,171,171,172,169,169,170,170,173,173,172,173,171,173,171,171,171,171,172,172,172,170,175,176,176,177,175,177,160,158,158,159,140,139,139,142,143,142,139,143,142,140,140,141,141,141,147,150,150,152,150,151,86,87,87,87,88,86,85,85,85,88,92,85,81,83,83,83,78,78,78,78,88,88,87,87,87,85,84,84,80,80,84,88,87,87,90,82,85,85,84,89,86,83,87,81,81,76,76,77,76,76,73,73,73,-1,0,0,0,0,0,0,0,0,0,0,0,0,0,0,0,0,0,0,0,0,0,0,0,0,0,0,0,0,0,0,0,0,0,0,0,0,0,0,0,0,0,0,0,0,0,0
"Ind136","11_0_6",216,176,175,174,172,176,176,178,176,171,174,168,167,160,167,167,167,167,168,168,168,171,174,170,176,176,175,172,172,172,172,172,173,172,172,173,173,174,174,174,175,175,177,175,175,175,175,176,176,176,174,180,179,179,180,178,180,174,170,172,173,152,149,151,151,155,154,151,153,150,148,148,149,149,151,151,154,154,156,154,155,92,91,89,89,90,92,91,93,93,94,98,91,89,90,90,89,86,88,90,90,92,92,89,89,89,91,92,92,89,89,91,95,94,96,97,90,93,93,92,97,92,91,95,93,90,85,87,90,89,89,84,84,84,62,-1,0,0,0,0,0,0,0,0,0,0,0,0,0,0,0,0,0,0,0,0,0,0,0,0,0,0,0,0,0,0,0,0,0,0,0,0,0,0,0,0,0,0,0,0,0
"Ind137","11_0_5",216,176,175,174,172,176,176,176,176,170,174,166,165,160,167,167,167,167,168,168,168,172,175,171,174,174,173,170,170,170,170,170,171,170,170,171,171,172,172,174,173,173,175,173,173,173,173,174,174,174,172,180,179,179,180,178,180,174,170,172,173,152,149,151,151,155,154,151,153,150,148,148,149,149,151,149,152,152,154,152,155,90,89,87,87,88,90,89,91,91,92,96,89,87,88,88,87,84,86,88,88,90,90,87,87,87,89,90,90,87,87,89,93,92,94,95,88,91,91,90,95,90,91,93,93,90,87,89,92,89,89,86,86,86,64,2,-1,0,0,0,0,0,0,0,0,0,0,0,0,0,0,0,0,0,0,0,0,0,0,0,0,0,0,0,0,0,0,0,0,0,0,0,0,0,0,0,0,0,0,0,0
"Ind138","15_0_6",221,161,160,159,162,164,164,170,166,163,164,164,161,154,161,161,161,161,162,162,160,172,173,169,174,174,175,172,168,170,170,171,172,173,173,168,168,173,173,171,172,169,169,167,167,169,169,170,170,170,168,176,177,177,178,176,176,166,164,166,163,147,146,148,147,145,146,143,143,142,142,140,141,141,142,153,156,156,158,156,159,82,81,81,81,82,78,83,83,83,82,80,77,77,78,78,78,79,85,85,85,85,85,80,80,80,82,83,83,78,78,84,84,83,87,86,78,81,81,79,82,80,79,83,87,85,80,82,83,82,82,79,79,79,69,73,73,-1,0,0,0,0,0,0,0,0,0,0,0,0,0,0,0,0,0,0,0,0,0,0,0,0,0,0,0,0,0,0,0,0,0,0,0,0,0,0,0,0,0,0,0
"Ind139","15_0_5",216,158,157,156,161,161,161,167,165,162,163,161,158,151,158,158,158,158,159,159,159,167,168,166,171,171,172,168,164,166,166,168,167,170,170,165,165,170,170,167,168,166,166,164,164,166,166,167,167,167,165,173,174,174,175,173,173,161,159,161,158,145,144,146,143,142,143,140,142,139,139,137,138,138,140,145,148,148,150,148,151,80,79,79,79,80,78,83,83,83,82,78,77,73,74,74,73,74,78,78,78,82,82,79,79,79,77,78,78,73,73,79,79,78,82,81,74,77,77,75,80,76,75,79,81,79,74,76,79,76,76,73,73,73,64,60,60,21,-1,0,0,0,0,0,0,0,0,0,0,0,0,0,0,0,0,0,0,0,0,0,0,0,0,0,0,0,0,0,0,0,0,0,0,0,0,0,0,0,0,0,0
"Ind140","15_0_9",223,158,157,156,159,163,163,167,163,160,159,161,158,155,160,160,160,160,161,161,161,165,168,166,164,164,165,162,158,160,160,162,163,162,162,159,159,164,164,164,165,163,165,163,163,163,163,164,164,164,162,170,171,171,172,170,170,157,155,157,154,137,136,138,139,137,137,136,138,137,137,135,136,136,136,145,148,148,148,148,151,79,78,78,78,79,75,80,80,80,79,79,74,74,77,77,74,75,77,77,77,83,83,78,78,78,78,79,79,73,73,77,79,78,82,79,73,76,76,74,79,75,74,78,82,80,75,77,80,77,77,74,74,74,59,61,61,26,19,-1,0,0,0,0,0,0,0,0,0,0,0,0,0,0,0,0,0,0,0,0,0,0,0,0,0,0,0,0,0,0,0,0,0,0,0,0,0,0,0,0,0
"Ind141","15_0_7",217,158,157,156,159,159,159,167,163,162,161,161,158,151,158,158,158,160,159,159,159,165,168,164,166,166,167,163,159,161,161,163,164,165,165,160,160,165,165,164,165,161,163,161,161,161,161,162,162,162,160,170,171,171,170,168,168,155,155,157,154,139,138,140,139,138,139,136,138,137,137,135,136,136,136,143,146,146,148,146,148,76,75,75,75,76,72,77,77,77,76,74,71,71,74,74,71,72,76,76,76,80,80,75,75,75,75,76,76,71,71,77,77,76,80,79,72,75,75,73,76,74,73,77,77,75,70,72,75,72,72,69,69,69,60,62,62,23,16,13,-1,0,0,0,0,0,0,0,0,0,0,0,0,0,0,0,0,0,0,0,0,0,0,0,0,0,0,0,0,0,0,0,0,0,0,0,0,0,0,0,0
"Ind142","14_0_4",221,168,166,165,162,159,159,165,165,165,163,161,160,155,160,160,160,160,159,159,161,167,170,166,170,170,171,169,167,167,167,167,168,167,167,166,166,171,171,169,170,169,171,169,169,169,169,170,170,170,168,175,174,174,175,173,175,160,158,158,161,132,131,131,130,131,130,127,129,129,131,127,128,128,127,135,138,138,140,138,141,72,71,71,71,72,70,75,75,75,74,76,69,67,68,68,61,66,66,66,66,75,75,73,73,73,69,70,70,65,67,71,75,74,74,75,66,69,69,70,75,72,69,75,71,69,62,64,65,64,64,61,61,61,50,56,56,55,46,46,43,-1,0,0,0,0,0,0,0,0,0,0,0,0,0,0,0,0,0,0,0,0,0,0,0,0,0,0,0,0,0,0,0,0,0,0,0,0,0,0,0
"Ind143","14_0_7",220,167,165,164,161,158,158,164,164,164,162,162,161,154,159,159,159,159,158,158,160,166,169,165,169,169,170,168,166,166,166,166,167,166,166,165,165,170,170,168,169,168,170,168,168,168,168,169,169,169,167,174,173,173,174,172,174,159,157,157,160,131,130,130,129,130,129,126,128,128,130,126,127,127,126,134,137,137,139,137,140,71,70,70,70,71,69,74,74,74,73,75,68,66,67,67,60,65,67,67,67,74,74,72,72,72,68,69,69,64,66,70,74,73,73,74,65,68,68,69,74,71,68,74,70,68,61,63,64,63,63,62,62,62,51,57,57,56,47,47,44,1,-1,0,0,0,0,0,0,0,0,0,0,0,0,0,0,0,0,0,0,0,0,0,0,0,0,0,0,0,0,0,0,0,0,0,0,0,0,0,0
"Ind144","14_0_9",220,167,165,164,161,158,158,164,164,163,162,160,159,154,159,159,159,159,158,158,160,166,169,165,169,169,170,168,166,166,166,166,167,166,166,165,165,170,170,167,168,168,170,168,168,168,168,169,169,169,167,174,173,173,174,172,174,159,157,157,160,133,132,132,129,132,131,128,130,129,131,127,128,128,128,133,136,136,138,136,139,72,71,71,71,72,70,75,75,75,74,74,69,67,68,68,63,66,66,66,66,75,75,73,73,73,69,70,70,65,67,71,75,74,74,75,66,69,69,70,75,72,69,75,71,69,62,64,65,64,64,61,61,61,50,56,56,55,44,47,44,4,5,-1,0,0,0,0,0,0,0,0,0,0,0,0,0,0,0,0,0,0,0,0,0,0,0,0,0,0,0,0,0,0,0,0,0,0,0,0,0
"Ind145","14_0_3",222,169,167,166,163,160,160,166,166,165,164,162,161,156,161,161,161,161,160,160,162,168,171,167,169,169,170,169,167,167,167,167,168,167,167,166,166,171,171,168,169,170,172,170,170,170,170,171,171,171,169,176,175,175,176,174,176,161,159,159,162,135,134,134,131,134,133,130,132,131,133,129,130,130,130,134,137,137,139,137,140,73,72,72,72,73,71,76,76,76,75,75,70,68,69,69,64,67,67,67,67,76,76,74,74,74,70,71,71,66,68,72,76,75,75,76,68,71,71,72,77,74,71,77,72,70,64,66,67,66,66,63,63,63,52,56,56,57,46,49,46,6,7,2,-1,0,0,0,0,0,0,0,0,0,0,0,0,0,0,0,0,0,0,0,0,0,0,0,0,0,0,0,0,0,0,0,0,0,0,0,0
"Ind146","16_0_0",221,167,166,165,163,161,161,167,167,166,165,163,162,157,162,162,162,162,161,161,163,169,172,168,172,172,173,171,169,169,169,169,170,169,169,168,168,173,173,170,171,171,173,171,171,171,171,172,172,172,170,177,176,176,177,175,177,162,160,160,163,134,133,133,130,133,132,129,131,130,132,128,129,129,129,136,139,139,141,139,142,70,69,69,69,70,68,73,73,73,72,74,67,65,66,66,61,64,64,64,64,72,72,71,71,71,67,68,68,63,65,69,73,72,70,73,64,67,67,68,73,70,67,73,69,67,60,62,63,62,62,59,59,59,46,54,54,53,44,45,42,4,5,4,6,-1,0,0,0,0,0,0,0,0,0,0,0,0,0,0,0,0,0,0,0,0,0,0,0,0,0,0,0,0,0,0,0,0,0,0,0
"Ind147","16_0_1",218,168,167,166,162,160,160,166,166,165,164,162,161,156,161,161,161,161,160,160,162,168,171,167,171,171,172,168,168,168,168,168,169,168,168,167,167,172,172,169,170,168,170,168,168,168,168,169,169,169,167,176,175,175,176,174,176,161,159,159,162,133,132,132,129,130,129,126,128,127,129,125,126,126,126,135,138,138,140,138,141,71,70,70,70,71,69,74,74,74,73,75,68,66,67,67,60,65,65,65,65,75,75,72,72,72,68,69,69,64,66,70,74,73,73,74,65,68,68,69,74,71,68,74,70,68,61,63,64,63,63,60,60,60,49,55,55,54,45,46,43,3,4,5,7,3,-1,0,0,0,0,0,0,0,0,0,0,0,0,0,0,0,0,0,0,0,0,0,0,0,0,0,0,0,0,0,0,0,0,0,0
"Ind148","16_0_8",220,167,166,165,163,161,161,167,167,166,165,163,162,155,160,160,160,160,159,159,161,169,172,168,172,172,173,171,169,169,169,169,170,169,169,166,166,171,171,170,171,171,173,171,171,171,171,172,172,172,170,177,176,176,177,175,175,160,158,158,161,132,131,131,128,131,130,127,129,128,130,126,127,127,127,134,137,137,139,137,140,68,67,67,67,68,66,71,71,71,70,72,65,63,64,64,59,62,64,64,64,72,72,69,69,69,65,66,66,61,63,67,71,70,70,71,62,65,65,66,71,68,65,71,67,65,58,60,61,60,60,57,57,57,48,54,54,51,42,43,40,4,5,4,6,2,3,-1,0,0,0,0,0,0,0,0,0,0,0,0,0,0,0,0,0,0,0,0,0,0,0,0,0,0,0,0,0,0,0,0,0
"Ind149","16_0_5",220,166,165,164,162,160,160,166,166,163,162,160,159,154,159,159,159,159,158,158,160,166,169,165,169,169,170,168,166,166,166,166,167,166,166,165,165,170,170,167,168,172,174,172,172,172,172,173,173,173,171,174,173,173,174,172,174,159,157,157,160,133,132,132,129,132,131,128,130,129,131,127,128,128,128,135,138,138,140,138,141,71,70,70,70,71,69,72,72,72,71,75,68,66,67,67,62,65,65,65,65,75,75,72,72,72,68,69,69,64,66,70,74,73,73,74,65,68,68,69,74,71,68,74,70,68,61,61,62,61,61,60,60,60,47,53,53,54,45,46,43,5,6,5,7,3,4,3,-1,0,0,0,0,0,0,0,0,0,0,0,0,0,0,0,0,0,0,0,0,0,0,0,0,0,0,0,0,0,0,0,0
"Ind150","16_0_9",223,165,166,163,165,163,163,169,169,164,163,165,164,163,166,166,166,166,165,165,167,171,172,172,172,172,173,173,171,171,171,171,172,169,169,170,170,175,175,172,173,174,176,174,174,174,174,175,175,175,171,179,178,178,179,177,179,164,164,164,165,136,135,135,134,137,136,133,135,134,134,132,133,133,133,138,141,141,143,141,144,76,75,75,75,76,74,79,79,79,78,80,73,71,72,72,67,70,70,70,70,74,74,73,73,73,69,70,70,68,70,74,76,75,73,74,67,66,66,67,72,69,66,72,73,71,62,66,67,66,66,63,63,63,52,60,60,59,50,49,50,14,15,14,16,10,13,12,13,-1,0,0,0,0,0,0,0,0,0,0,0,0,0,0,0,0,0,0,0,0,0,0,0,0,0,0,0,0,0,0,0
"Ind151","14_0_5",220,169,168,167,163,161,161,167,167,166,165,163,162,159,162,162,162,162,161,161,163,169,172,168,175,175,176,172,171,171,171,171,172,171,171,170,170,175,175,172,173,172,174,172,172,172,172,173,173,173,171,177,176,176,177,175,177,162,160,160,163,139,138,138,132,135,134,131,133,134,136,132,133,133,131,135,138,138,140,138,141,75,74,76,76,77,75,78,76,76,77,81,74,71,73,73,66,69,69,69,69,79,79,76,76,76,72,73,73,68,70,74,78,77,77,78,71,74,74,75,80,77,74,80,72,70,63,65,66,65,65,62,62,62,57,63,63,62,53,54,49,13,14,13,15,11,11,11,12,21,-1,0,0,0,0,0,0,0,0,0,0,0,0,0,0,0,0,0,0,0,0,0,0,0,0,0,0,0,0,0,0
"Ind152","9_0_4",217,164,163,162,158,158,158,164,164,161,162,158,157,152,157,157,157,157,158,158,156,164,165,163,169,169,170,166,164,164,164,164,165,164,164,165,165,168,168,165,166,165,167,165,165,165,165,166,166,166,164,172,171,171,172,170,172,158,156,156,159,139,138,137,135,138,135,134,136,135,137,133,134,134,134,141,144,144,146,144,146,75,74,74,74,75,73,78,78,78,75,75,72,70,73,73,70,71,73,73,73,79,79,76,76,76,70,71,71,70,72,74,80,79,81,80,69,72,72,73,78,75,72,78,77,75,68,70,69,70,70,67,67,67,56,64,64,59,50,51,50,22,23,20,22,20,21,20,21,30,28,-1,0,0,0,0,0,0,0,0,0,0,0,0,0,0,0,0,0,0,0,0,0,0,0,0,0,0,0,0,0
"Ind153","9_0_6",217,164,163,162,158,158,158,164,164,161,162,158,157,152,157,157,157,157,158,158,156,164,165,163,169,169,170,166,164,164,164,164,165,164,164,165,165,168,168,165,166,165,167,165,165,165,165,166,166,166,164,172,171,171,172,170,172,158,156,156,159,139,138,137,135,138,135,134,136,135,137,133,134,134,134,141,144,144,146,144,146,75,74,74,74,75,73,78,78,78,75,75,72,70,73,73,70,71,73,73,73,79,79,76,76,76,70,71,71,70,72,74,80,79,81,80,69,72,72,73,78,75,72,78,77,75,68,70,69,70,70,67,67,67,56,64,64,59,50,51,50,22,23,20,22,20,21,20,21,30,28,0,-1,0,0,0,0,0,0,0,0,0,0,0,0,0,0,0,0,0,0,0,0,0,0,0,0,0,0,0,0
"Ind154","9_0_9",219,165,164,163,159,159,159,165,165,162,163,159,158,153,158,158,158,158,159,159,157,163,164,162,168,168,169,165,163,163,163,163,164,163,163,164,164,167,167,164,165,164,166,164,164,164,164,165,165,165,163,171,170,170,171,169,171,157,155,155,158,140,139,138,136,139,136,135,137,136,138,134,135,135,135,142,145,145,147,145,147,76,75,75,75,76,74,79,79,79,76,76,73,71,74,74,71,72,74,74,74,80,80,77,77,77,71,72,72,71,73,75,81,80,82,81,70,73,73,76,79,76,73,79,76,74,69,71,70,71,71,68,68,68,57,67,67,60,53,54,53,25,26,23,25,23,24,23,24,33,31,3,3,-1,0,0,0,0,0,0,0,0,0,0,0,0,0,0,0,0,0,0,0,0,0,0,0,0,0,0,0
"Ind155","9_0_7",216,163,162,161,157,157,157,163,163,160,161,157,156,149,156,156,156,156,157,157,155,163,166,162,168,168,169,164,162,162,162,162,163,162,162,163,163,166,166,162,163,164,166,164,164,164,164,165,165,165,163,171,170,170,171,169,171,158,156,156,157,132,131,131,128,131,128,127,129,128,130,126,127,127,127,134,137,137,139,137,139,73,72,72,72,73,71,76,76,76,75,75,70,68,71,71,68,69,71,71,71,79,79,76,76,76,72,73,73,68,70,70,78,77,79,78,67,70,70,71,76,73,70,76,74,72,65,67,66,67,67,64,64,64,55,59,59,54,45,44,45,19,20,17,19,17,18,17,18,27,25,9,9,12,-1,0,0,0,0,0,0,0,0,0,0,0,0,0,0,0,0,0,0,0,0,0,0,0,0,0,0
"Ind156","9_0_2",218,162,161,160,156,156,156,162,162,159,160,156,155,150,155,155,155,155,156,156,156,162,165,161,167,167,168,164,162,162,162,162,163,162,162,163,163,166,166,163,164,163,165,163,163,163,163,164,164,164,162,170,169,169,170,168,170,157,155,155,158,133,132,132,129,132,129,128,130,129,131,127,128,128,128,135,138,138,140,138,140,69,68,68,68,69,67,72,72,72,71,71,66,64,67,67,64,65,67,67,67,75,75,72,72,72,68,69,69,64,66,68,74,73,75,74,65,68,68,69,74,71,68,74,70,68,61,63,62,63,63,60,60,60,51,57,57,52,43,44,43,15,16,13,15,13,14,13,14,23,21,7,7,10,4,-1,0,0,0,0,0,0,0,0,0,0,0,0,0,0,0,0,0,0,0,0,0,0,0,0,0
"Ind157","9_0_0",219,163,162,161,157,157,157,163,163,160,161,157,156,151,156,156,156,156,157,157,157,163,166,162,166,166,167,165,163,163,163,163,164,163,163,164,164,167,167,164,165,164,166,164,164,164,164,165,165,165,163,171,170,170,171,169,171,158,156,156,159,134,133,133,130,133,130,129,131,130,132,128,129,129,129,136,139,139,141,139,141,68,67,67,67,68,66,71,71,71,70,72,65,63,66,66,63,64,66,66,66,74,74,71,71,71,67,68,68,63,65,67,73,72,74,73,64,67,67,68,73,70,67,73,71,69,62,64,63,64,64,61,61,61,50,58,58,53,44,45,44,16,17,14,16,14,15,14,15,24,22,8,8,11,5,1,-1,0,0,0,0,0,0,0,0,0,0,0,0,0,0,0,0,0,0,0,0,0,0,0,0
"Ind158","9_0_3",219,164,163,162,158,160,160,164,164,160,162,156,155,152,157,157,157,157,158,158,158,164,167,163,165,165,166,164,162,162,162,162,163,162,162,163,163,166,166,165,164,161,163,161,161,161,161,162,162,162,160,172,171,171,172,170,172,159,157,157,160,133,132,132,131,134,131,130,132,131,133,129,130,130,130,135,138,138,140,138,140,67,66,66,66,67,65,70,70,70,69,71,64,62,65,65,62,63,65,65,65,73,73,70,70,70,66,67,67,62,64,66,72,71,73,72,63,66,66,67,72,69,68,72,70,68,63,65,64,65,65,62,62,62,51,61,59,52,45,44,43,19,20,17,19,17,18,17,18,27,25,11,11,14,8,4,3,-1,0,0,0,0,0,0,0,0,0,0,0,0,0,0,0,0,0,0,0,0,0,0,0
"Ind159","9_0_8",219,164,163,162,158,160,160,164,164,160,162,156,155,152,157,157,157,157,158,158,158,164,167,163,165,165,166,164,162,162,162,162,163,162,162,163,163,166,166,165,164,161,163,161,161,161,161,162,162,162,160,172,171,171,172,170,172,159,157,157,160,133,132,132,131,134,131,130,132,131,133,129,130,130,130,135,138,138,140,138,140,67,66,66,66,67,65,70,70,70,69,71,64,62,65,65,62,63,65,65,65,73,73,70,70,70,66,67,67,62,64,66,72,71,73,72,63,66,66,67,72,69,68,72,70,68,63,65,64,65,65,62,62,62,51,61,59,52,45,44,43,19,20,17,19,17,18,17,18,27,25,11,11,14,8,4,3,0,-1,0,0,0,0,0,0,0,0,0,0,0,0,0,0,0,0,0,0,0,0,0,0
"Ind160","9_0_1",219,164,163,162,158,160,160,164,164,160,162,156,155,152,157,157,157,157,158,158,158,164,167,163,165,165,166,164,162,162,162,162,163,162,162,163,163,166,166,165,164,161,163,161,161,161,161,162,162,162,160,172,171,171,172,170,172,159,157,157,160,133,132,132,131,134,131,130,132,131,133,129,130,130,130,135,138,138,140,138,140,67,66,66,66,67,65,70,70,70,69,71,64,62,65,65,62,63,65,65,65,73,73,70,70,70,66,67,67,62,64,66,72,71,73,72,63,66,66,67,72,69,68,72,70,68,63,65,64,65,65,62,62,62,51,61,59,52,45,44,43,19,20,17,19,17,18,17,18,27,25,11,11,14,8,4,3,0,0,-1,0,0,0,0,0,0,0,0,0,0,0,0,0,0,0,0,0,0,0,0,0
"Ind161","9_0_5",221,163,162,163,157,157,157,161,163,159,161,155,154,153,158,156,156,156,157,157,157,165,168,164,164,164,165,163,161,161,161,161,162,161,161,162,162,165,165,164,163,160,162,160,160,160,160,161,161,161,159,171,170,170,171,169,171,160,158,158,161,132,131,131,128,131,128,127,129,128,130,126,127,127,127,132,135,135,137,135,137,69,68,68,68,69,67,72,72,72,71,73,66,64,67,67,64,65,67,67,67,73,73,70,70,70,66,67,67,64,66,68,74,73,75,74,65,68,68,69,74,71,70,74,72,70,65,67,66,67,67,64,64,64,53,63,61,56,47,48,47,21,22,19,21,19,20,19,20,29,27,13,13,16,10,6,5,4,4,4,-1,0,0,0,0,0,0,0,0,0,0,0,0,0,0,0,0,0,0,0,0
"Ind162","12_0_1",219,164,163,162,156,154,154,160,160,157,158,156,155,152,155,155,155,155,156,156,158,162,165,161,165,165,166,164,162,162,162,162,163,162,162,161,161,166,166,163,164,164,166,164,164,164,164,165,165,165,163,171,170,170,171,169,171,155,153,153,156,134,133,133,128,131,130,127,129,128,130,126,127,127,127,137,140,140,140,140,142,74,69,71,71,72,72,75,75,75,76,78,71,67,70,70,65,68,68,68,68,78,78,75,75,75,71,72,72,67,67,73,77,76,78,77,68,71,71,72,77,74,71,77,73,71,64,66,67,66,66,63,63,63,54,56,56,57,48,49,46,20,21,20,22,18,19,18,19,28,25,26,26,29,23,19,20,23,23,23,25,-1,0,0,0,0,0,0,0,0,0,0,0,0,0,0,0,0,0,0,0
"Ind163","12_0_0",219,165,164,163,157,155,155,161,161,158,159,157,156,153,156,156,156,156,157,157,159,163,166,162,166,166,167,165,163,163,163,163,164,163,163,162,162,167,167,164,165,165,167,165,165,165,165,166,166,166,164,172,171,171,172,170,172,156,154,154,157,134,133,133,128,131,130,127,129,128,130,126,127,127,127,136,139,139,139,139,141,74,69,71,71,72,72,75,75,75,76,77,71,67,70,70,65,68,68,68,68,78,78,75,75,75,71,72,72,67,67,73,77,76,78,77,68,71,71,72,77,74,71,77,73,71,64,66,67,66,66,63,63,63,54,56,56,57,47,49,46,20,21,19,21,18,19,18,19,28,25,25,25,28,22,18,19,22,22,22,24,2,-1,0,0,0,0,0,0,0,0,0,0,0,0,0,0,0,0,0,0
"Ind164","12_0_8",219,165,164,163,157,155,155,161,161,158,159,157,156,153,156,156,156,156,157,157,159,163,166,162,166,166,167,165,163,163,163,163,164,163,163,162,162,167,167,164,165,165,167,165,165,165,165,166,166,166,164,172,171,171,172,170,172,156,154,154,157,134,133,133,128,131,130,127,129,128,130,126,127,127,127,136,139,139,139,139,141,74,69,71,71,72,72,75,75,75,76,77,71,67,70,70,65,68,68,68,68,78,78,75,75,75,71,72,72,67,67,73,77,76,78,77,68,71,71,72,77,74,71,77,73,71,64,66,67,66,66,63,63,63,54,56,56,57,47,49,46,20,21,19,21,18,19,18,19,28,25,25,25,28,22,18,19,22,22,22,24,2,0,-1,0,0,0,0,0,0,0,0,0,0,0,0,0,0,0,0,0
"Ind165","18_0_0",219,165,164,163,157,155,155,161,161,158,159,157,156,153,156,156,156,156,157,157,159,163,166,162,166,166,167,165,163,163,163,163,164,163,163,162,162,167,167,164,165,165,167,165,165,165,165,166,166,166,164,172,171,171,172,170,172,156,154,154,157,133,132,132,127,130,129,126,128,127,129,125,126,126,126,136,139,139,139,139,141,73,68,70,70,71,71,74,74,74,75,77,70,66,69,69,64,67,67,67,67,77,77,74,74,74,70,71,71,66,66,72,76,75,77,76,67,70,70,71,76,73,70,76,72,70,63,65,66,65,65,62,62,62,53,55,55,56,47,48,45,19,20,19,21,17,18,17,18,27,24,25,25,28,22,18,19,22,22,22,24,1,1,1,-1,0,0,0,0,0,0,0,0,0,0,0,0,0,0,0,0
"Ind166","12_0_2",221,168,167,166,160,158,158,162,164,160,162,158,157,156,159,159,159,159,160,160,162,166,169,165,167,167,168,166,164,164,164,164,163,164,164,163,163,168,168,167,166,166,168,166,166,166,166,167,167,167,165,175,174,174,175,173,175,159,157,157,160,136,135,135,130,133,132,129,131,130,132,128,129,129,129,137,140,140,140,140,142,75,70,72,72,73,73,76,76,76,77,79,72,68,71,71,66,69,69,69,69,79,79,76,76,76,72,73,73,68,68,74,78,77,79,78,69,72,72,73,78,75,74,78,72,70,65,69,70,69,69,66,66,66,57,57,55,60,49,52,49,23,24,23,25,21,22,21,22,31,28,29,29,32,26,22,23,24,24,24,26,5,5,5,4,-1,0,0,0,0,0,0,0,0,0,0,0,0,0,0,0
"Ind167","12_0_3",221,168,167,166,160,158,158,162,164,160,162,158,157,156,159,159,159,159,160,160,162,166,169,165,167,167,168,166,164,164,164,164,163,164,164,163,163,168,168,167,166,166,168,166,166,166,166,167,167,167,165,175,174,174,175,173,175,159,157,157,160,136,135,135,130,133,132,129,131,130,132,128,129,129,129,137,140,140,140,140,142,75,70,72,72,73,73,76,76,76,77,79,72,68,71,71,66,69,69,69,69,79,79,76,76,76,72,73,73,68,68,74,78,77,79,78,69,72,72,73,78,75,74,78,72,70,65,69,70,69,69,66,66,66,57,57,55,60,49,52,49,23,24,23,25,21,22,21,22,31,28,29,29,32,26,22,23,24,24,24,26,5,5,5,4,0,-1,0,0,0,0,0,0,0,0,0,0,0,0,0,0
"Ind168","18_0_4",218,162,161,160,154,152,152,158,158,155,156,154,153,150,153,153,153,153,154,154,156,160,163,159,163,163,164,162,160,160,160,160,161,160,160,159,159,164,164,161,162,162,164,162,162,162,162,163,163,163,161,169,168,168,169,167,169,153,151,151,154,132,131,131,128,131,130,127,129,128,130,126,127,127,127,135,138,138,138,138,140,70,65,67,67,68,68,71,71,71,72,74,67,65,68,68,63,64,64,64,64,74,74,71,71,71,67,68,68,63,63,69,73,72,74,73,64,67,67,68,73,70,67,73,71,69,62,64,65,64,64,61,61,61,54,56,56,57,48,49,46,20,21,20,22,18,19,18,19,28,25,26,26,29,23,19,20,23,23,23,25,4,4,4,3,7,7,-1,0,0,0,0,0,0,0,0,0,0,0,0,0
"Ind169","18_0_7",219,163,162,161,155,153,153,159,159,156,157,155,154,151,154,154,154,154,155,155,157,161,164,160,164,164,165,163,161,161,161,161,162,161,161,160,160,165,165,162,163,163,165,163,163,163,163,164,164,164,162,170,169,169,170,168,170,154,152,152,155,131,130,130,127,130,129,126,128,127,129,125,126,126,126,134,137,137,137,137,139,71,66,68,68,69,69,72,72,72,73,75,68,64,67,67,64,65,65,65,65,75,75,72,72,72,68,69,69,64,64,70,74,73,75,74,65,68,68,69,74,71,68,74,70,68,61,63,64,63,63,60,60,60,53,55,55,56,47,48,45,19,20,19,21,17,18,17,18,27,24,25,25,28,22,18,19,22,22,22,24,3,3,3,2,6,6,1,-1,0,0,0,0,0,0,0,0,0,0,0,0
"Ind170","18_0_1",219,163,162,161,155,153,153,159,159,156,157,155,154,151,154,154,154,154,155,155,157,161,164,160,164,164,165,163,161,161,161,161,162,161,161,160,160,165,165,162,163,163,165,163,163,163,163,164,164,164,162,170,169,169,170,168,170,154,152,152,155,131,130,130,127,130,129,126,128,127,129,125,126,126,126,134,137,137,137,137,139,71,66,68,68,69,69,72,72,72,73,75,68,64,67,67,64,65,65,65,65,75,75,72,72,72,68,69,69,64,64,70,74,73,75,74,65,68,68,69,74,71,68,74,70,68,61,63,64,63,63,60,60,60,53,55,55,56,47,48,45,19,20,19,21,17,18,17,18,27,24,25,25,28,22,18,19,22,22,22,24,3,3,3,2,6,6,1,0,-1,0,0,0,0,0,0,0,0,0,0,0
"Ind171","18_0_3",220,162,161,160,154,152,152,158,158,155,156,154,153,150,153,153,153,153,154,154,156,160,163,159,165,165,166,164,162,162,162,162,163,162,162,161,161,166,166,163,164,164,166,164,164,164,164,165,165,165,163,169,168,168,169,167,169,153,151,151,154,130,129,129,126,129,128,125,127,126,128,124,125,125,125,133,136,136,136,136,138,72,67,69,69,70,70,71,71,71,72,76,69,65,68,68,65,66,66,66,66,76,76,73,73,73,69,70,70,65,65,71,75,74,76,75,66,69,69,70,75,72,69,75,71,69,62,64,65,64,64,61,61,61,54,56,56,57,48,49,46,20,21,20,22,18,19,18,19,28,23,26,26,29,23,19,20,23,23,23,25,4,4,4,3,7,7,2,1,1,-1,0,0,0,0,0,0,0,0,0,0
"Ind172","18_0_2",218,164,163,162,156,154,154,160,160,159,160,156,155,150,155,155,155,155,156,156,158,160,163,159,163,163,164,162,160,160,160,160,161,160,160,159,159,164,164,161,162,162,164,162,162,162,162,163,163,163,161,169,168,168,169,167,169,155,153,153,156,130,129,129,126,129,128,125,127,126,126,124,125,125,125,131,134,134,136,134,136,72,69,69,69,70,70,73,75,75,74,76,69,65,68,68,65,64,66,66,66,76,76,73,73,73,69,70,70,65,65,71,75,74,74,75,66,69,69,70,75,72,69,75,71,69,62,64,65,64,64,61,61,61,48,52,52,53,46,47,44,18,19,18,20,16,17,16,17,26,25,24,24,25,21,17,18,21,21,21,23,6,6,6,5,9,9,6,5,5,6,-1,0,0,0,0,0,0,0,0,0
"Ind173","18_0_5",219,163,162,161,155,153,153,159,159,158,159,155,154,149,154,154,154,154,155,155,157,161,164,160,164,164,165,163,161,161,161,161,162,161,161,160,160,165,165,162,163,163,165,163,163,163,163,164,164,164,162,170,169,169,170,168,170,154,152,152,155,129,128,128,125,128,127,124,126,125,127,123,124,124,124,132,135,135,137,135,137,71,68,68,68,69,69,72,74,74,73,75,68,64,67,67,64,65,65,65,65,75,75,72,72,72,68,69,69,64,64,70,74,73,75,74,65,68,68,69,74,71,68,74,70,68,61,63,64,63,63,60,60,60,49,53,53,52,45,46,43,17,18,17,19,15,16,15,16,25,24,23,23,24,20,16,17,20,20,20,22,5,5,5,4,8,8,5,4,4,5,1,-1,0,0,0,0,0,0,0,0
"Ind174","12_0_9",220,168,165,164,162,156,156,166,166,163,164,158,157,154,159,155,155,155,156,156,156,167,169,165,169,169,170,166,166,166,166,166,167,166,166,165,165,170,170,165,166,168,170,168,168,168,168,169,169,169,167,172,173,173,174,172,174,159,157,157,160,134,133,133,128,131,130,127,129,128,130,126,127,127,127,135,138,138,140,138,140,79,78,78,78,79,77,80,80,80,81,83,76,72,75,75,72,73,75,75,75,81,81,80,80,80,76,77,77,72,72,78,82,81,83,82,73,76,76,77,80,79,76,81,72,72,67,67,68,67,67,64,64,64,53,63,63,62,51,54,49,24,25,24,26,23,22,23,22,33,31,31,31,34,28,24,25,28,28,28,28,25,25,25,24,28,28,25,24,24,25,23,22,-1,0,0,0,0,0,0,0
"Ind175","12_0_6",220,168,165,164,162,156,156,166,166,163,164,158,157,154,159,155,155,155,156,156,156,167,169,165,169,169,170,166,166,166,166,166,167,166,166,165,165,170,170,165,166,168,170,168,168,168,168,169,169,169,167,172,173,173,174,172,174,159,157,157,160,134,133,133,128,131,130,127,129,128,130,126,127,127,127,135,138,138,140,138,140,79,78,78,78,79,77,80,80,80,81,83,76,72,75,75,72,73,75,75,75,81,81,80,80,80,76,77,77,72,72,78,82,81,83,82,73,76,76,77,80,79,76,81,72,72,67,67,68,67,67,64,64,64,53,63,63,62,51,54,49,24,25,24,26,23,22,23,22,33,31,31,31,34,28,24,25,28,28,28,28,25,25,25,24,28,28,25,24,24,25,23,22,0,-1,0,0,0,0,0,0
"Ind176","12_0_7",221,167,164,163,161,155,155,165,165,162,163,157,156,155,158,154,154,154,155,155,155,166,168,164,168,168,169,165,165,165,165,165,166,165,165,164,164,169,169,164,165,167,169,167,167,167,167,168,168,168,166,171,172,172,173,171,173,158,156,156,159,135,134,134,129,132,131,128,130,129,131,127,128,128,128,136,139,139,141,139,141,80,77,79,79,80,78,81,79,79,82,84,77,73,76,76,73,74,76,76,76,82,82,81,81,81,77,78,78,73,73,79,83,82,84,83,74,77,77,78,81,80,77,82,73,73,68,68,69,68,68,65,65,65,54,64,64,63,52,55,50,25,26,25,27,24,23,24,23,34,30,32,32,35,29,25,26,29,29,29,29,24,24,24,23,27,27,24,23,23,24,24,23,1,1,-1,0,0,0,0,0
"Ind177","12_0_4",220,168,165,164,162,156,156,166,166,163,164,158,157,154,159,155,155,155,156,156,156,167,169,165,169,169,170,166,166,166,166,166,167,166,166,165,165,170,170,165,166,168,170,168,168,168,168,169,169,169,167,172,173,173,174,172,174,159,157,157,160,133,132,132,127,130,129,126,128,127,129,125,126,126,126,134,137,137,139,137,139,80,79,79,79,80,78,81,81,81,82,84,77,73,76,76,73,74,76,76,76,82,82,81,81,81,77,78,78,73,73,79,83,82,84,83,72,77,77,78,81,80,77,82,73,73,68,68,69,68,68,65,65,65,54,64,64,63,52,55,50,25,26,25,27,24,23,24,23,34,32,32,32,35,29,25,26,29,29,29,29,26,26,26,25,29,29,26,25,25,26,24,23,1,1,2,-1,0,0,0,0
"Ind178","12_0_5",220,168,165,164,162,156,156,166,166,163,164,158,157,154,159,155,155,155,156,156,156,167,169,165,169,169,170,166,166,166,166,166,167,166,166,165,165,170,170,165,166,168,170,168,168,168,168,169,169,169,167,172,173,173,174,172,174,159,157,157,160,134,133,133,128,131,130,127,129,128,130,126,127,127,127,135,138,138,140,138,140,79,78,78,78,79,77,80,80,80,81,83,76,72,75,75,72,73,75,75,75,81,81,80,80,80,76,77,77,72,72,78,82,81,83,82,73,76,76,77,80,79,76,81,72,72,67,67,68,67,67,64,64,64,53,63,63,62,51,54,49,24,25,24,26,23,22,23,22,33,31,31,31,34,28,24,25,28,28,28,28,25,25,25,24,28,28,25,24,24,25,23,22,0,0,1,1,-1,0,0,0
"Ind179","18_0_9",232,165,164,163,158,154,154,166,164,164,167,155,154,151,152,152,152,152,153,153,153,159,162,160,170,170,171,169,167,167,167,167,168,167,167,168,168,171,171,166,167,171,173,171,171,171,171,172,172,172,170,172,171,171,172,170,172,156,154,154,161,136,135,135,130,133,132,129,131,130,132,132,131,131,129,139,142,142,144,142,146,84,83,83,83,84,82,83,83,83,84,88,81,80,83,83,79,80,80,80,80,90,90,87,87,87,83,84,84,79,79,85,89,88,90,87,78,81,81,82,87,84,81,86,80,78,77,75,76,75,75,74,74,74,67,65,65,64,59,60,59,33,34,33,35,31,32,31,30,39,38,39,39,42,36,32,33,36,36,36,38,31,31,31,30,34,34,30,30,30,29,29,28,28,28,29,29,28,-1,0,0
"Ind180","18_0_8",230,165,164,163,158,154,154,166,164,162,165,155,154,149,152,152,152,152,153,153,155,159,162,160,168,168,169,167,165,165,165,165,166,165,165,166,166,169,169,164,165,171,173,171,171,171,171,172,172,172,170,172,171,171,172,170,172,156,154,154,161,136,135,135,130,133,132,129,131,130,132,130,129,129,129,139,142,142,144,142,144,84,83,83,83,84,82,83,83,83,84,88,81,78,81,81,77,78,78,78,78,88,88,85,85,85,81,82,82,77,77,83,87,86,88,85,76,79,79,80,85,82,79,84,80,78,75,73,74,73,73,72,72,72,65,63,63,62,57,58,57,31,32,31,33,29,30,29,28,37,36,37,37,40,34,30,31,34,34,34,36,29,29,29,28,32,32,28,28,28,27,27,26,26,26,27,27,26,2,-1,0
"Ind181","18_0_6",230,165,164,163,158,154,154,166,164,162,165,155,154,149,152,152,152,152,153,153,155,159,162,160,168,168,169,167,165,165,165,165,166,165,165,166,166,169,169,164,165,171,173,171,171,171,171,172,172,172,170,172,171,171,172,170,172,156,154,154,161,136,135,135,130,133,132,129,131,130,132,130,129,129,129,139,142,142,144,142,144,84,83,83,83,84,82,83,83,83,84,88,81,78,81,81,77,78,78,78,78,88,88,85,85,85,81,82,82,77,77,83,87,86,88,85,76,79,79,80,85,82,79,84,80,78,75,73,74,73,73,72,72,72,65,63,63,62,57,58,57,31,32,31,33,29,30,29,28,37,36,37,37,40,34,30,31,34,34,34,36,29,29,29,28,32,32,28,28,28,27,27,26,26,26,27,27,26,2,0,-1
