"","Description","Ind1","Ind2","Ind3","Ind4","Ind5","Ind6","Ind7","Ind8","Ind9","Ind10","Ind11","Ind12","Ind13","Ind14","Ind15","Ind16","Ind17","Ind18","Ind19","Ind20","Ind21","Ind22","Ind23","Ind24","Ind25","Ind26","Ind27","Ind28","Ind29","Ind30","Ind31","Ind32","Ind33","Ind34","Ind35","Ind36","Ind37","Ind38","Ind39","Ind40","Ind41","Ind42","Ind43","Ind44","Ind45","Ind46","Ind47","Ind48","Ind49","Ind50","Ind51","Ind52","Ind53","Ind54","Ind55","Ind56","Ind57","Ind58","Ind59","Ind60","Ind61","Ind62","Ind63","Ind64","Ind65","Ind66","Ind67","Ind68","Ind69","Ind70","Ind71","Ind72","Ind73","Ind74","Ind75","Ind76","Ind77","Ind78","Ind79","Ind80","Ind81","Ind82","Ind83","Ind84","Ind85","Ind86"
"Ind1","0_0_0",-1,0,0,0,0,0,0,0,0,0,0,0,0,0,0,0,0,0,0,0,0,0,0,0,0,0,0,0,0,0,0,0,0,0,0,0,0,0,0,0,0,0,0,0,0,0,0,0,0,0,0,0,0,0,0,0,0,0,0,0,0,0,0,0,0,0,0,0,0,0,0,0,0,0,0,0,0,0,0,0,0,0,0,0,0,0
"Ind2","4_0_10",287,-1,0,0,0,0,0,0,0,0,0,0,0,0,0,0,0,0,0,0,0,0,0,0,0,0,0,0,0,0,0,0,0,0,0,0,0,0,0,0,0,0,0,0,0,0,0,0,0,0,0,0,0,0,0,0,0,0,0,0,0,0,0,0,0,0,0,0,0,0,0,0,0,0,0,0,0,0,0,0,0,0,0,0,0,0
"Ind3","4_0_12",287,0,-1,0,0,0,0,0,0,0,0,0,0,0,0,0,0,0,0,0,0,0,0,0,0,0,0,0,0,0,0,0,0,0,0,0,0,0,0,0,0,0,0,0,0,0,0,0,0,0,0,0,0,0,0,0,0,0,0,0,0,0,0,0,0,0,0,0,0,0,0,0,0,0,0,0,0,0,0,0,0,0,0,0,0,0
"Ind4","4_0_2",286,2,2,-1,0,0,0,0,0,0,0,0,0,0,0,0,0,0,0,0,0,0,0,0,0,0,0,0,0,0,0,0,0,0,0,0,0,0,0,0,0,0,0,0,0,0,0,0,0,0,0,0,0,0,0,0,0,0,0,0,0,0,0,0,0,0,0,0,0,0,0,0,0,0,0,0,0,0,0,0,0,0,0,0,0,0
"Ind5","4_0_15",287,0,0,2,-1,0,0,0,0,0,0,0,0,0,0,0,0,0,0,0,0,0,0,0,0,0,0,0,0,0,0,0,0,0,0,0,0,0,0,0,0,0,0,0,0,0,0,0,0,0,0,0,0,0,0,0,0,0,0,0,0,0,0,0,0,0,0,0,0,0,0,0,0,0,0,0,0,0,0,0,0,0,0,0,0,0
"Ind6","4_0_3",281,18,18,20,18,-1,0,0,0,0,0,0,0,0,0,0,0,0,0,0,0,0,0,0,0,0,0,0,0,0,0,0,0,0,0,0,0,0,0,0,0,0,0,0,0,0,0,0,0,0,0,0,0,0,0,0,0,0,0,0,0,0,0,0,0,0,0,0,0,0,0,0,0,0,0,0,0,0,0,0,0,0,0,0,0,0
"Ind7","4_0_5",281,18,18,20,18,0,-1,0,0,0,0,0,0,0,0,0,0,0,0,0,0,0,0,0,0,0,0,0,0,0,0,0,0,0,0,0,0,0,0,0,0,0,0,0,0,0,0,0,0,0,0,0,0,0,0,0,0,0,0,0,0,0,0,0,0,0,0,0,0,0,0,0,0,0,0,0,0,0,0,0,0,0,0,0,0,0
"Ind8","4_0_8",281,19,19,21,19,2,2,-1,0,0,0,0,0,0,0,0,0,0,0,0,0,0,0,0,0,0,0,0,0,0,0,0,0,0,0,0,0,0,0,0,0,0,0,0,0,0,0,0,0,0,0,0,0,0,0,0,0,0,0,0,0,0,0,0,0,0,0,0,0,0,0,0,0,0,0,0,0,0,0,0,0,0,0,0,0,0
"Ind9","4_0_11",284,23,23,25,23,7,7,8,-1,0,0,0,0,0,0,0,0,0,0,0,0,0,0,0,0,0,0,0,0,0,0,0,0,0,0,0,0,0,0,0,0,0,0,0,0,0,0,0,0,0,0,0,0,0,0,0,0,0,0,0,0,0,0,0,0,0,0,0,0,0,0,0,0,0,0,0,0,0,0,0,0,0,0,0,0,0
"Ind10","4_0_16",282,19,19,21,19,3,3,4,4,-1,0,0,0,0,0,0,0,0,0,0,0,0,0,0,0,0,0,0,0,0,0,0,0,0,0,0,0,0,0,0,0,0,0,0,0,0,0,0,0,0,0,0,0,0,0,0,0,0,0,0,0,0,0,0,0,0,0,0,0,0,0,0,0,0,0,0,0,0,0,0,0,0,0,0,0,0
"Ind11","4_0_7",283,22,22,24,22,6,6,7,7,3,-1,0,0,0,0,0,0,0,0,0,0,0,0,0,0,0,0,0,0,0,0,0,0,0,0,0,0,0,0,0,0,0,0,0,0,0,0,0,0,0,0,0,0,0,0,0,0,0,0,0,0,0,0,0,0,0,0,0,0,0,0,0,0,0,0,0,0,0,0,0,0,0,0,0,0,0
"Ind12","4_0_13",284,25,25,27,25,9,9,10,10,6,5,-1,0,0,0,0,0,0,0,0,0,0,0,0,0,0,0,0,0,0,0,0,0,0,0,0,0,0,0,0,0,0,0,0,0,0,0,0,0,0,0,0,0,0,0,0,0,0,0,0,0,0,0,0,0,0,0,0,0,0,0,0,0,0,0,0,0,0,0,0,0,0,0,0,0,0
"Ind13","4_0_1",284,25,25,27,25,9,9,10,10,6,5,0,-1,0,0,0,0,0,0,0,0,0,0,0,0,0,0,0,0,0,0,0,0,0,0,0,0,0,0,0,0,0,0,0,0,0,0,0,0,0,0,0,0,0,0,0,0,0,0,0,0,0,0,0,0,0,0,0,0,0,0,0,0,0,0,0,0,0,0,0,0,0,0,0,0,0
"Ind14","4_0_14",281,21,21,23,21,7,7,8,10,6,7,10,10,-1,0,0,0,0,0,0,0,0,0,0,0,0,0,0,0,0,0,0,0,0,0,0,0,0,0,0,0,0,0,0,0,0,0,0,0,0,0,0,0,0,0,0,0,0,0,0,0,0,0,0,0,0,0,0,0,0,0,0,0,0,0,0,0,0,0,0,0,0,0,0,0,0
"Ind15","4_0_4",281,21,21,23,21,7,7,8,10,6,7,10,10,0,-1,0,0,0,0,0,0,0,0,0,0,0,0,0,0,0,0,0,0,0,0,0,0,0,0,0,0,0,0,0,0,0,0,0,0,0,0,0,0,0,0,0,0,0,0,0,0,0,0,0,0,0,0,0,0,0,0,0,0,0,0,0,0,0,0,0,0,0,0,0,0,0
"Ind16","4_0_6",281,21,21,23,21,7,7,8,10,6,7,10,10,0,0,-1,0,0,0,0,0,0,0,0,0,0,0,0,0,0,0,0,0,0,0,0,0,0,0,0,0,0,0,0,0,0,0,0,0,0,0,0,0,0,0,0,0,0,0,0,0,0,0,0,0,0,0,0,0,0,0,0,0,0,0,0,0,0,0,0,0,0,0,0,0,0
"Ind17","4_0_9",281,21,21,23,21,7,7,8,10,6,7,10,10,0,0,0,-1,0,0,0,0,0,0,0,0,0,0,0,0,0,0,0,0,0,0,0,0,0,0,0,0,0,0,0,0,0,0,0,0,0,0,0,0,0,0,0,0,0,0,0,0,0,0,0,0,0,0,0,0,0,0,0,0,0,0,0,0,0,0,0,0,0,0,0,0,0
"Ind18","4_0_0",279,34,34,36,34,31,31,32,34,30,33,36,36,34,34,34,34,-1,0,0,0,0,0,0,0,0,0,0,0,0,0,0,0,0,0,0,0,0,0,0,0,0,0,0,0,0,0,0,0,0,0,0,0,0,0,0,0,0,0,0,0,0,0,0,0,0,0,0,0,0,0,0,0,0,0,0,0,0,0,0,0,0,0,0,0,0
"Ind19","3_0_6",283,130,130,131,130,129,129,130,126,126,125,125,125,122,122,122,122,122,-1,0,0,0,0,0,0,0,0,0,0,0,0,0,0,0,0,0,0,0,0,0,0,0,0,0,0,0,0,0,0,0,0,0,0,0,0,0,0,0,0,0,0,0,0,0,0,0,0,0,0,0,0,0,0,0,0,0,0,0,0,0,0,0,0,0,0,0
"Ind20","3_0_7",280,132,132,133,132,133,133,134,130,132,131,132,132,126,126,126,126,124,19,-1,0,0,0,0,0,0,0,0,0,0,0,0,0,0,0,0,0,0,0,0,0,0,0,0,0,0,0,0,0,0,0,0,0,0,0,0,0,0,0,0,0,0,0,0,0,0,0,0,0,0,0,0,0,0,0,0,0,0,0,0,0,0,0,0,0,0
"Ind21","3_0_0",284,129,129,130,129,130,130,131,129,131,130,131,131,125,125,125,125,123,18,7,-1,0,0,0,0,0,0,0,0,0,0,0,0,0,0,0,0,0,0,0,0,0,0,0,0,0,0,0,0,0,0,0,0,0,0,0,0,0,0,0,0,0,0,0,0,0,0,0,0,0,0,0,0,0,0,0,0,0,0,0,0,0,0,0,0,0
"Ind22","3_0_8",283,129,129,130,129,130,130,131,127,129,128,129,129,123,123,123,123,121,15,6,5,-1,0,0,0,0,0,0,0,0,0,0,0,0,0,0,0,0,0,0,0,0,0,0,0,0,0,0,0,0,0,0,0,0,0,0,0,0,0,0,0,0,0,0,0,0,0,0,0,0,0,0,0,0,0,0,0,0,0,0,0,0,0,0,0,0
"Ind23","3_0_9",283,129,129,130,129,130,130,131,127,129,128,129,129,123,123,123,123,121,15,6,5,0,-1,0,0,0,0,0,0,0,0,0,0,0,0,0,0,0,0,0,0,0,0,0,0,0,0,0,0,0,0,0,0,0,0,0,0,0,0,0,0,0,0,0,0,0,0,0,0,0,0,0,0,0,0,0,0,0,0,0,0,0,0,0,0,0
"Ind24","3_0_15",282,128,128,129,128,131,131,132,128,130,129,130,130,124,124,124,124,121,16,7,6,3,3,-1,0,0,0,0,0,0,0,0,0,0,0,0,0,0,0,0,0,0,0,0,0,0,0,0,0,0,0,0,0,0,0,0,0,0,0,0,0,0,0,0,0,0,0,0,0,0,0,0,0,0,0,0,0,0,0,0,0,0,0,0,0,0
"Ind25","3_0_16",283,128,128,129,128,131,131,132,128,130,129,130,130,124,124,124,124,120,17,8,7,4,4,3,-1,0,0,0,0,0,0,0,0,0,0,0,0,0,0,0,0,0,0,0,0,0,0,0,0,0,0,0,0,0,0,0,0,0,0,0,0,0,0,0,0,0,0,0,0,0,0,0,0,0,0,0,0,0,0,0,0,0,0,0,0,0
"Ind26","3_0_13",283,127,127,128,127,130,130,131,127,129,128,129,129,123,123,123,123,119,16,7,6,3,3,2,1,-1,0,0,0,0,0,0,0,0,0,0,0,0,0,0,0,0,0,0,0,0,0,0,0,0,0,0,0,0,0,0,0,0,0,0,0,0,0,0,0,0,0,0,0,0,0,0,0,0,0,0,0,0,0,0,0,0,0,0,0,0
"Ind27","3_0_14",283,127,127,128,127,128,128,129,125,127,126,126,126,123,123,123,123,121,12,15,14,11,11,12,13,12,-1,0,0,0,0,0,0,0,0,0,0,0,0,0,0,0,0,0,0,0,0,0,0,0,0,0,0,0,0,0,0,0,0,0,0,0,0,0,0,0,0,0,0,0,0,0,0,0,0,0,0,0,0,0,0,0,0,0,0,0
"Ind28","3_0_10",286,126,126,127,126,127,127,128,124,126,125,125,125,124,124,124,124,122,14,17,16,13,13,14,15,14,6,-1,0,0,0,0,0,0,0,0,0,0,0,0,0,0,0,0,0,0,0,0,0,0,0,0,0,0,0,0,0,0,0,0,0,0,0,0,0,0,0,0,0,0,0,0,0,0,0,0,0,0,0,0,0,0,0,0,0,0
"Ind29","3_0_1",285,124,124,125,124,125,125,126,122,124,123,124,124,120,120,120,120,120,14,18,17,14,14,15,16,15,8,10,-1,0,0,0,0,0,0,0,0,0,0,0,0,0,0,0,0,0,0,0,0,0,0,0,0,0,0,0,0,0,0,0,0,0,0,0,0,0,0,0,0,0,0,0,0,0,0,0,0,0,0,0,0,0,0,0,0,0
"Ind30","3_0_2",285,124,124,125,124,125,125,126,122,124,123,124,124,120,120,120,120,120,14,18,17,14,14,15,16,15,8,10,0,-1,0,0,0,0,0,0,0,0,0,0,0,0,0,0,0,0,0,0,0,0,0,0,0,0,0,0,0,0,0,0,0,0,0,0,0,0,0,0,0,0,0,0,0,0,0,0,0,0,0,0,0,0,0,0,0,0
"Ind31","3_0_4",283,124,124,125,124,123,123,124,120,122,121,122,122,118,118,118,118,120,14,18,17,14,14,15,16,15,8,10,2,2,-1,0,0,0,0,0,0,0,0,0,0,0,0,0,0,0,0,0,0,0,0,0,0,0,0,0,0,0,0,0,0,0,0,0,0,0,0,0,0,0,0,0,0,0,0,0,0,0,0,0,0,0,0,0,0,0
"Ind32","3_0_5",284,123,123,124,123,124,124,125,121,123,122,123,123,119,119,119,119,119,13,17,16,13,13,14,15,14,7,9,1,1,1,-1,0,0,0,0,0,0,0,0,0,0,0,0,0,0,0,0,0,0,0,0,0,0,0,0,0,0,0,0,0,0,0,0,0,0,0,0,0,0,0,0,0,0,0,0,0,0,0,0,0,0,0,0,0,0
"Ind33","3_0_12",284,123,123,124,123,124,124,125,121,123,122,123,123,119,119,119,119,119,13,16,15,12,12,13,14,13,5,7,3,3,3,2,-1,0,0,0,0,0,0,0,0,0,0,0,0,0,0,0,0,0,0,0,0,0,0,0,0,0,0,0,0,0,0,0,0,0,0,0,0,0,0,0,0,0,0,0,0,0,0,0,0,0,0,0,0,0
"Ind34","3_0_11",284,123,123,124,123,124,124,125,121,123,122,123,123,119,119,119,119,119,13,16,15,12,12,13,14,13,5,7,3,3,3,2,0,-1,0,0,0,0,0,0,0,0,0,0,0,0,0,0,0,0,0,0,0,0,0,0,0,0,0,0,0,0,0,0,0,0,0,0,0,0,0,0,0,0,0,0,0,0,0,0,0,0,0,0,0,0
"Ind35","3_0_3",284,123,123,124,123,124,124,125,121,123,122,123,123,120,120,120,120,119,14,17,16,13,13,14,15,14,6,7,4,4,4,3,1,1,-1,0,0,0,0,0,0,0,0,0,0,0,0,0,0,0,0,0,0,0,0,0,0,0,0,0,0,0,0,0,0,0,0,0,0,0,0,0,0,0,0,0,0,0,0,0,0,0,0,0,0,0
"Ind36","5_0_8",304,203,203,204,203,206,206,207,205,203,206,203,203,202,202,202,202,191,178,179,181,180,180,180,178,178,177,179,180,180,182,181,180,180,181,-1,0,0,0,0,0,0,0,0,0,0,0,0,0,0,0,0,0,0,0,0,0,0,0,0,0,0,0,0,0,0,0,0,0,0,0,0,0,0,0,0,0,0,0,0,0,0,0,0,0,0
"Ind37","5_0_11",304,203,203,204,203,206,206,207,205,203,206,203,203,202,202,202,202,191,178,179,181,180,180,180,178,178,177,179,180,180,182,181,180,180,181,0,-1,0,0,0,0,0,0,0,0,0,0,0,0,0,0,0,0,0,0,0,0,0,0,0,0,0,0,0,0,0,0,0,0,0,0,0,0,0,0,0,0,0,0,0,0,0,0,0,0,0
"Ind38","5_0_1",304,203,203,204,203,206,206,207,205,203,206,203,203,202,202,202,202,191,178,179,181,180,180,180,178,178,177,179,180,180,182,181,180,180,181,0,0,-1,0,0,0,0,0,0,0,0,0,0,0,0,0,0,0,0,0,0,0,0,0,0,0,0,0,0,0,0,0,0,0,0,0,0,0,0,0,0,0,0,0,0,0,0,0,0,0,0
"Ind39","5_0_6",304,203,203,204,203,206,206,207,205,203,206,203,203,202,202,202,202,191,178,179,181,180,180,180,178,178,177,179,180,180,182,181,180,180,181,0,0,0,-1,0,0,0,0,0,0,0,0,0,0,0,0,0,0,0,0,0,0,0,0,0,0,0,0,0,0,0,0,0,0,0,0,0,0,0,0,0,0,0,0,0,0,0,0,0,0,0
"Ind40","5_0_12",304,203,203,204,203,206,206,207,205,203,206,203,203,202,202,202,202,191,178,179,181,180,180,180,178,178,177,179,180,180,182,181,180,180,181,0,0,0,0,-1,0,0,0,0,0,0,0,0,0,0,0,0,0,0,0,0,0,0,0,0,0,0,0,0,0,0,0,0,0,0,0,0,0,0,0,0,0,0,0,0,0,0,0,0,0,0
"Ind41","5_0_2",304,203,203,204,203,206,206,207,205,203,206,203,203,202,202,202,202,191,178,179,181,180,180,180,178,178,177,179,180,180,182,181,180,180,181,0,0,0,0,0,-1,0,0,0,0,0,0,0,0,0,0,0,0,0,0,0,0,0,0,0,0,0,0,0,0,0,0,0,0,0,0,0,0,0,0,0,0,0,0,0,0,0,0,0,0,0
"Ind42","5_0_7",300,207,207,206,207,212,212,213,211,209,212,209,209,210,210,210,210,196,189,190,193,190,190,192,190,190,187,189,191,191,193,192,190,190,191,33,33,33,33,33,33,-1,0,0,0,0,0,0,0,0,0,0,0,0,0,0,0,0,0,0,0,0,0,0,0,0,0,0,0,0,0,0,0,0,0,0,0,0,0,0,0,0,0,0,0,0
"Ind43","5_0_0",299,206,206,205,206,211,211,212,210,208,211,208,208,209,209,209,209,195,188,189,192,189,189,191,189,189,186,188,190,190,192,191,189,189,190,32,32,32,32,32,32,1,-1,0,0,0,0,0,0,0,0,0,0,0,0,0,0,0,0,0,0,0,0,0,0,0,0,0,0,0,0,0,0,0,0,0,0,0,0,0,0,0,0,0,0,0
"Ind44","5_0_10",299,205,205,204,205,210,210,211,209,207,210,207,207,210,210,210,210,194,189,190,193,190,190,192,190,190,187,187,191,191,193,192,190,190,190,33,33,33,33,33,33,2,1,-1,0,0,0,0,0,0,0,0,0,0,0,0,0,0,0,0,0,0,0,0,0,0,0,0,0,0,0,0,0,0,0,0,0,0,0,0,0,0,0,0,0,0
"Ind45","5_0_4",299,206,206,205,206,211,211,212,210,208,211,208,208,209,209,209,209,195,188,189,192,189,189,191,189,189,186,188,190,190,192,191,189,189,190,32,32,32,32,32,32,1,0,1,-1,0,0,0,0,0,0,0,0,0,0,0,0,0,0,0,0,0,0,0,0,0,0,0,0,0,0,0,0,0,0,0,0,0,0,0,0,0,0,0,0,0
"Ind46","5_0_14",298,204,204,203,204,209,209,210,208,206,209,206,206,207,207,207,207,195,186,187,190,187,187,189,187,187,184,186,188,188,190,189,187,187,188,35,35,35,35,35,35,10,9,10,9,-1,0,0,0,0,0,0,0,0,0,0,0,0,0,0,0,0,0,0,0,0,0,0,0,0,0,0,0,0,0,0,0,0,0,0,0,0,0,0,0,0
"Ind47","5_0_13",299,205,205,204,205,210,210,211,209,207,210,207,207,208,208,208,208,196,187,188,191,188,188,190,188,188,185,187,189,189,191,190,188,188,189,34,34,34,34,34,34,9,8,9,8,1,-1,0,0,0,0,0,0,0,0,0,0,0,0,0,0,0,0,0,0,0,0,0,0,0,0,0,0,0,0,0,0,0,0,0,0,0,0,0,0,0
"Ind48","5_0_15",299,205,205,204,205,210,210,211,209,207,210,207,207,208,208,208,208,196,187,188,191,188,188,190,188,188,185,187,189,189,191,190,188,188,189,34,34,34,34,34,34,9,8,9,8,1,0,-1,0,0,0,0,0,0,0,0,0,0,0,0,0,0,0,0,0,0,0,0,0,0,0,0,0,0,0,0,0,0,0,0,0,0,0,0,0,0
"Ind49","5_0_5",299,205,205,204,205,210,210,211,209,207,210,207,207,208,208,208,208,196,187,188,191,188,188,190,188,188,185,187,189,189,191,190,188,188,189,35,35,35,35,35,35,10,9,10,9,2,1,1,-1,0,0,0,0,0,0,0,0,0,0,0,0,0,0,0,0,0,0,0,0,0,0,0,0,0,0,0,0,0,0,0,0,0,0,0,0,0
"Ind50","5_0_9",299,205,205,204,205,210,210,211,209,207,210,207,207,208,208,208,208,196,187,188,191,188,188,190,188,188,185,187,189,189,191,190,188,188,189,35,35,35,35,35,35,10,9,10,9,2,1,1,0,-1,0,0,0,0,0,0,0,0,0,0,0,0,0,0,0,0,0,0,0,0,0,0,0,0,0,0,0,0,0,0,0,0,0,0,0,0
"Ind51","5_0_3",299,205,205,204,205,210,210,211,209,207,210,207,207,208,208,208,208,196,187,188,191,188,188,190,188,188,185,187,189,189,191,190,188,188,189,35,35,35,35,35,35,10,9,10,9,2,1,1,0,0,-1,0,0,0,0,0,0,0,0,0,0,0,0,0,0,0,0,0,0,0,0,0,0,0,0,0,0,0,0,0,0,0,0,0,0,0
"Ind52","5_0_16",297,207,207,206,207,211,211,212,210,208,211,208,208,209,209,209,209,198,188,187,190,187,187,189,187,187,184,186,188,188,189,189,187,187,188,38,38,38,38,38,38,13,12,13,12,11,10,10,11,11,11,-1,0,0,0,0,0,0,0,0,0,0,0,0,0,0,0,0,0,0,0,0,0,0,0,0,0,0,0,0,0,0,0,0,0,0
"Ind53","2_0_10",281,225,225,227,225,228,228,229,226,229,231,234,234,228,228,228,228,221,225,225,224,225,225,226,224,224,223,222,219,219,221,220,220,220,219,219,219,219,219,219,219,226,226,226,226,226,227,227,227,227,227,231,-1,0,0,0,0,0,0,0,0,0,0,0,0,0,0,0,0,0,0,0,0,0,0,0,0,0,0,0,0,0,0,0,0,0
"Ind54","2_0_12",281,226,226,228,226,229,229,230,227,230,232,235,235,229,229,229,229,222,226,226,225,226,226,227,225,225,224,223,220,220,222,221,221,221,220,220,220,220,220,220,220,227,227,227,227,227,228,228,228,228,228,232,1,-1,0,0,0,0,0,0,0,0,0,0,0,0,0,0,0,0,0,0,0,0,0,0,0,0,0,0,0,0,0,0,0,0
"Ind55","2_0_5",281,226,226,228,226,229,229,230,227,230,232,235,235,229,229,229,229,222,226,226,225,226,226,227,225,225,224,223,220,220,222,221,221,221,220,220,220,220,220,220,220,227,227,227,227,227,228,228,228,228,228,232,1,0,-1,0,0,0,0,0,0,0,0,0,0,0,0,0,0,0,0,0,0,0,0,0,0,0,0,0,0,0,0,0,0,0
"Ind56","2_0_8",281,225,225,227,225,228,228,229,226,229,231,234,234,228,228,228,228,221,225,225,224,225,225,226,224,224,223,222,219,219,221,220,220,220,219,219,219,219,219,219,219,226,226,226,226,226,227,227,227,227,227,231,0,1,1,-1,0,0,0,0,0,0,0,0,0,0,0,0,0,0,0,0,0,0,0,0,0,0,0,0,0,0,0,0,0,0
"Ind57","2_0_11",283,225,225,227,225,228,228,229,226,229,231,234,234,228,228,228,228,221,225,227,224,225,225,226,224,224,223,222,219,219,221,220,220,220,219,220,220,220,220,220,220,228,228,228,228,228,229,229,229,229,229,233,3,4,4,3,-1,0,0,0,0,0,0,0,0,0,0,0,0,0,0,0,0,0,0,0,0,0,0,0,0,0,0,0,0,0
"Ind58","2_0_3",281,225,225,227,225,228,228,229,226,229,231,234,234,228,228,228,228,221,227,227,226,227,227,228,226,226,225,224,221,221,223,222,222,222,221,220,220,220,220,220,220,227,227,227,227,227,228,228,228,228,228,232,4,5,5,4,5,-1,0,0,0,0,0,0,0,0,0,0,0,0,0,0,0,0,0,0,0,0,0,0,0,0,0,0,0,0
"Ind59","2_0_13",280,223,223,225,223,226,226,227,224,227,229,232,232,226,226,226,226,220,225,225,224,225,225,226,224,224,223,222,219,219,221,220,220,220,219,222,222,222,222,222,222,229,229,229,229,229,230,230,230,230,230,234,5,6,6,5,6,3,-1,0,0,0,0,0,0,0,0,0,0,0,0,0,0,0,0,0,0,0,0,0,0,0,0,0,0,0
"Ind60","2_0_7",279,231,231,232,231,234,234,235,232,235,237,240,240,233,233,233,233,227,228,226,225,226,226,227,225,225,224,223,224,224,224,223,221,221,220,215,215,215,215,215,215,222,222,222,222,224,223,223,223,223,223,227,22,23,23,22,23,20,23,-1,0,0,0,0,0,0,0,0,0,0,0,0,0,0,0,0,0,0,0,0,0,0,0,0,0,0
"Ind61","2_0_4",280,232,232,233,232,235,235,236,233,236,238,241,241,234,234,234,234,228,227,225,224,225,225,226,224,224,223,222,223,223,223,222,220,220,219,214,214,214,214,214,214,221,221,221,221,223,222,222,222,222,222,226,23,24,24,23,24,21,24,1,-1,0,0,0,0,0,0,0,0,0,0,0,0,0,0,0,0,0,0,0,0,0,0,0,0,0
"Ind62","2_0_14",279,230,230,231,230,233,233,234,231,234,236,239,239,232,232,232,232,226,227,225,224,225,225,226,224,224,223,222,223,223,223,222,220,220,219,214,214,214,214,214,214,221,221,221,221,223,222,222,222,222,222,226,23,24,24,23,24,21,24,1,2,-1,0,0,0,0,0,0,0,0,0,0,0,0,0,0,0,0,0,0,0,0,0,0,0,0
"Ind63","2_0_2",279,232,232,233,232,235,235,236,233,236,238,241,241,234,234,234,234,228,229,227,226,227,227,228,226,226,225,224,225,225,225,224,222,222,221,216,216,216,216,216,216,223,223,223,223,225,224,224,224,224,224,228,22,23,23,22,23,20,23,2,3,3,-1,0,0,0,0,0,0,0,0,0,0,0,0,0,0,0,0,0,0,0,0,0,0,0
"Ind64","2_0_0",279,232,232,233,232,235,235,236,233,236,238,241,241,234,234,234,234,228,229,227,226,227,227,228,226,226,225,224,225,225,225,224,222,222,221,216,216,216,216,216,216,223,223,223,223,225,224,224,224,224,224,228,22,23,23,22,23,20,23,2,3,3,0,-1,0,0,0,0,0,0,0,0,0,0,0,0,0,0,0,0,0,0,0,0,0,0
"Ind65","2_0_16",279,231,231,232,231,234,234,235,232,235,237,240,240,233,233,233,233,227,228,226,225,226,226,227,225,225,224,223,224,224,224,223,221,221,220,215,215,215,215,215,215,222,222,222,222,224,223,223,223,223,223,227,22,23,23,22,23,20,23,0,1,1,2,2,-1,0,0,0,0,0,0,0,0,0,0,0,0,0,0,0,0,0,0,0,0,0
"Ind66","2_0_15",279,231,231,232,231,234,234,235,232,235,237,240,240,233,233,233,233,227,228,226,225,226,226,227,225,225,224,223,224,224,224,223,221,221,220,215,215,215,215,215,215,222,222,222,222,224,223,223,223,223,223,227,22,23,23,22,23,20,23,0,1,1,2,2,0,-1,0,0,0,0,0,0,0,0,0,0,0,0,0,0,0,0,0,0,0,0
"Ind67","2_0_1",279,231,231,232,231,234,234,235,232,235,237,240,240,233,233,233,233,227,228,226,225,226,226,227,225,225,224,223,224,224,224,223,221,221,220,215,215,215,215,215,215,222,222,222,222,224,223,223,223,223,223,227,22,23,23,22,23,20,23,0,1,1,2,2,0,0,-1,0,0,0,0,0,0,0,0,0,0,0,0,0,0,0,0,0,0,0
"Ind68","2_0_9",279,231,231,232,231,234,234,235,232,235,237,240,240,233,233,233,233,227,228,226,225,226,226,227,225,225,224,223,224,224,224,223,221,221,220,215,215,215,215,215,215,222,222,222,222,224,223,223,223,223,223,227,22,23,23,22,23,20,23,0,1,1,2,2,0,0,0,-1,0,0,0,0,0,0,0,0,0,0,0,0,0,0,0,0,0,0
"Ind69","2_0_6",279,232,232,233,232,235,235,236,231,234,236,239,239,232,232,232,232,226,227,225,226,225,225,226,224,224,223,222,223,223,223,222,220,220,219,214,214,214,214,214,214,221,221,221,221,223,222,222,222,222,222,226,23,24,24,23,24,21,24,1,2,2,3,3,1,1,1,1,-1,0,0,0,0,0,0,0,0,0,0,0,0,0,0,0,0,0
"Ind70","1_0_11",277,219,219,220,219,222,222,223,222,223,225,226,226,224,224,224,224,216,222,219,219,219,219,220,220,220,216,214,216,216,216,215,213,213,212,221,221,221,221,221,221,225,225,225,225,224,223,223,223,223,223,229,44,45,45,44,45,40,43,39,40,40,39,39,39,39,39,39,40,-1,0,0,0,0,0,0,0,0,0,0,0,0,0,0,0,0
"Ind71","1_0_8",278,218,218,219,218,222,222,223,222,223,225,226,226,224,224,224,224,215,222,219,219,219,219,219,219,219,216,214,216,216,216,215,213,213,212,222,222,222,222,222,222,226,226,226,226,225,224,224,224,224,224,230,45,46,46,45,46,41,44,40,41,41,40,40,40,40,40,40,41,1,-1,0,0,0,0,0,0,0,0,0,0,0,0,0,0,0
"Ind72","1_0_13",280,217,217,218,217,220,220,221,218,219,221,224,224,222,222,222,222,214,221,219,219,219,219,220,220,220,217,216,217,217,217,216,214,214,213,223,223,223,223,223,223,229,229,229,229,228,227,227,227,227,227,233,44,45,45,44,45,40,43,37,38,38,39,39,37,37,37,37,38,10,11,-1,0,0,0,0,0,0,0,0,0,0,0,0,0,0
"Ind73","1_0_10",279,216,216,217,216,219,219,220,219,220,222,225,225,221,221,221,221,213,222,218,218,218,218,219,219,219,216,215,216,216,216,215,213,213,212,224,224,224,224,224,224,230,230,230,230,229,228,228,228,228,228,234,43,44,44,43,44,39,42,36,37,37,38,38,36,36,36,36,37,9,10,1,-1,0,0,0,0,0,0,0,0,0,0,0,0,0
"Ind74","1_0_2",278,215,215,216,215,218,218,219,218,219,221,224,224,220,220,220,220,212,223,219,219,219,219,220,220,220,217,216,217,217,217,216,214,214,213,223,223,223,223,223,223,229,229,229,229,228,227,227,227,227,227,233,42,43,43,42,43,38,41,35,36,36,37,37,35,35,35,35,36,8,9,2,1,-1,0,0,0,0,0,0,0,0,0,0,0,0
"Ind75","1_0_9",278,215,215,216,215,218,218,219,218,219,221,224,224,220,220,220,220,212,223,219,219,219,219,220,220,220,217,216,217,217,217,216,214,214,213,223,223,223,223,223,223,229,229,229,229,228,227,227,227,227,227,233,42,43,43,42,43,38,41,35,36,36,37,37,35,35,35,35,36,8,9,2,1,0,-1,0,0,0,0,0,0,0,0,0,0,0
"Ind76","1_0_16",278,215,215,216,215,218,218,219,218,219,221,224,224,220,220,220,220,212,223,219,219,219,219,220,220,220,217,216,217,217,217,216,214,214,213,223,223,223,223,223,223,229,229,229,229,228,227,227,227,227,227,233,42,43,43,42,43,38,41,35,36,36,37,37,35,35,35,35,36,8,9,2,1,0,0,-1,0,0,0,0,0,0,0,0,0,0
"Ind77","1_0_6",278,215,215,216,215,218,218,219,218,219,221,224,224,220,220,220,220,212,223,219,219,219,219,220,220,220,217,216,217,217,217,216,214,214,213,223,223,223,223,223,223,229,229,229,229,228,227,227,227,227,227,233,42,43,43,42,43,38,41,35,36,36,37,37,35,35,35,35,36,8,9,2,1,0,0,0,-1,0,0,0,0,0,0,0,0,0
"Ind78","1_0_3",278,215,215,216,215,218,218,219,218,219,221,224,224,220,220,220,220,212,223,219,219,219,219,220,220,220,217,216,217,217,217,216,214,214,213,223,223,223,223,223,223,229,229,229,229,228,227,227,227,227,227,233,42,43,43,42,43,38,41,35,36,36,37,37,35,35,35,35,36,8,9,2,1,0,0,0,0,-1,0,0,0,0,0,0,0,0
"Ind79","1_0_12",278,215,215,216,215,218,218,219,218,219,221,224,224,220,220,220,220,212,223,219,219,219,219,220,220,220,217,216,217,217,217,216,214,214,213,223,223,223,223,223,223,229,229,229,229,228,227,227,227,227,227,233,42,43,43,42,43,38,41,35,36,36,37,37,35,35,35,35,36,8,9,2,1,0,0,0,0,0,-1,0,0,0,0,0,0,0
"Ind80","1_0_14",278,215,215,216,215,218,218,219,218,219,221,224,224,220,220,220,220,212,223,219,219,219,219,220,220,220,217,216,217,217,217,216,214,214,213,223,223,223,223,223,223,229,229,229,229,228,227,227,227,227,227,233,43,44,44,43,44,39,42,36,37,37,38,38,36,36,36,36,37,9,10,3,2,1,1,1,1,1,1,-1,0,0,0,0,0,0
"Ind81","1_0_0",278,215,215,216,215,218,218,219,218,219,221,224,224,220,220,220,220,212,223,219,219,219,219,220,220,220,217,216,217,217,217,216,214,214,213,223,223,223,223,223,223,229,229,229,229,228,227,227,227,227,227,233,43,44,44,43,44,39,42,36,37,37,38,38,36,36,36,36,37,9,10,3,2,1,1,1,1,1,1,0,-1,0,0,0,0,0
"Ind82","1_0_15",278,215,215,216,215,218,218,219,218,219,221,224,224,220,220,220,220,212,223,219,219,219,219,220,220,220,217,216,217,217,217,216,214,214,213,223,223,223,223,223,223,229,229,229,229,228,227,227,227,227,227,233,43,44,44,43,44,39,42,36,37,37,38,38,36,36,36,36,37,9,10,3,2,1,1,1,1,1,1,0,0,-1,0,0,0,0
"Ind83","1_0_4",280,215,215,216,215,218,218,219,218,219,221,224,224,220,220,220,220,212,223,219,219,219,219,220,220,220,217,216,217,217,217,216,214,214,213,223,223,223,223,223,223,229,229,229,229,228,227,227,227,227,227,233,46,47,47,46,45,42,45,39,40,40,41,41,39,39,39,39,40,12,13,6,5,4,4,4,4,4,4,5,5,5,-1,0,0,0
"Ind84","1_0_5",280,215,215,216,215,218,218,219,218,219,221,224,224,220,220,220,220,212,223,219,219,219,219,220,220,220,217,216,217,217,217,216,214,214,213,223,223,223,223,223,223,229,229,229,229,228,227,227,227,227,227,233,46,47,47,46,45,42,45,39,40,40,41,41,39,39,39,39,40,12,13,6,5,4,4,4,4,4,4,5,5,5,0,-1,0,0
"Ind85","1_0_1",277,217,217,218,217,220,220,221,220,221,223,226,226,220,220,220,220,212,221,221,221,221,221,222,222,222,217,218,217,217,217,216,216,216,215,218,218,218,218,218,218,225,225,225,225,224,223,223,223,223,223,231,44,45,45,44,45,40,43,38,39,39,40,40,38,38,38,38,39,14,15,8,7,6,6,6,6,6,6,7,7,7,10,10,-1,0
"Ind86","1_0_7",277,217,217,218,217,219,219,220,219,220,222,225,225,219,219,219,219,211,220,220,220,220,220,221,221,221,216,217,216,216,216,215,215,215,214,217,217,217,217,217,217,224,224,224,224,223,222,222,222,222,222,230,45,46,46,45,46,41,44,39,40,40,41,41,39,39,39,39,40,15,16,9,8,7,7,7,7,7,7,8,8,8,11,11,1,-1
