"","Description","Ind1","Ind2","Ind3","Ind4","Ind5","Ind6","Ind7","Ind8","Ind9","Ind10","Ind11","Ind12","Ind13","Ind14","Ind15","Ind16","Ind17","Ind18","Ind19","Ind20","Ind21","Ind22","Ind23","Ind24","Ind25","Ind26","Ind27","Ind28","Ind29","Ind30","Ind31","Ind32","Ind33","Ind34","Ind35","Ind36","Ind37","Ind38","Ind39","Ind40","Ind41","Ind42","Ind43","Ind44","Ind45"
"Ind1","2_0_2",-1,0,0,0,0,0,0,0,0,0,0,0,0,0,0,0,0,0,0,0,0,0,0,0,0,0,0,0,0,0,0,0,0,0,0,0,0,0,0,0,0,0,0,0,0
"Ind2","2_0_0",1,-1,0,0,0,0,0,0,0,0,0,0,0,0,0,0,0,0,0,0,0,0,0,0,0,0,0,0,0,0,0,0,0,0,0,0,0,0,0,0,0,0,0,0,0
"Ind3","2_0_1",1,0,-1,0,0,0,0,0,0,0,0,0,0,0,0,0,0,0,0,0,0,0,0,0,0,0,0,0,0,0,0,0,0,0,0,0,0,0,0,0,0,0,0,0,0
"Ind4","2_0_3",1,0,0,-1,0,0,0,0,0,0,0,0,0,0,0,0,0,0,0,0,0,0,0,0,0,0,0,0,0,0,0,0,0,0,0,0,0,0,0,0,0,0,0,0,0
"Ind5","1_0_1",13,14,14,14,-1,0,0,0,0,0,0,0,0,0,0,0,0,0,0,0,0,0,0,0,0,0,0,0,0,0,0,0,0,0,0,0,0,0,0,0,0,0,0,0,0
"Ind6","1_0_2",13,14,14,14,0,-1,0,0,0,0,0,0,0,0,0,0,0,0,0,0,0,0,0,0,0,0,0,0,0,0,0,0,0,0,0,0,0,0,0,0,0,0,0,0,0
"Ind7","1_0_3",13,14,14,14,0,0,-1,0,0,0,0,0,0,0,0,0,0,0,0,0,0,0,0,0,0,0,0,0,0,0,0,0,0,0,0,0,0,0,0,0,0,0,0,0,0
"Ind8","1_0_0",13,14,14,14,0,0,0,-1,0,0,0,0,0,0,0,0,0,0,0,0,0,0,0,0,0,0,0,0,0,0,0,0,0,0,0,0,0,0,0,0,0,0,0,0,0
"Ind9","6_0_2",61,62,62,62,62,62,62,62,-1,0,0,0,0,0,0,0,0,0,0,0,0,0,0,0,0,0,0,0,0,0,0,0,0,0,0,0,0,0,0,0,0,0,0,0,0
"Ind10","6_0_0",61,62,62,62,62,62,62,62,0,-1,0,0,0,0,0,0,0,0,0,0,0,0,0,0,0,0,0,0,0,0,0,0,0,0,0,0,0,0,0,0,0,0,0,0,0
"Ind11","6_0_1",58,59,59,59,59,59,59,59,3,3,-1,0,0,0,0,0,0,0,0,0,0,0,0,0,0,0,0,0,0,0,0,0,0,0,0,0,0,0,0,0,0,0,0,0,0
"Ind12","6_0_3",58,59,59,59,59,59,59,59,3,3,0,-1,0,0,0,0,0,0,0,0,0,0,0,0,0,0,0,0,0,0,0,0,0,0,0,0,0,0,0,0,0,0,0,0,0
"Ind13","8_0_2",57,58,58,58,58,58,58,58,8,8,5,5,-1,0,0,0,0,0,0,0,0,0,0,0,0,0,0,0,0,0,0,0,0,0,0,0,0,0,0,0,0,0,0,0,0
"Ind14","8_0_0",57,58,58,58,58,58,58,58,8,8,5,5,0,-1,0,0,0,0,0,0,0,0,0,0,0,0,0,0,0,0,0,0,0,0,0,0,0,0,0,0,0,0,0,0,0
"Ind15","8_0_3",57,58,58,58,58,58,58,58,6,6,3,3,2,2,-1,0,0,0,0,0,0,0,0,0,0,0,0,0,0,0,0,0,0,0,0,0,0,0,0,0,0,0,0,0,0
"Ind16","8_0_1",57,58,58,58,58,58,58,58,6,6,3,3,2,2,0,-1,0,0,0,0,0,0,0,0,0,0,0,0,0,0,0,0,0,0,0,0,0,0,0,0,0,0,0,0,0
"Ind17","10_0_2",56,57,57,57,61,61,61,61,17,17,14,14,15,15,13,13,-1,0,0,0,0,0,0,0,0,0,0,0,0,0,0,0,0,0,0,0,0,0,0,0,0,0,0,0,0
"Ind18","10_0_0",55,56,56,56,60,60,60,60,18,18,15,15,16,16,14,14,1,-1,0,0,0,0,0,0,0,0,0,0,0,0,0,0,0,0,0,0,0,0,0,0,0,0,0,0,0
"Ind19","10_0_1",56,57,57,57,61,61,61,61,17,17,14,14,15,15,13,13,0,1,-1,0,0,0,0,0,0,0,0,0,0,0,0,0,0,0,0,0,0,0,0,0,0,0,0,0,0
"Ind20","10_0_3",59,60,60,60,64,64,64,64,21,21,18,18,19,19,17,17,6,7,6,-1,0,0,0,0,0,0,0,0,0,0,0,0,0,0,0,0,0,0,0,0,0,0,0,0,0
"Ind21","4_0_0",56,57,57,57,61,61,61,61,19,19,16,16,17,17,15,15,12,13,12,16,-1,0,0,0,0,0,0,0,0,0,0,0,0,0,0,0,0,0,0,0,0,0,0,0,0
"Ind22","4_0_2",56,57,57,57,61,61,61,61,19,19,16,16,17,17,15,15,12,13,12,16,2,-1,0,0,0,0,0,0,0,0,0,0,0,0,0,0,0,0,0,0,0,0,0,0,0
"Ind23","4_0_1",56,57,57,57,61,61,61,61,19,19,16,16,17,17,15,15,12,13,12,16,2,0,-1,0,0,0,0,0,0,0,0,0,0,0,0,0,0,0,0,0,0,0,0,0,0
"Ind24","4_0_3",56,57,57,57,61,61,61,61,19,19,16,16,17,17,15,15,12,13,12,16,2,0,0,-1,0,0,0,0,0,0,0,0,0,0,0,0,0,0,0,0,0,0,0,0,0
"Ind25","3_0_3",55,56,56,56,56,56,56,56,26,26,25,25,26,26,24,24,27,26,27,29,29,29,29,29,-1,0,0,0,0,0,0,0,0,0,0,0,0,0,0,0,0,0,0,0,0
"Ind26","3_0_1",56,57,57,57,57,57,57,57,27,27,26,26,27,27,25,25,28,27,28,30,30,30,30,30,1,-1,0,0,0,0,0,0,0,0,0,0,0,0,0,0,0,0,0,0,0
"Ind27","3_0_2",54,55,55,55,55,55,55,55,27,27,26,26,27,27,25,25,28,27,28,28,30,30,30,30,3,4,-1,0,0,0,0,0,0,0,0,0,0,0,0,0,0,0,0,0,0
"Ind28","3_0_0",54,55,55,55,55,55,55,55,27,27,26,26,27,27,25,25,28,27,28,28,30,30,30,30,3,4,0,-1,0,0,0,0,0,0,0,0,0,0,0,0,0,0,0,0,0
"Ind29","5_0_3",52,53,53,53,53,53,53,53,23,23,20,20,21,21,19,19,22,21,22,24,24,24,24,24,9,10,10,10,-1,0,0,0,0,0,0,0,0,0,0,0,0,0,0,0,0
"Ind30","5_0_2",52,53,53,53,53,53,53,53,23,23,20,20,21,21,19,19,22,21,22,24,24,24,24,24,9,10,10,10,0,-1,0,0,0,0,0,0,0,0,0,0,0,0,0,0,0
"Ind31","5_0_1",52,53,53,53,53,53,53,53,23,23,20,20,21,21,19,19,22,21,22,24,24,24,24,24,9,10,10,10,0,0,-1,0,0,0,0,0,0,0,0,0,0,0,0,0,0
"Ind32","5_0_0",52,53,53,53,53,53,53,53,23,23,20,20,21,21,19,19,22,21,22,24,24,24,24,24,9,10,10,10,0,0,0,-1,0,0,0,0,0,0,0,0,0,0,0,0,0
"Ind33","9_0_0",52,53,53,53,53,53,53,53,26,26,23,23,24,24,22,22,25,24,25,27,27,27,27,27,10,11,11,11,5,5,5,5,-1,0,0,0,0,0,0,0,0,0,0,0,0
"Ind34","9_0_2",52,53,53,53,53,53,53,53,26,26,23,23,24,24,22,22,25,24,25,27,27,27,27,27,10,11,11,11,5,5,5,5,0,-1,0,0,0,0,0,0,0,0,0,0,0
"Ind35","9_0_3",52,53,53,53,53,53,53,53,26,26,23,23,24,24,22,22,25,24,25,27,27,27,27,27,10,11,11,11,5,5,5,5,0,0,-1,0,0,0,0,0,0,0,0,0,0
"Ind36","9_0_1",52,53,53,53,53,53,53,53,26,26,23,23,24,24,22,22,25,24,25,27,27,27,27,27,10,11,11,11,5,5,5,5,0,0,0,-1,0,0,0,0,0,0,0,0,0
"Ind37","11_0_0",60,61,61,61,61,61,61,61,28,28,25,25,26,26,24,24,25,26,25,25,27,27,27,27,18,19,19,19,11,11,11,11,12,12,12,12,-1,0,0,0,0,0,0,0,0
"Ind38","11_0_1",60,61,61,61,61,61,61,61,28,28,25,25,26,26,24,24,25,26,25,25,27,27,27,27,18,19,19,19,11,11,11,11,12,12,12,12,0,-1,0,0,0,0,0,0,0
"Ind39","11_0_3",60,61,61,61,61,61,61,61,28,28,25,25,26,26,24,24,25,26,25,25,27,27,27,27,18,19,19,19,11,11,11,11,12,12,12,12,0,0,-1,0,0,0,0,0,0
"Ind40","11_0_2",61,62,62,62,62,62,62,62,29,29,26,26,27,27,25,25,26,27,26,26,28,28,28,28,17,18,18,18,12,12,12,12,13,13,13,13,1,1,1,-1,0,0,0,0,0
"Ind41","7_0_1",53,54,54,54,57,57,57,57,30,30,27,27,28,28,26,26,29,30,29,33,28,28,28,28,22,23,25,25,19,19,19,19,20,20,20,20,22,22,22,23,-1,0,0,0,0
"Ind42","7_0_0",53,54,54,54,57,57,57,57,30,30,27,27,28,28,26,26,29,30,29,33,28,28,28,28,22,23,25,25,19,19,19,19,20,20,20,20,22,22,22,23,0,-1,0,0,0
"Ind43","7_0_3",53,54,54,54,57,57,57,57,30,30,27,27,28,28,26,26,29,30,29,33,28,28,28,28,22,23,25,25,19,19,19,19,20,20,20,20,22,22,22,23,0,0,-1,0,0
"Ind44","7_0_2",53,54,54,54,57,57,57,57,30,30,27,27,28,28,26,26,29,30,29,33,28,28,28,28,22,23,25,25,19,19,19,19,20,20,20,20,22,22,22,23,0,0,0,-1,0
"Ind45","0_0_0",84,85,85,85,87,87,87,87,112,112,109,109,110,110,110,110,110,109,110,109,113,113,113,113,105,106,104,104,103,103,103,103,105,105,105,105,110,110,110,111,107,107,107,107,-1
