"","Description","Ind1","Ind2","Ind3","Ind4","Ind5","Ind6","Ind7","Ind8","Ind9","Ind10","Ind11","Ind12","Ind13","Ind14","Ind15","Ind16","Ind17","Ind18","Ind19","Ind20","Ind21","Ind22","Ind23"
"Ind1","0_0_0",-1,0,0,0,0,0,0,0,0,0,0,0,0,0,0,0,0,0,0,0,0,0,0
"Ind2","11_0_0",26,-1,0,0,0,0,0,0,0,0,0,0,0,0,0,0,0,0,0,0,0,0,0
"Ind3","11_0_1",26,0,-1,0,0,0,0,0,0,0,0,0,0,0,0,0,0,0,0,0,0,0,0
"Ind4","10_0_0",26,0,0,-1,0,0,0,0,0,0,0,0,0,0,0,0,0,0,0,0,0,0,0
"Ind5","10_0_1",26,0,0,0,-1,0,0,0,0,0,0,0,0,0,0,0,0,0,0,0,0,0,0
"Ind6","8_0_0",19,15,15,15,15,-1,0,0,0,0,0,0,0,0,0,0,0,0,0,0,0,0,0
"Ind7","8_0_1",19,15,15,15,15,0,-1,0,0,0,0,0,0,0,0,0,0,0,0,0,0,0,0
"Ind8","6_0_1",22,18,18,18,18,3,3,-1,0,0,0,0,0,0,0,0,0,0,0,0,0,0,0
"Ind9","6_0_0",22,18,18,18,18,3,3,0,-1,0,0,0,0,0,0,0,0,0,0,0,0,0,0
"Ind10","5_0_1",19,13,13,13,13,2,2,5,5,-1,0,0,0,0,0,0,0,0,0,0,0,0,0
"Ind11","5_0_0",19,13,13,13,13,2,2,5,5,0,-1,0,0,0,0,0,0,0,0,0,0,0,0
"Ind12","2_0_1",19,15,15,15,15,2,2,5,5,2,2,-1,0,0,0,0,0,0,0,0,0,0,0
"Ind13","2_0_0",19,15,15,15,15,2,2,5,5,2,2,0,-1,0,0,0,0,0,0,0,0,0,0
"Ind14","9_0_0",18,14,14,14,14,1,1,4,4,1,1,1,1,-1,0,0,0,0,0,0,0,0,0
"Ind15","9_0_1",18,14,14,14,14,1,1,4,4,1,1,1,1,0,-1,0,0,0,0,0,0,0,0
"Ind16","4_0_1",20,14,14,14,14,3,3,6,6,3,3,3,3,2,2,-1,0,0,0,0,0,0,0
"Ind17","4_0_0",20,14,14,14,14,3,3,6,6,3,3,3,3,2,2,0,-1,0,0,0,0,0,0
"Ind18","3_0_1",20,16,16,16,16,3,3,6,6,3,3,3,3,2,2,4,4,-1,0,0,0,0,0
"Ind19","3_0_0",20,16,16,16,16,3,3,6,6,3,3,3,3,2,2,4,4,0,-1,0,0,0,0
"Ind20","7_0_1",20,16,16,16,16,3,3,6,6,3,3,3,3,2,2,4,4,2,2,-1,0,0,0
"Ind21","7_0_0",20,16,16,16,16,3,3,6,6,3,3,3,3,2,2,4,4,2,2,0,-1,0,0
"Ind22","1_0_1",20,16,16,16,16,3,3,6,6,3,3,3,3,2,2,4,4,2,2,0,0,-1,0
"Ind23","1_0_0",20,16,16,16,16,3,3,6,6,3,3,3,3,2,2,4,4,2,2,0,0,0,-1
