"","Description","Ind1","Ind2","Ind3","Ind4","Ind5","Ind6","Ind7","Ind8","Ind9","Ind10","Ind11","Ind12","Ind13","Ind14","Ind15","Ind16","Ind17","Ind18","Ind19","Ind20","Ind21","Ind22","Ind23","Ind24","Ind25"
"Ind1","7_0_1",-1,0,0,0,0,0,0,0,0,0,0,0,0,0,0,0,0,0,0,0,0,0,0,0,0
"Ind2","7_0_0",0,-1,0,0,0,0,0,0,0,0,0,0,0,0,0,0,0,0,0,0,0,0,0,0,0
"Ind3","3_0_0",13,13,-1,0,0,0,0,0,0,0,0,0,0,0,0,0,0,0,0,0,0,0,0,0,0
"Ind4","3_0_1",13,13,0,-1,0,0,0,0,0,0,0,0,0,0,0,0,0,0,0,0,0,0,0,0,0
"Ind5","1_0_1",38,38,41,41,-1,0,0,0,0,0,0,0,0,0,0,0,0,0,0,0,0,0,0,0,0
"Ind6","1_0_0",38,38,41,41,0,-1,0,0,0,0,0,0,0,0,0,0,0,0,0,0,0,0,0,0,0
"Ind7","2_0_0",38,38,41,41,0,0,-1,0,0,0,0,0,0,0,0,0,0,0,0,0,0,0,0,0,0
"Ind8","2_0_1",38,38,41,41,0,0,0,-1,0,0,0,0,0,0,0,0,0,0,0,0,0,0,0,0,0
"Ind9","4_0_1",36,36,37,37,10,10,10,10,-1,0,0,0,0,0,0,0,0,0,0,0,0,0,0,0,0
"Ind10","4_0_0",36,36,37,37,10,10,10,10,0,-1,0,0,0,0,0,0,0,0,0,0,0,0,0,0,0
"Ind11","6_0_1",39,39,42,42,13,13,13,13,13,13,-1,0,0,0,0,0,0,0,0,0,0,0,0,0,0
"Ind12","6_0_0",39,39,42,42,13,13,13,13,13,13,0,-1,0,0,0,0,0,0,0,0,0,0,0,0,0
"Ind13","5_0_0",38,38,41,41,10,10,10,10,10,10,9,9,-1,0,0,0,0,0,0,0,0,0,0,0,0
"Ind14","5_0_1",38,38,41,41,10,10,10,10,10,10,9,9,0,-1,0,0,0,0,0,0,0,0,0,0,0
"Ind15","10_0_1",53,53,54,54,59,59,59,59,55,55,60,60,59,59,-1,0,0,0,0,0,0,0,0,0,0
"Ind16","10_0_0",53,53,54,54,59,59,59,59,55,55,60,60,59,59,0,-1,0,0,0,0,0,0,0,0,0
"Ind17","11_0_1",52,52,55,55,57,57,57,57,53,53,58,58,57,57,19,19,-1,0,0,0,0,0,0,0,0
"Ind18","11_0_0",52,52,55,55,57,57,57,57,53,53,58,58,57,57,19,19,0,-1,0,0,0,0,0,0,0
"Ind19","9_0_0",50,50,53,53,56,56,56,56,52,52,57,57,56,56,27,27,28,28,-1,0,0,0,0,0,0
"Ind20","9_0_1",50,50,53,53,56,56,56,56,52,52,57,57,56,56,27,27,28,28,0,-1,0,0,0,0,0
"Ind21","12_0_1",49,49,52,52,55,55,55,55,51,51,56,56,55,55,26,26,27,27,1,1,-1,0,0,0,0
"Ind22","12_0_0",49,49,52,52,55,55,55,55,51,51,56,56,55,55,26,26,27,27,1,1,0,-1,0,0,0
"Ind23","8_0_1",50,50,52,52,55,55,55,55,51,51,54,54,53,53,28,28,31,31,23,23,22,22,-1,0,0
"Ind24","8_0_0",50,50,52,52,55,55,55,55,51,51,54,54,53,53,28,28,31,31,23,23,22,22,0,-1,0
"Ind25","0_0_0",89,89,93,93,90,90,90,90,89,89,94,94,91,91,93,93,95,95,92,92,91,91,93,93,-1
