"","Description","Ind1","Ind2","Ind3","Ind4","Ind5","Ind6","Ind7","Ind8","Ind9","Ind10","Ind11","Ind12","Ind13","Ind14","Ind15","Ind16","Ind17","Ind18","Ind19","Ind20","Ind21","Ind22","Ind23","Ind24","Ind25"
"Ind1","8_0_0",-1,0,0,0,0,0,0,0,0,0,0,0,0,0,0,0,0,0,0,0,0,0,0,0,0
"Ind2","8_0_1",0,-1,0,0,0,0,0,0,0,0,0,0,0,0,0,0,0,0,0,0,0,0,0,0,0
"Ind3","10_0_0",39,39,-1,0,0,0,0,0,0,0,0,0,0,0,0,0,0,0,0,0,0,0,0,0,0
"Ind4","10_0_1",39,39,0,-1,0,0,0,0,0,0,0,0,0,0,0,0,0,0,0,0,0,0,0,0,0
"Ind5","11_0_1",39,39,14,14,-1,0,0,0,0,0,0,0,0,0,0,0,0,0,0,0,0,0,0,0,0
"Ind6","11_0_0",39,39,14,14,0,-1,0,0,0,0,0,0,0,0,0,0,0,0,0,0,0,0,0,0,0
"Ind7","9_0_1",26,26,19,19,19,19,-1,0,0,0,0,0,0,0,0,0,0,0,0,0,0,0,0,0,0
"Ind8","9_0_0",26,26,19,19,19,19,0,-1,0,0,0,0,0,0,0,0,0,0,0,0,0,0,0,0,0
"Ind9","12_0_1",27,27,20,20,20,20,1,1,-1,0,0,0,0,0,0,0,0,0,0,0,0,0,0,0,0
"Ind10","12_0_0",26,26,19,19,19,19,0,0,1,-1,0,0,0,0,0,0,0,0,0,0,0,0,0,0,0
"Ind11","7_0_0",52,52,49,49,49,49,40,40,41,40,-1,0,0,0,0,0,0,0,0,0,0,0,0,0,0
"Ind12","7_0_1",52,52,49,49,49,49,40,40,41,40,0,-1,0,0,0,0,0,0,0,0,0,0,0,0,0
"Ind13","3_0_0",57,57,58,58,60,60,47,47,48,47,23,23,-1,0,0,0,0,0,0,0,0,0,0,0,0
"Ind14","3_0_1",57,57,58,58,60,60,47,47,48,47,23,23,0,-1,0,0,0,0,0,0,0,0,0,0,0
"Ind15","4_0_0",48,48,53,53,53,53,40,40,41,40,23,23,34,34,-1,0,0,0,0,0,0,0,0,0,0
"Ind16","4_0_1",48,48,53,53,53,53,40,40,41,40,23,23,34,34,0,-1,0,0,0,0,0,0,0,0,0
"Ind17","2_0_0",54,54,59,59,57,57,46,46,45,46,28,28,39,39,11,11,-1,0,0,0,0,0,0,0,0
"Ind18","2_0_1",54,54,59,59,57,57,46,46,45,46,28,28,39,39,11,11,0,-1,0,0,0,0,0,0,0
"Ind19","1_0_1",56,56,59,59,57,57,46,46,45,46,26,26,37,37,11,11,2,2,-1,0,0,0,0,0,0
"Ind20","1_0_0",56,56,59,59,57,57,46,46,45,46,26,26,37,37,11,11,2,2,0,-1,0,0,0,0,0
"Ind21","5_0_1",51,51,54,54,54,54,41,41,42,41,23,23,34,34,6,6,13,13,11,11,-1,0,0,0,0
"Ind22","5_0_0",51,51,54,54,54,54,41,41,42,41,23,23,34,34,6,6,13,13,11,11,0,-1,0,0,0
"Ind23","6_0_0",52,52,55,55,55,55,42,42,43,42,22,22,31,31,7,7,12,12,10,10,5,5,-1,0,0
"Ind24","6_0_1",53,53,56,56,56,56,43,43,44,43,23,23,32,32,8,8,13,13,11,11,6,6,1,-1,0
"Ind25","0_0_0",87,87,82,82,84,84,73,73,74,73,89,89,88,88,88,88,92,92,92,92,87,87,88,89,-1
