"","Description","Ind1","Ind2","Ind3","Ind4","Ind5","Ind6","Ind7","Ind8","Ind9","Ind10","Ind11","Ind12","Ind13","Ind14","Ind15","Ind16","Ind17","Ind18","Ind19","Ind20","Ind21","Ind22","Ind23","Ind24","Ind25","Ind26","Ind27","Ind28","Ind29","Ind30","Ind31","Ind32","Ind33","Ind34","Ind35","Ind36","Ind37"
"Ind1","6_0_3",-1,0,0,0,0,0,0,0,0,0,0,0,0,0,0,0,0,0,0,0,0,0,0,0,0,0,0,0,0,0,0,0,0,0,0,0,0
"Ind2","6_0_0",0,-1,0,0,0,0,0,0,0,0,0,0,0,0,0,0,0,0,0,0,0,0,0,0,0,0,0,0,0,0,0,0,0,0,0,0,0
"Ind3","6_0_1",0,0,-1,0,0,0,0,0,0,0,0,0,0,0,0,0,0,0,0,0,0,0,0,0,0,0,0,0,0,0,0,0,0,0,0,0,0
"Ind4","6_0_2",0,0,0,-1,0,0,0,0,0,0,0,0,0,0,0,0,0,0,0,0,0,0,0,0,0,0,0,0,0,0,0,0,0,0,0,0,0
"Ind5","3_0_3",6,6,6,6,-1,0,0,0,0,0,0,0,0,0,0,0,0,0,0,0,0,0,0,0,0,0,0,0,0,0,0,0,0,0,0,0,0
"Ind6","3_0_0",6,6,6,6,0,-1,0,0,0,0,0,0,0,0,0,0,0,0,0,0,0,0,0,0,0,0,0,0,0,0,0,0,0,0,0,0,0
"Ind7","3_0_1",6,6,6,6,0,0,-1,0,0,0,0,0,0,0,0,0,0,0,0,0,0,0,0,0,0,0,0,0,0,0,0,0,0,0,0,0,0
"Ind8","3_0_2",6,6,6,6,0,0,0,-1,0,0,0,0,0,0,0,0,0,0,0,0,0,0,0,0,0,0,0,0,0,0,0,0,0,0,0,0,0
"Ind9","2_0_1",4,4,4,4,4,4,4,4,-1,0,0,0,0,0,0,0,0,0,0,0,0,0,0,0,0,0,0,0,0,0,0,0,0,0,0,0,0
"Ind10","2_0_0",4,4,4,4,4,4,4,4,0,-1,0,0,0,0,0,0,0,0,0,0,0,0,0,0,0,0,0,0,0,0,0,0,0,0,0,0,0
"Ind11","2_0_2",4,4,4,4,4,4,4,4,0,0,-1,0,0,0,0,0,0,0,0,0,0,0,0,0,0,0,0,0,0,0,0,0,0,0,0,0,0
"Ind12","2_0_3",4,4,4,4,4,4,4,4,0,0,0,-1,0,0,0,0,0,0,0,0,0,0,0,0,0,0,0,0,0,0,0,0,0,0,0,0,0
"Ind13","7_0_3",4,4,4,4,4,4,4,4,0,0,0,0,-1,0,0,0,0,0,0,0,0,0,0,0,0,0,0,0,0,0,0,0,0,0,0,0,0
"Ind14","7_0_1",4,4,4,4,4,4,4,4,0,0,0,0,0,-1,0,0,0,0,0,0,0,0,0,0,0,0,0,0,0,0,0,0,0,0,0,0,0
"Ind15","7_0_0",4,4,4,4,4,4,4,4,0,0,0,0,0,0,-1,0,0,0,0,0,0,0,0,0,0,0,0,0,0,0,0,0,0,0,0,0,0
"Ind16","7_0_2",4,4,4,4,4,4,4,4,0,0,0,0,0,0,0,-1,0,0,0,0,0,0,0,0,0,0,0,0,0,0,0,0,0,0,0,0,0
"Ind17","5_0_1",4,4,4,4,4,4,4,4,0,0,0,0,0,0,0,0,-1,0,0,0,0,0,0,0,0,0,0,0,0,0,0,0,0,0,0,0,0
"Ind18","5_0_0",4,4,4,4,4,4,4,4,0,0,0,0,0,0,0,0,0,-1,0,0,0,0,0,0,0,0,0,0,0,0,0,0,0,0,0,0,0
"Ind19","5_0_2",4,4,4,4,4,4,4,4,0,0,0,0,0,0,0,0,0,0,-1,0,0,0,0,0,0,0,0,0,0,0,0,0,0,0,0,0,0
"Ind20","5_0_3",4,4,4,4,4,4,4,4,0,0,0,0,0,0,0,0,0,0,0,-1,0,0,0,0,0,0,0,0,0,0,0,0,0,0,0,0,0
"Ind21","9_0_1",7,7,7,7,7,7,7,7,5,5,5,5,5,5,5,5,5,5,5,5,-1,0,0,0,0,0,0,0,0,0,0,0,0,0,0,0,0
"Ind22","9_0_3",7,7,7,7,7,7,7,7,5,5,5,5,5,5,5,5,5,5,5,5,0,-1,0,0,0,0,0,0,0,0,0,0,0,0,0,0,0
"Ind23","9_0_0",7,7,7,7,7,7,7,7,5,5,5,5,5,5,5,5,5,5,5,5,0,0,-1,0,0,0,0,0,0,0,0,0,0,0,0,0,0
"Ind24","9_0_2",7,7,7,7,7,7,7,7,5,5,5,5,5,5,5,5,5,5,5,5,0,0,0,-1,0,0,0,0,0,0,0,0,0,0,0,0,0
"Ind25","4_0_1",10,10,10,10,10,10,10,10,8,8,8,8,8,8,8,8,8,8,8,8,5,5,5,5,-1,0,0,0,0,0,0,0,0,0,0,0,0
"Ind26","4_0_0",10,10,10,10,10,10,10,10,8,8,8,8,8,8,8,8,8,8,8,8,5,5,5,5,0,-1,0,0,0,0,0,0,0,0,0,0,0
"Ind27","4_0_2",10,10,10,10,10,10,10,10,8,8,8,8,8,8,8,8,8,8,8,8,5,5,5,5,0,0,-1,0,0,0,0,0,0,0,0,0,0
"Ind28","4_0_3",10,10,10,10,10,10,10,10,8,8,8,8,8,8,8,8,8,8,8,8,5,5,5,5,0,0,0,-1,0,0,0,0,0,0,0,0,0
"Ind29","8_0_3",10,10,10,10,10,10,10,10,8,8,8,8,8,8,8,8,8,8,8,8,5,5,5,5,0,0,0,0,-1,0,0,0,0,0,0,0,0
"Ind30","8_0_1",10,10,10,10,10,10,10,10,8,8,8,8,8,8,8,8,8,8,8,8,5,5,5,5,0,0,0,0,0,-1,0,0,0,0,0,0,0
"Ind31","8_0_2",10,10,10,10,10,10,10,10,8,8,8,8,8,8,8,8,8,8,8,8,5,5,5,5,0,0,0,0,0,0,-1,0,0,0,0,0,0
"Ind32","8_0_0",10,10,10,10,10,10,10,10,8,8,8,8,8,8,8,8,8,8,8,8,5,5,5,5,0,0,0,0,0,0,0,-1,0,0,0,0,0
"Ind33","1_0_2",89,89,89,89,89,89,89,89,85,85,85,85,85,85,85,85,85,85,85,85,84,84,84,84,88,88,88,88,88,88,88,88,-1,0,0,0,0
"Ind34","1_0_3",89,89,89,89,89,89,89,89,85,85,85,85,85,85,85,85,85,85,85,85,84,84,84,84,88,88,88,88,88,88,88,88,0,-1,0,0,0
"Ind35","1_0_1",89,89,89,89,89,89,89,89,85,85,85,85,85,85,85,85,85,85,85,85,84,84,84,84,88,88,88,88,88,88,88,88,0,0,-1,0,0
"Ind36","1_0_0",89,89,89,89,89,89,89,89,85,85,85,85,85,85,85,85,85,85,85,85,84,84,84,84,88,88,88,88,88,88,88,88,0,0,0,-1,0
"Ind37","0_0_0",152,152,152,152,152,152,152,152,152,152,152,152,152,152,152,152,152,152,152,152,149,149,149,149,153,153,153,153,153,153,153,153,169,169,169,169,-1
