[TYPE] NUCLEOTIDE 1 

[SETTINGS]
    [fastaextension] fasta  

[MODEL] csSim_unlinked_1
    [submodel] GTR 0.067370 0.018810 0.021868 0.029777 0.040968 
    [statefreq] 0.524604 0.096028 0.147609 0.231759 
[rates] 0 7.029729 0 

[MODEL] csSim_unlinked_2
    [submodel] GTR 0.139275 0.014109 0.009815 0.036714 0.023555 
    [statefreq] 0.668125 0.242722 0.037794 0.051359 
[rates] 0 35.506357 0 

[MODEL] csSim_unlinked_3
    [submodel] GTR 0.110340 0.011471 0.030917 0.008146 0.043716 
    [statefreq] 0.025966 0.582509 0.048773 0.342752 
[rates] 0 11.301264 0 

[MODEL] csSim_unlinked_4
    [submodel] GTR 0.082175 0.002594 0.012615 0.041403 0.046923 
    [statefreq] 0.129559 0.266545 0.116388 0.487509 
[rates] 0 4.632869 0 

[MODEL] csSim_unlinked_5
    [submodel] GTR 0.081646 0.018257 0.018650 0.028714 0.036137 
    [statefreq] 0.159136 0.516340 0.268678 0.055847 
[rates] 0 17.918287 0 

[MODEL] csSim_unlinked_6
    [submodel] GTR 0.096304 0.010036 0.025516 0.035935 0.033888 
    [statefreq] 0.228968 0.351357 0.131321 0.288354 
[rates] 0 5.084908 0 

[MODEL] csSim_unlinked_7
    [submodel] GTR 0.110226 0.013826 0.006029 0.029079 0.039839 
    [statefreq] 0.008612 0.221275 0.729653 0.040459 
[rates] 0 3.401462 0 

[MODEL] csSim_unlinked_8
    [submodel] GTR 0.102115 0.006424 0.011765 0.033838 0.048805 
    [statefreq] 0.017597 0.068525 0.307794 0.606084 
[rates] 0 8.408927 0 

[MODEL] csSim_unlinked_9
    [submodel] GTR 0.075306 0.007769 0.005877 0.019886 0.065226 
    [statefreq] 0.036533 0.231511 0.590935 0.141020 
[rates] 0 20.418702 0 

[MODEL] csSim_unlinked_10
    [submodel] GTR 0.105543 0.009138 0.019038 0.036518 0.040715 
    [statefreq] 0.214051 0.419844 0.230592 0.135513 
[rates] 0 0.985013 0 


[TREE] T01 (((8_0_1:0.00031050,8_0_0:0.00013995):0.07634857,(((4_0_0:0.00007065,4_0_1:0.00004691):0.00723164,(1_0_1:0.00006877,1_0_0:0.00012211):0.00957214):0.11352612,((((5_0_1:0.00001019,5_0_0:0.00000553):0.02106589,(2_0_1:0.00003320,2_0_0:0.00004383):0.02405173):0.02598210,((7_0_1:0.00002151,7_0_0:0.00001872):0.03634314,(6_0_1:0.00008267,6_0_0:0.00006259):0.02958428):0.02609470):0.04230058,(3_0_0:0.00004307,3_0_1:0.00004231):0.12534958):0.00261266):0.11685748):0.28631519,0_0_0:0.31792094);
[TREE] T02 (0_0_0:0.22856316,((((1_0_0:0.00000010,1_0_1:0.00000009):0.00634892,(4_0_1:0.00001971,4_0_0:0.00001544):0.01088815):0.09982068,((((7_0_1:0.00002486,7_0_0:0.00005265):0.04822395,(6_0_0:0.00003010,6_0_1:0.00002164):0.06039510):0.02198716,((5_0_0:0.00007628,5_0_1:0.00006859):0.01576124,(2_0_1:0.00000452,2_0_0:0.00000277):0.01348215):0.05177459):0.03463949,(3_0_0:0.00003448,3_0_1:0.00004285):0.07171733):0.00194678):0.05816454,(8_0_0:0.00002836,8_0_1:0.00001812):0.11771744):0.21086325);
[TREE] T03 (((8_0_1:0.00001008,8_0_0:0.00000861):0.16382067,(((3_0_1:0.00001349,3_0_0:0.00002743):0.07490541,(((5_0_1:0.00005177,5_0_0:0.00003969):0.01903110,(2_0_0:0.00003126,2_0_1:0.00005600):0.01476815):0.05905993,((7_0_0:0.00005415,7_0_1:0.00005500):0.01922493,(6_0_0:0.00001438,6_0_1:0.00001882):0.04111892):0.02173701):0.01124816):0.00267815,((1_0_0:0.00032834,1_0_1:0.00007067):0.01316460,(4_0_0:0.00007777,4_0_1:0.00007104):0.00738256):0.07344693):0.06117314):0.29273282,0_0_0:0.40347897);
[TREE] T04 (((((3_0_0:0.00004270,3_0_1:0.00004377):0.14811266,(((2_0_1:0.00005893,2_0_0:0.00004383):0.02213230,(5_0_0:0.00002896,5_0_1:0.00004298):0.03025282):0.06449550,((7_0_0:0.00010749,7_0_1:0.00007526):0.06181760,(6_0_1:0.00000790,6_0_0:0.00000863):0.04333227):0.02623783):0.01650450):0.00180492,((4_0_1:0.00011129,4_0_0:0.00005195):0.00998140,(1_0_1:0.00005000,1_0_0:0.00003800):0.00742844):0.08144148):0.06436260,(8_0_1:0.00001839,8_0_0:0.00001418):0.16598445):0.17342417,0_0_0:0.34761412);
[TREE] T05 (0_0_0:0.32944256,((((4_0_0:0.00004475,4_0_1:0.00004459):0.01066910,(1_0_0:0.00002754,1_0_1:0.00004213):0.01110490):0.08324880,((((2_0_1:0.00004336,2_0_0:0.00003225):0.01453086,(5_0_0:0.00002811,5_0_1:0.00003131):0.02702098):0.02839842,((6_0_1:0.00000558,6_0_0:0.00000372):0.04330850,(7_0_1:0.00000210,7_0_0:0.00000139):0.02645768):0.01877587):0.02100435,(3_0_1:0.00003890,3_0_0:0.00002559):0.04847274):0.00225592):0.06909493,(8_0_0:0.00000103,8_0_1:0.00000131):0.13111815):0.15329041);
[TREE] T06 (0_0_0:0.27676061,((((1_0_0:0.00002904,1_0_1:0.00003067):0.00641332,(4_0_0:0.00004884,4_0_1:0.00004368):0.00897394):0.07482318,((((5_0_1:0.00000741,5_0_0:0.00001566):0.02552211,(2_0_0:0.00001175,2_0_1:0.00001390):0.02751891):0.05135787,((6_0_1:0.00000758,6_0_0:0.00001093):0.05176149,(7_0_1:0.00001456,7_0_0:0.00001415):0.05524775):0.02810956):0.01936550,(3_0_0:0.00000401,3_0_1:0.00000145):0.06690215):0.00133067):0.12871858,(8_0_1:0.00011650,8_0_0:0.00010730):0.22320344):0.19076952);
[TREE] T07 (((8_0_1:0.00001026,8_0_0:0.00001856):0.13784039,(((3_0_1:0.00003110,3_0_0:0.00005023):0.06575491,(((7_0_0:0.00000895,7_0_1:0.00000705):0.05723004,(6_0_0:0.00009317,6_0_1:0.00011923):0.04082098):0.02327562,((2_0_1:0.00002119,2_0_0:0.00002182):0.00974402,(5_0_0:0.00002378,5_0_1:0.00003200):0.03035193):0.02975674):0.01949775):0.00342762,((1_0_0:0.00002587,1_0_1:0.00004112):0.00875991,(4_0_0:0.00001055,4_0_1:0.00000832):0.00590105):0.10053969):0.14959224):0.11292037,0_0_0:0.29745026);
[TREE] T08 (((8_0_1:0.00002290,8_0_0:0.00002767):0.16057562,(((1_0_0:0.00012907,1_0_1:0.00006805):0.00970412,(4_0_0:0.00005684,4_0_1:0.00006672):0.01035552):0.14352160,((3_0_1:0.00006399,3_0_0:0.00012457):0.10100157,(((5_0_0:0.00000151,5_0_1:0.00000137):0.01916560,(2_0_0:0.00001730,2_0_1:0.00002457):0.01573326):0.04107280,((6_0_0:0.00000152,6_0_1:0.00000103):0.03942471,(7_0_0:0.00010605,7_0_1:0.00010391):0.05723642):0.01185210):0.01849756):0.00368747):0.11510526):0.15086749,0_0_0:0.37569803);
[TREE] T09 (0_0_0:0.37287277,((8_0_0:0.00004033,8_0_1:0.00002813):0.12798271,(((((7_0_0:0.00011065,7_0_1:0.00007485):0.03616752,(6_0_0:0.00004018,6_0_1:0.00010459):0.03496367):0.02361046,((5_0_1:0.00000964,5_0_0:0.00001970):0.02143777,(2_0_0:0.00007246,2_0_1:0.00011095):0.01264633):0.05025640):0.02770606,(3_0_0:0.00001082,3_0_1:0.00002335):0.07226669):0.00251115,((1_0_0:0.00000673,1_0_1:0.00000396):0.00663565,(4_0_1:0.00016451,4_0_0:0.00012950):0.00757498):0.05929463):0.11456400):0.38673454);
[TREE] T10 (0_0_0:0.45306775,((8_0_1:0.00005566,8_0_0:0.00003555):0.22238160,(((((7_0_1:0.00024129,7_0_0:0.00016725):0.05453188,(6_0_1:0.00000535,6_0_0:0.00000347):0.05167680):0.02602619,((5_0_0:0.00003029,5_0_1:0.00002389):0.02198575,(2_0_1:0.00003521,2_0_0:0.00003330):0.02187910):0.02996175):0.01089146,(3_0_1:0.00002744,3_0_0:0.00002204):0.11587145):0.00184124,((1_0_0:0.00000073,1_0_1:0.00000031):0.00612173,(4_0_1:0.00000714,4_0_0:0.00001326):0.00723970):0.06898996):0.06844525):0.13536571);

[PARTITIONS] csSimUnlinked_01 [T01 csSim_unlinked_1 500]
[PARTITIONS] csSimUnlinked_02 [T02 csSim_unlinked_2 500]
[PARTITIONS] csSimUnlinked_03 [T03 csSim_unlinked_3 500]
[PARTITIONS] csSimUnlinked_04 [T04 csSim_unlinked_4 500]
[PARTITIONS] csSimUnlinked_05 [T05 csSim_unlinked_5 500]
[PARTITIONS] csSimUnlinked_06 [T06 csSim_unlinked_6 500]
[PARTITIONS] csSimUnlinked_07 [T07 csSim_unlinked_7 500]
[PARTITIONS] csSimUnlinked_08 [T08 csSim_unlinked_8 500]
[PARTITIONS] csSimUnlinked_09 [T09 csSim_unlinked_9 500]
[PARTITIONS] csSimUnlinked_10 [T10 csSim_unlinked_10 500]

[EVOLVE] csSimUnlinked_01 1 data_01
csSimUnlinked_02 1 data_02
csSimUnlinked_03 1 data_03
csSimUnlinked_04 1 data_04
csSimUnlinked_05 1 data_05
csSimUnlinked_06 1 data_06
csSimUnlinked_07 1 data_07
csSimUnlinked_08 1 data_08
csSimUnlinked_09 1 data_09
csSimUnlinked_10 1 data_10
