********************************************************************************
INDELible V1.03 by Will Fletcher : Simulation began at: Wed Nov 16 09:18:41 2016
********************************************************************************

  * Block 1 was completed in 0.38 seconds.

********************************************************************************


  * Block 2 was completed in 0.38 seconds.

********************************************************************************


  * Block 3 was completed in 0.36 seconds.

********************************************************************************


  * Block 4 was completed in 0.38 seconds.

********************************************************************************


  * Block 5 was completed in 0.38 seconds.

********************************************************************************


  * Block 6 was completed in 0.35 seconds.

********************************************************************************


  * Block 7 was completed in 0.36 seconds.

********************************************************************************


  * Block 8 was completed in 0.37 seconds.

********************************************************************************


  * Block 9 was completed in 0.37 seconds.

********************************************************************************


  * Block 10 was completed in 0.38 seconds.

********************************************************************************

  * Simulation completed. Whole batch took: 3.74 seconds.

INDELible V1.03 Simulations completed at: Wed Nov 16 09:18:45 2016

********************************************************************************


 Original Control File 

-----------------------


[TYPE] NUCLEOTIDE 1 

[SETTINGS]
    [fastaextension] fasta  

[MODEL] csSim_unlinked_1
    [submodel] GTR 0.090729 0.003953 0.021918 0.038162 0.044074 
    [statefreq] 0.774587 0.022224 0.128744 0.074445 
[rates] 0 3.647992 0 

[MODEL] csSim_unlinked_2
    [submodel] GTR 0.089371 0.011314 0.022430 0.028469 0.048037 
    [statefreq] 0.356443 0.403211 0.064049 0.176296 
[rates] 0 1.486970 0 

[MODEL] csSim_unlinked_3
    [submodel] GTR 0.109002 0.007221 0.027608 0.009485 0.033292 
    [statefreq] 0.448107 0.134469 0.104307 0.313118 
[rates] 0 2.353665 0 

[MODEL] csSim_unlinked_4
    [submodel] GTR 0.101698 0.006330 0.032529 0.024741 0.027105 
    [statefreq] 0.458757 0.405647 0.037390 0.098206 
[rates] 0 5.423796 0 

[MODEL] csSim_unlinked_5
    [submodel] GTR 0.101180 0.025722 0.034350 0.033903 0.038205 
    [statefreq] 0.042317 0.624915 0.009372 0.323395 
[rates] 0 0.686846 0 

[MODEL] csSim_unlinked_6
    [submodel] GTR 0.127013 0.009811 0.048621 0.014827 0.040005 
    [statefreq] 0.039314 0.185330 0.423976 0.351380 
[rates] 0 35.471100 0 

[MODEL] csSim_unlinked_7
    [submodel] GTR 0.119802 0.003778 0.022768 0.026329 0.039851 
    [statefreq] 0.116406 0.022901 0.629752 0.230942 
[rates] 0 34.875013 0 

[MODEL] csSim_unlinked_8
    [submodel] GTR 0.106469 0.011480 0.032099 0.035665 0.039324 
    [statefreq] 0.077864 0.360702 0.198577 0.362858 
[rates] 0 12.182260 0 

[MODEL] csSim_unlinked_9
    [submodel] GTR 0.142125 0.003775 0.020183 0.019049 0.023829 
    [statefreq] 0.069077 0.015872 0.029661 0.885390 
[rates] 0 11.427559 0 

[MODEL] csSim_unlinked_10
    [submodel] GTR 0.086888 0.007302 0.006712 0.045830 0.049579 
    [statefreq] 0.550205 0.202239 0.231495 0.016062 
[rates] 0 17.029870 0 


[TREE] T01 (((((((((6_0_6:0.00015080,6_0_9:0.00018488):0.00144336,6_0_3:0.00330911):0.00539840,((6_0_4:0.00053297,(6_0_1:0.00041112,6_0_0:0.00029522):0.00052513):0.00113490,6_0_5:0.00112121):0.00645057):0.00522349,(6_0_7:0.00064553,(6_0_8:0.00039364,6_0_2:0.00028918):0.00007390):0.00756618):0.10387677,((((11_0_4:0.00500103,11_0_7:0.00515582):0.01496283,((11_0_0:0.00350078,11_0_6:0.00678556):0.00651324,((11_0_9:0.00090819,11_0_1:0.00126439):0.00243801,(11_0_3:0.00465326,(11_0_8:0.00062487,11_0_2:0.00027653):0.00129944):0.00044572):0.01018164):0.00158663):0.02629369,((11_0_5:0.01754239,(14_0_1:0.01494956,((((14_0_6:0.00227930,(14_0_7:0.00154070,((14_0_2:0.00004306,14_0_5:0.00008874):0.00011581,14_0_3:0.00013805):0.00046884):0.00022544):0.00089477,(14_0_4:0.00101103,14_0_0:0.00189082):0.00043742):0.00090559,14_0_8:0.00195699):0.00740327,14_0_9:0.00391421):0.00073646):0.00492251):0.00521379,(((9_0_3:0.00194401,9_0_1:0.00179673):0.00113823,9_0_8:0.00437625):0.00958125,((((9_0_5:0.00027957,9_0_9:0.00039066):0.00068083,9_0_4:0.00053252):0.00209478,9_0_7:0.00135160):0.00943009,(9_0_0:0.00221939,(9_0_6:0.00078684,9_0_2:0.00057465):0.00122430):0.01773285):0.00686882):0.00971798):0.01682477):0.01217163,((((2_0_0:0.00017230,2_0_5:0.00015412):0.00367463,(2_0_7:0.00170687,2_0_9:0.00238950):0.00187834):0.00203867,(2_0_1:0.00049944,2_0_4:0.00052907):0.00365992):0.01324772,((((2_0_6:0.00050535,2_0_3:0.00046239):0.00109708,(2_0_2:0.00003758,2_0_8:0.00005029):0.00093746):0.00868323,((3_0_1:0.00064801,3_0_3:0.00088161):0.00893919,(3_0_9:0.00043584,3_0_4:0.00117595):0.00535275):0.00658005):0.00629696,(3_0_6:0.00665034,((3_0_2:0.00050290,3_0_8:0.00079222):0.00328965,(3_0_5:0.00133213,(3_0_0:0.00003662,3_0_7:0.00006822):0.00248034):0.00639599):0.00254254):0.01208336):0.00202916):0.01621985):0.07346645):0.05974780,((((((7_0_7:0.00100952,7_0_4:0.00062612):0.00382734,(7_0_2:0.00058014,7_0_0:0.00037314):0.00238530):0.00038529,7_0_6:0.00299363):0.00784036,((7_0_9:0.00104985,7_0_3:0.00070388):0.00603568,((7_0_1:0.00073818,7_0_5:0.00087422):0.00169466,7_0_8:0.00389559):0.00556525):0.00695208):0.01152261,(8_0_5:0.02446022,((8_0_1:0.00018478,(8_0_7:0.00013821,8_0_6:0.00011412):0.00000816):0.01471312,(8_0_2:0.00368418,((8_0_0:0.00067562,8_0_9:0.00070344):0.00100833,(8_0_4:0.00134879,(8_0_3:0.00065829,8_0_8:0.00064222):0.00018861):0.00068288):0.00077110):0.01288764):0.00210620):0.03692206):0.08410783,((13_0_9:0.00059963,(13_0_2:0.00018503,13_0_3:0.00029111):0.00065496):0.00940046,(((13_0_1:0.00139551,13_0_5:0.00319879):0.00083180,(13_0_6:0.00165417,13_0_8:0.00252685):0.00155678):0.00235287,(13_0_7:0.00227132,(13_0_0:0.00101264,13_0_4:0.00047769):0.00135182):0.00252000):0.00658087):0.11795724):0.04299927):0.01734352,(((((((17_0_9:0.00137179,17_0_2:0.00131999):0.00316163,17_0_7:0.00506331):0.03492521,(((17_0_5:0.00173091,17_0_1:0.00155649):0.00262728,(((17_0_4:0.00088591,17_0_6:0.00143021):0.00005498,17_0_3:0.00094391):0.00141205,17_0_0:0.00092237):0.00184832):0.00901650,17_0_8:0.00749699):0.02736182):0.03874590,(((10_0_1:0.00117332,10_0_3:0.00144600):0.01231348,(((10_0_0:0.00097231,(10_0_7:0.00027652,10_0_5:0.00013593):0.00035285):0.00267559,10_0_4:0.00513132):0.00859650,(((10_0_9:0.00183100,10_0_8:0.00159464):0.00007476,10_0_6:0.00092968):0.00206332,10_0_2:0.00352601):0.00234744):0.00333338):0.02613290,(((4_0_0:0.00472032,((((4_0_5:0.00036164,(4_0_2:0.00004844,4_0_6:0.00004887):0.00163122):0.00013416,4_0_9:0.00045410):0.00207853,(4_0_1:0.00087890,4_0_4:0.00054388):0.00135311):0.00067559,4_0_8:0.00276525):0.00171442):0.01492656,(((((12_0_4:0.00089899,12_0_1:0.00032201):0.00139455,12_0_8:0.00260734):0.00207425,((12_0_2:0.00207659,12_0_9:0.00312296):0.00098669,((12_0_6:0.00195512,(12_0_5:0.00024320,12_0_3:0.00018949):0.00193682):0.00165662,12_0_0:0.00459670):0.00255315):0.00039222):0.00065980,12_0_7:0.01010456):0.01049149,(4_0_3:0.00168430,4_0_7:0.00139100):0.02561907):0.00659467):0.00797430,(((15_0_1:0.00236057,(15_0_2:0.00009994,15_0_7:0.00011999):0.00268143):0.00563012,((15_0_6:0.00004345,15_0_3:0.00014547):0.00224984,(15_0_4:0.00106693,(15_0_8:0.00036226,15_0_5:0.00057117):0.00066176):0.00050447):0.00391551):0.02731035,(15_0_9:0.00137924,15_0_0:0.00245269):0.01126411):0.01577345):0.02355405):0.01055827):0.00455551,(((((1_0_4:0.00230133,1_0_8:0.00130777):0.00177326,(1_0_0:0.00059349,(1_0_2:0.00008542,1_0_6:0.00018540):0.00114408):0.00216756):0.00234767,((1_0_7:0.00137355,1_0_1:0.00083689):0.00358155,1_0_3:0.00488414):0.00122467):0.00133502,1_0_5:0.01162410):0.00939540,1_0_9:0.01349408):0.11453665):0.04270207,((16_0_8:0.00997718,(16_0_3:0.00210306,(16_0_5:0.00056630,16_0_6:0.00061238):0.00271127):0.00431925):0.01322373,((16_0_2:0.00599874,((16_0_7:0.00012979,16_0_0:0.00014170):0.00016373,16_0_9:0.00009981):0.01310419):0.00390006,(16_0_1:0.00476242,16_0_4:0.00558815):0.00425486):0.01338187):0.05390494):0.05302855,(((5_0_4:0.01613741,(((5_0_7:0.00008345,5_0_6:0.00003028):0.00169991,5_0_9:0.00039660):0.00022509,5_0_3:0.00216328):0.00626219):0.00117837,((5_0_8:0.00046767,5_0_0:0.00046836):0.00142929,(5_0_2:0.00024299,5_0_1:0.00022662):0.00208924):0.00926955):0.00487505,5_0_5:0.01163287):0.07377690):0.02073119):0.11754827,((18_0_0:0.00743177,(((18_0_3:0.00128628,(18_0_7:0.00089280,(18_0_6:0.00004466,18_0_5:0.00006986):0.00026141):0.00008853):0.00026471,((18_0_8:0.00006110,18_0_2:0.00014088):0.00069498,18_0_1:0.00060602):0.00069513):0.00060423,(18_0_4:0.00299147,18_0_9:0.00071127):0.00074116):0.01543502):0.11810535,((19_0_9:0.00680525,19_0_5:0.01060383):0.02308716,((19_0_3:0.00693980,((19_0_1:0.00114562,(19_0_6:0.00009949,19_0_8:0.00016817):0.00095406):0.00125581,19_0_2:0.00553187):0.00030147):0.00202081,((19_0_4:0.00009364,19_0_0:0.00012487):0.00030619,19_0_7:0.00060742):0.00535545):0.01750719):0.24581297):0.01724724):0.14275543,0_0_0:1.05161182);
[TREE] T02 ((((((((19_0_3:0.00121737,(19_0_9:0.00036213,19_0_1:0.00018737):0.00080121):0.00107975,19_0_0:0.00433389):0.00350169,19_0_5:0.00776450):0.00718478,19_0_6:0.02354601):0.00148414,(((19_0_7:0.00132939,19_0_2:0.00101792):0.00695461,19_0_4:0.01057208):0.00284737,19_0_8:0.00868363):0.00288629):0.85222483,((18_0_6:0.00721925,(((18_0_4:0.00089175,18_0_2:0.00088903):0.00067616,((18_0_0:0.00005512,18_0_9:0.00005175):0.00032966,18_0_1:0.00078749):0.00132429):0.00466524,(18_0_3:0.00189325,(18_0_5:0.00046555,18_0_7:0.00185962):0.00077404):0.00157226):0.00184859):0.00531201,18_0_8:0.01284603):0.61481248):0.01644222,((((6_0_3:0.00353933,((6_0_6:0.00165089,6_0_7:0.00115886):0.00273282,((6_0_1:0.00075013,6_0_5:0.00127553):0.00417581,(6_0_2:0.00009562,6_0_4:0.00019615):0.00464695):0.00006226):0.00048246):0.00289585,(6_0_0:0.00450346,(6_0_8:0.00033793,6_0_9:0.00052509):0.00462410):0.00204168):0.16177257,((((((11_0_9:0.00020423,11_0_0:0.00033174):0.00602904,11_0_7:0.00605180):0.01184935,(((11_0_2:0.00047824,((11_0_6:0.00028968,11_0_5:0.00017896):0.00036750,(11_0_3:0.00003284,11_0_8:0.00003262):0.00026920):0.00014905):0.00035826,11_0_4:0.00227739):0.00160807,11_0_1:0.00438687):0.01422070):0.01818589,(((14_0_2:0.00415143,14_0_3:0.00165421):0.00159850,14_0_5:0.00417970):0.00810524,((14_0_6:0.00152871,(14_0_8:0.00042292,14_0_1:0.00190529):0.00153415):0.00116106,(14_0_0:0.00135950,(14_0_7:0.00132543,(14_0_9:0.00000825,14_0_4:0.00001079):0.00065312):0.00001883):0.00147552):0.00865508):0.02399476):0.00840526,((((9_0_3:0.00040377,9_0_6:0.00100952):0.00388799,9_0_1:0.00741971):0.00057882,((9_0_9:0.00083131,9_0_5:0.00027875):0.00805509,(9_0_7:0.00042438,9_0_8:0.00100096):0.00236942):0.00154510):0.00498192,((9_0_4:0.00066407,9_0_2:0.00090214):0.00165767,9_0_0:0.00114880):0.00909066):0.03829091):0.05007037,(((2_0_9:0.00288689,2_0_7:0.00115505):0.00819433,(2_0_8:0.00052603,2_0_5:0.00021125):0.01310418):0.02631763,(((2_0_4:0.01084378,(2_0_1:0.00333691,(2_0_0:0.00223563,(2_0_6:0.00056270,2_0_2:0.00098297):0.00270475):0.00159677):0.00709635):0.00139163,2_0_3:0.01351441):0.02018018,(3_0_4:0.01141643,(3_0_8:0.00168440,((3_0_6:0.00216788,(3_0_9:0.00202922,(3_0_5:0.00014720,3_0_1:0.00023657):0.00274089):0.00022361):0.00006935,(((3_0_0:0.00080945,3_0_3:0.00124105):0.00045002,3_0_2:0.00272994):0.00044112,3_0_7:0.00218519):0.00024574):0.00021431):0.00089305):0.01448059):0.01445056):0.04801336):0.09804094):0.20248415,((((((8_0_5:0.00234728,8_0_4:0.00322442):0.00572740,(8_0_1:0.00082413,8_0_9:0.00314479):0.00465044):0.03112602,(8_0_6:0.01505818,(((8_0_8:0.00219751,8_0_3:0.00362145):0.00200697,(8_0_0:0.00389261,8_0_7:0.00310565):0.00195603):0.01075708,8_0_2:0.02155322):0.00127887):0.01558849):0.02124044,(((7_0_4:0.00024703,7_0_8:0.00022366):0.01217115,(7_0_6:0.00109250,((7_0_3:0.00079432,(7_0_9:0.00025170,7_0_5:0.00026082):0.00256708):0.00015256,(7_0_7:0.00110514,7_0_1:0.00069729):0.00135759):0.00034932):0.00627934):0.00572892,(7_0_0:0.00038281,7_0_2:0.00239230):0.00885113):0.07736702):0.07269856,((13_0_7:0.01397706,(13_0_9:0.00151085,(13_0_4:0.00201277,((13_0_0:0.00076038,13_0_8:0.00094967):0.00090227,13_0_1:0.00216288):0.00002638):0.00046874):0.00522777):0.04000928,(((13_0_2:0.00025582,13_0_3:0.00017198):0.00000189,13_0_5:0.00016634):0.01037815,13_0_6:0.01488541):0.05295170):0.15026266):0.08676789,((((5_0_6:0.00042367,5_0_4:0.00050833):0.00380090,(5_0_1:0.00018324,5_0_3:0.00032380):0.00430940):0.00525312,(5_0_9:0.01942205,((5_0_8:0.00010755,5_0_0:0.00009402):0.00706434,(5_0_2:0.00560914,(5_0_5:0.00141598,5_0_7:0.00342323):0.00225084):0.00065791):0.00563751):0.00279807):0.14280690,(((((17_0_1:0.00034798,(17_0_5:0.00025082,17_0_6:0.00010616):0.00089803):0.00045377,17_0_0:0.00123893):0.01012148,(17_0_4:0.01029993,(17_0_9:0.00779324,((17_0_8:0.00025812,17_0_2:0.00011918):0.00081998,(17_0_3:0.00052336,17_0_7:0.00067521):0.00009516):0.00401963):0.00128817):0.00415516):0.19245958,((((((12_0_2:0.00478046,12_0_5:0.00349785):0.01118500,(((12_0_4:0.00000338,12_0_6:0.00000184):0.00167469,12_0_8:0.00275677):0.00528320,(12_0_3:0.00145757,(12_0_1:0.00246162,12_0_0:0.00334699):0.00057798):0.00671452):0.02209343):0.00600607,(12_0_7:0.00072887,12_0_9:0.00122930):0.05254050):0.02318306,(((4_0_0:0.00110124,4_0_9:0.00057385):0.00642435,((4_0_4:0.00252924,(4_0_3:0.00364050,(4_0_5:0.00029560,4_0_7:0.00115425):0.00070584):0.00025667):0.00284158,(4_0_2:0.00313372,4_0_8:0.00279253):0.00285040):0.00376855):0.00233156,(4_0_1:0.00081436,4_0_6:0.00086940):0.03576037):0.01817687):0.00950103,((((10_0_7:0.00195177,(10_0_3:0.00058592,10_0_0:0.00046042):0.00766254):0.00976948,((10_0_5:0.00256014,10_0_1:0.00212209):0.00330348,10_0_6:0.00825885):0.05592762):0.03965967,((10_0_9:0.00086408,10_0_8:0.00174634):0.00237472,(10_0_2:0.00175548,10_0_4:0.00263336):0.00024962):0.09812803):0.00258879,(15_0_5:0.02871795,((((15_0_7:0.00124696,(15_0_4:0.00068609,15_0_8:0.00141670):0.00030261):0.00482266,15_0_9:0.01094131):0.01178182,(15_0_0:0.00257102,(15_0_1:0.00089350,15_0_2:0.00103499):0.00044899):0.00739192):0.00471968,(15_0_6:0.00101983,15_0_3:0.00037057):0.01371542):0.01019720):0.04610915):0.00238576):0.02551278,((((1_0_9:0.00090854,1_0_2:0.00079389):0.00163435,1_0_6:0.00695892):0.00218831,1_0_4:0.00548083):0.00574322,(((1_0_7:0.00512884,(1_0_8:0.00018880,1_0_1:0.00036479):0.00470333):0.00287886,1_0_0:0.00292432):0.00185572,(1_0_3:0.00041632,1_0_5:0.00101272):0.01400377):0.00352784):0.04183842):0.01266443):0.07017864,(((((16_0_5:0.00028687,16_0_1:0.00036695):0.00179862,(16_0_2:0.00003330,16_0_4:0.00003258):0.00213756):0.00014083,(16_0_0:0.00102987,16_0_6:0.00105228):0.00070407):0.00264391,((16_0_3:0.00009994,16_0_7:0.00015160):0.00230107,16_0_8:0.00443572):0.00190034):0.00699504,16_0_9:0.00985593):0.22764899):0.11613115):0.01611977):0.05753243):0.38409467):0.33219428,0_0_0:1.83028993);
[TREE] T03 (0_0_0:1.52978103,((((((((17_0_7:0.00547445,17_0_9:0.00659763):0.00237865,((((17_0_8:0.00004209,17_0_0:0.00005429):0.00393637,17_0_4:0.00339644):0.00181076,(17_0_5:0.00067096,(17_0_1:0.00035393,(17_0_6:0.00062121,17_0_2:0.00017722):0.00015263):0.00070727):0.00236016):0.00228430,17_0_3:0.01550183):0.00124346):0.19042383,((((((12_0_2:0.00092775,(12_0_0:0.00155814,12_0_7:0.00093013):0.00063608):0.00518732,(12_0_6:0.00101114,12_0_3:0.00079228):0.01127695):0.05328559,((12_0_1:0.00029009,12_0_4:0.00021329):0.00712605,((12_0_5:0.00015411,12_0_9:0.00009645):0.00223504,12_0_8:0.00473550):0.00227778):0.02738369):0.04465514,((4_0_5:0.01001728,4_0_3:0.01059064):0.00490860,(((4_0_2:0.00123733,4_0_4:0.00127018):0.00770086,(4_0_0:0.00801377,4_0_9:0.00870682):0.00159196):0.00933091,(4_0_1:0.00375101,((4_0_6:0.00085238,4_0_8:0.00077966):0.00325833,4_0_7:0.00410332):0.00266297):0.02013170):0.00155618):0.03884102):0.00871478,((((((15_0_4:0.00240851,15_0_7:0.00065293):0.00543261,(15_0_3:0.00443234,15_0_9:0.00365446):0.00348915):0.00087383,15_0_5:0.00656014):0.00044261,15_0_2:0.00681149):0.00029530,(15_0_6:0.00345501,15_0_8:0.00080545):0.01355319):0.01375610,(15_0_0:0.01211442,15_0_1:0.01702326):0.00779348):0.03292728):0.02286497,(((10_0_2:0.00527045,(10_0_5:0.00294405,10_0_3:0.00161001):0.00246931):0.00003872,(10_0_0:0.00065364,10_0_4:0.00082604):0.00514739):0.03790908,((10_0_7:0.00584845,10_0_8:0.00280468):0.00308221,((10_0_6:0.00046989,10_0_1:0.00059286):0.00830393,10_0_9:0.00732766):0.00234776):0.02246106):0.09088821):0.03638638):0.01782651,((((1_0_2:0.00120171,1_0_5:0.00099770):0.00748610,1_0_4:0.00956021):0.00241874,(1_0_6:0.00305872,1_0_7:0.00335449):0.00981275):0.03252969,((1_0_9:0.00170523,(1_0_1:0.00096758,(1_0_3:0.00121947,1_0_0:0.00168008):0.00028065):0.00113257):0.00221016,1_0_8:0.00476115):0.08632758):0.05206673):0.04631661,(((16_0_7:0.00473980,((16_0_0:0.00019205,16_0_3:0.00036659):0.00438250,16_0_9:0.00331956):0.00053047):0.00016651,(16_0_6:0.00306204,(16_0_4:0.00021196,16_0_5:0.00022535):0.00276425):0.00551894):0.00305062,(16_0_2:0.00452867,(16_0_1:0.00012775,16_0_8:0.00030586):0.00766689):0.00421601):0.17822993):0.35406531,((((5_0_5:0.00054181,5_0_0:0.00099997):0.00285229,((5_0_4:0.00033400,5_0_8:0.00034485):0.00019696,5_0_2:0.00164450):0.00316211):0.00087929,5_0_6:0.00529859):0.01327030,((5_0_1:0.00137163,5_0_7:0.00253873):0.02553300,(5_0_3:0.00620846,5_0_9:0.01089981):0.03800392):0.00216271):0.11984599):0.05967291,(((((13_0_8:0.00535136,13_0_7:0.00377730):0.00004388,(13_0_9:0.00053418,13_0_3:0.00214162):0.00250477):0.03198922,((13_0_2:0.02600755,(13_0_4:0.00221398,13_0_1:0.00184538):0.00917932):0.00165375,(13_0_0:0.00610659,(13_0_5:0.00087196,13_0_6:0.00111277):0.00706449):0.00856967):0.00784998):0.23350699,((((((8_0_6:0.00121379,8_0_4:0.00065810):0.00442686,(8_0_7:0.00220324,(8_0_1:0.00029623,(8_0_3:0.00039315,8_0_5:0.00040531):0.00072723):0.00024991):0.00311693):0.00355317,(8_0_8:0.00133860,8_0_9:0.00131347):0.00994440):0.00733910,(8_0_2:0.01477751,8_0_0:0.01486085):0.00561887):0.03583114,(((7_0_2:0.00084677,7_0_8:0.00087335):0.00014065,(7_0_9:0.00023517,7_0_5:0.00008006):0.00065955):0.00407989,((7_0_0:0.00011723,7_0_1:0.00007444):0.00167628,7_0_7:0.00071020):0.00580050):0.14193409):0.01119957,((7_0_4:0.00100401,7_0_6:0.00219373):0.01575188,7_0_3:0.00766739):0.07942005):0.16482835):0.19660173,((((((3_0_9:0.00176890,3_0_4:0.00087224):0.00589546,(((3_0_2:0.00013979,3_0_5:0.00042918):0.00029182,3_0_0:0.00092250):0.00231886,((3_0_7:0.00274132,3_0_3:0.00295361):0.00028080,3_0_6:0.00390194):0.00111536):0.00026600):0.00621101,(3_0_1:0.00115782,3_0_8:0.00141521):0.01221975):0.05128410,(2_0_9:0.02564737,((2_0_7:0.00379678,((2_0_6:0.00032886,2_0_8:0.00033374):0.00117447,2_0_1:0.00157319):0.00315794):0.00878601,(((2_0_2:0.00046782,(2_0_0:0.00009670,2_0_4:0.00008609):0.00037722):0.00117322,2_0_5:0.00083144):0.00915451,2_0_3:0.00554285):0.00065294):0.00137727):0.02539225):0.05476485,(((((9_0_7:0.00013588,9_0_6:0.00011945):0.00033161,9_0_8:0.00040252):0.00409269,(9_0_9:0.00444960,(9_0_4:0.00003667,9_0_2:0.00001949):0.00206840):0.00122781):0.00996400,((9_0_0:0.00555153,(9_0_5:0.00368955,9_0_1:0.00237850):0.00069245):0.00476010,9_0_3:0.00744086):0.00472725):0.05366241,(((11_0_0:0.00481224,(11_0_4:0.00477148,11_0_3:0.00184002):0.00223094):0.00038201,((11_0_6:0.00060099,(11_0_9:0.00032662,11_0_1:0.00120009):0.00072848):0.00353447,((11_0_7:0.00070835,(11_0_8:0.00009394,11_0_5:0.00008301):0.00093331):0.00109486,11_0_2:0.00368409):0.00414505):0.00167620):0.02041609,(((14_0_0:0.00010201,14_0_2:0.00022581):0.00273638,(14_0_3:0.00048296,14_0_4:0.00040154):0.00132929):0.01085494,(14_0_6:0.00324227,(((14_0_9:0.00026712,14_0_5:0.00012654):0.00108859,14_0_7:0.00150646):0.00209158,(14_0_1:0.00035946,14_0_8:0.00040301):0.00290178):0.00089756):0.01380364):0.00616843):0.01462135):0.07671469):0.06244755,((6_0_5:0.01011592,((6_0_4:0.00275145,(6_0_7:0.00177551,6_0_6:0.00109071):0.00185529):0.00621890,6_0_1:0.00956150):0.00015264):0.00248987,(6_0_2:0.00387649,((6_0_0:0.00077347,6_0_3:0.00098094):0.00117100,(6_0_9:0.00148941,6_0_8:0.00088997):0.00077473):0.00183424):0.00221205):0.14503802):0.08683096):0.02310162):0.19103490,((((18_0_0:0.00281310,(18_0_2:0.00017315,18_0_6:0.00013755):0.00265811):0.00182049,(18_0_7:0.00029422,18_0_3:0.00047359):0.00424644):0.08201357,(((18_0_1:0.00128457,18_0_4:0.00108078):0.00176268,18_0_5:0.00220524):0.01873912,(18_0_8:0.00009185,18_0_9:0.00009277):0.04522209):0.01632626):0.67593843,(((19_0_9:0.00029181,19_0_8:0.00044876):0.00143058,(19_0_6:0.00040660,19_0_0:0.00102412):0.00043198):0.02233149,(19_0_4:0.01255295,(19_0_3:0.00708654,((19_0_7:0.00199677,(19_0_1:0.00136984,19_0_2:0.00114351):0.00008431):0.00715449,19_0_5:0.00383396):0.00405348):0.00514919):0.01480410):0.87477175):0.06984569):0.54568638);
[TREE] T04 ((((((5_0_2:0.00032386,5_0_9:0.00037821):0.00753881,(5_0_1:0.00019908,5_0_0:0.00020428):0.00797035):0.00320398,(5_0_4:0.00140266,((5_0_7:0.00033160,5_0_6:0.00034490):0.00094696,((5_0_3:0.00003145,5_0_8:0.00002461):0.00076978,5_0_5:0.00093303):0.00008232):0.00249138):0.00796400):0.07864138,(((((((16_0_7:0.00013226,16_0_3:0.00011043):0.00230185,16_0_0:0.00112743):0.00226809,(16_0_2:0.00063527,16_0_1:0.00078085):0.00232568):0.00761307,(16_0_9:0.01193459,(16_0_4:0.00478478,16_0_8:0.00331806):0.00219133):0.00106929):0.01460027,(16_0_5:0.00098787,16_0_6:0.00141916):0.01279939):0.10096258,((((((((12_0_2:0.00067845,(12_0_4:0.00006974,12_0_7:0.00004135):0.00144532):0.00018763,((12_0_8:0.00056500,12_0_3:0.00041024):0.00039287,12_0_5:0.00182854):0.00010293):0.00963108,(12_0_1:0.00427153,((12_0_9:0.00051652,12_0_0:0.00155230):0.00004885,12_0_6:0.00081865):0.00782629):0.00259557):0.02563495,(((4_0_5:0.00379268,4_0_4:0.00546616):0.00144501,(4_0_2:0.00060731,((4_0_8:0.00039628,4_0_9:0.00021291):0.00005934,4_0_7:0.00055477):0.00006606):0.00405726):0.00956733,((4_0_3:0.00238935,(4_0_1:0.00035146,4_0_0:0.00082619):0.00134100):0.00139358,4_0_6:0.00475331):0.00968085):0.01067786):0.01059271,(((10_0_9:0.00214829,10_0_3:0.00101036):0.00176626,((10_0_2:0.00028363,10_0_4:0.00016295):0.00061578,(10_0_1:0.00059277,10_0_0:0.00078921):0.00100011):0.00219216):0.01271621,((10_0_5:0.00117272,10_0_6:0.00354724):0.00097153,(10_0_8:0.00026499,10_0_7:0.00005317):0.00694978):0.01139539):0.03445434):0.00807647,(15_0_6:0.00878575,((((15_0_0:0.00123854,(15_0_5:0.00077505,15_0_9:0.00144680):0.00029387):0.00127552,15_0_1:0.00151525):0.00088533,15_0_3:0.00825104):0.00359256,(15_0_2:0.00110869,(15_0_7:0.00149297,(15_0_4:0.00002182,15_0_8:0.00000993):0.00070279):0.00032882):0.01326904):0.00262800):0.03108545):0.00850535,(((17_0_4:0.00757391,(17_0_3:0.00223846,((17_0_7:0.00004421,17_0_1:0.00003720):0.00001218,17_0_8:0.00003544):0.00192425):0.00230602):0.00341643,(17_0_6:0.00216548,17_0_0:0.00201586):0.01576832):0.01447048,(17_0_2:0.00308547,(17_0_9:0.00036487,17_0_5:0.00107400):0.00107171):0.01715277):0.02119634):0.00626318,((1_0_8:0.00351944,((1_0_3:0.00085507,(1_0_5:0.00005137,1_0_4:0.00012932):0.00044764):0.00048940,1_0_7:0.00056427):0.00212678):0.01303036,((1_0_1:0.00313830,1_0_0:0.00428969):0.00188187,((1_0_9:0.00045850,1_0_6:0.00052309):0.00174494,1_0_2:0.00249928):0.00319582):0.00240868):0.01647860):0.04537139):0.11119610,((((((13_0_1:0.00032736,13_0_8:0.00030414):0.00115457,(13_0_9:0.00119297,13_0_2:0.00095535):0.00136782):0.00131193,((13_0_7:0.00474071,(13_0_3:0.00005394,13_0_6:0.00007987):0.00141011):0.00071309,13_0_0:0.01069089):0.00025144):0.01060017,(13_0_5:0.00183245,13_0_4:0.00233312):0.01507367):0.08366919,(((7_0_3:0.00172682,7_0_5:0.00208281):0.00846765,(((7_0_9:0.00180649,(7_0_8:0.00024408,7_0_7:0.00109166):0.00016221):0.00151001,((7_0_6:0.00002219,7_0_2:0.00004307):0.00383163,7_0_1:0.00196312):0.00202111):0.00058218,(7_0_4:0.00347810,7_0_0:0.00248693):0.00634699):0.00232764):0.05661272,((8_0_7:0.00620703,((8_0_1:0.00165735,8_0_6:0.00072047):0.00125430,(8_0_8:0.00080901,8_0_3:0.00093753):0.00085993):0.00044625):0.00863155,(((8_0_9:0.00102760,(8_0_0:0.00046891,8_0_5:0.00071544):0.00046350):0.00280620,8_0_2:0.00150518):0.00532271,8_0_4:0.00992936):0.00053908):0.02076526):0.04708143):0.15603700,(((((3_0_3:0.00319532,((((3_0_1:0.00031231,3_0_2:0.00047301):0.00037919,3_0_6:0.00066252):0.00139800,(3_0_5:0.00140546,3_0_8:0.00070707):0.00205979):0.00100515,3_0_9:0.00464041):0.00064330):0.01646555,((2_0_4:0.00510506,((2_0_8:0.00012745,2_0_1:0.00009704):0.00235335,((2_0_3:0.00041819,2_0_5:0.00044658):0.00080384,2_0_7:0.00103650):0.00137642):0.00321445):0.00267633,((2_0_0:0.00132347,2_0_6:0.00065377):0.00098973,(2_0_9:0.00024958,2_0_2:0.00031366):0.00188487):0.00558058):0.01280135):0.00368097,((3_0_4:0.00458402,3_0_7:0.00265055):0.00201080,3_0_0:0.00653115):0.01741556):0.04372144,(((11_0_0:0.00695910,((11_0_7:0.00041070,(11_0_3:0.00008699,11_0_1:0.00012406):0.00024185):0.00379408,((11_0_9:0.00017016,11_0_8:0.00015550):0.00296832,((11_0_6:0.00065838,11_0_4:0.00120411):0.00025514,(11_0_5:0.00006392,11_0_2:0.00010479):0.00151228):0.00209841):0.00103710):0.00105678):0.01384488,((((14_0_9:0.00107259,14_0_6:0.00069501):0.00248265,(14_0_7:0.00187840,((14_0_5:0.00079346,14_0_8:0.00163801):0.00080902,14_0_2:0.00105645):0.00023572):0.00085112):0.00479840,((14_0_4:0.00236406,14_0_0:0.00197775):0.00050198,14_0_1:0.00433124):0.00650330):0.00204816,14_0_3:0.00465856):0.00873745):0.00653603,((9_0_0:0.00297887,((9_0_3:0.00393623,9_0_5:0.00289344):0.00126377,(9_0_7:0.00366872,(9_0_8:0.00069149,9_0_2:0.00069801):0.00259613):0.00037974):0.00179437):0.00785288,(9_0_6:0.00356773,(9_0_9:0.00272836,(9_0_4:0.00120829,9_0_1:0.00083247):0.00065414):0.01138451):0.00226999):0.00833209):0.01943143):0.04312797,((((6_0_0:0.00052395,6_0_7:0.00084786):0.00190455,(6_0_6:0.00039415,6_0_9:0.00057216):0.00240027):0.00068710,6_0_5:0.00275315):0.00759113,(((6_0_2:0.00087252,6_0_8:0.00147269):0.00152861,6_0_1:0.00270174):0.00201443,(6_0_4:0.00108114,6_0_3:0.00152263):0.00229054):0.00285898):0.16676585):0.05096741):0.00496734):0.00205283):0.18129036,(((19_0_5:0.00079111,(19_0_8:0.00062195,19_0_4:0.00056629):0.00019284):0.02137796,(19_0_2:0.00530319,(((19_0_0:0.00103911,(19_0_3:0.00001066,19_0_7:0.00006282):0.00076909):0.00120047,(19_0_6:0.00074025,19_0_9:0.00030275):0.00076586):0.00122665,19_0_1:0.00644071):0.00167148):0.03030479):0.34077733,((18_0_4:0.00103183,18_0_8:0.00442321):0.02487793,(18_0_6:0.00739622,(((18_0_5:0.00163584,18_0_1:0.00117677):0.00108287,18_0_9:0.00127514):0.00302315,((18_0_2:0.00004810,18_0_7:0.00005729):0.00040544,(18_0_3:0.00087302,18_0_0:0.00034304):0.00031161):0.00288019):0.00013984):0.01398585):0.69877582):0.02647085):0.31033950,0_0_0:0.70023364);
[TREE] T05 ((((((18_0_4:0.00028756,18_0_6:0.00057254):0.00011880,(18_0_8:0.00011538,18_0_5:0.00022035):0.00042006):0.01418411,(((18_0_9:0.00142853,18_0_0:0.00049488):0.00170949,(18_0_7:0.00023476,(18_0_2:0.00024891,18_0_1:0.00016373):0.00025711):0.00353458):0.00361182,18_0_3:0.00362646):0.00923284):0.28420023,((((((16_0_9:0.00071426,(16_0_4:0.00037427,16_0_1:0.00066503):0.00077492):0.01091831,((16_0_8:0.00015173,16_0_5:0.00013323):0.00147044,16_0_3:0.00124535):0.01156592):0.03658368,((16_0_7:0.00112491,16_0_6:0.00239657):0.00098973,(16_0_2:0.00035968,16_0_0:0.00147335):0.00164976):0.03468806):0.15509730,(((((10_0_0:0.00316570,10_0_4:0.00209884):0.01281358,((((10_0_9:0.00066103,10_0_8:0.00095459):0.00063624,(10_0_7:0.00155980,10_0_2:0.00159787):0.00127842):0.00022994,(10_0_5:0.00172936,10_0_3:0.00109698):0.00053681):0.00256833,(10_0_1:0.00208480,10_0_6:0.00170594):0.00535584):0.00743539):0.04303270,((((((((15_0_0:0.00037825,15_0_1:0.00011581):0.00169617,15_0_4:0.00075000):0.00069219,(15_0_9:0.00034676,15_0_7:0.00128464):0.00048236):0.00151731,(15_0_3:0.00204148,15_0_6:0.00089240):0.00274391):0.00133002,15_0_8:0.00455524):0.00121851,15_0_2:0.00341705):0.00195894,15_0_5:0.01644366):0.03616183,(((4_0_2:0.00983211,((4_0_1:0.00154144,4_0_6:0.00289948):0.00729825,(4_0_7:0.00445073,((4_0_3:0.00014988,4_0_8:0.00011480):0.00123378,(4_0_5:0.00017869,4_0_4:0.00034832):0.00161938):0.00189362):0.00218817):0.00486023):0.00021978,(4_0_0:0.00054192,4_0_9:0.00034151):0.01258529):0.02538911,((12_0_3:0.00544606,12_0_7:0.01239521):0.00065922,(((12_0_4:0.00077768,12_0_5:0.00209304):0.00022032,12_0_6:0.00063695):0.00412246,(((12_0_1:0.00044086,(12_0_8:0.00005977,12_0_0:0.00004772):0.00029169):0.00029022,12_0_9:0.00015641):0.00361356,12_0_2:0.00496165):0.00470319):0.00606953):0.02244610):0.00383337):0.01648405):0.00896237,(((17_0_3:0.00200495,((17_0_9:0.00050403,17_0_5:0.00055883):0.00160561,17_0_2:0.00185998):0.00043934):0.00001889,17_0_0:0.00569509):0.00934377,(((17_0_7:0.00007985,17_0_6:0.00006544):0.00003429,17_0_4:0.00013037):0.00339403,(17_0_1:0.00235004,17_0_8:0.00265619):0.00284514):0.01410172):0.07704234):0.00611509,(((1_0_6:0.00132084,1_0_1:0.00101618):0.00597568,((1_0_7:0.00030645,1_0_8:0.00059233):0.00466459,(1_0_4:0.00021098,1_0_9:0.00016976):0.00221454):0.00510167):0.00402223,((1_0_2:0.00230538,1_0_5:0.00351815):0.00283088,(1_0_3:0.00201042,1_0_0:0.00238614):0.00134441):0.00513617):0.04738341):0.05150468):0.02583686,(5_0_9:0.01157628,(((((5_0_2:0.00054902,(5_0_8:0.00040641,5_0_1:0.00044100):0.00071760):0.00020476,((5_0_7:0.00005702,5_0_6:0.00004413):0.00016294,5_0_3:0.00029011):0.00077705):0.00022642,5_0_4:0.00189367):0.00111111,5_0_5:0.00367615):0.00299100,5_0_0:0.00721852):0.00469369):0.32627653):0.02889349,(((((7_0_5:0.00423963,7_0_0:0.00247415):0.00642350,((7_0_1:0.00286137,((7_0_3:0.00020785,7_0_7:0.00054137):0.00155855,7_0_6:0.00106653):0.00074736):0.00285359,(7_0_8:0.00066475,((7_0_4:0.00030835,7_0_2:0.00020006):0.00016512,7_0_9:0.00028569):0.00047006):0.00579338):0.00251534):0.02635674,(((8_0_0:0.00199958,8_0_9:0.00108051):0.00234588,((8_0_2:0.00037666,(8_0_6:0.00004775,8_0_1:0.00005353):0.00031007):0.00160965,(8_0_7:0.00381658,8_0_4:0.00298371):0.00016093):0.00079827):0.02236217,((8_0_8:0.00060258,8_0_3:0.00044002):0.00029695,8_0_5:0.00113519):0.00650304):0.02119855):0.06068186,((((13_0_4:0.00365172,13_0_1:0.00107946):0.00000233,13_0_0:0.00365012):0.00613889,((13_0_6:0.00066063,((13_0_2:0.00009661,13_0_8:0.00005312):0.00022618,13_0_7:0.00037933):0.00018147):0.00125239,13_0_5:0.00099402):0.01111066):0.00674807,(13_0_9:0.00066120,13_0_3:0.00047100):0.00532188):0.09697718):0.09403970,((((6_0_5:0.00095932,(6_0_4:0.00103159,6_0_7:0.00124281):0.00074770):0.00702279,((6_0_3:0.00056965,(6_0_6:0.00022375,6_0_1:0.00046236):0.00003052):0.00200066,((6_0_8:0.00024449,6_0_9:0.00024868):0.00050756,6_0_2:0.00038720):0.00290716):0.00112722):0.00789233,6_0_0:0.00889926):0.12057810,(((11_0_5:0.00432740,((((11_0_3:0.00004584,11_0_7:0.00011140):0.00060167,11_0_4:0.00022661):0.00017454,(11_0_6:0.00018734,(11_0_8:0.00003640,11_0_9:0.00002555):0.00050461):0.00019564):0.00093976,((11_0_1:0.00063613,11_0_2:0.00017104):0.00085544,11_0_0:0.00082961):0.00015358):0.00394087):0.01160776,((((9_0_7:0.00045412,(9_0_1:0.00000765,9_0_2:0.00000976):0.00207453):0.00459137,(9_0_0:0.00155338,((9_0_4:0.00001824,9_0_9:0.00001613):0.00011892,(9_0_5:0.00008381,9_0_3:0.00004449):0.00010492):0.00217114):0.00362163):0.00009120,(9_0_8:0.00139731,9_0_6:0.00229610):0.00331125):0.00347112,((14_0_0:0.00003953,(14_0_7:0.00016946,14_0_1:0.00009806):0.00000712):0.00548213,(((14_0_5:0.00012861,14_0_9:0.00017168):0.00030975,14_0_3:0.00037402):0.00838353,((14_0_4:0.00000508,14_0_6:0.00000499):0.00139699,(14_0_2:0.00307125,14_0_8:0.00201051):0.00181092):0.00390434):0.00560901):0.02500692):0.00554692):0.03920378,((((3_0_3:0.00003456,3_0_6:0.00004852):0.00004909,3_0_1:0.00010492):0.01132379,((2_0_1:0.00277762,((2_0_7:0.00075880,2_0_4:0.00159279):0.00178256,2_0_9:0.00146069):0.00084003):0.00274896,((2_0_3:0.00327672,((2_0_5:0.00044660,(2_0_2:0.00021299,2_0_0:0.00036240):0.00023364):0.00100422,2_0_6:0.00119912):0.00144246):0.00276846,2_0_8:0.01435638):0.00013505):0.00205996):0.01186205,((3_0_0:0.00133643,(3_0_4:0.00278956,(3_0_7:0.00051134,(3_0_8:0.00003861,3_0_5:0.00003947):0.00155733):0.00052365):0.00061469):0.00154123,(3_0_9:0.00221987,3_0_2:0.00419025):0.00149676):0.02666951):0.03345421):0.03845702):0.10352340):0.00927440):0.15085658):0.00030620,((19_0_5:0.00165080,(19_0_3:0.00178316,19_0_0:0.00206308):0.00056488):0.01505111,(((19_0_9:0.00024641,19_0_1:0.00039282):0.00212418,19_0_7:0.00218712):0.00206037,(19_0_2:0.00445208,((19_0_4:0.00001166,19_0_8:0.00001888):0.00020512,19_0_6:0.00005357):0.00475701):0.00159743):0.00553395):0.38845474):0.46201068,0_0_0:0.48137945);
[TREE] T06 (0_0_0:1.03989381,((((((13_0_3:0.00217052,13_0_1:0.00377654):0.00763244,((13_0_8:0.00332829,13_0_0:0.00190813):0.00350756,((((13_0_6:0.00020446,13_0_7:0.00036503):0.00054972,13_0_2:0.00202419):0.00016625,(13_0_4:0.00058521,13_0_5:0.00056880):0.00012651):0.00065559,13_0_9:0.00317447):0.00319186):0.00143730):0.11155137,((((7_0_5:0.00099424,(7_0_1:0.00118181,7_0_6:0.00078858):0.00028698):0.00107002,(7_0_4:0.00232906,(7_0_2:0.00102274,(7_0_0:0.00031601,((7_0_3:0.00031171,7_0_9:0.00020115):0.00001347,7_0_8:0.00015083):0.00018218):0.00047593):0.00145524):0.00243550):0.00108036,7_0_7:0.00540519):0.01844723,((((8_0_9:0.00117619,8_0_4:0.00101279):0.00046090,8_0_7:0.00070899):0.00085541,(8_0_6:0.00035911,(8_0_1:0.00017769,8_0_5:0.00042265):0.00040306):0.00245607):0.01853669,((8_0_8:0.00066603,(8_0_0:0.00072566,8_0_2:0.00045712):0.00073047):0.00162388,8_0_3:0.00786434):0.01065274):0.00700221):0.01844678):0.04818747,(((6_0_0:0.00456179,6_0_6:0.00674882):0.00444425,((6_0_5:0.00102333,(6_0_8:0.00013205,6_0_3:0.00019582):0.00180082):0.00107859,((6_0_1:0.00018911,6_0_4:0.00017898):0.00096980,((6_0_2:0.00053226,6_0_7:0.00019396):0.00065557,6_0_9:0.00054147):0.00025497):0.00101816):0.00829393):0.06827383,((((9_0_3:0.01164297,((9_0_8:0.00070897,9_0_1:0.00121249):0.00018248,(9_0_6:0.00021311,((9_0_5:0.00005995,9_0_2:0.00001892):0.00000523,9_0_9:0.00003265):0.00007280):0.00110067):0.00711447):0.00036558,(9_0_0:0.00141329,(9_0_4:0.00053398,9_0_7:0.00039705):0.00032819):0.00544641):0.01132620,((((((11_0_9:0.00058805,(11_0_0:0.00008406,11_0_3:0.00028139):0.00043973):0.00081534,11_0_6:0.00091891):0.00154192,((11_0_5:0.00035572,11_0_8:0.00078293):0.00203175,11_0_4:0.00317603):0.00209190):0.00503628,((14_0_5:0.00333650,((((14_0_0:0.00000055,14_0_8:0.00000179):0.00034195,14_0_1:0.00029827):0.00007831,(14_0_3:0.00022661,14_0_4:0.00047685):0.00001447):0.00009675,14_0_7:0.00045993):0.00115997):0.00021658,(14_0_9:0.00213323,14_0_6:0.00154431):0.00103011):0.00276449):0.00309071,(14_0_2:0.00671805,11_0_2:0.00392711):0.00454452):0.00121885,(11_0_1:0.00028311,11_0_7:0.00049011):0.02045457):0.00379994):0.01809842,(((3_0_8:0.00009983,(3_0_6:0.00004135,(3_0_1:0.00004928,3_0_0:0.00004455):0.00000570):0.00017818):0.00355589,(((2_0_6:0.00092898,2_0_2:0.00031713):0.00116051,2_0_9:0.00146758):0.00059914,(((2_0_5:0.00003916,2_0_4:0.00001910):0.00219277,2_0_1:0.00032591):0.00008439,(((2_0_8:0.00001048,2_0_7:0.00002452):0.00065724,2_0_3:0.00070533):0.00036403,2_0_0:0.00207181):0.00041247):0.00091164):0.00488791):0.01229219,((3_0_4:0.00134405,3_0_9:0.00304435):0.00173912,(((3_0_2:0.00017417,3_0_5:0.00018996):0.00101077,3_0_3:0.00125982):0.00030712,3_0_7:0.00112222):0.00098315):0.01586491):0.01118860):0.03707647):0.05891567):0.01189788,(((((((((4_0_0:0.00135012,4_0_7:0.00058521):0.00038627,(4_0_9:0.00067845,4_0_3:0.00063547):0.00069760):0.00384024,(4_0_1:0.00167940,(((4_0_5:0.00079260,4_0_2:0.00067122):0.00036211,(4_0_8:0.00223008,4_0_6:0.00080766):0.00056447):0.00038221,4_0_4:0.00152908):0.00020709):0.00426789):0.00535826,((12_0_6:0.00025092,12_0_9:0.00028154):0.00670895,(12_0_4:0.00415942,(((12_0_2:0.00142404,12_0_8:0.00076686):0.00083792,((12_0_1:0.00025167,12_0_5:0.00033823):0.00011122,12_0_0:0.00048721):0.00230373):0.00051856,(12_0_7:0.00081414,12_0_3:0.00023438):0.00065722):0.00125698):0.00076811):0.01171096):0.00242908,((((15_0_0:0.00095876,(15_0_4:0.00040640,15_0_8:0.00139720):0.00039029):0.00020395,15_0_1:0.00237741):0.00003272,15_0_9:0.00176139):0.01723178,(15_0_3:0.00221326,(15_0_5:0.00082121,((15_0_2:0.00064545,15_0_7:0.00053076):0.00026314,15_0_6:0.00094507):0.00021965):0.00024356):0.01195911):0.01339552):0.01335316,((10_0_0:0.00382486,(((10_0_9:0.00002785,10_0_3:0.00005206):0.00135829,((10_0_6:0.00024641,10_0_7:0.00039885):0.00164926,10_0_1:0.00163045):0.00010173):0.00268841,10_0_4:0.00412186):0.00215908):0.00123250,((10_0_5:0.00043089,10_0_8:0.00028653):0.00239865,10_0_2:0.00222048):0.00832915):0.04875445):0.01237232,(((17_0_3:0.00102226,((17_0_9:0.00098263,17_0_0:0.00110587):0.00091895,17_0_6:0.00217586):0.00035193):0.00118018,((17_0_8:0.00124884,(17_0_5:0.00040646,(17_0_1:0.00035893,17_0_2:0.00053442):0.00015407):0.00021611):0.00257505,(17_0_4:0.00213666,17_0_7:0.00178045):0.00075228):0.00245174):0.05119944,((1_0_1:0.00184314,((1_0_3:0.00013746,1_0_8:0.00025553):0.00067275,(1_0_0:0.00029192,1_0_7:0.00029990):0.00165541):0.00112424):0.00094609,((1_0_5:0.00068272,(1_0_6:0.00009346,1_0_4:0.00025280):0.00033955):0.00234054,(1_0_9:0.00273232,1_0_2:0.00310629):0.00022012):0.00037462):0.06498432):0.00342034):0.01101891,((((16_0_2:0.00023450,16_0_5:0.00070375):0.00016078,16_0_7:0.00090144):0.00174277,(16_0_8:0.00172491,16_0_1:0.00030741):0.00259971):0.00288035,((16_0_4:0.00025032,(16_0_0:0.00000709,16_0_9:0.00000909):0.00036050):0.00140995,(16_0_6:0.00141869,16_0_3:0.00069524):0.00074550):0.00326792):0.04877636):0.02900810,(((5_0_6:0.00051981,5_0_0:0.00054307):0.00129684,5_0_7:0.00425622):0.01820222,((((5_0_8:0.00035773,5_0_5:0.00049047):0.00106231,5_0_3:0.00210248):0.00013783,(5_0_2:0.00008974,5_0_4:0.00004117):0.00168689):0.00016495,(5_0_9:0.00229695,5_0_1:0.00104914):0.00004892):0.01865614):0.19691240):0.01186390):0.06045727,(((19_0_9:0.00376127,(((19_0_7:0.00040464,19_0_1:0.00027506):0.00000765,19_0_2:0.00035553):0.00139666,(19_0_8:0.00058885,(19_0_6:0.00001201,19_0_4:0.00001202):0.00232759):0.00019201):0.00202026):0.00042196,(19_0_5:0.00185011,(19_0_3:0.00014869,19_0_0:0.00029570):0.00389774):0.00242702):0.30191536,(((18_0_2:0.00156134,(18_0_8:0.00053388,18_0_9:0.00092770):0.00040332):0.00177917,(18_0_4:0.00116100,(18_0_5:0.00106085,(18_0_1:0.00027580,18_0_3:0.00049370):0.00036494):0.00034720):0.00096279):0.00309317,(18_0_6:0.00242529,(18_0_0:0.00170216,18_0_7:0.00057169):0.00035662):0.00581079):0.26555153):0.01059715):0.09777762);
[TREE] T07 (0_0_0:0.81579053,(((((((((8_0_7:0.00059865,8_0_5:0.00101992):0.00466091,8_0_6:0.01043447):0.00730511,(8_0_2:0.00263414,(8_0_3:0.00214996,(8_0_4:0.00100534,(8_0_8:0.00030479,8_0_9:0.00045339):0.00150884):0.00228534):0.00063930):0.01513592):0.01053545,(8_0_0:0.00643440,8_0_1:0.02426233):0.00894842):0.02368142,((((7_0_1:0.00066443,(7_0_3:0.00067482,(7_0_9:0.00014153,7_0_2:0.00022405):0.00056033):0.00033241):0.00328022,7_0_8:0.00178549):0.00103187,7_0_5:0.01392901):0.00480778,((7_0_0:0.00006679,7_0_4:0.00015171):0.00231785,(7_0_6:0.00026102,7_0_7:0.00031639):0.00207374):0.01360968):0.00618511):0.06733124,((((((13_0_2:0.00081700,13_0_8:0.00085241):0.00068444,13_0_4:0.00186199):0.00059641,13_0_1:0.00202477):0.00320252,13_0_6:0.00328180):0.00109595,(13_0_0:0.00287238,(13_0_3:0.00304890,13_0_9:0.00108614):0.00280768):0.00255726):0.01779498,(13_0_7:0.00170327,13_0_5:0.00130293):0.00638745):0.06925975):0.05596058,((((((((14_0_1:0.00184200,(14_0_9:0.00260939,14_0_2:0.00151990):0.00019322):0.00039546,((14_0_4:0.00119654,14_0_0:0.00175495):0.00007277,(14_0_6:0.00089317,14_0_8:0.00080636):0.00011451):0.00104410):0.00449917,((14_0_3:0.00144843,14_0_5:0.00153332):0.00011794,14_0_7:0.00043219):0.00477228):0.01252525,(((((11_0_2:0.00015569,11_0_8:0.00026252):0.00054864,11_0_0:0.00124015):0.00090388,11_0_1:0.00207131):0.00111258,11_0_6:0.00416710):0.01257138,((11_0_5:0.00112013,11_0_7:0.00172726):0.00598188,(11_0_3:0.00306714,(11_0_9:0.00067510,11_0_4:0.00059969):0.00278695):0.00291046):0.00372919):0.00223225):0.01413977,(((((9_0_3:0.00021797,(9_0_0:0.00019145,9_0_6:0.00025714):0.00028103):0.00020560,9_0_1:0.00048644):0.00020949,9_0_4:0.00219778):0.00016773,9_0_7:0.00107624):0.00083556,(9_0_9:0.00070752,(9_0_2:0.00009072,9_0_5:0.00015171):0.00134623):0.00112033):0.01977396):0.00044618,9_0_8:0.02176934):0.03843905,((3_0_4:0.00349404,3_0_7:0.00341894):0.02478168,(((2_0_5:0.00473701,(((2_0_2:0.00075248,2_0_4:0.00051232):0.00098139,(2_0_0:0.00010014,2_0_9:0.00014575):0.00139388):0.00347403,(2_0_1:0.00187300,(2_0_3:0.00127742,(2_0_8:0.00058550,(2_0_7:0.00017753,2_0_6:0.00019738):0.00012850):0.00126129):0.00007619):0.00480453):0.00024571):0.00979383,(((3_0_1:0.00007742,3_0_6:0.00008695):0.00133228,(3_0_9:0.00041060,(3_0_8:0.00020200,3_0_0:0.00066384):0.00002004):0.00086475):0.00557104,3_0_3:0.00902939):0.00031347):0.00089719,(3_0_2:0.00166055,3_0_5:0.00056281):0.00773794):0.01482558):0.02616516):0.04217780,((6_0_8:0.00450171,((6_0_1:0.00001863,6_0_3:0.00002044):0.00099479,(((6_0_5:0.00020216,6_0_0:0.00004077):0.00051547,(6_0_6:0.00025785,6_0_2:0.00013444):0.00008551):0.00026443,6_0_9:0.00074107):0.00149382):0.00236020):0.01453440,(6_0_4:0.00293481,6_0_7:0.00414669):0.01527285):0.06999109):0.07256196):0.02449630,((((((16_0_4:0.00058100,(16_0_2:0.00001734,16_0_1:0.00002298):0.00023297):0.00077766,16_0_9:0.00266210):0.00086414,(16_0_5:0.00067582,(16_0_0:0.00055820,16_0_3:0.00055706):0.00089706):0.00109632):0.00489783,(16_0_7:0.00182230,(16_0_8:0.00059250,16_0_6:0.00102608):0.00117428):0.00388065):0.09443782,(((((4_0_0:0.00483548,((4_0_5:0.00229201,(((4_0_4:0.00009101,4_0_1:0.00006579):0.00040745,4_0_9:0.00085053):0.00255532,4_0_7:0.00185406):0.00036211):0.00186312,(4_0_3:0.00202132,((4_0_8:0.00070517,4_0_2:0.00082374):0.00057432,4_0_6:0.00082992):0.00039628):0.00367824):0.00047564):0.06022593,((15_0_2:0.00948545,(((15_0_7:0.00105764,(15_0_8:0.00174408,15_0_1:0.00083831):0.00056492):0.00522340,((15_0_0:0.00007559,15_0_9:0.00007093):0.00061684,15_0_3:0.00091025):0.00343842):0.00628241,((15_0_6:0.00208050,15_0_4:0.00215769):0.00054247,15_0_5:0.00174424):0.00815247):0.01275897):0.02966200,(((12_0_1:0.00377985,12_0_5:0.00231048):0.00011599,12_0_4:0.00523661):0.01434351,((((12_0_2:0.00037601,12_0_9:0.00063113):0.00020167,12_0_8:0.00077829):0.00060589,((12_0_3:0.00012905,12_0_0:0.00015133):0.00002199,12_0_6:0.00029649):0.00343638):0.00467532,12_0_7:0.01773802):0.00314233):0.03418304):0.00092988):0.01754471,(((((10_0_9:0.00068954,(10_0_5:0.00003278,10_0_1:0.00002489):0.00059626):0.00221524,(10_0_7:0.00041711,10_0_0:0.00017182):0.00643994):0.00018462,10_0_6:0.00228070):0.00743989,10_0_3:0.01250698):0.00258213,(10_0_4:0.00386301,(10_0_2:0.00018499,10_0_8:0.00018159):0.00389444):0.01558950):0.02696374):0.00803109,(((1_0_6:0.00008078,1_0_4:0.00011409):0.01227179,(1_0_7:0.00139727,(1_0_9:0.00044228,1_0_0:0.00124890):0.00027885):0.00798176):0.01153144,((1_0_5:0.00196757,((1_0_2:0.00038833,1_0_3:0.00040102):0.00059341,1_0_1:0.00048582):0.00151476):0.00023673,1_0_8:0.00218108):0.01142796):0.05156661):0.01540389,((((((17_0_9:0.00003659,17_0_5:0.00003274):0.00000940,17_0_1:0.00009558):0.00016011,17_0_4:0.00041541):0.00679303,17_0_6:0.00365642):0.00272285,17_0_7:0.00484949):0.02208138,((17_0_3:0.00183199,(17_0_0:0.00002079,17_0_8:0.00004096):0.00112015):0.00136423,17_0_2:0.01095586):0.02534251):0.03523871):0.03425081):0.11702409,((5_0_6:0.00255801,5_0_0:0.00122396):0.01328997,(((5_0_1:0.00061845,(5_0_2:0.00028350,5_0_3:0.00009504):0.00075325):0.00376827,5_0_7:0.01335656):0.00040934,(((5_0_4:0.00007915,5_0_9:0.00007335):0.00021849,5_0_5:0.00038063):0.00150697,5_0_8:0.00392462):0.00469312):0.00129934):0.09261319):0.02069375):0.07297203,((((18_0_7:0.00407333,((((18_0_0:0.00100608,18_0_3:0.00070237):0.00032668,(18_0_9:0.00003461,18_0_4:0.00010776):0.00086717):0.00024267,(18_0_2:0.00016581,18_0_8:0.00045209):0.00182416):0.00003688,18_0_1:0.00119937):0.00328708):0.00107608,18_0_6:0.01282593):0.02037284,18_0_5:0.01961841):0.33019961,((19_0_0:0.00296500,(((19_0_5:0.00027534,19_0_9:0.00040743):0.00018995,(19_0_6:0.00008630,19_0_1:0.00007340):0.00036190):0.00360028,19_0_2:0.00412757):0.00126314):0.01465815,((19_0_4:0.01681865,19_0_8:0.01984711):0.00447023,(19_0_7:0.00002649,19_0_3:0.00002129):0.01829706):0.00474704):0.46603937):0.00722165):0.38660074);
[TREE] T08 (0_0_0:1.47957304,(((((((((16_0_5:0.00018044,16_0_2:0.00012179):0.00171472,16_0_6:0.00305244):0.00028463,16_0_8:0.00151834):0.00156491,(16_0_1:0.00453423,(16_0_4:0.00218276,(16_0_9:0.00036591,16_0_3:0.00038586):0.00505696):0.00011878):0.00023651):0.00275273,(16_0_7:0.00511617,16_0_0:0.00534610):0.00219871):0.13658008,(((17_0_0:0.02819014,(((17_0_6:0.00049611,17_0_4:0.00079817):0.00266768,17_0_3:0.00210291):0.00328256,(((17_0_1:0.00251028,17_0_8:0.00157685):0.00012383,(17_0_2:0.00159687,(17_0_5:0.00014227,17_0_9:0.00019533):0.00159555):0.00016919):0.00019200,17_0_7:0.00089338):0.00395324):0.01930958):0.04600928,((((((4_0_8:0.01060093,((4_0_5:0.00234958,((4_0_4:0.00005330,4_0_6:0.00003130):0.00077245,4_0_9:0.00104864):0.00469275):0.00333572,(4_0_1:0.00135441,4_0_2:0.00056991):0.00410695):0.00038540):0.01261408,(4_0_7:0.00240848,(4_0_3:0.00038522,4_0_0:0.00142647):0.00680025):0.01083911):0.01770650,(12_0_1:0.00117620,12_0_7:0.00029031):0.05978320):0.00092781,((12_0_4:0.00264665,(12_0_6:0.00183146,12_0_0:0.00340058):0.00113425):0.00904060,((12_0_8:0.00132530,(12_0_5:0.00126492,12_0_3:0.00254249):0.00057694):0.00467844,(12_0_9:0.00301320,12_0_2:0.00070965):0.00427274):0.01320380):0.00706851):0.01568149,((((15_0_4:0.00650880,15_0_7:0.00451288):0.00860456,15_0_8:0.00710383):0.00020504,(15_0_6:0.00311162,(15_0_2:0.00245989,((15_0_5:0.00074870,15_0_1:0.00140661):0.00057608,(15_0_0:0.00166286,15_0_9:0.00087323):0.00270172):0.00004079):0.00656222):0.00826339):0.00407206,15_0_3:0.02478182):0.06808384):0.01034239,((((10_0_0:0.00140282,(10_0_5:0.00022735,10_0_6:0.00023347):0.00129737):0.00097769,10_0_1:0.00082389):0.01645074,((10_0_9:0.00094470,10_0_8:0.00350963):0.00111547,10_0_7:0.00448605):0.01222784):0.00366141,((10_0_2:0.00242643,10_0_4:0.00418161):0.00218712,10_0_3:0.00699649):0.01674468):0.04955551):0.01346556):0.02000621,((1_0_0:0.00001623,1_0_4:0.00000956):0.02826754,(((1_0_9:0.00526794,(1_0_6:0.00337630,1_0_3:0.00226302):0.00155375):0.00001112,1_0_5:0.00578388):0.00333378,((1_0_8:0.00021112,1_0_7:0.00042553):0.00159679,(1_0_1:0.00126837,1_0_2:0.00135292):0.00032571):0.00793364):0.01700620):0.14024815):0.06141932):0.07337124,((((5_0_8:0.00039614,5_0_6:0.00025125):0.00116143,(5_0_5:0.00257396,5_0_2:0.00256061):0.00003317):0.00144758,5_0_4:0.00640062):0.03111953,((5_0_0:0.00085155,(5_0_3:0.00054395,5_0_7:0.00062135):0.00078950):0.00596591,(5_0_1:0.00302752,5_0_9:0.00212581):0.00147808):0.01204393):0.18931229):0.02482907,((((((8_0_9:0.00024771,8_0_8:0.00017124):0.00180567,((8_0_1:0.00022155,8_0_7:0.00012126):0.00018140,8_0_4:0.00033624):0.00108386):0.02722391,((8_0_0:0.00238352,(8_0_5:0.00197330,(8_0_2:0.00056880,8_0_3:0.00088208):0.00002165):0.00006823):0.00124901,8_0_6:0.00470919):0.02319330):0.06272689,((13_0_1:0.00209613,(((((13_0_5:0.00046534,13_0_4:0.00044973):0.00166470,(13_0_8:0.00070046,13_0_2:0.00081136):0.00124066):0.00052460,13_0_0:0.00304197):0.00056399,13_0_9:0.00498720):0.00019024,13_0_7:0.00281402):0.00331077):0.01703909,(13_0_3:0.00020949,13_0_6:0.00016405):0.05143653):0.10840981):0.00027738,((7_0_1:0.00684080,((7_0_8:0.00792805,((7_0_9:0.00126737,7_0_4:0.00064067):0.00040867,(7_0_0:0.00143905,(7_0_7:0.00129915,7_0_2:0.00058202):0.00166740):0.00027271):0.00168027):0.00008305,(7_0_6:0.00098789,7_0_3:0.00349486):0.00153264):0.00615795):0.01254564,7_0_5:0.02142654):0.06126627):0.07015613,(((6_0_6:0.00671253,6_0_5:0.01255973):0.03919364,(((6_0_2:0.00252995,6_0_9:0.00471559):0.00152925,((6_0_8:0.00368768,(6_0_1:0.00188449,6_0_3:0.00253546):0.00201445):0.00003823,6_0_4:0.00326287):0.00362463):0.00038478,(6_0_7:0.00004349,6_0_0:0.00001824):0.00513377):0.04395419):0.02720758,(((((((14_0_3:0.00082557,14_0_4:0.00038439):0.00041210,14_0_7:0.00123920):0.00194239,14_0_6:0.00245995):0.02028979,((11_0_7:0.00327617,((11_0_5:0.00062345,(11_0_0:0.00118483,11_0_4:0.00163430):0.00007936):0.00321975,(11_0_2:0.00225643,(11_0_6:0.00246596,11_0_9:0.00232677):0.00080036):0.00106526):0.00097705):0.00881582,(11_0_8:0.01713929,(11_0_3:0.00000450,11_0_1:0.00000374):0.00870113):0.00056785):0.01126300):0.01162687,((14_0_5:0.00327415,(14_0_8:0.00392861,14_0_2:0.00353180):0.00180547):0.00845398,((14_0_9:0.00062448,14_0_1:0.00070956):0.00013522,14_0_0:0.00057132):0.00373074):0.02859231):0.01115982,(((9_0_4:0.00413424,(9_0_8:0.00126677,((9_0_5:0.00059404,(9_0_6:0.00009690,9_0_9:0.00014532):0.00065304):0.00007144,9_0_2:0.00076075):0.00088002):0.00299074):0.00889995,9_0_7:0.00893778):0.01022216,((9_0_0:0.00022035,9_0_3:0.00018099):0.00862480,9_0_1:0.00373150):0.01475155):0.00776081):0.03440363,((((3_0_1:0.00015117,3_0_8:0.00012794):0.00069747,3_0_3:0.00151001):0.00502167,(((3_0_5:0.00230239,((3_0_4:0.00082088,3_0_6:0.00071349):0.00092412,3_0_9:0.00080160):0.00082373):0.00307832,3_0_2:0.00567380):0.00123145,(3_0_0:0.00431529,3_0_7:0.00493331):0.00278778):0.00785564):0.02720795,((((2_0_6:0.00192766,(2_0_5:0.00114706,2_0_1:0.00064880):0.00048779):0.00032989,(2_0_2:0.00017495,2_0_9:0.00035555):0.00122088):0.00163839,(2_0_4:0.00311391,2_0_7:0.00240663):0.00172115):0.01650850,(2_0_8:0.00742120,(2_0_0:0.00257877,2_0_3:0.00247463):0.00168177):0.00865197):0.00504472):0.02661771):0.15374867):0.05134455):0.03229286):0.36124755,(((18_0_3:0.00053431,18_0_2:0.00051828):0.01839977,(((18_0_5:0.00311628,18_0_6:0.00549630):0.00137404,(18_0_4:0.00022270,18_0_0:0.00014495):0.00793843):0.01109548,(18_0_7:0.00125179,(18_0_9:0.00094362,(18_0_1:0.00047275,18_0_8:0.00054263):0.00024812):0.00020591):0.01874985):0.01332729):0.56704211,(19_0_7:0.03999783,((19_0_0:0.00351811,(((19_0_5:0.00015086,19_0_3:0.00016841):0.00016776,19_0_4:0.00019374):0.00379738,19_0_8:0.00162242):0.00113733):0.00066796,(((19_0_2:0.00094584,19_0_9:0.00072923):0.00030441,19_0_1:0.00135280):0.00248053,19_0_6:0.00362913):0.00151493):0.02010875):0.70599156):0.01271553):0.66876484);
[TREE] T09 (0_0_0:1.36752464,((((((19_0_4:0.00174057,(19_0_1:0.00038727,(19_0_8:0.00038421,19_0_7:0.00131067):0.00007744):0.00222695):0.00180671,((19_0_9:0.00327482,19_0_3:0.00286722):0.00002861,19_0_5:0.00749846):0.00067309):0.01117883,19_0_6:0.00646563):0.00009229,(19_0_2:0.00451605,19_0_0:0.00213166):0.01500205):0.16280295,(((18_0_0:0.00408644,18_0_1:0.00639249):0.00200028,((18_0_6:0.00172254,(18_0_8:0.00007787,18_0_4:0.00007622):0.00155745):0.00072038,(18_0_2:0.00152131,18_0_9:0.00438717):0.00079865):0.00193795):0.02982408,((18_0_5:0.00659710,18_0_7:0.00457588):0.01251020,18_0_3:0.01015223):0.04517977):0.34630189):0.01545285,((((((((17_0_1:0.00873271,(17_0_0:0.01476156,(17_0_5:0.00056804,17_0_6:0.00060638):0.01724353):0.00005920):0.03688419,((17_0_4:0.00038992,17_0_9:0.00047924):0.00509903,(17_0_7:0.00256738,(17_0_2:0.00153173,(17_0_8:0.00002170,17_0_3:0.00000866):0.00289063):0.00089630):0.00142289):0.01288550):0.09249563,((((1_0_4:0.00024056,1_0_9:0.00033018):0.00154374,1_0_2:0.00077566):0.00688359,((1_0_6:0.00094709,1_0_1:0.00119701):0.00063980,(1_0_3:0.00039220,1_0_0:0.00079712):0.00166888):0.00254014):0.00776941,(1_0_8:0.00771485,(1_0_5:0.00333623,1_0_7:0.00339950):0.00332077):0.00726281):0.04980840):0.00014166,((((10_0_0:0.00327667,(10_0_9:0.00020831,(10_0_5:0.00016728,10_0_7:0.00017088):0.00049275):0.00197236):0.00257253,((10_0_1:0.00079611,10_0_6:0.00036478):0.00211697,10_0_3:0.00578291):0.00118003):0.00294009,(10_0_8:0.00775640,(10_0_4:0.00332390,10_0_2:0.00204493):0.00593378):0.00333212):0.09503534,((((12_0_9:0.00487461,12_0_5:0.00826584):0.00282010,(((12_0_3:0.00183879,12_0_6:0.00183700):0.00044567,12_0_1:0.00127193):0.00107114,(12_0_7:0.00111418,12_0_4:0.00087422):0.00047266):0.00812043):0.02010175,(12_0_2:0.01287166,(12_0_0:0.00120388,12_0_8:0.00338013):0.01525280):0.01488540):0.04941313,(((15_0_9:0.00040423,15_0_6:0.00030438):0.02230754,(((15_0_1:0.00267903,15_0_7:0.00132135):0.00081414,15_0_0:0.00190368):0.00698340,((15_0_4:0.00037422,15_0_3:0.00004396):0.00708484,((15_0_8:0.00023528,15_0_5:0.00009056):0.00034971,15_0_2:0.00050482):0.00799953):0.00305567):0.02306858):0.02271924,((4_0_4:0.00612382,(((4_0_1:0.00456653,(4_0_7:0.00123149,4_0_9:0.00132808):0.00134408):0.00075487,(4_0_6:0.00016875,4_0_0:0.00044413):0.00474739):0.00137039,(4_0_8:0.00204297,(4_0_5:0.00111655,4_0_3:0.00228715):0.00024608):0.00810711):0.00000910):0.01099154,4_0_2:0.02345039):0.03785912):0.01102051):0.00962600):0.02021730):0.06323560,(((((16_0_9:0.00086389,16_0_0:0.00149577):0.00040754,16_0_7:0.00086838):0.00135770,(16_0_5:0.00039432,16_0_6:0.00053048):0.00072864):0.00134481,(16_0_3:0.00096130,16_0_1:0.00087055):0.00227188):0.01803760,(16_0_2:0.00517087,(16_0_8:0.00048052,16_0_4:0.00132775):0.00157035):0.00718969):0.17204515):0.11862751,(5_0_0:0.02465095,((5_0_4:0.01039364,((5_0_9:0.00092572,5_0_7:0.00217789):0.00223413,(5_0_3:0.00041112,(5_0_5:0.00044319,(5_0_2:0.00007287,5_0_8:0.00003850):0.00067527):0.00097948):0.00081702):0.00496166):0.00019172,(5_0_6:0.00024109,5_0_1:0.00076766):0.00601121):0.00914933):0.18464132):0.02007720,((((13_0_6:0.00082573,13_0_1:0.00085262):0.00421471,13_0_9:0.00398565):0.02314929,((13_0_5:0.01569808,13_0_2:0.03597119):0.00234081,((13_0_8:0.00019142,13_0_7:0.00019523):0.00243344,(13_0_0:0.00300221,(13_0_4:0.00052506,13_0_3:0.00089827):0.00252536):0.00291659):0.01478663):0.00217958):0.15021113,((((7_0_6:0.00642926,7_0_4:0.00345010):0.00113812,7_0_5:0.00362470):0.03217196,(((7_0_9:0.00372688,7_0_8:0.00337814):0.00285306,(7_0_1:0.00213509,7_0_2:0.00116934):0.01028724):0.00012855,((7_0_7:0.00088369,7_0_0:0.00059185):0.00180448,7_0_3:0.00218181):0.00391140):0.01630390):0.03805815,(((8_0_6:0.00084770,8_0_0:0.00114222):0.00228647,(8_0_1:0.00187538,(8_0_9:0.00331299,(8_0_2:0.00523521,(8_0_5:0.00081659,8_0_4:0.00145813):0.00136124):0.00031695):0.00107150):0.00116085):0.00881958,(8_0_7:0.01652189,(8_0_3:0.00407567,8_0_8:0.00266676):0.00573953):0.00334907):0.05581452):0.05704605):0.15539555):0.01014097,((((((9_0_5:0.00081709,(9_0_1:0.00066585,9_0_4:0.00154165):0.00119777):0.00392521,(9_0_7:0.00287270,9_0_0:0.00399171):0.00187227):0.00746329,(9_0_6:0.00051001,9_0_2:0.00072244):0.01351125):0.01012880,((9_0_8:0.00179331,9_0_9:0.00115704):0.00075832,9_0_3:0.00419613):0.01598802):0.02686978,((((3_0_8:0.00327531,((3_0_6:0.00084055,3_0_4:0.00139756):0.00028272,3_0_3:0.00140348):0.00003173):0.00760641,(((2_0_5:0.00038558,2_0_1:0.00091479):0.00059539,(2_0_4:0.00078757,2_0_9:0.00075386):0.00231637):0.00336753,(2_0_8:0.00093785,(2_0_2:0.00008228,2_0_7:0.00015592):0.00014669):0.01487922):0.00343685):0.03120375,(((3_0_0:0.00277206,(3_0_9:0.00005187,3_0_5:0.00013162):0.00378700):0.00091921,(3_0_1:0.00051394,(3_0_2:0.00037513,3_0_7:0.00037870):0.00000147):0.00381356):0.01439075,((2_0_3:0.00219774,2_0_6:0.00100163):0.00496395,2_0_0:0.01578019):0.01414280):0.02897149):0.02869982,((((14_0_9:0.00201951,((14_0_1:0.00071170,(14_0_0:0.00048268,14_0_8:0.00034581):0.00137024):0.00003263,14_0_6:0.00148931):0.00100738):0.00048786,((14_0_5:0.00066043,14_0_7:0.00073155):0.00105392,(14_0_3:0.00007599,14_0_2:0.00003958):0.00062341):0.00156026):0.00107409,14_0_4:0.00534197):0.00906810,(11_0_2:0.00914864,((11_0_9:0.00545847,11_0_3:0.00436338):0.00600712,(((11_0_7:0.00115020,11_0_5:0.00129854):0.00160965,(11_0_1:0.00027536,11_0_6:0.00044774):0.00066058):0.00516025,((11_0_0:0.00007218,11_0_4:0.00017803):0.00547453,11_0_8:0.00466984):0.00029607):0.00183755):0.00784689):0.00462022):0.06491091):0.04160951):0.06469737,((6_0_5:0.00336020,(6_0_7:0.00208355,(6_0_3:0.00118335,((6_0_6:0.00071934,6_0_8:0.00054474):0.00000445,(6_0_4:0.00016557,6_0_9:0.00021369):0.00039981):0.00039599):0.00065282):0.00027310):0.01077535,((6_0_0:0.00112940,6_0_1:0.00146073):0.00198995,6_0_2:0.00185653):0.00630626):0.06733517):0.29318272):0.17827392):0.13932747);
[TREE] T10 (((((6_0_4:0.01176904,((((6_0_1:0.00042615,(6_0_0:0.00004165,6_0_3:0.00017439):0.00047600):0.00054977,6_0_5:0.00088259):0.00055159,(6_0_8:0.00131117,(6_0_9:0.00039797,6_0_6:0.00048999):0.00171830):0.00027367):0.00338246,(6_0_7:0.00063659,6_0_2:0.00074896):0.01293008):0.00356061):0.07004926,(((((11_0_8:0.02214877,(11_0_9:0.00947802,(11_0_5:0.00453059,((11_0_3:0.00009088,11_0_1:0.00017261):0.00639785,(11_0_7:0.00026786,11_0_4:0.00043424):0.00315595):0.00147000):0.00074650):0.00243888):0.00337497,(((14_0_6:0.00007381,14_0_0:0.00004397):0.00108104,14_0_1:0.00126779):0.02154662,((14_0_7:0.00268124,(14_0_8:0.00041626,14_0_9:0.00164819):0.00180707):0.00105522,((14_0_5:0.00061450,14_0_3:0.00095703):0.00011741,14_0_2:0.00082744):0.00233684):0.01959816):0.00816335):0.00523072,(14_0_4:0.01240549,((11_0_0:0.00067866,11_0_6:0.00048908):0.00505843,11_0_2:0.00062987):0.00603934):0.00745945):0.00448202,((9_0_9:0.00513315,((9_0_3:0.00069575,9_0_6:0.00184293):0.00161479,(((9_0_0:0.00013162,9_0_2:0.00010829):0.00011289,(9_0_4:0.00009800,9_0_5:0.00019532):0.00005670):0.00159532,9_0_1:0.00202546):0.00057235):0.00061898):0.00126752,(9_0_7:0.00029854,9_0_8:0.00043661):0.00796085):0.02929647):0.01905107,(((3_0_5:0.01483314,(3_0_6:0.00129093,3_0_1:0.00069189):0.00414189):0.01613612,((3_0_3:0.00172988,((3_0_4:0.00021736,3_0_2:0.00026380):0.00100751,(3_0_9:0.00056703,3_0_0:0.00083183):0.00102495):0.00023541):0.00778069,(3_0_7:0.00038978,3_0_8:0.00056568):0.00885340):0.01813233):0.00444573,((((2_0_7:0.00147189,(2_0_0:0.00058257,2_0_8:0.00048457):0.00157859):0.00050597,2_0_5:0.00177755):0.00324124,2_0_6:0.00275217):0.00396091,((2_0_2:0.00022842,2_0_9:0.00022344):0.00292489,((2_0_4:0.00050534,2_0_1:0.00062565):0.00065014,2_0_3:0.00119085):0.00081400):0.00875493):0.00828054):0.03101965):0.02215240):0.08088421,(((((((10_0_9:0.00220485,((10_0_4:0.00078884,10_0_8:0.00154891):0.00006201,10_0_3:0.00172795):0.00026341):0.00543981,(((10_0_1:0.00037738,10_0_2:0.00023679):0.00453423,(10_0_0:0.00084555,10_0_5:0.00067264):0.00495382):0.00004597,(10_0_6:0.00011615,10_0_7:0.00010048):0.00147841):0.00050551):0.06129474,((17_0_2:0.01184687,(17_0_0:0.00445933,(17_0_8:0.00091057,(17_0_3:0.00004283,17_0_1:0.00005989):0.00014053):0.00244233):0.00326123):0.01570789,(((17_0_6:0.00008605,17_0_9:0.00012414):0.00407252,17_0_4:0.00877702):0.00796309,(17_0_5:0.00205010,17_0_7:0.00139448):0.01026567):0.01460337):0.02745736):0.00258850,((((1_0_7:0.00206864,(1_0_4:0.00178145,1_0_8:0.00087226):0.00729985):0.00013414,((1_0_2:0.00009673,1_0_5:0.00009537):0.00081854,(1_0_1:0.00009031,1_0_9:0.00016632):0.00028268):0.00293862):0.01301490,(1_0_6:0.00053337,(1_0_0:0.00032699,1_0_3:0.00069053):0.00003182):0.01270802):0.02943345,(((4_0_0:0.02012876,(((4_0_3:0.00008958,4_0_8:0.00041098):0.00309384,(4_0_7:0.00700944,4_0_6:0.00394949):0.00398945):0.00016746,((4_0_4:0.00083655,(4_0_9:0.00000491,4_0_1:0.00000499):0.00116809):0.00594154,(4_0_5:0.00445649,4_0_2:0.00386999):0.00098949):0.00603693):0.01406194):0.00757455,((12_0_4:0.00122895,(12_0_6:0.00041953,12_0_9:0.00053844):0.00049462):0.00304446,((12_0_1:0.00095571,(12_0_8:0.00008065,12_0_2:0.00014756):0.00069930):0.00655854,(12_0_0:0.00114948,(12_0_3:0.00029369,(12_0_5:0.00003200,12_0_7:0.00002365):0.00027486):0.00056147):0.00436148):0.00168988):0.02819823):0.00466765,((15_0_4:0.00108284,((15_0_7:0.00007385,15_0_6:0.00008068):0.00015673,15_0_9:0.00017376):0.00138856):0.00999157,(((15_0_1:0.00009841,15_0_3:0.00025477):0.00223614,(15_0_0:0.00077927,15_0_5:0.00259171):0.00050297):0.00280152,(15_0_2:0.00037924,15_0_8:0.00048114):0.01210347):0.00048398):0.01943682):0.01685396):0.00007057):0.03445737,(((16_0_7:0.00043389,16_0_5:0.00075955):0.00038533,((16_0_4:0.00016866,(16_0_1:0.00029641,16_0_0:0.00018979):0.00005918):0.00062364,16_0_8:0.00056100):0.00099235):0.00840954,(((16_0_3:0.00168591,16_0_2:0.00371811):0.00394889,16_0_9:0.00357412):0.00015460,16_0_6:0.00202124):0.00172550):0.21613907):0.06175688,(((5_0_8:0.00072729,5_0_1:0.00120819):0.00080764,5_0_4:0.00153423):0.00205251,(5_0_7:0.00149627,(((5_0_5:0.00104360,(5_0_9:0.00013379,5_0_6:0.00019954):0.00130309):0.00002106,5_0_0:0.00048268):0.00136339,(5_0_3:0.00079111,5_0_2:0.00050595):0.00129513):0.00118255):0.00001699):0.08373815):0.02342214,((((((8_0_0:0.00260870,(8_0_1:0.00150051,8_0_6:0.00044755):0.00157821):0.00124365,(8_0_7:0.00021988,8_0_9:0.00014213):0.00404562):0.00045249,8_0_5:0.00578463):0.00204816,((8_0_4:0.00064280,(8_0_3:0.00006903,8_0_2:0.00009906):0.00081473):0.00123987,8_0_8:0.00161675):0.00410641):0.05529171,(((7_0_3:0.00031247,7_0_4:0.00071793):0.00832989,(7_0_5:0.00291210,7_0_7:0.00151893):0.00133140):0.00000726,(((7_0_6:0.00251530,7_0_9:0.00413880):0.00399977,((7_0_0:0.00112109,7_0_8:0.00078176):0.00148664,7_0_1:0.00461281):0.00202478):0.00104642,7_0_2:0.01118829):0.00024718):0.05289026):0.04769866,(((13_0_8:0.00064424,(((13_0_2:0.00077104,13_0_3:0.00063911):0.00024600,13_0_5:0.00095702):0.00035389,13_0_1:0.00175169):0.00042471):0.00688521,(((13_0_6:0.00030101,13_0_4:0.00035619):0.00133029,13_0_9:0.00126140):0.00785850,13_0_0:0.00808180):0.00394003):0.00521832,13_0_7:0.03205528):0.07389412):0.06550431):0.00375671):0.08423665,(((((((18_0_9:0.00095705,18_0_6:0.00048541):0.00017087,18_0_8:0.00097750):0.00089350,18_0_1:0.00156491):0.00414682,((18_0_4:0.00006749,18_0_3:0.00004971):0.00022613,18_0_7:0.00038636):0.00609492):0.00370146,18_0_2:0.00461864):0.00395179,(18_0_5:0.00007139,18_0_0:0.00005931):0.01673211):0.27734936,((((19_0_0:0.00043160,19_0_9:0.00060952):0.00003914,19_0_4:0.00024448):0.01188344,19_0_8:0.03440135):0.00977232,((19_0_6:0.00140572,19_0_2:0.00098301):0.00494695,((19_0_7:0.00190080,19_0_3:0.00145314):0.00146322,(19_0_1:0.00020985,19_0_5:0.00019921):0.00278444):0.00102377):0.03600772):0.33514257):0.00707081):0.18881170,0_0_0:0.52027157);

[PARTITIONS] csSimUnlinked_01 [T01 csSim_unlinked_1 500]
[PARTITIONS] csSimUnlinked_02 [T02 csSim_unlinked_2 500]
[PARTITIONS] csSimUnlinked_03 [T03 csSim_unlinked_3 500]
[PARTITIONS] csSimUnlinked_04 [T04 csSim_unlinked_4 500]
[PARTITIONS] csSimUnlinked_05 [T05 csSim_unlinked_5 500]
[PARTITIONS] csSimUnlinked_06 [T06 csSim_unlinked_6 500]
[PARTITIONS] csSimUnlinked_07 [T07 csSim_unlinked_7 500]
[PARTITIONS] csSimUnlinked_08 [T08 csSim_unlinked_8 500]
[PARTITIONS] csSimUnlinked_09 [T09 csSim_unlinked_9 500]
[PARTITIONS] csSimUnlinked_10 [T10 csSim_unlinked_10 500]

[EVOLVE] csSimUnlinked_01 1 data_01
csSimUnlinked_02 1 data_02
csSimUnlinked_03 1 data_03
csSimUnlinked_04 1 data_04
csSimUnlinked_05 1 data_05
csSimUnlinked_06 1 data_06
csSimUnlinked_07 1 data_07
csSimUnlinked_08 1 data_08
csSimUnlinked_09 1 data_09
csSimUnlinked_10 1 data_10
